010000030020901807068240000301000000806075900070630050090004005007020048504360201,915786432423951867768243519351492786846175923279638154692814375137529648584367291
020030089007201000300869010450000360080500092000080704000304021600070040910005003,126437589897251436345869217459712368783546192261983754578394621632178945914625873
010000045360507080200031700001600509950040260600000800007080003500900000430060021,719826345364597182285431796841672539953148267672359814197284653526913478438765921
528010300900042070010800000041700209005190700600008035070060410430900008002000060,528617394963542871714839652341756289285193746697428135879265413436971528152384967
620003000800050070007000651050970100940600080000080540003140002064208900082009730,625713498819456273437892651358974126941625387276381549593147862764238915182569734
300076450910450000000800090006100080031007004050020007070009503290000018000685200,382976451917452836564831792726194385831567924459328167678219543295743618143685279
047500002200038910190000040000046701000300060005710800900050000670200305030060184,847591632256438917193672548329846751718325469465719823984153276671284395532967184
000009400000784060502006078016800207000010000004507003600001045025000310830090006,768259431193784562542136978916843257357912684284567193679321845425678319831495726
700800000130072000005601009020347500009060300004205870210009030000500000608000014,792854163136972458485631729821347596579168342364295871217489635943516287658723914
000109000016070000900060302400800520009410700082630040030080007200050634075020901,523149876816273495947568312461897523359412768782635149134986257298751634675324981
070300400000058100910740068600800009080205700200091036030000020705600040194003000,578316492462958173913742568641837259389265714257491836836174925725689341194523687
002064000090000170867000000200000900000530018589070603004002000600010395073050804,312764589495823176867195432231648957746539218589271643954382761628417395173956824
809001060030009401002350007100600000708030605005480200003024000600910052000700890,879241563536879421412356987124695738798132645365487219983524176647918352251763894
062500030400708009000013600007920010500600804940000200700490380010050072008030006,162549738435768129879213645687924513523671894941385267756492381314856972298137456
005060200080201400370980500908000003001400689030000150100609070097000040204300010,415763298689251437372984561948516723521437689736892154153649872897125346264378915
050730000720009000001004830035100490097000000800600500040078200300500968100362050,458736129723819645961254837235187496697425381814693572546978213372541968189362754
506090000000030740470000006000760201890001007060028030040802910209000000783004560,536497128928136745471285396354769281892341657167528439645872913219653874783914562
005700010400906080070004236092080400000019703040560000800000000607203008300001059,265738914431926587978154236192387465586419723743562891819645372657293148324871659
100800009650070300300200070000604200070005018000317950090000001040568000038049520,127853469659471382384296175915684237473925618862317954596732841241568793738149526
080009000030026450000070230005703006068040970009050043140080060000002000920004301,582439617731826459694175238415793826368241975279658143143987562856312794927564381
005060800100000702903701040806203004040009005001400300000800060200617009000940180,725364891164598732983721546876253914342189675591476328419835267238617459657942183
409053200300800700026940000082010005900000800705680430008701009060005001003000540,479153268351826794826947153682314975934572816715689432548731629267495381193268547
009307500040610820630000090008003210900050080010400305560002000300800400024106007,189327546745619823632584791458763219973251684216498375567942138391875462824136957
006020140900003057070000800180502900004100003003067500608000300050084070021009006,836725149912843657475916832187532964564198723293467518648271395359684271721359486
010000206703090054840070000001800000200500617600004083008406900009003105036010000,915348276763291854842675391351867429284539617697124583178456932429783165536912748
900030000064007091050906070070000206003052017009100430100040060080520000400800753,917435628364287591258916374571394286843652917629178435135749862786523149492861753
890000540076014000100529000008000000050008126960070003240003900003065400000007010,892736541576814239134529678328651794457398126961472853245183967713965482689247315
000710020680400073007003500205004910400175060008090000300600008941000200000309400,534718629689452173127963584265834917493175862718296345352641798941587236876329451
470026008100080020038105060000674900040000003607910080002040017019800500500000030,475326198196487325238195764823674951941258673657913482362549817719832546584761239
008209050002058901007100400200360005400007060071040008000503000090610007004082603,148279356362458971957136482289361745435827169671945238726593814893614527514782693
405380100007240600600000003000030407570100092002900516090000000103007800046821000,425386179317249658689715243961532487574168392832974516298453761153697824746821935
061090500040002830300570010100830000008005970420600305080050240000900006704300100,861493527547162839392578614175839462638245971429617385986751243213984756754326198
030008700602000058400090000070200900050006034300581002710840006004003020805760300,531428769692317458487695213176234985258976134349581672713842596964153827825769341
600004800801600000507900301109030450003520010000090708010008609000275000024000007,632714895891653274547982361179836452483527916256491738715348629968275143324169587
080074000105000349020000010500000806000963070017080030201807000308400290000530600,983174562175628349426359718539741826842963175617285934261897453358416297794532681
009016008084209000300000007051003064006002009200050380015900040020400076700805900,579316428184279635362548197851793264436182759297654381615927843928431576743865912
020034000007500401050012836006008200000953070030040005204605007805001900000080010,621834759387569421459712836596178243142953678738246195214695387875321964963487512
700300861000500792016800000000040003280000010003267050000030406070401009350029000,725394861438516792916872345569148273287953614143267958891735426672481539354629187
040100003000002500026950008001200906703890024092010000300605040000000705870400609,547168293938742561126953478481237956753896124692514387319675842264389715875421639
000070050180002004609000800008004300510700042023005010000409070030250006074083001,342876159187592634659341827798124365516738942423965718865419273931257486274683591
013950040046000070509402031000010002600004080700300690020791000000800320980006500,813957246246183975579462831438619752692574183751328694325791468167845329984236517
700000020910806040603001900357004006802910000040050078200700410000300007000098350,784539621915826743623471985357284196862917534149653278238765419591342867476198352
051004600730000980000000000002048703004003810800201090960002070020056040100380506,251894637736125984489637251512948763694573812873261495965412378328756149147389526
040206000000310208010870096000400009803100405007089600609002503100030070702050000,348296157976315248215874396561423789893167425427589631689742513154638972732951864
009004007800256000300100520004317800200960010080005300005000209400080670610790030,529834167871256943346179528964317852253968714187425396735641289492583671618792435
700640001930578002000030908400091800802000700070000304580210603010005000006300045,728649531931578462645132978453791826862453719179826354587214693314965287296387145
700003000012050000800210064093600500100080042006470019504030090000792001070006080,749863125612954837835217964493621578157389642286475319524138796368792451971546283
000000001007045290926013000080006904045072008000000703001380500090020807074090600,458269371137845296926713485782136954345972168619458723261387549593624817874591632
820400970003700000000010008900020500406008130000506080700060041080090000105034200,821453976693782415547619328978321564456978132312546789739265841284197653165834297
001904000900030680000052017630000409050000008082705003200040500306070000590801076,761984235925137684843652917637218459159463728482795163278346591316579842594821376
209058060740006009035410200083000021000903504020070000071002300050000090400080607,219758463748236159635419278983564721167923584524871936871692345356147892492385617
070000690940107000085040200600015802000930140050700003008000009463200050002371080,271853694946127538385649217639415872827936145154782963718564329463298751592371486
300052600070000080204100300106020040400003759000098000700340060902075001003060905,389752614671934582254186397196527843428613759537498126715349268962875431843261975
800700024250036000000090800009003060700504010341000072065010003000260940070008100,893751624254836791617492835529173468786524319341689572465917283138265947972348156
001000009000370084670090200708900050005280901310406000040800000203000065090132700,831624579952371684674598213728913456465287931319456827147865392283749165596132748
050304180000060003009187000060900000207000350004005098070000802410608070520019006,652394187781562943349187265865931724297846351134275698976453812413628579528719436
090100207250007430080004005600300040047806000008005901500030026030069070100270003,496153287251687439783924615615392748947816352328745961579431826832569174164278593
800010200645903080003070046900002004084600500010305000200800700070000469061009003,897416235645923187123578946956182374384697512712345698239864751578231469461759823
000040080406708509307290400004000670709580002010000003850400721000030090001800000,195346287426718539387295416534921678769583142218674953853469721642137895971852364
004003805350001490069000000040200081000306002700008304520090603007654100080000700,274963815358721496169485237643279581815346972792518364521897643937654128486132759
080050046010900200704163005000010700090400530006008002200009087430002050070630900,983257146615984273724163895842315769197426538356798412261549387439872651578631924
007003200012950400896100070030708020000004800000290001500000006901030040620800590,457683219312957468896142375135768924269314857748295631573429186981536742624871593
070000090000706120205003400750230080010500009008041300061005002300102860090008704,176824593439756128285913476754239681613587249928641357861475932347192865592368714
000200008603054900470309000020007500900610430810030000000000600100800279009745000,591276348683154927472389165326497581957618432814532796738921654145863279269745813
010900002040708900005034078001070005900000847000600010200050093706402500000086000,817965432342718956695234178421879365963521847578643219284157693736492581159386724
805400090030170204100003000004009800063005017700040020090030000506800301008624005,875462193639178254142953768254719836963285417781346529497531682526897341318624975
305080700040903058090010000020600000701009360000050124003826090019300800052004070,365482719147963258298517436524631987781249365936758124473826591619375842852194673
029006000008000406000193070005300610300809507004007802200504003080700005051000004,729486351138275496546193278875342619362819547914657832297564183483721965651938724
060009180000701000010503709702390600048002905000100000003020060285000040070405008,567249183329781456814563729752398614148672935936154872493827561285916347671435298
006701308040000102700980006001490000852106007000000030300600000064005820090000503,526741398948563172713982456631497285852136947479258631385629714164375829297814563
050200003031070800800006090200040360096050007000007489000085020970004000040302100,759218643631479852824536791287941365496853217315627489163785924972164538548392176
950602000306780010001043000479300620000100008000029500020006370004000090803504100,957612483346785219281943756479358621532167948618429537125896374764231895893574162
006850004037600000100009300300140006005030208024000900500700813800216005900005000,296853174437621589158479362389142756615937248724568931562794813873216495941385627
605002308473500100000100006800005700009460801500090002900320085100809030002000004,615972348473586129298134576864215793729463851531798462947321685156849237382657914
001300008780650042000004609008003700000049050150200083090020436460070100502000000,641392578789651342235784619928513764376849251154267983897125436463978125512436897
290008600840071003000630000004800907520000000007069010000000032105206009900004805,293458671846971523751632498614823957529147386387569214468795132135286749972314865
402005060019004300507023000200670080001008007900001643380500470005400821000900000,432195768819764352567823914243679185651348297978251643386512479795436821124987536
003000060049002507000917020000040700702009000060200015024000003080560091015008400,273485169149632587856917324591846732732159648468273915624791853387564291915328476
000060014030020059020081700008009600106800402075300000502107006009400381000000000,857963214631724859924581763348219675196875432275346198582137946769452381413698527
150000002043070006900048730000400069030560000081003500000000901500609407702800050,157396842843275196926148735275481369439567218681923574364752981518639427792814653
500096300307008640020400008009230005070009000108000069940010082006050700000004130,584196327397528641621473958469231875275869413138745269943617582816352794752984136
098030000500009700007000104070050060200400308356018002480500200005001000000283009,198734625542169783637825194874352961219476358356918472483597216925641837761283549
893000060005043010700280000054100209100000380000627005006314007002009000009070054,893751462265943718741286593654138279127495386938627145586314927472569831319872654
050380200009005040132006050000018607970000000208040035063020401400100009800000360,754381296689275143132496758345918627976532814218647935563829471427163589891754362
302400106901800042050000930708930060020040005000102480010207050009006000005010800,382459176961873542457621938748935261126748395593162487814297653239586714675314829
000400120900080074003010005030670010782000046004098530001005080240061000670309000,857436129916582374423917865539674218782153946164298537391745682245861793678329451
300260004092003700450900080003001005041008620607000403200739008065024000000050001,378265194192483756456917382923641875541378629687592413214739568865124937739856241
000870009030060147206000530020050900500041086804900000009030701140005062000106003,415873629938562147276419538321658974597341286864927315689234751143795862752186493
000020708400900030518004602103008000006100050090032470007003200080000019200495300,639521748472986135518374692143758926726149853895632471957813264384267519261495387
047580006008400020000609340030026890259013700000050000700208009560000201080040003,347582916698431527125679348431726895259813764876954132713268459564397281982145673
020900000305000100046085307090700406104360800030028000000017090000506704508200603,721943568385672149946185327892751436154369872637428951463817295219536784578294613
080760043640005207100002000208030900060908000070604005005000820000571030419000070,582769143643815297197342658258137964364958712971624385735496821826571439419283576
300000500000009104020084000080001600600007002541200030010600709758040060902100308,394712586875369124126584973287431695639857412541296837413628759758943261962175348
070020000804065009602000870050000340900800020003010008001490703407100500209030600,375928461814765239692341875158279346946853127723614958561492783437186592289537614
200000051001700604090804302046050908530000010007400000008000006903142700050630000,274963851381725694695814372146357928539286417827491563418579236963142785752638149
090000502217090003300000010001063005060048090009510047745200100080006200000304080,698431572217895463354627918471963825562748391839512647745289136983176254126354789
009040603000810400520007090070008006608430000001500038205700004060000100803024950,189245673736819425524367891372198546658432719941576238295781364467953182813624957
000000016002014000350060809046000390100873020207000500018340000700200405000059070,974538216682914753351762849846125397195873624237496581518347962769281435423659178
063000001712003008000007900096102400005900070204008600800000204431006090007080053,963845721712693548548217936396172485185964372274358619859731264431526897627489153
098706400040009600000520700957000308060051090023008000430090002600007004000803165,598736421742189653316524789957462318864351297123978546431695872685217934279843165
