406000002070300090300569001000003200008670540059040007020700604100002980805100003,496817352571324896382569471714953268238671549659248137923785614167432985845196723
020000080000410600003798401208600010100025040050000970802056007006000030300149000,421563789789412653563798421298674315137925846654831972842356197916287534375149268
040060100050001027708095003000000200406578010900040070000006050003029480080100036,342867195659431827718295643875913264426578319931642578194386752563729481287154936
700036004003048015600290003069400308800103000050000072002000096006007500900085040,718536924293748615645291783169472358827153469354869172572314896486927531931685247
050910000062004080170080503008096054005000069300400701639700000000140200020003075,853917642962534187174682593718296354245371869396458721639725418587149236421863975
046010030970802050003070900002004705000300000080650001008041003010000894700509060,846915237971832456523476918362194785157328649489657321698241573215763894734589162
120006370070801905609000040050409003236700001000002600890100020000000004300285700,125946378473821965689573142751469283236758491948312657897134526512697834364285719
010720038500010900060900407008193040024000050600002003100000005907050620200084090,419726538573418962862935417758193246324867159691542873146279385987351624235684791
010003000900040703065200010004000008608079031001056040270100094000008006050600020,417963285982541763365287419594312678628479531731856942276135894149728356853694127
003000040020076005107430089009640007048200501300800000005002100030010670600089002,593128746824976315167435289259641837748293561316857924485762193932514678671389452
000450730820306500000007060000000800406270910308600007205000301600009004034801090,169452738827316549543987162972143856456278913318695427295764381681539274734821695
740000020080045037006970001000809000203060040090001065004600190108700300050003800,741386529982145637536972481465829713213567948897431265374658192128794356659213874
640700190800100002000005006560002480300050007009876205100680009002093000030004000,645728193873169542291345876567932481328451967419876235154687329782593614936214758
400010600023480500509000070900060087704100205001000000080509010007200004200070936,478915623623487591519623478952364187734198265861752349386549712197236854245871936
400203007509000003008170640607028000040960100085300002700010900006004508032050070,461293857579486213328175649617528394243967185985341762754812936196734528832659471
000302010800970000604005300703500602046000057900040080200400090017020005005016208,579362814831974526624185379783591642146238957952647183268453791317829465495716238
700015900043690082900003700001270006620100009000500004158960007090000620007084000,782415963543697182916823745431279856625148379879536214158962437394751628267384591
085030042000020017030006000500900006370500008029071400608204705007008900090150000,185739642964825317732416589541983276376542198829671453618294735457368921293157864
205000008030900040907310006000007089390020100700690250020000407800574002001060030,215746398638952741947318526152437689396825174784691253529183467863574912471269835
009034102002007084430501907506070000080000009010002530700060010800000200005903608,679834152152697384438521967526379841384156729917482536793268415861745293245913678
695800004000630570800000902030004000007120090219008007050010000700003645004200803,695872134142639578873541962536794281487125396219368457358416729721983645964257813
050840000123050000070006920280900601000260040001005007009008376004500180030007009,956842713123759864478136925285974631397261548641385297519428376764593182832617459
423000000009600730060201809708050103310800506000000080002189004005000901000074000,423798615189645732567231849798456123314827596256913487672189354845362971931574268
060093000400000008809060210020410506308000007500700400705906001000120370001000054,162893745453271968879564213927418536348652197516739482735946821684125379291387654
900070040000069208015003600503600091000000724241080030000200000709830005006054010,962578143437169258815423679573642891698315724241987536154296387729831465386754912
520000006710620380003000700200004060040009105095008030080503090601900040009410027,528397416714625389963841752237154968846239175195768234482573691671982543359416827
030702100940006800006090540000039007200500060000201304005400029061003080009080700,538742196942156873176398542654839217213574968897261354385417629761923485429685731
007090080100600007000430002039100800602000004580073190021005300000900540490086070,267591483143628957958437612739164825612859734584273196821745369376912548495386271
360800020000019000200060045930000007500047210001020608008071093050690700004500002,367854921845219376219763845932186457586347219471925638628471593153692784794538162
901060400860045000023070080000603029070008153500009600000100900200080004014200870,951862437867345291423971586148653729679428153532719648785134962296587314314296875
000006004403900180801000502120008000900300250007650908250103609030004000000270300,592816734473925186861437592125798463986341257347652918254183679739564821618279345
000003106000450928007002040600720000810005700045800063059000000000096030030071509,524983176361457928987162345693724851812635794745819263259348617178596432436271589
000504009006000080018300702150000804003070060409020500270031000090200108300946050,732584619946712385518369742157693824823475961469128573275831496694257138381946257
100430008000005060346200000000709100700050830520010096030908007052004900008060302,195436278287195463346287519863749125719652834524813796431928657652374981978561342
094030065010406280207010009000078000600950020705000003008000032400007500309601800,894732165513496287267815349932178456641953728785264913178549632426387591359621874
030050008021700059700800400480130070009000006160920005340098200000260307092001000,934652718821743659756819423485136972279485136163927845347598261518264397692371584
090000700700210040100036900029007608004500000000083054060400015012070890350600000,293854761786219543145736982529147638834562179671983254967428315412375896358691427
700900000950008030084500610000683900000170462001002007502006000360700500008040290,713964825956218734284537619427683951835179462691452387542896173369721548178345296
073090520200060041000008006400600000028034709100085030091020007006340810040507000,673491528285763941914258376439672185528134769167985234391826457756349812842517693
503702060060300104180000002307004001006500040920180507000049803200050090090600700,543712968762398154189465372357924681816573249924186537675249813231857496498631725
030000001102900000094570360026000890473080020000450000008700200060010009010006543,637248951152963478894571362526137894473689125981452637348795216265314789719826543
820001060605004310001900020069200700103850009400007600008000500900305070007009804,824531967695724318731968425569243781173856249482197653318472596946385172257619834
107400809090710020000060005940170308000900742008050906000000030015080600734002000,157423869896715423423869175942176358561938742378254916689541237215387694734692581
000028047019005600704600002057290001001003004040060800105000029900047108030000050,563128947219475683784639512857294361691853274342761895175386429926547138438912756
090100307700386040200050068030000082500004900816000070402600010000000506005037090,698142357751386249243759168934571682527864931816923475482695713379418526165237894
940500720000841000803000000100206003000090160054037090000970080219000050580000640,941563728725841936863729514198256473372498165654137892436975281219684357587312649
009004820320005100004706050010090003070000000208350097500000240030040060400819005,759134826326985174184726359615297483973468512248351697591673248837542961462819735
300020078504390006020068900078050090146200030000001000010000827090504001607000500,369125478584397216721468953278653194146289735953741682415936827892574361637812549
200908000300000704906130850040800900700010003695040200017000300000350021002600580,254978136381265794976134852143826975728519643695743218517482369869357421432691587
320806405405017060970000000600300890050400300003109052100705280700000006090024001,321896475485217963976543128617352894259468317843179652164735289732981546598624731
700000560030900001005800900002001400900302675608704020010050092060107050083400000,794213568836975241125846937372561489941382675658794123417658392269137854583429716
620003700007905048009160000700500406290000070050706210080400500064009003301000020,625843791137925648849167352718592436296314875453786219982431567564279183371658924
000750020098004007107020006410000803080009000960503040034100080020046170500090060,346751928298634517157928436415267893783419652962583741634175289829346175571892364
058040096006380000014009003000204050000000108002560004009002761073050002081000900,358147296926385417714629583837214659465793128192568374549832761673951842281476935
700003000190607280020000501400000392000800600007201050800000720006940000315060048,758123469194657283623489571481576392532894617967231854849315726276948135315762948
380041020007000036960000508190073450030050801400026090000080079500912000000004300,385641927247598136961237548196873452732459861458126793614385279573912684829764315
600003010030100700078590400200800903041060005000070080350980160702001090000400520,625743819439128756178596432267815943841369275593274681354982167782651394916437528
026090370905702040000800090450000800007010000082005930670000051040063000000001200,826194375915732648734856192459327816367918524182645937673289451241563789598471263
057900004802501070000306080049000000500000603170604205006830000000092400031007950,357928164862541379914376582649253817528719643173684295496835721785192436231467958
002080054014600072000070600900800003000100560280003107005010409300509006070040820,762981354814635972593274681951867243437192568286453197625718439348529716179346825
090700546007050000401802300080090005009637004200000017100305008000146000305008200,892713546637459182451862379784291635519637824263584917176325498928146753345978261
008002030307000916951000002042039100100628700000005063090060000804200070070400085,468912537327584916951376842642739158135628794789145263593867421814253679276491385
001009050285000600060000873030405090407003000098070100052307001709000040000691025,371869452285734619964152873136485297427913568598276134652347981719528346843691725
045000000920064507000003062870305001006000700000002049000720104019500083052100900,645217398923864517187953462874395621296481735531672849368729154719546283452138976
960035000000700839000800002040001000507400063802003500306097280000060105074020000,968235417425716839731849652643951728517482963892673541356197284289364175174528396
063040502900860003702001090008500031000007600000980405036400000150070080480010009,863749512915862743742351896678524931594137628321986475236498157159673284487215369
500070094000036000708400300413805002000001806802704000600050001001603450070002000,536278194149536728728419365413865972957321846862794513684957231291683457375142689
024065090800700000050930012070020601632590004405008000000307008001040005060000020,124865397893712546756934812978423651632591784415678239249357168381246975567189423
000000001345001006000463009050004028018050407200906030007000010002539084089200000,896725341345891276721463859953174628618352497274986135537648912162539784489217563
307009020000500000006381045908010030500890604700005001400960000020003080010070906,357649128184527369296381745948716532531892674762435891475968213629153487813274956
040800053000004270609030100001000960027501000000920000405070300200090841080206790,742819653318654279659732184531487962927561438864923517495178326276395841183246795
460000500020806700580090031004009020005130008800400000000010806070902050103060049,469371582321856794587294631714689325295137468836425917942513876678942153153768249
500003740600900080340078005106080590702600400080030206009020300010047020005001070,598163742627954183341278965136482597752619438984735216479826351813547629265391874
008000500053002049270035100145600000000080070860093004026040910000769003300200800,418976532653812749279435186145627398932584671867193254726348915581769423394251867
010020004053007060600000301900060803805340020000700050087590410040800900020130006,718623594453917268692458371971265843865349127234781659387596412146872935529134786
600108740000002090105640020004903102207060500009010470300400910781050060000000003,623198745478532691195647328564973182217864539839215476352486917781359264946721853
000230900029860070007001020050014600010003002403690800300070058704009000560020490,645237981129865374837941526258714639916583742473692815392476158784159263561328497
008500100005079040620300000800060510001730062000058007006410023390000000200000458,748526139135879246629341785873962514951734862462158397586417923394285671217693458
010037000008200006970804200200003580040920301006050400084095070000300104005076003,612537948458219736973864215291643587547928361836751429384195672769382154125476893
000200047000069102850700063060080000314005020000040709608091030920056000500300008,196238547437569182852714963769182354314975826285643719678491235923856471541327698
200007005007010090040008601720009040005040039000360020008500400001920800060031007,216497385857613294349258671723189546685742139194365728938576412571924863462831957
800150300031008900002000807090032650065970000000000004083600170009007002406291030,847159326631728945952463817794832651165974283328516794283645179519387462476291538
090020073168009040000400100401070096000905020070063008800006500032080007600310002,594621873168739245723458169451872396386945721279163458817296534932584617645317982
030008090000024000869050002005803100790000030080762000001000073004009815300047600,432678591517924386869351742245893167796415238183762954921586473674239815358147629
900700080060504090001062000002016800870050602310020040008103900257008034000000700,925731486763584291481962357592416873874359612316827549648173925257698134139245768
510730084000065003000000510002409001680000000050001327300010640047020009009008052,516732984498165273273894516732459861681273495954681327325917648847526139169348752
800700300050024061010905400000003700600100040420057090001062008903000020004800507,842716359759324861316985472195243786637198245428657193571462938983571624264839517
040070005807006001010042300960500043020400160008001057003020096000900800250038000,342179685897356421516842379961587243725493168438261957183724596674915832259638714
980500040040000100012906030400050093070800050006007001050060000800070302067420810,983512647645783129712946538428651793179834256536297481251368974894175362367429815
001500924040800673260009000050008760100407008080200400098000301036005090700300050,871536924945821673263749185354918762129467538687253419598672341436185297712394856
000780045001050039720000060300600510008070000004902008009000100052430687083020054,936781245841256739725394861397648512218573496564912378479865123152439687683127954
010805063000040020240037000070000008302006900594002710768050040003409000000160005,917825463836941527245637891671594238382716954594382716768253149153479682429168375
405000000007809040030002185000030250010007090090201603006040002971605008300008007,485316729127859346639472185768934251213567894594281673856743912971625438342198567
507049001060810030304002900401000067020460350009058000100500008200006070040297006,587349621962815734314672985451923867728461359639758142176534298295186473843297516
052000600600098000030070541070049015200000000840136020429057008000000003060801700,752413689614598372938672541376249815291785436845136927429357168187964253563821794
810530000040000200500709106000003700905080402634050090000900017002000040050168300,816532974749816253523749186281493765975681432634257891368924517192375648457168329
250000008030906057001400230800642905000308700100007020000030400904850006007000091,259173648438926157761485239873642915592318764146597823615739482924851376387264591
050470080618000200400000905000900740509800003086140000370090050000015020200368010,953472681618539274427681935132956748549827163786143592371294856864715329295368417
047600002300000904000082030400020800001900500260751300026037000800010050000004217,547693182382175964619482735495326871731948526268751349126537498874219653953864217
020510760000000002806704300400800000030000289000091507390007600200039008041006050,923518764574963812816724395459872136137645289682391547398457621265139478741286953
