306800520900000380070400006600002005020307009007605840890001073010020000500000401,346819527951276384278453916689142735425387169137695842894561273713924658562738491
601240008900000720025000010000715000004003075080460000106080000000976003008300504,671249358943158726825637419369715842214893675587462931136584297452976183798321564
250061790400050300000832050000003200390200805104700030500000006006008401708019000,253461798481957362679832154865193247397246815124785639512374986936528471748619523
069704001002053000000001985400000306800090000010307500600800079047610000200405013,569784231182953764734261985475128396823596147916347528651832479347619852298475613
200061050090000700063709008007400280030000074600820903080104500109053000004290060,278361459491582736563749128917436285832915674645827913386174592129653847754298361
060910200007005300019020065041790036000300700000040008204100000005008427680000950,568913274427865319319427865841792536956381742732546198274159683195638427683274951
036059000020000004817030005192003500750064280000000103080000690000206000900570310,436859721529617834817432965192783546753164289648925173285341697371296458964578312
095000360000956700240000080530070190800005002060340000003000600021890570007103008,795482361318956724246731985534278196879615432162349857483527619621894573957163248
408506000200030076000020000100405630003090580090070041700001390500300002080069100,478516923251934876936827415127485639643192587895673241764251398519348762382769154
310250708060017039009000004050032080108900006603140005700000013000000640002800090,314259768865417239279386154957632481148975326623148975796524813581793642432861597
072001360160500840400200000007008029045607000000094000500030607018000003026010580,872941365169573842453286971637158429945627138281394756594832617718465293326719584
600307500008040072400058601030071006090560020080900300007002008501409000063000040,612397584358146972479258631235871496194563827786924315947632158521489763863715249
000021073004008000900056100028970400503000290006005017049100850650802000007030040,865421973714398526932756184128973465573614298496285317349167852651842739287539641
000002467830060000000000090017408026009000000002700305108530700240800000600094510,951382467834967251726145893317458926589623174462719385198536742245871639673294518
900000360020753040007004800002008000000070103000569004150000720706120009003840005,945281367628753941317694852472318596569472183831569274154936728786125439293847615
008060093009000050070430026060580430150006000087900000005002079403057001020100008,248765193639218754571439826962581437154376982387924615815642379493857261726193548
090060007800930010630087050108005790000013400342008000005104080700000902006020005,294561837857932614631487259168245793579613428342798561925174386713856942486329175
009005030004680079385000200400501000060070002030002194708000000020097065000018043,679125438214683579385749216492531687861974352537862194748356921123497865956218743
008002103600380000900705400702010940000076200100000008200008590040050820015904030,578492163624381759931765482782513946493876215156249378267138594349657821815924637
507930000040100900000006008900000006068700215001200390802003000070040102039501607,587932461246187953193456728924315876368794215751268394812673549675849132439521687
690501008004090007000430600706010200503800109020700480100009005035006900000080032,697521348314698527258437691786914253543862179921753486172349865835276914469185732
701000009008257030005401000900030700204000600100000984000602015000300460630100002,721863549498257136365491278986534721274918653153726984849672315512389467637145892
040608020080004095057000801700490008003000100120075064200060300000009072500830010,941658723382714695657923841765491238493286157128375964214567389836149572579832416
980000010000007200045608300004000008061852900032040560100500007000036000059071803,987325416316497285245618379594163728761852934832749561123584697478936152659271843
200600500031008209506004800004001050000430690710005003678090000950740020002003000,287619534431578269596324817364981752825437691719265483678192345953746128142853976
002095000060100930401700000080009300610084002007520064009400010000068075050003080,372895146568142937491736528284679351615384792937521864829457613143968275756213489
067000000003100020900340100500000496004701030080060705000439800250007900400820000,167592384843176529925348167571283496694751238382964715716439852258617943439825671
048106000000000500036200904607809003003025000012300070805030040090000610200040057,548196732729483561136257984657819423483725196912364875875631249394572618261948357
600800000000005001001470309809100047400706005030004000100920050050000790026030008,673819524294365871581472369869153247412786935735294186147928653358641792926537418
004508067080920001390060000907000230030005000051002408062700540000003700400800190,124538967786924351395167824947681235238475619651392478862719543519243786473856192
000080090017306800002090007090004020260000104000870050834700010000540703000201009,653487291917326845482195637795614328268953174341872956834769512129548763576231489
009000200804700060000060107020895043090071005008320001080200506700610098403009000,679138254814752369235964187127895643396471825548326971981247536752613498463589712
050001607063000120078020090020084005906007004000900301380009000000670802000540000,259831647463795128178426593721384965936157284845962371387219456594673812612548739
060052908070036000800900040208190060000007394004000081300610407001700500920003000,163452978479836152852971643238194765516287394794365281385619427641728539927543816
300910020016400000700000580005020700060004090920078340090050007100306009004001206,358917624216485973749263581435129768867534192921678345693852417172346859584791236
000020005076090810810605049009004280040000500008317060300850090007200003160000400,493128675576493812812675349739564281641982537258317964324851796987246153165739428
800000090010750630046020050020004000508670400700190006003010807209030001087540300,875463192912758634346921758621384975598672413734195286453219867269837541187546329
400908300007610800600050001200164003009300007140009526030800102080007090020500000,412978365357612849698453271275164983869325417143789526734896152581237694926541738
009560081053000000020003690000100230007090008502004060860010709700008143000740050,479562381653981472128473695986157234347296518512834967864315729795628143231749856
080000100002600473000035090003000720064800500201709006007050301120080000900407600,389274165512698473476135298893561724764823519251749836647952381125386947938417652
004350007006000005000740390040820000100005720070001609500002430310060008068900201,924358167736219845851746392649827513183695724275431689597182436312564978468973251
008000130004970080900360004510780000000400217600003500020105006070892300190000040,768524139234971685951368724512789463389456217647213598823145976476892351195637842
051900042600083100090004005800050300102007000940600710003721009200008000067300080,351976842624583197798214635876159324132847956945632718583721469219468573467395281
800300400040790500920000008030075800005010076000200003083060904060981702010002000,851326497346798521927154368132675849495813276678249153283567914564981732719432685
000500090709002000010700043100405006600078200004013085960000020025090637040080100,486531792739842561512769843198425376653978214274613985961357428825194637347286159
031008002600070800270040510000052930000037086960004207089003700000000001004169000,431598672695271843278346519817652934542937186963814257189423765326785491754169328
907540800006000970000900002000053090002008304805090100710000006063400005508706210,927541863456382971381967542174253698692178354835694127719825436263419785548736219
000020690020080307800609401010402000740000910690005000503008000100070205060030704,451327698926184357837659421318492576745863912692715843573248169184976235269531784
500309601020781000300020090030405008640018905000600200750000100081004000400072080,578349621926781453314526897132495768647218935895637214759863142281954376463172589
000001256004970380018200940683009000007480015000000000092168070700002400030000090,379841256264975381518236947683519724927483615145627839492168573751392468836754192
005000300300019200000208701000080045010640000209701003900070010872004006060005809,125467398387519264694238751736982145518643927249751683953876412872194536461325879
000007080069050700002080304200800076070032900140906005930000020007501060680400090,354217689869354712712689354293845176576132948148976235935768421427591863681423597
040060790900008402572000000007024108001000000200300600000603004168042900390087005,843265791916738452572419386657924138431876529289351647725693814168542973394187265
207004300013000079040080005190607030000052017085900640004500860000310000960000200,257194386813265479649783125192647538436852917785931642374529861528316794961478253
002570000060104700000090015520000009090000642408000070087020100009046003300981000,142578936965134728873692415526417389791853642438269571687325194219746853354981267
060900302109500070003040000300651040900780001206030050050004017007060904000008060,564917382189523476723846195378651249945782631216439758652394817837165924491278563
300061804200090050706508100070002908080430005400000000005040012800106003090270006,359761824218394657746528139573612948981437265462985371635849712827156493194273586
000009020850600001013002400075403009080000250000180064000200097400060380301070005,746319528852647931913852476675423819184796253239185764568234197497561382321978645
300504001007080562906001004000026090084000005009050027102890000700000008060307040,328564971417983562956271384571426893284739615639158427142895736793642158865317249
042000005010002847900000300870090003001084000005016700580020400007500960026130000,742863195613952847958471326874295613361784259295316784589627431137548962426139578
108000307007400052050900810013008004000704130205060090000010600026305000380002500,198256347637481952452937816713598264869724135245163798574819623926375481381642579
030978000510000000087005040000200905469000001200300006700806120095002007800010304,634978512512643798987125643371264985469587231258391476743856129195432867826719354
700020500045900010060800304000793260000008050001060908034250090127000030080074006,713426589845937612962815374458793261296148753371562948634251897127689435589374126
200009710001453200003000804096500120000307040080060000100270590600800000704010000,245689713871453269963721854396548127512397648487162935138274596629835471754916382
400200915007060002030850070049000300002614000100000008500020763810906050700500000,468237915957461832231859476649785321382614597175392648594128763813976254726543189
000035104502000980064900020905003002000004035670020010206840091009000700030010008,798235164512476983364981527945163872821794635673528419256847391189352746437619258
000700910085000200000590003003012700070360050042900600560000001010030040090280007,436728915985143276721596483653812794879364152142957638568479321217635849394281567
106890020200400390000050008000200500030008970950060012008921400070004030009030106,146893725285476391793152648817249563632518974954367812368921457571684239429735186
000000530140250900006801000402900080690003040070620050001090200030500096020740300,287469531143257968956831427412975683695183742378624159561398274734512896829746315
409203600070005000200018004000509083087040200502000401038600005020700930906001000,459273618871465392263918574614529783387146259592837461738692145125784936946351827
002840000000136050800000069030010004940300080005070190004201036067005200028000040,652849371479136852813527469736918524941352687285674193594281736367495218128763945
600140002900600040027095800000450008308000506106000070700980025000003410091200700,683147952915628347427395861279456138348712596156839274734981625862573419591264783
000350907004019820800000000030040186600020704000100050205084030040060005709200010,126358947574619823893472561932547186651823794487196352215784639348961275769235418
030800000210609034006035070008500010097000002540012900300000281000407006900003500,739841625215679834486235179628594713197368452543712968374956281851427396962183547
108000035030020700500006009400700050852100000063009810300002480001470200090003067,128947635936521748547386129419768352852134976763259814375692481681475293294813567
560009002000000800037102540601308004000000009000670130090010268800005073024007950,568749312142536897937182546651398724473251689289674135795413268816925473324867951
000002800054007000023951000100060040500209708030080096009100365405300010070006009,917642853654837921823951674198763542546219738732485196289174365465398217371526489
200700510003920004000080960050630070970002000004000156038050000190300400502491800,289746513613925784745183962851634279976512348324879156438257691197368425562491837
080700509294600000100034000060000100520007380000508607610049005003800420708001030,386712549294685713175934268867493152529167384431528697612349875953876421748251936
001300070006008940420061030703090286258000000060010300007054010000906000090030405,581349672376528941429761538713495286258673194964812357637254819145986723892137465
403790010100000030060400028700010000050340006006200370005003080020609740009800501,483792615192568437567431928734916852258347196916285374645173289821659743379824561
004010607000903100001475009100000902006200801097600000342000700500307006060028005,934812657875963124621475389183754962456239871297681543342596718518347296769128435
000360400008700651200090780470000500000809060000072109051006030032400000804010900,517368492398724651246195783479631528125849367683572149751986234932457816864213975
193200640607108050500000007010006020008300000000825309004000500705091200030070006,193257648647138952582964137319746825258319764476825319924683571765491283831572496
400068000800000091005320007260910030009050700001004006182570400070400305500692000,497168253823745691615329847268917534349856712751234986182573469976481325534692178
800500902023807100109400080050060020600100409087043000306905000000001006000020315,874516932523897164169432587451769823632158479987243651316975248245381796798624315
089300005600040371040005080007008006020500100003092048290017004006904200078000610,789321465652849371341765982917438526824576193563192748295617834136984257478253619
108020300090050170000640090380000000060005420005270809001069057700000000500083604,158927346694358172273641598382194765967835421415276839831469257746512983529783614
000840000690700580020009036810065900042301000503000028005010000030090702170403005,351846279694732581728159436817265943942381657563974128285617394436598712179423865
390020000005078134001400900028004395903500002040000000650000007000010200180095400,394621578265978134871453926728164395913587642546239781659342817437816259182795463
000001500000492070617800020800769200100000400095000003970000050206050301034018009,429671538358492176617835924843769215162583497795124683971346852286957341534218769
000300600073009051900461030030142070040005003298000000700900000001500807820003014,412357689673289451985461732536142978147895263298736145754918326361524897829673514
600500900040069080058200017020701000000908063009306520005000834100000000002873009,631587942247169385958234617326751498514928763879346521795612834183495276462873159
534008000700002890002050060010034000080600723009005600040073200070010058006800400,534968172761342895892157364617234589485691723329785641948573216273416958156829437
005000960300500210090083000140070502000809400007020301006204007723000005458000000,875142963364597218291683754149376582532819476687425391916254837723968145458731629
300500018010890060004302790900700050061000000000026470509043000406100002038005009,397564218215897364684312795942731856761458923853926471529643187476189532138275649
300026080124000300009310750501700804090850000060001030000002008045007100000490206,357926481124578369689314752531769824492853617768241935976132548245687193813495276
530092860200730090010600004000048009452006000007500020008000600920001750040000013,534192867286734195719685234361248579452976381897513426178359642923461758645827913
801009403023600070050200608004000091000093000006501040090042700000105009382000050,861759423423618975759234618574826391218493567936571842195342786647185239382967154
103080005490017860006000029000902004050000090870340010007800030062701050000450006,123689745495217863786534129631972584254168397879345612547826931362791458918453276
