000796100050000003160080400000830604070900032908200700600001000201450000740020509,324796185857142963169583427512837694476915832938264751695371248281459376743628519
400670008823040000061000900200500076080001003010320000009080400000716250050900607,495672318823149765761853942234598176987461523516327894679285431348716259152934687
030802005750060804000000000460200098970030610005090030540370089002401700600005100,136842975759163824824759361463217598978534612215698437541376289392481756687925143
098001700060002400300000850400090000000237006001045320009560007020004085100708930,298451763567382491314679852432196578985237146671845329849563217723914685156728934
142030060000090800070002014803079200000600000090008701000045080209000100006321570,142837965365194827978562314813479256527613498694258731731945682259786143486321579
000012000029000007670900403900600510300005206005400098008003602200049780147000000,453712869829364157671958423982637514314895276765421398598173642236549781147286935
000004510038700690400100007020000360510900700706025080250016000007000450000040800,972634518138752694465189237829471365513968742746325189254816973687293451391547826
076402000000000105300890000009000306200080050450006790002058003100730080007200014,576412839928673145314895267789541326263987451451326798642158973195734682837269514
019070006003601070608590042000040680180000034540007200705300009391080005000200000,219478356453621978678593142932145687187962534546837291725314869391786425864259713
005740006010020048390061020000007613008004000020590000001008000063070495050900700,285749136617325948394861527549287613738614259126593874971458362863172495452936781
040002530001079020602400000003040905209010000050097008080005701910680000400000800,748162539531879624692453187873246915269518473154397268386925741917684352425731896
069080200300009000000400057070050010480300005001026003004702060950008400800500070,769185234345279186218463957673954812482317695591826743134792568957638421826541379
645790000000800500280300041703042000560070003010050460009000680470000300008030029,645791832931824576287365941793642158564178293812953467329517684476289315158436729
034092670070060001106300095010508703053009042007006000040000030290000104000820000,534192678879465321126387495912548763653719842487236519748951236295673184361824957
500890030072605901400001050001000205043507019200069000060402007007000380080010006,516894732872635941439271658791348265643527819258169473365482197127956384984713526
000706000100400728094000005003800297060000000800532010002087300010003809307150640,528716934136495728794328165453861297261974583879532416942687351615243879387159642
010020070020008016047009002005100000200090530300604008450080300070063200806070109,918526473523748916647319852785132694264897531391654728452981367179463285836275149
805000270400005060317060980600908400020000100000037650009210003000500729004080500,865391274492875361317462985651928437723654198948137652579216843186543729234789516
900401308062007000401090050100060207080000590500300410000089030004250000070604920,957421368862537149431896752143965287786142593529378416215789634694253871378614925
710500802000006090405320060300790001009001786200004050100080003002007000080600040,716549832823176594495328167368795421549231786271864359154982673632457918987613245
020730040000009320069008001000004905507610400830070000001003607080260500700500083,125736849478159326369428751612384975597612438834975162251843697983267514746591283
056000008007002040000580031500920000600307019080004250700030000019000406240809000,156743928837192645492586731571928364624357819983614257768431592319275486245869173
490000170500000302002760090206180004074005060010300500730090008001200009800574000,493852176567419382182763495256187934374925861918346527735691248641238759829574613
031400800608002403950000070000080500009304001126097004800000106715030000000028007,231476895678952413954813672347281569589364721126597384892745136715639248463128957
020680000000900580001032900005064170930010206004700300506200004010007000398000005,729685431643971582851432967285364179937518246164729358576293814412857693398146725
065900003020060704900107200400070956500000010008003020007408000304596800000030500,765924183821365794943187265432871956576249318198653427257418639314596872689732541
065042030070680049010000000004027501000003890021900000006794200000500006530060010,965142738273685149418379625394827561657413892821956374186794253742531986539268417
047100906309080052001062000010090470050031000702005003800006091030000200006504700,247153986369487152581962347613298475458731629792645813874326591135879264926514738
000000050360580040092100807084036020057400000000000180070609003020050908006043500,748392651361587249592164837184936725257418396639275184875629413423751968916843572
300052094470000000000790800050000603208310000900068100000003567010580042046900300,381652794479831256625794831154279683268315479937468125892143567713586942546927318
027001840403500000000680002800016093000209004010003050902000000005300607300407510,627931845483572961591684372854716293736259184219843756972165438145398627368427519
000106000005420796004000005320080400400900060080701009670003050800590020051000870,798156342135428796264379185329685417417932568586741239672813954843597621951264873
400200000309010050560703080002006408040000306000081009053670002000008000670540190,487265931329814657561793284912356478845927316736481529153679842294138765678542193
021000009009207043300056280075030600100004000002078004700002810610300900008090000,521843769869217543347956281475139628186524397932678154793462815614385972258791436
305006000076209530000080001097030002600004070850010400010007980004820310000400605,385176249176249538249583761497638152621954873853712496512367984964825317738491625
050216000000050096003000080509007301074360000000080204802005703301092005040100600,958216437427853196613974582589427361274361958136589274892645713361792845745138629
000702980600005000010090302200050834580070001090406000701900060048000009060340570,435712986629835147817694352276159834584273691193486725751928463348567219962341578
005809670060000031800020450250700300030400906004080020100605000090030084023190007,345819672962574831871326459259761348738452916614983725187645293596237184423198567
180400005600017908095000700000000520003192006048003007021005034000030600069708200,187429365632517948495386712916874523573192486248653197721965834854231679369748251
900004510000300060400970002180406003500810976009000000000083000062500198010200704,938624517271358469456971382187496253543812976629735841794183625362547198815269734
021007080040000209506000000000092105070364000080070340207089460050230800009006010,321957684748613259596428731463892175175364928982175346217589463654231897839746512
040020001605000700001495083300860904409003000000001208508602010100000007067000320,843726591695318742271495683312867954489253176756941238538672419124539867967184325
100485000050020310009000006670350009008074000300900804096001050001200007840037900,163485792457629318289713546674358129928174635315962874796841253531296487842537961
000076900900000563580013002620700040409000300170290000030100005005040718000802600,342576981917428563586913472628735149459681327173294856834167295265349718791852634
800030100072006009001240860000093701056004030097810400000002500480060097009000010,864539172572186349931247865248693751156724938397815426613972584485361297729458613
048000700070400015905300000000600800082094070106002004507001320030270681000906050,248159763673428915915367248754613892382594176196782534567841329439275681821936457
075030000010205000203000806400006005000070369039080207050800702300004610000100094,975638421816245973243917856427396185581472369639581247154869732392754618768123594
920050070007004080600900130805430097100006040030020500094005008200080006500103009,921358674357614982648972135865431297172596843439827561794265318213789456586143729
009060003001080427005701060098100000607203180030000704000004300010006859800920000,789462513361589427425731968598147236647293185132658794956814372214376859873925641
001600020705004190802035604000509706104080000000742030930070080500003910000900002,341697528765824193892135674283519746174386259659742831936271485528463917417958362
008060090060070205507034080720800004105000030004791000003520010010000902000400870,248165397361978245597234681729853164185642739634791528873529416416387952952416873
000035000400760580730002090060000040120384600007190008003010009050400002680500317,816935724492761583735842196368257941129384675547196238273618459951473862684529317
208407500671002000000900000700501208300080009005700461029800046500109070000030090,298467513671352984453918627764591238312684759985723461129875346536149872847236195
024590600900203001008060900000450206001080003760001080030002590080600070500740000,124598637956273841378164925893457216241986753765321489637812594489635172512749368
000081050045000027802405301000030190008720600650000004009300700060019003430000082,376281459145963827892475361724536198918724635653198274589342716267819543431657982
003004000780000190092005060030801020000020901050060700008210600004700035060500007,613984572785632194492175368937851426846327951251469783578213649124796835369548217
201000000000708004034010079000906080403071006065834002098040601006300507000002300,271493865659728134834615279712956483483271956965834712398547621126389547547162398
940003507501008000000070200020501360006700000008030409030842015600009720010060894,942613587571428936863975241427591368396784152158236479739842615684159723215367894
806000005000050780005309010040800350060900402020710600030070000709126000200400800,816247935392651784475389216947862351168935472523714698634578129789126543251493867
000006003700050809840200000010083620206405000930000100500030700001079406080004095,159846273762351849843297561415983627276415938938762154594638712321579486687124395
806205010094170020000060300400000960050709000002008437005012600078030091060000043,836295714594173826721864359487321965653749182912658437345912678278436591169587243
305901700016000000200805304097450001500007208602000090004706080100030900000080065,385941726416273859279865314897452631531697248642318597954726183168534972723189465
000001230009700006840902500010508000050090001370024050000480070605000380004630002,567841239129753846843962517912578463458396721376124958231489675695217384784635192
000050007032049100908102000600923010100000063580700400007000346040090250010036800,461358927732649185958172634674923518129584763583761492897215346346897251215436879
300006509004970603000230070050400710960007402080520006605048000100700300020000080,372816549814975623596234871253469718961387452487521936635148297148792365729653184
429000001007096008500100030900007200380209050000500460050300700200904016600008040,429835671137496528568172934945617283386249157712583469854361792273954816691728345
500810700917005400003060002054009000001200006860000930000030584000078029640000010,526814793917325468483967152354689271791253846862741935279136584135478629648592317
010820040270050000890010530340708210000362000000000080930500724080900006500000800,615823947273459168894617532346798215158362479729145683931586724482971356567234891
000706050004820130900340008072068900800000005095470302029003800100000570400000001,238716459564829137917345628372568914841932765695471382729153846186294573453687291
003040070806903200020080906030400790059020000007001805600800000042070601701206050,913642578876953214524187936138465792459728163267391845695814327342579681781236459
300971600700000010200450080000200060590060401608030005901680720400500890030000004,385971642764328519219456387173245968592867431648139275951684723427513896836792154
030010089100700500000506030850903020300000970020001003516024800900050602047800000,635412789192738564478596231854973126361245978729681453516324897983157642247869315
307500019008070460060402000800090073000200001950007000002003000100084307600900804,347568219218379465569412738824196573736245981951837642482753196195684327673921854
060000004200018000500409600070140506050000123008003900610700009900200401043050800,861375294294618735537429618379142586456897123128563947612784359985236471743951862
009430070047080203028006000003500090800070000052003406036005019100069802000000604,619432578547981263328756941463528197891674325752193486236845719174369852985217634
000040026020905000901760000006500039002070005013080040004100580870003190030008700,357841926628935471941762358786514239492376815513289647264197583875623194139458762
000109530004300020500000008030007001200590480465800300009002010307000602010456790,726189534184365927593274168938647251271593486465821379649732815357918642812456793
063005108000900700900140260008009005040080031005620070100400500080063002002000046,463275198821936754957148263678319425249587631315624879136492587584763912792851346
598000204003000700070093005400875100000200000025640908004700302100050860006020019,598167234643582791271493685469875123817239546325641978984716352132954867756328419
080043900910200000600109720090001060050020830007530004000400003200065070468007001,782643915915278346643159728394781562156924837827536194579412683231865479468397251
006389004820000000931205700007000018005076900000504003100090405603008000700020061,576389124824761359931245786467932518315876942298514673182697435643158297759423861
090083400050600207310200009200450061070000003000010040048006002905004070706039850,692783415854691237317245689283457961471968523569312748148576392935824176726139854
840020070000050603607000050200186040050007936004930801001400098009001400020300500,845623179912754683637819254293186745158247936764935821571462398389571462426398517
050601070003000802900030040700104290800060030000800501090040100060027053304506080,452681379673495812981732645736154298815269734249873561597348126168927453324516987
740008002000900600809305104000010937000876005200090010090734200176200500003001000,745168392312947658869325174684512937931876425257493816598734261176289543423651789
542010070080030506010700008075000603000900047930602050008020100006409000300001904,542816379789234516613795428275148693861953247934672851498327165156489732327561984
000005001700046290030900560600008740071000030980000006100360002200019080059400007,896235471715846293432971568623198745571624839984753126148367952267519384359482617
520000006600240901030080040040007618000300570160800290009001030000702005706500400,524179386678243951931685742345927618892316574167854293259461837483792165716538429
000410386000089700102700050745600002630240970000000000001035600870000010900006008,597412386364589721182763459745698132638241975219357864421835697876924513953176248
070059002000000003529000407000074100008100069063080720000008300410702805000491006,374859612681247953529316487952674138748123569163985724297568341416732895835491276
302070600089006201000080054030040089000305000601020700507090000190008040004750023,352174698489536271716982354235647189978315462641829735527493816193268547864751923
100008640000010027009473005410090000000040583006702400580069000930050102701000000,173528649845916327629473815418395276297641583356782491582169734934857162761234958
070000006039150200240003005001007304057002860002400009000940010900830040000026080,175289436639154278248673195891567324457392861362418759783945612926831547514726983
200036005013000004006009020000005040480070500509820601070410800020060009001983700,294736185713258964856149327167395248482671593539824671975412836328567419641983752
080730400030019086967500000000070820700043090051020060200000030049000501806001002,182736459534219786967584213693175824728643195451928367215497638349862571876351942
201070056089005301300906002000807020100040030407200600000502700700190008800003490,241378956689425371375916842596837124128649537437251689964582713753194268812763495
040200000700080039923670000000400813002010000300700062090050001265300908001900640,148239756756184239923675184579462813682513497314798562497856321265341978831927645
040900601730005080561200900400700300003820500257000400000080096910400700000130002,842973651739615284561248973486751329193824567257396418324587196918462735675139842
980004700013800509005036021031000200400200000006703080320001000000540007090078160,982154736613827549745936821831469275479285613256713984327691458168542397594378162
070000056010708040692050008000019080003000600500283007200000310009374002806005900,478932156315768249692451738724619583983547621561283497247896315159374862836125974
