230700504005000012000900630850406007020009000701208060000004005006180340019030200,238761594965843712147925638853416927624379851791258463382694175576182349419537286
004091603060307008150028090005000207610402800009000050200079065070100000308000400,784591623962347518153628794835916247617452839429783156241879365576134982398265471
025000810000019026000380705100007584004630009097000000080000000519700300706058140,925476813378519426641382795163297584854631279297845631482163957519724368736958142
090000007005014060002003049003070602004000070050160800930600085200500010010809703,491286357375914268862753149183475692624398571759162834937621485248537916516849723
000059026500000830020604007908010050700060092016030004470502300830070900090000071,187359426564721839329684517948217653753468192216935784471592368832176945695843271
160090302090006000400012005200504030030070096000080001078100000503020070601700458,165497382392856714487312965219564837834271596756983241978145623543628179621739458
000010420070005860298004050302008090047060001000750206050000034906031000080097000,635819427174325869298674153362148795547962381819753246751286934926431578483597612
005800760089004020000000403018007340906003050020400008700061092000079000003200605,435812769689734521271695483518927346946183257327456918754361892862579134193248675
070040000300609480005200609007400000060090100048001003210068900800050027050930000,679845231321679485485213679137486592562397148948521763213768954896154327754932816
042600000600400517500008600360502001700890000000071209004000702807039040010000053,142657398698423517573918624369542871721896435485371269934165782857239146216784953
007260008400075300250000009000006402019040000800030067706108050080054010130097200,397261548468975321251483679573816492619742835824539167746128953982354716135697284
709064000803902010050100670200300007040018903006050800120005000908600302000700004,719564238863972415452183679281396547547218963396457821124835796978641352635729184
020015009004200085061094000200706000040100060050002874830070010000603000079000502,728315649394267185561894327283746951947158263156932874832579416415623798679481532
109000802706000150000870906010460025003509080400032601000000034025603700070190000,149356872786924153532871946917468325263519487458732691691287534825643719374195268
000800709604000050083069200070400001200701005540020000950032108060004000008005032,125843769694217853783569214879456321236791485541328976957632148362184597418975632
023016450410020300000008900390050701104080065006700090900263004700005000030004100,823916457419527386567438912398652741174389265256741893981263574742195638635874129
000230467040500809903800005508700001106405000070006020709040000001090380632100700,815239467247561839963874215598723641126485973374916528789342156451697382632158794
005000900010406000400309760000790020092600148836000000200500610580003097300010800,675821934913476285428359761154798326792635148836142579249587613581263497367914852
000003200604509003070016490000950080208000000009070350007000006503102804140080520,915743268684529713372816495731954682258631947469278351827495136593162874146387529
000050460003000900081006020007601589000020300409300010000007190900080036206005007,792853461643712958581496723327641589168529374459378612834267195975184236216935847
000000037346507009008601200070000000200105900000490018052780000010009406960304025,521948637346527189798631254179863542284175963635492718452786391813259476967314825
600780100009304007002510300058070090400625700000900040034000980080040205700006010,643782159519364827872519364358471692491625738267938541134257986986143275725896413
200301700064080300810005020007004060000010200540607803006203050090046180070000009,259361748764982315813475926927834561638519274541627893186293457395746182472158639
000001000070296080306750021098070502400000030635040700000900075000305810204000069,982431657571296483346758921198673542427589136635142798813964275769325814254817369
090120046070350019030604800000805901020030000500900070700006002003410060408000005,895127346674358219132694857347865921926731584581942673719586432253419768468273195
307194800050038040009500200400000081070000000082607050630040000200001076000800539,327194865156238947849576213463925781571483692982617354635749128298351476714862539
003002087640800000001030002030090040005000108007615090050060900000029871709003020,593142687642857319871936452136298745925374168487615293258761934364529871719483526
000000739305104800680020040000009003001008602000407050846302100012005087007900000,124856739375194826689723541758269413491538672263417958846372195912645387537981264
008467100001900080045301002500000000430200905810605300020170030000504079006090004,298467153371952486645381792562739841437218965819645327924176538183524679756893214
005009070910406005080310000070520890120003000400090600503740020207000010000600043,635289174912476385784315269376524891129863457458197632563741928247938516891652743
504170980010002000360500072000700034200619007805003010009487500000020006050000340,524176983917832465368594172196758234243619857875243619639487521481325796752961348
070000600008500139004600005010800307980024000005003024300069400001075002296001000,579132648628547139134698275412856397983724516765913824357269481841375962296481753
076100800010050090305690000000032007120000540000804609280060010009040700400705032,976123854812457396345698271694532187128976543753814629287369415539241768461785932
590002080261040500047009300005076001070005090900480000600800407400007620032010050,593762184261348579847159362385976241174235896926481735659823417418597623732614958
309050040000007205020401608000000002205800060064109500056702000708040100000638400,389256741641387295527491638973564812215873964864129573456712389738945126192638457
075000920000500840203001007004376200380000096100804070410630050000102080600049000,875463921961527843243981567594376218387215496126894375412638759739152684658749132
630009400104006095200080300007908120326001000000640070000057800053204007090000204,635719482184326795279485361547938126326571948918642573462157839853294617791863254
003250780040300006027006000409700008038960000670080501090024010005008003000139020,963251784841397256527846139459712368138965472672483591396524817215678943784139625
600903040084060000200000803700050109009014050000000680010840527560300000020007010,675983241384162975291475863746258139839614752152739684913846527567321498428597316
900700431043206000000000000200000193070009000005410082016902070020008645530070009,962785431143296857857341926284567193371829564695413782416952378729138645538674219
004019028500000900001250063007001050080362000390500001009084002800900640060020070,634719528528436917971258463247891356185362794396547281759684132812973645463125879
160090008000007002803000009040500870008002060500030014029006500307901400005020300,162493758954687132873215649241569873738142965596738214429376581387951426615824397
005000010200704095480016720608370000900082107040095030502008004700900600036000000,375829416261734895489516723628371549953482167147695238592168374714953682836247951
050410000041079320260500000005000000000201670900080401032005008017096000008003764,753412896841679325269538147175964283384251679926387451632745918417896532598123764
304000080500012030096000700080600005100003860400090203002751006037049100050800000,314967582578412639296385741783624915129573864465198273842751396637249158951836427
403006050000700800100092040600000900095003170040050032980005006010080703020471008,473816259259734861168592347632147985895263174741958632987325416514689723326471598
047920000089000040030001600701006500800070103060405002006054701000030900512007000,647928315189563247235741689721386594854279163963415872396854721478132956512697438
800020000050080097001040680300060201000900346040700050009615003002003869070008400,867129534254386197931547682395864271728951346146732958489615723512473869673298415
083100920470000030000040576092006348000007060006093200839050000010600000507201000,683175924475962831921348576792516348358427169146893257839754612214639785567281493
406009080130000506005007320008010009019402005702035000070023018000800060900600400,426359187137248596895167324548716239319482675762935841674523918251894763983671452
005000809098076010213004000000600000070902064004051708580000420000730900006000150,765213849498576312213894675859647231371982564624351798587169423142735986936428157
400001520000580601019002000035640000041708300020000089600200045007090108000003007,468971523372584691519362874835649712941728356726135489683217945257496138194853267
010000095043090070600072800500084000060001308070600014090803200280000406000045700,712438695843596172659172843521384967964751328378629514497863251285917436136245789
900300200600078090014020700020600005100000078050841000043906052000750046009000310,975364281632178594814529763428697135196235478357841629743916852281753946569482317
702013080950720000080000040400650900300047105000001000001890023006000004040206700,762413589954728316183569247417652938328947165695381472571894623236175894849236751
000000600005478000291036000040007100506300802820015009308904017060000400009200030,784192653635478921291536784943827165516349872827615349358964217162753498479281536
050000076628900040100300500003690024200070915040208000090502003001000080400061700,359184276628957341174326598713695824286473915945218637897542163561739482432861759
009780100007003059580060200000010000403802700890000604000079060026050030300004081,239785146617243859584961273752416398463892715891537624148379562926158437375624981
009205031000000480608009000010000703040630805500000940006803020051460000000920070,479285631125376489638149257812594763947632815563718942796853124251467398384921576
000000300280105700540090001410000080079002005000400036025800190100070640600030008,961728354283145769547396821416953287379682415852417936725864193138579642694231578
230070500851020090006000048020006004007385600300009100000100082105000700700403901,234978516851624397976531248529716834417385629368249175693157482145892763782463951
007300025060000001000042608400700000086219000059084300010053007970100080502900040,847361925265897431193542678421735869386219754759684312618453297974126583532978146
980007100005000000000905406030600900004108005570200040060083000741090820000020009,986347152415862397327915486132654978694178235578239641269783514741596823853421769
050060080038170600079003004015609000000080039400725000300000720002040058000006900,154962387238174695679853214815639472726481539493725861341598726962347158587216943
820109005007240003600700410005000039900370206040001800100063004250000000003080760,824139675517246983639758412765824139981375246342691857178963524256417398493582761
280000090340900600009080703672004000500030400000278001006007018000040250001590007,285763194347912685169485723672154839518639472934278561456327918793841256821596347
300087100000900024725060000000001083630020050800450900060000007201500308500879002,394287165186935724725164839457691283639728451812453976968312547271546398543879612
082003750076400020501700006030607008008000000604209100900000200005040910107805300,482963751376451829591728436239617548718534692654289173943176285865342917127895364
091024580053006040204003000002850701067012000000000930400970020005040307800000610,691724583753186249284593176342859761967312458518467932436971825125648397879235614
060387004200006000001900000650002310470000500002730008500040209000100030009008760,965387124284516973731924856658492317473861592192735648517643289826179435349258761
002506000007000403061080020820100700000600090905204800053097001070400500040020680,392546178587912463461783925826139754714658392935274816653897241278461539149325687
920087600004090307105000000510400800406100030000050024000015960730028005000003082,923587641864291357175364298512439876486172539397856124248715963739628415651943782
012608009040005780600300001090700425700060000080109000061540032400001007350000800,512678349943215786678394251196783425735462198284159673861547932429831567357926814
002605047080907350000080000001003065060200010459700200007006089500004000230008401,912635847684917352375482196721843965863259714459761238147326589598174623236598471
000080100308406007700230060001000000090050628280790503820000006600040950000305000,962587134358416297714239865531628479497153628286794513825971346673842951149365782
560000908290000175070300400108740003000935080020800000005001006400600507007080300,564127938293468175871359462158742693746935281329816754935271846482693517617584329
008020005200005000301000706009430007025080304400016980003009060700300400804200003,978623145246175839351894726189432657625987314437516982513749268762358491894261573
010906800065010300904508000301007060002040090500863240008004007790000020003020100,217936854865412379934578612341297568682145793579863241128654937796381425453729186
043005620790000010106708000000076000021800004530400090004200305070030469000980002,843195627792643518156728943489376251621859734537412896914267385278531469365984172
000270035040006020029810060500607002000000089004329001470000000003000810802403056,168274935745936128329815467591687342237541689684329571476158293953762814812493756
650030000000705390000092040700000014000870002504006900320549087010080200070300056,659438721241765398837192645762953814193874562584216973326549187415687239978321456
230000065106079204000030100065084903020000400098006500040008601057190800000000070,239841765186579234574632198765284913321957486498316527943728651657193842812465379
400108000005603000700020190001040972020005030009000608004060005850001700090002806,432198567915673284768524193581346972627985431349217658274869315856431729193752846
893405007000600850040020001020006000970002406004500030060807100208004509007030000,893415267712693854546728391321946785975382416684571932469857123238164579157239648
007200930541008070009064801060500040004030709802017300900002000030040600006000012,687251934541398276329764851763529148154836729892417365915672483238145697476983512
001000094690400720070800500947060200008309060100025800304076000502910003060000050,821657394695431728473892516947168235258349167136725849314576982582914673769283451
000000204026308170475600090000103050810490007500000308300527000080001042009060000,138759264926348175475612893762183459813495627594276318341527986687931542259864731
200360095056000310004000007010040002060075180008900040090701000302004700000530860,271368495956427318834159627513846972469275183728913546695781234382694751147532869
048021000001430902006007030925008001000700000030000460400105007070090600100002508,348921756751436982296587134925648371614753829837219465483165297572894613169372548
800045006000802000091300208700960000064010700010000053020730800080004902653000001,872145396346892517591376248735968124264513789918427653429731865187654932653289471
506800000021006034037002000050400310040510068902600007000070450200000890380001020,596834172821756934437192685658427319743519268912683547169278453274365891385941726
670801059200060000004590073720000001006005480030170502000700040800926000090450700,673841259259367814184592673725684391916235487438179562562713948847926135391458726
320074060000300804009800050067008000205100009980000700040900003870050206003001540,328574961756319824419862357167298435235147689984635712542986173871453296693721548
570009000043000920009305680000850470020401000860020500100080764006102300350090000,578269143643718925219345687931856472725431896864927531192583764486172359357694218
360000700005800394091700802609005001070920008530000640000090003006082050040010020,368249715725861394491753862689435271174926538532178649257694183916382457843517926
400001000000050083980620500000000837070504200108930000610000020809360070052190004,435871692261459783987623541594216837376584219128937456613745928849362175752198364
000000800000590430056703000200408010900300070800061050090627500014000090027040306,739214865182596437456783129265478913941352678873961254398627541614835792527149386
400000602390700140002506000500302400980100200031000068020005030050810000608090070,475931682396728145812546397567382419984167253231459768129675834753814926648293571
000050900070306040812400006000700205084000109600021000100509004006040500900802730,463258917579316842812497356391784265284635179657921483138579624726143598945862731
010079060406120800050000003800030504037060090290800000020401300100006205003700040,318579462476123859952648713861937524537264198294815637725491386149386275683752941
