500401067028000904006000300070084205190050403800200070300800740000306001001095000,539421867728563914416978352673184295192657483854239176365812749987346521241795638
001080500020100030680070400504210003370009056000600007100430709007000800290065010,941386572725194638683572491564217983372849156819653247156438729437921865298765314
007069002003700409025380600060010000300050048204078060800091307100000050500006910,487169532613725489925384671768413295391652748254978163846591327139247856572836914
507080300090701500800090400009400020004560803360027000026003178080600200901000040,547286391693741582812395467159438726274569813368127954426953178785614239931872645
003090004500007900640030805096000002000801040130925000400010000020603750078200060,783596124512487936649132875896374512257861349134925687465718293921643758378259461
400025301009807000000160890507006200100000049000703006904000010020050003086240070,478925361619837524235164897597416238163582749842793156954378612721659483386241975
000509021014070503600010780705000360908000042031008000002367009000900005800401070,387549621214876593659213784725194368968735142431628957542367819176982435893451276
010000068092701030504030700070040056200800900300590820007023400000600081005480002,713954268892761534564238719978342156256817943341596827687123495429675381135489672
309026408000070300004000050700300080852100004001900062500684093000000070100030205,379526418685471329214893657796342581852167934431958762527684193943215876168739245
480010020002005940600070300000460030001520078907000600050608000019302005800000004,483916527172835946695274381528467139361529478947183652254698713719342865836751294
000080010106370020050906400023009000080100004700065200240000305301200009560007180,437582916196374528852916437623749851985123764714865293248691375371258649569437182
100502004080097020000600008270800006050300400038001095097100803420030017003060000,169582374385497621742613958274859136951376482638241795597124863426938517813765249
406910000018007290007003004002080300030009065000041000070000508100605740520700003,456912837318457296297863154942586371831279465765341982679134528183625749524798613
020359010001207053009800006816420007070006320004000001000000045740510800500700000,627359418481267953359841276816423597975186324234975681192638745743512869568794132
020085007931006000078000104000201000094058003700900056060009400000000035800614002,426185397931476528578392164385261749694758213712943856267539481149827635853614972
038100000100043096000500003000036008073020400045700020280000004000001675050090010,538169247127843596469572183912436758873925461645718329281657934394281675756394812
104000080037000906650030024700200100090007600080905002900506000400008007068700503,124679385837452916659831724746283159592147638381965472973526841415398267268714593
000401720067030108900000005500060000040907803209300040004013000803700009012850060,385491726467532198921678435538164972146927853279385641694213587853746219712859364
007004900900803004500190070803050610070000040000620008001006700030080059290740130,387564921912873564564192873823459617679318245145627398451936782736281459298745136
004903507800210090001006002986040200003007405500300000030075609162400000000800030,624983517875214396391756842986541273213697485547328961438175629162439758759862134
700400000030090015869200300008009600500304701071502003200756000603000200090800004,715438926432697815869215347348179652526384791971562483284756139653941278197823564
360070000000031702090800001506700100048026000700018500904302008002900050050060070,361279845485631792297845361526793184148526937739418526974352618612987453853164279
050019004000506019200000070045760080300040620900800001010400360063008002080090057,657219834834576219291384576145762983378941625926835741519427368763158492482693157
780530002002070915600000080300002008020400600109300074050016309840900057000050000,781539462432678915695241783374162598528497631169385274257816349846923157913754826
000650040003109200700000300670085001204000008508040070100006090002007086490500730,921653847843179265765824319679385421234761958518942673187236594352497186496518732
000000081100073002586014000418005300260030090005608070009060003703009650000000240,372956481194873562586214937418795326267431895935628174849562713723149658651387249
027610090509700800060035402091000008005380200040006107203050960000049000010800005,427618593539724816168935472391472658675381249842596137283157964756249381914863725
054020070000904001003107805060005000900030284372080900607000490000003160820000007,154328679786954321293167845468295713915736284372481956637512498549873162821649537
780040090600000108001200570043006005060795000000100000400500901007009023200080600,785341296624957138391268574943826715168795342572134869436572981857619423219483657
000603000901700800260480010050830009196002007070001450007000528000100003030056900,785613294941725836263489715452837169196542387378961452617394528529178643834256971
000900105070030008524008003045003207008060000039521600006082900100406000300100500,863947125971235468524618793645893217218764359739521684456382971197456832382179546
350000170071006009000000400010040080069005300700928005205009001034500806090301002,356294178471836259928157463512643987869715324743928615285469731134572896697381542
018009004500080003300745200723001060040000010050360900690850040000907500100000870,218639754574182693369745281723591468946278315851364927697853142482917536135426879
020390800070006090190005406034000250600140080700502900000003107510900000308060520,426397815875416392193285476934678251652149783781532964269853147517924638348761529
086013059570000008302090604004185000038004700000907006100426000005800923000000000,486713259579642138312598674764185392938264715251937846193426587645871923827359461
006000980010004000000390600078260540050071809000000020240000156900500030007103208,436712985819654372725398614178269543352471869694835721243987156981526437567143298
308410500019000002000806000800009065025300400071000800006003001002760040590200370,368412597419537682257896134843129765625378419971654823786943251132765948594281376
000001340900607080701420690000900050050382000619000000800009103006200500502078400,265891347943657281781423695328916754457382916619745832874569123196234578532178469
200480000007160400009007508300250740050900000800701305005002671000003200160000009,213485967587169423649327518391258746754936182826741395435892671978613254162574839
091600087200000000560830002010590704029064005305080001004900000000300516800702090,491625387283471659567839142618593724729164835345287961134956278972348516856712493
100700630090051004000400009400205080006030702010800043950108300070640820800070001,145792638698351274723486159437215986586934712219867543954128367371649825862573491
200640500506070004000300700907000080020010003005084026030060201801903040700450090,273648519596172834184395762947236185628519473315784926439867251851923647762451398
060029734000000051045007902807050600900060000020000043596013080400900120000805000,168529734279634851345187962837452619954361278621798543596213487483976125712845396
000040200037600054100835907301050096020700008450300000080000010006401002703906800,965147283837692154142835967371258496629714538458369721284573619596481372713926845
006902000500016400908300051002790100107000008060430009084069020030007080000200704,416952837573816492928374651342798165197625348865431279784169523231547986659283714
500900000460007050081000703100069000000702300070145820000020004003000016002801500,537918642469237158281456793128369475954782361376145829715623984893574216642891537
359000000010400700007852300600009002048310005900060040000720000084000201703005064,359671428812493756467852319671549832248317695935268147196724583584936271723185964
000800047006001000400020005082010006000030490740560031800653100957000000100400082,231895647596741823478326915382914756615237498749568231824653179957182364163479582
005034021000900030089500600500000010108000403030420007800709000007005360602100050,765834921241976835389512674574398216128657493936421587853769142417285369692143758
940000000130024090008063500004007060700036081020090300490005072010700605000310048,946571823135824796278963514384157269759236481621498357493685172812749635567312948
060001409400350027000000000039070005005860970008400100720006080810030004504200760,362781459481359627957624318639172845145863972278495136723946581816537294594218763
600541070097006400000900503206010390003002000070000048380650000000023010904008005,638541972597236481412987563256814397843792156179365248381659724765423819924178635
700690000980002540000308000650070080200501400430086900070000001020059870009400203,742695138983712546165348729651974382298531467437286915574823691326159874819467253
006008070080020004703501800045000980090003107307400025060090000908305000000817560,456938271189726354723541896645172983892653147317489625561294738978365412234817569
045070100306005000710283050204000070130490800000000610080002900070008043950760000,845679132326145798719283456264851379137496825598327614481532967672918543953764281
000805090300140002069000500000023006085000070700080914046007180902400600030001005,274865391358149762169372548491723856685914273723586914546237189912458637837691425
019075800032000060000008001500849000900106030004030200005001004200690700780400903,619375842832914567457268391523849176978126435164537289395781624241693758786452913
040500000000068003305010060780000625000801009490002700100030478500006000230947010,846523197917468253325719864781394625652871349493652781169235478574186932238947516
380046900200070043005090100006003052500010000034007601003105870690000000000928406,381546927269871543745392168916483752572619384834257691423165879698734215157928436
105089460004010002060000009007100004400530620300098501000700800803000000952006013,135289467794615382268374159587162934419537628326498571641723895873951246952846713
900800027204009000000045630000120008028057090401000350000790500580403000063000001,956831427234679815817245639395124768628357194471968352142796583589413276763582941
008002400100590000009001053913008006040050087700030002060870905302906800000040600,578362419134597268629481753913728546246159387785634192461873925352916874897245631
200690400090000035170080200800204007700501083065900020030000651000413000980000000,253697418698142735174385296819234567742561983365978124437829651526413879981756342
840009000091070630607001024002000300700040016009506080300208400000750090080103005,843629157291475638657381924562817349738942516419536782375298461126754893984163275
030050010794000830200800006500901400902087000060200007400002170057600089100030050,638459712794126835215873946573961428942387561861245397486592173357614289129738654
700300109601800004000026080400010306000003058029005470043960000905008007007040002,782354169631879524594126783458712396176493258329685471243967815915238647867541932
000000308680730000053060001007200804914800005000300070700009640201040000000507903,179452368682731459453968721367215894914876235528394176735189642291643587846527913
000028300806537020001040000207490010980013006050600407402000071000000938090050600,579128364846537129321946785267495813984713256153682497432869571615274938798351642
490702003070000460006980002030125080089000140007040206000207050061390000708050000,495762813872531469316984572634125987289673145157849236943217658561398724728456391
008060405904310000367002000400700620090000010026503087800620071031000059000009006,218967435954318762367452198485791623793286514126543987849625371631874259572139846
607800000000500301130097006006070089700920100012480035000002090278040000005300607,657831942829564371134297856546173289783925164912486735361752498278649513495318627
200000004010903800000760300000002570600407038009530010078040902030085007540100000,263851794417923865895764321384612579651497238729538416178346952936285147542179683
090004000712090000500708602600403050008029301050000007043060900100000048000105230,896254173712396584534718692621473859478529361359681427243867915165932748987145236
690058170080009030051020000704080020500600810000793000302004905000006080016900003,693458172287169534451327698764581329539642817128793456372814965945236781816975243
000070260704008900005941000010005700006300480400680031900000020870034050050090308,189573264734268915265941873318425796596317482427689531943856127872134659651792348
060007005000900280301040000200600708400090001078100450004870360020501090896030000,962387145547916283381245976219654738435798621678123459154879362723561894896432517
087600350030074609005028010100000060960030205000907004046002000509100700000003520,487619352231574689695328417173245968964831275852967134346752891529186743718493526
435000601001500270000800304100072000098610003640009500007290045080040000900000106,435927681861534279279861354153472968798615423642389517317296845586143792924758136
090008406304200000700500390005012008046730200107900000000050000008407053200169070,591378426364291587782546391935612748846735219127984635479853162618427953253169874
062507080800010090050003024000100008048070010720900603904000005005680100007204000,462597381873412596159863724396125478548376912721948653984731265235689147617254839
021800000590400003000071006056000200700013040004905008010306700209008300068050094,621839457597462813843571926956784231782613549134925678415396782279148365368257194
019400650000017408080520001200304007007002890006000005490030000000060380063005720,719483652625917438384526971258394167147652893936871245492738516571269384863145729
700450930003009670056000004000005702001008060405302080000264090002080007300097010,728456931143829675956731824839615742271948563465372189517264398692183457384597216
984002060700900530000701800009013400060850000010004052203000017050006000846007390,984532761721968534635741829579213486462859173318674952293485617157396248846127395
800650402200908060017000000059000008000710605400030290030007900000240501126003000,893651472245978163617324859759462318382719645461835297534187926978246531126593784
080000075013900006005007140009306000650180002040002010970601008002700450000408009,486213975713945826295867143129376584657184392348592617974651238862739451531428769
700603850035407009004180000050000691120709380008000400600004002001356000000200730,712693854835427169964185273457832691126749385398561427683974512271356948549218736
200080103005009006008701290020006910070038002009040600100050000030607804504203000,296485173715329486348761295423576918671938542859142637167854329932617854584293761
009002064060070000034000920020803000000050073180060042018507030000090610005406087,859132764261974358734685921527843196946251873183769542618527439472398615395416287
200560000305029084001000030102007860400902000039600050060410700800790513000008000,248563197375129684691874235152347869486952371739681452963415728824796513517238946
400009300301506904080000570028030001000204060607100000006075092000910080102003005,465729318371586924289341576928637451513294867647158239836475192754912683192863745
900380507500001490014900060008025140097000000200000300360010000000240000071036008,926384517583671492714952863638725149197463285245198376362819754859247631471536928
060100030015300089900060204200809560007000103000000092004085071080720006503004000,462198735715342689938567214241839567897256143356471892624985371189723456573614928
005000980780940160100073000278100300500009700090620004850701620000090400003000008,435216987782945163169873245278154396546389712391627854854731629627598431913462578
109403060673000050000270000900500000008009023010068700300007610040030208500192004,129453867673981452854276931937524186468719523215368749392847615741635298586192374
470000030000906001009008057302405060160090040000007803700060000008002105093104200,476251938835976421219348657382415769167893542954627813721569384648732195593184276
010030006840106050920040000105809600672054001480000730000001003000920804700500000,517238496843196257926745318135879642672354981489612735298461573351927864764583129
006090450035200000814000007000357800001000006020010049098160030307002010060040905,276891453935274168814536297649357821581429376723618549498165732357982614162743985
080000100470305080032096700014000500000008204806120009023000050000079036000450901,685742193479315682132896745214937568397568214856124379923681457541279836768453921
006700430800020010001000506060508000307900000400060209005306002083009100090417850,526791438834625917971834526269578341317942685458163279145386792783259164692417853
