800040016300009704020701000000306902210070000003400080076020045085960030100004009,897245316351689724624731598748316952219578463563492187976123845485967231132854679
700004213000008000060305407340826009001000005987500002104609000090043500006000700,758964213413278956269315487345826179621497835987531642174659328892743561536182794
209060007051000043080210005540300000702500008910000026000009600000084070306700010,239465187651978243487213965548326791762591438913847526874139652125684379396752814
070005604042700090005090017028001075300900020000870130031040802400200009050600300,973125684142768593865394217628431975317956428594872136731549862486213759259687341
103420070070506920002090048250000600400200307709601000000000031080000409600709205,193428576874516923562397148258973614416285397739641852925864731387152469641739285
600520940009807000003000001021000008507180409900306500000000760100095820430060005,618523947249817356753649281321954678567182439984376512895231764176495823432768195
016400800300706049020000007102003008500840103040027000970050002608000050000930064,716492835385716249429385617192563478567849123843127596974651382638274951251938764
050010070900000006000803209600000418340560000097002000000649002070030060802070304,254916873983724156716853249625397418348561927197482635531649782479238561862175394
001030640020008000079216080063045070000007056090000200005803009082100305000090017,851739642326458791479216583263945178148327956597681234715863429982174365634592817
000010000090405020240900850702301096000807432050000000008200600063008005001096007,835712964196485723247963851782341596619857432354629178578234619963178245421596387
008600205004109007367008000600002451070900000080010300000005700910000002025040086,198674235254139867367528194639782451471953628582416379846295713913867542725341986
067090000000000402340801000029005001700060500010702093005006108098420700670000030,867294315951637482342851967429385671783169524516742893235976148198423756674518239
100004580087003004020609003008050602006000000210407009000905007400130060095020100,139274586687513294524689713948351672756892431213467859861945327472138965395726148
900084500003070090041035020020063004000001700690500080730209800008706100400000200,972684513563172498841935627127863954385491762694527381736219845258746139419358276
020041005040309010800060302700100683030002000406000050009015030580070104000203097,327841965645329718891567342752194683938652471416738259279415836583976124164283597
070008200309210060005007003003500000200036070608009041060800010004070059902605007,176358294389214765425967183743581926291436578658729341567893412834172659912645837
000640803070001960000000015051030786304000000028960400100200309002894000500007020,215649873873521964496783215951432786364178592728965431187256349632894157549317628
708600905000001070130000008210050040080036002004100039000924306802005700069000004,728643915496581273135297468213859647987436152654172839571924386842365791369718524
005700000807120090010008203509016038000409506030000040780040002000900617200060300,325794861867123495914658273549216738178439526632875149786341952453982617291567384
072500400100000300000461080093706000080000010405309002038902050001008729000045006,872593461164827395359461287293716548786254913415389672638972154541638729927145836
904170030500040002038002000050000084060010200007860003306504007080020090790680015,924176538571348962638952741159237684863415279247869153316594827485721396792683415
040090080900703200107060039000130007026000050000286000430007802010300500080054061,243591786968743215157862439894135627326479158571286943435617892619328574782954361
000048002460201050510030000309054200000607008000190700603700824800009073050000106,937548612468271359512936487379854261145627938286193745693715824821469573754382196
000060050030104086280000040600870001405000002019030700001586903900320000060007000,194268357537194286286753149623875491475619832819432765741586923958321674362947518
056009000801760000009005024190500008720310060400000350000900003502004100000003782,256439817841762935379185624193546278725318469468297351687921543532874196914653782
350006004746830015000090000000200001000580360200049070920100840008060720070300009,359716284746832915182495637865273491497581362231649578923157846518964723674328159
000004503200890070400020010502730089801500060030901000009003000000060702187000034,978614523213895476465327918542736189891542367736981245629473851354168792187259634
900020000080970650605800400014003060002508000030000504078300000200010097406002310,947625183381974652625831479514293768762548931839167524178359246253416897496782315
085060100701300009900740300000108020068020050402050000670002040010500700203070608,385269174741385269926741385537198426168423957492657831679812543814536792253974618
002000736080010000090643002020078900630009501500030280004000059057000000800902600,142895736386217495795643812421578963638429571579136284264781359957364128813952647
300000010000570240200004805500003680019006000004280157058027000060900004090400370,345892716986571243271634895527143689819756432634289157458327961763918524192465378
200403819070001040300050206740100305001080000902706004006040931000805007000009600,265473819879621543314958276748192365631584792952736184586247931193865427427319658
360049000050760008400208305910006000000002170700030804009601400080900217042000050,368549721251763948497218365914876532835492176726135894579621483683954217142387659
604320008720001000000900050000080003902700060008603401010006007340250090050170002,694325718725841639183967254461582973932714865578693421219436587347258196856179342
019040076500603802300000000007100280093050000042960001020090710000705004006400053,219548376574613892368279145657134289193852467842967531425396718931785624786421953
200806500014070060060023097001059004020000700408200309000007028906400000050618003,297846531314975862865123497631759284529384716478261359143597628986432175752618943
008001705000870206370000400000000000950064003816250040790100060060300809504000020,628431795145879236379526418437918652952764183816253947793182564261345879584697321
418096000006740210000800000309012500700000069800500400030005070002430001597020006,418296735956743218273851694349612587725384169861579423134965872682437951597128346
006204091089500000050000073020600050400000900870031006300809700007012604010400020,736284591189573462254196873923648157461725938875931246342869715597312684618457329
200080160830500490007030500006000000410069002090001730070300210058410000029005380,245987163831526497967134528786253941413769852592841736674398215358412679129675384
930002780050000064801003050000200040196070000007080603000109005200400090040650072,934562781752891364861743259583216947196374528427985613678129435215437896349658172
000601700604050100000082930020000050300960002801305007900003064403000000506210089,298631745634759128157482936729148653345967812861325497912873564483596271576214389
520009006000000470000104300608030027100080903092507040403006001017200090060805000,524379816931658472786124359648931527175482963392567148453796281817243695269815734
039041000207090004000006350000750800051080730806000900000930010628400000013008427,539841276267395184184276359392754861451689732876123945745932618628417593913568427
603000180027809300410600000300065820079023006200040001080001400000300207000097050,693574182527819364418632975341765829879123546265948731786251493954386217132497658
060490070007800900420500016503018009098005600010320004600007200000000000030906057,861492375357861942429573816543618729298745631716329584684157293975234168132986457
000601094695040000020007300230059060480000207007080100008076010900000003010030845,873621594695348721124597386231759468489163257567284139358476912942815673716932845
000000009052049000400030780690780400801004500007600030300156002906008000018402370,183567249752849613469231785695783421831924567247615938374156892926378154518492376
700890206209000370360040001003408050600000104005712000000900480070380605010005007,751893246249156378368247591123468759687539124495712863536971482972384615814625937
905004807010000004240069000000003952003070100628500000760040310300028640009100025,935214867816357294247869531174683952593472186628591473762945318351728649489136725
390060000004007360008500014081000005500078902000204100000000003620019508030080790,392461857154827369768593214281936475546178932973254186819745623627319548435682791
500001080060200903003048750006704008087030002100009005420010000705000609008973000,574391286861257943293648751356724198987135462142869375429516837735482619618973524
000690320043051600070300050000040002089005700200736008501800000038000060420070091,815697324943251687672384159167948532389125746254736918591862473738419265426573891
050061400200008003008407906390072005875900000000810030000000027010003600940250008,759361482264598173138427956391672845875934261426815739683149527512783694947256318
010500700003001620080296100400900000705003009000082003601040080092708050050100360,216534798943871625587296134438957216725613849169482573671345982392768451854129367
700400050593020600001000208000085000412600900005002037030890006000030094080016720,728461359593728641641359278379185462412673985865942137237894516156237894984516723
006900000208740005057000301400810000020500009080003670300002500015009008090006037,146935782238741965957628341469817253723564819581293674374182596615379428892456137
300040000002600490800720060000410702067500039105000004001070000079205001040069370,356948217712653498894721563983416752467582139125397684531874926679235841248169375
930800170000600500060037094200108009003260400700050020084900031500004800012000000,935842176427691583168537294246178359853269417791453628684925731579314862312786945
000092500080076403491000000004020081050307026600001705800500600009030070012004800,736492518285176493491853267974625381158347926623981745847519632569238174312764859
008900040507860200042300700000000074079001020060490051080130090300058600026700003,638972145517864239942315768851623974479581326263497851785136492394258617126749583
102400879000002050360900004705090016630047200040800000000020080070105300008009561,152436879894712653367958124785293416631547298249861735513624987976185342428379561
086050300409800007500024600001060020203401009000002700074005080002009510810000006,186957342429836157537124698791368425253471869648592731974615283362789514815243976
105206040000040050049010820501003000803000006007028900070060010000590204006400307,185236749732849651649715823591673482823954176467128935974362518318597264256481397
075260009619003007002000080240050036003400100760800950080705003090041002300000070,875264319619583247432917685248159736953476128761832954186725493597341862324698571
200058003001600000076032810700000090089003054000064200000080031400001005103200670,294158763831697542576432819742815396689723154315964287927586431468371925153249678
940075000768003050000206009021407360000800010307000804004509080513000090200004006,942175638768943251135286749821497365456832917397651824674529183513768492289314576
002080040700300001140607200010260370080000950560708000400801002370040600009000003,632189547795324861148657239914265378287413956563798124456831792371942685829576413
070000463002009700100800905001254000907010000530700208003041050060003004008002609,879125463352469781146837925681254397927318546534796218793641852265983174418572639
350610000002000109960028050104030600080700204003000590000506370000940010628000000,357619428842357169961428753194235687586791234273864591419586372735942816628173945
000087040069100008300240500900300061002970300700401020054092007087003002000060100,521687943469135278378249516945328761812976354736451829154892637687513492293764185
601407090503001000000090600812005304034100000000008702009602807070030200048050030,621487593593261478487593621812975364734126985965348712359612847176834259248759136
032900008100600094060024005040000700007432000510080060076050100000197800820000050,432915678185673294769824315248561739697432581513789462976258143354197826821346957
000004000540070390802900000900620030061008724078100000000205409700030806005060010,197354682546872391832916547954627138361598724278143965613285479729431856485769213
360007002000040600029015870008003014000068530170900000040000720500080106902400000,361897452785342691429615873658723914294168537173954268846531729537289146912476385
100000400802001900007805006043007000056930100900240005300092080000700603080150074,165379428832461957497825316243517869756938142918246735374692581521784693689153274
001857000902010000000000340700400009008020004004183500300040086509006010100030270,431857692962314758875692341713465829658729134294183567327541986589276413146938275
480700200900000105003460000590018604000500032007002008021030709030050000704609080,485791263976283145213465897592318674148576932367942518621834759839157426754629381
000007026023019470081000503000895000104600000805400900056030001372004060000902007,549387126623519478781246593237895614194623785865471932956738241372154869418962357
010050309009047005007600020403081000280300601000500400006790042502000008000010730,614852379329147865857639124463981257285374691791526483136798542572463918948215736
005807100004020003960503007300091080010030906000705201000008040607002000820410059,235867194784129563961543827372691485518234976496785231159378642647952318823416759
004070019560309008700260005000005306020004090056080040300800700000007051008100020,234578619561349278789261435147925386823614597956783142315892764692437851478156923
082010000000040051000206700903000040054790000601500309006301007047608903200000500,782915634369847251415236798973162845854793162621584379596321487147658923238479516
000790041510000900702004065030061027006002890407500030900208010043100080600000400,368795241514623978792814365839461527156372894427589136975248613243156789681937452
000340020021000800050080647200906000783000001900001035136050700047200090000008004,678345129421697853359182647215936478783524961964871235136459782847213596592768314
500002310020300007007908056010090060046023780308400000094500000200080540160007900,589762314621354897437918256712895463946123785358476129894531672273689541165247938
007004038200800105509017060305900007806200400000006000140085009000090351002070040,617524938234869175589317264325948617876251493491736582143685729768492351952173846
109530000002000470000900503063020901804000006900870020530089600407600005000004138,149537862352168479678942513763425981824391756915876324531289647487613295296754138
001000079090200380850100004320004805006003017000765000070501406038097000000430000,261348579794256381853179624327914865546823917189765243972581436438697152615432798
005000100600308052300090607052000049041000030000007800009074000006103900078062015,285746193697318452314295687852631749741829536963457821139574268526183974478962315
702030000060407509001065020200000978080004100500200034907010200830600000006700845,752139486368427519491865327214356978683974152579281634947518263835642791126793845
500000910000053000278004000040100832306700050089000600010060000903080070400329580,534672918691853724278914365745196832326748159189235647812567493953481276467329581
700602190200040780038000500860050000000090042009301600004700009070100030356400807,745682193291543786638917524863254971517896342429371658184735269972168435356429817
500100300007040090910602000001803042640900080050070006008029005309405070020780100,586197324237548691914632857791863542642951783853274916178329465369415278425786139
107590020025000000000078300063409007051830490000000160002607008300020004046103005,137594826825361749694278351263419587751836492489752163512647938378925614946183275
200007600057000190498000005002740000060803040901500008500098206000000030030106407,213957684657284193498631725382749561765813942941562378574398216126475839839126457
340027060005400700080060901100050084000708200960030050014000009500092000070503012,341927865695481723782365941127659384453718296968234157214876539536192478879543612
200470850580030900907000012005094107060005009300206040000001703000050020410800000,231479856586132974947568312825394167164785239379216548652941783798653421413827695
470008006005030009001602008000007802060590073000000500750020100800109000026340000,472918356685734219391652748513467892268591473947283561759826134834179625126345987
630790500190004007007200080280001094076005120000060000020053010400000908050680030,632798541198534267547216389285371694976845123314962875829453716463127958751689432
