000700410080020056050001070500940000670000380003860001002005709347208000100006830,236759418781324956954681273518943627679512384423867591862135749347298165195476832
908020000050080142000760308000000754000398000162000009893006010007000205600174000,938421576756983142241765398389612754574398621162547839893256417417839265625174983
403570209080003100000000004524800300006097001700040806200609700091000500305000068,463571289982463175157982634524816397836297451719345826248659713691738542375124968
860090005014280093000607080009000500200403000007950062003506007901000000020000814,862391745714285693395647281649172538258463179137958462483516927971824356526739814
100089600360010045004500017507030000003000208002948050000000304201700000700056009,175489632369217845824563917587632491493175268612948753956821374231794586748356129
900081006380900270054200100000000400067590000210800030090174020006050901000020083,972481356381965274654237198538712469467593812219846537893174625726358941145629783
040006803300500001065700400703069500000402900200070018400003006051800090809001270,947216853328594761165738429783169542516482937294375618472953186651827394839641275
760801000092000100000000247403100605800700002050040003001530900000068001379400080,764821359592374168138695247423189675816753492957246813681537924245968731379412586
500000082000605000406170050600200009031048007078009510040001396023000700000804100,517493682392685471486172953654217839931548267278369514845721396123956748769834125
000020601009008000320706090075490230100603084000500007000014000607000802043000059,584329671769148325321756498875491236192673584436582917958214763617935842243867159
070960200003080100040700065800090056310005004009630020500020019080000400062109003,175964238693582147248713965827491356316275894459638721534827619981356472762149583
600079004003001500080300026050080000000040670890602400020008000500100009970506280,615279834243861597789354126456783912132945678897612453321498765568127349974536281
000823000500000061072006090039400807050000010060075402600038700190007043007049005,916823574583794261472516398239461857754382916861975432645138729198257643327649185
930000045084013600001400007020500300000061709706008020600930204890040000070600013,937826145584713692261459837129574368348261759756398421615937284893142576472685913
062000100730058069100070000000003002501680030970000004240907056050030400009400028,862349175734158269195276843486793512521684937973521684248917356657832491319465728
780000050000007382060903100510000490807200000600051003029670034000010905000420006,783142659941567382265983147512736498837294561694851273129675834476318925358429716
001500030407003000030701080050210000089300014000097602000006240015000009024950073,861529437497683521532741986756214398289365714143897652978136245315472869624958173
000970000008306570000012604003508001092007006500004703405020190260000048301000000,634975812128346579957812634743568921892137456516294783485623197269751348371489265
020000061540100208800007940000703589060940020705008000409002700100006053083000400,927854361546139278831627945214763589368945127795218634459382716172496853683571492
003002060250006007690040801030007010810500200000610503048000030070954006109780000,483172965251896347697345821935427618816539274724618593548261739372954186169783452
087015400000600090495203061030400002002809000069050070308004050000001800270000036,687915423123647598495283761531476982742839615869152374318764259956321847274598136
100006350087900200000813400010604709050070030000200080900001002502097016400080000,194726358387945261625813497813654729259178634746239185978361542532497816461582973
850900060009003400010602750000700206000041073008290014063005000420010000905007030,852974361679153428314682759541738296296541873738296514163825947427319685985467132
200701000080200705150080090600900080001342060005010004000820350720006900034007800,269751438483269715157483692642975183871342569395618274916824357728536941534197826
150000700079600030003507802504008900000200600081709004206010300340002008000040050,152483796879621435463597812524168973937254681681739524296815347345972168718346259
702480000053160090098005002020590070000020046501300009160200750000007600004008020,712489365453162897698735412826594173937821546541376289169243758285917634374658921
507010820008007000090200400210703090046920005000605070900030051002004003160000908,537419826428367519691258437215783694746921385389645172974836251852194763163572948
042800160608005000310020400900070000001609870807050023020007345000002090093004600,542893167678145239319726458934278516251639874867451923126987345485362791793514682
000209380300065000009084205000000000630500900082607041000020009007041803106800070,415279386328165794769384215571492638634518927982637541843726159257941863196853472
806010200510740906043000000629100070001800600000002405205090008000003049700085020,876319254512748936943526187629154873451837692387962415235491768168273549794685321
100000070020060500000890420506030800030900000914080350008601007040300680705040090,183524976429167538657893421576432819832915764914786352398651247241379685765248193
007004000930100605480290000006008930000020087100400500043901800520003060060070013,617354298932187645485296371256718934394625187178439526743961852521843769869572413
702300040650008903000000102103090786008704050200016000000000400080205610490673005,712369548654128973839457162143592786968734251275816394526981437387245619491673825
302006009100730805500100007600410900047208010003000520000805406089300000006047000,372586149194732865568194237625413978947258613813679524731825496489361752256947381
005300400016040309900801005032010070060037950090608002800509000004070008300006210,785392461216745389943861725532914876168237954497658132871529643624173598359486217
900000625247065100000030070070410800090873210061009000000048090005000300430002008,913784625247965183658231974372416859594873216861529437726348591185697342439152768
000604000173900080084300520001036058900007062020090403052000000800405701300000000,295684317173952684684371529741236958938547162526198473452713896869425731317869245
042800300005070090600503007037006154901032006008000020000209008000010640004005702,742891365385674291619523487237986154951432876468157923176249538523718649894365712
060490500300108760020003084581006090900050603000700000002001000000004958097600420,168497532345128769729563184581346297974852613236719845452981376613274958897635421
001830560004702300908400007070050900503096400102000008800500046000080001207901000,721839564654712389938465127476258913583196472192374658819523746345687291267941835
089340207602800000040001005000408301470095800000700009236070190100000030008200064,589346217612857943347921685925468371473195826861732459236574198154689732798213564
315000000060007200400600081000059600542080000790400003000913000079002304200800506,315298467968147235427635981183759642542386179796421853654913728879562314231874596
000203900063400071001900850000650008002700310100032004820009000700000009430008162,578213946963485271241967853394651728682794315157832694826149537715326489439578162
890061057050090000000800034074050601100300025260000300007000109028500760640900080,893461257452793816716825934374258691189376425265149378537682149928514763641937582
009005061003280040004090700600040950000006003002010076908700015540020007201903000,729435861163287549854691732617342958495876123382519476938764215546128397271953684
007000503008000612600104079045000000900087050203460008020356000004090060010000907,197628543438579612652134879845913726961287354273465198729356481384791265516842937
005803020400009010001470806008056003600180090070230000000000400950000238204790005,765813924482569317391472856128956743643187592579234681816325479957641238234798165
037000026010400709500000003009600000600300547400258000008002170021064000300901080,837195426216483759594726813159647238682319547473258961968532174721864395345971682
005001000170009460020687030000890000490106073803402010000020600049000005037005140,365241789178539462924687531716893254492156873853472916581324697649718325237965148
090600100002070040060835027058900064003082000710400050081006009400000005920001603,597624138832179546164835927258917364643582791719463852381256479476398215925741683
270504800051000000900800230009760004480200070000045309000010060790003008046002750,273594816851326497964871235319768524485239671627145389538417962792653148146982753
007060409000100800000005700080709003390000607005006012670823005102400060039050000,517268439923174856468935721286719543391542687745386912674823195152497368839651274
020007801105000600098000450000002000009034170470508906080040209003801000907065010,624357891135489627798126453316972584859634172472518936581743269263891745947265318
800204030740000800009150607000020050001300928900561000407003000000080061062790400,816274539745936812239158647374829156651347928928561374487613295593482761162795483
010080205620104800009300000130005000008400007500870060250000009701020406086930100,314786295625194873879352614137265948968413527542879361253641789791528436486937152
240000050100002309038750200700609040050300006001200870569000008000030010000984020,246893751175462389938751264783619542452378196691245873569127438824536917317984625
400100060203000009010007850009450070008062530021080006090008400002510000670320100,487195362253846719916237854369451278748962531521783946195678423832514697674329185
000040708030109000500003060708400000620070950094001020000000203089506401003024690,916245738837169542542783169758492316621378954394651827465917283289536471173824695
073850400800009005000030610901500063320400007080020000004078001500010090607300042,173856429862149375459732618941587263325461987786923154294678531538214796617395842
080750900200090800040308160100002004008401300090060720760209000002000670430000058,681754932253196847947328165176932584528471396394865721765289413812543679439617258
500700200079013450006290008860001509045006071000000300087002630092050040600000000,518764293279813456436295718863471529945326871721589364187942635392658147654137982
400329500000041096020005007200867003070500801050010000010070320030004780095000000,467329518583741296129685437241867953376592841958413672814976325632154789795238164
010090000207030008800100936900070003000001850005400200060050000020900105043800702,316598427297634518854127936981275643472361859635489271169752384728943165543816792
000340009025000740080009100007032600630800570000100008054060280200417090009050061,716345829925681743483729156897532614631894572542176938154963287268417395379258461
670002010019600007205040300000004002008100093741300000100980046030000050002075900,673592814419638527285741369396854172528167493741329685157983246934216758862475931
009600780104708000300005960006800140043200590200009008000000000651040000070060325,529634781164798253387125964796853142843216597215479638932587416651342879478961325
000050000060092504030710098010006700059000042000820061700401209304580070006003005,941658327867392514532714698218946753659137842473825961785461239324589176196273485
580007039300090008000002710040035060032400081600708004479006000010950000806100400,581647239327591648964382715148235967732469581695718324479826153213954876856173492
075920000040000103600801200080000049001030025000507608702019400006054030430000070,175923864248675193693841257587162349961438725324597618752319486816754932439286571
900400070304080106058012000002000350010006207830001004705609800000250039000008400,921463578374985126658712943462897351519346287837521694745639812186254739293178465
001090080540028903030470000802007004019006200300000016204009100080004700007381500,721693485546128973938475621862517394419836257375942816254769138183254769697381542
400600309605200000080570020002097430009080106710300800108025000090000007570064001,427618359635249718981573624862197435359482176714356892148725963296831547573964281
008000417040020003000709820700000000051460900200031046030600079000800500096205030,928356417547128693613749825764982351351467982289531746835614279172893564496275138
630010080009607003450002600002100000080006540504008900300005720005920001090800430,637519284829647153451382697962154378183796542574238916318465729745923861296871435
090407020000000106050826030900180257000030000004605900760009008320000504840050700,693417825482593176157826439936184257578932641214675983765249318321768594849351762
000093000468005100903840020020350076100904500700000010000009007050210460009560800,572193648468725193913846725824351976136974582795682314681439257357218469249567831
014002900600008023003500001700005000036900700925064008000019050007080600408600032,514372986679148523283596471741835269836921745925764318362419857157283694498657132
800700109013059006009002030350007040020100060086290500000000000000064850790008003,845736129213459786679812435351687942927145368486293571568371294132964857794528613
000520080060098070120003006700001420009040005003052001845700000900065308002000090,397526184564198273128473956756381429219647835483952761845739612971265348632814597
010039850050607000406000027039200004200050030574081900003008070000043009680500100,712439856358627491496815327839276514261954738574381962943168275125743689687592143
062400000780000400000850030000030950004026003970100680600580219500003807140007000,362471598785369421491852736216738954854926173973145682637584219529613847148297365
050040000306010000400905087001600009807004030600280075280001406700000900040530020,958347261376812594412965387521673849897154632634289175283791456765428913149536728
000004800083510029102000076070060005001020040008705630090040308037000090600800052,956274813783516429142983576379461285561328947428795631295147368837652194614839752
900300560300090001007208030060013200720040000503006084180005726470000005000000908,948371562352694871617258439864513297721849653593726184189435726476982315235167948
470000009030100600006050080000320090008060513710098400040012050500604700200900008,475286139832149675196753284654321897928467513713598462347812956589634721261975348
074000630080000271650200009028004003007100960500738004000902017040000000903560040,274819635389456271651273489128694753437125968596738124865942317742381596913567842
209060370003010604000800000186590002020000510007030086700020040401600900500107800,219465378873912654645873291186594732324786519957231486768329145431658927592147863
103420070750300200000005016471060090000090128900003040645001009290007000000500800,163428975759316284824975316471862593536794128982153647645281739298637451317549862
001860000090004012035100004073280061462003050000070090620500000009001007504009380,241867935796354812835192674973285461462913758158476293627538149389641527514729386
740065003065490208008027000351000007006001090800070050009206005010000400007380069,742865913165493278938127546351948627276531894894672351489216735613759482527384169
002003600080090530007800041900070005600300408074016000005002810030054092060100300,512743689486291537397865241923478165651329478874516923745932816138654792269187354
060870003159000086300900240008000021001700504230060000016002057070090060000030098,462875913159243786387916245748359621691728534235164879916482357873591462524637198
000012780008000302907500010050100830601000000030479006006030001740090500005600923,364912785518764392927583614459126837671358249832479156296835471743291568185647923
190020000504007600030596800060070083012800067003104900700003510000049030020600090,196428375584317629237596841465972183912835467873164952749283516651749238328651794
006205407000680020090704000070009050001500060080100902062000304300801005015032008,136295487457683129298714536674329851921548763583176942862957314349861275715432698
050600040081920000602037910006003200800060007409702060000000005034801070095040031,957618342381924756642537918576193284823465197419782563168379425234851679795246831
100000904046700000500906870804672005090800100032001600357080000000150002200000039,178325964946718253523946871814672395695834127732591648357289416469153782281467539
316000009090703100400290065008052001003010470940080000020070090800530006005006040,316845729592763184487291365768452931253619478941387652624178593879534216135926847
062007409050100020400060037000704000087002106030005800206091005800300200090500064,362857419759143628418269537621784953587932146934615872276491385845376291193528764
800003507006900021703400090000019030180000072029004060050608400460325080000000000,892163547546987321713452698675219834184536972329874165257698413461325789938741256
