900804000026050074500030010070000056000120809300060020002019040430600700169003500,913874265826951374547236918271398456654127839398465127782519643435682791169743582
200000007500906010010300540072105980900800300004000006607003050035004002029007608,293451867548976213716328549372165984961842375854739126687293451135684792429517638
076002008400809600200065910040926050700100003050004802067000100380001005090500040,976412538415839627238765914843926751729158463651374892567243189384691275192587346
500600800018200307302090104000806002000000435795000001689010000070002000001384900,547631829918245367362798154134856792826179435795423681689517243473962518251384976
900001020005080103040003050630850010102007000700000430007409008020600745000200300,973561824265984173841723659634852917192347586758196432517439268329618745486275391
008000009065274080413060000002508140000010030007600508000705000790120006050040023,278351469965274381413869275632598147589417632147632598326785914794123856851946723
430200079209840003000030000078000100004526000500170604900060732060903008001000050,436215879219847563857639241678394125194526387523178694985461732762953418341782956
006700509080021040005900038500100600400000080000042307060005103027680090309000000,246738519983521746715964238538179624472356981691842357864295173127683495359417862
270150300080007000301026408006070040000010052507402006000030890900504030800000501,274158369689347215351926478126875943498613752537492186765231894912584637843769521
604100203090020008000007500200079060015000007000403050150006370089050004306092100,674185293593624718821937546238579461415268937967413852152846379789351624346792185
008790030000002710000615009006520080930000204005470000280000095600030070040906008,168794532594382716372615849416523987937861254825479163283147695659238471741956328
030010792700300804800040650590200070400090108008000005000002369920001000005007040,634518792759326814812749653591283476473695128268174935147852369926431587385967241
000006594700013008026800003064090000307080001500007020000039085019270040053140000,138726594745913268926854713264591837397482651581367429472639185819275346653148972
100206005074300020000050830000960002390405000600120350280004007003090501400017080,138246795574389126926751834815963472392475618647128359281534967763892541459617283
000308000107059060034010920705204000006000350300095107070061004098000200500040038,659328471127459863834716925715234689946187352382695147273861594498573216561942738
004780000059200100700605248000039004108000030600400512005007609320000700010802000,264781395859243176731695248572139864148526937693478512485317629326954781917862453
003051067900030010580600200400000700608403002050820001007000504090060020804019600,243951867976238415581647239432195786618473952759826341167382594395764128824519673
001000750006020003050074106590000060302098400040006007200040000809360070070581209,421639758786125943953874126597413862362798415148256397235947681819362574674581239
005007601370000920208030040804690010000500003706801009047005280000960000012000005,495287631371456928268139547854693712129574863736821459947315286583962174612748395
006140003700020500104030020000017060080200039291000075503460902000800004060500007,826145793739628541154739826345917268687254139291386475573461982912873654468592317
080005000017028000306090054490030007000004002005681003030000075009016040108700260,984365721517428936326197854491532687863974512275681493632849175759216348148753269
600712030100000570940060002402800060050600209701040000000098407030057098000400005,685712934123984576947563182492835761358671249761249853516398427234157698879426315
001090370030450200906800100547000810080000600000702009800604003090020760010007405,451296378738451296926873154547369812289145637163782549875614923394528761612937485
000003906009180000080002740810700509006005014300000020205001400061309008730426000,127543986649187352583692741812764539976235814354918627295871463461359278738426195
005170006900068103700030405382005000050600900001000024100053007208000000000849600,835174296924568173716932485382495761457621938691387524169253847248716359573849612
030006050600529080000010470092050100061203000050680009200800604400000590073004008,138746952647529381925318476892457163761293845354681729219875634486132597573964218
070056040428000005000012038801030596005600004300049070000068003900000010537000002,173856249428973165659412738841237596795681324362549871214768953986325417537194682
040010590030000026700908000000060908007405000010200730200603100008740005650090403,842316597139574826765928341423167958987435612516289734274653189398741265651892473
200006300058300410076090800009560001040002030080704060001049570007100020020005009,214856397958327416376491852739568241645912738182734965861249573597183624423675189
000001004480000070002306500900530001601029007000008040090605080070094305120070060,569781234483952176712346598948537621631429857257168943394615782876294315125873469
201003407005018029090000300750000060024007000003184000810950740600000092000732800,281693457375418629496275381758329164124567938963184275812956743637841592549732816
009430076300002009070010840050700002000504681000098000800000130064100905203900400,189435276346872519572619843458761392937524681621398754895246137764183925213957468
000069507007020068080103020900005804013708900000201000050000200030457000164300090,421869537397524168586173429972635814613748952845291376758916243239457681164382795
500290030700000010640030005005184076009000400100075082080040060001300027320700509,518297634793456218642831795235184976879623451164975382987542163451369827326718549
030978010002000007000510000071003906980050400004006008400020693200730000850049100,635978214192364587748512369571483926986257431324196758417825693269731845853649172
005003200012000690980500000790005100060201943000640000003006004056420080070310002,645193278312784695987562431794835126568271943231649857823956714156427389479318562
210000500400930060083601270040068010000025907700403800102000000090580600067009030,216874593475932168983651274549768312638125947721493856152346789394587621867219435
010090200007005000068420937000009300403600008059800002100070604045003000070002810,314796285297385461568421937781259346423617598659834172132978654845163729976542813
291043060700000043005800100039007000600205008000090016018060097000501000467008020,291743865786159243345826179139687452674215938852394716518462397923571684467938521
402603070180020030700450009000805000000010502308096001803000010920708304007009060,492683175185927436736451829214875693679314582358296741863542917921768354547139268
008700302409000008005920000000007000030406501001500634007065100800041007600300280,168754392429613758375928416546137829932486571781592634297865143853241967614379285
290017000000506800053000060010483050008020310049600700005008001600340209037000480,296817543174536892853294167712483956568729314349651728425978631681345279937162485
430000005800506017060270900600314000000600008700050409580401093001038200002900000,437189625829546317165273984698314572254697138713852469586421793941738256372965841
000009210001387050463500008000094800007001020986000000129700300050006000000105074,875469213291387456463512798512694837347851629986273541129748365754936182638125974
730005061000100340050860902800050000100200034004907500603040080200001600079008000,732495861986172345451863972827354196195286734364917528613549287248731659579628413
001600304450301008680790050007000029010000605900002430072860040300005000096010070,721658394459321768683794251837546129214937685965182437172869543348275916596413872
001004300820060070000723800930500001056000200048001009200605980007048005000302460,671854392823169574495723816932586741156497238748231659214675983367948125589312467
100006040000007902030480070004859030520030100009000060060540008098100720000070416,175296843846317952932485671614859237527634189389721564761542398498163725253978416
090300600204007800003068040750020003000006001806501070000050304035700290412900050,198345627264197835573268149751829463329476581846531972987652314635714298412983756
000086300060304702020000009300072080900000005574010600100907506030048200000005010,759286341861394752423751869316572984982463175574819623148927536635148297297635418
080950010070134000040000502004000006210807090300096840030701600009003720005060080,683952417572134968941678532894315276216847395357296841438721659169583724725469183
051600403300080090082090007100007008040005260000410900810003509004820016000000030,951672483367584192482391657195267348748935261623418975816743529534829716279156834
009300701160780530500090040002900680090034007007068305001020000030150400080006020,829345761164782539573691842352917684698534217417268395741823956236159478985476123
025000941030060007100200500062580000004090730008300006800426000700001000050008419,625873941439165827187249563362587194514692738978314256891426375743951682256738419
900080157040060030007050009500100026030500001010328040260000900700034082054700000,926483157145967238387251469578149326432576891619328745263815974791634582854792613
001369007950000008604020100000030400008540601502007009060400705080001006235090800,821369547953174268674825193716938452398542671542617389169483725487251936235796814
700803000060001308208470100800052007010004000305090410420009803000206000006300059,791863524564921378238475196849152637612734985375698412427519863953286741186347259
820900614005002000907000080370400005096003100010280070600740000450600093000310020,823957614145862937967134582378491265296573148514286379632749851451628793789315426
900000000080470012015003400702160304030050100000004070600095000108340920050002680,947521836386479512215683497792168354834257169561934278623895741178346925459712683
020300800709001005050080214030040000204600703008790000005008020610009050000034096,421356879789421635356987214537842961294615783168793542945168327613279458872534196
009180000500032000007004162000000043024059700610000800080700090750006280000340050,269187435541632978837594162978261543324859716615473829486725391753916284192348657
005040108120500300070002065053007200007806090290310004009038600000070400680000002,965743128128569347374182965853497216417826593296315874749238651532671489681954732
250000100000380047007065029100000832000940060705003000002610093834207001001500000,253479186916382547487165329149756832328941765765823914572618493834297651691534278
000798104000410000007260809030006080005000607049020030506009048100000725000030010,352798164968415273417263859731956482285341697649827531526179348193684725874532916
700050429300000060084090700050268010000010040002000508200540097900300184106900300,761853429329174865584692731457268913893715246612439578238541697975326184146987352
340609000100028903058010402005740010090006005200005608010903000780060594000000700,342659187176428953958317462865742319491836275237195648514973826783261594629584731
410308209000574060007100030903006000500000008061729400120903005000017080090040006,415368279239574861687192534943856127572431698861729453126983745354617982798245316
860020100430000028100503009050000090090651003600700200000904700307000010084200065,865429137439176528172583649751342896298651473643798251516934782327865914984217365
008000524040027800000009030030190760005002009100064002007000105580030906016700040,798613524643527891251489637432195768865372419179864352327946185584231976916758243
045000080000060397300072001070030058108009203260000000500600000081004720920500400,745913682812465397396872541479236158158749263263158974534627819681394725927581436
013204005820709000050038600004607019005040000600000830200001307030000000768002400,913264785826759143457138692384627519195843276672915834249581367531476928768392451
070060000005000861301409020090300002500000108003257400009140000406072309080005670,278561943945723861361489527694318752527694138813257496739146285456872319182935674
002571000907004000085000006800090310400100629000006500009002430320760980000430007,642571893937684152185923746856297314473158629291346578769812435324765981518439267
746800900020100030038000074000052000982000640600000010305080060000079083010004209,746835921529147836138926574471652398982713645653498712395281467264579183817364259
032000080090031607600800400325007100109000740000208000508049036000100900007600005,732964581894531627651872493325497168189356742476218359518749236263185974947623815
970004000005792000604051008459800001000100973300060800201430605006000400000520030,973684512185792346624351798459873261862145973317269854291437685536918427748526139
003500000020039068704002030006007021509000800270800004000601009310020700960085042,693548217125739468784162935836497521549216873271853694452671389318924756967385142
850947010701062500000000000200501004600038200400090780106080030090004070007003068,852947316731862549964315827283571694679438251415296783126789435398654172547123968
300009581098020043060010000500008000700064302000051004250000000800030700004007219,372649581198725643465813927543278196781964352926351874257196438819432765634587219
034000000000701000806300400000092041600004983001050007002000300187005029490016700,734568192259741836816329475378692541625174983941853267562987314187435629493216758
049200000001053008850006923120040035070080000000730016904100067700004509036000002,349278651261953478857416923128649735673581294495732816984125367712364589536897142
003090105200500060980700000090200387006000940870400000100920703530080020004010600,643892175217543869985761234491256387356178942872439516168924753539687421724315698
076020413300008005100640070701500200005010064020789000008030000060000058097000020,876925413342178695159643872731564289985312764624789531518236947263497158497851326
910203806000018450020700000680000513000070000094050008340090200100604007800002605,915243876763918452428765139687429513531876924294351768346597281152684397879132645
000007040008300102629001050907006008032010400040039570000060930000850007061004200,153627849478395162629481753917546328532718496846239571785162934294853617361974285
000040000009002187165803900500006200903050400020300801090120000000004603047609002,782941365439562187165873924578416239913258476624397851396125748251784693847639512
400802900061050000208006070000301000010280603090740020604090280080500301003070050,475832916961457832238916574842361795517289643396745128654193287789524361123678459
059480760704050000000002049938010007100005020070036000400900370813000200000060005,359481762724659138681372549938214657146795823572836914465928371813547296297163485
002600100800000004609003050970001005005047000400290830080050079100036002700080640,542678193837519264619423758978361425325847916461295837286154379194736582753982641
024003800100000200035060700000027690050390002980040103500970300008136040007500060,624713859179458236835269714413827695756391482982645173561974328298136547347582961
900105020600000803000070000530040006481096000000050070310002790004300008002460105,948135627675924813123678549537241986481796352269853471316582794754319268892467135
003200090720600140901350260500090720000008004600700301800037605000000009070546800,463271598725689143981354267518493726237168954694725381842937615356812479179546832
690004001000370650020001039006120970840000065009000803200830000308006040007500010,693254781481379652725681439536128974842793165179465823214837596358916247967542318
050020094090700060600103007380041070001002035970006402704000901800030250006800000,157628394293754168648193527382541679461972835975386412734265981819437256526819743
100000070000053002600020193002630501078040060000890004031470008090012406005000000,123964875789153642654728193942637581578241369316895724231476958897512436465389217
020008006604100003003000910460070002000009070900206358059304800201690007000700500,125938746694157283873462915468573192532819674917246358759324861281695437346781529
600800902204003010081700060700095001040300790008001203010007328039006005500000000,657814932294563817381729564723695481145382796968471253416957328839246175572138649
040000002800070310006002075250480900103906000004020000070003008901700526000219004,749135682825674319316892475257481963183956247694327851472563198931748526568219734
503170000900400160008006027024000593000600800109300074000800941706930000800050000,563172489972483165418596327624718593357649812189325674235867941746931258891254736
407901200500602030300007406780000000020700041000095608000500010049006520001083700,467931285598642137312857496786314952925768341134295678673529814849176523251483769
