041800050570900060060310002035407080004000701980002000002008310000700609300059040,241876953573924168869315472135497286624583791987162534792648315458731629316259847
060470518000002040307080900000005102702069004054000603910230000005816000800000700,269473518581692347347581926698345172732169854154728693916237485475816239823954761
090005002004060730500280001908020000160040570043901600000836090030710200000000084,391475862284169735576283941958627413162348579743951628425836197839714256617592384
005060030810405020032000090000350000003080016070109004900200760008017200400008150,745962831819435627632871495184356972293784516576129384951243768368517249427698153
706041009104050026020003004860027000000005000402360700000000097083100200050986401,736241589194758326528693174865427913379815642412369758641532897983174265257986431
014000000750600080800023700000200000068500034000041907403007051509400006070308020,314785692752694183896123745947236518168579234235841967423967851589412376671358429
080000600360210008050069307900487060020035000034000100072900000003500421100008500,489753612367214958251869347915487263628135794734692185572941836893576421146328579
035080046120049080000700000790000001583062000040003000600000820019504603002006050,935281746127649385468735912796458231583162497241973568654317829819524673372896154
060010005700204300008769200043000860609000007000320100500008709000170400280045003,462813975791254386358769241143597862629481537875326194514638729936172458287945613
000006080100740302930050000300802006001060709007005040806020001000004957054039200,472396185165748392938251674349872516581463729627915843896527431213684957754139268
098000007632001900000000250010400032900070580006080700700908463160002000004507000,598624317632751948471839256817495632943276581256183794725918463169342875384567129
050076290800900000400008031207009580103605000080300046009062004530000010000010870,351476298872931465496258731267149583143685927985327146719862354538794612624513879
700043589000206100410500300006008000043007020009010005080390041200000700054020608,762143589935286174418579362526438917143957826879612435687395241291864753354721698
040200009005001000860500037050097403002060701090000680000074150008010060600008902,743286519925731846861549237156897423382465791497123685239674158578912364614358972
104009000300056902026300008000000600502001097080700314830502070090800030007400001,154289763378156942926374158713948625542631897689725314831562479495817236267493581
006008050058190000030700019200000970000380000341000602807216400000004790064030100,916428357758193264432765819285641973679382541341579682897216435123854796564937128
800000050006800300207605001401050000093020700700060029000042060500371084000000197,814237956956814372237695841421759638693428715785163429178942563569371284342586197
120009030905080004006003010060007052500010090302600700013000028000004006070152009,124569837935781264786423915861397452547218693392645781413976528259834176678152349
050206003009000650630010490702000900005079068000380017840905000100034800027008000,451296783279843651638517492782651934315479268964382517843925176196734825527168349
020700091049080007300004560580007010001900203700006040070032086056000000000041002,825763491649185327317294568583427619461958273792316845174532986256879134938641752
000024583002015600006397010061000800800752090700000304470080205000000000915046000,197624583342815679586397412261439857834752196759168324473981265628573941915246738
000400018063050400407300205039875600850640000700009000002900000090010504010002730,925467318163258497487391265239875641851643972746129853572934186398716524614582739
060010900000008027000349050100830000009000706052000480034200501800064079700500040,568712934493658127271349658147836295389425716652971483934287561825164379716593842
800500706015082000093600200001070000246000080080900031300017005000360009052004600,824539716615782394793641258931478562246153987587926431369217845478365129152894673
078600590300000006025000183507004300900803002400900010040080020060027941001006700,178632594394158276625749183587214369916873452432965817749381625863527941251496738
000000031002010960065038700010004309050007280890503074780000005004769800600002000,948276531372415968165938742217684359453197286896523174789341625524769813631852497
060090430240010008105000002000000065020800913000650840400070329090504000671300000,867295431249713658135468792784931265526847913913652847458176329392584176671329584
040000800025109073007582000950400208001028069030005001603070000080060417090000020,149736852825149673367582194956417238471328569238695741613274985582963417794851326
000192504740006100000500080012000090004700800000689010060000705050000930078450200,386192574745836129129574386812345697694721853537689412263918745451267938978453261
705000084000080302230500000301406075090801000006070209980003460000109000154200007,765932184419687352238514796321496875597821643846375219982753461673149528154268937
980002301005006000724030090008700000000810640070003250042580060030009800009061700,986452371315976482724138596568724139293815647471693258142587963637249815859361724
480007901095020730000500000150703020000090060007450003004000295030000180026008004,482637951695124738371589642158763429243891567967452813814376295739245186526918374
250004807009020060004087100500000080010300400640002573030009040090073015806005200,251634897789521364364987152523746981917358426648192573135269748492873615876415239
640800300000090758050012000900400600000029030015708002007003806080005043420100500,649857321231694758758312964972431685864529137315768492597243816186975243423186579
073040050090100400500600000600527009340000000002060817009010000400702680801035092,173248956296153478584679123618527349347981265952364817729816534435792681861435792
170000040000507003008016002090000105000603000427008009230001708054200060806300094,175832946962547813348916572693724185581693427427158639239461758754289361816375294
090030087005001430470600005506000009729000100138050064002840500000900000080076201,291435687865791432473628915546187329729364158138259764912843576657912843384576291
010604900026070030300205000701400008000059000430180070009018705840000190000006002,518634927926871534374295861791463258682759413435182679269318745843527196157946382
004012000009507360032080070900400530080060040600003901108025000000001705200090608,764312859819547362532986174921478536385169247647253981178625493496831725253794618
000009240030000009904800503006078300018006904705030020080600010100004700503100608,851369247632745189974812563426978351318256974795431826287693415169584732543127698
800010090000450360013090504000700020308060000570800400050002803031006079007049010,845613792792458361613297584164735928328964157579821436956172843431586279287349615
000100780894000000307206004100000007045010030002050608000400120960003040000590300,256149783894375261317286594189632457645817932732954618573468129961723845428591376
010040002300900000080062097009008026001700500864010000000509208700300460058000070,917843652326957841485162397579438126231796584864215739643579218792381465158624973
000108060050000730809000012480001000263050004010006020602004075000037090090280003,324178569156492738879563412487321956263759184915846327632914875548637291791285643
701405000800000103004009650002061000000900586003000090570604302109300400006802070,761435829895276143234189657982561734417923586653748291578694312129357468346812975
000031009190040600250807400308005701002900000400060300001700260000089070084200005,847631529193542687256897413368425791512973846479168352931754268625389174784216935
091520000507800400000000003200000006030290758076301040000040269460008010015030070,391524687527863491648719523259487136134296758876351942783145269462978315915632874
790006000305000908081000240030800504407001026060200003504070009000605100800320070,792486351345712968681593247239867514457931826168254793524178639973645182816329475
006900720300408000510000006021780005900010230700600040084000500050102098090070604,846951723372468159519237486421783965968514237735629841184396572657142398293875614
000300000058604010090015780043000900007428600085003021104700090000006253060800000,421387569758694312396215784243561978917428635685973421134752896879146253562839147
000147390003800000705002804370004250000001038200509600000250001098000006060970040,826147395943865172715392864371684259659721438284539617437256981598413726162978543
012900003930026000607008500800650020004009810000103700003402070020090001495700060,512947683938526147647318592871654329354279816269183754183462975726895431495731268
010000300009048610040036290005600430724000000800051070000502740006080059007009006,612975384379248615548136297195627438724893561863451972981562743236784159457319826
300000500600803021008490070040602097007001208801000040000054803106027400030900000,379216584654873921218495376543682197967541238821739645792154863186327459435968712
002701540053000007700400038060308402000100856290040000000500000800020670147060900,682731549453289167719456238561378492374192856298645713926517384835924671147863925
540602000708030100010400059086207014300000000274090005890006000000305402000001670,549612783728539146613478259986257314351864927274193865892746531167385492435921678
007008000062090430401502980500030206000950370080000004090083001308400020070100050,957348162862791435431562987549837216126954378783216594295683741318475629674129853
620000900005042087000030060007901206038405001009020500012000075900170304400006800,624817953395642187781539462547981236238465791169723548812394675956178324473256819
000940002290005010470380006000013020059006704000000800700200603028007045604100090,586941372293765418471382956867413529159826734342579861715294683928637145634158297
500402108070000000604087530008030907407506000300009006010900040003058000005001362,539462178871395624624187539168234957497516283352879416716923845243658791985741362
250003108000400000003006274109002700345000601060000083806579000007010090500000030,254793168678421359913856274189632745345987621762145983836579412427318596591264837
013600480000000002070042090000300501605080009042007300001204007900053000756900204,213679485469835172578142693897326541635481729142597368381264957924753816756918234
680300017200100003005094000070040062100230705000070308020000080501007604034905200,689352417247186953315794826973548162168239745452671398726413589591827634834965271
809002005000054700072160000004090020006800310307001804000400030200509001010073609,849732165631954782572168943184397526926845317357621894795416238263589471418273659
001700200059008470040235600800004000005306090090000327003010540010000080600802900,361749258259168473748235619837924165125376894496581327983617542512493786674852931
700301600006000320030000045900076800008005009203940010000014080150000007409762000,724351698596487321831629745915276834648135279273948516367514982152893467489762153
030905100090000027800160400003000090500048600401702000000080250920670043008003001,734925168196834527852167439283516794579348612461792385317489256925671843648253971
000004060900270300021003097600000010204019050007050803000406508000000024030581009,378194265946275381521863497653748912284319756197652843719426538865937124432581679
080000062030050819461000005050390000008200600170500304510804000000009047709020003,985713462237456819461982735654391278398247651172568394513874926826139547749625183
004000652100080090396700000080503069062040700507000100040210083000900406758300000,874139652125486397396725814481573269962841735537692148649217583213958476758364921
040057090300001000187006005000000001761095802430080600520460900000003060008700300,246857193359241786187936425892674531761395842435182679523468917974513268618729354
005801039602400080100000000408900006300705104071000200030046020009530410500070000,745821639692453781183697542458912376326785194971364258837146925269538417514279863
000006803030527010150000279008040360500100704690000008070395000000000042961002500,247916853839527416156834279718249365523168794694753128472395681385671942961482537
309104700270080000061000409000416500003900026050700008600805004090300060015002390,389164752274589631561237489928416573743958126156723948637895214492371865815642397
000790046092048000008006203306080904504060070700005001040001728000900000251003000,135792846692348517478516293316287954584169372729435681943651728867924135251873469
260080003700960040004000500009070002030201460800306009000500800983040020020100097,261485973758963241394712586619874352537291468842356719176529834983647125425138697
100020090020090076079530800040670208560004000800000041000000903008340007003281500,186427395325198476479536812941673258562814739837952641214765983658349127793281564
840060010015000620070089004608070035001095400004000890500004700030200160009600000,843562917915743628276189354698471235321895476754326891562914783437258169189637542
000000358890070006200105000300640075009310060420059800004260000071000030080000497,147926358895473126263185749318642975759318264426759813934267581571894632682531497
003000729920360085007040003000070040010902000038001062160094500095130200000008000,643815729921367485587249613259673841416982357738451962162794538895136274374528196
400590600050020100037000080100000470020006000843001009000019028300805700690203504,481597632956328147237164985165982473729436851843751269574619328312845796698273514
008004710020350000501068209070129006469030000300480000054000902700900400000005601,638294715927351864541768239875129346469537128312486597154673982786912453293845671
004008020308005170620900008806104090009300010750000300100092047000037080002500600,514768923398245176627913458836154792249376815751829364183692547965437281472581639
190704300000600070300020584470200000010050000020061093640003812000000459800900000,195784326284635971367129584473298165916357248528461793649573812732816459851942637
030180070605023980401500000200048006703600000006309100000270598100000704000800602,932186475675423981481597263219748356753612849846359127364271598128965734597834612
000450100053060700702000006000802910900500002300040068006174080009000430210080005,698457123153268794742391856465832917987516342321749568536174289879625431214983675
908000002000901700200740000010070540500200038403000006005080300109600000806312950,978536412364921785251748693612873549597264138483195276725489361139657824846312957
400308000072100048000020705060240000310506020020010900800600054005090603130007002,451378269972165348683924715768249531319586427524713986897632154245891673136457892
830450000700200940000001506002085301090370008600090070240000069109006200008000150,836459712715268943924731586472685391591374628683192475247513869159846237368927154
000900060004502080600070530020600000030204096090010074800005009041030050970000140,752983461314562987689471532428697315137254896596318274863145729241739658975826143
600904008000107046097500000010000052302000600800091007050780390040006280230000701,621934578583127946497568123914673852372845619865291437156782394749316285238459761
704005000060709804380006000409008200020000407000030619170063002000512300008090500,794385126561729834382146795419678253623951487857234619175863942946512378238497561
000608050940002700506090340200060190070004000108500200010000630003100000020073408,732648951941352786586791342254867193379214865168539274817425639493186527625973418
063200509000008000704060002091004008802009146070000050300002607020570030600190800,163247589259318764784965312591634278832759146476821953315482697928576431647193825
040000000038700062007800109406095008001000005095067030600200400210039070053040021,142956387938714562567823149426395718371482695895167234689271453214539876753648921
000500004903026010080309700804010602057004900100200037000000065000870200090065800,726581394943726518581349726834917652257634981169258437378492165615873249492165873
001075090350002006804000700070000530523100600000000049006018027140360080005409000,261875394357942816894631752479286531523194678618753249936518427142367985785429163
000520710083060050050400009006900020508006300109008407407000082000030006900041003,694523718783169254251487639376914825548276391129358467437695182815732946962841573
020605080083001059040000700000067308019400006700208500071090020060030040204500031,927645183683721459145389762452967318819453276736218594371894625568132947294576831
140000008037001020009637000000084600600005402000070193084002075015098204000400000,146529738537841926829637541291384657673915482458276193984162375315798264762453819
