053100007008004090926075801000031000004008600000602530809000420070400900200000073,453189267718264395926375841562931784394758612187642539839517426671423958245896173
004060200000002635000058097700030004902870013600000020530009046091000000060140850,354967281879412635126358497785231964942876513613594728538729146491685372267143859
000000900072300080500610040048762301010005670050000009087050002001204860000031004,864527913172349586539618247948762351213495678756183429487956132391274865625831794
000000703006200180400867090100405009000093206007000000010748305203901040050006008,928514763576239184431867592162475839845193276397682451619748325283951647754326918
097300400800740001000001020023980100640070509000604000030529007018000000200060350,197352468852746931364891725723985146641273589985614273436529817518437692279168354
970000200130000756000040001000073180005000000000619043020400368090802010046730905,978156234134928756652347891469573182315284679287619543721495368593862417846731925
010000509509870002003000084807004290004100653060003000002761000050020100400930000,718342569549876312623519784837654291294187653165293478382761945956428137471935826
009060005050102040000050100091073800008200007300094602500006409020301080060500730,139468275756132948482957163291673854648215397375894612513786429927341586864529731
170006004908070000400082500060210047090500082081009600000304208000000093350007460,175936824928475316436182579563218947794563182281749635617394258842651793359827461
094010020000000963280050007021900400000200058007860009510700600040080300900034500,394617825175428963286359147821975436639241758457863219513792684742586391968134572
004030068070000030000801002100608740520040083000070001240000096083900050790263000,914732568872456139356891472139628745527149683468375921241587396683914257795263814
416000008053600720700080000000018006040093800205004903024076005000050090060030241,416927538853641729792385164379218456641593872285764913924176385138452697567839241
083500096001030027500170400000680003900004800600900075000468000205000304070320010,783542196491836527526179438152687943937254861648913275319468752265791384874325619
001008030009500600607900004700000002030050040025706810000002000160090073092340501,241678935389514627657923184716489352938251746425736819573162498164895273892347561
000043980610000035400900000804005703000704060905036002008012350000507209102000000,527643981619278435483951627864125793231794568975836142798412356346587219152369874
840230000000010532005009100700000856090057000300826900100000094420600000006390070,841235769967418532235769148712943856698157423354826917173582694429671385586394271
240005703100700020080093060002000071050930406038600200000100000325080900009057840,246815793193764528587293164962548371751932486438671259874129635325486917619357842
000009280102006003430000500300700060076080094090015320008407000600052710200008030,765349281182576943439821576321794865576283194894615327918437652643952718257168439
032000006609740500000090120000000658905003007040028300003804090100207000070061400,432185976619742583857396124321479658985613247746528319263854791194237865578961432
000000019300978060450020300090300082046500001003600507060041020800003700702800004,678435219321978465459126378597314682246587931183692547965741823814253796732869154
004000703900506008020900000300010609005060040000008001006029135010003207008750004,654182793971536428823974516382415679195367842467298351746829135519643287238751964
027010000630900500000537006790085060060320180003004205870050003001006902000400010,527618439638942571914537826792185364465329187183764295879251643341876952256493718
400503000006170504009004120083001206000800970500060008078050003100000090934002060,417523689826179534359684127783491256642835971591267348278956413165348792934712865
591200004007310006000507008450000200009058030006920010170090050020060700080103900,591286374847319526362547198458731269219658437736924815174892653923465781685173942
039008010000000034005064200000810050097000802200700360506970400074520009001003600,439258716862197534715364298643812957197635842258749361586971423374526189921483675
500300701300007025208005006805046000000980040019500000706004930002700600140002800,564329781391867425278415396835246179627981543419573268786154932952738614143692857
000019560300200801902850040001060059000000723270003000060408000009500670003097014,748319562356274891912856347831762459694185723275943186167428935429531678583697214
100000067309400205608700000001080076900031002460590030000809500204000018000070040,145928367379416285628753194531284976987631452462597831716849523294365718853172649
009035007407080263008402000000060710506800009070140008200000570000010034903006801,129635487457981263638472195894563712516827349372149658281394576765218934943756821
010042000005000900080010543000006007003098204907000300038000050502030716690400002,319542678475683921286917543824356197153798264967124385738261459542839716691475832
509000003030050710007086090600000021420031006800040500000209360904800002010065800,589127643236954718147386295673598421425731986891642537758219364964873152312465879
200617900013000200900004000020500007004009050005063180080001760549030001006800035,258617943413985276967324518621548397834179652795263184382451769549736821176892435
000010340000708001092040007064005970009003600801600005026000080470000530305094060,587912346643758291192346857264185973759423618831679425926537184478261539315894762
003052090974000000082000601307005000010070985000609040000490200800300560620081007,163752894974168352582934671397845126416273985258619743735496218841327569629581437
020065000390000160500800007000100039003052018804009700005014080700906500060080201,127365894398247165546891327652178439973452618814639752235714986781926543469583271
000650002200389701850004090900100604060900038107000020082510000090060803400700000,379651482246389751851274396928135674564927138137846529682513947795462813413798265
004060800000009051975002000000040397007631500080000104100395020000100400038020006,214563879863479251975812643651248397497631582382957164146395728729186435538724916
002601308017000060300040005070130920136004000008500004080005000901000570004293600,542671398817359462369842715475138926136924857298567134683715249921486573754293681
006040000470032008081065040500709010003400002900008065100070300630000790002000081,256847139479132658381965247564729813813456972927318465198574326635281794742693581
041080096002003105007600000890450002006700048500010300000000053130094080060070900,341587296682943175957621834893456712216739548574812369729168453135294687468375921
000000045402006370309500100000005908016007000038090460071009020800062500090418030,187923645452186379369574182724635918916847253538291467671359824843762591295418736
000000006001087500230400910710264000690073040000005080970500064050000003003621005,589312476461987532237456918718264359695873241324195687972538164156749823843621795
000210000090003500108070004300950006980001370605080920040036800802700030010000640,456218793297463518138579264321957486984621375675384921749136852862745139513892647
005000604020130009900060070054009001730008020002470008600800500048050930000240087,375982614426137859981564273854329761739618425162475398617893542248751936593246187
300010002006004580040065370029030000408000030010270005060050000100007900907040860,385719642796324581241865379529436718478591236613278495864953127132687954957142863
002030670460020090000501080700900201200148009930000500007016004090000300513700020,182439675465827193379561482748953261256148739931672548827316954694285317513794826
100650302004070006005020140000302009060000830098400207001500680040039000700008014,189654372234871596675923148517382469462795831398416257921547683846139725753268914
002436009000001008030028054600007021000040800180065700004000305910300000008574900,852436179496751238731928654643897521527143896189265743274619385915382467368574912
002030008000400500030076004006109040045000900008004102800501709201008006950020030,412935678687412593539876214726189345145263987398754162863541729271398456954627831
508710600000000059467009020810000406030000500009280300000140270076820003040930001,598712634321468759467359128812573496734691582659284317983146275176825943245937861
050020094104000750070060102000300980005700000400908201008501600367004000000009320,653127894124893756879465132712346985985712463436958271298531647367284519541679328
002005030050900800000020401003070010406002905009468020030016078080003000701050200,142685739357941862698327451823579614476132985519468327934216578285793146761854293
000590003060004107027000890309008020000641079000030000000006080098320001074009605,481597263963284157527163894319758426852641379746932518135476982698325741274819635
000640200984010500500000700000020960090056017003800050030200000260080190008307004,371645289984712536526938741745123968892456317613879452439261875267584193158397624
007615003000900014062800000024000050300002841508703900000200005030078006790001020,947615283853927614162834579624189357379562841518743962481296735235478196796351428
000025010407803050009100060030090007500201000062307080020500006600000893100048200,386925714417863952259174368831496527574281639962357481728539146645712893193648275
000000060047052010800790300001000000782300009400508600003000804200079100690801052,925183467347652918816794325561947283782316549439528671173265894258479136694831752
750042030006090002900000058061080040490050006302700000000800017803006500015003809,758642931136598472924137658561289743497351286382764195649825317873916524215473869
000603200065780009903104800074000002000200160019000703050831000780906050001000040,847693215165782439923154876674318592538279164219465783456831927782946351391527648
006090020104000780720060300005037092409500801080004000800070010360000005050243070,536798124194352786728461359615837492479526831283914567842675913367189245951243678
040007006720000010500304809601800020002900503800470900069003050000001007080500300,948157236723698415516324879691835724472916583835472961269743158354281697187569342
300040067400001280298030000003867049000023000500100006010079000000005802065300014,351248967476951283298736451123867549649523178587194326812479635734615892965382714
000001900768200100050874003206080010000003064090020370040796800009000050307102000,423561987768239145951874623236487519875913264194625378542796831619348752387152496
002509004000000017100374500730406058060200309005080001046100002890000000203907600,672519834354862917189374526731496258468251379925783461546138792897625143213947685
001005907020300008080760401304090000006502090000400150200680000635010700700000042,461825937927341568583769421354198276176532894892476153249687315635214789718953642
090000037032860000040500208005080021010702600807406900076040300300000090100205400,698124537532867149741593268465389721913752684827416953276948315354671892189235476
000600239590084060006120000027500093600000087850010400980043050000000000030256010,148675239592384761376129845427568193619432587853917426981743652265891374734256918
501600908003400000079218000000973000008000200040001560700052030190060070200089410,521637948863495721479218356652973184318546297947821563784152639195364872236789415
003490058027000400080010060900203040004006200058107600190030500076500080000000103,613492758527368491489715362961253847734986215258147639192834576376521984845679123
005000260890700043100609085500018302702000408000003090007000000003591027010020600,375184269896752143124639785569418372732965418481273596257846931643591827918327654
008007001000023750009004028410500090036400070070360002200000586503000000090100004,328957461164823759759614328412578693836492175975361842241739586583246917697185234
850702000100000607020409003070600030094250000000340051002080415980000070006503002,853762149149835627627419583571698234394251768268347951732986415985124376416573892
008000034030012050000800690090007008106040700420560300800006200070309001500271000,268795134934612857751834692395127468186943725427568319819456273672389541543271986
059200300700000054003008000000007903001065040070030068438509001000106009900042070,659214387782693154143758296865427913391865742274931568438579621527186439916342875
000018070908000004602300500040529001030806000260007409300602007700400050590700610,453918276978265134612374598847529361139846725265137489381652947726491853594783612
070030500000070089501800006200609003800051000049083120023000000000010047750090260,478936512362175489591824736215649873837251694649783125123467958986512347754398261
602400007308002000040089500080050023401200095700003016000004001019870000500390060,692435187358712649147689532986157423431268795725943816863524971219876354574391268
010098400036700025070200080300060098008049751001080300002000030500001007940035600,215698473836714925479253186354167298628349751791582364182476539563921847947835612
097000014000807030520000900000680007903104600004072053600000002450300080081205000,397526814146897235528431976215683497973154628864972153639718542452369781781245369
700046900010032008000190050043009017500400800000710002067008020809060400035200600,752846931914532768386197254243689517571423896698715342467958123829361475135274689
001050920060040830000209007700310680030700004589600700200030590045080000003000061,471853926962147835358269147724315689136798254589624713217436598645981372893572461
000071020046000007800005309020008160630000900509200070107094005002063080005710400,953471628246389517871625349724958163638147952519236874167894235492563781385712496
000032900900004072067100405400075001000290000002641500030810090104000360006000007,548732916913564872267189435489375621651298743372641589735816294124957368896423157
100007400032800070046900000600093085010000030590018200000026009250000710800174300,185267493932845671746931528627493185418652937593718264371526849254389716869174352
307004602200000080500093000080600001700080009006130750003002070009010304840006905,317854692294761583568293147985627431731485269426139758153942876679518324842376915
000128094000070013062000085098300401500009000230680000005937000640005000000204308,357128694489576213162493785798352461516749832234681579825937146643815927971264358
200016000803720001040809005700160590000900300060074002087000003900050210012300470,275416839893725641146839725728163594451982367369574182687241953934657218512398476
570809004906000301208460500000000400010780006693510020000350600702000000004908007,571839264946275381238461579827693415415782936693514728189357642752146893364928157
004100690690035040020000710400008000203017500570920000080204306056070900000003078,734182695691735842825649713419358267263417589578926431187294356356871924942563178
036900002000015080009400507600030410800060079012070030905008600240790008000001000,536987142724615983189423567697832415853164279412579836975348621241796358368251794
108690500700003082000000604070806200000000098040021060201300040030017000900062105,128694573764153982593278614379846251612735498845921367251389746436517829987462135
902100030001000645530704020300810000000060102020007063009008000014320007870900056,942156738781239645536784921365812479497563182128497563259678314614325897873941256
250006009470083000001000430039000057500020004600078100090040062008201005004690710,253416879476983521981752436839164257517329684642578193195847362768231945324695718
009051800830409006040600500700108950500007002080030760090003070200090304001205000,629351847835479126147682539764128953513967482982534761496813275258796314371245698
040750010805002070260003098734006000600015000090000402009030007020009600400021053,943758216815962374267143598734296185682415739591387462159634827328579641476821953
000010340004000800280000500009057680010060094006003010301206000750900400092570000,965718342134625879287349561429157683513862794876493215341286957758931426692574138
060040015920000300500170908004908020080005001309010056708000040005020009600403107,867349215921586374543172968154968723286735491379214856738691542415827639692453187
500020610090070040002103008000050004230000051810900700047600200100097005306802000,583429617691578342472163598769251834234786951815934726947615283128397465356842179
305840009060090200009000510900600020083001400140500370036007108008200650070400000,315842769764195283829376514957634821683721495142589376236957148498213657571468932
170000009005480307000060280060700050800041000913000004300678502092500060000032071,178325649625489317439167285264793158857241936913856724341678592792514863586932471
