009803000000006740081740200040000876020650000103007002000008509308500601000091400,479823165532916748681745293945132876827659314163487952714268539398574621256391487
000000203740090000509000401407230008800040050003051607310004000000080060020517809,186475293742193586539628471457236918861749352293851647318964725975382164624517839
700050090000030800020090076030700560500000004002610083006002010014370002009800400,783456291691237845425198376138724569567983124942615783376542918814379652259861437
023000000089612400000000086400087005300056104205000300560920007007100590000008031,623845719789612453154739286416387925398256174275491368561923847837164592942578631
513040000040860050008900200900030000070450008050002613097000040680020307402500006,513247869249863751768915234921638475376451928854792613197386542685124397432579186
201060000064700830870009000010390070000500690000284005030010402627030109000008050,251863947964752831873149526415396278382571694796284315538917462627435189149628753
981000360620500000000903001240087090006005040870030000300026450008040107090000800,981472365623518974754963281245187693136295748879634512317826459568349127492751836
325060009000400006000010080016390050000007010048200360500070092007800400600945870,325768149871439526469512783716394258253687914948251367584173692197826435632945871
034520006501809000000030009800002400093000702015047360020165040000004020607000081,934521876561879234782436159876312495493658712215947368328165947159784623647293581
100000500090400070004082006073090400600503087000018002400600805560071209210800000,186937524392465178754182396873296451621543987945718632437629815568371249219854763
003005760210300500000400009748200300600000020500960804104000052907000603000598000,493825761216379548875416239748251396639784125521963874184637952957142683362598417
010000057486050109050200300070100980009007030004080062700009200200574800093001006,312498657486753129957216348675132984829647531134985762748369215261574893593821476
000630104600002809935004007004300010020070006080905000007000240002180300500006098,278639154641752839935814627754368912329471586186925473867593241492187365513246798
008004060050010200193200050081060073000008900526090000000603002700900300400000018,278534169654819237193276854981462573347158926526397481815643792762981345439725618
007003460206050001580000000600040038020078590400932700090086040030210009000500870,917823465246759381583461927679145238321678594458932716795386142834217659162594873
019000000000057380005213000006470900000020070200100408502030006430860510800000709,319684257624957381785213694156478923948326175273195468592731846437869512861542739
030809026706000000200300154304208075000600000050010908061003000500000002409070810,135849726746152389298367154314298675987635241652714938861423597573981462429576813
008050700740906000350004002060540870000800009095100306002000063900030080007600125,628351794741926538359784612263549871174863259895172346582417963916235487437698125
430079000000040200070600830605907001041800502020100609057030000002001406800500010,438279165516348297279615834685927341941863572723154689157436928392781456864592713
802600009140080000057004002060012050490000800705340001900001430003070060000506910,832657149149283576657194382368912754491765823725348691976821435513479268284536917
010500048809000002500070103040908000320014050081000000090703020700060301000025006,213596748879341562564872193645938217327614859981257634196783425752469381438125976
301040009270006003640005701908030050000200000000194300003070082007800610052000900,381742569275916843649385721918637254734258196526194378163579482497823615852461937
000050830050010409604007000007430620086000000090200015340706091102900000060025370,921654837758312469634897152517439628286571943493268715345786291172943586869125374
000016073004009000080500240607025900009300100010060050700030090001804002520001068,295416873374289615186573249637125984859347126412968357748632591961854732523791468
042930100610500309080700040000200000700006001058009403006025030409010208000003007,542938176617542389983761542361284795794356821258179463176825934439617258825493617
004875000200409005000360901019600800305007010000000307060028004003950000051004020,194875263236419785578362941719643852385297416642581397967128534423956178851734629
300050200650310080009020430003600070180500300790000120004009712008140090060007004,347958261652314987819726435423691578186572349795483126534869712278145693961237854
000150000508009030002080904305600127000400600609007000403001069800520003100063080,934152876568749231712386954345698127271435698689217345423871569896524713157963482
000804500490003610270050000500010860009705002310089040084020000003407000601000900,136894527495273618278156493547312869869745132312689745784921356953467281621538974
400923500050800000300060274060001920003007080140000067590000106700500090008402003,476923518251874639389165274867341925923657481145289367592738146734516892618492753
406058000800100623710009005903800000020090100600705040008360200060000907305042010,436258791859174623712639485943816572527493168681725349198367254264581937375942816
800261040609380700320095000500840001002070600060100035000000020051000084407000163,875261349619384752324795816593846271142573698768129435936418527251637984487952163
500000698160003200200750000000628050790040060008070304007900040300401700006000132,573214698164893275289756413431628957792345861658179324817932546325461789946587132
600020100010900308090706450009005643380000070007000019270503000000060520406089000,645328197712954368893716452129875643384691275567432819271543986938167524456289731
300800200006420057005071000000000900003608070208930065040003091807104020900002803,379856214186429357425371689764215938593648172218937465642583791837194526951762843
100000080097800064804052000040090000060340570005207003002503908019006002050700031,126974385597831264834652197743195826261348579985267413672513948319486752458729631
000007038200090041061040700002056080010800002350079060703025400600000950000463000,549617238237598641861342795472156389916834572358279164783925416624781953195463827
300007150095000000040200860060570000000003000524019083600098004070001095001402000,386947152295186437147235869863574921719823546524619783652798314478361295931452678
961038000000000020870000000200046500540807610009001340030162098000900176000000005,961238754354679821872415963217346589543897612689521347735162498428953176196784235
720040610000000050001300708009010802068094000003605001450001020000009007936520000,725948613384176259691352748549713862168294375273685491457831926812469537936527184
001304006060090072000807400089700064240000030003080190006500009005201000700036028,571324986468195372932867451189753264247619835653482197326548719895271643714936528
007201400000000008360089200001795800020400069050008003200130904846000000090002750,987261435512374698364589217631795842728413569459628173275136984846957321193842756
280500000005032090041706000000009504050300700670040180800060002304800016090104008,283591647765432891941786235138679524452318769679245183817963452324857916596124378
170390000300600400095018000680000500059400067703000020040970601000800050000132908,176394285328657419495218376684721593259483167713569824842975631931846752567132948
870200000003075409649000002962004000000030057000128900300017604020090800154800000,875249361213675489649381572962754138481936257537128946398517624726493815154862793
008004130036809005501700806600403210010000907720000060380100050000000024009507000,978654132236819475541732896695473218813265947724981563382146759157398624469527381
080031240054070003060089007800700001000048059073000600009020864001000000700653090,987531246154276983362489517895762431216348759473915628539127864621894375748653192
000400020387056400600019380010000743008000902495070001000007596001083000002560000,159438627387256419624719385216895743738641952495372861843127596561983274972564138
316900005000020943000800070807100600430008000000045702700006409090030208625000010,316974825578621943249853176857192634432768591961345782783216459194537268625489317
300900021700003500064502800840000203000070000007801609006020004509706010030190002,385967421712483596964512837841659273693274185257831649176328954529746318438195762
009600000020000407000071006000058002040109078031002040106380050070024901400900000,719643825623895417584271396967458132245139678831762549196387254378524961452916783
057000630060907002000005041081200007490008060000304010003040970072060000000500008,257481639164937582938625741381256497495718263726394815513842976872169354649573128
800931002097800530200400600006102004001603090000050000950007810070000205030084000,865931472497826531213475689786192354521643798349758126954267813678319245132584967
400500098078040010960000700080096005004032067002700103523001600000005042000900800,431567298278349516965218734387196425154832967692754183523481679819675342746923851
740053600080000925006100400000826007807300000002004050100400580400780032900000060,749253618381647925256198473514826397897315246632974851173462589465789132928531764
019807000703000510005000400000002179600491050080500000037040000200010084500769200,419857326763924518825136497354682179672491853981573642137248965296315784548769231
162080090000000507080930001013700200000000400970600003024006805005100000090420706,162587394349261587587934621413759268256813479978642153724396815635178942891425736
907028000020540000405603100003052040001000908008900206000401087060000309009060500,937128465126549873485673192693852741241736958578914236352491687764285319819367524
000200510300600000790310060060000051002485700004070098100002374000500600480009000,648297513321658947795314862867923451912485736534176298159862374273541689486739125
000040000080360715000720630070910000209000060360000508120005070800030049004082000,637541982482369715915728634578916423249853167361274598123495876856137249794682351
630700100000002008100390070700041905018600420040530006007003090020060840490010500,632784159974152368185396274763241985518679423249538716857423691321965847496817532
809006050700000021006735040000900000030040800075010036060802014508004009002060307,849126753753489621126735948684953172231647895975218436367892514518374269492561387
060000000720856000008900705201700038400030600000400901140005027006004090890073500,965317284724856319318942765251769438489531672637428951143695827576284193892173546
430090052001035900008200000620000501043050609900870030009300026760000800080014000,436798152271435968598261347627943581843152679915876234159387426764529813382614795
400000300000067000216804000970120830308900002001000905000350706004018200560000009,457291368839567421216834597975126834348975612621483975182359746794618253563742189
401000075072005000600019000037800001006000408500062700300041060100380092089250040,491628375872435916653719284237894651916573428548162739325941867164387592789256143
701080060643901000900070500400600070008010030009530804007000010020003006500742098,751284963643951287982376541435628179278419635169537824397865412824193756516742398
026100000007095000400000280089500014103000700570304060000003002034000950001987600,326148597817295436495736281689572314143869725572314869968453172734621958251987643
060900054000000207703082000600300089040620100001507002200000716308001090500009300,162973854489156237753482961627314589945628173831597642294835716378261495516749328
031970200000006107000200050409100005200308600006005810040052030000040760792003008,531974286824536197967281453489167325215398674376425819648752931153849762792613548
009000000041083000670050092030207500094016080500000410085600000000800746000129300,859762134241983675673451892138247569794516283526398417385674921912835746467129358
690000500010036007000170800038400072200000409069080305080059160020008004103000020,697824531815936247342175896538491672271563489469782315784259163926318754153647928
501240780000603041260087509040500603700090400100000020005806000609002107000070004,531249786897653241264187539948521673726398415153764928475816392689432157312975864
074000050000360980000072006085000093120005408000043001096100204510008070300629000,674981352251364987938572146485216793123795468769843521896157234512438679347629815
200751030900083007001000605005800040700906208620040710400000502060039000807002400,286751934954683127371294685195827346743916258628345719439178562562439871817562493
500430078009082040700900006360040052800007100004528000406095003010003000070000265,521436978639782541748951326367149852852367194194528637486295713215673489973814265
004050006005019000210670903000000400300248590001000072490000800086500020702001069,974352186635819247218674953529167438367248591841935672493726815186593724752481369
000730002049160800208005060003090400020600590100504007001800750850000620700001300,615738942349162875278945163583297416427613598196584237931826754854379621762451389
010203004003700802089045060000907030700460500194000000006010008078030020500002690,617283954453796812289145367865927431732461589194358276326519748978634125541872693
014006530000200004070080100230000040467100008058079000900000087080030405001057069,814796532693215874572384196239568741467123958158479623925641387786932415341857269
002006051400008700790000230100482090300500006040000100280907000000013900070864003,832796451415328769796145238167482395329571846548639172283957614654213987971864523
700090280100604000053000000615000000008129540040000370420300059030900017000078002,764591283182634795953287164615743928378129546249865371427316859836952417591478632
905070306100004072000500090801905000604000031000006825003040000060029700049701080,985172346136894572472563198821935467654287931397416825713648259568329714249751683
008439050360000000000201700610948030023600009405000010000154290080070060100000047,278439651361587924549261783617948532823615479495723816736154298984372165152896347
037091008500060004902800100000200001480610200000050903009000300320507000174030650,637491528518362794942875136795283461483619275261754983859126347326547819174938652
001052008534018090260900007400090235000307060900000000300084100017006024000100850,791652348534718692268943517476891235185327469923465781359284176817536924642179853
019080506407009020300005000100000805072000060006750041900300000025104307080060019,219487536457639128368215794134926875572841963896753241941378652625194387783562419
400080900705002003039005201000600002053007600200109750060000000001703094090240830,412386975785912463639475281978654312153827649246139758364598127821763594597241836
038900016050007040009305000100650903002040007090000020600508034000030760810070200,738924516251867349469315872174652983382149657596783421627598134945231768813476295
005240800060090000028000074690030007002001350800720106300800000070010020004965010,935247861467198532128356974691534287742681359853729146316872495579413628284965713
070019820000600070100050300000000080420070509006030014800540100950807060703900200,674319825235684971189752346317495682428176539596238714862543197951827463743961258
005020007460090000190040638800065010000400790074001500003800200010050470900203000,385126947467398125192547638829765314531482796674931582753814269218659473946273851
087092105605030007000060380030000790802740000060000841290100006400000000008250430,387492165645831927921567384534618792812749653769325841293184576456973218178256439
065020100300000702000903040008000004702304060009158300914005000200080510080270096,465827139391546782827913645138762954752394861649158327914635278276489513583271496
095601028700230010006900305000000080950360000480000109000800052024007000067000094,395671428748235916216984375672419583951368247483752169139846752824597631567123894
001054078090000000006839000003080000200000651950700023000001400580402009012090067,321654978895127346746839215163285794278943651954716823639571482587462139412398567
050006048300800000004190673903021400040080205000000030060002000018057009200940007,157236948396874512824195673973521486641783295582469731769312854418657329235948167
030002019600050300000089052948007006067030000100405000300006470014800000050190080,835642719692751348471389652948217536567938124123465897389526471214873965756194283
030600280829030700004009010062058090050010430407006000090700803506100000700042050,135674289829531764674829315362458197958217436417396528291765843546183972783942651
906400500700920084030000100003675009010030620074001800208047030005000048000509000,986413572751926384432758196823675419519834627674291853268147935195362748347589261
