000007504280309070000625000609700000050090000041002063500000409806000150002103780,963817524285349671174625398629731845358496217741582963517268439836974152492153786
850004000009080020204000003030106580010037904906400700000600040000920310700005600,853264179179583426264719853437196582512837964986452731398671245645928317721345698
008200060600040075009830100920000000071005600304109020083602001500000280010070409,148257963632941875759836142925764318871325694364189527483692751597413286216578439
000000080540300907002508046030010025400800000906070100009062750014905003060130000,693741582548326917172598346837619425421853679956274138389462751714985263265137894
000000100074930025080260940000005300003004697810600000065080002040100700009400038,932548176674931825581267943496725381253814697817693254765389412348152769129476538
504706900007803106000090530040009751061000000300080200189020300072500400000000080,534716928927853146816492537248369751761245893395187264189624375672538419453971682
290600015070800000453200900600007001010003804000042090500009030062450070047010080,298634715176895243453271968624987351719563824835142697581729436362458179947316582
006003092748100000300500000850070400060000030207980610090700040000020501070430960,516843792748192356329567184851376429964251837237984615695718243483629571172435968
506281003400706000023005010870400025039000080000098007080300476900000500005607001,596281743418736259723945618871463925639572184254198367182359476967814532345627891
000800006100094705409307081803001060027000500006009042300260009098000300050000008,735812496182694735469357281843521967927486513516739842374268159698175324251943678
600009304098370000021008006085000001060000240100523070074090000930040120800600050,657219384498376512321458796285764931763981245149523678574192863936845127812637459
800507160060020080302100900501000046004800200000009703470001000600705009908640520,849537162167924385352168974591372846734856291286419753475291638623785419918643527
100007400090200005800940260080605000002300107037001098050084000409060703060030502,126857439394216875875943261981675324642398157537421698253784916419562783768139542
000400005300905201607003080042000760500800103810007090060509000100080000029130004,291478635384965271657213489942351768576892143813647592468529317135784926729136854
000000230050738190090402000000003501034100000206900078000070060078240000920810057,867591234452738196391462785789623541534187629216954378145379862678245913923816457
084305700007100058600008000000719000096803104720006003913000600000000080005042007,184395726237164958659278431348719265596823174721456893913587642472631589865942317
500209040000700108086001007090800000401030076200000530070305201820000394000400060,517289643942763158386541927793856412451932876268174539674395281825617394139428765
906400010000038902070100540010003008009004205537006000690000100180590024002800000,926475813451638972378129546214953768869714235537286491695342187183597624742861359
800400030060980045400036009300710590041020000029500001015007268008600350000000000,892475136163982745457136829386714592541829673729563481915347268278691354634258917
060080001001030789700000500080002070026740903003560100050296300030100000900000402,365987241241635789798421536589312674126748953473569128854296317632174895917853462
008600000091050608520409003050000290800007500409003001030078006017240000200000105,748631952391752648526489713153864297862917534479523861935178426617245389284396175
903007080000500000000106705060008902000600170702400306490002003108050200200030594,953247681617583429824196735561378942349625178782419356495762813138954267276831594
080700950002401700036000000410009600057340000009506370065890210040020008000130090,184763952592481763736952841413279685657348129829516374365894217941627538278135496
500004029008107300630028075005706080020340507000000004980000000301060050406210000,517634829298157346634928175145796283829341567763582914982475631371869452456213798
200908500300170406010500027065000008004000370003894001090065000040203000007000280,276948513358172496419536827165327948984651372723894651892765134541283769637419285
006700940920080000305402000007006105500000300400023860098104730000009010601070200,186735942924681573375492681837946125562817394419523867298154736753269418641378259
000820004000700350062140090037900015100300470500000000000009800043060921820007036,975823164418796352362145798237984615186352479594671283651239847743568921829417536
020059008840200000900600017080001006367400100000800059052000304000003000490170065,721359648846217593935684217589721436367495182214836759152968374678543921493172865
075023000000060130000890004840000003109000270060218900097001402084005000006030009,475123896928564137631897524842759613159346278763218945397681452284975361516432789
024009073506102094100780000207850040000090058050003006410070000000208601003000000,824569173576132894139784562267851349341697258958423716412376985795248631683915427
704910620050300700106008050002830140000600809000507000000700086305090007900002004,734915628258364791196278453672839145543621879819547362421753986385496217967182534
840020301200300060057000090600005079003080000004107208060200000000500786900071504,846729351219354867357816492682435179173982645594167238765248913421593786938671524
053010000728450001640800000070509004092000050000026300009031047000900206010708003,953617482728453961641892735376589124192374658485126379569231847837945216214768593
800005710047600500092000003001007290000000048280093000304050600670302080020070400,863925714147638529592714863431587296759261348286493157314859672675342981928176435
092074060060100734003800010000087002520000400001600300304001008009500670078009501,192374865865192734743856219936487152527913486481625397354761928219548673678239541
700230084010600009005090300183900007004078200002140600000405060056000103020080970,769231584318654729245897316183962457694578231572143698937415862856729143421386975
340000090002001000009086052037002809004800510500400700081003000600754000270090360,346275198852941637719386452137562849924837516568419723481623975693754281275198364
800603710607089400040500900106208000000050030530407800900020157000000000403810260,829643715657189423341572986196238574784951632532467891968324157215796348473815269
080504000007003960390200401702000040930000510050469700826000073000000058000012000,681594327247183965395276481762351849934728516158469732826945173419637258573812694
030700800510380090002005640060003050009406000703010020007620000080000932040008701,934762815516384297872195643468273159129456378753819426397621584681547932245938761
506490310000002070007610920900004600050030800070009050800206094001000580004005703,526497318189352476347618925918524637652731849473869251835276194761943582294185763
046009180730001200009427005010943070600080090000210530804002000000530000072000006,246359187735861249189427365518943672623785491497216538854672913961538724372194856
009020004007000030600950280030649005010780060902001000000003412004090670801200003,189326754257418936643957281738649125415782369962531847596873412324195678871264593
600070408170900000035000600520001040000403006000850103206500900009040270048190300,692375418174986532835214697523761849981423756467859123216537984359648271748192365
050040080063105209200003007000480010072009000009060054008601020624900003305000800,957246381863175249241893567536487912472519638189362754798631425624958173315724896
080370504000008000206105390600004200401090000520630007053002060900060050000400831,189376524345928176276145398697584213431297685528631947853712469914863752762459831
600790005083600074000005200004000807009501003001034500205080396076003080400200000,642798135583612974197345268354926817829571643761834529215487396976153482438269751
010004007063000002002509810980040100700000634050010200008000356005031090000908000,819324567563187942472569813986243175721895634354716289198472356245631798637958421
680001907200730008005000430010903000000500824807020001530060700004059000000008640,683241957249735168175896432412983576396517824857624391538462719764159283921378645
030679000040000356800005017009100620056040083000002004100000470003850000080021009,531679842947218356862435917479183625256947183318562794125396478793854261684721539
031009004080400006900300780705008100402075300390042000009060007026007010500000200,631789524287451936954326781765938142412675398398142675149263857826597413573814269
080095000000300001420070050002084709503600820000007060005041680006000942790800003,381495276657328491429176358162584739573619824948237165235941687816753942794862513
001804006925030000080150300030019065002000900040006071400261780700000000000570103,371894526925637418684152397837419265162785934549326871453261789718943652296578143
600701040003000005700008602040000000060803079097150430400080056105029080030400900,652791843983264715714538692348972561561843279297156438429387156175629384836415927
003400270190002000040750008004036800000010092628000100000643900801090406000008730,583461279197382564246759318914236857375814692628975143752643981831597426469128735
317000608500000102600970000080590010030264700409000200002610400700308050000040001,317452698594836172628971543286597314135264789479183265852619437741328956963745821
079030600850706410004020070900000001637005008000004903412600030300087500005200000,279431685853796412164528379948362751637915248521874963412659837396187524785243196
057014300640003080000009701000006004000090123800370950006005200079140600012080000,957814362641723589238569741193256874765498123824371956486935217579142638312687495
000010020502000734063050901800500000307000460401700302070204805100096000040100090,984317526512689734763452981826543179357921468491768352679234815135896247248175693
080000675003020001490000008046003090709180560000007030060512400050090000812306000,281439675673825941495671328146253897739184562528967134967512483354798216812346759
102000060000924005840100703506800002218090004000003100401506097097000008600030000,152378469763924815849165723536841972218697534974253186421586397397412658685739241
400902008095000207001800600602008050070001000083400019050604302306070500700300004,467952138895163247231847695612798453974531826583426719159684372346279581728315964
090003674000062900500000001960035100107400208004708090000009800010000053402800700,291583674743162985586974321968235147157496238324718596675349812819627453432851769
600030000370205000580706901000003095000472008216900300409080060800010020030000047,694831752371295486582746931748163295953472618216958374429587163867314529135629847
067043000200896005000050400050002137700600940021000008800730090130000024906000010,567143289214896375398257461659482137783615942421379658842731596135968724976524813
408600000900030005006129700004003009000950180100807200040002013073000402001000950,428675391917438625356129748684213579732956184195847236549762813873591462261384957
289460030103500460006000702350010607000020003067058040000039010400800000008200509,289467135173592468546183792352914687814726953967358241725639814491875326638241579
740300050900602001000000004058069002026008370109000000507400080801903205230100600,742391856985642731613857924358769412426518379179234568597426183861973245234185697
000400000920010030085032001719000005060800020000960473530000804000604002100398060,371489256924516738685732941719243685463875129258961473536127894897654312142398567
100603009060020354000480602051708003307206000006045080009070000000000027042001096,124653879968127354573489612451798263387216945296345781619572438835964127742831596
640007001390002007002100064000850000810006302009003400005700600200080109070314800,648597231391462587752138964423851796817946352569273418185729643234685179976314825
000024003083000072490807500320000000076000090001648000200079006608010740000306015,567124983183965472492837561324791658876253194951648327215479836638512749749386215
600070000280610300015204809061083070079002004400050030002001000040000718000096405,693578241284619357715234869561483972379162584428957136852741693946325718137896425
063001048890300250104700600000810000040009026200000305002065010075000490080097003,563921748897346251124758639356812974748539126219674385932465817675183492481297563
040090065200040900013600000000900528008073000694002001105200604700086000000500389,847391265256748913913625847371964528528173496694852731185239674739486152462517389
050109300000060071010008206005090600700500020090730048420000013081902000006800400,657129384238465971914378256845291637763584129192736548429657813381942765576813492
070094265000000003091300400000012008620008170005400030700001800980067050060050049,378194265246785913591326487437612598629538174815479632753941826984267351162853749
050270160090403005800090300402031900600500008007086010000600503003050070100009002,354278169791463825826195347482731956619524738537986214248617593963852471175349682
040005810100000020208070603790000004000300781030042560000401306075209000003800950,349625817167983425258174693796518234524396781831742569982451376675239148413867952
600090040800607009010002008060030912950070400020080053530000000001004860000100205,672893541845617329319542678768435912953271486124986753536728194291354867487169235
304002890000489000050000600000106504025700010106040030030000009870020000609573001,314652897267489153958317642783196524425738916196245738532861479871924365649573281
075006000000000016002890043801004090940050200050030000008067031700100602090520008,475316829389742516612895743861274395943651287257938164528467931734189652196523478
309502860080000310050008204275809000900670000000001040008000050001730620006105900,349512867682497315157368294275849136914673582863251749738926451591734628426185973
000000634050081000372090080010970002008500000000046013009007060865030040034002095,981725634456381729372694581613978452248513976597246813129457368865139247734862195
702009000005008603400715089900406305040002010507080000801900062000000400030601800,782369154195248673463715289918476325346592718527183946871934562659827431234651897
109000000000570069260380100006004072900007030340020850034010090002640308508000026,179462583483571269265389147856134972921857634347926851634218795792645318518793426
032004900810906000500780036023000450900301800704000010090675040005000200008123000,632514987817936524549782136123867459956341872784259613291675348375498261468123795
003780040605004000002150080056070002870402001400039600904000867010008509000300020,193786245685924713742153986356871492879462351421539678934215867217648539568397124
820000900000850013045307006007000601500024090960103004070019560000040702008006000,823461975796852413145397286437985621581624397962173854374219568619548732258736149
050008024020010900309040000700406100480103075603002000000020013000750008506000097,157968324824317956369245781795486132482193675613572849978624513231759468546831297
010009000740002800803710560205000013931040080000070000090600140600300705000408020,516839274749562831823714569275986413931245687468173952392657148684321795157498326
000000900670053000148070250000300006920005004360410509000007000804602070050091032,532184967679253841148976253485329716921765384367418529213547698894632175756891432
012000004500107003090580070280400090003096780000003602009020000430050060607900510,712369854568147923394582176286475391143296785975813642859621437431758269627934518
005096031000728000940000006000503060701000400060140008009080350070200089604005007,825496731136728945947351826498573162751862493362149578219687354573214689684935217
596820400400000918003007000087090140004130072020600500100003000000760090035410006,596821437472356918813947265687592143954138672321674589169283754248765391735419826
804072100090053020100060793047009300008047056002800907000000802609030000050000010,834972165796153428125468793547629381918347256362815947471596832689231574253784619
006050214020731800800000900030107002092006040500900001450600000000000738701002065,376859214924731856815264973638147592192586347547923681453678129269415738781392465
004008050100604080602000701008300275070400906000050830305060000046027000290103000,734218659159674382682935741468391275573482916921756834315869427846527193297143568
080900020610437000005000703400806072030001090200750001000020160098500000020100584,783915426612437958945682713451896372837241695269753841574328169198564237326179584
500090013009001740023070068010080004374509000200700000000004081608030090000260507,547896213869321745123475968915682374374519826286743159732954681658137492491268537
