500960700080750430709004520250600900410000063003078002301090007064010080000200300,542963718186752439739184526258631974417529863693478152321895647964317285875246391
400856300900100705028900600209003041084060530703000002010005006000040000000781090,471856329936124785528937614269573841184269537753418962812395476397642158645781293
607300009080207100000000304306901080200003501009804607804079000061000000590608040,617345829483297165925186374376951482248763591159824637834579216761432958592618743
000050087600094010375000002000000054006020700147008060010360900082001300003070045,491253687628794513375186492239617854856429731147538269714365928582941376963872145
040060530060107009050432001037001006004800090000000287002004008006720300019003705,741968532263157849958432671837291456624875193195346287372514968586729314419683725
800700624020830079910000030504000000070084500003000091200079008050206040700350200,835791624426835179917642835594163782172984563683527491261479358358216947749358216
500039070010407006300026045008603400170900000094780120460000050009000800030200609,546839271912457386387126945258613497173942568694785123461398752729561834835274619
200000060000130807090065043003024600508000090100790502086000001750040280000800379,231487965645139827897265143973524618528613794164798532386972451759341286412856379
740012350010080000900050604002078061007604800003000900609007025500200403080001000,746912358315486279928753614492378561157694832863125947639847125571269483284531796
809004000001030060002700083047160050000520004060009010306908500910000028004015300,839654172471832965652791483247163859198527634563489217326978541915346728784215396
050060709100007000080920045001230000093801600200049080500000430036500007040006098,354168729129457863687923145861235974493871652275649381518792436936584217742316598
040000006050003140607409830200000000005076300180020609002007951504300000009180020,341758296958263147627419835276931584495876312183524679832647951514392768769185423
070000840405739060001005000200050000060980300910467008052103006800000230004000009,379216845485739162621845973248351697567982314913467528752193486896574231134628759
020690175406500000070008020700005060364010090001020800030060408005780019290400000,823694175416572983579138624782945361364817592951326847137269458645783219298451736
000002003930710004018900500300400098080061200605000070500004009000076130072830050,457682913936715824218943567321457698789361245645298371563124789894576132172839456
003090000769080002800160400086000049902605000400008700000030150014009028050200076,143592687769483512825167493586371249972645831431928765297836154614759328358214976
009507400010980603200040078300000190750300000028060704000010006093800000064070510,689537421417982653235641978346728195751394862928165734572419386193856247864273519
006504010070200083503009000080703645090000000405010098040905006200080100300006270,826534917974261583513879462182793645697458321435612798741925836269387154358146279
100004500302600040070308000026080950005900032000010407040000600083700029090026070,168274593352691748974358216726483951415967832839512467247139685683745129591826374
060120400108007000090000037000360015006000708204805003720500090903080600005410000,567123489138947526492658137879364215356291748214875963721536894943782651685419372
080960740401302009650000000705000004024700810000200500300070080800640105000800396,283965741471382659659417238765138924924756813138294567316579482892643175547821396
310950007048006000596000030200018740080000591650040002000872400900030020005400600,312954867748326915596187234239518746487263591651749382163872459974635128825491673
500010000800904037060207005450001002209060051070030408004079080000800206301000000,547316829812954637963287145458791362239468751176532498624179583795843216381625974
405703020001490007068050003000005746314007809506000000007910005020060008800302000,495783621231496587768251493982135746314627859576849312647918235123564978859372164
038005040400100000070904100900000602050607000061002370006801405000276080300400710,138765249429183567675924138947318652253647891861592374796831425514276983382459716
008000040050300706100920053380407100207000609561008000000750002093100070000006014,938675241452381796176924853389467125247513689561298437814759362693142578725836914
200509000150028007008704090670900021000050403003600009702030000095002380800000010,247569138159328647368714295674983521981257463523641879712836954495172386836495712
070140908801030000400709006000001000200096054530000200042008100007020609006507030,673145928891632547425789316764251893218396754539874261342968175157423689986517432
039008200600000480040002063007509300000100040010600502700004690400070805005931000,139468257672315489548792163287549316356127948914683572723854691491276835865931724
850000070062380004100002009080070041704805900009420000600001320031000500070509000,853194672962387154147652839586973241724815963319426785695741328431268597278539416
079000300002001084005273061040158000000702108000060030060000009890400002700600450,179846325632591784485273961347158296956732148218964537564327819893415672721689453
000400950039600004048002071005074360001500890320000400100096700093000026000258000,216487953739615284548932671985174362461523897327869415152396748893741526674258139
961730800003000005000400060025080974400002108087050003009200000010060039752100000,961735842243816795578429361325681974496372158187954623639248517814567239752193486
003201009870900106000076504900700001000062040350040782608000095010028000704000300,463251879875934126291876534942783651187562943356149782638417295519328467724695318
410700050000300800096040002000500491140080000203000600070003208500461700900008016,418726953725319864396845172867532491149687325253194687671953248582461739934278516
038000902070800050600401000349508060200070105001009030800005703010602400090007006,138756942974823651625491378349518267286374195751269834862945713517632489493187526
007002105003900400008010070102060048070050900090800030029080750000420603056300001,947632185513978462268514379132769548874253916695841237329186754781425693456397821
060159002400600800590030706030002000600078034800400629007005000000240908001000403,768159342413627895592834716134962587629578134875413629947385261356241978281796453
010052340000006052090000087003400900026810500705000000807200000030060010260348090,618752349374986152592134687183475926926813574745629831857291463439567218261348795
900047010050830002620100040000009321000600900740020500003780009001502007400000060,938247615154836792627195843586479321312658974749321586263784159891562437475913268
090600031102005806080900700000057042010406089000000300600120005030009400709504000,495678231172345896386912754963857142217436589854291367648123975531769428729584613
060200900000736008500010024015000090200870000834069001021000003380050060009004702,168245937942736158573918624715423896296871345834569271421697583387152469659384712
300020010095400860600005009071039050002560040800007002123000906000803007740090100,387926514295471863614385279471239658932568741856147392123754986569813427748692135
493000100000045002002008000028506030530100807974002000081000400000709061760000305,493267158817345692652918743128576934536194827974832516281653479345789261769421385
009000740172000308600035001000407203005090600380010000096870005050001460400500092,539182746172649358648735921961457283725398614384216579296874135853921467417563892
000087600009040025720005001500000079007028346200600108040860530003790000000001004,415287693389146725726935481568413279197528346234679158941862537653794812872351964
009045607000600020300010580003087402080030076500200890010400000260950030700020001,829345617157698324346712589693187452482539176571264893918473265264951738735826941
007581260001007850003060004000200400090730016065000008109820030800105000402000700,947581263621347859583962174318256497294738516765419328179824635836175942452693781
100600530070004000250080469500042600800000205060300890709200000348750900000000018,184629537976534182253187469591842673837916245462375891719268354348751926625493718
000600350600002480590000007005700034020085000780904001370100208000090060106038075,814679352637512489592843617965721834421385796783964521379156248258497163146238975
500076000000400097100002340098050000700063050300204108030040802810300700056010430,543976281682431597179582346498157623721863954365294178937645812814329765256718439
589001006700400030004250170020903800038100004601007200240730009076090000000002500,589371426712486935364259178427963851938125764651847293245738619176594382893612547
740900006500430200800000010009070040001029037300160000008012073030005000024000081,742981356516437298893256714269378145481529637375164829958612473137845962624793581
060305080008104900935020600000001030400800500020000176701680090080950004000403007,164395782278164953935728641659271438417836529823549176741682395386957214592413867
920005080050720100061008003040609200009000007380000609270801040004300000805270060,923165784458723196761948523547639218619582437382417659276891345194356872835274961
504000000000470206100253090070500080600090120000180703090700030000002068083040907,524869371839471256167253894371524689648397125952186743496718532715932468283645917
004030507025060000800091020500000476100007009090483000060800203000040001708902605,914238567325764918876591324583129476142657839697483152461875293259346781738912645
098300200000089060304210009106007050042000080070001043050008700200603001009400500,798364215521789364364215879136847952942536187875921643453198726287653491619472538
002300000000514006009002730000000065050603800780009040064080002007041059900700001,642397518378514926519862734293478165451623897786159243164985372837241659925736481
061200780804000030003059000300080006027040001000700940900000465000406100080100020,561234789894617532273859614349581276627943851158762943912378465735426198486195327
000905020800007060050020901005300074400089005031700800603400100002601407000002039,314965728829147563756823941985316274467289315231754896673498152592631487148572639
000500031020006058340008070004709002706002500830000000510800026280100704007903000,678594231921376458345218679154739862796482513832651947519847326283165794467923185
500900002003060070240001300009140260400306087085000001307805106102070590000009000,578934612913562874246781359739148265421356987685297431397825146162473598854619723
000760002040900700203085901104300270300006510500040008010204080009001030006098000,951763842648912753273485961184359276397826514562147398715234689829671435436598127
903560004004002901000010073702000600085009000000000482209400030150308000030700105,913567824574832961826914573742183659685249317391675482269451738157398246438726195
008200906007053040001807000200304500000600081090000020034012800100090450560000700,358241976627953148941867235216384597475629381893175624734512869182796453569438712
030506002600012050080007400072050003000300890340600000700100080509740206000090010,431586972697412358285937461972851643156324897348679125724163589519748236863295714
040039007062007019500860020000100042600900100780040063000005078030010400890620500,148239657362457819579861324953186742624973185781542963416395278235718496897624531
007506021810023064006900300700000083300052000504000090009031058080400700400000006,937546821815723964246918375721694583398152647564387192679231458182465739453879216
000000803004060090070025004608951700730000000901034605200800500006097020000200946,162479853354168297879325164648951732735682419921734685293846571416597328587213946
000005098300009176060100400501080700906003021020604000280050049003200000400790083,172465398354829176869137452531982764946573821728614935287351649693248517415796283
860019000400000510705408309086030407100000800200057000000703920000201640309600000,863519274492376518715428369986132457157964832234857196641783925578291643329645781
300590804486001000190007032530800040020000073600070509060042008700060020008030907,372596814486321795195487632537819246829654173614273589961742358753968421248135967
010049000005200000800050064070014803901008400600300207003062008007500109290470005,316849572745236981829157364572614893931728456684395217153962748467583129298471635
197040002020080600080130000000000580079501403304020069000406091512900000000000708,197645832423789615685132974261394587879561423354827169738456291512978346946213758
001070008060003500400100239090000601870050040000407300019326000085004003000780090,231579468968243517457168239594832671873651942126497385719326854685914723342785196
000002005683100049240000100500016800008009730790000002070200408100070600006430050,917642385683157249245893176532716894468529731791384562379265418154978623826431957
170040005902010006040839700000007240700000050586000000401002800063071000050604390,178246935932715486645839712319567248724198653586423179491352867863971524257684391
100040092020368004007090005800020060700510030310006009590080401040007056008004000,186745392925368714437291685859423167764519238312876549593682471241937856678154923
150002079000600014030800200000900547203010006000086000720450031004038700019200050,156342879892675314437891265681923547273514986945786123728459631564138792319267458
048007390000090000051003870007060084092304500060270000603045900500180040020906000,248657391736891425951423876317569284892314567465278139683745912579182643124936758
020590300004060010080107054095018072000020190000400608600000043870000000201385900,127594386534862719986137254395618472468723195712459638659271843873946521241385967
300000800127960000060532070906000010040003005001700042090270504008600000200084901,359147826127968453864532179936425718742813695581796342693271584418659237275384961
070320095800070620056090001004200086000059300302100070900805400700063010610000000,471326895839571624256498731594237186187659342362184579923815467745963218618742953
204800000000105906010007030400080602890300014150406070008703020600004300070250009,264839751783125946519647238437581692896372514152496873948763125625914387371258469
560000047200000900009314000020069010087000005000850309700680030601400508008901020,563298147214576983879314652325769814987143265146852379792685431631427598458931726
082000716900000000004003200710008009000702360403005008001060080840207050005400932,382954716957126843164873295716348529598712364423695178231569487849237651675481932
703002800056001000100083570000004000000000398082059007510007602300400010090060405,743592861856741923129683574931874256475216398682359147514937682368425719297168435
005001300300040008090603000000470196064100000200000050086005210073000600052090470,645981327321547968897623541538472196764159832219368754486735219973214685152896473
300200080420800510000097300002500097009031040001700608060050903000040020810900056,396215784427863519158497362632584197789631245541729638264158973975346821813972456
071030690040806007800750020025401060003080070604300100007940305010002900000000082,571234698942816537836759421725491863193685274684327159267948315318572946459163782
081400369020009000000010480410030275056000000003902140000386020040071890500000007,781425369324869751965713482419638275256147938873952146197386524642571893538294617
710000040006049000840003905523700090000080001100020567407098023000000600900261800,719852346356149782842673915523716498674985231198324567467598123281437659935261874
000500960093000050008209300002861007140000000050000230670002090009407100004030805,721543968493618752568279314932861547147325689856794231675182493389457126214936875
000059400603080200790000103004075000010200659208030000820007030001090502000604017,182359476643781295795462183964175328317248659258936741826517934471893562539624817
000002006010580030069000700103000004000709080708120053930067201002405398000000000,354972816217586439869341725123658974546739182798124653935867241672415398481293567
000100004900002806670300005801900230200004651305700080030085010002070900780209000,528167394913542876674398125841956237297834651365721489439685712152473968786219543
073040080000075006900000002012060057008012060450003800007301000030080240685009000,573246189821975436964138572312864957798512364456793821247351698139687245685429713
672030500090080000430009010500000608000201040947000020000300004206705093000010867,672134589195687432438529716521493678863271945947856321719368254286745193354912867
800070100010090005200450068070620509025007030104000800640510702000003090090800006,859276143416398275237451968378624519925187634164935827643519782582763491791842356
