009070001001000605430260087200095000000300120010407098000004009080002350670850400,869573241721948635435261987248195763597386124316427598152634879984712356673859412
015000009090080720000301060020050380008200046760000100500020800130046075402079000,815762439693485721247391568921654387358217946764938152576123894139846275482579613
060007205000600087000040091351200000009001004200895060870050300020400016904380700,468917235195623487732548691351264978689731524247895163876152349523479816914386752
007004320000680000512030006409000601060050980021003074390047005000005710000800003,687514329934682157512739846459278631763451982821963574398147265246395718175826493
020050300000100400900070206005082040060500900800963010004006007670430802380210000,427659381536128479918374256195782643763541928842963715254896137671435892389217564
210000080049080050508640700070000060100500293000802401400900100090076520800053009,216735984749281356538649712972314865184567293653892471465928137391476528827153649
020900500100002030400085701540070600093600100700400052002006000031500080800029076,327914568185762934469385721548271693293658147716493852972836415631547289854129376
000060050000090200008205090402003601865170320100000089603007040001020700504810000,249761853356498217718235496492583671865179324137642589623957148981324765574816932
005000200807052400120907006006008730090045610000320009000034005210000804058000960,965413287837652491124987356546198732392745618781326549679834125213569874458271963
000180700040005090507600021705300000200590380000001009100070850000403016603802000,962184735341725698587639421795348162216597384438261579124976853879453216653812947
200760095604089700000003080007140830000002069825300000093504000000000051010020004,238761495654289713179453286967145832341872569825396147793514628482637951516928374
020014870709008060080060002000170005800002036347005020270900003095030047006050100,623514879719328564584769312962173485851492736347685921278941653195836247436257198
000000020003600014917005380000074860008060537050300109600250070490100600005040000,864713925523698714917425386139574862248961537756382149681259473492137658375846291
031000800040860500570200091100470060000009408004050307000610250300040006209700030,631597842942861573578234691123478965756329418894156327487613259315942786269785134
403160800010203509602057040081000200000706005000920003300000000005408900004010670,453169827817243569692857341781534296239786415546921783378692154165478932924315678
013000607008401030905000020750208000061003400029070081000107803000892050400060009,213589647678421935945736128754218396861953472329674581592147863136892754487365219
631080090000230017900650080009306400400810070050002003100704000046090005728000000,631487592584239617972651384219376458463815279857942163195724836346198725728563941
086000700073685190009074500000500200020017030890060400001040000000900685300002004,586129743473685192219374568134598276625417839897263451951846327742931685368752914
109700000040000650308905010070108030902060040000034006010000287705810003026000005,159746328247381659368925714674198532932567841581234976413659287795812463826473195
000400590207006008096000003605904001080003402700018000000500380004809207031700005,318427596257396148496185723625974831189653472743218659972561384564839217831742965
040607930023008000005100020100040050002090740007500300000060408730901060560200090,841627935923458617675139824186743259352896741497512386219365478734981562568274193
360009000401050903020107500600070000004000392100248050007800060500001000810360204,365489721471652983928137546652973418784516392193248657237894165546721839819365274
030065070007090020410000000203408107000000460901000250100800000026940305084507009,832165974657394821419782536263458197578219463941673258195836742726941385384527619
005807000134009002000040006701005029093060050080200304018030060670010005000970408,965827143134659782827143596741385629293764851586291374418532967679418235352976418
803049000040070390000006005004095078057401030000020006100000600209037850075200010,813549762546872391792316485324695178657481239981723546138954627269137854475268913
003048097600200130400006050000060000210090708000472003700010200030900540908504000,523148697687259134491736852379861425214395768856472913745613289132987546968524371
900000205700180000604750900428000001003000546070310000000060300009425080210800090,981643275752189463634752918428596731193278546576314829847961352369425187215837694
000000907670320500081060003045200000208901005300006040920500030704002810010400006,432185967679324581581769423145273698268941375397856142926518734754632819813497256
000070530000842600900000004230000170806005090005900008190008020007400006500003801,648179532753842619921356784239684175876215493415937268194568327387421956562793841
400000008008003960700010000560720100003089200042000600900506004010200750080140009,431962578258473961796815432569724183173689245842351697927536814314298756685147329
004000600500630000018900327070053091080160200490708000000004085903000040007012030,734281659529637418618945327276453891385169274491728563162394785953876142847512936
670003002103700800000600500800002007000305904040070130290000040017009005058410060,675893412123754896984621573839142657761385924542976138296538741417269385358417269
940000080006003070703800145500000060280001000109705830010360009000400000300209056,941572683856143972723896145537984261284631597169725834415368729692457318378219456
000000250490030007050062043006900071800000005009870306014005600600043010207000080,163497258492538167758162943326954871871326495549871326914785632685243719237619584
000198060204000100600700039500000003048067000079082001030076002410005800000940006,753198264294653178681724539562419783148367925379582641935876412416235897827941356
000300402300084100510600090600290018182400600790000005208005000000906007050740300,867319452329584176514672893645293718182457639793861245278135964431926587956748321
470020100000405900000906008602700000190050800580609203020008470005230600948000001,479823156861475932253916748632781594194352867587649213326198475715234689948567321
007006200000910000108042003040681900092504607500200030070000106650370080004000000,937856241425913768168742593743681925892534617516297834379428156651379482284165379
007300620008504100900060403100050000400981030000703905060008070001690000350402800,547319628638524197912867453193256784475981236826743915264138579781695342359472861
040090002000046709320000050000301007005020068930065000507000024200109003690070010,746593182851246739329817456462381597175924368938765241517638924284159673693472815
014700905002080713000002004200508070370000040081630000009314086603005002000090000,814763925562489713937152864296548371375921648481637259729314586643875192158296437
025400810800907002340000000000108040000530700190040650600000500400020070508619300,925463817861957432347281965756198243284536791193742658612374589439825176578619324
579300102004000006300154000600000309407080005090237004080500067006041000000790800,579368142814972536362154798628415379437689215195237684981523467756841923243796851
000340020050810970009000106700100053400050009013000680001408300980000260005207040,167349528352816974849725136796182453428653719513974682271468395984531267635297841
087005043600017908050002000070050690400000100009468300004901570321004060000080000,187695243642317958953842716278153694436729185519468327864931572321574869795286431
000106980900083000500000706053009601010500070400200803008040200367090504040010090,734156982926783145581924736853479621612538479479261853198345267367892514245617398
400012350100408060075000000049203000600100008000095007000037120520940070830000604,486712359193458762275369481749283516652174938318695247964837125521946873837521694
001632050005001064900070800020840006598000000070109020006093000080005012400000673,841632759735981264962574831123847596598326147674159328216793485387465912459218673
009063007750000010602000004018002300970100005300007089000290061500006740004500803,149863257753429618682715934418952376976138425325647189837294561591386742264571893
100453007704000100009002306300015409080000000200806750020000030400720560098604000,162453897734968125859172346376215489985347612241896753627581934413729568598634271
900100003307002850802600704701000000080000045056018002000009000024070010509400386,945187263367942851812635794791254638283796145456318972138569427624873519579421386
109002804000730900200800301600000002920305000708000140004518060006209000000060715,139652874485731926267894351643187592921345687758926143374518269516279438892463715
607000090000364100800702045100680400900500387004000001098030000730010052020005900,647158293259364178813792645175683429962541387384927561598236714736419852421875936
003017500500300906200800040000063000600090180020470009001006092470001800806005703,943617528518324976267859341789163254634592187125478639351786492472931865896245713
070290800103000000029341060010009040200860017000100308004000570000078620090036004,476295831153687492829341765318759246245863917967124358684912573531478629792536184
506003000270045000090002060700104090600000200409200703184070900000000638000050010,546983172271645389893712564725134896638597241419268753184376925957421638362859417
028040007005600010004390080007060500000208300206075041400100062701000930090004008,328541697975682413164397285817463529549218376236975841483159762751826934692734158
000010009390005714870006003400180030507000600020007090010050000630200045002904086,245713869396825714871496253469182537587349621123567498914658372638271945752934186
049001007008000693600082500023605010080039465000000000170506800305048000000090704,549361287218457693637982541423675918781239465956814372174526839395748126862193754
900000600860000037031009520002580004704120060000040300108300000050060409609208070,927835641865412937431679528312586794794123865586947312178394256253761489649258173
007810006900060080604003205000704900200301500050000008400509001326000000005028074,537812496912465783684973215861754932249381567753296148478539621326147859195628374
000568000769001020508009400400300096210700803003000240907040015300625070004000000,142568739769431528538279461475382196216794853893156247927843615381625974654917382
080400210020078003600300004750890060903060070002530000000000190579180006400700500,387456219124978653695312784751894362943261875862537941238645197579183426416729538
008039207502040006000501040700106800093000701640000090000000603050208000209064180,418639257532847916967521348725196834893452761641783592184975623356218479279364185
008003400650000130007401068001000800400206079029540000802030050100900002300004786,218763495654892137937451268561379824483216579729548613842637951176985342395124786
400062000059700200003100048000800620020030805810500003040050097932400001500083060,487362159159748236263195748395817624724639815816524973648251397932476581571983462
690000004030890007015023000000000506071064900820700300004938010000005690053001020,698517234432896157715423869349182576571364982826759341264938715187245693953671428
018020300043090068090070004002004010600002007070503690809050001300600780050001020,518426379743195268296378154982764513635912847174583692869257431321649785457831926
060003089084590070100700304601040003003020800540070001009050006000008250007104000,762413589384596172195782364621845793973621845548379621839257416416938257257164938
060000009400005000703184006159200708007500060600030200040670890538090070000000413,865327149412965387793184526159246738327518964684739251241673895538491672976852413
801000300200806500090035020306201807000504000000073091007000006108462075400009200,851927364273846519694135728346291857719584632582673491927358146138462975465719283
700104530080600002000092060010460000302000005960003081001000900005307240000058076,726184539489635712153792864518469327342871695967523481871246953695317248234958176
074900000500070401900600805010240080000701023086000704108002960620050000300009002,874915236562378491931624875713246589495781623286593714158432967629157348347869152
300270480006800210010040009260908007000050102400620590070035000003009850000100603,359271486746893215812546739265918347987354162431627598678435921123769854594182673
060302470007080000082900006001465720200008050004000019900743501030500000400000067,169352478347681295582974136891465723273198654654237819926743581738516942415829367
060407008380090200209006050097002800403700015000103000700010020040005009005268704,561427398384591267279836451197652843423789615856143972738914526642375189915268734
710030009026900000000006084100007530090401062000080400380205070069070005004800203,718534629426918357935726184142697538893451762657382491381245976269173845574869213
930807210410000009000500704290000003000102000178063020800001040000250607006934500,935847216417326859682519734294785163563192478178463925859671342341258697726934581
154900002000060705009000800080600041000009260020705300702031908045200070300008000,154987632238164795679352814987623541513849267426715389762431958845296173391578426
063002007900000150080100003600401500502300090709060081000038400070500030000600718,163952847927843156485176923638491572512387694749265381291738465876514239354629718
005003007970840006024600010002581030700000060009276054046300900800950000000004105,685123497971845326324697518462581739758439261139276854546318972817952643293764185
962007400500090060040005320016872000703060100298000000300000906005008001000530870,962387415531294768847615329416872593753469182298153647384721956675948231129536874
407100308098520006000003002030001080005046201000790600061000000084600570200907000,427169358398524716516873942639251487875346291142798635761435829984612573253987164
809630400000401020050009030010502009700068004003090762008000010900250608600000007,829635471367481925154729836416572389792368154583194762278946513931257648645813297
300040021020090600571000300000630700037024100008005000900063008405010006000802009,396547821824391657571286394159638742637924185248175963912463578485719236763852419
090000105610004370730000248050921704002006050800070001900563000001002007400080090,294738165618254379735619248356921784172846953849375621987563412561492837423187596
008092005200050903005608000450013200800070360702000008047030006001029500000700491,178392645264157983395648712456813279819275364732964158947531826681429537523786491
430050710000000026020017538001094000009020603070008002540639000000800060080140007,438256719715983426926417538261394875859721643374568192547639281192875364683142957
000708104090000020724009006000004013106050000050203009082400000007090435005061780,563728194891546327724139856279684513136957248458213679382475961617892435945361782
301000080007004025020009014050038090600010508002600071005900002083260700096007000,341526987967184325528379614154738296679412538832695471715943862483261759296857143
805070000060039002000200104970603000003000580000012000600480019480701030750090400,825174963164539872397268154978653241213947586546812397632485719489721635751396428
007300021250900300000084006003009710100026090408030005902000100560700400000500080,847365921256971348319284576623859714175426893498137265982643157561798432734512689
610020089000000007052490610400870000370012000806305021004609000080004502007080030,613527489948163257752498613421876395375912846896345721234659178189734562567281934
003590007100208005024001600700000000200000349040056702800070104065010000907305800,683594217179268435524731698798423561256187349341956782832679154465812973917345826
700009060431000020000830507000900800650004700090520031102008470070006005009000306,785249163431675928926831547217963854653184792894527631162358479378496215549712386
304070050060290000021000800010027098805610307000500004000900615006043000900005070,394871256568294731721356849613427598845619327279538164437982615156743982982165473
700508100000900007240100650063007408000305002172006090904000200650740003000030001,796528134315964827248173659563297418489315762172486395934851276651742983827639541
079300006006800120002004507030050780108000050000006403250060074400021900067003008,579312846346875129812694537634259781198437652725186493251968374483721965967543218
002090000050802106100305098680200450400038700701900003970100600000406020000000340,862791534359842176147365298683217459495638712721954863974123685538476921216589347
702009040500400790030052600190063000054070000600800910000120800000006034260390005,782619543516438792439752681197263458854971326623845917345127869971586234268394175
