804076000007150089300000602000500000500030248000867300002600730041002500600009001,894276153267153489315498672138524967576931248429867315982615734741382596653749821
570090000026087030000412700000108004908060000613000075004200901005079023002300000,571693248426587139389412756257138694948765312613924875734256981165879423892341567
000000780004902000301700054700000510902508007100030206007060049050001603008290100,596143782874952361321786954743629518962518437185437296217365849459871623638294175
095207008170580006002400730819000000020710040000000092700046000000005309061800000,395267418174583926682491735819324657526719843437658192753946281248175369961832574
070010300390045260006070180500108009104300500000002030020530600000009402758600000,875216394391845267246973185532168749184397526967452831429531678613789452758624913
209510000030000908087060400950280000001704000400900362865000240004070015000040803,249518736136427958587369421953286174621734589478951362865193247394872615712645893
035027000000060007420000600208900100900000782000050040090038260701005008300416900,635127894819364527427589613248973156953641782176852349594738261761295438382416975
800140000070060130000002069004307000950000002003025000300070008640030710210080490,869143257572968134431752869124397586956814372783625941395471628648239715217586493
000004060076502014015090000020305007300018405807200006040080391090000050081003700,238174569976532814415896273124365987369718425857249136542687391793421658681953742
004700015300925700800060020020000540007310006009008003058170000410500060006002900,294783615361925784875461329123697548587314296649258173958176432412539867736842951
000300094028106003590870200006030541300950000000407080000500070740002005810000960,167325894428196753593874216976238541384951627251467389632519478749682135815743962
000806741010500026300700800900004038250090000031000000700061290640003005090080407,529836741817549326364712859976124538258397614431658972785461293642973185193285467
350100804009054070000090602207049010560700000008526300000003408016002000040600700,352167894689254173471398652237849516564731289198526347725913468816472935943685721
006105807040028000000900053095061200072400000400030796089050040100207600003800009,936145827547328961821976453395761284672489315418532796789653142154297638263814579
000019800070302059802000060006850007900003200408007030200701090130500046005040003,543619872671382459892475361326854917957163284418297635264731598139528746785946123
070809300052030604008560710100093400000050001743200006300070052069008000000410900,671849325952137684438562719125693478896754231743281596314976852569328147287415963
000700630341000008000080092000050000080406509050917060720800014403009200960120005,892745631341692758576381492639258147187436529254917863725863914413579286968124375
040008632600305010007000045784020000000490200000001000001653009405002008096180070,549718632628345917317269845784526391153497286962831754871653429435972168296184573
005006020369000000800309074080000490900710502607020100000071003240800000700430985,475186329369247851821359674182563497934718562657924138598671243243895716716432985
060090030050817040000306012007000281000500004904208607103049005620000000098705000,761492538352817946849356712537964281286571394914238657173649825625183479498725163
000002000960040300080001459147603090300057006002094001000080027035206000009070100,574932618961548372283761459147623895398157246652894731416389527735216984829475163
004090001807060200020001583650000130008003000090672005360057002401000000080000906,534298761817365294926741583652489137748513629193672845369857412471926358285134976
960002004075400000023059001004200030009001807087690100000014250300970000800005060,968132574175468392423759681514287936639541827287693145796814253352976418841325769
830400000400070500079300006000600002093502018507009300002010637000704001001093080,835426179416978523279351846184637952693542718527189364942815637358764291761293485
000230160070005048906000003008600910003014750042700000060481090000000000510090607,485237169371965248926148573758623914693814752142759836267481395839576421514392687
017500060800069720500200043700006080002913000040000200000000504061008970020041030,217534869834169725596287143759426381682913457143875296378692514461358972925741638
010000670600210398008000005005804007030006010490075020002780030340050001000490006,913548672654217398278369145125834967837926514496175823562781439349652781781493256
056800703970520000030001040000046270000905610609080000008009500201300090300407060,156894723974523186832671945583146279427935618619782354748269531261358497395417862
870090360064050000010370002006009108000082090003600040000007531290000870005041900,872194365364258719519376482426739158157482693983615247648927531291563874735841926
401500620007004093082000100600941080700650209000800040035106400800070000900000530,491538627567214893382769154623941785748653219159827346235196478814375962976482531
910040280006005079000600400700806130240093005800000000500100003072034600000070010,915347286486215379327689451759826134241793865863451927598162743172534698634978512
039005081705910402004703000090600803500001000020430960000068590000020070041000306,639245781785916432214783659497652813563891247128437965372168594956324178841579326
000310000480000205917008000200003001056001908840250600090600030000907506035040807,562314789483796215917528364279863451356471928841259673794685132128937546635142897
940000050060002008008030079700120004000058027301040060002090001050087300006405090,947861253563972418218534679785126934694358127321749865472693581159287346836415792
000005809725009001860370020036100090900060008200704100007008350510900704000200000,143625879725849631869371425436182597971563248258794163697418352512936784384257916
007803190104900020030000605020710548805006000000000370250090007000004860000237000,567823194184965723932471685326719548875346219419582376251698437793154862648237951
036700900000050102008041030920000508010270063004000007670093004002000050590008600,136782945749356182258941736927634518815279463364815297671593824482167359593428671
002307004801090702700005600040716050079002008100000040006203000010800005023400090,692387514851694732734125689248716953379542168165938247986253471417869325523471896
007030000600004812190605470900083064500270000000000009016502030050000006420908000,247831695635794812198625473972183564564279381381456729716542938859317246423968157
051000270000700460300048001560000800049060310200530090600053000807621004000000029,451396278982715463376248951563179842749862315218534796624953187897621534135487629
000060002005009300127005600051080706069200040400003590090000004000500138803742000,938167452645829317127435689351984726769251843482673591596318274274596138813742965
053200000810500900000040036500721000009000870002093004080062700370085201400900003,653279418814536927297148536548721369139654872762893154981362745376485291425917683
500000000000070291041002670300046000100208704060590100830709010492600000000800036,527961348683475291941382675378146529159238764264597183836759412492613857715824936
400002109005706380000003000240300060803090007607801004001050728970200500008000006,436582179195746382782913645249375861813694257657821934361459728974268513528137496
060090013180300205000100040900008520510700008030021090000470930206050004004806700,465297813189364275723185649947638521512749368638521497851472936276953184394816752
006050072018020500040709010200300006001068023090000705000003800350004091024015000,936851472718426539542739618285397146471568923693142785169273854357684291824915367
140803006000700080097040020006508102005610700000039004050020000208000307300401065,142853976563792481897146523436578192925614738781239654654327819218965347379481265
010950000390007600750034080037000410802500000000008020600800900023061040405020160,218956374394287651756134289537692418842513796169478523671845932923761845485329167
700085600006000109048920300600070900080340002501008007009263050000004200310050040,793185624256437189148926375634572918987341562521698437479263851865714293312859746
075200030040009600002400109400008750020000008103020040700900001009305060608701200,975216834341879625862453179496138752527694318183527946734962581219385467658741293
700054802592008004060070001000000638008900500300007420000793000600800170403002005,731654892592318764864279351957421638248936517316587429185793246629845173473162985
200096000010080390070000608184700960900010047000950800003070000641200080000400523,258396174416587392379142658184723965935618247762954831523879416641235789897461523
057000104000005003040903006005209060103470020800600037080000000702060018000102900,357826194916745283248913756475239861163478529829651437581397642792564318634182975
480200000007003010019050408000940050100060907030008020500027003008090006064801500,483219765657483219219756438876942351142365987935178624591627843328594176764831592
073090618061730020400200050000403201900057004006020000000309005104600800805040900,273594618561738429489216753758463291912857364346921587627389145194675832835142976
400609200507300000010007038005970060600002540800100003128000406006080090340250007,483619275567328914912547638235974861671832549894165723128793456756481392349256187
509100300020008090100004528700605800003090100008002974010063050400500710060400003,589126347324758691176934528791645832243897165658312974817263459432589716965471283
700410032040073060009000050000201004026800000005036109090580000803002006050060740,768415932542973861319628457937251684126894375485736129694587213873142596251369748
000070819080500007206090004000726005000301900041050060914080030003005002007060080,435672819189534627276198354398726145652341978741859263914287536863415792527963481
040060070570200010002050809000500380060370001104082006081007200900400000006090438,349861572578249613612753849297516384865374921134982756481637295953428167726195438
037900020800004710502036080305600800000050007600098304000000170060300902140002506,437981625896524713512736489325647891984153267671298354253469178768315942149872536
000070060058060003170090402800100906010407005207000080400000028000605301090032000,324571869958264713176398452845123976619487235237956184463719528782645391591832647
080530100072000065903006400304800910600009702000021003000752090000100000567400080,486537129172984365953216478324875916618349752795621843831752694249168537567493281
068000090300410050050060120007980360400000002630701405710005008090302007000000630,168253794372419856954867123527984361481536972639721485713695248896342517245178639
800509730000400000006030508030100002005790604400802090010020085340000109070904200,824569731153478926796231548937146852285793614461852397619327485342685179578914263
001002706000180000009006083807010605254000000000034800040000010360900502702803400,481392756673185294529476183837219645254768931196534827945627318368941572712853469
037050400908340076000002180000100020053200801060000009004603000015094000000008760,137856492928341576546972183489135627753269841261487359874623915615794238392518764
007000026068030400400190000500360008289700010300009005000050970690002500050010304,937584126168237459425196837574361298289745613316829745841653972693472581752918364
090004107004609080350200006006020003040000010001900862029006378003780090010500000,692854137174639285358271946986127453245368719731945862529416378463782591817593624
001300008507009240000052607250008903904200700100060480060000050000413020008000309,621374598537689241849152637256748913984231765173965482362897154795413826418526379
607300000208009030400710096040570360000000001035060087900402000002930048000050600,697325814218649735453718296849571362726893451135264987961482573572936148384157629
600800905000641007074009200300005000010470080500060712400000008102030009009508300,631827945295641837874359261327185496916472583548963712453296178182734659769518324
009743205450800000800009060000508002907000100586072003030410700000306004201000500,169743285452861397873259461314598672927634158586172943638415729795326814241987536
859701300016029074000005000003960000120003600008000407400086090007200063090050002,859741326316829574274635918743968251125473689968512437432186795587294163691357842
004900750800040903702000008900003605000480010100760090410500200600132084030000006,364928751851647923792351468987213645526489317143765892418576239679132584235894176
730005209008010050406000710005007026800040007309608140000136000094050300200000008,731465289928713654456289713145397826862541937379628145587136492694852371213974568
079038600008091002342007000060020300500809000000640820010006040207000009430000570,179238654658491732342567981864125397523879416791643825915786243287354169436912578
050760430809000006030000520020130005068000100405090070070008940002043080600920301,251769438849352716736481529927134865368275194415896273573618942192543687684927351
006498005007000800030000260409123700000000002150080600080204100640000520901570003,216498375597362841834751269469123758378645912152987634785234196643819527921576483
052090007100305200009680010800200400690007805270049000008510040003000906000064030,352491687186375294749682513831256479694137825275849361968513742413728956527964138
900082003068001000041930006006015020005003080800060079500006932009400705070000040,957682413368541297241937856796815324425793681813264579584176932139428765672359148
904600070060401830000000000100920007052000001030085604590002060800010092607503010,914638275265471839378259146186924357452367981739185624591842763843716592627593418
210040039000000500050326078309052010070008064000600000580004306401800005020097001,218745639736189542954326178369452817175938264842671953587214396491863725623597481
730200018024080000000730060006052030002004700915008400103900600000000072090005040,739246518624581397851739264476152839382694751915378426143927685568413972297865143
710000004300080759096000002800260000002407000040053061069100540003002080405090007,718925634324681759596734812831269475652417398947853261269178543173542986485396127
940200065007050009600008400002004900108020007050607100013000000590800702000390680,941273865387456219625918473732184956168529347459637128813762594596841732274395681
060304100503100070009050200700092400000008006206010300040506090900000038082070001,867324159523169874419857263738692415154738926296415387341586792975241638682973541
050640009800907500060002010078400030605000900100020004000085400901300702000710860,357641289812937546469852317278496135645173928193528674736285491981364752524719863
800001079600490000310005480400300000002009000070860501000020607096010050745000300,854631279627498135319275486461357928582149763973862541138524697296713854745986312
020600000001090360080400150047005000205300080003024009070800603016502700400710900,324651897751298364689473152147985236295367481863124579572849613916532748438716925
280704090009200076050038004900080305470000100860001002000302000006000020104050907,281764593349215876657938214912487365475623189863591742798342651536179428124856937
300000804095000010000400260860005900702016030500028000080061007010079456007230000,326157894495682713178493265861345972742916538539728641984561327213879456657234189
803002000025041730700000650200090170370065000080200009600907845000000010010830006,863752491925641738741389652256498173379165284184273569632917845498526317517834926
080460500305000900140037002204600008097100005000923000070802061010000207500004030,782469513365281974149537682234675198697148325851923746973852461418396257526714839
000090200706004090180200500901800730500006004040053000608000000275010903004700012,453691278726584391189237546961842735532976184847153629618329457275418963394765812
507900060080000001600834020400701903009003500000680070054120800930070100020005000,547912368283567491691834725462751983879243516315689274754126839936478152128395647
000000080000279004265004010700300005040102067008000301010600900870045030930780002,497516283183279654265834719721368495349152867658497321514623978872945136936781542
086950300720008000030070140300006004619800200500007800004215090007304560200000000,486951327721438659935672148378526914619843275542197836864215793197384562253769481
100605040690000030705800010408203009000001053002509007009100008030047500270000690,183695742694712835725834916458273169967481253312569487549126378836947521271358694
090402070700800360082016005003600809168390040020000500005041000000570021230000000,596432178714859362382716495453627819168395247927184536675241983849573621231968754
