900804501008600230107009080050020000000500743060471000400300610090008050372000004,926834571548617239137259486754923168219586743863471925485392617691748352372165894
908500000036000002200008019070052300500600908604307100000009067409003800100460000,918526734736194582245738619871952346523641978694387125352819467469273851187465293
200100700050209000600070004701604908003005060000000270040000012000851009809060530,234186795157249386698573124721634958983725461465918273546397812372851649819462537
500084070037050400602007090005070201010000008070035900480069027000001340009000500,591284673837956412642317895965478231314692758278135964483569127756821349129743586
002701080400000203030045900005360890010008002800507600501820340670900000200004009,962731485457689213138245976745362891316498752829517634591826347674953128283174569
000300802376200900001740005403000600709008041060590230004020108500061000802000090,945316872376285914281749365453172689729638541168594237634927158597861423812453796
406807100000000036015209000032605019180704000000000200050400320900100008040372605,496837152278541936315269874732685419189724563564913287657498321923156748841372695
001350000020807003000004690306510402017006000054090301078000000460203007900000504,641359728529867143783124695396518472217436859854792361178945236465283917932671584
002809000060002100359670000007000034980500670001094002076010800400038000013000025,142859367768342159359671248527186934984523671631794582276415893495238716813967425
000083402003002010790500600040000108300040029200807360800095000031000006006400875,165783492483962517792514683647329158358146729219857364874695231531278946926431875
206050000010006740075930002000800600027140903130000050054700090300008001090060020,286457139913286745475931862549823617627145983138679254854712396362598471791364528
054300760800040000003670059000209016002000040539060000096013800240800300001750000,954321768867945132123678459478239516612587943539164287796413825245896371381752694
000107509050600030204900700600500802701040090000002010430060180105090420070030006,386127549957684231214953768643519872721846395598372614439265187165798423872431956
070090000005601004080240001000007090031800200040023506058100079003000160206000450,174398625325671984689245731562417893931856247847923516458162379793584162216739458
070040009005612084108030056200001097086000000904000538007009021000060400830200000,672845319395612784148937256253481697786593142914726538467359821529168473831274965
000042607950000200604001390090010020043807005205630001082070009001000480000403070,318942657957368214624751398896514723143827965275639841482176539731295486569483172
700520000001064078536000010850006020600759003000002900080040096004080052320007800,748521639291364578536978214859436127612759483473812965187245396964183752325697841
260500040400730000000004287005600004018040390900070012030000600859020700000081059,267598143481732965593164287325619874718245396946873512134957628859426731672381459
700600015900050040100802360004190007010705020003200800056000080000083600200400900,738649215962351748145872369624198537819735426573264891356927184491583672287416953
004090501002304807680000000006800405017000203400052900005036000009040730020901004,374698521952314867681527349296873415517469283438152976845736192169245738723981654
010094500000820004600005280090002007807030000403610050009000060040051890702000043,218394576975826314634175289591482637867539421423617958189243765346751892752968143
205406103700003005640700000000008000300000817160504020007600482000280900009105030,285496173791823645643751298972318564354962817168574329517639482436287951829145736
002000109100008007040005028700009040010300800520700096004182000063090002050607000,682473159195268437347915628736859241419326875528741396974182563863594712251637984
400008035090003160600020400200800010007506200041030500030402600100000007805070090,472168935598743162613925478256894713387516249941237586739482651164359827825671394
000308600907200000060051240004803006205006903090020100010039008630400000748600005,421378659957264831863951247174893526285146973396527184512739468639485712748612395
370089006050004100900650802030200000201008070000760208043500001086030009000070540,372189456658324197914657832837215964261948375495763218743592681586431729129876543
000210000009400600831050020790000308200036041000005060108090500307040902050807004,674213895529478613831659427796124358285936741413785269148392576367541982952867134
700504003290001400005028000080200619109056200003000087000090040060103800407000102,718564923296371458345928761584237619179856234623419587851792346962143875437685192
000000020003007506514090800060009007090050301005200009940300008100470030082006705,679583124823147596514692873461839257298754361735261489947325618156478932382916745
038100605000009000009070304060780020200016809000205040400050070370041058180030002,738124695541369287629578314964783521257416839813295746496852173372641958185937462
390020070040003005005068091000309050900050807062100004050004080080790106001000020,396521478148973265725468391817349652934652817562187934659214783283795146471836529
020700009003048506090500018710206400600090201052000060008002000000430070947005130,825761349173948526496523718719256483684397251352814967538172694261439875947685132
001020480030400096600005700070102500304009020065080001000007000000953170900610042,791326485538471296642895713879132564314569827265784931183247659426953178957618342
700010300040800720012056090200007038508040009000902005800000100970100060006430007,789214356645893721312756894291567438568341279437982615853679142974128563126435987
060401008905700420300000050008904510510008700007000006204089000000000362170305040,762451938985736421341892657628974513513268794497513286234689175859147362176325849
080003609006010070705200800100000005020469080090052304600028450002630700008000010,281573649936814572745296831164387925523469187897152364619728453452631798378945216
000679003810002700009003500090000160005060034320500080070040009501000020040800600,254679813813452796769183542497328165185967234326514987678241359531796428942835671
005100900400207010060040072951030000000080060080070203810004009007096300230000086,725168934493257618168943572951632847372489165684571293816324759547896321239715486
047009000200004605000013020500100734060900058084025010416000800009030060000708009,647259381231874695958613427592186734163947258784325916416592873879431562325768149
038479000100000060504012030200000800000045001005800007070000089060021005001903200,638479512127358964594612738246197853783245691915836427372564189869721345451983276
070030060240050009103920080020600903605200700430010006080000501004760208300041000,579438162248156379163927485821674953695283714437519826786392541914765238352841697
243000501560020309007100000008205104300070602050300098000609200704018000090000045,243986571561427389987153426678295134319874652452361798835649217724518963196732845
500002908306000005900040020070006102000083040094100807081200760000070500060030091,547362918326918475918547326873496152152783649694125837481259763239671584765834291
917800400000000207040053601079045800000009035200037100600000000003914008150020004,917862453536491287842753691379145826461289735285637149694578312723914568158326974
000030610090805700312900008500040063060208900800093005601000040030764000070520300,785432619496815732312976458529147863163258974847693125651389247238764591974521386
080001097750060302040000850906000080008529001300000004001200700090034000230800560,682351497759468312143972856916743285478529631325186974861295743597634128234817569
510924003806300005029006000050030748000140000060005310174080206000070504280000090,517924863846317925329856471951632748732148659468795312174589236693271584285463197
016400950750200000400000167020074800900000406570083001000050080008069003060100029,816437952759216348432895167621974835983521476574683291197352684248769513365148729
096040710700092004050008020032080460060200001001000039507013680080007003100004500,296345718718692354354178926932781465465239871871456239547913682689527143123864597
725100800008040200300800090004000002000504380610007009002009076007630000190708040,725196834968345217341872695584913762279564381613287459832459176457631928196728543
053018002010900807900302400040000300100070006802000000309600501760050080001020709,453718692216945837978362415647291358135874926892536174329687541764159283581423769
006012005070003010042000060815070900000020840300009006400060700080590103001800050,936712485578643219142958367815476932769325841324189576453261798687594123291837654
340009000070065804000200090900070341003801007027090006000500600690017050081040200,345789162279165834816234795958672341463851927127493586734528619692317458581946273
010900800800640000007020356030496008004001002975003060060504000002800107749000000,516937824823645719497128356231496578684751932975283461168574293352869147749312685
000836050008400079000270604050000940097310000060007500970008001503000208204160000,749836152628451379135279684351682947497315826862947513976528431513794268284163795
000007009920501408740000602408090001002050060090032005000608000105040706800300010,586427139923561478741983652458796321312854967697132845274618593135249786869375214
706100000890050000020704050983020070000008200140503600070490103600030042005016900,756189324894352716321764859983621475567948231142573698278495163619837542435216987
304620000089000406010007500075201830000308005006090040023070900100000008960050072,354629187789513426612487593475261839291348765836795241523876914147932658968154372
980020300600100050003470020004700000000091000715300009020500067008064200301080095,987625341642139758153478926894756132236891574715342689429513867578964213361287495
000027054100030800657800090029040060000086401010000003095201700080075630004000200,938627154142539876657814392829143567573986421416752983395261748281475639764398215
000905084400306009001020570000000040308001026600739000003000105756008000102040760,237915684485376219961824573519682347378451926624739851843267195756198432192543768
097400002004650800350000109000815030600007080002960407900000060438000021001070504,897431652124659873356782149749815236613247985582963417975124368438596721261378594
460800200000009000800017504049300000107040058000025097035600021008030000200501806,461853279752469183893217564549378612127946358386125497935684721618732945274591836
300006005846003000050024100005080040004057032180060090000200906730000050002790014,321976485846513729957824163275389641694157832183462597418235976739641258562798314
600094027013600008700000000007560100031700009002030805000010000050942083400007960,685194327213675498794283516847569132531728649962431875379816254156942783428357961
070045000060210074008030000901060008020000610500001307840000503200608009059004100,172845936365219874498736251931567428724983615586421397847192563213658749659374182
500007100004080009008340600010290070800100506609008400302005060000900204040070350,593627148264581739178349625415296873827134596639758412382415967751963284946872351
430509600096010000050002070004000782070030419008100050000390104100806200709400800,437589621296713548851642973314965782675238419928174356582397164143856297769421835
200500041400067820010000050060900230001470968000800105004010003507093000090240600,276589341435167829819324756768951234351472968942836175624718593587693412193245687
400000001078032000163008005006010007309507400015803020000900700250004806000620040,492756381578132964163498275846219537329567418715843629634981752251374896987625143
905070080480000023000000051700040106300021045040690070037500200010069000506230008,925173684481956723673482951752348196369721845148695372837514269214869537596237418
380700000020005067105006940000984020907032010050000000700051302094000006201090500,386749251429315867175826943613984725947532618852167439768451392594273186231698574
010509076050060001029000300005700420206800005040300708038001900007420600400008007,813549276754263891629187354385716429276894135941352768538671942197425683462938517
709000830080067050034900006000405921103000000005020080600001700940003010002879500,769514832281367459534982176876435921123798645495126387658241793947653218312879564
008000003070002058400930170002070840600509000735010020501700296903005001000600000,218457963379162458456938172192376845684529317735814629541783296963245781827691534
070000008000920010123005097049602000006573040000100580097008004600000103350040020,975431268468927315123865497549682731816573942732194586297318654684259173351746829
000602001203041009400580670000070803082004050005019000019000326008030140004006000,857692431263741589491583672946275813182364957375819264719458326628937145534126798
603041809510006003004000000140030000000705020972080001307050400098000010000392060,623541879519876243784923156145239687836715924972684531367158492298467315451392768
206075000710000820090016300803000905642000010000067000980002570500009634000401000,236875149715943826498216357873124965642598713159367482984632571521789634367451298
590000600004600807000021043630500470401860300082090050300009001000743200208000000,593478612124635897867921543639512478451867329782394156345289761916743285278156934
062407000008000700450000316000091504080702600691800003200380007109240030000005009,362417958918563742457928316723691584584732691691854273245389167179246835836175429
008400201074105809600093000789000004200050780036000000000007615400201000097060003,958476231374125869612893547789612354241359786536784192823947615465231978197568423
200001800093060000078002596501080060309100200080094030006400028000005470004007001,265971843493568712178342596521783964349156287687294135756419328812635479934827651
078150020060009001504036009030020054100000630000097080009402700725000010600080003,978154326263879541514236879837621954192548637456397182389412765725963418641785293
700900003900105000006020710015034020090710068200600000403000000807006092020500036,741968253932175684586423719615834927394712568278659341463291875857346192129587436
000000500003170804001609203800092640000500008960810350007050002490300060200081700,749238516623175894581649273835792641174563928962814357317956482498327165256481739
086904300000067100702300000045096800300000670000832040900240080010005009520000760,186924357439567128752318496245796813398451672671832945967243581814675239523189764
050074900008300040097080206140200007506008400002009063360000050000105000000046091,253674918618392745497581236149263587536718429872459163361927854984135672725846391
001030860900170300240900001000003405120000638006008020750000004000052190300800700,571234869968175342243986571897623415125497638436518927759361284684752193312849756
000700100000643098700012040910200300500000004027064500180090206360805070002030080,643789152251643798798512643914258367536971824827364519185497236369825471472136985
650009070000040639000802010098001000400095000702003060175000400000070803306200091,654319278821547639937862514598621347463795182712483965175938426249176853386254791
030000000809300067075014802000000420408600900906002058300706000000290040004508709,132867594849325167675914832753189426428653971916472358391746285587291643264538719
200400015109207800380050600005901200007005000020648003090000040008000307000736109,276483915159267834384159672435971268867325491921648753793812546618594327542736189
600000040890510700001630200203049601400000809008007500005063080000090002740201050,632978145894512763571634298253849671417356829968127534125463987386795412749281356
005306004290000000136900008803020100070000045000897060600470210017005096000003000,785316924294758631136942758863524179972631845541897362658479213317285496429163587
010008045000002900028504016372000000009600008604175000007090054006350890000807030,713968245465712983928534716372489561159623478684175329837296154246351897591847632
507400098209000005016070000000500684008091000300007200100309027682000030900018050,537426198249183765816975342791532684428691573365847219154369827682754931973218456
417000080008501060000208009603190700070020030100060400560000070809600254020300800,417936582298541367356278149643195728975824631182763495561482973839617254724359816
280401060040092000005060003307000609004209105001070034050980000600040702079000510,283451967746392851915768423327514689864239175591876234152987346638145792479623518
308700014010000097007062050200087400430500080009036500000009032760003000000254800,328795614615348297947162358251987463436521789879436521584679132762813945193254876
