908030062600290403000700001001500000700300086005047009400816027002000000030070905,948135762617298453523764891361589274794321586285647139459816327172953648836472915
048360501105700290000000000060038000070090420502000300800002104013406000900800057,248369571135784296697521843469238715371695428582147369856972134713456982924813657
300000007062580000705090802530710608020054900401000030600020003080031709000408100,398246517162587394745193862539712648826354971471869235617925483284631759953478126
600570000800000002700001594000903450309050006020400100210004603008200070003608000,694572318851349762732861594186923457349157826527486139215794683468235971973618245
105007200000094006070000390250010800000805130300002070460021007009300504080000600,195637248832194756674258391257413869946875132318962475463521987729386514581749623
100008050620740100089005003002900007010000685003001040400080506300024070000160900,134698752625743198789215463842956317917432685563871249471389526396524871258167934
701500004900083000085007019003020060652400078004000050267090000000810046000000302,721569834946183527385247619873925461652431978194678253267394185539812746418756392
020560030007031040400000005000173080230009001900040560010290000500007604086010709,129564837857931246463728195645173982238659471971842563714296358592387614386415729
004800200600900030300607840080100002000004503170029600506000001901370460000206090,794831256658942137312657849485163972269784513173529684536498721921375468847216395
100400003930060017607083200500604000084020560010700930009071000060005028402000050,125497683938562417647183295593614872784329561216758934859271346361945728472836159
600304002007010840900702300034600170000020080050107900570800010080953060409000000,615384792327519846948762351234698175791425683856137924573846219182953467469271538
830000920060002008504100000209008350000657000400000007000000100308095200690840705,837564921961372548524189673279418356183657492456923817745236189318795264692841735
600387400000020090574060200100695000806002005009400307010050024003001080900800100,692387451381524796574169238137695842846732915259418367718953624463271589925846173
590003100000500600600420309070100004302004000000602090100000405807050003230901067,594863172723519648681427359976185234312794586458632791169378425847256913235941867
700040300060010020320005006150060070002003009009708401010006040890000500000239068,781642395965317824324895716158964273472153689639728451213586947896471532547239168
204001060005609800001084305038005040100230070090070000059060008000003002600090451,284351967375629814961784325738915246146238579592476183459162738817543692623897451
080000900204031005516800040002100000000602013059048070060003004840000002000050709,783564921294731865516829347632175498478692513159348276967283154845917632321456789
310085406000100200906000003409002800020390001078650000000030900000076024841500607,312985476754163289986247513439712865625398741178654392267431958593876124841529637
050094730080060090704001058603019005500200900070085000000030400832700010100008062,256894731381567294794321658623419875518273946479685123965132487832746519147958362
009000206408590000320008004050020730001870000002403658003009062000600907700004300,519347286468592173327168594854926731631875429972413658143759862285631947796284315
004980100506013204700002003001608002020005487090020000000531600308000050040007009,234986175586713294719452863451678932623195487897324516972531648368249751145867329
070503008018760009320000040605070080900036001040800320807002050104090000060005400,479523618518764239326918745635271984982436571741859326897642153154397862263185497
001070083900000007000098052700480300102000800046302005408200000350900060069000104,521674983984523617673198452795486321132759846846312795418267539357941268269835174
001000009060572800480060230079806005004025010000000903000017064200400570300008000,721384659963572841485169237179836425834925716652741983598217364216493578347658192
000003009100000050527000040050100020078209300900067400001805006080006230603740010,864523179139478652527691843356184927478259361912367485241835796785916234693742518
050020003008100579007600004010790000800001960020360108604800000905400720030000046,451927683268143579397685214516798432843251967729364158674812395985436721132579846
050837009400006000097105082100020054039000007004900360276000030003004005000080010,652837149481296573397145682168723954539461827724958361276519438813674295945382716
500000907970480053863007002081056020400000000000742006050600304040935000200000008,514263987972481653863597142781356429426819735395742816157628394648935271239174568
005207910370800000006000005900300024030004100007010806000980300600045090802006407,485267913379851642126493785961378524538624179247519836754982361613745298892136457
810200400900000570070039006034006008600000050020798003452063810100020090080507060,816275439943681572275439186734156928698342751521798643452963817167824395389517264
003000258400010070028600001010025036805400000670000940390008000000097310001506700,163974258459812673728653491914725836835469127672381945397148562586297314241536789
800060409024800015069000000308607050002100340450002008070004830000010000005009726,831265479724893615569471283318647952692158347457932168976524831283716594145389726
300025910007140005040690020854009060200810003100000047400056300015007080090000200,368725914927148635541693728854379162276814593139562847482956371615237489793481256
600520800090000007150074009700041032040003060309000005023008400000000001810605070,637529814492186357158374629765841932241953768389267145523718496976432581814695273
041080009500000060270096004910500203000207400004060800060000130087030005009170082,641785329593421768278396514916548273835217496724963851462859137187632945359174682
010040006000309082960800705000071060540200078096000003204600001080500000075003400,812745396457369182963812745328971564541236978796458213234697851189524637675183429
703800020000300098058010040095086000010000304640701050030060900200040081100207006,763894125421375698958612743395486217817529364642731859534168972276943581189257436
010400900200000040003280700590060018001740306000098205950070060068000000304001029,715436982289517643643289751597362418821745396436198275952873164168924537374651829
003120400000000012001657009780000030050709004104005000000030865900800001062040700,693128457578493612241657389789214536356789124124365978417932865935876241862541793
840600027709003080006900045380700000402030190005108000930005700100370064000012000,843651927759243681216987345381794256472536198695128473934865712128379564567412839
059000100064730500207400060500008070041005300038060920000607009090080714100002038,359826147864731592217459863526398471941275386738164925483617259692583714175942638
805040000060012500270300006000805109000090402030700060917003050003460018480000200,895647321364912587271358946642835179758196432139724865917283654523469718486571293
084000090920004306100250700870600010260080405003000000390076080001090003040102570,584367291927814356136259748875643912269781435413925867392576184751498623648132579
300045028020600003006001700000007001840590007093002060002000890130200004650084010,317945628924678153586321749265437981841596237793812465472153896138269574659784312
903200080070850620000010005802000300010000050400970008500036209047001006090720514,953264781174859623628317945862145397719683452435972168581436279247591836396728514
506908002704000000000074039209050046100000000073201008008037205001060390000102060,536918472794326581812574639289753146145689723673241958968437215421865397357192864
402100096000006100500720800700000030090030504018500260650240071007300000830900005,482153796973486152561729843745612938296837514318594267659248371127365489834971625
060900120002176009004000005000701004080032710500060900000000567690410280320008000,763945128852176349914283675236791854489532716571864932148329567695417283327658491
607200009000040008320105400070081690005300000800009012560020370010900800002003045,647238159951746238328195467274581693195362784836479512569824371413957826782613945
009430010600080500072005900200003000840000097905001208150602040000050006406008730,589437612614289573372165984267893451841526397935741268153672849798354126426918735
030000050006003000100025700879200065600010040005900308750006093080302004004780010,237891456596473281148625739879234165623518947415967328752146893981352674364789512
000090000520460980030801076410200000805070300300680400000000805706900100009523004,678392541521467983934851276417239658865174329392685417243716895756948132189523764
000706000002000000870050049400000107596001023007320000000502800368109050009000014,945716238632498571871253649423965187596871423187324965714532896368149752259687314
002900760000020901450700803280590100070080000000604002840230050530001004906007000,312948765768325941459716823284593176675182439193674582841239657537861294926457318
900073002000500003200401580000060340037050601510000020750800000008020109104900760,985673412641582973273491586892167345437258691516349827759816234368724159124935768
804000070056800413000000900700150080029003051000029600030078005500001097010630002,894312576256897413371564928743156289629483751185729634432978165568241397917635842
006840001100000005080001390092007104004520000000000807030682700070010030040039002,956843271123976485487251396892367154714528963365194827531682749279415638648739512
090201054037060000400070008306002970019040062050100800080017000100000305200504090,698231754537468219421975638346852971819743562752196843985317426174629385263584197
007900000003000594000082001200007065064050008109008030300409006405070020600310809,517934682823761594946582371238197465764253918159648237381429756495876123672315849
309201060010004980700060400280000050100020007006408010030950600000013520002700093,349281765615374982728569431284197356193625847576438219431952678967813524852746193
043002500600510000902800073806004009000600410290070080000050037080900240701030605,143792568678513924952846173816324759537689412294175386469251837385967241721438695
400600920000405000000037501920008070053010600018093000002050000070140365000009084,435681927197425836286937541924568173753214698618793452342856719879142365561379284
700090006060003400020085930092700005800300010401800200030402509007000621015900008,783294156569173482124685937392741865856329714471856293638412579947538621215967348
060000034000160008054087600709040000003502400020009083342001090076208000100000507,861925734237164958954387612719843265683512479425679183342751896576298341198436527
740080000206700090030000408010503640004000309500200007008901000002065014069037020,745389261286714593931652478817593642624178359593246187458921736372865914169437825
090802600150030000708001040000500037800020000034009201060490002547008003900060170,493872615156934728728651349219546837875123496634789251361497582547218963982365174
000002050680004307070001060800603090297800000403000105300090010759000006040526003,934762851681954327572381469815643792297815634463279185326497518759138246148526973
583094000900700000406135000050610408820000091000000507009060200000503700100002804,583294176912786345476135982357619428824357691691428537749861253268543719135972864
020000030309000015100609807905001070040790006800026450000150240070803000500040008,726518934389274615154639827965481372243795186817326459698157243472863591531942768
600043020700000100090250600080000045073000096200800000040937080050410300029008070,615743928732689154498251637981376245573124896264895713146937582857412369329568471
809630504007002006600090008300049800001200003750000120410087090506400000008010305,829631574147852936635794218362149857981275463754368129413587692596423781278916345
056304000300010054700096020803050900061000002020800071900602430040007015200000809,156324798392718654784596123873251946561479382429863571915682437648937215237145869
000805090603000100920017000190080042400500070080206030005034020000170350070900806,741865293653429187928317465196783542432591678587246931815634729269178354374952816
209080000010200763063050090700006900030800405041529300050948000680300040000000501,279683154518294763463157892725436918936871425841529376152948637687315249394762581
280400060005009030060070801007100006030050070000068540800006054406900008190800000,289431765715689432364572891547193286638254179921768543872316954456927318193845627
700900120060074000050002078805100002006409000920600430290500006007003540010080000,738965124162874359459312678845137962376429815921658437293541786687293541514786293
450000002000036107000800900160275080900010600000000003800900060014520700739060004,456791832298436157371852946163275489982314675547689213825947361614523798739168524
040000200205900708007060010600407029032800000470600001010230540008009163050000080,143785296265914738897362415681457329532891674479623851916238547728549163354176982
009073500200000980605020400100060308007002000304908010010605240090000070508400063,849173526231546987675829431152764398987312654364958712713685249496231875528497163
060085090900410700001207360200050400390700000048960500050000603000008127014600080,467385291923416758581297364276851439395724816148963572852179643639548127714632985
060840009309007000024500701000123080580406030006000007008005290070000506103090004,765841329319267458824539761497123685581476932236958147648715293972384516153692874
067102900098307500300600000109003040020015070850200000041006002500009034900480006,467152983298347561315698427179863245624915378853274619741536892586729134932481756
094106000070090000608400003010000760030060054006820000200709000540000270000530148,394186527175293486628475913819354762732961854456827391281749635543618279967532148
006001875000063024020078300200000049708106000541300000350700460084000700000980001,436291875817563924925478316263857149798146253541329687359712468184635792672984531
907230008854009001002500060280000609003100040000080730670054200000310080530690000,967231458854769321312548967285473619793126845146985732671854293429317586538692174
530007010008300704100405069000930028040000076809720100000009040005061203012000000,534697812698312754127485369751936428243158976869724135386279541475861293912543687
560007040007000030830100206074850001300009604000020890790082000200470005016093000,562937148147268539839145276974856321328719654651324897795682413283471965416593782
030020005020601903000004607000200000013805000760900084900050070406090008002170060,634729815527681943198534627849267531213845796765913284981456372476392158352178469
740000000003008760000020045200010008308790600014035000002670081405200900106050002,741569823523148769869327145297416358358792614614835297932674581475281936186953472
103005980005000307400029000000000036690501400000870520506900700070103864001400000,163745982925618347487329651758294136692531478314876529546982713279153864831467295
010047008050000000903060012600473000580900200001200604890501700040009500000020039,216347958458192367973865412629473185584916273731258694892531746347689521165724839
007460900030008000009002176002004569805070204106900030500009048704800002000300600,257461983631798425489532176372184569895673214146925837563219748714856392928347651
050690007709020080000400200060902800803047000004030005098001402040000176000360000,452698317739125684186473259567912843823547961914836725698751432345289176271364598
840007000053000870600902004400260015130070002000504930970000000000106520001030006,849357261253641879617982354498263715135879642762514938976425183384196527521738496
000010090270500608841000003560140030008009100000003072006700005900308740300000921,653812497279534618841976253562147839738259164194683572426791385915328746387465921
009020000726000058108040006060003900800170005305000020070208610400900000002431080,549826173726319458138745296267583941894172365315694827973258614481967532652431789
306804000020010000500060900600781500030002060070500021907308014000040070058020609,396874152724915386581263947642781593135492768879536421967358214213649875458127639
005630070906080024001004800590010008002048056080007039179005300060000490000020000,845632971936781524721594863597316248312948756684257139179465382268173495453829617
400060920800000000009000413061084007003020000920701054100500309006103085007006000,415367928832419576679258413561984237743625891928731654184572369296143785357896142
040000060200730008805294100050800090000025041900071000001060982028400037706000500,347158269219736458865294173152843796673925841984671325431567982528419637796382514
