037106200000097001906508403002000507089000000060459000300070040000000812400261000,837146259254397681916528473142683597589712364763459128321875946675934812498261735
003104000000080209008036047130007000470000513506020004090500060201600908805900071,723194685614785239958236147139457826472869513586321794397518462241673958865942371
600000300092010500300006014008207060021040000000090708580003092000052040047100830,614725389892314576375986214958237461721648953463591728586473192139852647247169835
001270000000100047004030096090402803825006004000050900309000020607900001080045370,961274538538169247274538196796412853825396714413857962349781625657923481182645379
008500200027630018900000700000006003100720080570004601040300000810290004032015090,368571249427639518951842736284156973196723485573984621749368152815297364632415897
520090000000403960000007000001704809070200040096800320050008730304600100900012500,523196478718423965649587213231764859875239641496851327152948736384675192967312584
002890036010025700080670001400030008000006020075000043800100590640300800091204000,752891436316425789984673251469532178138746925275918643823167594647359812591284367
060451000100002760038000050901630008040100900300000207200000400805090073090570000,762451389159382764438769152921637548547128936386945217273816495815294673694573821
000207000290000603500060780009600000300090004080532001010050049008701300436820050,863217495297485613541963782129674538375198264684532971712356849958741326436829157
070800040300005609600409051007902010108006200090000834000013060000000005540070903,975861342314725689682439751437982516158346297296157834729513468863294175541678923
420810005960000007030700610006080070109070830800509200080050160004300000000640920,427816395961235487538794612246183579159472836873569241382957164694321758715648923
008031500016900084007050009900208000000010207005740060009002001800600730360005048,298431576516927384437856129973268415684513297125749863749382651851694732362175948
109087200024000000300045690002060347000009100045070082000000510200800030873001009,169387254524916873387245691912568347738429165645173982496732518251894736873651429
500000102083000059490075000900046000060002403130000800309810067000020080002097015,576938142283461759491275638928346571765182493134759826359814267617523984842697315
000795300072060000001203006005010480040000000700308290050026004900100068083900170,468795321372461859591283746235619487849572613716348295157826934924137568683954172
002005104010070690800130000000004003090280050003706082087000060104090275500320001,972865134315472698846139527628954713791283456453716982287541369134698275569327841
907000400023640010000209605400185009000003002810760000005000000071920040200506837,967851423523647918148239675432185769756493182819762354685374291371928546294516837
006800000000002701700035040200008160005700004930040520057006300090100050021309008,346817295589462731712935846274598163165723984938641527457286319893174652621359478
009010000030005671070002400108050046403970500200600009025308900000000060000140302,549716283832495671671832495198253746463971528257684139725368914314529867986147352
086200010003005000005149030600010004010002968020308700504700102000004000700830509,986273415143685297275149836658917324317452968429368751534796182891524673762831549
470009008000270604005003000830100007040036020209005006000080270051304009900560010,472659138193278654685413792836192547547836921219745386364981275751324869928567413
670020800800900703000040005003600172001704000500280049210508000040070690000003201,679325814854916723132847965483659172921734586567281349216598437345172698798463251
076500001100030070530040096050000087060001200800065140008709020010002004309000000,976528431184936572532147896251493687463871259897265143648719325715382964329654718
040002061006078045070001089010003607200006090080950030000000508035140020009200010,348592761196378245572461389914823657253716894687954132421639578835147926769285413
000400980508002073092100006734601000000050000650000327980200005060080090000790430,176435982548962173392178546734621859829357614651849327983214765467583291215796438
800000352009410000276500000000020003040060571030907600060009040001654800093800005,814796352359412786276583914687125493942368571135947628568239147721654839493871265
400006800300050020890023406975000000000000371000240000020074008503910600064035090,452796813316458729897123456975381264248569371631247985129674538583912647764835192
080000403000803652000946000069100007002308000403060800070000014001702305026050900,687215493194873652235946781869124537752398146413567829578639214941782365326451978
081000560004003078060140200502030000000009653900001400007000900009087012403026700,381792564294563178765148239572634891148279653936851427827315946659487312413926785
000102090720000003031067804007204000008090402300006150090540067105703008000080000,486132795729458613531967824957214386618395472342876159893541267165723948274689531
270003604009000100013065070800100000600370080005009743000020005041000009302800060,278913654569748132413265978837154296694372581125689743986427315741536829352891467
000609025070010400600800730000100340021705089008060000096400008210900500780320060,143679825872513496659842731567198342421735689938264157396457218214986573785321964
900800406006500083400270000240010300000054120057000009032097050000603018090000700,925831476716549283483276591249718365368954127157362849832197654574623918691485732
709120004000586000500000301042000670070092008806030100091000005030479802080050040,769123584314586297528947361942815673173692458856734129491268735635479812287351946
000008002040000600590400308008000251050360000907000403206501074010630025080907000,673198542841253697592476318368749251154362789927815463236581974719634825485927136
027005000900800030000901750090640100001008006350020800078200900500306047004010560,127435689965872431483961752892643175741598326356127894678254913519386247234719568
025840700900005031006200400000000002004003570789400003602078000007306059800190600,325841796948765231176239485531687942264913578789452163692578314417326859853194627
004801300500960000900057806039500027850019060010000000200006700000400002006083094,764821359583964271921357846639548127852719463417632985245196738398475612176283594
600070901007000050980030040040087000200400690705106030002040000800390270100205304,653874921427619853981532746346987512218453697795126438532748169864391275179265384
200980500030010009401002370080290160050300004960000000010400030005007206009058007,276983541538714629491562378784295163152376984963841752617429835845137296329658417
407065000218004006000280049050073601706900085000002790030000010002418003005000008,497165832218394576563287149954873621726941385381652794839526417672418953145739268
400060720100000000070080035600309500080021007249000600030400908000038051091702006,458163729123597864976284135617349582385621497249875613532416978764938251891752346
008540007003090201005000600690004180000207009480001005006000090530176004270800000,168542937743698251925713648697354182351287469482961375816425793539176824274839516
803410020060020000000009504400501900200900008590078600040100090380602007700050230,853416729964725381127389564438561972276943158591278643642137895385692417719854236
002510300000400000001082596780000050020069071064007020006000804973000200500031000,892516347657493182431782596789124653325869471164357928216975834973648215548231769
700156000520000037086000090200870000000010254034900008049062100010580020300700900,793156842521498637486237591265874319978613254134925768849362175617589423352741986
300604100005100068041000007004000009780300004020405010060203950039081002000506080,378624195295137468641958237154862379786319524923475816867243951539781642412596783
040028006000046270205100090000602300007000625900803000009000804081790000050301067,743928156198546273265137498514672389837419625926853741379265814681794532452381967
002000309900000047100209080703000060090860100810702503580004000007180006201030850,672458319958316247134279685723591468495863172816742593589624731347185926261937854
608000000020400710000839500002003006039080070010200054700000043385060120004071900,658712439923456718147839562572143896439685271816297354791528643385964127264371985
208005001000004836430090070090260040010008900607010200504602300180700005000030000,268375491759124836431896572895267143312458967647913258574682319183749625926531784
005900070000100239800600040001002005050318600420570000002000300907806002000043050,215934876674185239893627541381462795759318624426579183542791368937856412168243957
400007139072900500530060008000800040060012000010034782300200406000070090608049300,486527139172983564539461278723895641864712953915634782397258416241376895658149327
009300600060849020241050008070000060083004009004902087028000050000100340005067001,859321674367849125241756938972518463583674219614932587128493756796185342435267891
504200180000090003300570000029400005070600820006080009007920408041036072005001090,594263187768194253312578964829417635473659821156382749637925418941836572285741396
000370064040000308500062900010835070600700080900010400000000000072089100490607035,129378564746951328538462917214835679653794281987216453865143792372589146491627835
094800230300700060008020040600000950102370000049250100080000005030600897010540006,794865231321794568568123749673481952152379684849256173286937415435612897917548326
026100007090065140000700500079500004050000013001004600000000006300270090017930258,526149387798365142143782569679513824854627913231894675982451736365278491417936258
900005378003027000500000094240000030030080060000300457800096100006450009710008640,962145378483927516571863294245679831137584962698312457854796123326451789719238645
700000250580019600206030000035800920800006075001420006498000000000748001000060030,719684253583219647246537819635871924824396175971425386498153762362748591157962438
802400010104300508050000000060208400007003020001000375098007002026510900400090600,832465719174329568659781234365278491947153826281946375598637142726514983413892657
080005000063710200000904070900006100205301009070400083090250610006000907500800324,789625431463718295152934876938576142245381769671492583394257618826143957517869324
070080460009501078000070150300607890500100000046002003001306000060000200007940680,175283469429561378683479152312657894598134726746892513851326947964718235237945681
800056000000039004046127308084060000020010705900203010015000607360000400700080150,839456271271839564546127398184765932623918745957243816415392687368571429792684153
000006910001070800980002005004008003092010007057039040106000400070500320028093600,745386912261975834983142765614758293392614587857239146136827459479561328528493671
060003097007010300100095820050639000090080002780400530300002460040170000002000908,865243197927816345134795826251639784493587612786421539378952461649178253512364978
405000079000108260600570400040200308093060500802097000514900002037050810000030000,485623179379148265621579483746215398193864527852397641514986732937452816268731954
400000100006502380080947002020000060503000900000086073005003740070190800900064010,452638197796512384381947652827359461563471928149286573615823749274195836938764215
107200030080061400000039780000025600960000510804000009091306007070000004030580002,147258936389761425625439781713925648962874513854613279291346857578192364436587192
900038070007460080030020501070104003801000706050900200065307004200010090080002100,916538472527461389438729561672184953891253746354976218165397824243815697789642135
120004009650310000079060001506120093007000080008906100000007005090235048300840020,123784569654319872879562431546128793917453286238976154482697315791235648365841927
008010205700039006004620300031504000020003018905002060503708009000000700040006051,368417295752839146194625387831564972426973518975182463513748629689251734247396851
509010020000507006700000480002030051001240000830009060060400007205900038903860100,589614723324587916716392485492736851651248379837159264168423597245971638973865142
005021040600000087701804003030609700000008016150030490000000905008076200020453060,385721649642395187791864523834619752279548316156237498463182975518976234927453861
000600058005043600100700030053000802604080010900207065008925070006010009230000041,347692158895143627162758934753461892624589713981237465418925376576314289239876541
006030079003267084080000010210590300000000068000148005520480006304705000009003002,456831279193267584782954613218596347945372168637148925521489736364725891879613452
300420560602900004108030070507800140000000008030067090095700010000009620060340050,379428561652971384148635972527893146916254738834167295295786413483519627761342859
000078009001200008200090050900300027502049030018006094746100000053004100000080003,435678219691253748287491356964315827572849631318726594746132985853964172129587463
020175600040800070300000250080007540006930000090002103500041700900000006012760380,829175634645823971371496258283617549156934827794582163568341792937258416412769385
500002000090750400704089060010800640406010208070900003003000516080430070260501000,531642789698753421724189365319825647456317298872964153943278516185436972267591834
370004005200538000800000091060902040780300000059607020000725036000060908004010570,376194285291538764845276391163952847782341659459687123918725436527463918634819572
069020803800009500703060000080036040007980001000104207000005420001200050095040306,569421873814379562723568194182736945457982631936154287378615429641293758295847316
902030070300080006065420090078100020000000504010596030030759000120000005400800963,982635471341987256765421398578143629693278514214596837836759142129364785457812963
040970080690103000001602004000028070006750900407000501800009032100000065753004800,342975186698143257571682394915428673236751948487396521864519732129837465753264819
090804020130600070070200690810709402000008000569001003024000500006030107000907068,695874321132695874478213695813769452247358916569421783724186539986532147351947268
600007041000062000090840007400050620008301700079080500084200359000003000102590000,625937841847162935391845267413759628568321794279684513784216359956473182132598476
000900205010007360260010400000036100053089020800205000005072040407000690300400071,738964215514827369269513487942736158653189724871245936195672843487351692326498571
000000021009037800285010030306004092004009700000150400097800005402070106830640000,743598621169237854285416937316784592524369718978152463697821345452973186831645279
030490012005070800080125070510000007002013090040900005803000200090800004071602003,637498512125376849984125376519284637762513498348967125853749261296831754471652983
200806005031400680800109030900002070070068040052000000047050000008390160610000403,294836715731425689865179234986542371173968542452713896347651928528394167619287453
000420060700800000200039807605093040300050081010082003064075000003000250001000079,138427965759816324246539817685193742392754681417682593964275138873941256521368479
007065800000300025620409003830040900001000506069001248008003001100000760740052000,317265894984317625625489173832546917471928536569731248298673451153894762746152389
476000090008300002300010408004206079039800200700000005060049500500608103000700020,476582391918364752325917468154236879639875214782491635263149587597628143841753926
080046000002701000400090350040080070000007601090603280060005009508900120007320400,389546712652731948471892356146289573823457691795613284264175839538964127917328465
100000045059080602380060070200300016006104900000070050034290000001507098800003407,167932845459781632382465179248359716576124983913876254734298561621547398895613427
000600039048750200302004500003500108007009004010002090020007010605080070079030000,751628439948753261362194587493576128287319654516842793824967315635481972179235846
009002678200080000050607400030008960700040825000150000400900000020004713016030290,349512678267483159158697432534278961791346825682159347473921586925864713816735294
706200500908000014410000237080945000000000960050307002001702000040890003203001090,736214589928573614415689237682945371374128965159367842891732456547896123263451798
008206900034000017900000005007090340000850700092010806600920008005468003010700000,158276934234589617976143285587692341361854729492317856643921578725468193819735462
006100020970065048005020009097053000040000080030014002150680000000402010800090376,386149527972365148415728639297853461541276983638914752153687294769432815824591376
