200089001591002704008000600000407005469003000003610029020830000900051046184070000,246789531591362784378145692812497365469523178753618429625834917937251846184976253
580300020200050437004096001050010003000800102000709680309601070400000200067004009,581347926296158437734296851658412793973865142142739685329681574415973268867524319
300027810050100607076500009027009040405060001908030700200008300040050000009040206,394627815852194637176583429627819543435762981918435762261978354743256198589341276
031500000005096080900380007080005002000009510007024609650470900700200003003068400,831547296275196384946382157389615742462739518517824639658473921794251863123968475
304500820890000641107006000000072035003080260000905080000200400650091070009703002,364519827895327641127846953948672135573184269216935784731258496652491378489763512
700801403090400500300020601002010000683049000500000007806070100020630950004052080,765891423291463578348527691472315869683749215519286347856974132127638954934152786
080070019200003040970001500007600000400030028608095003001080405050760280000000730,584276319216953847973841562137628954495137628628495173761382495359764281842519736
604050009000080502080700130070020600900103050025009004200000000310647000009500817,634251789791386542582794136873425691946173258125869374257918463318647925469532817
380040000700065240600970005040020010201000507068003900190600002000200380050409001,385142796719365248624978135947526813231894567568713924193687452476251389852439671
000904270700013004200050008920000003006000050130008706000007095009630800064520010,653984271798213564241756938927165483486372159135498726312847695579631842864529317
300040560709080400002906080008000236900001000056003004015607000000020070007594810,381742569769385421542916387178459236934261758256873194815637942493128675627594813
502009010000723000860400003010050068600078000040000305000902074083000009970586100,532869417491723586867415293319254768625378941748691325156932874283147659974586132
300080006050420008107003040070060803900100052520094000000005067260007000004830100,342789516659421738187653249471562893936178452528394671813245967265917384794836125
000007038000028049790000205170260004052100000800309010640501007000040396200800000,426957138315628749798413265173265984952184673864379512649531827581742396237896451
600007080100590007040320001000009000458070020209000065000000530082430010036000092,695147283123598647847326951361259874458673129279814365714962538982435716536781492
001004000005700493960032078329050001100008504500073600007000300092010000400080065,731894256285761493964532178329456781176928534548173629857649312692315847413287965
100007908094002360600084020023000015400010700500040006071300000305000802000596000,152637948894152367637984521723869415486215739519743286971328654365471892248596173
000800697050024000003710004040390050510207409002000068001035000400900082670000300,124853697957624813863719524746398251518267439392541768281435976435976182679182345
000000037430020009000410280001005000049002703308600510023048000907030600800709005,182956437436827159795413286261375894549182763378694512623548971957231648814769325
310200040025080001000306000009740160000090003800021507530000070062008000704009650,318257946625984731497316285259743168176895423843621597531462879962578314784139652
603900054091600080000051093002040008017023060035000410200008079000000001084070500,623987154591634287748251693962145738417823965835796412256418379379562841184379526
835700002020500609106008700509100006000030018004080590008040000700209030940000075,835796142427513689196428753589174326672935418314682597258347961761259834943861275
000403090920010070080600010009005631030006000701002408050380760870050000100004002,617423895924518376385697214249875631538146927761932458452381769876259143193764582
067000002103070800000604790032007500008400670000009001600902030050000008274031005,467398152193275846825614793932167584518423679746589321681952437359746218274831965
601004890004009370000705004730000500029006010400083002008601000090000206502490008,671234895254869371983715624736142589829576413415983762348621957197358246562497138
946020000150004023070106008600090507000300010405000000003000050080630092200087401,946823175158974623372156948631492587897365214425718369713249856584631792269587431
800302050062100090000008407070036008006950010030040009004600100050709030021085070,847392651562174893913568427179236548486957312235841769794623185658719234321485976
000050009803720506601800020020015640070360002005000800000000031009480000510690400,247156389893724516651839724328915647974368152165247893486572931739481265512693478
602040018090010560700009034050800092000030450000260700028000000003108009409703001,632547918894312567715689234356874192287931456941265783128496375573128649469753821
600090010080403050005010204023059000106007900000000027008700540010608093037020060,674592318281473659395816274723159486146287935859364127968731542512648793437925861
004900018290000040000370096400850027500032000100407509082506400000000000907001083,764925318293618745815374296436859127579132864128467539382596471641783952957241683
000089003000700080905046000300000240140000506209001370070060810002507009406012005,724189653631725984985346127357698241148273596269451378573964812812537469496812735
460507010093001000050920340700310080600040500030086200901000830045800060000072009,462537918893461725157928346729315684618249573534786291971654832245893167386172459
054021908000073100080490620040018209002000050163000007000069700275000000900000034,354621978629873145781495623547318269892746351163952487438569712275134896916287534
010603200062000390900850004803064070050007020700500800004010500005208009001900063,418693257562471398937852614823164975159387426746529831394716582675238149281945763
402070000080045900065103000056000407049800002201060030030008279020600350008700001,412976583783245916965183724856321497349857162271469835634518279127694358598732641
510090840000000000000300627060008005003005910980107300008200006070014500046080790,512796843637842159894351627461938275723465918985127364158279436379614582246583791
080500301602070840700049600960005203030200000000030015301086004024050700070000098,489562371652173849713849652967415283135298467248637915391786524824951736576324198
900506741070020000300009800039080004805040609007200530042710050500403000000000016,928536741176824395354179862239685174815347629467291538642718953591463287783952416
900532001450700200008004090002080003010300070700600400089001060203050017006940080,967532841451798236328164795692487153814325679735619428589271364243856917176943582
036009005910030020072104000003000206040780000000001098500942300098000640700800100,436279815915638724872154963183495276249786531657321498561942387398517642724863159
070060809005100060200053400041005380062009507300018000000020000600090735018704900,173462859495187263286953471941675382862349517357218694739526148624891735518734926
094260008300004052560103000020540090073000400008000716009700304000020000600831070,794265138381974652562183947126547893973618425458392716219756384837429561645831279
010007004070304000083560001007230500009701200060008107008020009600003020500489030,216897354975314682483562971147236598859741263362958147738625419694173825521489736
000753069002900000300080140000010700604009020050206038700300000916400087480000950,841753269562941873397682145238514796674839521159276438725398614916425387483167952
300840000200005000400600718030204071000007309509308600000000024020109800710050003,367841295281975436495623718836294571142567389579318642953786124624139857718452963
000000709809027650040000020007084003001050000026301800000405960900030047610800500,162543789839127654745968321597684213381752496426391875273415968958236147614879532
700583040010007905002004000650830070048701050900002600800000430007200006469010520,796583142314627985582194763651839274248761359973452618825976431137245896469318527
090005002700000150000148030500079643030206007000000010406092800900050000023080060,391765482748923156265148739512879643834216597679534218456392871987651324123487965
000146080005000340070080200600037010017000005584020000200003704000098060106702830,932146587865279341471385296629537418317864925584921673298613754753498162146752839
804095020070120094000700008965030000702000003100000642508207009000800060600900307,814395726376128594259746138965432871742681953183579642538267419497813265621954387
930605070800070046000108000729080050060029300500400100004036008250904003000000019,932645871815273946647198235729381654461529387583467192194736528258914763376852419
706400005003070800050092400030000094010830056002600100240001903067083000000050071,796418325423576819851392467638125794914837256572649138245761983167983542389254671
004010080070060900010205070000004230053790016200108004027400390109506008800000000,364917582572863941918245673781654239453792816296138754627481395139576428845329167
020001060054079800000850003003080076061004500900300000410090000007010049608703002,829431765354679821176852493243185976761924538985367214412596387537218649698743152
058000076040926010001000240000038090907102005005007800030761402060480031000050000,258314976743926518691875243426538197987142365315697824839761452562489731174253689
005630900029000010813250000900807001060140708000000605280906300400070020000003870,745631982629784513813259467954867231362145798178392645287916354436578129591423876
040000000003400680207009050090600812670002400010805000005000009000080361060907020,146758293953421687287369154594673812678192435312845976835216749729584361461937528
400000506000260140007900000390000060705006208201070409506410003082005900030807001,423781596859263147617954382398142765745396218261578439576419823182635974934827651
000206850900030100060075300090021703280004005006500080070100000004007600108609040,347216859952438176861975324495821763283764915716593482679142538524387691138659247
370080590001600300090320070705800009006041000080590020240006008800057000507200014,372184596451679382698325471735862149926741835184593627243916758819457263567238914
040003105000700046201900700800054010009001420030609000000082901006400050580006300,748263195395718246261945738827354619659871423134629587473582961916437852582196374
000600005004005830009408201028046500030017000000300970500230407100009080200080006,812693745674125839359478261728946513935817624461352978586231497147569382293784156
000009075038000240005632008602705800003020000000304109000096500000107000180400760,261849375938571246745632918692715834413928657857364129374296581526187493189453762
030740900450200008008060030061530002000000379900020010094601500007800100506002080,632748951459213768178965234761539842245186379983427615894671523327854196516392487
000080040000060201403097000007102008160009004005600073030004087026003090580070000,652381749879465231413297856347152968168739524295648173931524687726813495584976312
087000402050000301000007080720180604009004003540390100002900500000612000376400009,987531462254869371631247985723185694169724853548396127812973546495612738376458219
021040080903000070600700105005900006804003001390460200500678002100000500070020039,721546983953812674648739125215987346864253791397461258539678412182394567476125839
103004600060000297089650030000060005012307000004080021000070083090100040800530702,123794658465813297789652134938261475512347869674985321251476983397128546846539712
300705004706020900050006102500608307040070080000030095001800600090410038430900020,312795864786124953954386172529648317143579286867231495271853649695412738438967521
080210005006083900100965870000401200408000060009030001000357000201008403650002009,987214635546783912132965874365471298418529367729836541894357126271698453653142789
600084900029001040018700006003076100206050098000400050090560010300000002072008400,635284971729631845418795236953876124246153798187429653894562317361947582572318469
060100049000005702073004600200300001004028560005900080300510078908607054000000300,562173849419865732873294615287356491194728563635941287346512978928637154751489326
009070408401023060020006000730090010602041700008500000800600170100050034003008950,369175428481923567527486391734892615652341789918567243895634172176259834243718956
010090000403001080000080706109064320000000058600752000080270049005000103960035072,816597234473621985592483716159864327247319658638752491381276549725948163964135872
700100008020000910005830006400002080301080750006050049109005000008091270070460300,764129538823546917915837426457912683391684752286753149139275864648391275572468391
180900460005080900006004500200340000000096802037105090020010306973000140004507000,182953467745681923396274518269348751451796832837125694528419376973862145614537289
000600174706000002092000500000098045000400380030051090015083600203047009087102000,358629174746815932192734568671398245529476381834251796415983627263547819987162453
050400080107600000000001302520369010403070000900000850080140600760008904000030000,652493781137682549894751362528369417413875296976214853389147625761528934245936178
021045006000090200095706408016002000009004570430081090800007020004000805000610003,721845936648193257395726418516972384289364571437581692863457129174239865952618743
040000700008591000329000005052000010006409007900006084005034800060018030010270600,541362798678591423329847165452783916186429357937156284295634871764918532813275649
024005060780002500006037000049820100000010803100706005603050910092000000010604020,324985761781462539956137482549823176267519843138746295673258914492371658815694327
000096035300780900000004600012500003070001049650030010000652008008003074921800000,287196435346785921195324687412579863873261549659438712734652198568913274921847356
738006000001705840090300200403000105205084009060002000000070400817049050000001906,738426591621795843594318267483967125275184639169532784956273418817649352342851976
000000040328004000006020913015000608000097200042005090090402706000531000830600005,179356842328914567456728913915243678683197254742865391591482736267531489834679125
804056020760901030000040950080700600530000074000680002310008500070010000602400109,894356721765921438123847956281734695536192874947685312319268547478519263652473189
000090671070030009604800000003500042000600007501008900200984000300002500018007064,832495671175236489694871325763519842489623157521748936256984713347162598918357264
009026080423005070001003005500000000070082390042607508600000030910700406004100800,759426183423815679861973245598341762176582394342697518687254931915738426234169857
500000300010705009060310045040008100097000084300040060805630070001007000600109230,582496317413785629769312845246578193197263584358941762825634971931827456674159238
009020050600409100000030460500004301300762000042001008005800094230600807801007000,489126753653479182127538469576984321318762945942351678765813294234695817891247536
000036100004002000700190380301700005905080670600403000020607091009020050860000004,298536147134872569756194382381769425945281673672453918523647891419328756867915234
050090003060457910007006800000705100081040000270061094008000030010302050090010678,154298763863457912927136845439725186681943527275861394548679231716382459392514678
009604508700210006004005002946000007803000941500008020600700015002083004037100000,219634578785219436364875192946321857823567941571498623698742315152983764437156289
080007090021060034000008605098730042500400008300001900970025000004000106003680750,685347291721569834439218675198736542567492318342851967976125483854973126213684759
083005009700009002000060803005907020600300008240081070020500030900010600378400051,483125769761839542592764813835947126617352498249681375126578934954213687378496251
409060270070028060003010005040006000000574900700002038607003180510900023800000000,489365271175428369263719845941836752328574916756192438697253184514987623832641597
007800015000000030300425080402000907700600003106057200005001090810300006240090800,927863415584719632361425789452138967798642153136957248675281394819374526243596871
500009003083060019020100700640097050090281400000006030009000861807004200002050007,514879623783462519926135784648397152395281476271546938459723861837614295162958347
900056701100000080304000059009624005402570000070091003000018042705069000080300900,928456731157932684364187259839624175412573896576891423693718542745269318281345967
000830005402070090309005016600207108000000000047010309906003200500180000073042600,761839425452671893389425716635297148198364572247518369916753284524186937873942651
