074000000000012060129005048230090600040070093008300502080600910001004005390087000,674839251853412769129765348237591684546278193918346572482653917761924835395187426
700510008089230040050000631400701060002000000006002509000360410007005800030487200,763514928189236745254978631498751362572693184316842579825369417647125893931487256
000060204030000100207090830049650010000000008061207053012784009900015400073000000,198563274634872195257491836349658712725139648861247953512784369986315427473926581
060709002037800040905000810002904031000060900708200500080470000501002003340050006,864719352137825649925346817652984731413567928798231564286473195571692483349158276
500000091080079300004201006050090183000030005102040000040057900008300600760018402,527463891681579324394281576456792183879136245132845769243657918918324657765918432
750080000030070692020309800010430068078200301600005200490020000000000134001760005,759682413834571692126349857912437568578296341643815279495123786267958134381764925
190080400408700016007600300000002080801900002053014060700059040000006020004300750,196283475438795216527641398679532184841967532253814967782159643315476829964328751
090010306003000507001800204000050708080260001502970600704003800100590030209406000,495712386823649517671835294946351728387264951512978643754123869168597432239486175
405018007070500200080600000009004006320000704008062900031000800000190600204075003,495218367673549218182637459719384526326951784548762931931426875857193642264875193
075000401300049000010003620002980103007060040104070002060092080083500000000007510,975628431326149758418753629652984173837261945194375862561492387783516294249837516
920601030007240060000000580600003714730000000100004005001050006840070009509428100,925681437387245961416937582652893714734512698198764325271359846843176259569428173
019052400004601002000307080670023005053106000400000706800000020007009813005030004,319852467784691352562347981678423195953176248421985736836714529247569813195238674
002030500100780003000046708509100207030800046016000090790003450000507302300410000,872931564164785923953246718589164237237859146416372895798623451641597382325418679
000300000010028003045691002002006540000830001987400020806009007050000094000107260,278354619619728453345691782132976548564832971987415326826549137751263894493187265
007085006030000920020100045000009001602700800970024003503006000049000067008400130,497285316135647928826193745384569271652731894971824653513976482249318567768452139
080024900007009002030000051028000706900180300403690000056700030010000047000205608,681524973547319862239876451128453796965187324473692185856741239312968547794235618
000670200041083000076540081400032906000700000580090013050004670368050090000000100,835671249941283567276549381417832956693715824582496713159324678368157492724968135
900003500602000001054920003091000450403000860020780100200070906000450000768010300,987163524632845791154927683891632457473591862526784139245378916319456278768219345
620000010000038590000170804070400201040056080002009030001845009400360005037000000,628594713714638592395172864976483251143256987852719436261845379489367125537921648
400200630001500007050000281300060509200317040800000000006032070009008000730459008,478291635621583497953746281317864529295317846864925713586132974149678352732459168
008002016010090040300005287007351008040000620509060000804500000260007300000410070,458732916712698543396145287627351498143879625589264731874523169261987354935416872
001003200280000004930610000195806003023097650000040020040071030009000075860004000,751483269286759314934612587195826743423197658678345921542971836319268475867534192
024006003730040086500100200000070009080009024270500060900403178160900400000820000,824796513731245986596138247413672859685319724279584361952463178168957432347821695
405080009800003160006790020000309000750000000143802070068210390200046800000500600,425681739897423165316795428682379541759164283143852976568217394231946857974538612
080070240100280607004900005005000160300001028007003904930800010040560089500030002,689375241153284697274916835425798163396451728817623954932847516741562389568139472
000020807000013000062507041020084069080002000105009030653008012004000900790060053,531426897479813625862597341327184569986352174145679238653948712214735986798261453
000495000001060037092003840206540001510000080700009006900370010043608070060050400,378495162451862937692713845286547391519236784734189256925374618143628579867951423
502900037008400091300060005000024300007001806910000000460070020025380060189002500,542918637678453291391267485856724319237591846914836752463175928725389164189642573
030900026000000840820705001290640030050008000068007902000006053380020107706010009,531984726679132845824765391297641538153298674468357912912876453385429167746513289
006000500020409183300007004008250006470000310015000090009016407080023050000700900,846132579527469183391587264938251746472698315615374892259816437784923651163745928
001240000360000109097300008100007060003008005080530710502900300400006070900820040,851249637364785129297361458125497863743618295689532714512974386438156972976823541
420089003006040010900100000000030004502090061107600580080005002300902040069410700,421789653856243917973156428698531274542897361137624589784365192315972846269418735
000028400026400090090361570000005603730000020801090005900010060070602300052000810,517928436326457198498361572249175683735846921861293745983514267174682359652739814
705090102009108700060050080500304007801000200004070096000607300432500601010040058,785496132249138765163752489596324817871965243324871596958617324432589671617243958
000095730040001060063080002006830201250004008090010040000900005800240970700000426,182695734547321869963487512476839251251764398398512647624973185815246973739158426
058614072020905610003000000400700003501820906060001020000090004005370080096058000,958614372724935618613287495482769153571823946369541827837192564145376289296458731
200000980160200405508000007090700008003560001706091000005080023600003000007406100,274315986169278435538649217491732568823564791756891342945187623612953874387426159
600050020002700106070000900006430000015980060930005270080060001400103050290008004,649851327352749186178326945826437519715982463934615278583264791467193852291578634
070408019200007058000920600090100003500872090601090040425000060138005070000300800,376458219219637458854921637792146583543872196681593742425789361138265974967314825
000006150704980000300271904902300060070010095000040800640020703000103000150790008,298436157714985236365271984982357461476812395531649872649528713827163549153794628
900480600070000200180200003000040530301690008006008007000050302007309010240801009,932485671674913285185276943798142536351697428426538197819754362567329814243861759
000004012705069300008000005509003046680000070001000000103092400400100098092057001,936584712715269384248371965529713846684925173371648529163892457457136298892457631
004200000000009038010005006062030070900070064085061000328004007500007100079056043,694283715257619438813745926462938571931572864785461392328194657546327189179856243
005830902006002850400000100090005010000047503072060009000370040103506070080020000,715834962936712854428659137394285716861947523572163489259378641143596278687421395
016700430003405070008091020200000967004006200100080000030007006409053180050019000,516728439923465871748391625285134967394576218167982354831247596479653182652819743
009006200870012060600040380000038905003500410706004800005089000010000090400060703,539876241874312569621945387142638975983527416756194832365789124217453698498261753
000007402039060000800490610000200005240008000095601080500073021080500307071000906,156387492439162578827495613618249735243758169795631284564973821982516347371824956
009800420000001750307050006030562009805307100040000000170000030004006008560408290,659873421482691753317254986731562849895347162246189375178925634924736518563418297
500180090090050814006004035000000400009268053001700608002003040703605001800097000,534182796297356814186974235628531479479268153351749628962813547743625981815497362
002040068901026500700000003805019000040800910030700050006003401200090070003581620,352947168981326547764158293825419736647835912139762854596273481218694375473581629
094300720020580001100009046500600370043007000907000258002038010000400000010706590,894361725726584931135279846581692374243857169967143258652938417379415682418726593
304006000860053000027400010205000000001530948080690007040000050900017004700200069,314726895869153472527489316295874631671532948483691527142968753956317284738245169
007839000621500009800000504014200950000100026000087040000400032060001000090356807,547839261621574389839612574714263958983145726256987143175498632368721495492356817
730284000090300702860000500000070608054010000000906300500000917980750000020430060,735284196491365782862197534319572648654813279278946351543628917986751423127439865
402013800060900070901050204500360708040009100008000029200700510080006000650024007,472613895865942371931857264529361748746289153318475629294738516187596432653124987
670210083480957000000300004020008690360040018100000400030009506000820000297003000,675214983483957162912386754724138695369745218158692437831479526546821379297563841
704003800009650000621400009400130500010000906500208074002069405000870010080000002,754923861839651247621487359497136528218745936563298174172369485945872613386514792
000021500900506000010038062580409003030000480207600001804007095096010030000200870,368721549972546318415938762581479623639152487247683951824367195796815234153294876
100500900070064080802000603060837001500040236014002090008200405000906007003000010,136528974975364182842791653269837541587149236314652798798213465451986327623475819
500040009006100503803029010000000700094875100002010060201400970000063400005000028,517346289926187543843529617158632794694875132372914865231458976789263451465791328
200450006890000040074203910008060059009000700050102008000810063530000400700305200,213459876895671342674283915328764159169538724457192638942817563531926487786345291
070802040008300100000065073014027005080900610760000000001053406500208000900040050,673812549458379162192465873314627985285934617769581324821753496546298731937146258
023081400005230009180000006260400000930050700700009801047500000000020970500610300,623981457475236189189745236261478593938152764754369821847593612316824975592617348
601000070970650040004000908040200395120300406000089000508004002000001700706003000,681942573973658241254137968847216395129375486365489127518794632432861759796523814
000090000018000004420001085100006030305200018007500926600900751000300009074085200,536498172718652394429731685192846537365279418847513926683924751251367849974185263
070600005000257809009000030051000000006093010002408700108302060065180900040000200,874639125613257849529841637451726398786593412932418756198372564265184973347965281
028060030309008760000019500000800050060005974030042600006790140000000027501000300,128567439359428761647319582914876253862135974735942618286793145493651827571284396
800000000000216007002700690010053074946002003003008020700901530321005009005000408,867539241459216387132784695218653974946172853573498126784961532321845769695327418
000480900580902410600000050700001048090530601052008003000829000060070200400100370,217485936583962417649713852736291548894537621152648793375829164961374285428156379
910000570004009001060103200207050080008637000000080030503204790700000400100068052,912846573374529861865173249237951684498637125651482937583214796726395418149768352
904057082130800900007030060503082000200000040040605100321040700070000504080900030,964157382132864957857239461513482679296713845748695123321546798679328514485971236
830000005025103004900802700006020107001694000340500090189000000700400000052069030,837946215625173984914852763596328147271694358348517692189235476763481529452769831
500402070080013200403060100079000005006000019208950600090307080715008000030045006,561482973987513264423769158179836425356274819248951637694327581715698342832145796
670005219059603708800100005060000000700501030005047081000300070204000900000894006,673485219159623748842179365461238597798561432325947681916352874284716953537894126
000050030801009007205040601309021780004090205160000000090003060000007804508204900,976152438841639527235748691359421786784396215162875349497583162623917854518264973
960000700057003281000040090702400105000280000001056400030078540020090000604100039,963812754457963281218547396782439165546281973391756428139678542825394617674125839
200109037357060901040000008709020600600037024008051000000390050160400070003002080,286149537357268941941573268739824615615937824428651793874396152162485379593712486
402908000800060450907100200010050003370006840080094720000003907120570080000000060,452938176831762459967145238214857693379216845685394721548623917126579384793481562
500082010000063095009470006068090030470026100000500400903040001250030000001800270,536982714724163895819475326168794532475326189392518467983247651257631948641859273
026000704000075800100600002054980000903002087000003000030400000098060201075309460,526831794349275816187694352754986123963142587812753649631428975498567231275319468
007400600403060008560907001034680000000009040210000905780010203302000090000002857,127458639493261578568937421934685712875129346216743985789514263352876194641392857
006205300180060007042100000008040639005008004070300500004051090900800010300700026,796285341183469257542173968218547639635928174479316582824651793967832415351794826
096001005050009320400002801020000607609700104007084030130200900008356000700900040,296831475851479326473562891324195687689723154517684239135247968948356712762918543
009806402054002009003050017000260800010004036402010790300980560800000000700540100,179836452654172389283459617937265841518794236462318795321987564845621973796543128
007030010060000008001950204400283060000600050029074000800000900040107805103029007,297438516564712398381956274415283769738691452629574183876345921942167835153829647
902600008400090050600207300500010070073050000801000420008370592009081034000006100,912635748437198256685247319546812973273459861891763425168374592729581634354926187
000250789004000000250100000072031900918420060430500007800700005690000302100063004,361254789784396251259178436572631948918427563436589127843712695697845312125963874
006008290010700063080090050001002307050804010403000000740256000000470008200103005,576348291914725863382691754891562347657834912423917586748256139135479628269183475
804000090902000700001023005000804936067150400000230010040607089000005100708400003,854761392932548761671923845125874936367159428489236517543617289296385174718492653
705104000800009030030020604910200050003080047002006008300000080507063092040500700,765134829824679531139825674918247356653981247472356918396712485587463192241598763
020006045300002000096070000002840109734950200000007000600100900057080003049030862,821396745375412698496578321562843179734951286918267534683124957257689413149735862
068070040010003590009006000300080009000010400050624830870400001200100374006530080,568971243712843596439256718324785169687319425951624837873492651295168374146537982
070000002004019060050000800001803050420061007703400906009006078008002431300504000,976358142834219765152647893691873254425961387783425916249136578568792431317584629
051000000600020300030085709000970405004130600289000030906054200000309001045007008,751493826698721354432685719163972485574138692289546137916854273827369541345217968
050010073090020600800904000402800000030006180000001059003050006100760802007103490,254618973391527648876934521412895367539276184768341259983452716145769832627183495
006004392129700006083000000600008104900000053007050000040570021700283900005106000,576814392129735486483962517652398174914627853837451269348579621761283945295146738
017090003200150804005000000002000650800003009009680027500029080604710005390004700,417892563263157894985436271732941658856273149149685327571329486624718935398564712
402150700300290500009000360080040035005608021206000040090027086810300070000900000,462153798378296514159874362981742635745638921236519847593427186814365279627981453
000240090740000300005001208200760003004108050006094000508007006013906007090530080,861243795742859361935671248289765413374128659156394872528417936413986527697532184
018300900302800601050720000000070308080004095901000260806012007020903040004050000,718346952342895671659721483465279318283164795971538264896412537527983146134657829
