460020307000000050010900004800046102700309005005001800007000040150700093036052001,469825317372614958518937624893546172721389465645271839287193546154768293936452781
500030010906500780080020905043210000000400270000908603024070860709000004100600000,572839416936541782481726935643217598895463271217958643324175869769382154158694327
001000060905700400036005280060008035000079001804510000000400790710026300309800006,271384569985762413436195287167248935523679841894513672652431798718926354349857126
040100030100384070065020000701000003090005080600470502280040057000218046900000000,847156239129384675365729814751892463492635781638471592286943157573218946914567328
050731900900000500030200840520800079600000000780419600040006008201007065000904203,458731926972648531136295847524863179619572384783419652345126798291387465867954213
064005093000030500580702400030280000400007100100900025090006001000000370701050209,264815793917634582583792416635281947429567138178943625392476851856129374741358269
004300560000092000380046010270980043003000007605010200520030970100267080000800000,914378562756192834382546719271985643893624157645713298528431976139267485467859321
005400700980503024302006500030200006709001002400879000070060308100040000260980005,615428739987513624342796581831254976759631842426879153574162398198345267263987415
000000874900004000306057210005900100203608490000013608080205000400000060102009703,521396874978124356346857219865942137213678495794513628687235941439781562152469783
002107000080000510040630700200800070070012903053400000004006020091300008006740050,962157834387294516145638792219863475478512963653479281534986127791325648826741359
000507304130020600000008079001076005070840002056900080000692000020300700403001500,982567314137429658564138279841276935379845162256913487715692843628354791493781526
603240007018300900090068200080700000000530600470010095009600032502000080000001064,653249817218357946794168253385796421921534678476812395149685732562473189837921564
400000006005100200023709805040398000002001600830050140089260000001004700700005390,418523976975186234623749815146398527592471683837652149389267451251934768764815392
000002004009083762106090085700568000200070006005900130003000000510000048840206090,378652914459183762126497385731568429294371856685924137963845271512739648847216593
004003067500214800083090000000080430006420180009001005072040900601500300050000072,914853267567214893283796514125987436736425189849361725372648951691572348458139672
005600130300020850020008094008970601207013000000200400040007008003009067106030005,785694132394721856621358794438975621267413589519286473942567318853149267176832945
100470605603190004200000970000000406008347000012800000004950013036008500950000208,189472635673195824245683971397521486568347192412869357824956713736218549951734268
009000008004080230010723500800100004790005600000390021042670800050004360000500097,239456178574981236618723549823167954791245683465398721342679815957814362186532497
009003810820000400060012005040005000006700301002100590000904007093607080480030600,579463812821579463364812975148395726956728341732146598615984237293657184487231659
021000790008000021730050048300960000000270009000048506560709203010000807080603000,421836795658497321739152648375961482846275139192348576564789213913524867287613954
030908076040050021509002000000860004904301700270000008601000040000500300820710009,132948576748653921569172483315867294984321765276495138651239847497586312823714659
900403000078250006006080003243009070090000051000706040500098037021000800800070510,912463785378251496456987123243519678697824351185736942564198237721345869839672514
002030068790000000016840000080260413003590002400100005000970500000020946650018300,542739168798651234316842759985267413163594872427183695234976581871325946659418327
305007000010049200000200807600450020583000004070061009009308602060010380400006070,325187496817649253946235817691453728583792164274861539159378642762914385438526971
049002800010300906005800043098070020100000060430000579270093105000700030650080004,349562817812347956765819243598476321127935468436128579274693185981754632653281794
000030580700001000520470009042000160010940735005806020094300000608000002030680091,461239587789561243523478619942753168816942735375816924194327856658194372237685491
200630080005104003701050090900000001140900650060080270310048000000070002809006530,294637185685194723731852496928765341147923658563481279312548967456379812879216534
057080006008000420064923000900070304016400500000090810502008070080006103000740050,257184936398567421164923785925871364816432597473695812542318679789256143631749258
300086450027010306050000007030570190070000028500104000802400000060001009900230061,391786452427915386658342917236578194174693528589124673812469735763851249945237861
009103874600520090080090060070000400301000082450001637004035020008200001000607000,529163874647528193183794265876352419391476582452981637914835726768249351235617948
030904700120050306507300041000076105200080904005200003940008000003100000608720000,836914752124857396597362841389476125261583974475291683942638517753149268618725439
710504090809760050030012040400090600570308000900007008000839002260000003007100504,712584396849763251635912847483291675576348129921657438154839762268475913397126584
049700002002060003100800064503670028000009000017003500300926040076400000800050010,649735182782164953135892764593671428268549371417283596351926847976418235824357619
009078602570000030006200004090406500601052800000390007320005170000140200805007000,439578612572614938186239754793486521641752893258391467324865179967143285815927346
009100070206005300410706580000000005300009400901482600800014003700900054030060002,589143276276895341413726589648371925327659418951482637895214763762938154134567892
207065040950800000083010502501602009009370060000040103000050700400008900020007801,217965348954823617683714592531682479849371265762549183198256734475138926326497851
018060045645100020000070010000304900051000003009000670000609002023500008080210497,718962345645138729392475816867324951451796283239851674174689532923547168586213497
003090751580100030709030002002004000960800040070050063640071000001306009000502800,423698751586127934719435682132764598965813247874259163648971325251386479397542816
027600000000582306080010500009340802056000040008259100100807004300020001000460700,527693418941582376683714529719346852256178943438259167165837294374925681892461735
040250003700609102090007040501000070060800030309074006005090004006008200200530810,648251793753649182192387645521963478467825931389174526815792364936418257274536819
080470102010800705500060490670003000200100509805020006060000040040039000903207080,389475162416892735527361498671953824234186579895724316762518943148639257953247681
360100070008000050400703029980210006010570840002000007005602014124800000790000003,369125478278946351451783629987214536613579842542368197835692714124837965796451283
000049012600005790008716300000300005140000060800070901001060040460008570059023000,537849612614235798298716354976381425143952867825674931381567249462198573759423186
043000015020009004506200390300000720007004080018306000002050908060017500000490670,943768215721539864586241397394185726657924183218376459172653948469817532835492671
001906000000705000080004610016008079890030040530000801920407000000000260073150900,451986732362715498789324615216548379897231546534679821928467153145893267673152984
105400007000081020030009006500720000480905060060300905040000009210007503600834071,125463897976581324834279156591726438483915762762348915347152689218697543659834271
000007289600300050007025400004709000300080002900430601010600790850001000030240006,543167289628394157197825463264719835371586942985432671412653798856971324739248516
065100037070048009009053260003000000000905081081000602708309040100000900020806050,465192837372648519819753264693281475247965381581437692758329146136574928924816753
012700009000000084705689000078400302030005007001006500600130025000204090304050100,812743659963512784745689231578491362436825917291376548689137425157264893324958176
050760300000201048042080090000000107930000002020043650600002005070100060418059000,859764321367291548142385796584926137936517482721843659693472815275138964418659273
006000709500006020000298003020001800001003004304050062100009040862040090900780500,236514789598376421417298653729461835651823974384957162175639248862145397943782516
900020604020603108700008290000005001400800906060100527000904000645010300870500000,983721654524693178716458293297365841451872936368149527132984765645217389879536412
004005000067104082200030100600900207000001090058007630391500008070610400400809000,134285976567194382289736154613958247742361895958427631391542768875613429426879513
001806290450070003009000700500004012010509080876030000007000000002453006000120804,731846295458972163629315748593784612214569387876231459347698521182453976965127834
001029000050800040060007093090140006300000820748000050689300010004506700003010200,431629587957831642862457193295148376316795824748263951689372415124586739573914268
005809000602040900004000071039005100000001342100602800700000006000020058806104239,375819624612547983984263571239485167568791342147632895723958416491326758856174239
240080060300040090009001720800300600090870450704000009030050001950760008400012000,247589163316247895589631724825394617193876452764125389632458971951763248478912536
008500764030029000510804090040068005307090800060000120001903000200400378000057600,928531764734629581516874293142768935357192846869345127671983452295416378483257619
700200800302078090010050006050007910900004007806092530000009001500340080040060072,795216843362478195418953726254637918931584267876192534683729451527341689149865372
607034001091000300040650000410800007002009008006420030308106590200080704000702080,627934851591278346843651279415863927732519468986427135378146592269385714154792683
000000000090780526100406307400000208068200000051000749940820000620095080803070000,576932814394781526182456397439517268768249135251368749945823671627195483813674952
045800079000079060300501420900003000007600080180700342401208730260000015000000000,645832179812479563379561428924183657537624981186795342491258736263947815758316294
000465000709020508004000030270103080000074360005906100640002009501000070380700400,823465791769321548154897632276153984918274365435986127647532819591648273382719456
806007140000820706530000002090401030100580200000000009004790000982300407300206500,826957143419823756537164982298471635163589274745632819654798321982315467371246598
081209003702000500090647000400002010005903074900060080260370050000800000300004109,681259743742138596593647821436782915825913674917465382269371458154896237378524169
060057029080040100937801500005089300000700006610400050000003002401200970700100080,164357829582946137937821564275689341348715296619432758896573412451268973723194685
620070804008050790001802003360000200049106008000407950200904030170000000080003605,625379814438651792791842563367598241549126378812437956256984137173265489984713625
670100050805040000000097860060050720102304006009006503300081400008700302010000090,674138259895642137231597864463859721152374986789216543326981475948765312517423698
000020070106805003029000068030060000042900106001308005918004050700609300000071400,385426971176895243429713568537162894842957136691348725918234657754689312263571489
800005002040091670060040003310000084000010090050200706020084031400069000578000000,893675142245391678167842953316957284782416395954238716629784531431569827578123469
007054000062000030980120000005910300320800607010002940070000402000000890400086051,137654289562798134984123576645917328329845617718362945871539462256471893493286751
093050710000006030057902006204000501000384090780000060000020403805700000010009670,693458712428176935157932846234697581561384297789215364976821453845763129312549678
639080070010700840700600000094260000070501084002000610800000700050123000461850090,639482175215739846748615923194268537376591284582374619823946751957123468461857392
050600190002000006040087003091040050008001307000503000703910200020006400006320800,857632194132459786649187523391748652568291347274563918783914265925876431416325879
000307960190060030000800701018209000200003054406700000905008302020005840300100007,842317965197562438653894721518249673279683154436751289965478312721935846384126597
590803001016400900008960023023014090000307600041680000080000040000005706907100030,592873461316452978478961523623514897859327614741689352285736149134295786967148235
003590600712008000006240038000102007075380402000060150001000900250900043680070000,843597621712638594596241738964152387175389462328764159431825976257916843689473215
970500104850000000240300007000601500000000890500782603760050419008074060030009020,973526184851947236246318957384691572627435891519782643762853419198274365435169728
301002070005860000920043000002037400600080019090106705003009080100004926700050103,381592674475861392926743851512937468637485219894126735243619587158374926769258143
900500000084070003050406018700309805200004001010060070009030000132800506065020047,921583764684172953357496218746319825298754631513268479479635182132847596865921347
100040386040001509705030000090057820800612000070000041953000000000300105206090004,129745386348261579765839412691457823834612957572983641953174268487326195216598734
730050900100400208009603000890007050070205806003040000000080025000096014310000700,734852961165479238289613547892167453471235896653948172947381625528796314316524789
630085047050000030081070006008300090002610000040950270000800020017009003900064500,639285147754196832281473956178342695592617384346958271465831729817529463923764518
000410700460020050300009021907005063002780000000390010500004030089602100040058670,295413786461827359378569421917245863632781594854396217526174938789632145143958672
060000004081904200302001500070060490519003008000800007490200100030700960000108703,965327814781954236342681579873562491519473628624819357497236185138745962256198743
000001000670080520210405009302048790100000350400560800029030060803907000740000000,935621478674389521218475639352148796186792354497563812529834167863917245741256983
103005200040902500000000678008300406060400029500060081620803005800749000019000000,183675294746982513952134678278391456361458729594267381627813945835749162419526837
640005380000900600520003004900000000000280073100070508790310402000000061080054900,647125389813947625529863714978531246465289173132476598796318452354792861281654937
007420800000603040020017090005008901008040023000501060802050034109000750300060100,937425816581693247426817395645238971718946523293571468872159634169384752354762189
000083501801004600020700090000041083178030200204006900006092804307000102000050000,749683521851924637623715498965241783178539246234876915516392874397468152482157369
840300007500098020070006000000003760400000209028040001650100900007035040010207058,849352617561798423372416895195823764436571289728649531653184972287935146914267358
004001000057008609600752100001900752000046003380200010700500004200800030906000007,824691375157438629693752148461983752572146893389275416738519264245867931916324587
000850430700090050038270019000168004045300700200000093400016800600700000000005902,962851437714693258538274619397168524145329786286547193423916875659782341871435962
400160800083002900060030400009700351801000020002005640900000000020083007700504063,495167832183452976267839415649728351851346729372915648936271584524683197718594263
907081030000504000000030207000610800718400090625300070580002100103009004060050000,947281635236574918851936247394617852718425396625398471589742163173869524462153789
097040026050020390806003704000650480000009001600832000100000069203100000940007500,397548126451726398826913754739651482582479631614832975175384269263195847948267513
000390070008040506140000200063280405520006030007000000230001609401050008086009001,652398174378142596149765283963287415524916837817534962235871649491653728786429351
800900000060075290004063100002080453070020000310006700500740980700031500000500010,827914635163875294954263178692187453475329861318456729531742986789631542246598317
905720000180090060000000004009004280008031090567200300200167500700058400006000000,945726813183495762672813954319674285428531697567289341294167538731958426856342179
000031000000600079090002540080040200004078951003265000071000094340500860200003700,457931628832654179196782543785149236624378951913265487571826394349517862268493715
