000002583000096000103070200000604001702050800480000935201039000800200070059860040,697142583528396417143578296935684721712953864486721935271439658864215379359867142
846010009090020007070340860000060500280705001300004002021058040039000050700001096,846517329593826417172349865917263584284795631365184972621958743439672158758431296
000000470304002100050060802007540290600703018009000000900081050005020006070409300,268135479394872165751964832187546293642793518539218647923681754415327986876459321
307004000540308006081090020020080105000007069009100070960200037008506004100070050,397624581542318796681795423726983145813457269459162378965241837278536914134879652
750000002000009010618040507800400326030005001007290004400071000900608700000000083,759186432342759618618342597895417326234865971167293854483571269921638745576924183
000006000010008490003500708800350200201400056970001300007290003564070800000060010,758946132612738495493512768846359271231487956975621384187295643564173829329864517
000900021700003806053602047600000590830070000021008400074020010009304000518006030,486957321792143856153682947647231598835479162921568473374825619269314785518796234
020000900400870005030401078002080006780050031049730800010600020500007040000910603,827563914491872365635491278352184796786259431149736852913648527568327149274915683
002400005009003124065080030000014007750600008000090340028050001000007090130048062,312479685879563124465281739693814257754632918281795346928356471546127893137948562
800350120900008500037040000070005086408703000206400009000200710000006030120090804,864359127912678543537142698371925486498763251256481379689234715745816932123597864
079060300021308605008000001000000000300095040700146002040702900250910084007050010,579461328421378695638529471814237569362895147795146832143782956256913784987654213
400601080960320000000007053008009060700500230201000408010065000539070046004090870,473651982965328714182947653348219567796584231251736498817465329539872146624193875
700500010004000902006379000000790025580160700003008000030920140810006007205807030,798542316354681972126379584461793825582164793973258461637925148819436257245817639
081009030400020006560730000209300047100056008000002509000000890005187200300000104,781569432493821756562734981259318647174956328836472519617243895945187263328695174
000418000000070010805600700050007003260900580700102009090530600070091048320000050,637418295942375816815629734459867123261943587783152469198534672576291348324786951
000910030506040070080067400027000504950020860001008000008003006600000295490270001,742915638536842179189367452827639514954721863361458927218593746673184295495276381
065010020800705106430000009000900000120008403070020098900200341200506000080004500,765319824892745136431862759648973215129658473573421698956287341214536987387194562
000095300600100008413007000000680290230004805700059000080001603056070021070040000,827495316695132748413867952541683297239714865768259134984521673356978421172346589
149000207005076040800000005000392600601048700034000080070130800500200001006085390,149853267325976148867421935758392614691548723234617589972134856583269471416785392
600820740000010003230400090907005401064370000050200008070098302500104960003000080,619823745745916823238457196927685431864371259351249678476598312582134967193762584
380009120060520070902063000000600940030200008000007031007800400090071680054006710,385749126461528379972163854128635947739214568546987231617852493293471685854396712
180490000600300700900062508070000002305000609406903070501200900004087006030050420,187495263652318794943762518879546132325871649416923875561234987294187356738659421
000092000185070204020800006006010500902730608540000009003006805008400930701009000,674592183185673294329841756836914527912735648547268319493126875268457931751389462
900000108010904050607031000000000824700010063050320901590070080008602090036050002,945267138213984657687531249361795824729418563854326971592173486178642395436859712
000900300048200000020006405807605002009300160100000037203007804710003056500004090,675948321348251679921736485837615942459372168162489537293567814714893256586124793
020309001035002000700008004010903008900107500243050700100000240054000876800600095,428379651635412987791568324517923468986147532243856719169785243354291876872634195
040653070000280000031740280007000000800300042650090000102007690005020730900165800,248653179796281453531749286327514968819376542654892317182437695465928731973165824
060750800003000049070931025840002051900080000032100007500063008006009400020470000,269754813153826749478931625847692351915387264632145987594263178786519432321478596
032010000486000790000800005070420060005300804900005200190062073004078100000030006,532719648486253791719846325873421569625397814941685237198562473364978152257134986
000030006200059803310602070080005004000914000075300020034027090060000001507008400,759831246246759813318642975981275364623914587475386129134527698862493751597168432
500720460048000390070000005060205039790008004000046002005000781000003020109860000,513729468248651397976384215864275139792138654351946872635492781487513926129867543
080050260070000840900270000069030080007401030430002016200040000018300500650780300,381954267572613849946278153169537482827461935435892716293145678718326594654789321
009000005100020060020547800078000310043706009605039020004002000030605107090480050,489361275157928463326547891978254316243716589615839724564172938832695147791483652
000307400800901006070450100025006700100090560407030009509280000003000280002074001,291367458854921376376458192925846713138792564467135829519283647743619285682574931
700638090010000005008502304900203000074001260002009831009040020050000000007986040,745638192213794685698512374981263457374851269562479831839145726456327918127986543
006502003200100960030007805000000092007006500308040710700025480604930007010000600,846592173275183964139467825461758392927316548358249716793625481684931257512874639
000007045205830000006000900521006030008004791000300052004000806010040000039278010,983167245245839167176452983521796438368524791497381652754913826812645379639278514
800000019023607400051920060002046500090005007360000800010870304007004020000509000,876453219923617485451928763782346591194285637365791842619872354537164928248539176
008000059240109700070530000950007300106800004700063100000040608090056032400200000,318674259245189763679532841952417386136825974784963125527341698891756432463298517
000090020560020307400008610094500800000200036631070005708106950300000702045000008,183697524569421387472358619294563871857219436631874295728146953316985742945732168
500940002003601050009000786005010000400003608360402070030000020800020401001570800,586947312273681954149235786795816243412753698368492175934168527857329461621574839
900000070671000048004008206009002035302070004000340700005130900007800600080065010,928456371671293548534718296749682135312579864856341729465137982197824653283965417
800030950750001004006520001002004800900100600340870002080000000590700210010940067,821437956759681324436529781162394875978152643345876192687215439594763218213948567
000803524940000010080500600000024007009010030470000860501032000807960100360007205,716893524945276318283541679138624957659718432472359861591432786827965143364187295
042000830005100920607820004006007580800435009000000001500290400900070013010040700,142759836385164927697823154436917582821435679759682341573291468964578213218346795
790020043045000100100007805000069300071400000064803507037080200200500060800001009,798125643645398172123647895582769314371452986964813527437986251219534768856271439
040700619000650208900240000070004050192005000030060800801020094400038006007000105,245783619713659248986241537678314952192875463534962871861527394459138726327496185
002090000400002597070800100300648079009200600020005430000103085080060340005007000,512794863468312597973856124351648279749231658826975431694123785187569342235487916
100000802090000065205090703900628300083040500004007001070100049060032000508460000,136574892897213465245896713951628374783941526624357981372185649469732158518469237
000062009083090156001500400010300002972006000000704008000000580430670000020048070,547162839283497156691583427814359762972816345356724918769231584438675291125948673
020090000800352000075081603460005807009000000300920546500008900000003201081640070,123796458846352719975481623462135897759864132318927546537218964694573281281649375
006700200980050003350100970009000008024003016530804000100007009693500020000308040,416739285987452163352186974769215438824973516531864792148627359693541827275398641
000740302053090008400000650300008400010007020048061700921000006060080003007500910,186745392753692148492813657379258461615437829248961735921374586564189273837526914
570010300400006519006008007012040050050370002890050700007000036300920000080400900,579214368428736519136598427712849653654371892893652741947185236365927184281463975
000800453238700009460001200670002000000103098091004300700000005180607030009200604,917826453238745169465391287673982541542163798891574326726439815184657932359218674
819700005407380000060001200050004020003000960002097800080510700006002341700069000,819726435427385619365941278958634127173258964642197853284513796596872341731469582
089050120004009060060340005090700000003008056670430000241500000700060090000801203,389657124524189367167342985895716432413928756672435819241593678738264591956871243
695000800043010702000004030018020900007009046000530000074098053000601080506000201,695372814843915762721864539318426975257189346469537128174298653932651487586743291
061504700000900600030010802000000001310600489057000300540002930200380050090007000,861524793724938615935716842689243571312675489457891326548162937276389154193457268
020408030000000800054090070009807000068500120730060900007010046106003095390200000,621478539973652814854391672519827463468539127732164958287915346146783295395246781
000047090000800720210630800700100900060023080598004100054090000800502400070010603,685247391349851726217639845723185964461923587598764132154396278836572419972418653
000000003100925800700003420006001005240567089000040700900100300450830002020006970,682714593134925867795683421876391245243567189519248736968172354457839612321456978
203010508000000460009700002084253000607401000000000950002065307036900200070008001,243619578718532469569784132984253716657491823321876954892165347136947285475328691
000004309970006480200100000017080065492500000050309007608020090100005072000038000,561874329973256481284193756317482965492567138856319247648721593139645872725938614
000001040062304700700920050900008170400060803013502000501807602030000009648000000,359781246162354798784926351926438175475169823813572964591847632237615489648293517
006300014090061003070490500020500006009703008548000020002040009850670000001800700,286357914495261873173498562327584196619723458548916327732145689854679231961832745
901403005207050006000260400020109800039000004400008270000670100000805030180004600,961483725247951386358267491725149863839726514416538279593672148674815932182394657
000849000031050002970200000803026059009000007250001640000430021000908004500070086,625849713431657892978213465843726159169584237257391648786435921312968574594172386
106000000042600508000072090950000241080340079000001000800219004300007165407000000,196854327742693518538172496953768241281345679674921853865219734329487165417536982
069300000100000054040102006094060037800030021200057600008024093050000480003790000,769345218182976354345182976594261837876439521231857649618524793957613482423798165
500070018637080400002056900000090050406000083100234000081749002020000809000005070,549372618637981425812456937273698154496517283158234796381749562725163849964825371
203480090000507000010000046930001200060040000740028630056039102000000850009702003,273486591694517328518293746935671284862345917741928635456839172327164859189752463
740620059005070038230000004900804560150290407000000900071000002080530700006000010,748623159615479238239185674927814563153296487864357921571968342482531796396742815
038100002000000047590004600080005790006438100310090000700902500000040036042060800,438176952621859347597324681284615793976438125315297468763982514859741236142563879
904500026260000503073010000307008402000070095800906300000020081005480700010309000,984537126261894573573612948397158462146273895852946317439725681625481739718369254
008102050507600000320805004080504906790020000000000308062980005004200067000030190,648192753517643289329875614283514976796328541451769328162987435934251867875436192
080700405040010260002036001470800003000900000019020704700304100060009050800005602,681792435347518269952436871476851923238947516519623784725364198164289357893175642
000080005040300862062047010005100930730902050018000000400053201200710000009600703,391286475547391862862547319625178934734962158918435627476853291283719546159624783
076940010003002068009010002508064003067103509000700000000027400000800056012035800,276948315143572968859316742598264173467183529321759684985627431734891256612435897
206700300043802090000010007907003856508070040060009070009658400300020008000000910,216795384743862591895314627927143856538276149461589273179658432354921768682437915
130027000095300000760090480000040028000513790000209516200601009406000051980000000,134827965895364172762195483519746328628513794347289516253671849476938251981452637
890450001060090735010007004000080400072006003600030902380200006900005270000140050,897453621264891735513627894139582467472916583658734912385279146941365278726148359
070043060802097530400000200000060001900702450306009080038400900050006020010370008,175243869862197534493658217527864391981732456346519782638421975754986123219375648
070004051680091400204850000130006520000000046000079100000700000502003080807260009,973624851685391472214857693139486527758132946426579138391748265562913784847265319
010025030603008090098001004000030507074082019060400008021000405030600170500007000,417925836653748291298361754982136547374582619165479328721893465839654172546217983
010006004687000001059072003000050090000637040004098705800700000962800030300024850,213586974687349521459172683726451398598637142134298765845763219962815437371924856
000040060007018240000500130000001000060900301008204070730692004206000095180407000,321749568657318249894526137973861452462975381518234976735692814246183795189457623
047006000900007016000802054020010680805060970190050023008400130070009002400300800,547136298982547316613892754724913685835264971196758423268475139371689542459321867
050803640300040780060020903000170000602900000890000205703609508125007009000000010,257893641319546782468721953534172896672958134891364275743619528125487369986235417
000061000005003410004280076800009000406830090790000025021500600007090032080006700,978461253265973418134285976812759364456832197793614825321547689647198532589326741
040900000900863700700000560200608005070000013300047802620051900000300024481002000,146975238952863741738214569219638475874529613365147892623451987597386124481792356
080003790200000613000700050100320009036907000009015004050830000900006200710040580,584163792297458613361792458175324869436987125829615374652831947948576231713249586
040705069000006030003984200510000070000602500038000100754209010061003000009800047,142735869985126734673984251516398472497612583238547196754269318861473925329851647
010900007000024380893005000008007401024090800009058023047006005036000170500030002,412983567675124389893675214358267491724391856169458723247816935936542178581739642
107006000000003000526080400000095080400000270003240009070160003009052610800374050,137426598984513726526987431612795384498631275753248169275169843349852617861374952
050007020040036008030940601500100030780200009206790400300480700000001000970005806,659817324142536978837942651594168237783254169216793485365489712428671593971325846
020014706000600520105079000601007200090000035302048100089030004200000308007061000,823514796974683521165279843641357289798126435352948167589732614216495378437861952
083007960010020005074906000050000210400070036008432090000004002000003180092850700,283547961916328475574916328357689214429175836168432597831794652745263189692851743
002060805080905000700102003009630100230049000000207000890700302450000910103800600,912463875384975261765182493579638124231549786648217539896751342457326918123894657
806000040000007502574609010087400020135000000000010307600085900209730008000104006,826351749391847562574629813987463125135972684462518397643285971219736458758194236
