710309600090000501003200004005804109120700000009020378030070040400901807060508000,714359682296487531583216794375864129128793456649125378831672945452931867967548213
800540076006800450100070002008203005900000060054900180000730020620104009030005700,892541376376892451145376892768213945913458267254967183581739624627184539439625718
407500213080200400600090000060000031108300000200010795001960004050807000030024908,497586213385271469612493587569742831178359642243618795821965374954837126736124958
751000000006000910020600403004208000093065000000090875040120008205306790010089304,751934286436852917928671453574218639893765142162493875349127568285346791617589324
050009020298001360030004507509000000000090716004628000100070450300800000076003180,457369821298751364631284597569137248823495716714628935182976453345812679976543182
030000002500106084107009300050670020001304069804001500920007600700480090005000103,638745912592136784147829356359678421271354869864291537923517648716483295485962173
023000050760180000401902700000603590005024037087000060000010209004050000008300670,823467951769185324451932786142673598695824137387591462536718249974256813218349675
075002310030409205000000090650120000247000003300006080080095400402070600001080039,975862314836419275124537896658123947247958163319746582783695421492371658561284739
480300000600000930000724010309007001004006570050200400000401802032090007000800096,481369725627158934593724618369547281214986573758213469976431852832695147145872396
061350000009020856200490007020009083100000400800060012070015060003007004005043090,761358249349721856258496137524179683196832475837564912472915368913687524685243791
200400518000000690690003740040806050500320009000007100050792300031000000028500406,273469518184275693695183742349816257517324869862957134456792381731648925928531476
006010020290005480040300056012600000409500600070020830300400090081070003000900107,756814329293765481148392756812643975439587612675129834367451298981276543524938167
000650930450290010006074000012080000890400067300001502020000048704309600100800200,271658934458293716936174825612587493895432167347961582529716348784329651163845279
705040021030020900008300045010209060000500009042006038007800004304600050050010800,765948321431725986298361745513289467876534219942176538127853694384697152659412873
010004200500018930203607000308000004020005007007160005060970010000050080049301602,916534278574218936283697541358729164621845397497163825865972413132456789749381652
600908007007600190035000400351087060076100040080020000000010530103060008090704002,614958327827643195935271486351487269276195843489326751762819534143562978598734612
740090080100800607000052030035070100906003020000940800800005070069400300027100506,743691285152834697698752431435278169986513724271946853814365972569427318327189546
004060512001730000890000060060200850700300040002100309530890600100500087009074000,374968512621735498895412763963247851718359246452186379537891624146523987289674135
060100700000940250051830040300010900900060078080503000008000416704000002096002530,469125783873946251251837649342718965915264378687593124528379416734651892196482537
201000900086400000030061820800032060000700409175000083309180500060007034002004000,251873946986425317437961825894532761623718459175649283349186572568297134712354698
040008000065100008070902006050300090002500301008006020000879103084010752001040600,149768235265134978873952416657321894492587361318496527526879143984613752731245689
000065000382400000090000241506701300940000020708300605000634710407008053000900002,174265839382419576695873241526791384943586127718342695259634718467128953831957462
000080200950300040000006009040007021069025008807610004700002300380060000014530900,671984253952371846438256179543897621169425738827613594796142385385769412214538967
086075000000800090704000620018009703300607040060021009070016400500030080039450100,986275314123864597754193628218549763395687241467321859872916435541732986639458172
006005328000700000290310050050040070470230000801509006082004060040000509300980001,716495328538762194294318657653841972479236815821579436982154763147623589365987241
100800600004007890060400201200050003500001420003009050409023700075060300000100040,157892634324617895968435271241756983596381427783249156419523768875964312632178549
905016002700000390030002005006000830008050007000093060041207003009400010520080706,985316472762548391134972685456721839398654127217893564841267953679435218523189746
000029008600000003851004270000007040040058300902100005005080907407010530103060020,374529168629871453851634279518397642746258391932146785265483917487912536193765824
300060294007001000400000051045182000000706000120090507010900400290005308600048900,381567294957421863462839751745182639839756142126394587518973426294615378673248915
016002009700000080900374050060003510100080230050060007570090800082037004049100060,416852379735619482928374651267943518194785236853261947571496823682537194349128765
201000470450300900690008002009613000000000001034900806070102580008460000000050017,281596473457321968693748152829613745765284391134975826976132584518467239342859617
000063000009407000006810042807204093031000050402000070024009608000100530010786000,245963781189427365376815942867254193931678254452391876724539618698142537513786429
076300500000009080008021063010460030050018007060005920700050400043000002009100058,276384519135679284498521763917462835352918647864735921781253496543896172629147358
500008040607400920090052700702081000004529003038000000300100580000007690200060107,521978346687413925493652718752381469164529873938746251376194582815237694249865137
001000005000390006000812490807530900040608320003000700050940180130050000290000070,981764235472395816365812497827531964549678321613429758756943182138257649294186573
100680092200010700084000005005090003870006420032000601610950000003047010009002038,157684392296315784384729165465291873871536429932478651618953247523847916749162538
064080302053410000080500600006075090400008230000390700040009018005002007700601400,164987352253416879987523641836275194479168235521394786642739518315842967798651423
058000061001032400000060700402050080096800043000007100800010230060245009000009074,258974361671532498934168752412653987796821543583497126849716235367245819125389674
600408010078000000950030002001720400000001030762540090830050640200000780096010500,623478915178295364954136872381729456549681237762543198837952641215364789496817523
070024000001570034200908000060001705010640098900300060509003100047000500008060072,376124859891576234254938617463891725715642398982357461529783146647219583138465972
860503710009084603000009020703105002580040000091802000050000100028060037100900004,864523719219784653375619428743195862582346971691872345457238196928461537136957284
900570604024000900070060000040100800506304020100920050200010500003008710008200396,931572684624831975875469231342157869596384127187926453269713548453698712718245396
120009450400050607080070000004000800000000012570610000839140060000092108000500700,127869453493251687685473921314925876968734512572618394839147265756392148241586739
000087090035000006700601020070000608650008209002390005800104003003020010904750000,246587391135942786798631524379215648651478239482396175827164953563829417914753862
000870060400000902089000013700041500620750000300006078060080047250960030010002009,132879465476513982589624713798341526621758394345296178963185247254967831817432659
065300000000002010704080006800900103012700960930205070070490000600003800293070500,165347289389652714724189356857964123412738965936215478578491632641523897293876541
000009270706038400092100003000601007004800510305790800408000700000000026501002980,143569278756238491892147653289651347674823519315794862428916735937485126561372984
000006000020040703307005480019700004203980010400000502000430200800067009001800056,184376925925148763367295481619752834253984617478613592596431278832567149741829356
408900003720030510000602000040050600360009070000820094090064008230007906000001750,418975263726438519953612487849753621362149875175826394597264138231587946684391752
017020400500070000400863000006900810000010002008047609609400720051080930030205080,817529463563174298492863571346952817975618342128347659689431725251786934734295186
903007450025000080081400036600010000070395040008670203000000065000840001207003090,963187452425936187781452936634218579172395648598674213849721365356849721217563894
080000600050007020132004009009703001600850070070016802003000408060100057510020300,784291635956387124132564789829743561641852973375916842293675418468139257517428396
010040500082700609070016020001009740500001806046300901000050004000603008397200000,613942587482735619975816423831569742529471836746328951268157394154693278397284165
700006410530890000460007000000402305000000042008310069053961200007000801090020000,789256413531894627462137958916472385375689142248315769853961274627543891194728536
019000306200065000000700012004008000600320907100450200000040583035807000000009401,719284356283165794546793812324978165658321947197456238971642583435817629862539471
403001020010079600680050000030002400076010300002006980000300009850040003020908710,493681527215479638687253194138592476976814352542736981761325849859147263324968715
005106720803504009700000005000008002010300960054002100102790040000000030647803500,495186723823574619761239485976418352218357964354962178132795846589641237647823591
000006090092100400500380070005047130061000004007603950200850000014000580700900340,173426895892175463546389271985247136361598724427613958239854617614732589758961342
630020780008605204010000300003040097960000000800370560004980005000050021070001003,635124789798635214412798356253846197967512438841379562124983675386457921579261843
000000400400003826200056030007600080108042009090070543700500260009001000036080701,963827415475913826281456937347695182158342679692178543714539268829761354536284791
090004100200030007830501062000060750008009300062300401579040000001725600000100008,697284135215936847834571962143862759758419326962357481579648213381725694426193578
000900071300000680100040009970085230004020700056031004002100540090200107000074008,528963471349517682167842359971485236834629715256731894782196543493258167615374928
054910060000005900710000040040000080906000170007568200000801007500003420360420059,854912763623745918719386542245179386986234175137568294492851637578693421361427859
460503800089000000500600421300490000675002000000800016002000004003270080040015079,461523897289741563537689421318496752675132948924857316752968134193274685846315279
246009008500007900039800210005490300100600090000001860000306407082000005370018000,246139758518267943739845216865492371127683594493751862951326487682974135374518629
904006370270350040100000090030205804000000000806004205005090080000832601001067000,954126378278359146163748592739215864542683917816974235625491783497832651381567429
004008500001200467030960020097000002802006040500170830623800000050009004000531000,264718593981253467735964128397485612812396745546172839623847951158629374479531286
010690000000403900006700235470089001100000302065070094200000187000000050089045000,513692748827453916946718235472389561198564372365271894254936187631827459789145623
000709005000120300028000090506000700804002630092360040050980000019030067000400001,361749285945128376728653194536894712874512639192367548657981423419235867283476951
008006901000400070007501320045630000601002000000904085100093708030000560204700090,428376951513429876967581324845637219691852437372914685156293748739148562284765193
000002050009008700163000002020670008080209600090504073006451020800030004570000091,748362159259148736163795482425673918387219645691584273936451827812937564574826391
000100802000005030590040701010907000200000106367801400630409000800350009050000028,746193852128675934593248761415967283289534176367821495632489517871352649954716328
509370002000006008030940100090050006060809700204030000308700600670001905050200804,519378462427516398836942157793154286165829743284637519348795621672481935951263874
001950043004263000500008070050680019300000820602001700200109400000030007790800065,821957643974263581536418972457682319319745826682391754265179438148536297793824165
000400030089001640007805200020080301940307802000150097014200006006000073800000500,152496738389721645467835219725984361941367852638152497514273986296548173873619524
570009061000500308062004009190027080603080000050100040040360070906700000080041200,578239461419576328362814759194627583623485197857193642241368975936752814785941236
904005200060090700000018604400530001082007050006000409030104000001200508579603000,914765283863492715725318694497536821182947356356821479238154967641279538579683142
000002159000068073407100006836000000000050012005094000083029560201000000609301084,368742159512968473497135826836217945974853612125694738783429561241586397659371284
000000078583402019601390002040007205092040000100060030005001040067005100009730080,924156378583472619671398452346817295792543861158269734835621947467985123219734586
006040003230097060500000107900401802000058400001000000097030640350016008802500090,716245983238197564549683127975461832623758419481329756197832645354916278862574391
700501302502084700006000000040630097903800050008007010080300500400079108020000406,794561382532984761816723945241635897973812654658497213187346529465279138329158476
090200006084105000702080000008740059060000320025060008150007040003901702000830910,591273486684195237732486591318742659967518324425369178159627843843951762276834915
073400250400906000802500000100802600006740020000001039020080073005000190309070408,973418256451926387862537914137892645596743821248651739624189573785364192319275468
147050003580200000002607000610470092050800410700000006000390000200080650095020040,147958263586231974932647185618473592359862417724519836461395728273184659895726341
000380425030270006001000009502090080060000001710500903004602000350004760800007130,697381425435279816281465379542193687963748251718526943174632598359814762826957134
900020807500970060470001003009700005048500700100006490203080009000300600710004302,936425817581973264472861953629748135348519726157236498263187549894352671715694382
000704021709002500060001803230900400105070306008040050070380600080000000306005009,853764921719832564462591873237956418145278396698143257571389642984627135326415789
100000839635080027000470000046002001008690000020100095300004002000005370860709504,174526839635981427289473156946352781518697243723148695357814962491265378862739514
043900100600302078000000002190080006702160530005097400918000050007015690030400000,243978165651342978879651342194583726782164539365297481918736254427815693536429817
020000060009030084005208079031000902000000050862540000057020016010600800400970300,128497563679135284345268179531786942794312658862549731957823416213654897486971325
700400000908010304300682950007830006406000102501006800000905401800070203002000000,725493618968517324314682957297831546486759132531246879673925481859174263142368795
700080306600900025040006010801620700039710050000050084004800000120500900096003200,712485396683971425945236817851624739439718652267359184374892561128567943596143278
090000375700304980000900000010000247800460000035020100020093450056007001908610003,294186375761354982583972614619538247872461539435729168127893456356247891948615723
024090010600010803070503900902400380060007004800001056201004070050020030000608500,324896715695712843178543962912465387563287194847931256281354679756129438439678521
016000302700400000052070400908030740060090001100205008009750000200064097300001680,416589372793412856852673419928136745564897231137245968649758123281364597375921684
000062700056803090000100035000210089102907400035000000800650004460090012001700800,319562748756843291248179635674215389182937456935486127823651974467398512591724863
206100040100603950750000003070009230625004001000086000090050107000020080081300409,236195748148673952759842613874519236625734891913286574392458167467921385581367429
701060000090010200500800304800000060940700803003005007105200009020006480600359001,731462598498513276562897314857934162946721853213685947175248639329176485684359721
063805090000040002058017003910700600000002070504003000040000000309680005607004210,463825197791346852258917463912758634836492571574163928145279386329681745687534219
065700100000000004070128000201950803030000200007800540306210009009000415080070030,965743128812695374473128956241957863538461297697832541356214789729386415184579632
