005020439209015060800407000000253048000000500001006020070100095903800600062000004,715628439249315867836497251697253148324981576581746923478162395953874612162539784
401500090000042806065070001230008700706090003090010020300000408080409105007065030,421586397973142856865973241234658719716294583598317624359721468682439175147865932
487000000000010890905026030001902540630780900000000008040000010062000003100504087,487359162326417895915826734871932546634785921259641378548273619762198453193564287
003410095016000020098003040700692003085070000000300104000900506007840900120006007,273418695416759328598263741741692853385174269962385174834927516657841932129536487
007006503000003481005802006308700004500030070026014000900060058600209000074051200,487196523269573481135842796398725614541638972726914835912467358653289147874351269
009070004370050620056003001008002196000004200510700800405000000020418300860090070,189276534374851629256943781748532196693184257512769843435627918927418365861395472
608210054000038200000509307073000006024070800900100040010000690002740013005080002,638217954759438261241569387573894126124675839986123745417352698892746513365981472
005100974374000080008600203060012000000008705100300000090050340003000021201407860,625183974374529186918674253569712438432968715187345692896251347743896521251437869
560807300103009407000000095012083000007600004090205060070020056030908700080010020,569847312123569487748132695612483579857691234394275168971324856236958741485716923
600920003047000059080300410500006104109000080030008620000075030400010002805260700,651924873347681259982357416528736194169542387734198625216475938473819562895263741
083001000600943008002800690001004809090180500320006070004350900000700001065000027,983621745657943218142875693571234869496187532328596174714352986239768451865419327
013200000000170900029050007006480092032600700080010045005726403000540000070000068,713269854548173926629854137156487392432695781987312645895726413361548279274931568
040602003080030900600071008060204070230050090005700100370006500509300820000019400,941682753782435961653971248168294375237158694495763182374826519519347826826519437
200000950500640008307091000002085040104207003600000007900050024000008070063000190,246873951519642738387591462732185649194267583658439217971356824425918376863724195
900480000738050020100367050300020410074006090005000800060501009090000360020008701,956482137738159624142367958389725416274816593615943872467531289891274365523698741
023607800000000602800104030004830710091065400007200503760900000040050160000000259,523697841419583672876124935254839716391765428687241593765912384942358167138476259
010580020006000009802470053034001600007000090000754000080007500070800064601020380,413589726756132849892476153534291678127368495968754231389647512275813964641925387
500470030300006000609810005067030002000005006003002980010300048405008720020590100,582479631371256894649813275867931452294785316153642987916327548435168729728594163
106000702000008050803125004500003870004967001200800009091400300600010207005030900,156394782942678153873125694519243876384967521267851439791482365638519247425736918
090100052008300700601097040027510400400803000000600301805000000904025086060030090,793184652248356719651297843327519468416873925589642371875961234934725186162438597
804109050790000034002075000600003807000016400089002010030280001050000009028504600,864139752795628134312475968641953827273816495589742316936287541457361289128594673
000410009070000640013600200051703028900050004008000310200074000300561080000890070,526417839879235641413689257651743928932158764748926315285374196397561482164892573
041006000050400609600310800302080400070903000109020056920850034000000072705001000,841596723253478619697312845362185497574963281189724356926857134418639572735241968
200000098700100500005000320409020610000008004130509800002064000018003407600790003,261435798793182546845976321489327615527618934136549872372864159918253467654791283
140070200000600005070902000507860400003009680010724003030510809809000540000000026,146375298982641735375982164597863412423159687618724953234516879869237541751498326
840010020059000037006302000090071000000009080300084052701405008080090605000700410,843917526259846137176352849598271364624539781317684952731465298482193675965728413
870900450006083700000400060049010807005000000600394020098046003300002190012500600,873961452456283719921457368249615837135728946687394521598146273364872195712539684
080650002307000005059070380004730500102000000700109046010400800003006429900000060,481653972327948615659271384864732591192564738735189246216497853573816429948325167
690800037000400809701600004300078500520009401009000000403000020050230010810050700,694825137235417869781693254346178592528369471179542386463781925957234618812956743
008921700016000000002430090004005002300600980750012040100500408003007060680009010,438921756916758234572436891864395172321674985759812643197563428243187569685249317
000000050038920000001406903009504230080067001120080704002053016400000000570800320,947138652638925147251476983769514238384267591125389764892753416413692875576841329
500061083102000900037020040054900010000000760000835000010300000028004009706018500,549761283162483957837529641254976318983142765671835492415397826328654179796218534
007800300030601009940005260052049000000000000400307800096008040084010057010062003,627894315538621479941735268852149736173286594469357821396578142284913657715462983
040050102076020000800004063010200009007960084300805200069100005702000490500000030,943658172176329548825714963618243759257961384394875216469137825732586491581492637
600107000080002030005060200000300007403015809891700060040206390000051006750090040,624137958987542631315968274562389417473615829891724563148276395239451786756893142
000005001489300000000462700008001020650900008290640030074080053005030092030100600,726895341489317265513462789348571926657923418291648537974286153165734892832159674
900340000080017500004002061001400600500098004023000700749600020250080139000500000,915346287682917543374852961891473652567298314423165798749631825256784139138529476
008003520000879004100040006307208050501400009900701800000005600004060132230000700,498613527625879314173542986367298451581436279942751863719325648854967132236184795
356008007010500300004029010809005200000700400045602090030006800090810640500070002,356148927912567384784329516879435261623791458145682793431256879297813645568974132
002040760900020018400670500000003289600807034010000000830002000706509320090400050,152948763967325418483671592574163289629857134318294675835712946746589321291436857
030607900000050020804000057010724830000010000020800069005469200073000600009200018,532647981791358426864192357916724835358916742427835169185469273273581694649273518
000500004023000590400081600750906080010007020200403056040705061000200907608000030,867592314123674598495381672754926183316857429289413756942735861531268947678149235
300010400008706090015800200000920006096005003780300040000500804270000910000174000,367219458428756391915843267543927186196485723782361549631592874274638915859174632
050001000000593600064000030982000003000002800040906170000050280200069047037010506,359641728728593614164728935982175463671432859543986172496357281215869347837214596
067439020200000390040500008780003100009056000030841600620008003004100007100020950,867439521251687394943512768786293145419756832532841679625978413394165287178324956
006030000080007090090004152010000005200061807604208003302000400009370600007492008,526139784481527396793684152918743265235961847674258913352816479849375621167492538
280300000009064018034705000600510700000007260070040003502000000091800574000003906,286391457759264318134785692623518749418937265975642183562479831391826574847153926
506904200000600300300000190030009047008021000975080000207050003000100960601300085,516934278729618354384275196132569847468721539975483621297856413853147962641392785
004072090030000207000580010903004000028053041070090600000610708067009054810020000,184372596536941287792586413953164872628753941471298635349615728267839154815427369
100720300003904020507000008480007002000309610006000705209605040308400060605010209,194728356863954127527136498481567932752389614936241785219675843378492561645813279
040010069921073800060084003090041038800090207000002000007500040030020070510000602,348215769921673854765984123692741538854396217173852496287569341436128975519437682
000607080300005400040980016400800062080039050071002000056004037010750094090010008,129647385368125479547983216435871962682439751971562843856294137213758694794316528
304075000020009008008401650780006000000940501000030009590600030010200490607100080,364875912125369748978421653789516324236948571451732869592684137813257496647193285
520014068000570004309002700050040000800709020031006049480020070006030001100600030,527914368618573294349862715952341687864759123731286549483125976296437851175698432
060053800009700030200090140008049006040305218370600000000501060087002500021000400,764153829819724635235896147158249376946375218372618954493581762687432591521967483
008093400479001800600050700540100000902000601706802030105000004000230065000007920,258793416479621853631458792543169287982375641716842539125986374897234165364517928
004000208090600007078050046010000000800020059600439000000010302052760100043980700,564397218291648537378251946419875623837126459625439871786514392952763184143982765
600070310807100009040059000000421008709060001002000530000004027103006400050008900,695872314827143659341659872536421798789365241412987536968534127173296485254718963
700120030008000940340900006050800702269030080000049050034006100610005378007000500,796124835128653947345978216453861792269537481871249653534786129612495378987312564
790008006000016730010500204480027903001900050076803400009400170038000000500000002,792348516854216739613579284485127963321964857976853421269435178138792645547681392
108000050040009600060047030082300000000060200670054908504703020720000090000106700,198632457347519682265847139982371564451968273673254918514793826726485391839126745
730002600080050009001800450007204806360000701009010032600705100004090000050403020,735942618486351279921876453517234896362589741849617532693725184274198365158463927
584000100001000742072300000709000408100958007260001003300005000000403209005809060,584297136931586742672314985759632418143958627268741593396125874817463259425879361
001400090830070000000260701070006850010700203600385000050004002409010076200890040,721453698836971524945268731374126859518749263692385417157634982489512376263897145
040060020093402081020003007005800309002004500760001002900000000034057100178000060,847165923593472681621983457415826379382794516769531842956218734234657198178349265
700800910310600080065400020480009607000000050532100000000240300070908064100035200,724853916319672485865491723481529637697384152532167849958246371273918564146735298
035900700000005064800010000400802007001360500082007030070029610050003048006000903,635948721917235864824716359463852197791364582582197436378429615159673248246581973
037000490810000005009320160001900506000172040924800030000406087070001000256003000,637518492812649375549327168781934526365172849924865731193456287478291653256783914
300087210009600308000004060095013000047200500000000806102090003406070089058100070,364987215729651348581324967695813724847269531213745896172498653436572189958136472
109008600000470005073020048006030900080100004320000500004206000051790020600040703,149358672268471395573629148416532987985167234327984561734216859851793426692845713
100000876000940003502087049006100200701005000050023680900470302010306090840000000,194532876678941523532687149386194257721865934459723681965478312217356498843219765
004203009009010300080006040075390006008004702030708900100500000060000027092000164,754283619629415378381976245275391486918654732436728951147562893863149527592837164
207500006080069103000107450000000608043010090700090020500000800901640035002003710,217534986485269173396187452129375648643812597758496321534721869971648235862953714
783000090000100802000059600105693004608020007300704001002000300401060008000915020,783246195956137842214859673175693284648521937329784561562478319491362758837915426
900800020040030167007040500030420000120960004070053090005010230083700601604000000,951876423842539167367241589539428716128967354476153892795614238283795641614382975
802450037003062100060001009607130020000070540080900006070090465900008010205000003,812459637593762184764381259657134928329876541481925376178293465936548712245617893
000000500047090003203040619809270100100800004000605030956008070010703806000000002,691382547547196283283547619839274165165839724724615938956428371412753896378961452
304007960200000300059306008007008500000129004406000002015040726600500009003070180,384257961261894357759316248127468593538129674496735812815943726672581439943672185
020100060600039078700000049004280706130004002008053900900007380006800001005042000,429178563651439278783526149594281736137964852268753914942617385376895421815342697
007001080000067900048320000002018300310900040000400720006080190920050006500700400,697541283253867914148329567472618359315972648869435721736284195924153876581796432
049006002602070008070540093900007020001308700500000109700061305003080041800409000,349816572652973418178542693936157824421398756587624139794261385263785941815439267
000150083106400907000300060203040010407802300965000000009007000000600802800510640,794156283136428957528379164283945716417862395965731428649287531351694872872513649
540006170100308600809001300006102705020795000000000049007000400098030006601500020,543926178172358694869471352986142735324795861715863249257619483498237516631584927
009002007415000003060483000780300050501008002006079010000060700002000469073910500,839152647415796283267483195784321956591648372326579814948265731152837469673914528
601004000000000309003589260100806050000012704027000080000030520876090000300140008,691324875285761349743589261134876952568912734927453186419638527876295413352147698
500908001600040900073200004007025806006003010894001050008000340020079000100600025,542938671681547932973216584317425896256893417894761253768152349425379168139684725
006100094070008000910506703001850029200000075709030600600040002508900030032700040,826173594375498261914526783461857329283619475759234618697341852548962137132785946
090000007100006400000847900005001030016480205208960000300000008050279640400530179,694152387187396452523847961945721836716483295238965714379614528851279643462538179
592607000000083000000500460600402005700000193085010000430090517001070028260008030,592647381146983752873521469619432875724865193385719246438296517951374628267158934
042093000003000508709160003000024070000608302050070001060900805300400160120750900,542893716613247598789165243831524679974618352256379481467931825395482167128756934
000010000030008402640090053760400000002070804500103090003040029097026005000500010,275314986931658472648297153769482531312975864584163297853741629197826345426539718
032000690705000108100560700408025007950687004000400003081093020200041000009000000,832174695765932148194568732418325967953687214627419583581793426276841359349256871
000070065003890000427000008100004300090360472000000056070128004009005000518900003,981473265653892741427516938162754389895361472734289156376128594249635817518947623
078501000954080002300060700062057009000300005830094610006000080000102000009008534,678521493954783162321469758162857349497316825835294617746935281583142976219678534
003405007000203480290008300760000508500000020000104090030800610016009075002060900,183495267657213489294678351761932548549786123328154796935847612416329875872561934
490006023207000000530108000058209760300004015004000000070080402910060070000090630,491756823287943156536128947158239764369874215724615389675381492913462578842597631
008532004050000300201067009607050030040003000009200860103000608400180050002000907,968532174754891326231467589627958431845613792319274865193725648476189253582346917
070040850010006409280003071301504000040600102900000060000097285008000000702031900,679142853513786429284953671361524798845679132927318564136497285498265317752831946
001000002043000085080245100000602070709150060030080200810000640070560008094030000,561378492243916785987245136458692371729153864136487259815729643372564918694831527
004018000009070000080003102000520700560000008010004065020009041057081906000462300,274618539139275684685943172948526713562137498713894265326759841457381926891462357
