020490008005080961000000340082900035040003690009517000000060000030204070857100020,623491758475382961918675342782946135541823697369517284294768513136254879857139426
010005800000610020674020059300800006009030000820400075050003080490006007030092041,213975864985614723674328159347851296569237418821469375156743982492186537738592641
005630007070000092140800000410000005003018060650007203700940600089020071000001530,895632147376154892142879356417263985923518764658497213731945628589326471264781539
500803206017040005360200000024006000803700109000385000081000074000917020600030050,549873216217649835368251497724196583853724169196385742981562374435917628672438951
006390000800605300509014000000400073907020186300009050400802010005007640010000205,176398524824675391539214867652481973947523186381769452463852719295137648718946235
010850004260007090008400213070019648000000907600040000107360000509204030000080500,913852764264137895758496213372519648841623957695748321127365489589274136436981572
030120700080600050670049308100003900356801200000200000208470009060000074009085010,435128796982637451671549328124763985356891247897254163218476539563912874749385612
207000400940600078080050900003008050000062007420007603105030080000900260700045010,257189436941623578386754921673498152519362847428517693195236784834971265762845319
380540600000700030062100509026000003800460051107005002073000080400980006000274010,381549627954726138762138549526817493839462751147395862273651984415983276698274315
009003065600820403000590200001050000007902038040000056000080000054100007180064029,729413865615827493438596271391658742567942138842371956976285314254139687183764529
001720690360000780009080003800104230006000050040059800210630000003900100407805020,581723694364591782729486513875164239936278451142359867218637945653942178497815326
007600500065040702000001004190020006703000400006509801000900230831070060029860000,417692583965348712382751694198427356753186429246539871674915238831274965529863147
000005600003079041900416000217800000305900080000061030800050460004000207100703890,741385629683279541952416378217834956365927184498561732879152463534698217126743895
400006900005720001087051600502008000009000400000070023063090050008403700900012806,421386975695724381387951642532648197719235468846179523163897254258463719974512836
000031200002700043100040095480000000201058609053270010800300020005010000604907058,749531286562789143138642795486193572271458639953276814897365421325814967614927358
076008400403050600000009000090400800280003015365071900750000100000092370000004028,976238451423157689518649237197425863284963715365871942752386194841592376639714528
000080900430502007005001000000950010860003002104000070200800005913720084007306090,621487953438592167795631428372954816869173542154268379246819735913725684587346291
800004530000001069364000020015740080000850200020009706900208015003000004007060890,891624537572381469364597128615742983739856241428139756946278315283915674157463892
010800200608574900300000040290006800060930007500001030004020765900010002030008100,415893276628574913379162548293746851861935427547281639184329765956417382732658194
905020060000004508816050007207090000080000000601005034300970016000003072400068009,945827163723614598816359247237491685584736921691285734358972416169543872472168359
900400005300026000481007900500634010720009004000200830619000003000708400004100052,962481375357926148481357926598634217723819564146275839619542783235768491874193652
005007810049100053078500029030970040402060305000000108010240000207300060960008002,325697814649182753178534629831975246492861375756423198513246987287359461964718532
000058000400000901608002730000700040001086020702593800090000053860070104050309600,379158462425637981618942735586721349931486527742593816197864253863275194254319678
000216008907080205000079030360001009020804500105300007000000800004025300070600041,453216798917483265286579134368751429729864513145392687631947852894125376572638941
040950000097030210800002006209560030010080004000300607063810050450000009001740008,142956783697438215835172946279564831316287594584391627763819452458623179921745368
006001905708000630030500024000006180807940000200100703105482006090600000000009257,426831975758294631931567824543726189817943562269158743175482396392675418684319257
089005002000400039130200470008057906070000100502604000024910750000000860601300000,489735612267481539135269478348157926976823145512694387824916753793542861651378294
070040006059020310062803070040300900000015000800000060003100590625400081010070002,378941256459627318162853479541386927296715843837294165783162594625439781914578632
901600780000030010006008002000097308405210000030400025204009007850001409607850000,921645783578932614346178592162597348485213976739486125214369857853721469697854231
008005070050071003420900000860030050000000039075106240000060000004307190002804067,138645972956271483427983516869432751241758639375196248713569824684327195592814367
580040090096080301200106007004607100019035470000009058000300020400268000005074000,581743296796582341243196587854627139619835472372419658968351724437268915125974863
100000003080900546069700020090010007350640800007508301002005080470060000600002019,124856973783921546569734128896213457351647892247598361912375684478169235635482719
009074560008200900300008104702050409010030000006087010200700005050060200400009873,129374568648215937375698124732156489814932756596487312283741695957863241461529873
020109086084007200070000059102008090430052007000600305860020040009030070300800100,523149786984567231671283459152378694436952817798614325865721943219436578347895162
240079030000000065000853904500230100160005008097480200000000070900360000600027013,245679831839142765716853924584236197162795348397481256423518679971364582658927413
893040700150096200000050080000201009671900005280005040700000000000368007004007310,893142756157896234426753981345281679671934825289675143738419562512368497964527318
000972060050040200071630804005000003000501080086007100004200005098006300130009070,843972561659148237271635894915864723327591486486327159764283915598716342132459678
049100035080020000507000910035980026406000000010230004601003000000600793000075040,249167835183529467567348912735984126426751389918236574671493258854612793392875641
205000070000009386000674000040801200531090000007060095070000450000137000980200013,265318974714529386398674521649851237531792648827463195173986452452137869986245713
070302500100000008004800906207000400003070081980006000002047039010500860006901205,678392514195764328324815976267158493543279681981436752852647139419523867736981245
001320509002046000407890000000065021030100704040000080580000260024038100600900070,861327549392546817457891632978465321236189754145273986589714263724638195613952478
200980070040020005805100036006010080780403062000008503530090007000002140902060000,263985471147326895895147236356219784781453962429678513534891627678532149912764358
076203000008006140390050060080100070430027805000090300000500019200784500760000002,176243958528976143394851267982135674431627895657498321843562719219784536765319482
590600018000000020420500907670050009001403000050068030800000276000219400300780005,597624318136897524428531967673152849981473652254968731819345276765219483342786195
900207000708001035002560094031804600000050400020076051006302000480009060009000180,945237816768491235312568794531824679697153428824976351156382947483719562279645183
100300005007004000094020860028050003000006050016700490800490210900032007065100030,182369745657814329394527861428951673739246158516783492873495216941632587265178934
000040002407003910000705080003986000100024007052070064006000050390010200010809030,539148672487263915621795483743986521168524397952371864876432159395617248214859736
010970200060014085400003007200800500000002003100067004508340900790000002040000600,813975246967214385452683197274831569685492713139567824528346971796158432341729658
040980703500076002006000091082001009690328000405000000923750800100260040000000035,241985763539176482876432591382541679697328154415697328923754816158263947764819235
006012000802064050103870000700000123290605700030007000000280405000900016004001308,946512837872364951153879642765498123291635784438127569319286475587943216624751398
000085091000400726390700000000072008600500003080309410108004200570006000923000500,247685391851493726396721845439172658612548973785369412168954237574236189923817564
920703005015060020037040090000400900600075010508201067700108000300000206009030140,926713485415869723837542691173486952692375814548291367764128539381954276259637148
050100090360090420400002008100007960040300700009086005700560010005020340008701000,852174693367895421491632578183257964546319782279486135724563819615928347938741256
004700800300804005900003120038070902100400600006980300605000070002060010400018560,254791836361824795987653124538176942129435687746982351615349278892567413473218569
070001030006200700300040065480059007050610800009008020064700901290500000830000054,975861432146235798328947165482359617753612849619478523564723981291584376837196254
037090100080050003406700020300002041240003900758000060090410208100605004000009005,537294186982156473416738529369572841241863957758941362695417238123685794874329615
005780001006002907030901020850630002000005690091000400000800104102060030087004005,925786341416352987738941526854639712273415698691278453569823174142567839387194265
400805300090040062200300810038070000000190785000406001306200490540910000002000007,461825379893741562275369814138572946624193785759486231316257498547918623982634157
000000280000603045105090007000000003309012500060075014006500001407089306903006870,634751289798623145125894637541968723379412568862375914286537491417289356953146872
000075630000020045046001008003000080480260070710000900905340012031000006060809000,128475639397628145546931728653197284489263571712584963975346812831752496264819357
000061024000009708527300900900800001300090065014070802481600000060020003003405007,839761524146259738527384916952846371378192465614573892481637259765928143293415687
840603002009800030300095070705380040010000820080159007500001006206040009000270000,847613592659827134321495678765382941913764825482159367574931286236548719198276453
006702004790680000000093800050174090100008006273500000800000145065000030901240070,386752914794681523512493867658174392149328756273569481827936145465817239931245678
580010360104900000007052000406809005200500900009030017060420800700000023000607590,582714369134968752697352148416879235273541986859236417965423871748195623321687594
000600000500070030183020900600090005405708210017034000040001680002900350000086079,974613528526879134183425967638192745495768213217534896749351682862947351351286479
940056001080340600502900700010807509000620000000000430790063000038001020000409017,943756281187342695562918743214837569359624178876195432791263854438571926625489317
001089030830100207960050000000700983090020504043000006000002460004801002107006850,471289635835164297962357148216745983798623514543918726389572461654891372127436859
300079000060000001109500004008007010500402803002053070090034502600080009845090300,354179628267348951189526734438967215576412893912853476791634582623785149845291367
000060859100027306000400700080010004064035000703290600070000090040600528290100007,427361859158927346639458712582716934964835271713294685876542193341679528295183467
051000039460105070080024000604007008300001000002800601005908200030600150700500004,251786439463195872987324516614257398398461725572839641145978263839642157726513984
308206000007900054029071000003807019400020700806009300105000608000604007000530090,348256971617983254529471863253867419491325786876149325135792648982614537764538192
800000004130000002000650710500400879090230000060780000010074050004506230070090061,857123694136947582249658713523461879798235146461789325612374958984516237375892461
860530010000600573010002000006900005001860407534007600409001000000009340050000208,867534912942618573315792864786943125291865437534127689429381756678259341153476298
748200000060004030000180600000000907300096020205400003081570090030008051907030002,748263519169754238523189674816325947374896125295417863481572396632948751957631482
007053080006102090010080240009000810400600000521008903100300450080007000695024700,247953186856142397913786245769235814438691572521478963172369458384517629695824731
050087020203010700060003905540000300006004052180006097000421000920000100700050086,451987623293615748867243915549872361376194852182536497638421579925768134714359286
800050006120907800034000070300800295910360004005702001008001000050020630640000109,879253416126947853534186972367814295912365784485792361298631547751429638643578129
024000890009174000100000607807502000300007150002690400030060004000201900060840035,724356891689174523153928647847512369396487152512693478938765214475231986261849735
200900000308017002010000750002050381406030000005098070000600830070020094009103065,257984613368517942914362758792456381486731529135298476521649837673825194849173265
549083000800500002000497000032970500401000008000002609067001040985600071020000380,549283167873516492216497853632978514491365728758142639367821945985634271124759386
800070120000304080506000009020851700017060900000700030209080007040510600060002045,894675123172394586536128479923851764417263958685749231259486317348517692761932845
980501406000002000000843700600005000437080001020030908700000140003067250005019600,982571436374692815156843792698125374437986521521734968769258143813467259245319687
340009200500002048809610700060085170000060000003701450100000600075090082090230004,347859261516372948829614735264985173751463829983721456132548697475196382698237514
010037608870460000003900000037020046260000980004051007025074000000080210000006053,412537698879462531653918472537829146261743985984651327325174869796385214148296753
000020809002905410001006053500801030600003972704000000050240000083000006090300021,375124869862935417941786253529871634618453972734692185156247398283519746497368521
420908000000005013000410809063000207000009005087260000095870034002000050730040600,421938576879625413356417829963154287214789365587263941695872134142396758738541692
070960250409200106010000078380705000205010000007408003004000021900306807060040090,873961254459287136612534978386795412245613789197428563534879621921356847768142395
500400071073900020008053006604000030000807060000610095800000204107009000306082000,569428371473961528218753946684295137951837462732614895895376214127549683346182759
000000400003968070051300000000200100900750003218004000070593006060017025800400000,689175432423968571751342698537289164946751283218634759172593846364817925895426317
090105000004600208003074006800900370020041080400068901730020050002000007015000430,296185743574639218183274596861952374329741685457368921738426159942513867615897432
420683010000500030100002065607000800001009004054200096309478002008901007000050000,425683719976514238183792465697145823231869574854237196319478652568921347742356981
100305046473200100690000008309001020042700000000400085057060904030010070800002060,128395746473286159695147238389651427542738691761429385257863914936514872814972563
020000090098740030401302800003010000004060087080007063000000005510209600006401072,325186794698745231471392856763814529254963187189527463942678315517239648836451972
901008204040000000006037509007103806000004050102900000060702340700085901200009065,971568234345291687826437519457123896693874152182956473569712348734685921218349765
104090570600200000080670900540039068270001409800000100003040700000067021000850000,124398576697215843385674912541739268276581439839426157963142785458967321712853694
018000905700034200020800603031509000040002010805071000570260004904050007000090306,318726945756934281429815673231549768647382519895671432573268194964153827182497356
007009500103006000204300706010762040009008000600400015080030250000500094300907000,867249531153876429294315786518762943439158672672493815981634257726581394345927168
080052067005140098100007005240095010701400900000000720060000432029076080503080000,384952167675143298192867345246795813731428956958631724867519432429376581513284679
300000020070310500004758006000800905026074301109630400040509000061000708803000090,315496827678312549294758136437821965526974381189635472742589613961243758853167294
004076000200903600630084001002300784049010003300508020701000098060090005085020070,594176832218953647637284951152369784849712563376548129721635498463897215985421376
