029001860460830000051090007080000430070200609002509010003070905090014000006000080,329751864467832591851496327985167432174283659632549718213678945598314276746925183
070400290000500008569023001040000086036702500000081320107008040000370000920000860,378416295412597638569823471241935786836742519795681324157268943684379152923154867
004390065000806720000010000900000030017000402062035009050602000203079080008040071,824397165139856724576214398985421637317968452462735819751682943243179586698543271
020008610000000003090316050009070000400100008307900264200407090701020305065030400,523748619176592843894316752689274531452163978317985264238457196741629385965831427
081900057000007810500004302007060001800075200640000000390000005024030006160802709,481923657932657814576184392257368941819475263643291578398716425724539186165842739
670000000008050004200039507100008700403102060090046052029007010010400839580000000,675284391938751624241639587162598743453172968897346152329867415716425839584913276
430050000002064708106070090608200500240009003071006040509800010000030002020001657,437958126952164738186372495698243571245719863371586249569827314714635982823491657
300100005080000002000683090004000059839020071605070430090800100510030007700409080,347192865986745312251683794174368259839524671625971438493857126518236947762419583
020070064100859000380000010500081970000205006836000000009000700073048000410060025,925173864164859237387426519542681973791235486836794152659312748273548691418967325
064001700010079040580000290000702000009054608408030005091240380370600500000310000,964821753213579846587463291156782439739154628428936175691245387372698514845317962
076900004000300850508020000000809036100450007040730020300601095020000140905000603,276985314491367852538124769752819436163452987849736521384671295627593148915248673
010002600700948150500000040203070000000003080008109206000400810059001003040300967,914532678736948152582617349263874591195263784478159236327496815659781423841325967
000805630700012004085070900007000800130006029540007003063020071250000300001940000,412895637796312584385674912627139845138456729549287163963528471254761398871943256
050720004491000002008003560203000800007000639000015000602490050905068400180000700,356721984491856372728943561243679815517284639869315247632497158975168423184532796
076409020240530900010080005080750001053000060004000089020300000001200734607008100,576419823248537916319682475982756341153894267764123589425371698891265734637948152
030008000002135070800040600040600938780010020590000001910020000000070405307090160,139768254462135879875942613241657938783419526596283741914526387628371495357894162
004072000800900100050000946020809003009024087500700010671050300380000020400030065,914672538863945172257381946726819453139524687548763219671258394385496721492137865
905070040416900200000806010039000405870060030000002000100700093208003000360450180,985271346416935278723846519639187425872564931541392867154728693298613754367459182
098000705030010060605870020020409008380060050000030001001000549050006007004002030,498623715732915864615874923126459378389761452547238691261387549953146287874592136
420090010800005047059080320010023500600100000080700009005610408090500070000004003,426397815831265947759481326917823564643159782582746139375612498294538671168974253
089020007700000093001500086500300700000610352062007040400900600906040001150080020,689423517745168293231579486514392768897614352362857149428931675976245831153786924
002041000070003050600900080800120700450090106090607830060005210023000040904080000,382541967179863452645972381836124795457398126291657834768435219523719648914286573
080300700901078004003009062000400208060500000730002010042003109805090070000016405,486325791921678354573149862159467238268531947734982516642753189815294673397816425
780005000000980502024607903400501006900040200001000035090006800000170000050392001,789235164316984572524617983438521796965743218271869435193456827642178359857392641
023018000000560400470000800001005023000690004008340070064003010300800905295000060,523418796189567432476239851941785623732691584658342179864953217317826945295174368
000000060020401703079300005000002490084000357197000800306120500010740008008960040,831257964625491783479386215563872491284619357197534826346128579912745638758963142
000050300068290405004801200940580002000000100875030000190000070000005603023460890,219654387768293415354871269941586732632749158875132946196328574487915623523467891
058004300390000014016000280200365008640090020000020700003000005000703690507046001,758214369392678514416539287271365948645897123839421756963182475184753692527946831
015207609072090040030600010003009708028500460000102000000040006564008300000700850,415237689672891543839654217153469728928573461746182935287345196564918372391726854
010208600500073000020000004760009015008010003009450080040507038003921000000080096,317248659594673821826195374762839415458712963139456782941567238683921547275384196
004071900000520680960300000002050709000006040603900105100094002008002030407100800,284671953371529684965348217812453769759216348643987125136894572598762431427135896
000070004830900020260050108608300000510006800070002040190800003420107006005030900,951278364834961725267453198648319257512746839379582641196825473423197586785634912
003000970608004021075090004020001350000930000100207060050009280700800400009605010,413562978698374521275198634926481357587936142134257869351749286762813495849625713
219003400807900005003704200080000009190000060070802504050067182600008000000510300,219653478847921635563784291485136729192475863376892514954367182631248957728519346
003700000800006500105290048501908704000100390020067000000041020469500007008000030,643785219892416573175293648531928764786154392924367851357841926469532187218679435
251000000000035004000800060040097210008600700093000040012008093400500076306410800,251946387867135924934872561645397218128654739793281645512768493489523176376419852
020053700001800045670000010030690100400000039100007502043700650000542080908000000,824153796391876245675924318532698174467215839189437562243789651716542983958361427
073002000490300020500061700701000000020040360005908004000054608600700209038010050,173892546496375821582461793741536982829147365365928174917254638654783219238619457
120300005006109870800006903370508040040970050600002100900000600064020700000004038,129387465436159872857246913371568249248971356695432187983715624564823791712694538
090031060312006075005000400001800040620070008530904007000143080740000209000207000,497531862312486975865729431971862543624375198538914627259143786743658219186297354
160308090400090000003000701908507400201009370506420000002800903000140800700006002,167358294425791638893264751938517426241689375576423189612875943359142867784936512
302000000015638700040150090709000018000094036600805002408009300120076050000300007,362947185915638724847152693759263418281794536634815972478529361123476859596381247
095080207480000000600504001306008095058900000020070036001307060800051000070060409,195683247482719653637524981316248795758936124924175836241397568869451372573862419
300000500000034700028100060010002800057400096030950170004009080901070300260800050,346287519195634728728195463419762835857413296632958174574329681981576342263841957
750190003002008900010603020109000865803070100020000007000200400340005016000406508,754192683632748951918653724179324865863579142425861397586217439347985216291436578
700010004046200301009605002200390080054000607000000010801032700070800950360470000,728913564546287391139645872217396485954128637683754219891532746472861953365479128
000005000306090801290000056810030200002500079070106003003008007900400520080670094,741865932356297841298341756814739265632584179579126483423958617967413528185672394
210060040090400731003070000001009250930000070680000009060380024004601080570090100,217963845896425731453178692741839256932516478685742319169387524324651987578294163
000200590500000016800076030782030100004060209010700000030080000640100705100459023,463218597527394816891576432782935164354861279916742358235687941649123785178459623
064905007103080000000120030200000006007016854000853090930000061700002005005490200,864935127123687549579124638258749316397216854416853792932578461741362985685491273
086003014030409006025000000000712050300004180700050690040200308200805070001906000,986523714137489526425167839698712453352694187714358692549271368263845971871936245
000470089605130002004000600000003000152009064063000075019000000207640050500802130,321476589695138742784925613478563291152789364963214875819357426237641958546892137
250040710070000806600900000030005000017008030905003207080620403000100020706080590,253846719179532846648971352832795164417268935965413287581629473394157628726384591
000000500700310082000974030002040005000006100004531709107009800345702006689000000,431628597796315482258974631912847365573296148864531729127469853345782916689153274
040009700250160304001080060090020100000700800407590000020800570310004600608350090,846239715259167384731485962593628147162743859487591236924816573315974628678352491
060000728000000300275000010007030090043900650096841000050294000030010470009067080,364159728981726345275483916127635894843972651596841237758294163632518479419367582
090000000720900815805000760019600450040008320008300001076010092002065003000040000,691587234724936815835421769319672458547198326268354971476813592982765143153249687
290000607150003009008600200800010003600200500017006904034800000080401090000072405,293148657156723849478695231825914763649237518317586924534869172782451396961372485
053000460000780501010000080040900100900030640028015009104250030080007002007690000,853129467462783591719564283345976128971832645628415379194258736586347912237691854
600078049000090108092500000000000407710004006068027035500009364000080000023006701,651378249374692158892541673239865417715934826468127935587219364146783592923456781
000005060090300084008079020327100400600500290045600008100020700000960035830004000,413285967792316584568479321327198456681547293945632178156823749274961835839754612
013026709500000010409000500062031080080065100000009204050804003000073002307000890,813526749526947318479318526762431985984265137135789264251894673698173452347652891
004060509090050040000003687030900001027008900000015738600040012040100300850020000,384761529796852143215493687538974261127638954469215738673549812942186375851327496
705000006681400000029810000006009201900240700200060053400923800000100000000075490,745392186681457329329816574876539241953241768214768953467923815592184637138675492
240750000005000003007001090760090430400100008098030050000809070000026085031400200,249753816615982743387641592762598431453167928198234657526819374974326185831475269
680005001001980020070060095002704003500800207000030610120309004096450000000000780,689245371351987426274163895862714953513896247947532618128379564796458132435621789
069050810032400007005029003070003069000001058380004200100708004290000030640000100,469357812832416597715829643571283469924671358386594271153768924298145736647932185
360704250514080093000000000070209608000310500109400000000006000925003004800000172,368794251514682793297531486473259618682317549159468327741826935925173864836945172
170300800000006720504097006800100640000902070702050100381040005600085430005000000,176324859938516724524897316859173642413962578762458193381749265697285431245631987
601400000930025407040060120080092504003740080000003000000000300070816005206070009,621437958938125467745968123187692534593741682462583791814259376379816245256374819
004362000090018020700050030009000060080047900035900407003170200000020045010600308,154362789396718524728459631479531862681247953235986417843175296967823145512694378
050040008204090630701005004000060380090020106073008002020300040536100900108070000,359642718284791635761835294412567389895423176673918452927356841536184927148279563
008300207460058090009001005003020610005060004780000020300040800072100046050002300,518394267467258193239671485943527618125869734786413529391746852872135946654982371
580409200069705008300000000008007610020300970045600800106000003090020007070540006,587439261269715348314862759938257614621384975745691832156978423493126587872543196
007201030900050701000600840000083270006004010738000900054907600809036005203010000,687241539942358761315679842491583276526794318738162954154927683879436125263815497
045610000010408003003090800000000960904206030060170085080000070500004129206750000,845613297719428653623597814178345962954286731362179485481932576537864129296751348
030060007410800090700400580060080000900730065280091300004205000009000102003940006,538169427412857693796423581367584219941732865285691374674215938859376142123948756
000806004091030700700510030510490006320600080009028350470000900080000023006100500,253876194891234765764519832518493276327651489649728351472365918185947623936182547
000020470080030290003400005040060002106280050005093600010000900859600030370041080,561829473487536291293417865948765312136284759725193648614358927859672134372941586
200004900600370500050620083007080000000007051009003604020100490841500060306008020,273854916618379542954621783167485239432967851589213674725136498841592367396748125
360240001000007980050003600890001250420070008005009030040086000007090004602530710,369248571214657983758913642893461257426375198175829436941786325537192864682534719
001906003080070040340150020060090000007000850903002760700400200592080070016005308,271946583685273941349158627864597132127634859953812764738469215592381476416725398
050109600008064320040030715400900076006002000805000940200001050010300800903700200,352179684178564329649238715421983576796452138835617942267891453514326897983745261
060350070230017084005000600070001846094030015000080090000062001001094720950000000,468359172239617584715248639573921846894736215126485397347862951681594723952173468
270030096500204081031900000093058004000009870000460000010007000784100023026000500,278531496569274381431986752193758264642319875857462139315627948784195623926843517
050600000007430290400019037200300005008000910060207800049000020071000458080106300,953672184817435296426819537294381765738564912165297843349758621671923458582146379
000720010094000570700005986000074003008900040502310000009001600601030290030806450,865729314194683572723145986916574823378962145542318769489251637651437298237896451
040100000709800030085040702300790020006000400000500918000081096024003051890620007,243167589769852134185349762318794625956218473472536918537481296624973851891625347
003000001090508360170040050000060280052000000809270100600004079040780030028903004,583697421294518367176342958317469285452831796869275143635124879941786532728953614
751082000000090000006104200085300607037050002400001580060070100200000354900800706,751682439342597861896134275185329647637458912429761583564273198278916354913845726
300070908905010002000080040790200601001960300004000020000007060003425107507006480,346572918985614732172389546798243651251968374634751829419837265863425197527196483
000140082070300000600508910054030000800000075000960028010482037300090050426000001,593146782178329546642578913254837169869214375731965428915482637387691254426753891
900003420000697000071000800720950100080000053000004600430000290009405080560200700,956813427842697531371542869723956148684721953195384672437168295219475386568239714
007403000090008405050200680005760019082010000170049003000580020034007060600000501,867453192291678435453291687345762819982315746176849253719586324534127968628934571
005604020286003070040080901002810007809200304070045000000900000067000032010700508,195674823286193475743582961432819657859267314671345289528931746967458132314726598
001006300004702010030010570000370005800004907200005000507490008020000409100208060,781546392954732816632819574496371285815624937273985641567493128328167459149258763
302600000000000058460095000010800004605003780907060300020437001790200030800910005,352681947179342658468795123213879564645123789987564312526437891791258436834916275
000001006000800509703005020400057800060309400020640053050080001200000748001496030,945271386612834579783965124439157862568329417127648953354782691296513748871496235
005200804640800300030005000700030020860000140001500009900008006010402500002071093,195263874647819352238745961759134628863927145421586739974358216316492587582671493
007200306620050000983100000130000009009001627000408500504026070070000400010003985,457289316621354798983167254135672849849531627762498531594826173378915462216743985
