240809070300504000089310600600700208010080064052000793000203000005000107907400020,241869375376524981589317642694735218713982564852146793168273459425698137937451826
400605010002007040106820000040030600320000890005480070050109402000063009070000051,437695218582317946196824537748931625321756894965482173853179462214563789679248351
093451000261703000500000080005600040380590200000000709006047002020100906030006014,893451627261783495574269183915672348387594261642318759156947832428135976739826514
003007084010003605258001000800090400049060003600700092500400318007056000091200070,963527184714983625258641937872395461149862753635714892526479318387156249491238576
060573090400010200073400000008000734007209006100008500612950080000000000530087140,261573498495816273873492651928165734357249816146738529612954387784321965539687142
000096514000030060200010008871900050004000800003400076040607090602003005087500041,738296514419835267256714938871962453564371829923458176145687392692143785387529641
009000020071002400050148300000286000180900000502003790300504080900070053620000100,439765821871392465256148379793286514184957632562413798317524986948671253625839147
400800095070063004801500000050207810900006300127000500002090060784010000500008270,436821795275963184891574632653247819948156327127389546312795468784612953569438271
400130290070800500000056700708090610003578000000020003057310008936000040010902000,485137296672849531391256784728493615163578429549621873257314968936785142814962357
900005000004092000203000180061009400000821760508700903040060050190050074800003002,917385246684192537253674189761539428439821765528746913342967851196258374875413692
002601840005700690760008000003270000007000504904310000039000002400030018100096703,392651847845723691761948325653274189217869534984315276539187462476532918128496753
600002000070005001509037200005008047130040800020600009018020095700800430003790600,641982573372465981589137264965218347137549826824673159418326795796851432253794618
300406087070010000806000502000102040001009803609500020560040030030060095004008100,315426987972815364846793512753182649421679853689534721567941238138267495294358176
460809100001300870000000403000060000210984005700203009040051020050000067837600000,463879152921345876578126493394567281216984735785213649649751328152438967837692514
070086205204500000010040300040030090796200500002700081005069470030001008009350000,973186245264573819518942367841635792796218534352794681125869473637421958489357126
000500201600093700070480060954020000010700006020000508007040832368100490500900007,439567281681293754275481369954826173813754926726319548197645832368172495542938617
010050000004700012097034080000310096001400870820600000006090500530207100780000340,618952734354786912297134685475318296961425873823679451146893527539247168782561349
900008000007190023350400010000029300760000102008600407004070080020346500601800000,916238745487195623352467819145729368763584192298613457534971286829346571671852934
038209050514000207609000310200480109403600000000005630000300700070002040000560082,738219456514836297629754318265483179493671825187925634952348761876192543341567982
076002905100000206500930040867000304004800190000005000639028000000090420001503000,476182935193754286528936741867219354354867192912345678639428517785691423241573869
010020075070004802900305410340209080200080960000000001096100000705040020008000634,614928375573614892982375416341269587257481963869753241496132758735846129128597634
000010568200605103000004000040807010003020000080061057570290800009050400301000200,437912568298675143156384729645837912713529684982461357574296831829153476361748295
006810009900705038030000050001400900060001080008600740090007302025060090703102400,546813279912745638837926154371458926469271583258639741694587312125364897783192465
002016304004089052750000900100000007006390010000004520030070800090830060210040090,982516374364789152751423986149258637526397418873164529635972841497831265218645793
005040900000800321000170050061004082090000100083500007200006410670008005059030000,815243976947865321326179854761394582592687143483521697238756419674918235159432768
001500900097010005800400026930000480000006000542003709080200034600074002300050010,461532978297618345853497126936725481178946253542183769789261534615374892324859617
007605010010090075030021400500800003046000507309062840063008200902040080000000709,497685312218493675635721498521874963846139527379562841763918254952347186184256739
080200605907000021120780400200030740700860103001004090400600080003010500506900000,384291675967345821125786439258139746749862153631574298412653987893417562576928314
004050002900407003030821005020904010015080000460700300008003009000000600070602041,184359762952467183736821495827934516315286974469715328648173259291548637573692841
001000042600030078005706000073850001010060090004907005090120004087005100000004839,731589642649231578825746913973852461518463297264917385396128754487395126152674839
100025640700010020009006000840100005000008703300600900580701000060030470203089050,138925647756314829429876531847193265695248713312657984584761392961532478273489156
025003000700200906630008200007500061900004000400700580000080000003040078801692304,125963847748251936639478215387529461956814723412736589564387192293145678871692354
090000000070530016403871200048000000000602009209380047000000960080210050107064003,591426378872539416463871295648197532735642189219385647324758961986213754157964823
576800000030050908000020060080600201701004006900030870090500342002007000048091650,576819423234756918819423765483675291721984536965132874197568342652347189348291657
020506001080097004400000900007409805006130009003000010572080000060905407100200060,729546381681397254435821976217469835856132749943758612572684193368915427194273568
091507408000620000028000050386700100100002700005900640002000530060009007400013800,691537428534628971728194356386745192149362785275981643912876534863459217457213869
500100780002050039090346021000509002040281050007000900930008070100060005076020040,563192784412857639798346521381579462649281357257634918935418276124763895876925143
092150600060700400108090005010500004637200050000081300400062070325000900900030180,792154638563728419148396725819573264637249851254681397481962573325817946976435182
000200030107409600080000507008700302420006080900005100002087006014360009050094070,645278931137459628289613547568741392421936785973825164392587416714362859856194273
000900708290400003503021600010040032006000400050078900000700001084250060007603580,641935728298467153573821649719546832836192475452378916365784291184259367927613584
490780010000602900002004038085003600007000340000200071500100009700560080906000027,493785216871632954652914738185473692267891345349256871538127469724569183916348527
070026050009005400013800002057400300030019247920300800082000006641000090000078000,478126953269735481513894672157482369836519247924367815782941536641253798395678124
016038000000074900093520040002180507130000080009000002805006029024010063000700008,416938275258674931793521846642183597137259684589467312875346129924815763361792458
080240379006000004000390801058070000210000600630180907029050000001007483000400200,185246379396718524742395861958674132217539648634182957429853716561927483873461295
350400002804002060009100400090080500060000037007024001201530600603000900070000080,356498712814752369729163458192387546468915237537624891281539674643871925975246183
000700080529000600600300041000509000260008703040072058096010000370004902800060310,134726589529481637687395241718539426265148793943672158496213875371854962852967314
005160403093000052000300000900800000080050270400206309140070620000001800720540001,875162493693784152214395768962837514381459276457216389148973625539621847726548931
300000080001045006720800905108900000509067020000003600004070500083009270050018090,345796182891245736726831945168924357539167824472583619914372568683459271257618493
002600805000059000040180000600420001094068000073000400300090520810006379000507060,932674815781359642546182937658423791194768253273915486367891524815246379429537168
130060080090500000000004109000612005004008026007450910006070800020000037050309402,135967284498521673672834159983612745514798326267453918346275891829146537751389462
071003020500020008000060597730051600002830704080000910060080000043006805200940001,871593426596724138324168597739451682612839754485672913167385249943216875258947361
050200001708600095000074086500007038003050160007086900920000070600001804034002000,356298741748613295192574386569127438283459167417386952921845673675931824834762519
000700010500094260000053009007068030052017090006900040480006100125000800063020050,694782315538194267271653489947268531352417698816935742489576123125349876763821954
020091060800705000000000590000436007019270050040009806504800170000060300381000040,425391768896745231137682594258436917619278453743519826564823179972164385381957642
008071004500000208310800600035790100007302000600010050400000305000289060260040907,928671534576934218314825679835796142147352896692418753489167325753289461261543987
008162090004003160020400350040037206700504000809000004000028710006090043580000000,358162497974853162621479358145937286762584931839216574493628715216795843587341629
960000034740060900002800005001900580030054007029007001050230760000071028000000003,965712834748365912312849675471923586836154297529687341154238769693571428287496153
020094060600020070013700800040105306738000000050200790060000058004900100900580002,827394561695821473413756829249175386738649215156238794362417958584962137971583642
530900400600002081002100709000805000000040690097020034164030820008506000000080170,531978462679452381482163759346895217215347698897621534164739825728516943953284176
000150068700000050100008300850200070090630400004709000002064910580010740900003006,439157268728396154165428397853241679297635481614789532372864915586912743941573826
000089360057600010308500207000001740009208001230070000070906000600042800013050009,124789365957623418368514297586391742749268531231475986872936154695142873413857629
000300910020985400600012800078009050201000703960030004480520076000470100000603000,857364912123985467694712835378249651241856793965137284489521376536478129712693548
900000400052000001008420005010394070820010360700800004000630000507009030061780042,976158423452973681138426795615394278824517369793862514249631857587249136361785942
007000009900807025508300100026500040000001207003460500800205306040090708600003010,217654839934817625568329174126578943485931267793462581871245396342196758659783412
003600700527000018010000450008073900300206000600054380100098046004000091060000207,483615729527439618916827453248173965395286174671954382132798546754362891869541237
000004000300792050000500179600021007900800004051900803130070020020030608045069000,597614382318792456462583179684321597973856214251947863136478925729135648845269731
008001007003020100040070069067300040000500020302108900700605300200089004190004005,628951437973426158541873269867392541419567823352148976784615392235789614196234785
000002530026000074473069001001030408240001700050800069700906010900280000800040305,189472536526318974473569281691735428248691753357824169734956812915283647862147395
790501008002000140600300005030090704070130000259800006000000060300002450814007009,793541628582769143641328975136295784478136592259874316925413867367982451814657239
804700010000010506057009082075300001930800050600001904340080000009050040002006703,864725319293418576157639482475392861931864257628571934346987125719253648582146793
082060007306800405000003009000450013057901200003076000000602080194007600208090004,982564137376819425541723869629458713857931246413276598735642981194387652268195374
067089502810000003005400000004203070009008060080967200500600130030070005200100908,467389512812756493395421786654213879729548361183967254548692137931874625276135948
068000000040006302210795000000080904035400700001200068900603000007140650050002843,768324195549816372213795486672581934835469721491237568984653217327148659156972843
009000520106009307000260010000043901300500008047100230003021000900684000780000060,479318526126459387538267419265843971391572648847196235653721894912684753784935162
602030000030050740080201000408120006006704190500009000000600821203900000071000600,652437918139856742784291563498125376326784195517369284945673821263918457871542639
070830009600507300081900500810004970009103002205060080403602000000000425000010700,574831269692547318381926547816254973749183652235769184453672891167398425928415736
900000003410032050002608001205000060060001700148009000703085940000000218000026005,987514623416932857532678491275843169369251784148769532723185946654397218891426375
600507008002040000703900164809200530004090010500618092300000000108000750000023600,641537928982146375753982164819274536264395817537618492376851249128469753495723681
902000807048000506150300000004800009076501000200067080700903400030620001000010092,962145837348279516157386924514832679876591243293467185721953468439628751685714392
208005093070901605000400700005000840003076020901000007040302560090000100500810009,218765493374921685659483712725139846483576921961248357147392568892657134536814279
010004597000106000007890002800000160004500003203607080902000058350040000706003200,618324597529176834437895612875432169164589723293617485942761358351248976786953241
041800503600049780002006000000032600097000058004570900005700100080001020030290074,941827563653149782872356419518932647397614258264578931425783196789461325136295874
020500800170040090030062005810600740200030500000001069400000003709850100050024608,624519837175348296938762415813695742296437581547281369482176953769853124351924678
005704000300002089010000520800041356050008010004036000000000030902005608067090201,295784163346152789718369524879241356653978412124536897481627935932415678567893241
500300000920070650041209008000096100700400000006000583004035010008002097360700200,587361429923874651641259738832596174715483962496127583274935816158642397369718245
010000009806240070040005080060059008150003060003800002700906010500078300039000047,315687429896241573247395681462159738158723964973864152784936215521478396639512847
360400100700005030008906040010600902420070300005018700070800010609000400500392008,362487195794125836158936247817643952426579381935218764273864519689751423541392678
700034006300090050245607030103006700000020501050480900009000380801200000062000094,798534216316892457245617839123956748984723561657481923479165382831249675562378194
000328910000000060024000705035040801801090030070003400710809006050760200600250008,567328914189475362324916785935647821841592637276183459712839546458761293693254178
930010074050973600000002100006085000240006007103400900074060890008700052000054010,932618574451973628867542139796385241245196387183427965574261893618739452329854716
410800705035000024600700000802065001070090032000120080000080090501600000397040008,419832765735916824628754319842365971176498532953127486264583197581679243397241658
500000269069008000070010040020804096004070003907056010003100050050000007741360082,518743269469528371372619845125834796684971523937256418293187654856492137741365982
260300001100200790080094000030010028510780900004500300600000000900670845000032076,269357481145268793387194652736419528512783964894526317671845239923671845458932176
627300000040000361910850400080100549000967003000000020002500008005048097071030000,627314985548792361913856472786123549254967813139485726492571638365248197871639254
701060200940000007082010543060320010000000070000005809008094630020708000109056000,751463298943582167682917543867329415295841376314675829578194632426738951139256784
000090200014006007560002380007085090600403008045100700908020065300600400050010020,783591246214836957569742381137285694692473518845169732978324165321658479456917823
800000261030500400002017009400250000076040950100306800509030080008020746000001000,857493261931562478642817539483259617276148953195376824569734182318925746724681395
507693004040500007080010300103780006402001780000200009010300560008002003706050020,527693814341528697689417352193785246462931785875246139214379568958162473736854921
001000026300079500205000070009187300003040050460020000700815040090000080100600002,971358426346279518285461973529187364813946257467523891732815649694732185158694732
002107069000092013007050040000800350603540071010600000085710002034000000000008490,342187569856492713197356248479821356623549871518673924985714632234965187761238495
