080500003005032410031004095017980000004005006806200700600100957020000000109003024,482519673965732418731864295317986542294375186856241739643128957528497361179653824
327900800005000719010046050070301000230450000009802406602000003080007001040023000,327915864465238719918746352874361925236459187159872436692184573583697241741523698
800017030901204080000300050570400809004968000000500620003020040017006503050090007,845617932931254786762389451576432819124968375389571624693725148217846593458193267
040058067003020000070010900200001480060005300301690702050070009800000204109803005,942358167613927548578416923295731486764285391381694752456172839837569214129843675
900030647006008003050704020100000705070500438000007090009806050083090006400200001,928135647746928513351764829194382765672519438835647192219876354583491276467253981
007000243000762000100900000900218005430000000020090087804100092000476058053000160,697581243345762819182943576976218435438657921521394687864135792219476358753829164
020003109003180050500004000007000310302001060008706900409050001070609804600200700,824563179793182456516974283967425318342891567158736942489357621275619834631248795
560020070027430091001080600005860000070100800690500043432000710000009054100200006,563921478827436591941785632315864927274193865698572143432658719786319254159247386
090030024408905600713020000000391007060000908000850010074500800000007240105000036,596738124428915673713624589852391467361472958947856312274563891639187245185249736
090000507807600230010300040900540012502061800040003600675080000403009000100000725,394218567857694231216375948968547312532961874741823659675182493423759186189436725
080427009050000710049000003600900800807001000100500062072605038003000906000013540,381427659256839714749156283635942871827361495194578362472695138513784926968213547
030209600105000984608005000000320060500007021040501003007430009009010800006000247,734289615125673984698145372971324568563897421842561793287436159459712836316958247
010350028408106000003040700030020000706000295850004006000012070905000080061980030,617359428428176953593248761139625847746831295852794316384512679975463182261987534
530010067002806009000300805049521000000403100700060000020000604360780050801090200,538219467472856319196347825649521738285473196713968542927135684364782951851694273
023017000809240070000000006012094030500000048000703001040580790001300080090062005,423617859869245173175938426612894537537126948984753261346581792251379684798462315
007000054008691000123000000000900706500824001014300082200058000300400970000100608,697283154458691237123547869832915746576824391914376582269758413381462975745139628
009307800067090003025000006080003610000170320040020085050002401900006000230984007,419367852867295143325841976782453619596178324143629785658732491974516238231984567
020009000074150306680000005400078051008906003230000090000040800003701000596200040,325869714974152386681437925469378251158926473237514698712645839843791562596283147
030800004000009350075400001352060900009002010100070008207004500800030062060081400,931856724428719356675423891352168947789342615146975238217694583894537162563281479
008061503579800600000902400085400001760000000000005320041008030050300009200074106,428761593579843612136952478385427961762139854914685327641298735857316249293574186
001305027704000910800000006670000200000090530130804000000500042480706090096002300,961345827754268913823971456679153284248697531135824769317589642482736195596412378
090062010004008370725000009007010038400000000608095140000420600000503700089100005,893762514164958372725341869957614238412837956638295147571429683246583791389176425
720000010800501307000006900070080090690037008002905046010860420004109005030004001,726398514849521367153746982475682193691437258382915746517863429264179835938254671
100972084007038090300000005000600903000001670480090002910053000800060200054700031,165972384247538196398416725721685943539241678486397512912853467873164259654729831
002030108100607504003098076920050000600700801401000300090206000007480000050003402,762534198189627534543198276928351647635749821471862359394216785217485963856973412
008406009060030810031050002900300475702004600000860900020089540005100000003200087,278416359569732814431958762986321475712594638354867921127689543845173296693245187
873050002010004000009027680104008090000200008302100057900070005460013000708506300,873651942216984573549327681154738296697245138382169457931472865465813729728596314
902800015007300060010405030604001790200000800753090002009500000408036000000074609,932867415547319268816425937684251793291743856753698142169582374478936521325174689
008140007000020465500960010300000082000570300916000000170200009040030620609008073,268145937791823465534967218357694182482571396916382754173256849845739621629418573
058000039300004105900070080007260000006500901429000500070108300685090000000426700,758612439362984175941375682517269843836547921429831567274158396685793214193426758
000384700002071409000000010500009000840050102900610300600007051030940860785002000,159384726362571489478296513513429678846753192927618345694837251231945867785162934
000300740008021000605040208200967030501000000300004809000100090470206500900085367,129358746748621953635749218284967135591832674367514829856173492473296581912485367
806700490000008105021300000040030002207690050008051006030400501109000030504000870,856712493473968125921345687645837912217694358398251746732489561189576234564123879
001300790080907600700040350604003000008120003530806009400080072090050800020700400,241365798385917624769248351614593287978124563532876149453681972197452836826739415
105080700009001000430070508000004002006050400780300690000706050591030060020100804,165283749879541326432679518953864172216957483784312695348726951591438267627195834
476500020398000600500090080010070809002060057800300040060004000140850370205900001,476581923398742615521693784614275839932468157857319246763124598149856372285937461
305000062000900000740008500098100056050000720106302004002403080000086100064507009,385741962621935478749628513298174356453869721176352894512493687937286145864517239
000004700009060280068079003200085071000002005340910000510700300007020840902036010,123854796759163284468279153296385471871642935345917628514798362637521849982436517
400000827002004000790010500307100082100073050009602000050307091200009340006800200,415936827682754139793218564367195482128473956549682713854327691271569348936841275
020090800190460075007000000040503109002040500530082006001830002000710980306005000,425397861193468275867251394648573129712649538539182746971834652254716983386925417
900582007003001026080703010040025000007300908090100030072659000610007004800000075,961582347753491826284763519348925761127346958596178432472659183615837294839214675
000009000100580026070000005502100490930050610080067500004010003608002000003706804,825679341149583726376421985562138497937254618481967532794815263658342179213796854
500000104000635079860700020070059000091008007300260040004000005703490200028001030,537982164142635879869714523476159382291348657385267941614823795753496218928571436
506010002200040783070009005000030069008057100054102000900020840000060037832001000,586713492219546783473289615721834569398657124654192378967325841145968237832471956
450700800300004290008053000506020080001000900000610702200570030173080009900002604,452791863317864295698253417546927381721348956839615742264579138173486529985132674
000610002003502087904030500300206800090000010087090230400057600600024073010800090,875619342163542987924738561341276859296385714587491236439157628658924173712863495
000040090030700050164020030026007008700530620908010400080004001000050302492061005,875143296239786154164925837326497518741538629958612473583274961617859342492361785
008060000394000005700901084049720000160000052500080009005008043020607010000403706,218564397394872165756931284849725631167349852532186479675218943423697518981453726
006010047480065320070009001050006000109080000023040780800000093004800106300102050,936218547481765329572439861758326914149587632623941785815674293294853176367192458
300004095050309400100070000085200630020000004000890500002600001046010007570083920,368124795257369418194578263785241639629735184413896572932657841846912357571483926
070603400010020359000198060980002003000006021500040706034071000700800002000905000,279653418618427359453198267986712543347586921521349786834271695795864132162935874
000000830010500260000314009000700016241009008730008590004032000560001000980060027,457296831319587264628314759895723416241659378736148592174932685562871943983465127
208070000036000400470300910850000003002006108000009045590080070000100009600402350,218974536936215487475368912859741623742536198163829745591683274324157869687492351
540320007009081000600009140020003709000845012803000006090100004076000520200008031,541326897739481265682579143425613789967845312813297456398152674176934528254768931
070104500900603001400050920005070008380000072012400600800305000024006130060700090,276194583958623741431857926645279318389561472712438659897315264524986137163742895
000800042010300000098452007082561000035040600000020009103000075040007280076090010,657819342214376598398452167982561734735948621461723859123684975549137286876295413
500270001083005400004000700800000009062801300000039250020008006079100080650703104,596274831783915462214386795835427619962851347147639258321548976479162583658793124
005210300000050607809407005290800030304060802070000016003600700000023089401005000,745216398132958647869437125296871534314569872578342916923684751657123489481795263
800003701007450809926000000500900108301060000000702005600080942040500300093601000,854293761137456829926178453562934178371865294489712635615387942748529316293641587
090007003086009500500001620803200010700034050020000904901800000054076800200000047,192567483486329571537481629843295716719634258625718934971842365354176892268953147
602850000009000503010007000030005408800030060004200309003604750501079020408002006,642853197789126543315947682236795418897431265154268379923684751561379824478512936
020700196009003500065080002002000039001304620048609710030006000004150800580002070,823745196419263587765981342672518439951374628348629715137896254294157863586432971
000203000698001040400800705000050309902708100051406002836905000000000001017000086,175243698698571243423869715784152369962738154351496872836915427249687531517324986
060209003020000000908003605400010300006058012090040007050107040201805700803600900,564289173327561894918473625485712369736958412192346587659137248241895736873624951
061093050050400003000010900700800090032506080004000027800600210107080004605049008,461793852259468173378215946716824395932576481584931627843657219197382564625149738
609030120081069000200008046040003780007504092013000050300706005056902070000000400,679435128481269537235178946542693781867514392913827654394786215156942873728351469
027301400805004013010980000030000900706108502900705060009000006004820007050040201,627351489895274613413986725531462978746198532982735164279513846164829357358647291
500000004479010620010090038206001000300050047005800910803005070020703500000946002,538267194479318625612594738296471853381659247745832916863125479924783561157946382
100080026203060405007003000030194700070300981000005000308500067040010090695000008,159487326283961475467253819836194752574326981921875634318549267742618593695732148
000720003005000740084039020000006972070010060390005408100400097000083000028600100,619724583235861749784539621851346972472918365396275418163452897947183256528697134
200509003764800100930400200000000006001980070453001000000050091596003020080700400,218569743764832159935417268879324516621985374453671982347258691596143827182796435
400805037007009200598300040040600000010530809006021070089700403604008000200000001,421865937367149258598372146943687512712534869856921374189756423634218795275493681
702500081004007000090031206300940000200008950480706000060004710107600092005000008,732569481614827539598431276351942867276318954489756123863294715147685392925173648
019703800000592004700060200904600000130085760080000501090030005008906030006004012,219743856863592174745168293954671328132485769687329541491237685528916437376854912
064003009900060708000021000200050073030000810009047060013080605807000240000504000,564873129921465738378921456246158973735296814189347562413782695857639241692514387
061080047000402890009500003302004069005901400800076001907008100036020080500000002,261389547753412896489567213312854769675931428894276351927648135136725984548193672
086790050702005600090406000020000937005004180070630000100057002060900008308000040,486791253712385694593426871624518937935274186871639425149857362267943518358162749
200760300058030000309004007000090001100608072600002584003070800402150060070203009,241765398758931246369824157824597631135648972697312584913476825482159763576283419
700100950002700086030050007803009602600007045005040109400600300010920000009080024,784162953152793486936458217843519672691237845275846139428675391317924568569381724
800050000059004037037002508003095004100008006405000710900003420001600000328700900,814357692259864137637912548763195284192478356485236719976583421541629873328741965
710009206052100000900074005360010000401702068080030509000640023000805070649000000,714589236852163497936274185365918742491752368287436519578641923123895674649327851
760000814109800000040050206001030005004002600650080740907400023002017008500000009,765293814129846357348751296271634985894572631653189742987465123432917568516328479
010609200500000043860000009000927010398050000007800054050030800080002006904106027,413679285579218643862345179645927318398451762127863954256734891781592436934186527
009380001010502007034001060700895100300000900008403025400000670065000008100209040,279386451816542397534971862742895136351627984698413725423158679965734218187269543
009005800000104063026009000203400600400983015010000007000702501071600020830000040,149365872785124963326879154253417698467983215918256437694732581571648329832591746
010570030903008600500090004070004009009000456200630010302400000006021800084005097,418576932923148675567293184671854329839712456245639718392487561756921843184365297
300100600820009540047600200503982000000060030964530100009000807050700006000040029,395124678826379541147658293513982764782461935964537182439216857258793416671845329
076400020080730059003080600900800500020074801600005000004210900109000076730050080,576491328281736459493582617917863542325974861648125793864217935159348276732659184
300085002009020010010040605000390007001008200602000583040006079800037400075000306,367185942459623718218749635584392167731568294692471583143256879826937451975814326
000340500060701002709000360170000028000809050904200000006024000410005030057608109,821346597563791482749582361175463928632819754984257613396124875418975236257638149
030005710004607009200004060650970200480012003090000501000806050700340080069000002,936285714514637829278194365651973248487512693392468571143826957725349186869751432
005700200914300560070600034000003900006000010320540870000027058009451000042800090,635714289914382567278695134857163942496278315321549876163927458789451623542836791
050006080000070430608020095280730069001000000400809570706240000090065300002000010,357496281129578436648321795285734169971652843463819572716243958894165327532987614
826900407105000360090410000060072001308009002000840056000301200501080004970050000,826935417145728369793416528469572831358169742217843956684391275531287694972654183
602980070390000800107004050070008000800605092009100040200070306060410027010020004,652981473394752861187364259476298135831645792529137648245879316968413527713526984
071930580000000200460870090780500000009000001500000430056004372000093000804200006,271936584398415267465872193783541629649328751512769438956184372127693845834257916
000095100018000560570480002140300007600050900003200000769100030004006080300072009,432695178918723564576481392145369827627854913893217456769148235254936781381572649
060001700204060500005034010480700950901000603500200084803000001009050020070309800,368521749214967538795834216486713952921485673537296184853672491649158327172349865
000840000900300250075290800000002000804039600060010075709000508080006040023004107,236845719918367254475291836197652483854739621362418975749123568581976342623584197
200056904059700030760010820000020480400301007008090500500004601300009000010578002,231856974859742136764913825173625489495381267628497513587234691342169758916578342
