090030218000046500300901007006207059083500700200190004510000840007000130002000000,694735218721846593358921467146287359983564721275193684519372846867459132432618975
601200070020007469050089002007000000009001607240053000170090504435100906000800030,691234875823517469754689312517968243389421657246753198178396524435172986962845731
000030000004002037009100005700081500032070418500943060000490081290605000007000600,825739146164852937379164825746281593932576418581943762653497281298615374417328659
010000094600053070309012805060030021040009000207046000001800209405700630020000500,512678394684953172379412865968537421143289756257146983731865249495721638826394517
102008005030270040068900010879060000000000670400015038213080000000006007000049150,142638795935271846768954213879463521351892674426715938213587469594126387687349152
700005439001000060050090800906730510007900040300642000000013620038506700204800000,782165439491387265653294871946738512827951346315642987579413628138526794264879153
602138007000006020073040650006001900000327004438000001090570000007002009840600010,652138497984756123173249658726481935519327864438965271291574386367812549845693712
000003060305000019682000470034068205009021000070405080500010904907500020060082100,791843562345276819682159473134768295859321746276495381528617934917534628463982157
046000870510400090903750001009038700004020060020107000300009680000200910000063200,246391875517482396983756421159638742734925168628147539372519684865274913491863257
001700280030501000074060000100000006048200705050493800020009500000348920007000401,561734289239581674874962153192857346348216795756493812423179568615348927987625431
030160090680300050500024007000036480298070000000009010020010045764000800801000903,437165298682397154519824367175236489298471536346589712923718645764953821851642973
001973080754060000000040200090200600806000003070000059100008090040730012309001506,261973485754862931938145267593217648816594723472386159127658394645739812389421576
003400000040200830068590170070601329006004008100000600002087000001900002700300450,513478296947216835268593174874651329396724518125839647452187963631945782789362451
508001900300700000020390604900005020080002170000416803050600002761500300002087009,548261937396754281127398654913875426684932175275416893859643712761529348432187569
090071305750080000042030006380000050000957100007003402001200000006005089900000760,698471325753682914142539876389124657264957138517863492871296543436715289925348761
806200000040000803092100607260007000509006401700009030030640700001508002005030940,856273194147965823392184657263417589589326471714859236938642715471598362625731948
400602900105000803029005700000504009708000001300918206000091030070300540640000002,437682915165749823829135764216574389798263451354918276582491637971326548643857192
300085200069070000000230010030000198800610002000000530050000080601420370403850009,317985264269174853548236917736542198895613742124798536952367481681429375473851629
000080560000001070204500000350800400408097000700002093006078009800600015010230640,193784562685921374274563981359816427428397156761452893546178239832649715917235648
300008000460010902072096001028300000041000870500000046003809007700500010000140539,319258764465713982872496351628374195941625873537981246153869427794532618286147539
826700001001600470090003002003980650005000980070064020100200300400075000062001090,826749531351628479794153862213987654645312987978564123187296345439875216562431798
500730002006009350000016908100090000209653070004102805000040030600007520073200004,598734612416829357732516948157498263289653471364172895825941736641387529973265184
080074300001802046005090102000010003097006405042009070760000800009001504500320060,286174359931852746475693182658417293397286415142539678763945821829761534514328967
060005208219300600500000037400500801000006094000078500005060020690100700374092000,763945218219387645548621937426539871857216394931478562185763429692154783374892156
000500070002064000400078093180003050503100200600409000070006031001092804806010009,968531472732964185415278693184623957593187246627459318279846531351792864846315729
973600040000400900060503800391002400004000671000050003100000009827000060000378005,973681542518427936462593817391762458254839671786154293135246789827915364649378125
000800052370000040002006930260340108000080005150007390490510060020603080007009000,916834752375192846842756931269345178734981625158267394493518267521673489687429513
206430080000060305070009004000850010040073920018600000590320000024000700301008590,256437189489261375173589264932854617645173928718692453597326841824915736361748592
020409508010080400000105090300006000100040902806071000004003600900050003600027805,723469518519782436468135297342596781175348962896271354254813679987654123631927845
090600013074000800600000002030028401500070006028001930080090070007435000941006005,892647513174253869653819742736928451519374286428561937385192674267435198941786325
001700084800290000020500103000006900610000530092074010009400070180002406035000000,951763284843291765726548193378156942614829537592374618269485371187932456435617829
000000917100800300970050200003004005480300091006987000040090760750062108028000040,835246917162879354974153286293614875487325691516987423341598762759462138628731549
006800014300000006045070090001092000800107402700305009210049050090600800007030020,976853214382914576145276398631492785859167432724385169218749653593621847467538921
005800001007090003400730065002061470008000306090004000810020000074500209029670080,935846721267195843481732965352961478148257396796384512813429657674518239529673184
700050006304860702100400390040206000002074800030000050000390608098001530000702009,729153486354869712186427395845236971912574863637918254471395628298641537563782149
900001000037006951008040302020803090000570640876000005005600073000029010601700800,962351784437286951158947362524863197319572648876194235295618473783429516641735829
000450630603100407070800009100684000790005002008090510401003080050200094032000700,219457638683129457574836129125684973796315842348792516461973285857261394932548761
209030060076090100103070008000900010820006400001540086300800007540000200060420035,289135764476298153153674928634987512825316479791542386312859647548763291967421835
001020904546080020000031008002090730905004100078300060097010500200700003600800090,381526974546987321729431658462198735935674182178352469897213546254769813613845297
070000009109003800605002073000804960800035400204100000080260530450070600900400021,378516249129743856645982173513824967897635412264197385781269534452371698936458721
030008904209600000060400510003070600800502003490060058001940720002010805000007009,135728964249651387768439512523874691816592473497163258381945726972316845654287139
310050806700000000040960000470080960908004230003005100002106004500800700090002003,319457826786321459245968371471283965958614237623795148832176594564839712197542683
027080001040010360800050000306007480018900602000300090100206540500000270073004000,627483951945712368831659724396127485718945632452368197189276543564831279273594816
080020650604708009003004020000000163002180000005900400050006090910002007207000530,781329654624758319593614728879245163462183975135967482358476291916532847247891536
009074260510892000070100000203056190601430000000020030067300004004009350080000000,839574261516892743472163985243756198691438572758921436967315824124689357385247619
500804010000600409190372080203000160000030070658001093000007058906150002740020000,562894317837615429194372586273589164419236875658741293321467958986153742745928631
600190000002003040500472300070865002001230000000000095100000059039087206060004780,643198527712653948598472361974865132851239674326741895187326459439587216265914783
000002608000060940095300107080007405501980000072003800046001030008420006700500000,134792658827165943695348127983217465561984372472653891246871539358429716719536284
190000403302106070080070900700602194000054200060009000013000002006087500500240008,197528463342196875685473921758632194931754286264819357813965742426387519579241638
408702500005960030020801090900000050502048600007390000060070001010000340803000207,498732516175964832326851794981627453532148679647395128264573981719286345853419267
030402100159300000007000086506200003780940500240800060000601400302000005800090710,638472159159368274427159386596217843783946521241835967975621438312784695864593712
930700060006190200000006048005000317100820400004000000040005089280070005503001600,938742561456198273712356948825469317197823456364517892641235789289674135573981624
400091063806007009000034570010075392320010400000008000260009850074000000000560020,457891263836257149192634578618475392325916487749328615263749851574182936981563724
000000024100035900069080003051070060640003080830602405205090007000001208084000130,573169824128435976469287513951874362642953781837612495215398647396741258784526139
103700500020105000400006030302000080007040052086310009079080040054200007000009860,163794528728135694495826731342957186917648352586312479679581243854263917231479865
060800041700905023020043807400096082036070590500000010040082000610300009200100030,365827941784915623129643857471596382836271594592438716943782165618354279257169438
300240008078000910005000000010034570059700030000001006207906003040108000000003285,361249758478365912925817364812634579659782431734591826287956143543128697196473285
020610800006007100340200097095380006000000080130090420007400000400060503500802001,729613854856947132341258697295384716674521389138796425917435268482169573563872941
150000028300040167000300094020108000407006085005009200700090603689700050000024070,154967328398542167276381594923158746417236985865479231742895613689713452531624879
000020630030500700008061004284016000050700000100003098309204000500008007070000419,495827631631549782728361954284916573953782146167453298319274865546198327872635419
803900000020060070007010324016800000480000065000027400200054037600780100001000940,843972516125463879967518324716845293482391765359627481298154637634789152571236948
730010902650000041000980500000000087900048630200560000000750000042003010017624009,738415962659372841124986573465139287971248635283567194396751428542893716817624359
050010000003060120007000905260074003005008000804300007020000406000802790139007052,652419378983765124417283965261974583375128649894356217728591436546832791139647852
019780500600205000500001873007300096406020000850490200000000001200070680004602930,319784562678235149542961873127358496496127358853496217965843721231579684784612935
400063090010750028002000704090000803020085010005601400800902001009000007037100560,478263195913754628562819734691427853724385916385691472856972341149536287237148569
030601000401308050005020007300097104000000080270400603620589000500700009084006002,732651948491378256865924317356897124149263785278415693627589431513742869984136572
940006003007204600380005002415008009000900360009007084000070041500083900261050000,942816753157234698386795412415368279728941365639527184893672541574183926261459837
500037026240180700093004050100040007000600093025008100000070018431050000080002900,518937426246185739793264851169543287874621593325798164952476318431859672687312945
740800030020700601301090240000004050850020009007300160000100003960030408102005790,746812935529743681381596247613974852854621379297358164478169523965237418132485796
089706200010000403003450070300062800008900004002000615045097130270018000000500006,489736251517289463623451978354162897168975324792843615845697132276318549931524786
500246007170005030002007900309080610010900002000460350200130008600004790005070000,593246187174895236862317945359782614416953872728461359247139568681524793935678421
010590003009230400570001609004108065300070010021900008080400200007000000906000084,412596873869237451573841629794128365358674912621953748185469237247385196936712584
920400060001500000040913700800700003700054218000026005080070120410200090096008030,925487361371562489648913752852791643769354218134826975583679124417235896296148537
300004026820090000907010300004050070603900804001063000000570200060001008102800459,315784926826395147947612385294158673653927814781463592438579261569241738172836459
001500742000870003000001050402006080300240901689000007073405200060030108090010000,831569742925874613746321859412796385357248961689153427173485296564932178298617534
078090000905060002460037150507009300040100200890250700010080003000004680003020540,178592436935461872462837159527649318346178295891253764614785923259314687783926541
080750000159020300400000609000604001090008400601530007060013080004000920032907500,386759142159426378427381659578694231293178465641532897965213784714865923832947516
230007001000100009100500300060084030302000890049072605005240780007060050600000102,238497561756138429194526378561984237372615894849372615915243786427861953683759142
064850200900010060800609307480000000070082001006305900023090000000000108090147503,764853219932714865851629347485961732379482651216375984123598476547236198698147523
050800009070203604600000500000076010008019357003000040801600000090100200520008730,352864179179253684684791523945376812268419357713582946831627495497135268526948731
005400306109000020000006005094603010703090050000082903050000400001300278620840000,875421396169538724432976185294653817783194652516782943358217469941365278627849531
050010740902008003046000900400037800005600010100580000090064038073200006020050109,358916742912478563746325981469137825285649317137582694591764238873291456624853179
008200010036004000700090502002800301504063009090401706000087600005000090100930284,958276413236514978741398562672859341514763829893421756429187635385642197167935284
000500048004063705907100000000892000400006820600007053800000602510920000073041000,362579148184263795957184236735892461491356827628417953849735612516928374273641589
500000900200175000610000047000342000026087031050906008080003009190600020700000053,537864912249175386618239547871342695926587431354916278485723169193658724762491853
006900021700045000905063008029010370000004802600080050001007000500001493308600200,436978521782145936915263748829516374153794862674382159291437685567821493348659217
504306800000700003000509067050001790002008016003907000027000501401600930900040008,574316829269784153318529467856231794792458316143967285627893541481675932935142678
080020000071500003000004509240189070000300000900060028810250407095040600600037800,589623714471598263362714589246189375158372946937465128813256497795841632624937851
006701500030004021090000087050100004920860070301090006085630000700000340200500908,846721539537984621192356487658173294924865173371492856485639712769218345213547968
003019000000000670408503020000052007100087904036000080004900058920140000007205001,263719845591824673478563129849652317152387964736491582314976258925148736687235491
090000570710600200008045039020038004800000650409260003070009001603072080000050400,394821576715693248268745139126538794837914652459267813572489361643172985981356427
871000092200500007094010603002006030040051000600900810006000009008040250005723400,871364592263598147594217683182476935349851726657932814426185379738649251915723468
380200079907301050051000064060900000002400801108007030004800902700002500000103007,386254179947361258251789364463918725572436891198527436634875912719642583825193647
000206580046030009900008600420070000010600902097150000085000023100700000000043750,371296584846537219952418637428379165513684972697152348785961423134725896269843751
006802005005000003730104000000418020900000870400270031090687100602005080007000940,146832795285796413739154268573418629921563874468279531394687152612945387857321946
006007309540090867900820501039000006060450200000100080705010000080600402020930000,816547329542391867973826541439782156168459273257163984795214638381675492624938715
060374010950100800430509000029000000000065280700410300600000034002003750800700906,268374519957126843431589672529837461314965287786412395675298134192643758843751926
400600090761950000028000300040060082100034000006071450003080006000702000589040010,435628791761953824928417365347569182152834679896271453273185946614792538589346217
000051009014700003705090080870600040030000095001000260060010000390004608008300702,683251479914786523725493186879625341236147895451938267567812934392574618148369752
020094010301006450000000007000060700004308065580000901210500640908020003000847000,825794316371286459469153827132965784794318265586472931217539648948621573653847192
