000001038400520007009406000090007150086009003140003092050060070200300600703084001,625791438431528967879436215392847156586219743147653892958162374214375689763984521
380900000520006041007200800094030027600010004853007060000745006000002035200100900,381974652529386741467251893194638527672519384853427169938745216716892435245163978
402000008600340700095000000003516900000008002710200405000860093006003070804095120,472951638681342759395687241243516987569478312718239465127864593956123874834795126
306400020000098001004000907700065182810200000030070500008004050400900700250006430,396417825527698341184523967749365182815249673632871594978134256463952718251786439
608702000740300005090010360000025900500400103402603008150008002003040519006000070,638752491741369285295814367387125946569487123412693758154978632873246519926531874
308120000706840050020079000600000200050038600012507940400000010189306000037090008,348125796796843152521679834673914285954238671812567943465782319189356427237491568
000007260405000000920043800700080609068009345040510000081002030007000001230091508,813957264475268193926143857752384619168729345349516782581472936697835421234691578
040000058501000207007039600083004000009270005000690300670010800400000063900405100,346721958591846237827539614283154796169273485754698321675312849412987563938465172
047020030192700080000100000030005207080601500000093064009000056460800120020940000,647528931192734685358169742936485217284671593715293864879312456463857129521946378
053000090700140032100080700400000003069700208200516000005428070007000600080009025,853267491796145832142983756471892563569734218238516947615428379927351684384679125
002900048900403010006050020804600059000100300300079200090201000503800000400005761,732916548985423617146758923874632159259184376361579284697241835513867492428395761
600030080000002907537090240060310500010060098002487000401500320000820064070000001,629734185148652937537198246864319572713265498952487613481576329395821764276943851
900003470000291058086007003207000086300102000048900100091700304003000025650400000,925863471734291658186547293217354986369182547548976132891725364473619825652438719
065308019000060007081000500002605004039074000000180020304000080008020065270003091,765348219923561847481792536812635974639274158547189623354916782198427365276853491
007000902006081000000602500000040003305706100120059800000000640608093010971500000,817435962256981437493672581769148253385726194124359876532817649648293715971564328
030021804060700020000604030102450000940000003306810007000007452207300180085060000,739521864564738921821694735172453698948276513356819247613987452297345186485162379
703400006050060190091000000000740008800300020970106300009003410010905687280000500,723491856458267193691538274135742968846359721972186345569873412314925687287614539
045000001801000906300025040403090200000300690060071805059008073070050400200610000,745869321821734956396125748483596217517382694962471835659248173178953462234617589
008700005090200170160040008000170030570002060240085009000359400600000901850006027,328791645495268173167543298986174532571932864243685719712359486634827951859416327
830600070500000001406070300002149700000030005000005240070061052000900083063800910,839612574527493861416578329652149738784236195391785246978361452145927683263854917
030280000017030000000000940093005120640009700702001000005402307020760405006010890,934286571517934286268157943893675124641329758752841639185492367329768415476513892
293100680000007000010300054004650700802000009500802030406001900007004010950700306,293145687645287193718396254134659728872413569569872431486531972327964815951728346
000094007600708305010300000046000700700500028382100006060000800000023100054809060,835294617629718345417365982546982731791536428382147596263451879978623154154879263
060000009301000078500900230802000451030054020009007000700645800004120000600709300,267538149391462578548971236872396451136854927459217683713645892984123765625789314
050006043600005928008700100003800005010029600020003094900508070071600400300901000,159286743647315928238794156493867215815429637726153894962548371571632489384971562
600009430708100002050020070031004026874062900000705300000030850020901040106400000,612579438798143562453628179531894726874362915269715384947236851325981647186457293
531000060072809030000006200460010780000005903903040500300070020050008601708402000,531724869672859134849136257465913782127685943983247516396571428254398671718462395
230090470008030090500100200095020006000407930000001702802300060150604800007085010,236598471418732695579146283795823146621457938384961752842319567153674829967285314
604007509500009430010000000803006050100350600700420000020040078008100360956000210,634817529587269431219534786843976152192358647765421893321645978478192365956783214
000000605012069030007103490030204807609500320000000000048001579051078000200000003,493782615512469738867153492135294867689517324724836951348621579951378246276945183
005092608800400001703600520000280047409061000002000000600100709050030000214750036,145392678826475391793618524561283947479561283382947165638124759957836412214759836
040500609520408100807360000000709004400002300000050008009106070003070400010280065,341527689526498137897361542168739254475812396932654718259146873683975421714283965
701450600390000000000309205002600470000100006054800020540020108036004750007010930,721458693395261847468379215812635479973142586654897321549723168136984752287516934
090830000670200080032001060000027001900100008006450930021009370740000096000045000,194836725675294183832571469483927651957163248216458937521689374748312596369745812
000010490693702000140305000705064080000078004200001056070609501306000008810000200,527816493693742815148395672735264189961578324284931756472689531356127948819453267
280050070000200403370901050600730002508000600040008910090060004060502301800070590,284356179951287463376941258619735842528419637743628915195863724467592381832174596
080107005009600830652000004030060210700095006008710400000380001020000943500042000,384127695179654832652839174935468217741295386268713459497386521826571943513942768
006934108790000004008571000070050810800600302604003000030260050009000067502010400,256934178791826534348571629973452816815697342624183795437268951189345267562719483
710056008093080064002700009800032000059000016400100070000300927000510000060409080,714956238593281764682743159871632495259874316436195872145368927928517643367429581
002000809100000763706004000030490100005080006019600034000070090470005320020308050,352716849184529763796834512637492185245183976819657234563271498478965321921348657
070000090020030014300800005400280006009457038000690001500010020034070689260000000,875164392926735814341829765453281976619457238782693541598316427134572689267948153
708600040060700001500090002200051008895000010004007060009860430000103000402000000,728615943963724851541398672276451398895236714314987265159862437687143529432579186
200906170500002400160040080000014060001809024080600300090070005702300009430000600,248956173573182496169743582327514968651839724984627351896471235712365849435298617
000500000003090470004600920005068300300070609809201040080004701007080090042050036,298547163613892475754613928475968312321475689869231547986324751537186294142759836
005000120014307680000800009000740000286001400700609300190200000302060904060050008,875496123914327685623815749539742861286531497741689352198274536352168974467953218
060504900400010870005000003082000040039050780000309001074021000006803020800940600,768534912493216875215798463582167349139452786647389251374621598956873124821945637
060509080504680903820073000790800006005000100010020407002900000030001060986400250,361549782574682913829173645793814526245796138618325497152968374437251869986437251
005076100048200000100008003709085002012400809000090376007053020200000000060901045,925376184348219567176548293739685412612437859584192376497853621251764938863921745
013802000009001060080600307000000004070008051120009700806043000200907030400156920,613872549749531862582694317368715294974328651125469783896243175251987436437156928
820405007703000000140092600470308500062500800000000004050000200904021030000804061,826435197793186452145792683479318526362547819518269374651973248984621735237854961
402080709100043200000109008780000000004500602609400053000036080000001400276050901,432685719198743265567129348785362194314598672629417853941236587853971426276854931
590080063070000402800027000087406000010790200060053100004800009030001500001642007,592184763173569482846327951287416395315798246469253178724835619638971524951642837
078209600316005000050100004002580010600410920000000073900070082035024000007006309,478239651316745298259168734792583416683417925541692873964371582835924167127856349
307000000045300980090640002001000590000097036030804207874009003000010050019720600,327981465645372981198645372781236594452197836936854217874569123263418759519723648
570340026030120400002006087060009000904601000007050903040800600028900040001400850,579348126836127495412596387263789514954631278187254963745812639328965741691473852
701430208080005309490060005060070500007001000008502010200000037000890004006304900,751439268682715349493268175164973582527681493938542716249156837315897624876324951
140000027007560310935020400010250006004700002360489000650001000000000184000830090,146398527827564319935127468719253846584716932362489751658941273293675184471832695
070010000208600005003045970007800300412700006000000490600152080800003041090006023,579318264248697135163245978957864312412739856386521497634152789825973641791486523
057040902068050000900003070800904001090002468070001030540017006000638010001000020,357146982268759143914823675832964751195372468476581239543217896729638514681495327
080160900720030060005000480046390000870002610590087020100904207030700000000000190,384165972729438561615279483246391758873542619591687324168954237932716845457823196
000200030079400200510800006006050708408003500200106400003500019000070000825609304,684295137379461285512837946136954728498723561257186493763542819941378652825619374
601084009000902800050007043700613000002840000803000090074506080519020067000030004,621384579437952816958167243795613428162849735843275691374596182519428367286731954
004050078000601004920080050002070600010020003380009020000060085597038001048700090,164352978875691234923487156452873619719526843386149527231964785597238461648715392
204000503071002860900730400738900100409060080050003002000280090697500000000006015,284619573371452869965738421738924156429165387156873942513287694697541238842396715
920100640050248000107000000000900000863012450092060070401006800080570200030094760,928157643356248917147639582714985326863712459592463178471326895689571234235894761
071940000030007200009056000020018060600705140004000083000690450007020318005003009,871942536536187294249356871723418965698735142154269783382691457967524318415873629
402007908350900001010005406009603040080000005230400070805200000000109004700068090,462317958358946721917825436579683142184792365236451879895234617623179584741568293
000030508600000002023400090005027000004500870031600009040019700800040031090700086,479132568618975342523468197985327614264591873731684259346819725857246931192753486
003072504050306008180000300761008090900054026004000030006700009209005180010020040,693872514452316978187549362761238495938154726524697831346781259279465183815923647
200000490006800007900432650750021000010006289000300700063049000007060841000500030,285617493436895127971432658758921364314756289629384715863149572597263841142578936
029070008600000307100800542005400010030096200084700059592000000000031070307050400,429375168658124397173869542965482713731596284284713659592647831846231975317958426
810000700005080249020004003487020500100000008060000304600001000009300052030547906,814932765375186249926754813487623591193475628562819374658291437749368152231547986
900500170050002069002001048805700604000003000700804205020600790039200051001308000,984536172157482369362971548815729634246153987793864215428615793639247851571398426
700000018085900032901003050000007005300060020490830006000420003060509400008010007,734652918685941732921783654816297345357164829492835176179428563263579481548316297
020090000630080790005401000300700820800014000706320051040805230000000900000239106,427693518631582794985471362314756829852914673796328451149865237263147985578239146
007800000100000250050640300309000027708003106005270803006050081291460000000709400,937825614164937258852641379349186527728593146615274893476352981291468735583719462
900804031475000009100520006514007908009408000000012300002091805300006000000000470,926874531475163289183529746514637928239458617867912354742391865358746192691285473
070230180054760000002109006710904568090000003000050920000507601000003002480010090,976235184154768239832149756713924568295876413648351927329587641561493872487612395
059000030402309000000200780010040000000170506985003104030500007104860900000002860,859716432472389615361254789716945328243178596985623174638591247124867953597432861
010654087070080506800209000001097030040503200500100600009000400230000018007010069,312654987974381526865279143621497835748563291593128674189736452236945718457812369
703000400020017006195800003400005060030906008607020900000502004008030207001470000,763259481824317596195864723419785362532946178687123945376592814948631257251478639
208900000000600080019052700370000005080060903005080470500000062102047300093010000,238974651754631289619852734376429815481765923925183476547398162162547398893216547
800900020320045071000001900070083400090207000605000087006050300100709804040610000,814976523329845671567321948271583496498267135635194287786452319152739864943618752
016900057000001009750080003520093700870100400004700200900007010300600008000025060,216934857438571629759286143521493786873162495694758231965847312342619578187325964
008617030020090000700320040630900084000700029205400600000506890100008367300000000,948617235523894716761325948637952184814763529295481673472536891159248367386179452
000091005109003870360040000800000032005720010006900400070080009624070150080600023,742891365159263874368547291897416532435728916216935487573182649624379158981654723
001006000005240308000017200060400030080050002943800051750090000200030900308005670,421386597675249318839517246562471839187953462943862751754698123216734985398125674
060940010800065000040000206280000000070500903501270600034007095000019400020006738,365942817812765349947138256283694571476581923591273684634827195758319462129456738
800400900001503002040009706500090608600300040080140300760201500105070000003080020,856427931971563482342819756534792618617358249289146375768231594125974863493685127
020703409003000570091000060070009308608400020200015006400050000005370100010608290,526783419843196572791524863174269358658437921239815746482951637965372184317648295
490017000208000030000090475816009300300400002720005090000200600530608000000070541,495317268278564139163892475816729354359486712724135896947251683531648927682973541
090760084000009060073802010002050109009403200031008540010300627050074000800106000,295761384148539762673842915482657139569413278731928546914385627356274891827196453
030040000000508020790306480804007601001000502020009000305401709060080000049603100,538742916416598327792316485854237691971864532623159874385421769167985243249673158
900002310008600704000790206016070950000000002000534600050040008080916000173005400,967482315328651794541793286416278953735169842892534671659347128284916537173825469
070920004005007063389005010100040090407002006008010007820504001006000300000038250,671923584245187963389465712132746895497852136568319427823594671956271348714638259
451000906090060057007020100072900080600000004905831070006058400000093210500002008,451387926293164857867529143372946581618275394945831672126758439784693215539412768
070002605019504030000830000030270010450680700700000906090010842600950001000003500,374192685819564237265837194936275418451689723728341956593716842642958371187423569
102000500004007908000035060870000006500300021031004000020480073600950402000076190,162849537354627918798135264879512346546398721231764859925481673617953482483276195
060070080001904000500020010205000309370600002000530000900008070740390506012040003,469173285821954637537826914285417369374689152196532748953268471748391526612745893
000563800900000060700408100005006001300020470042809500030001005014700080680050203,421563897958217364763498152875346921396125478142879536239681745514732689687954213
