000002037008700900036001000604070000000059124209000608060140350570080012900003080,195462837428735961736891245614278593387659124259314678862147359573986412941523786
009800460030100250480207000093002004100004520700500836000010000870306900052070010,219853467637149258485267391593682174168734529724591836346915782871326945952478613
014030076000100008508090042900050003006200010071008020840512000009040500060700000,214835976697124358538697142982451763456273819371968425843512697729346581165789234
060400000001086049030017080040728300503009200700000018008260703050000960010053004,865492137271386549934517682146728395583149276729635418498261753352874961617953824
008600000050091020920000043270004005060007914030850700590270600000013000003506008,148632579357491826926785143279164385865327914431859762594278631682913457713546298
001053700000120005006400009070008126800900000050012400460090052020070060080000340,291653784748129635536487219974538126812946573653712498467391852325874961189265347
004300207900402010000076900000003006760280000148000500080000035015609080207010040,854391267976452318321876954592143876763285491148967523689724135415639782237518649
000000049100704003305901670000867500750300800002190000026003000010058064030000702,278536149169784253345921678493867521751342896682195437826473915917258364534619782
400000020106300807005801009607905000010700008009040205900650000000078901068200043,483597126196324857275861439627985314514732698839146275941653782352478961768219543
001000956003710040800096030700060000304002607060050090902173005410009800000008020,271834956693715248845296731729361584354982617168457392982173465416529873537648129
700005020049603008106004900807901054065807032000060700682010000000320090301000000,738195426249673518156284973827931654965847132413562789682719345574326891391458267
503100004008205009020460570000580040492000008070000601130070080009040000600903012,563197824748235169921468573316589247492716358875324691134672985259841736687953412
000501920260890000000604001030008500024000000010940008003060070000470015540103209,478531926261897453359624781936718542824356197715942638193265874682479315547183269
542010006800764005007800000001000004605008729900503080000090132310200090700400000,542319876893764215167852943281976354635148729974523681458697132316285497729431568
030600400405803002208090001000060907900471050002500068000180096010000700073002005,137625489495813672268794531351268947986471253742539168524187396819356724673942815
001500208030004006890010400053840010084670005100002000409706002000000701605000030,741563298532984176896217453253849617984671325167352849419736582328495761675128934
004006053050087200000300790810600004200010030009504000907000068060809005002003017,794126853356987241128345796813692574245718639679534182937251468461879325582463917
000708000098005300040160000065000090100004027000390040200983004753002910080010006,521738469698425371347169582465271893139854627872396145216983754753642918984517236
070100450058030001009007063503001020100960084600072100000029030800046009000800207,376198452258634971419257863593481726127965384684372195741529638832746519965813247
805640700037500026240000900000060190500893000002100080008730010600400203010005004,895642731137589426246371958384267195571893642962154387428736519659418273713925864
400807500009300000270004390035600080040950210000001007091203800000005001802040706,413897562589326174276514398135672489647958213928431657791263845364785921852149736
010009730002003056000205000090060800007094001053080020900000080200000614406007305,518649732742813956369275148194562873827394561653781429931456287275938614486127395
050006070000130805006045001709800030002650000080700042040000708100090203500302600,351286479924137865876945321719824536432659187685713942243561798167498253598372614
069000710580900000007051900070040200034020690800309050000070860010604003092003070,269438715581967342347251986975846231134725698826319457453172869718694523692583174
710408000002006009000230850200000000054009380968004007080002060390800210406070590,715498632832516479649237851273681945154729386968354127581942763397865214426173598
501003400720650003490000680000060020000107850200309016005908001070000040380201007,561893472728654193493712685817465329936127854254389716645978231172536948389241567
094006010800190270001075008010200860000600503035400000000708950309000104020000600,794826315853194276261375498417253869982617543635489721146738952379562184528941637
000000004080003057023480000009070002450100060600042801900037100360209070000610005,596721384184963257723485619819376542452198763637542891945837126361259478278614935
810097602005002300904056000400501007030049800600200009000713006380000740009000020,813497652765182394924356178498531267237649815651278439542713986386925741179864523
600802050407000001000000692008913000000065000001200376150470920900300508300006400,619832754427659831835147692768913245243765189591284376156478923974321568382596417
000209010000084700490000056950027000061090230000010004100500068028003905073060002,786259413315684729492731856954327681861495237237816594149572368628143975573968142
704000800030000120060194050503067080480500072000001300057802900009700010620003000,714325869935678124862194753593267481481539672276481395157842936349756218628913547
005016004040000090906800207400009060370502800080740001000400608030005002200370910,725916384843257196916834257452189763371562849689743521597421638138695472264378915
000041027030805600610070080980000074003107090006900500090760003500023010000000408,859641327732895641614372985985236174243157896176984532491768253568423719327519468
030087290020010008600590004004200300703045000910000605000100400580030007006020501,135487296429316758678592134854261379763945812912873645297158463581634927346729581
010000500700208103690070200060000030405100902801043000500000004002780096009420705,218634579754298163693571248967852431435167982821943657576319824142785396389426715
450001000008050300013007205049080720002160000600400009001090070200600580000035902,456321897728956341913847265149583726372169458685472139531298674297614583864735912
057300010040060958600200000239008060000027504000100000410050203083000095000470100,857394612342761958691285347239548761168927534574136829416859273783612495925473186
900054020600010978000007300041080000809405007070020006500970834020061050003000100,937854621654213978182697345241786593869435217375129486516972834428361759793548162
520083100900620830600059007805000006000015790010340020038000000207400050100290400,524783169971624835683159247845972316362815794719346528438561972297438651156297483
040005260000009005082100004000090031071023600005004708900400003203007080064800050,149385267637249815582176394426798531871523649395614728958462173213957486764831952
000017000062050000007240930950083007001600004030000560703869010104500000090000872,849317256362958741517246938956483127271695384438721569723869415184572693695134872
063009001520603008000800005000400270070085300301200009009002000016000542080147060,863759421524613798197824635958431276672985314341276859439562187716398542285147963
002941370000020695080005200103002700006070080040530009064000001908017040200300800,652941378471823695389765214193482756526179483847536129764258931938617542215394867
603500089070003401042900000009006028850072604004000530000000010100068703020190000,613547289978623451542981376739456128851372694264819537486735912195268743327194865
800000907104800000030010860000300600720094050005200030097053006080020400562700001,856432917174869523239517864918375642723694158645281739497153286381926475562748391
900801300001602008058000009009030240170009000620005097000420106700008005030017000,967851324341692758258374619589736241174289563623145897895423176712968435436517982
100000000706800900050002641000067320000050780430090050040103007900005002580009460,194536278726814935358972641815467329269351784437298156642183597973645812581729463
700050009000100640001069005906201030040600780005003000004070092620908000380004007,768452319592137648431869275976281534243695781815743926154376892627918453389524167
036082090450000000007030001001059700285607000700200604009500100000006372802000049,136782495458961237927435861641359728285647913793218654379524186514896372862173549
507008060020030508000910400006092004203070089010300070905006000070200003480050910,597428361124637598368915427756892134243571689819364275935186742671249853482753916
246900005010054000003070020000510080890007000007003416080601900000300200462080300,246938175718254693953176824634512789891467532527893416385621947179345268462789351
020080900740009031050403600400016008500792000610005023000001060807030050090050302,326187945748569231951423687472316598583792416619845723235971864867234159194658372
060004500002500407080031069000000800015003000003087090490200006350490008008070010,769824531132569487584731269976152843815943672243687195497218356351496728628375914
603070000050000800178050690836100000000006401005089020000040013040900070709300504,693278145254691837178453692836124759927536481415789326562847913341965278789312564
070030500902000083300609000000190027001084000640005030004008051108200740007060092,476832519912547683385619274853196427721384965649725138264978351198253746537461892
804000210079600835050010600530702000008000009026348000400260108013005700000070060,864539217179624835352817694531792486748156329926348571497263158613985742285471963
800240607015007000020060089570001004408090300030000720000306040900524063000810000,893245617615987432724163589572631894468792351139458726251376948987524163346819275
906070005020800070100300200009430000045000906760001008073085021001000587600200004,936172845524869173187354269819436752345728916762591438473985621291643587658217394
000200300061007000045190270020000040097056008608070500800009450000025063900043001,789264315261537894345198276523981647497356128618472539836719452174825963952643781
260100004704038000001700058380050020090080060000910703023500009400060510805000007,268195374754238196931746258387654921192387465546912783623571849479863512815429637
007085100460003009109704000890001007020600530000200040002309000005000270370400806,237985164468123759159764382893541627724698531516237948682379415945816273371452896
800050306000900000502040180008600004790000030360109508200800905401003002080021070,819257346643918257572346189128635794795482631364179528237864915451793862986521473
300901002080746005604050000071000400200030569000098700010000000805300976460002083,357981642182746395694253817971625438248137569536498721713869254825314976469572183
038006200900705060200080001300048010100532600060000004405010900000450008790003020,538196247914725863276384591359648712147532689862971354485217936623459178791863425
000100040604072000370809001120080300705026800040000095290000087000308409000000650,958163742614572938372849561129485376735926814846731295293654187567318429481297653
010602008009003420000085000062304090008900050507806001605140900003000700700000204,314692578859713426276485139162354897438971652597826341625147983943268715781539264
680100000000307090039050784560000102000030406073006009004890200000425300810060005,687149523245387691139652784568974132921538476473216859354891267796425318812763945
002800040040009007030001580004570600070920001506080032013700800060400073900065200,652837149841659327739241586124573698378926451596184732413792865265418973987365214
082100000005009403000027006300006800801040500009012007050300009490060050070005631,682134975715689423934527186327956814861743592549812367156378249493261758278495631
062017400104009005080300069401700920070200001300600580890002003000000054506080700,962517438134869275785324169451738926678295341329641587897452613213976854546183792
009058060140600053800102704700000200061005008003270900014809000007003000500010029,379458162142697853856132794795381246261945378483276915614829537927563481538714629
042960038000504090503010700035000000009802006080006407000700140008003002710000900,142967538867534291593218764635471829479852316281396457326789145958143672714625983
620030704057000096000800000005009000380401070400023801043000060079060502000200107,621935784857142396934876215715689423382451679496723851243517968179368542568294137
020009006007800510000002839090086007053040081702300060068490000040571020001000003,825139746937864512416752839194286357653947281782315964268493175349571628571628493
400085030000000509560029807250031000017800060006040203000050001000410072890076000,429785136178364529563129847254631798317892465986547213742953681635418972891276354
060501040034006000009008702027004006058070019900000230000250000006040058000803901,762591843834726195519438762327914586658372419941685237183259674296147358475863921
930670048008091050000204300301060020800039001070500000060750009409000806100000230,932675148748391652516284397391867524825439761674512983263758419459123876187946235
030618500000500070160402900000280017004005020709000806506004008002006104080930000,937618542248593671165472983653289417814765329729341856596124738372856194481937265
070642900008300000290001040001008050040076109030500086100000823362050400000100007,573642918418395672296781345621938754845276139739514286157469823362857491984123567
001000095320010000068304070030706009000009150047000060800201006050048902600903540,471862395329517684568394271135786429286439157947125863894251736753648912612973548
000007100005008300430090502709020005000000008042130007900460001020000040000513809,268357194195248376437691582719826435356974218842135967983462751521789643674513829
000610000070030091004080302910007040050908700006250030002000104030520009687004000,329615487875432691164789352918367245253948716746251938592873164431526879687194523
000032007034000650010069008700120005090300720005008064000200940840091003056700080,689532417234817659517469238763124895498356721125978364371285946842691573956743182
450008070210500000003000200000807600908210050371006004802043060005600901040790300,459328176217569438683471295524837619968214753371956824892143567735682941146795382
070431000006900240850760030100005864908170000060020700700003102400500090030080005,279431658316958247854762931127395864948176523563824719795643182482517396631289475
064010250300700000000008709200584100006002090075090803000100000030047006102800004,764913258389725641521468739293584167816372495475691823647159382938247516152836974
600500309018060000002300700281004005030250010060003904400009508009002040170080006,647521389318967452592348761281794635934256817765813924426139578859672143173485296
405038700000500030800620091700803400040090050506070302070002000980140000000060240,415938726269517834837624591721853469348296157596471382674382915982145673153769248
475001080090000700601200043123006070040050000800700309030610250007430806000982000,475361982392548761681279543123896475749153628856724319938617254217435896564982137
574600300600080900100200076041060009300509042008300701096070050002800000000004083,574691328623487915189235476241768539367519842958342761896173254432856197715924683
306007040024090308000054002010020904807000010039006807003100065050800020700900100,396287541524691378178354692615728934847539216239416857983172465451863729762945183
500408700003520809701060000006109380048052006050070200017004098004600020900000030,592418763463527819781963452276149385148352976359876241617234598834695127925781634
009503007010400000806002900000317040490000300005080261020056410700200000063009005,249563187517498632836172954682317549491625378375984261928756413754231896163849725
509003016008060000203401000390640850047030200602010900000285000100000692704000030,579823416418967325263451789391642857847539261652718943936285174185374692724196538
006409500094500067007030100500000010080200904063008000000004800019803200370906050,136479582294581367857632149542397618781265934963148725625714893419853276378926451
070914000005600000003000264080070150300002090029400380064098710107030500000100020,672914835845623971913785264486379152351862497729451386264598713197236548538147629
306000200000958000918023004800040900400001072007060100205104608000075001094000000,356417289742958316918623754831742965469531872527869143275194638683275491194386527
070091500003507906002400000907800051050000064008006790400000308800742000019003020,674391582183527946592468137967834251351279864248156793426915378835742619719683425
500107002090200000100400350040070019030801400720050803600000008070009540003080921,584137692397265184162498357845673219936821475721954863619542738278319546453786921
