100000407062043080008790200007200360001030540040506029000408100000670003589020000,195862437762143985438795216957284361621937548843516729376458192214679853589321674
000017405001089700007405006360000001000000800159026070036040090080000532900072008,693217485541689723827435916368794251472153869159826374236548197784961532915372648
017090040080567290060000500009100603405000029020000080700610005003400060200839400,517298346384567291962341578879124653435786129621953784748612935193475862256839417
000800900090034025100020064650040000040012503080007000904003007078060310062050090,425876931896134725137925864651348279749612583283597146914283657578469312362751498
207690050900050000800034100400000061030005090060801703600700920102000007005902008,217698354943157286856234179428379561731465892569821743684713925192586437375942618
010000200073046000006098040500004801024005970390070056080000130609500000045703090,418357269973246518256198347567934821824615973391872456782469135639521784145783692
351008000007040802002000090560027000000030700049510030000600510800074906010903080,351298674697341852482765391563827149128439765749516238974682513835174926216953487
000050016020970508103002900030490000089010067260000005700528140000000080002063000,978354216624971538153682974537496821489215367261837495796528143315749682842163759
160050200407001000050804000780060003020300451003209600030007090200030580049010000,168753249497621835352894716784165923926378451513249678635487192271936584849512367
060302000709040600020009018004091035080000079902005000046027000500800302010600400,861372954759148623423569718674291835185436279932785146346927581597814362218653497
004000501100060980700902043063087005009600700500320000020895006086003000010000079,694738521132564987758912643263487195849651732571329468427895316986173254315246879
000005006000890000709204030010070483800000090306400017103000200080630145900027000,438715926621893754759264831512976483874351692396482517163548279287639145945127368
000450008073009402805030610200360090104008000000500704006090500700610003008207001,921456378673189452845732619287364195154978236369521784416893527792615843538247961
005107028002090100064005703000230010030001060008409005703000500980504200020680040,395147628872396154164825793657238419439751862218469375743912586986574231521683947
020000060003098500400020903301080400280039001005607002030500106700040085090000300,129354768673198524458726913361285479287439651945617832834572196716943285592861347
400070000903004052027800010600015020002040870000200003075006031010380006040900080,461572398983164752527839614638715429192643875754298163875426931219387546346951287
684300000700002060009500834340890500502160000000000701800030472207905000016000005,684319257753482169129576834341897526572164983968253741895631472237945618416728395
407809500960510000000020004120085090806300205004700003030006400009070801750900002,417839526962514738385627914123485697876391245594762183238156479649273851751948362
001476003680005000002310090030007450004900000900800021006030700425001006070042008,591476283683295174742318695238167459154923867967854321816539742425781936379642518
002340800680001400005090060100280053000600007943100000070508610001003504090007020,712346895689751432435892761167284953258639147943175286374528619821963574596417328
092000600080090052040107000030840007504000106076200090900050013010063070200080400,792538641381694752645127938139846527524379186876215394967452813418963275253781469
030150040127040000060070830000090300700600089005804020300902058602005170008010600,839156247127348965564279831286597314743621589915834726371962458692485173458713692
300000000009040051000023704000005010050760290000019068070050040014802009826300000,347581926289647351165923784698235417451768293732419568973156842514872639826394175
000520000208001096100700030010050700690000804040083019364005020000040670005190008,436529187278431596159768432812954763693217854547683219364875921981342675725196348
040000800061002750509380020000004061007050000020639008030000004902807000085260190,243576819861492753579381426358724961697158342124639578736915284912847635485263197
060030802902040000170900060000006400200501003009804075508000300014060907000003010,465137892982645731173982564851376429247591683639824175528719346314268957796453218
006081000040000300003009270050030004090002106800106700900070403402560090738000050,276381549149725368583649271651837924397452186824196735965278413412563897738914652
800490600001003850720510003410006002080300090507020100050730004200600000069002008,835497621941263857726518943413956782682371495597824136158739264274685319369142578
006000087005372106091500400002001804000003900500009032860420000000008075200197000,326914587485372196791586423932751864678243951514869732867425319149638275253197648
954000000000008402000007310286000003010609070400310805005020708600050900127094000,954231687731968452862547319286475193513689274479312865395126748648753921127894536
800049070040050000036020010003014060074500008005806030010000309000007250900081600,821649573749153826536728914283914765674532198195876432417265389368497251952381647
800030000902008004003906500000000060100200893000345200710050320200104059080700001,851432976962578134473916582327891465145267893698345217714659328236184759589723641
001006400859014000003502709600870000030605000007003802042100058700040620000009007,271936485859714236463582719624871593938625174517493862342167958795348621186259347
001240067008095004002870300860010020000906000530000190700538040200060000405007003,951243867378695214642871359869314725127956438534782196716538942283469571495127683
071205000940000003005030001000000800207800560000047039503079080018600042690102000,371265498942718653865934721459326817237891564186547239523479186718653942694182375
500000000910803700082700056100630079020008000040570030300000802090021060001400500,537246981916853724482719356158634279723198645649572138374965812895321467261487593
308000005020069301079002040042000080500700600093618200016040009000095000000300700,368471925425869371179532846642953187581724693793618254816247539237195468954386712
073006000908700504000080009050090130000528000067401008082000017109005620000042090,473956281928713564615284379854697132391528746267431958582369417149875623736142895
190040056003000800600270004041009300700100000000562000080007605065410270200300090,192843756473695821658271934541789362726134589839562147384927615965418273217356498
012079000400800507000030060520600048004012905073400000000905631000723054080000000,612579483439861527758234169521697348864312975973458216247985631196723854385146792
103680005790300800650002400000036720000900004080040090301005007005190600024007010,143689275792354861658712439419536728236978154587241396361425987875193642924867513
800002000201000573000390080300640000004021009900500016702006100060058040503400900,835172694291864573476395281318649725654721839927583416742936158169258347583417962
943005010000080029070104005001726000784000300005003090002451000000070850010030006,943265718156387429278194635391726584784519362625843197862451973439672851517938246
050009000091406008600327500160000000008203400400000795200038106000570200800100074,352819647791456328684327519169745832578293461423681795247938156916574283835162974
152000006000006000076039201900008700030600184010050032400283050000405009780000000,152847396349126578876539241924318765537692184618754932491283657263475819785961423
070001320251040006004008000007900200008000003000400705340720089900500607010090540,879651324251349876634278951467935218528167493193482765345726189982514637716893542
005008729006010000832000041000900002708546000403072000057800060000630010010400035,145368729976214358832759641561983472728546193493172586357891264284635917619427835
300080927020471000065009000000058103100904080070060092004006570900002000010500040,341685927829471356765239814492758163136924785578163492284316579957842631613597248
080000005005160034000290810004070009309406027000300600500000002672930100840050070,186743295925168734437295816264571389319486527758329641593817462672934158841652973
001900040630000200009740005300870601040000507206503090500000100017208060080360004,751932846634185279829746315395874621148629537276513498563497182417258963982361754
003010020075604000000003006017090030040560210060030948000040800200709000900051403,693815724175624389428973156817492635349568217562137948751346892234789561986251473
009720000751000800200009506003107000900054087000600410040000001560300090002068034,689725143751436829234819576423187965916254387875693412348972651567341298192568734
800020090003000007400603108500009023006504000100070800021050700004310506308900400,865721394913845267472693158547189623286534971139276845621458739794312586358967412
000900001000032850004610020080405002160000000900026083300509006400087130079000500,827954361691732854534618927783495612162873495945126783318549276456287139279361548
000000062004308951006720080002037010400512009030900000000070508053004000960801400,389145762724368951516729384692437815478512639135986247241673598853294176967851423
201006009080300700075200013000040800004850971000900005050000307000690000028701060,231576489689314752475289613592147836364852971817963245156428397743695128928731564
400007000800900200900060517030750090006080000540012038190040053000803070002100064,461527389875931246923468517238754691716389425549612738197246853654893172382175964
005040020037050901090607008002704000680023100000960500170400000304800209900000607,865149723437258961291637458512784396689523174743961582176492835354876219928315647
009218000000000006874000500300001004000070095010926070003805040006090800050047621,569218437231754986874639512397581264682473195415926378123865749746192853958347621
400031805000800140508079003003624090020700030647900000079000006065000428000102000,496231875732856149518479263853624791921785634647913582279548316165397428384162957
150023608002600300070004001047008035000070290025006004500060010000981070003000009,159723648482619357376854921647298135831475296925136784598367412264981573713542869
300008400800020061910507000050004013000160090070009680002000037090085000084036052,325618479847923561916547328659874213438162795271359684562491837793285146184736952
060100489098600000730020610200005030680070000001060927040000050007040103005783000,562137489198654372734829615279415836683972541451368927346291758827546193915783264
900060000012000040000208953230900507000043026056001000020074085008000100005039760,983465271512397648467218953234986517791543826856721439629174385378652194145839762
008300290020950030000006105000185000209070004003490060105060070400007619370000048,568341297721958436934726185647185923219673854853492761195864372482537619376219548
060490100301200000070000069006300802200070914980000500003026080410703020008504007,862497153391265748574831269146359872235678914987142536753926481419783625628514397
000430081032901000005000006013008020000040700078590040907800030000026500260000074,796435281832961457145287396413678925529143768678592143957814632384726519261359874
700298300804003600000600109900580000035002070020000014001940830500007002000306050,716298345894153627352674189947581263135462978628739514271945836563817492489326751
087130000020400090000026500030002060004500718900640000610070904408000375053000100,587139642326457891149826537835712469264593718971648253612375984498261375753984126
040200600809000507100600930200890000408050000000003170080560009010048005300007042,543279681869134527127685934271896453438751296695423178784562319912348765356917842
060803014000070800902500700700900435290001600006780001001007000300450000804036029,567823914143679852982514763718962435295341687436785291651297348329458176874136529
070040038409000160100637902000050001000394700006000480704900620003270000085001009,672149538439528167158637942347856291821394756596712483714983625963275814285461379
800103000002950000350068700068009501279510080000074062940000206005000300000430008,897143625612957834354268719468329571279516483531874962943781256185692347726435198
008000009320564010715009300004080030000905042930100700002300006570200080060001000,648713529329564817715829364254687931187935642936142758492358176571296483863471295
002000309097005060040080007100030702008004010060502800000100900000603528600279043,512467389897325461346981257154836792238794615769512834423158976971643528685279143
607931000040002500802400000000367100080000060300500904700140030001006049590800706,657931482943682571812475693429367158185294367376518924768149235231756849594823716
087001604450007000003000002000904720092000106010050030000830000025079060908406503,287391654459267381163548972836914725592783146714652839641835297325179468978426513
008000907400500010390006008080195006060807540700040002600032100002400009059708300,528314967476589213391276458284195736963827541715643892647932185832451679159768324
060090020008060030007041009803670900140580002020000050004100007502008016600409300,465397128918265734237841569853672941149583672726914853384156297592738416671429385
000070318509000670010004000030000500091032006400800702842009000003060905050017400,624975318589123674317684259238746591791532846465891732842359167173468925956217483
090007400600080002050924030070040091830000000000201500920000010506300700100890023,392167458614583972758924136275648391831759264469231587923476815586312749147895623
047630001350000020809240050006800004010050907900000280000703000104096300005008619,247635891351987426869241753526879134418352967973164285692713548184596372735428619
005180700080300049300406800012900074006000500007830190500290030000000602104070080,245189763681357249379426851812965374936714528457832196568291437793548612124673985
060005190200730050017040008000400000031200760925100800093082006840060530700000009,364825197289731654517649328678453912431298765925176843193582476842967531756314289
002006070400318009030070008890001203257630000000009050003490067060580100920000504,182946375475318629639275418896751243257634981341829756513492867764583192928167534
004902005600000001108060470009570004700030000002481096460700200000650109003000080,374912865625847931198365472819576324746239518532481796461798253287653149953124687
001034060962700040007800251483000100000903000070050608100040307020060000504107900,851234769962715843347896251483672195615983472279451638196548327728369514534127986
009010004003800900207040051000268090000500002100009675985100307002006000030000249,859612734413857926267943851574268193396571482128439675985124367742396518631785249
000001830305040001006078009000217046090054280060000000200783500548000320007000100,974561832385942671126378459853217946791654283462839715219783564548196327637425198
057286300002000000100573004000469007040300029080001050021007005060090080903040600,457286391632914578198573264215469837746358129389721456821637945564192783973845612
497062050030900020006045701062004007000810000500030860009051604018000900700009200,497162358135978426286345791862594137973816542541237869329751684618423975754689213
500900703400056200030008004280700960001030020940100000005420070760001390010000508,526914783478356219139278654283745961651839427947162835895423176764581392312697548
020040000000081700891200040089000000703005106600004035005732490034100050000006012,327549861456381729891267543589613274743925186612874935165732498234198657978456312
000000039000402601028100007000590046310700028040200070204870500089046000130000000,451687239793452681628139457872593146315764928946218375264871593589346712137925864
621009045070001080005200003100300070097000801008005460306042900402070610000580000,621839745973451286845267193164398572597624831238715469386142957452973618719586324
800300000002800600010009025206000048050020900004570030095003001600100307007065409,869352714542817693713649825276931548351428976984576132495783261628194357137265489
008300100090005084520007906030400201600708090057000063000640300276100000340009020,768394152193265784524817936839456271612738495457921863985642317276183549341579628
058047090006005002107300860091800000060000430320006170000590013003062004080400500,258647391936185742147329865791834256865271439324956178472598613513762984689413527
607090080090003507001204630020000978300010000850000041040705020000040000018630750,637591482492863517581274639124356978379418265856927341943785126765142893218639754
752004060008000032900806000300070008100490250074600090203900400060005003000018700,752134869648759132931826574329571648186493257574682391213967485867245913495318726
