010730020000094065400860903700403080001000502008620000360000100059008040020010079,916735824283194765475862913792453681641987532538621497367249158159378246824516379
308000926201803040000050000506009001073004080000600005805070169040060230020100700,358741926261893547794256813586329471973514682412687395835472169147965238629138754
009064027000850001260300400300040800006207540920010070005700030400090180130005000,589164327743852961261379458357946812816237549924518673695781234472693185138425796
001070008508060700000009040056007024000100903040200071960085000070302590000004300,491573268528461739637829145156937824782146953349258671963785412874312596215694387
200005400001702005870960200053400080000000109008007052102500800694310007000046030,269135478341782695875964213953421786726853149418697352132579864694318527587246931
430010950700452000000000078009001003080700026042600100005000209024096080000080310,436817952798452631251963478679521843183749526542638197815374269324196785967285314
040080270020301500509006040603000000070190080080007402002700100398500006005802300,146985273827341569539276841653428917274193685981657432462739158398514726715862394
007040903020060700048000051090305026700920000200104300034090082000003695016008000,157842963329561748648739251491375826783926514265184379534697182872413695916258437
000070032080150400173090806701205600200000080500640091920768000006030005040001000,459876132682153479173492856791285643264319587538647291925768314816934725347521968
320065001074200800100080007030100270009006000000390046600002050402070608017050930,328765491974231865165489327536148279749526183281397546693812754452973618817654932
000504000065020839102000005020035000709680051003907080900010007678000200000300400,387594126465721839192863745826135974749682351513947682934218567678459213251376498
004270500005001900028300046409600731000050000607409008080002000000503670200960010,194276583365841927728395146459628731832157469617439258586712394941583672273964815
700013006008702500002800094500008170000340800001900000840060010609000307020500040,795413286468792531312856794534628179976341852281975463843267915659184327127539648
000089065040070930002600000001300000090067800207005014016020500005000390380400201,173289465648571932952634187861342759594167823237895614716923548425718396389456271
005000401071042030080700090702610005030405067000009140000060020904300010326090800,295836471671942538483751692742613985139485267568279143817564329954328716326197854
020063070604800009830001050000000003508090400960270080080600502001007040250400001,125963874674852319839741256742185963518396427963274185487619532391527648256438791
800061027063490100004208900510006002040020000008034076002070031009500780000000005,895361427263497158174258963517986342346725819928134576452879631639512784781643295
000980065502000100100070004004590300010607800800032709085403090070000020030026001,347981265592364178168275934724598316913647852856132749285413697671859423439726581
239000010008010050400896070306704000190300800000900206605038709000650081024000000,239547618768213954451896372386724195192365847547981236615438729973652481824179563
080006000109430070040090251000000000257300908008200043002000710560070094300051600,785126439129435876643798251436589127257314968918267543892643715561872394374951682
085370040010025070000609001009457030153900000000002060008010302294080000500006700,985371246416825973372649851629457138153968427847132569768514392294783615531296784
307900601005020300021000048000103087070540900602000000009085460400307000080610005,347958621865421379921736548594163287178542936632879154719285463456397812283614795
000980261706023040000000050800062500091004002050170300003005806084000097200710000,435987261716523948928641753847362519391854672652179384173495826584236197269718435
200007185000904703600010004002450070061308002409060010087200509000000620300509000,294637185518924763673815294832451976761398452459762318187246539945183627326579841
500010470030968050209045000408000007020100630301082000000420510050000080007006390,586213479734968251219745863468539127925174638371682945893427516652391784147856392
204600970008040000061703000600201400009080160040070850050329001002000009300000708,234618975978542316561793284685231497729485163143976852857329641412867539396154728
001000605700019803364000020030000080085740210206800090009020400020300700610470000,891234675752619843364587129137962584985743216246851397579126438428395761613478952
278490300009060004001000800090080070803002501054003209020700050000025006400136007,278491365539268714641357892192584673863972541754613289326749158917825436485136927
803000600070089000200406030000500402600097310310040980100005000020030070004268059,853721694476389521291456738987513462642897315315642987168975243529134876734268159
000081500000000700801230090400700052009006014000002360004690008930000000520873000,697481523342569781851237496463718952279356814185942367714695238938124675526873149
600100004007053090030070600084020960000300028009801500050904003900200150100060700,695182374417653892832479615384725961571396428269841537756914283948237156123568749
900520043080000060002706009320187500047000180000005000010600000030000972805049001,961528743783914265452736819326187594547392186198465327219673458634851972875249631
000100905009057400300048010682000070010203800000074060400690008200000506570002103,847126935169357482325948617682519374714263859953874261431695728298731546576482193
500020601000300409081500020098607030000000000003910074007400800106073205029060007,534729681672381459981546723498657132715234968263918574357492816146873295829165347
060205007134070050700006940002500003040009000580060270098000100610004005000302806,869245317134978652725136948972581463346729581581463279298657134613894725457312896
310040209006010005000970000820003007490000060005007048703026050009000816100050000,318645279976312485542978631821463597497581362635297148783126954259734816164859723
002860070001040085400003600180609003340050100007000008000925006063007901050100804,532861479691742385478593612185679243346258197927314568814925736263487951759136824
350700040806204100009650073030000082608009000701000304005010700010006090000425801,352791648876234159149658273534167982628349517791582364485913726213876495967425831
500067010080010640400230709010500307006102080008070024109004030007800500030090002,593467218782915643461238759214589367376142985958376124129754836647823591835691472
048503000900720100002600047021009800009000623000870900600045010300100460000930005,748513296956724138132698547521369874879451623463872951687245319395187462214936785
020009750087203000010008006000006170400910000002700930009400600038002041600050203,326149758587263419914578326895326174473915862162784935259431687738692541641857293
090150002000008160000023078007009003136700009000600510501204086002080050084007000,798156432423978165615423978257819643136745829849632517571294386962381754384567291
060000027302510900084003000200458071001060400000032009700600000500204083098070065,165849327372516948984723516239458671851967432647132859723685194516294783498371265
000400026801905030300170080000000801076008502290010040000034000005602004003050769,957483126861925437342176985534269871176348592298517643619734258785692314423851769
000003120013060700578040000920006003600500897040007600790401050000050000104208009,469783125213965784578142936927816543631524897845397612796431258382659471154278369
020050309007008010506004008061000200300190060840060095004326000010000480009080073,128657349497238516536914728961845237375192864842763195784326951613579482259481673
930500200267100080008740000000009000300486100020070054090010032510000900040030670,934568217267193485158742396481259763375486129629371854796814532513627948842935671
050209074040301000800004260980700100006005900100030040400050092302007010070040806,651289374247361589893574261984726153736415928125938647418653792362897415579142836
500400030100006000000890725305918060720000850090020400804560002007000090006230140,589472631172356984463891725345918267721643859698725413814569372237184596956237148
014600020206045700580090000008004510390000007000827000100702849700001600005360200,914678325236145798587293164678934512392516487451827936163752849729481653845369271
008400201790300060016080057300020800005090004087140005000005083000710600261000070,538476291792351468416982357349527816125698734687143925974265183853719642261834579
050000700090610000300054081008106079100030500402000003000891002205700048000240060,651382794894617235327954681538126479179438526462579813746891352215763948983245167
903006005084000013050030270020013508000750040410200900600000000000080794890501020,973126485284975613156834279729413568368759142415268937642397851531682794897541326
000090700905300162038002004500000096612030405004700008700018000001000040060420030,426195783975384162138672954587241396612839475394756218743518629251963847869427531
600408012507000300200030908920570604004800000176000090030094007010300500700120003,693458712587912346241736958928571634354869271176243895835694127412387569769125483
002087409065020800004310000079501002400000090010800070800230540351009060000000007,132687459765924813984315726679541382428763195513892674897236541351479268246158937
500301007200080043000709620408000200031050700009604018062078000800005309000410060,546321987297586143183749625458197236631852794729634518362978451814265379975413862
005620400304705008020001009080300500000009102670040900968000007430107000057080206,795628431314795628826431759289316574543879162671542983968254317432167895157983246
300060105025040600800107340000608000030090020790014500006000290240009001007300058,374962185125843679869157342452638917631795824798214536586471293243589761917326458
500903760210508900000000010000000006090670040403021570006400028308050400701200003,584913762217568934639742815175394286892675341463821579956437128328156497741289653
000007300304005079029460008107040005080370042003008010400019087000082000560000001,856197324314825679729463158197246835685371942243958716432619587971582463568734291
840001960100907000030045078003090050700000602086123000004009083072300000000060019,847231965165987324239645178423796851791854632586123497614579283972318546358462719
090107030053020018000060420006045087200000003378000900120900000807054000000070642,492187536653429718781563429916345287245798163378612954124936875867254391539871642
910060004002010067403009000070082190306000020000435800709000000008206050030941080,917568234852314967463729518574682193386197425291435876729853641148276359635941782
070030964080009300000004750400005102230000580100600009092400607005700040006213000,571832964684579321923164758469385172237941586158627439392458617815796243746213895
006073005080500071000912800002400000168000090900007030000030054090208003700146280,416873925289564371537912846372491568168325497945687132821739654694258713753146289
041007030030640002600081500250100048007050900000098010004975800006000390070260000,841527639735649182692381574259136748187452963463798215314975826526814397978263451
020030001007000000068050740800600057300000109004512600081000900900400065005087302,429736581537148296168259743812693457356874129794512638281365974973421865645987312
708006000006901000590000071200040300637580409080000027000030000145060008000700952,718456293326971845594328671259147386637582419481693527972835164145269738863714952
500108900490570000006000072020600050701903208008000400007050019030804006089021300,572168934493572681816439572924687153751943268368215497247356819135894726689721345
002005094071080030900410670080090042735208000000060000020730016094000003000604500,862375194471986235953412678186597342735248961249163857528739416694851723317624589
000005000076002018524009700067200000001300054300608000745003060810070049002800300,138765492976432518524189736467251983281397654359648127745923861813576249692814375
210040300740080500050703001000370000600000028087060090500902000008000410360004209,219546387743189562856723941192378654635491728487265193574912836928637415361854279
000651070000700641000002830007890000605000100080400027100200480003060950924030000,438651279592783641761942835217895364645327198389416527156279483873164952924538716
061700000900000415402000800200906001300201058016004003050060900007800500094302070,561748329978623415432195867285936741349271658716584293153467982627819534894352176
780049200204005080000001003030207060051080000400060950005090732000076001908300000,783649215214735689596821473839257164651984327427163958165498732342576891978312546
000003269710040000030805000070008023090420000008016905042000300380500610005704000,854173269716249538239865741671958423593427186428316975942681357387592614165734892
970000010004650000350149000040000689780300004105000003000905820008013040690002507,976238415814657392352149768243571689789326154165894273437965821528713946691482537
020000100015020073700040065942015700060700804000900010003080059050006001004309020,326597148415628973798143265942815736561732894837964512673281459259476381184359627
800100009160200480035000620009050070406010005010740200002060047000908030750300906,824136759167295483935487621289653174476812395513749268392561847641978532758324916
000560380901003000360080007070006050150400930002300040039025160004007802800910000,247561389981743625365289417473196258158472936692358741739825164514637892826914573
008060904043008050019057302080001400005070060002690071007123009050740000900000100,578362914243918756619457382786231495195874263432695871867123549351749628924586137
307008010004071005000600020050487100029005708000300406130040070008000600006593000,367258914284971365915634827653487192429165738871329456132846579598712643746593281
800000002201503940069010030002605019000032007745008600504009300607800000000001050,853946172271583946469217835382675419196432587745198623514729368637854291928361754
005020098130800064006010050000072480097060001000305006040200900300001007501047020,475623198132859764986714352653172489297468531814395276748236915329581647561947823
400009065923008000006742008700583040500000091608200070890100004000000006001070350,487319265923658417156742938719583642532467891648291573895136724374925186261874359
020304600003005008059700001906003084000190070015008003048000290007020406000501030,721384659463915728859762341976253184384196572215478963148637295537829416692541837
082079034500200069070004008030000001000810950600040023009500047318020000004006000,182679534543281769976354218835962471427813956691745823269538147318427695754196382
010000005093040020000607100008200500400310096900065280047000000100702800630054007,216983475793541628584627139368279541425318796971465283847196352159732864632854917
081050090000600007509400012010800724430009005826005001003000000060002049700308206,681257493342691587579483612915836724437129865826745931253964178168572349794318256
800604090302080040040031006700100085000060003090058720620005400010900070570003201,851674392362589147947231856734192685285467913196358724628715439413926578579843261
009580020048003000730900010200001570000806002070040986090002361400010709065000000,619587423548123697732964815286391574954876132371245986897452361423618759165739248
850003002100009006204070830010640000400100090060002300030721405007000089640950000,856413972173289546294576831319647258482135697765892314938721465527364189641958723
008690500020300098107800040960005020050020106000704000805400001032008900400070030,348697512526341798197852643963185427754923186281764359875439261632518974419276835
090800510000006073010052680002140305008003100004700920206000000350000294700501000,693874512825916473417352689972148365568293147134765928286439751351687294749521836
050004100013007000900820003000010090002490870407500030570000200609100048830060500,758934126213657984946821753385716492162493875497582631571348269629175348834269517
603590120080003500700001060100007050005080006004960302560004000092000081008320070,643598127281673594759241863126437958935182746874965312567814239392756481418329675
800002000900004517564700000030807400609000302000260790780509003142000006005010008,817952634923684517564731829231897465679145382458263791786529143142378956395416278
806705004070061052003040700040052100200398005600000800031020009004910006000007500,826735914479861352153249768348652197217398645695174823731526489584913276962487531
270000000000769085006010030094081003605040007308605020040826000900000402100300570,279538146431769285856412739794281653625943817318675924547826391983157462162394578
