040020750600730090010006000970180500004000208000053000893005061002064007007009320,348921756625738194719546832976182543534697218281453679893275461152364987467819325
507800000000100089002040003800060030001005027903708650040501002300029700000670140,597832416634157289182946573875264931461395827923718654746581392318429765259673148
840037002000005009036090407080503000290010060070060254050140000007000190001872300,849637512712485639536291487684523971295714863173968254358149726427356198961872345
600200500090067004080000090005103026026900400400500387043701000700035010900082003,634219578592867134187354692875143926326978451419526387243791865768435219951682743
400050001003079620109084070705000068080043209000000410516000030000008090030216000,467352981853179624129684573745921368681743259392865417516497832274538196938216745
071050026000709003308000910000600200400080070100030685037004000009028001800905040,971853426624719853358246917785691234463582179192437685237164598549328761816975342
706000004210070950000003018030486000509021000000900670402090100071300580008500062,786159324213874956945263718137486295569721843824935671452698137671342589398517462
309400708680070000510800609000090001000543020406000370000000092002165030830700500,329456718684971253517832649253697481178543926496218375765384192942165837831729564
200674000600105400000080005960030070004010082010506090700800230008740100059300700,295674813683195427471283965962438571534917682817526394746851239328749156159362748
000016005510907000902004006070040930100030020304089100027000000053100469000068370,748316295516927843932854716275641938189735624364289157627493581853172469491568372
200100500000060802900053014030074060104908703005030020020045107073806090008000000,246187539351469872987253614832574961164928753795631428629345187473816295518792346
300040710410063050006029080001000600005000070830900024902504300700000802000008097,329845716418763259576129483291487635645312978837956124982574361753691842164238597
000260708600030021509700000090580304108000500070042009060307010904006000030850290,413269758687435921529718643296581374148973562375642189862397415954126837731854296
020360057004107083000000100000950300600704912108030040007400200049500000306008070,821369457954127683763845129472951368635784912198632745587413296249576831316298574
009063000010700302006100704007056000035204001080009470500000803004500026090048500,729463158418795362356182794147856239935274681682319475561927843874531926293648517
000500806950030000003078200370006085290010600010745000180457302060000097400200000,721594836958632741643178259374926185295813674816745923189457362562381497437269518
700002040021708900030054080509040030060010009800063020100500702098000064607020800,785692341421738956936154287519247638362815479874963125143586792298371564657429813
400009510023000004900060027000037106030120900080506000265000070000405001710090308,476289513823751694951364827542937186637128945189546732265813479398475261714692358
300015020097000405020730009010070006050020390009800000530400000086050710400600800,348915627197268435625734189813579246754126398269843571531487962986352714472691853
800600907002370400010005006001530064309401080000027000400080010950006008060702000,835614927692378451714295836281539764379461582546827193427983615953146278168752349
040500008800001036705089020294700053000030040001000690900068007600305280002100000,146523978829471536735689124294716853568932741371854692953268417617345289482197365
100400085500020360090003000060050002003906400007018000079000030000001806640030209,132467985584129367796583124968354712213976458457218693879642531325791846641835279
180000300056300470002070091500690000400007600003050002070510803019430000000002049,187945326956321478342876591528693714491287635763154982274519863619438257835762149
058002000700803204000070090610000070002764051000320800405000006001080900029610703,158942637796853214234176598613598472982764351547321869475239186361487925829615743
100002348208036700509070010000000601003290870907000032650700004300010000002485000,176952348248136759539874216825347691463291875917568432651723984384619527792485163
028530900190000640000060200900200000706803001000070805207059100004008030030017060,628534917195782643473961258981245376756893421342176895267359184514628739839417562
170000062300024951009030400000007000863090700015800004200600073900208500000041800,174985362386724951529136487492517638863492715715863294248659173931278546657341829
000592000710000020400160805800000056040750300106200004200300001007001080630480790,368592147715843629429167835873914256942756318156238974284379561597621483631485792
010030094609000700043005802120700500000602480056100000900048000500270000008010236,215837694689421753743965812124783569397652481856194327962348175531276948478519236
230160800004005020006070003008002100700600940690340005350400207020010000007900401,235169874174835629986274513548792136713658942692341785351486297429517368867923451
000080154901060007020037080040000610000005308308020040000900025607040000102700000,763289154981564237425137986549873612216495378378621549834916725657342891192758463
806040195000050430010600002002080651009504020308062000071008060520000040000390000,836247195297851436415639782742983651169574328358162974971428563523716849684395217
084050600000389000105000200090702006751060004306010008002840900000100570670003001,984251637267389415135674289498732156751968324326415798512847963843196572679523841
609000032300700180000350040060240501014000800705901000007420000031006027000080009,659814732342769185178352946963248571214675893785931264597423618831596427426187359
901703000830000009004010020040080971705002860300600045650000080002109036000840002,921763458837524619564918327246385971715492863398671245659237184482159736173846592
000500600005031074090007020300100007002000010408006300806705400901804530020910008,147592683285631974693487125369158247752349816418276359836725491971864532524913768
904800100020000865000051003008970200030002090007040000000027036500060410043000708,954836172321794865786251943168973254435182697297645381819427536572368419643519728
900000000050207106021800730030014005460003820500600900290070004083000560000061008,978136452354297186621845739832914675469753821517682943296578314183429567745361298
700305000010900006308600002090030461050000000200470590470108300100009080086050007,769325814512984736348617952897532461654891273231476598475168329123749685986253147
200690805060000043405080720830200060010070080900500004749800030050460000001032007,273694815168725943495183726837249561514376289926518374749851632352467198681932457
401208000750930062023000804560000008007010000102670045000400057930700000000001930,491268573758934162623157894569342718347815629182679345816493257935726481274581936
000001005000970002040380960210000648003050001000600090009107300030400029607030080,796241835358976412142385967215793648963854271874612593489127356531468729627539184
050001003007360080002790100000004008000020540120800690890430206075602000030000710,658241973917365482342798165569174328783926541124853697891437256475612839236589714
007090001100308705000051630308600200050204008609500400000043006860000590904000370,537496821196328745482751639348619257751234968629587413275943186863172594914865372
790000160200000004010426500380590000009132000040070020060800090405700301030001047,794385162256917834813426579382594716679132458541678923167843295425769381938251647
000600000007519080219403000300070400020005030106030509098006072000098040532001600,853627914647519283219483756385972461924165837176834529498356172761298345532741698
000807504500693007009000200610030000472000001090400082000086049000012306003705100,136827594524693817789154263618239475472568931395471682251386749847912356963745128
076003108408000050000200090000400907030068002715000000800040070003906001120005460,276593148498617253351284796682451937934768512715329684869142375543976821127835469
007601300300007059050040008009000000000430501700285030802000600460700290190300040,987651324346827159251943768539176482628439571714285936872594613463718295195362847
001028905007090400040000001210000800900300060053607000000040006634509200785000300,361428975527196483849735621216954837978312564453687192192843756634579218785261349
300000428000289000000700150260007001004008706590410080820040070010050930045600000,379165428451289367682734159268397541134528796597416283823941675716852934945673812
800005003000000219006730000060903800002650407107400900308002056000000000050046180,894215673573864219216739548465973821982651437137428965348192756621587394759346182
901500000700021360020008904080700056360009780000004090605403001010000008070205040,931546827748921365526378914189732456364159782257864193695483271412697538873215649
060190500803020104000503026600400080030052900105630070000018200020340010970000000,267194538853726194419583726692471385734852961185639472346918257528347619971265843
000003904047106000200800601000050002070304086385070000020780300001005090458200000,816523974547196823293847651164958732972314586385672419629781345731465298458239167
390007000008400000050023610040002903000060005132805007980100002603508701700000040,391687254268451379457923618546712983879364125132895467984176532623548791715239846
359000600060045001080260000100700058005082700000004039800030900000600100732509004,359871642267945381481263597123796458945382716678154239816437925594628173732519864
760519004000600000012704008009000050500300041831000900470080025090007000003200607,768519234354628719912734568649871352527396841831452976476983125295167483183245697
000520600701304005028070009000013002970800030210460500000080970400209100605000803,349528617761394285528176349854913762976852431213467598132685974487239156695741823
030019205500800006700420090009380104058700300061000900000903740080054000600000020,834619275592837416716425893279386154458791362361542987125963748987254631643178529
060001000001800020980005430300052090006047300702006104804500067000090008050060240,265431879431879625987625431348152796516947382792386154824513967673294518159768243
061840000004009078000500030900067020308900006070102050600730042050408900200005103,761843295534219678892576431915367824328954716476182359689731542153428967247695183
008700019056009040000020830005102000942803000700040060500206007003010906080030004,328754619156389742497621835865172493942863571731945268514296387273418956689537124
500084007007105046600200090204800103073020905005000000800001004036040200090300600,519684327327195846648237591264859173173426985985713462852961734736548219491372658
500060120020503009074089006050020907307900000000031840730004201610000580008006000,593467128826513479174289356451628937387945612962731845735894261619372584248156793
050800069801900407073060020600007304004020000018000950049600010000030245000010006,452873169861952437973461528625197384394528671718346952249685713186739245537214896
209700600001000094054900080000503020908000306400620017000060003607080201800274500,289741635361852794754936182176593428928417356435628917542169873697385241813274569
530200080007000400080064073000386001020000768100000054016470000009030200702500100,534217689697853412281964573475386921923145768168729354316472895859631247742598136
200080600005097000804503107040126570030900006000005890000070080319004000002000435,273481659165297348894563127948126573537948216621735894456372981319854762782619435
000070090060108035050003120000000040180046300002509008006290700093001000248600500,321475896967128435854963127675382941189746352432519678516294783793851264248637519
809057060400109820000400001005321009908040000073600040004002108530000200006900057,819257364467139825352486971645321789928745613173698542794562138531874296286913457
060000050000100907004907630003008400000370095105006200050040708248003000690200001,769832154532164987814957632973528416426371895185496273351649728248713569697285341
800700600150980002000100930040008570703050180060300004005049000370006020912000405,839724651156983742427165938241698573793452186568371294685249317374516829912837465
000038290073400060900100503019000070804501000060002008038000000400003605001069020,145638297273495861986127543519386472824571936367942158638254719492713685751869324
104030000060710003005000074407090000008503900093000258080100025001807600020056400,174935862862714593935682174457298316218563947693471258386149725541827639729356481
500806002070034108020950000080190300090007500604000020803700006107025049049010000,531876492976234158428951673785192364392467581614583927853749216167325849249618735
070865300090003002605200007001000740500002800860070001080901204400030590300000006,274865319198743652635219487921386745547192863863574921786951234412637598359428176
075008046002000050009030108410900002000400067390802000080360070250004000003000580,175298346832641759649537128417956832528413967396872415984365271251784693763129584
590000078030100026206500090005030000700090184040200000907040032012006000064907005,591462378438179526276583491185734269723695184649218753957841632812356947364927815
005008060243600051000000209900560030004080025100903000308190047006007000070024008,795218463243679851861435279987562134634781925152943786328196547416857392579324618
100000006063050070002900004070400810804600035095200000007003920430709600000108700,148372596963854172752916384276435819814697235395281467687543921431729658529168743
070403501810020960000900800602070000030800000157000406500002008060351004040090230,976483521814527963325916847682174359439865172157239486593742618268351794741698235
714300000000400860900250000500000000002090785073600400036084150009730000400006020,714368592325479861968251374591847236642193785873625419236984157159732648487516923
800007200103400007690508000008002915005300006060010840000709050200800401049060300,854137269123496587697528134438672915915384726762915843381749652276853491549261378
800000001420601890001204007107008000250000930003005076500043060009160000038907200,876539421425671893391284657167398542254716938983425176512843769749162385638957214
760809050045000610080640039800001960009700200610003005100080004002030007370520000,763819452945372618281645739827451963539768241614293875156987324492136587378524196
070036508040000001080105720000009150500200073702080006023470900604098000100000300,271936548945827631386145729438769152569214873712583496823471965654398217197652384
060805000340070510800900076050610009600007200091520403000380005908000020012000034,167835942349276518825941376254613789683497251791528463476382195938154627512769834
000920006050070000001086300500002079078450600032068104004000702010000030867040010,783921546659374281421586397546132879178459623932768154394815762215697438867243915
080407015050000000406003792001020640307001000000090008004502900200178053000006071,982467315753219864416853792891325647347681529625794138174532986269178453538946271
530400100000900057000010309210500080400000200060089401700102006086304090000078000,539467128841923657672815349217546983498731265365289471754192836186354792923678514
302009701080010693010000004570060300000050180846003000700080500030490060609271000,362849751487512693915637824571968342293754186846123975724386519138495267659271438
000000603890160000507000200000400098104027005300010000732000054048030920000004706,421579683893162547567348219276453198184927365359816472732691854648735921915284736
300042008002600705005970010603790500000080400040301602700000096010000000589060304,371542968892613745465978213623794581157286439948351672734825196216439857589167324
043000020860000750900028001500743180020095047000080000700051930050900070030006400,143567829862319754975428361596743182328195647417682593784251936651934278239876415
040001250030200409806900100500009071000700000002380906009502003471003600000060800,947631258135278469826954137568429371394716582712385946689542713471893625253167894
360007400050308027009010000000200005504070030200809600070430809602000140900681002,368927451451368927729514386816243795594176238237859614175432869682795143943681572
540300100900000027000084600000409300030060570471002060000705000060040981310008005,546327198983156427127984653658479312239861574471532869894715236765243981312698745
100072060005100978008400103090010400004520780300609000200980050051300002070004300,139872564425136978768495123592718436614523789387649215243981657951367842876254391
700820106080100000040960320279630040000010000030095700410000093005000860008270005,793824156682153974541967328279638541854712639136495782417586293925341867368279415
