009804065030190040200000700060350170070002900000008003007003081194600200006070500,719824365635197842248536719462359178873412956951768423527943681194685237386271594
602730940051000070043009018000063800005900032070080491004312000098006500000500000,682731945951824376743659218429163857815947632376285491564312789198476523237598164
105800000400079000078320060309600071000002085000035046006000120540000030703910008,135864792462579813978321564359648271614792385287135946896453127541287639723916458
008709460009041005702603000056082001400090300800100900030007528000460000007005090,518729463369841275742653819956382741471596382823174956634917528295468137187235694
001090700570008000906420050200085940005010038600700020407059800030004006009361000,321596784574138269986427351213685947745912638698743125467259813132874596859361472
000140603200050409081000007500003920030005008908074000009000072054290060670080300,795142683263758419481369257547813926136925748928674135819436572354297861672581394
000400183000060000420109007002905008978030002050040710000700841690200000810300026,569427183781563294423189567142975638978631452356842719235796841694218375817354926
000078050057006000269430070080000620906000001120807040010090385600250004300001900,431978256857126493269435178584319627976542831123867549712694385698253714345781962
540080003000901007001040600900034260312006800000100705008693010009072004200008000,546287193823961457791345628957834261312756849684129735478693512169572384235418976
407500600000463020120908000690207000251030040003000800010004970079002051500000003,437521698985463127126978534698247315251836749743195862812354976379682451564719283
400010052500029300800703906000598030072640000000070001605200004793000805010000600,439816752567429318821753946146598237372641589958372461685237194793164825214985673
001908006700120300090060002020700014080340070000051800630004089005090060042076500,251938746764125398398467152523789614186342975479651823637514289815293467942876531
980400000720596000000080300040032090000100084610700050390860107004007000005010962,981473526723596418456281379548632791237159684619748253392865147164927835875314962
001300000908004005700056120230009001054060700000830046409010680600070539000000000,521387964968124375743956128236749851854261793197835246479513682612478539385692417
007000053008062071100090802302000000060050090570301040480030020005007608090026500,627418953938562471154793862342679185861254397579381246486135729215947638793826514
000768010036095008270001000820000460004070090501036000009680100400007000003124005,945768312136295748278341659827519463364872591591436287759683124412957836683124975
002010000090305017070040590720003600509060000004071085000006470060058002301900006,852719364496385217173642598728593641519864723634271985285136479967458132341927856
057006004010803070960017002279500040500000001004690080300240000008070305020008010,857926134412853976963417852279581643586734291134692587391245768648179325725368419
302004091581900030060000700100602000030051079058000040840100200005076000006083950,372564891581927436469318725197642583234851679658739142843195267925476318716283954
000008000580630004007500009036010050150700203004090008260180005079200310400060070,692478531581639724347521689936812457158746293724395168263187945879254316415963872
000060001400809360000001090680400729052000004000700580301058900026040007008200013,839564271417829365265371498683415729752986134194732586371658942926143857548297613
500080906002700030830290005086004200000960504070810090100400300024000070009300068,547183926692745831831296745986534217213967584475812693168479352324658179759321468
020000010067200003301950800810730590200006007004800002093000400000004659075010000,928463715567281943341957826816732594259146387734895162693528471182374659475619238
008207090097010208310000005600940001004008000720053006003670042001004050800300000,568237194497516238312489765685942371134768529729153486953671842271894653846325917
091052740050070300003009000000000074600003820405680000072106090034500000168000502,891352746256471389743869251389215674617943825425687913572136498934528167168794532
001350200006708940090020701013000600040800002050046013000007009000180450730205006,471359268326718945598624731813572694649831572257946813185467329962183457734295186
200070800000083740400601230080762000390450601000000080100000057654300900030920000,263574819915283746478691235581762493392458671746139582129846357654317928837925164
900700048046003500507060001100020084005680030200401900000030000708900050002018076,931752648846193527527864391169325784475689132283471965654237819718946253392518476
010000294004002056300600070068900043590007801200350000400080902070010000106503080,617835294984172356352649178768921543593467821241358769435786912879214635126593487
400201006000068400020500093003800000006070051209034708982010004010620070700000900,437291586591368427628547193173856249846972351259134768982715634314629875765483912
040000003090472000002105080031000097027600801000500060400309050308000024070004106,145986273893472615762135489631248597527693841984517362416329758358761924279854136
052130000003084090000000062009000083800501904570300016310800050040009700600000408,952136847763284195481975362129467583836521974574398216317842659248659731695713428
020008457600010200000300100401500709905024003730800000000003004008100560097600080,123968457659417238874352196481536729965724813732891645516283974348179562297645381
002007068090002103860010000000030054528009000430001700007020900100608470000050081,312947568795862143864315297971236854528479316436581729687124935153698472249753681
500900304007800600090647020100780005050302080400000100012009800000000206860053091,586921374247835619391647528123784965659312487478596132712469853935178246864253791
140070600900800003300900270002000806079520034030041009200000010004060005800397000,145273698927816543386954271412739856679528134538641729263485917794162385851397462
000659103000000082007308940140006297070510600830000005054170000000002000093400060,428659173369741582517328946145836297972514638836297415654173829781962354293485761
000009600086300009070400010803001000004006207090584100510803020002090054700020930,321759648486312579975468312863271495154936287297584163519843726632197854748625931
037010068002009400840053000600000041090370800000200053500080002200604100001005070,937412568152869437846753219623598741495371826718246953564187392279634185381925674
000500032000084175000630004054009700689003000207001580020000000810270046000046018,948517632362984175571632894154829763689753421237461589426198357813275946795346218
006100209040000580001920040900643002500000013804000790020409305670518000000070000,756184239249736581381925647917643852562897413834251796128469375673518924495372168
007020080031069040080000001209470060000500200600000030804701090050090407096030015,467125983531869742982347651219473568348516279675982134824751396153698427796234815
040200009635007210900083000001608007700000560500009031000001940006002080007430025,148265379635947218972183654321658497789314562564729831253871946416592783897436125
700108400054023670910500020000000804003081900260039500680007100400090006025000040,732168495854923671916574328197652834543781962268439517689247153471395286325816749
000000006040530008019062700730001209028073500000050007084016000092004030670900041,357198426246537198819462753735841269928673514461259387584316972192784635673925841
000700062780000140040615800508000900630290000070153000900000430014007509002840001,195784362786932145243615897528476913631298754479153286967521438814367529352849671
307180605200500000190070304078300002000018590004900006800640700001003000002050043,347189625286534179195276384978365412623418597514927836839642751451793268762851943
000080010030490000500603709700520900200700584004861000301040875000002340067000000,679285413132497658548613729783524961216739584954861237321946875895172346467358192
000530689900160200508000000084003007200470050003002960002080500076000010190004003,421537689937168245568249731684953127219476358753812964342781596876395412195624873
000086700003200080540000009006978030010300600000000048607090810005847090900013020,291486753763259481548731269456978132819324675372165948637592814125847396984613527
000040020700800006006572900870603500002000040103089000000768004500000380401200079,918346725725891436346572918874623591692157843153489267239768154567914382481235679
059040002307800900010000600908013000070080090004006520083090050205000700600207034,859641372367825941412739685928513467576482193134976528783194256245368719691257834
102560070600700890030004600095003084060298000000000020047010009003800510000027300,182569473654732891739184652295673184461298735378451926847315269923846517516927348
009040086700205003160000400002910057040780900001000300300400869500100004028090030,259341786784265193163879425832914657645783912971526348317452869596138274428697531
500003067027009300010800590001630704000950000860002010009400003170000200004100856,598213467427569381316874592951638724742951638863742915689425173175386249234197856
001400897090206403500700100300040605009000380820050000400970030006082500030000710,261435897798216453543798162317849625659127384824653971485971236176382549932564718
036180020020006000800970065001025003000040016050300094700200480140058000300000907,536184729927536148814972365491625873273849516658317294765293481149758632382461957
036000008709400310100908005000050063400073290002100800008612030000500029001004700,536721948789465312124938675817259463465873291392146857978612534643587129251394786
300000917000500026080192000070800632803900000002060400007400080610000053590701000,325648917941573826786192345479815632863924571152367498237456189614289753598731264
400000001006007290083900050500600700071002064904073020010204080002018570009056000,497825631156437298283961457528649713371582964964173825715294386642318579839756142
300020870900845630010000009041006200600058190000203050007100340806070002000300005,365921874972845631418637529541796283623458197789213456257169348836574912194382765
106042700000050001008600900004060305200003480860000070305709018007500009920300040,196842753432957861578631924714268395259173486863495172345729618687514239921386547
070000641009500007600020800000001200304070005105009064200034010406008573001900000,572893641819546327643127859967451238384672195125389764258734916496218573731965482
060320000070600532000074800003092070001400005907800210008000196400005000030701408,165328749874619532392574861583192674621437985947856213758243196416985327239761458
267300500500007040008900010830050420095010708000004006600500100020068390001003002,267341589519687243348925617836759421495216738172834956683592174724168395951473862
270600104000020050000450706000006031508012000603000009420900870100040903830705000,275683194964127358381459726742896531598312647613574289426931875157248963839765412
400605807000030010030097020057060200010300590300409000200080104600023970598001000,429615837785234619136897425957168243814372596362459781273986154641523978598741362
306421080905306000040009001000002540003070069080090007200000004130005700400600108,376421985915386472842759631791862543523174869684593217267918354138245796459637128
002700104069005080870001009206913000938000010000004002400020758003400200005080603,352798164169245387874631529246913875938572416517864932491326758683457291725189643
916030007003000800500907200090000410450001008000084076000040130020065000741028050,916832547273456891584917263698273415457691328132584976865749132329165784741328659
738050020059020304602001900000086030070100805001430000006207010510000009400000007,738954126159628374642371958295786431374192865861435792986247513517863249423519687
700000940000184006008060050450002001002500073809030600100000200907803000006049300,761325948295184736348967152453672891612598473879431625134756289927813564586249317
730004200000570100059003046000060070302050804001407502090002030006080000080700415,738614259624579183159823746945268371372951864861437592597142638416385927283796415
301080000047100009650002003010040000503207906009060750000023004860401005000700180,391684527247135869658972413716549238583217946429368751175823694862491375934756182
082703450000001000903020800304005009000004760670082000001000570029040630460500100,182793456746851923953426817314675289298314765675982341831269574529147638467538192
705009000401503960068010002500006090010070000203400780300008670000620408004097100,735269814421583967968714352547836291816972543293451786352148679179625438684397125
700083100124060000003402005080000070210095006456000009000170200000830090600009047,765983124124567938893412765389641572217395486456728319948176253572834691631259847
600190004047530060180000907070600201019750048800002300021300000006000520300049000,632197854947538162185426937573684291219753648864912375721365489496871523358249716
000704230062050100904010080090870010010000000706300008850002706030490000201000500,185764239362958174974213685593876412418529367726341958859132746637495821241687593
205070068640009210080040003900536080007000000030180040150760000020090005008200930,295371468643859217781642593914536782867924351532187649159763824326498175478215936
090405006010290045000010080102680400600070003070904000087000200025307018000050039,298435176716298345534716982152683497649571823873924561387169254925347618461852739
030000080006900705015060093049050600000630020200800907304010000097002501850004060,932175486486923715715468293149257638578639124263841957324516879697382541851794362
850003000090150086013000040080002063302408509700000001405900000000607902006300700,854263197297154386613879245581792463362418579749536821475921638138647952926385714
000070008000309060100546007004210806003005040700000051950800000320000400600793210,436172598275389164189546327594217836813965742762438951951824673327651489648793215
905603800030890006000400002687010000203008904010005600008200073701009400000000500,925673841134892756876451392687914235253768914419325687598246173761539428342187569
276090500080030460000005007500203100109040020008907003750108009000002000040050076,276894531985731462314625987567283194139546728428917653752168349693472815841359276
070320809905060000100005067709100000640097003002008005530076020000400081004200070,476321859985764132123985467759132648648597213312648795531876924267459381894213576
060003057400001600820500003370090060102400805005020010080302006500047900004000780,961283457453971628827564193378195264192436875645728319789312546516847932234659781
002306004400800506000097021085001000070620190000900053009583007108070040003000200,812356974497812536536497821985731462374625198621948753249583617168279345753164289
800030009050200800270506001061040082000907000003000506480002105005473000600800970,816734259354219867279586341961345782528967413743128596487692135195473628632851974
050000020100600709070408516019002035340900800802007104000790003004000060200305080,456179328128653749973428516719842635345916872862537194681794253534281967297365481
050640791040009368030000002010008000407300000600972040295006000008200073000851006,852643791741529368936187452519468237427315689683972145295736814168294573374851926
601002709300009008700840200200900060000050070078100904956470300000300416010028000,681532749342719658795846231234987165169254873578163924956471382827395416413628597
800004061450067003900300000130470086207036000000902400700520010061080020008000905,873294561452167893916358742139475286247836159685912437794523618561789324328641975
370000012009000450160402307000300049007050800018076000002030000080640500590108600,374865912829713456165492387256381749937254861418976235642537198781649523593128674
498320506001009002600700810020006004040090380750030200300170000200900047080050000,498321576571869432632745819823516794146297385759438261364172958215983647987654123
500701000060900740240000001008600072300204500400080690001070300000500069890063150,589741236163928745247356981918635472376294518425187693651879324734512869892463157
024000070000100308050726000002008000930000402400900056709650080000309104016000500,124893675697145328853726941562418739938567412471932856749651283285379164316284597
002003700006000504354080000045090106790102480000005093030020600500900001081074020,912453768876219534354687912245398176793162485168745293439821657527936841681574329
000709640000051200935600001000514800608000590007900023806400307001008000350020000,182739645764851239935642781293514876618273594547986123826495317471368952359127468
