704090251000006030391000008900705300007600080000024706400250000020080019518003002,764398251852146937391572648986715324247639185135824796479251863623487519518963472
681090340050000097000465000000042900098601050370800002000570403010080270006100000,681297345452318697937465821165742938298631754374859162829576413513984276746123589
300200050069043708080009001000912600402560000710080000000000160030791002005800349,341278956569143728287659431853912674492567813716384295928435167634791582175826349
001600083000590040920000500080470201507008300160000070004030809003160705600902000,451627983738591642926843517389476251547218396162359478214735869893164725675982134
008640070970001008605000002090100000407230050512908006000307069800000000061805300,128649573973521648645783192396154287487236951512978436254317869839462715761895324
100080007364007000900050120020000600037602049810094050000070098280300004000005036,152983467364127985978456123429538671537612849816794352643271598285369714791845236
590007006003000072100694000000230010040000000009001507680100009027850430000072058,598327146463518972172694385756239814841765293239481567685143729927856431314972658
030510800007300206020007104980200600710094500004000091800050067050000408601089000,436512879197348256528967134985271643713694582264835791842153967359726418671489325
104068097000007800030009050502480006907012034000000000020970005403500010605031029,154368297269157843738249651512483976987612534346795182821974365493526718675831429
030040700100079040708000190000206000600590480085000300003064072090801600402005810,239148765156379248748652193374286951621593487985417326813964572597821634462735819
700020009081009570600051003260500800058002300030906007009400020003000106420807000,745328619381649572692751483267534891958172364134986257519463728873295146426817935
300000002048060000607940100000009500020570003410008960502000076700080400000730089,391857642248163795657942138873619524926574813415328967582491376739286451164735289
005960100307000000020513408000809005000230749600000300009002504032070000048305060,485967123317428956926513478273849615851236749694751382769182534532674891148395267
026000053900076200140080000000008900609500731010000406805407060000002370030010000,726941853958376214143285697374168925689524731512793486895437162461852379237619548
300421760009060300600700018498000150001000070060090004072005000040080235800016000,385421769719568342624739518498672153231854976567193824972345681146987235853216497
000030475840000300502000601076312900058700000301809046000074290063000000000180000,619238475847561329532497681476312958958746132321859746185674293763925814294183567
004083520298007000600040107800000290100024070020501400500008036001060704030900000,714683529298157643653249187845736291169824375327591468572418936981362754436975812
004050270932000008000000401170020000050013067040908000000860509003204006601730802,814659273932147658765382491179526384258413967346978125427861539583294716691735842
037910006502000000000008340048607090000040030001020500803094170050030408020700060,437912856582463719916578342348657291295841637671329584863294175759136428124785963
302010046000500870070003000400600209001097060800040015925000430006200951003000008,392718546614529873578463192437651289251897364869342715925186437786234951143975628
500000070720004103003097020030680000870025090090100502000010005002300060106050809,568231974729864153413597628235689417871425396694173582387916245952348761146752839
050600090400002087032049010019020570000706003203580400060907000020410950008000001,851673294496152387732849615619324578584796123273581469165937842327418956948265731
640700050002010470000020030071009005008000920020003041710900006080054300509867000,643798152852316479197425638371249865468571923925683741714932586286154397539867214
000004051680000304051090000000020900849007006072068030000306020590700040030150860,923874651687215394451693782365421978849537216172968435718346529596782143234159867
003700205100504060000680009819007040420001630300002000280090007006000000054238090,643719285198524763572683419819367542427951638365842971281496357936175824754238196
019000050280010403300047002102000000900600007745309800070000680000406970600000301,419263758287915463356847192162784539938651247745329816573192684821436975694578321
000035260040070900201000008300090047060500090807060001702400056006012430400003000,978135264643278915251946378325891647164527893897364521732489156586712439419653782
700800340209103005360027001028000000005009034007000580806200070000061000040300950,751896342289143765364527891928435617615789234437612589896254173573961428142378956
030000000000931020408000079700100000020653040950400860100740503060580700080002094,239874156675931428418265379746198235821653947953427861192746583364589712587312694
000000617040002008000950003001003040300580200006700009089001000207040090035006172,952438617743162958168957423891623745374589261526714389689271534217345896435896172
002006007800000400010023050000470003069300005005002840000510209503908100007000060,952146387836759412714823956281475693469381725375692841648517239523968174197234568
509720400060503000000086710708100004200470098650000002040800500301009000070200930,589721463167543289432986715798162354213475698654398172946837521321659847875214936
002700365790000000004051080508002701000170000000906204420000006100308000907004520,812749365795863142634251987568432791249175638371986254423597816156328479987614523
001365090009008765000490000830040006060051207000900500006200380480000000702000409,271365894349128765658497123835742916964851237127936548596274381483519672712683459
090002000578400002400710680010230900000000104000069058750003061280040005109800020,691382547578496312432715689815234976926578134347169258754923861283641795169857423
000900004007031800053600020002008076000500400040093012080100090105840307609052000,218975634467231859953684721532418976791526483846793512384167295125849367679352148
513600400600800027070091630004002508900005000230100000006209003008004070407060250,513627489649853127872491635764932518981745362235186794156279843328514976497368251
030400010051000069082067000006218004000700050048039206000052030004900000760300001,637495812451823769982167543576218394293746158148539276819652437324971685765384921
000070100000090080170050439804360070650100300900500020090000750032000648008024000,289473165345691287176258439824369571657182394913547826491836752732915648568724913
020900005030040170000635000500008600092300080067020040400070350070056820009100004,628917435935842176714635298543798612192364587867521943486279351371456829259183764
007000480450002107003900000000008520900530708600001340160040800740609000032010060,297165483456382197813974652371498526924536718685721349169243875748659231532817964
004000900090048001563007002200709000008030005950020060100400000027580040300691708,814265973792348651563917482236759814478136295951824367189472536627583149345691728
000906000708240500004073200200800601050010074190000030600004180002005700310700009,521986347738241596964573218247839651853612974196457832679324185482195763315768429
040000602000100030008005070960004300700028004001009526097006108530200709000400050,145873692679142835328965471962514387753628914481739526297356148534281769816497253
007000043201004050000082900060005417500901002300200690009700060805010000046003108,687159243291374856453682971962835417574961382318247695139728564825416739746593128
600000052028016970713005060001037090000240500439000080176000020000063000040090800,694378152528416973713925468251837694867249531439651287176584329982163745345792816
000500010028079030630000040509000004073008000000640500000300062080720901004106087,947563218128479635635812749569231874473958126812647593791385462386724951254196387
062750130010080009508300020003800560050200300106004070024003800000060000900100047,462759138317682459598341726243897561759216384186534972624973815871465293935128647
504230070070000000060180040001003904008054000702900506030405210800060090000891600,584236179173549862269187345651723984398654721742918536936475218815362497427891653
086200059030000000140005620300090740000800002690000031001570093000026008007043506,786214359235769184149385627318692745574831962692457831461578293953126478827943516
302000004040003050710690000050000042209081300600570800500200436001900008803040021,382157694946823157715694283158369742279481365634572819597218436421936578863745921
030080040906002800400705302508010007012004000040063250890100503000047000007050690,235681749976432815481795362568219437312574986749863251894126573653947128127358694
003410280900600000074032006600000015100804907009570000400005023051029400038000000,563417289912658374874932156647293815125864937389571642496185723751329468238746591
010090800004800690005304000040000700039056001800703020003620900000005240206017050,617592834324871695985364172542189763739256481861743529453628917178935246296417358
004005207017093005680002010001000300020080094400031070002400806938027500500010000,394165287217893465685742913861974352723586194459231678172459836938627541546318729
600000082000036000000700500058027901090000870014050030903540600001000004072309100,637195482845236719129784563358627941296413875714958236983541627561872394472369158
010920400000004067090608502370000806005043200400010070082070053600080100003005009,516927438238154967794638512371592846865743291429816375982471653657389124143265789
090038040050009280206100070001097500630000000000540032040900710700015003003602900,197238645354769281286154379421397568635821497978546132542983716769415823813672954
560400007002000009700831000080300150605000940003209000000107000009006380108020065,561492837832675419794831526987364152625718943413259678356187294279546381148923765
920001000000203980103700502005096070098007000600308450847000000010600003060805240,926581734754263981183749562235496178498157326671328459847932615512674893369815247
902076034064900070010080050503800400020003010000200900006500007780040102239060000,952176834864935271317482659593817426428693715671254983146528397785349162239761548
360800020000950060002043070090170430480000001036089200070000900601000300004021700,369817524748952163512643879295176438487235691136489257873564912621798345954321786
800700050057304206206000073164008005080000000009170400510090082070010009000562030,831726954957384216246951873164238795785649321329175468513497682672813549498562137
010028005900470000040000670100030007780095060209800014003000000500940800862001309,617328495925476138348519672156234987784195263239867514493682751571943826862751349
009102007300500800108007940004030260000054010763000008207010306030090504600800090,459182637376549821128367945514738269982654713763921458297415386831296574645873192
200009030009580167000040080020006091000800200406070350080004600710030000032918500,278169435349582167561347982823456791157893246496271358985724613714635829632918574
200040300094050016050010000300002400001730080029000600046100807700300005005608209,217946358894253716653817924378562491461739582529481673946125837782394165135678249
702080030053020610080003000000000500016402007040750009260805700009000053800170004,792681435453927618681543972927318546516492387348756129264835791179264853835179264
902306480700008231810700000500263000000040750001000009004902305080001000060450002,952316487746598231813724596597263148628149753431875629174982365285631974369457812
702031400038045000010607902384060070009000360000000108540023007006009050200700001,762931485938245716415687932384162579129578364657394128541823697876419253293756841
000701000006004029180500030001409570300100046072060300507000068908607004020050000,243791685756384129189526437861439572395172846472865391517243968938617254624958713
500100700000040060032009008206007030710950000049003605090800013087020490000601500,568132749971548362432769158256487931713956824849213675695874213187325496324691587
060200000073090020805043001090000700000078310600500084230017068400005070051609200,964251837173896425825743691398164752542978316617532984239417568486325179751689243
500004021106070300040209700000056930700100052004320080890500010630000004012700008,579634821126875349348219765281456937763198452954327186897542613635981274412763598
100200004040096502020058030700000006459070080862003910000002600901700005030080740,195237864348196572627458139713829456459671283862543917574312698981764325236985741
000103709900500082057020600003010508705000000640008023020080090400035801000967040,862143759934576182157829634293614578785392416641758923526481397479235861318967245
019040600600007001000000280003050090097010460508200003704306058300408900000005070,819542637632987541475631289163754892297813465548269713724396158351478926986125374
060027093803060000070800020000050941005108006030094050704200080000700002090041360,561427893823965174479813625687352941945178236132694758714236589356789412298541367
590001700060200080001674020145900200000302009300010008900526003670080040000700100,592831764467295381831674925145968237786352419329417658914526873673189542258743196
130907004207100605080032000040000050863000190000013007509004700010020000000560280,136957824297148635485632971741296358863475192952813467529384716618729543374561289
790003205100072000408000090050067000209800001001200853000590078900316004064000000,796483215135972486428651397853167942249835761671249853312594678987316524564728139
018703500006009430000015000607008003009100840050020600200460009000030700700901082,918743526576289431432615978647598213329176845851324697283467159195832764764951382
000000420293050080140703000080900147050170000006002050500081900000690005920034670,675819423293456781148723596382965147459178362716342859567281934834697215921534678
500081003000090800104027000805903602027600401006700005790000106002000040300005207,569481723273596814184327569815943672927658431436712985798234156652179348341865297
009000823008007100020034005000020974000600030050079008403910067007008009600042000,749156823538297146126834795861523974974681532352479618483915267217368459695742381
000007018040030000603800402020001004700580009500290806050706081401009057900000200,295467318148932765673815492829671534736584129514293876352746981481329657967158243
006412800010050030970800502020603005003000007000198400001024700008007090530900006,356412879812759634974836512429673185183245967765198423691324758248567391537981246
007685004010000009500000780000008010004593000076240035090036008280900051040002007,937685124418327569562419783359768412124593876876241935795136248283974651641852397
067002090000079053004100600000005900050830120001907038019408000600000080240350700,367542891182679453594183672873215946956834127421967538719428365635791284248356719
500480000190700020008001300057306001002900400460025903010070005603050047000008000,536482719194763528278591364957346281382917456461825973819274635623159847745638192
521400006400900030008010570204360091000000008086000420090004850000070213070803000,521437986467985132938216574254368791719542368386791425693124857845679213172853649
020015740060403102050000980070001208000700000304980060105600800049070300200030009,923815746768493152451267983576341298892756431314982567135629874649178325287534619
060500700210730504540009100020603080094120006700090000380940000000067001000000802,963514728218736594547289163125673489894125376736498215381942657452867931679351842
080060570907100043000309100300000726006530010704008000002040030801702904060010000,183264579927185643645379182358491726296537418714628395572946831831752964469813257
006010020200000490001004376000000060083590200900700038170600000600830007405009080,346917825257368491891254376512483769783596214964721538178642953629835147435179682
400020708250008010609000004094700000020910670010305090070546103300870260000000500,431629758257438916689157324594762831823914675716385492972546183345871269168293547
000745600105000900870900200700300000068010003209807054904000078600090510003200090,392745681145682937876931245751324869468519723239867154924156378687493512513278496
030000009509001060080607045400085030020310504006020890700000080214000006003409017,637548129549231768182697345471985632928316574356724891795162483214873956863459217
090520003310080700000103400056000300870000092000697080002450008580000160034009070,497526813315984726628173459956218347871345692243697581762451938589732164134869275
730000010068409020900637000005100402020803067071900000106080030090060504200004080,734528916568419723912637845385176492429853167671942358146785239893261574257394681
