080090075026050001400010900500003600007206030300000418050700002031008090790420300,183694275926357841475812963549183627817246539362975418654739182231568794798421356
720800605080060102900001000500790824000403000006500700807002009149005003000300407,721834695385967142964251378513796824278413956496528731837142569149675283652389417
208300069790040800610000003050084007000500420007690081000750030300002015060409000,248375169793146852615928743156284397839517426427693581982751634374862915561439278
100000640300016005020834007810900300050007420000050090690205000004080079005003000,178529643349716285526834917817942356953167428462358791691275834234681579785493162
000390070103070400096001820004003980000080037500000006060430090080200005009708210,845392671123876459796541823674153982912684537538927146261435798487219365359768214
500300071000040908607001000074908020083000500900020047002597130000600000035804600,548369271321745968697281453174958326283476519956123847862597134419632785735814692
980005200200010930000006470609720010720040806008030000306400009000007050410080607,984375261267814935531296478649728513723541896158639742376452189892167354415983627
000207094003091002008500610900000003060050020107460980401000500380070006025830070,516287394743691852298543617952718463864359721137462985471926538389175246625834179
010400058008079040063058009005240000300700010024006007690012085000080170800060032,719423658258679341463158729975241863386795214124836597697312485532984176841567932
004506002638070049502038700010600080200003006006980105400020003000700910700014200,174596832638271549592438761915642387287153496346987125451829673823765914769314258
104086000000153020300200009600090502000401703078000000040002008065700004209540160,124986375987153426356274819613897542592461783478325691741632958865719234239548167
802035007706000240594060008200000400005106090600278000000007530000029680100850009,812435967736981245594762318281593476375146892649278153928617534457329681163854729
000009410059300720740051080200400900005010000000068031400090003061007500008200040,683729415159384726742651389216473958835912674974568231427195863361847592598236147
672805010400000000009010820006090500320460091700003200003046000001009076800300400,672835914418972635539614827186297543325468791794153268953746182241589376867321459
320800049008003206000000870007008490000304000096025081070002500100060000540109702,325876149718943256964251873237618495851394627496725381679432518182567934543189762
067800034430006005810200006206038070080020150093074000009000060500000028000901300,967815234432796815815243796256138479784629153193574682379482561541367928628951347
620030900070410008085697000001209053000100490008040007040500010309000600700080302,624835971973412568185697234461279853237158496598346127842563719319724685756981342
790050000041970060205300400810600900520081007007000004060040801000520300000008092,796854213341972568285316479814637925529481637637295184962743851178529346453168792
043006080500100020107305000402500931000070508006901000089010702030000009000602840,943726185568149327127385496472568931391274568856931274689413752234857619715692843
010000800603100004040207065036090082002780000000005407009002300070810056085340900,517964823623158794948237165736491582452783619891625437169572348374819256285346971
000100036250009800713020000005000700870350002900001043024006080030207904600800100,489175236256439871713628459345962718871354692962781543124596387538217964697843125
000470019805360070040000300607910230900052700080000500006207000000090600324001050,263475819815369472749128365657914238931852746482736591596247183178593624324681957
001058020205710006000690070080005204500007980009040010054300600900080130700209000,671458329295713846438692571187935264546127983329846715854371692962584137713269458
050364090100280050600001700510620008040709630006000025000000040080905003237800000,758364192194287356623591784519623478842759631376418925965132847481975263237846519
000002708480000306200580019002004100907050003000106095061000070093041060500090800,139462758485719326276583419652934187917258643348176295861325974793841562524697831
038090640600080725074001000000302007016000002300000409000714308180005000057200906,238597641691483725574621893849352167716849532325176489962714358183965274457238916
800104300709080000023600005402850009000010600908702510500900172000300840607040000,856124397749583261123697485412856739375419628968732514534968172291375846687241953
093000800408001030000080059001800020070560000300070094800003046560400073900750102,793245861458691237126387459641839725279564318385172694817923546562418973934756182
000070010030806500007201980250000000004027006019030400900045200008760001403000050,895473612132896574647251983256914837384527196719638425971345268528769341463182759
506027009010000437000480500082090041390008000007600008009140006000003214020006700,546327189218569437973481562682795341394218675157634928739142856865973214421856793
095400070207038000300100820060970500502000014130000680703000040084025300000006000,895462173217538469346197825468971532572683914139254687753819246684725391921346758
057020091030910640000500000600890010000702000809000360005240006001008450904030708,457326891238917645196584273642893517513762984879451362785249136321678459964135728
450870913009506724210000060003904000000000481500200007820600500700090600060305000,456872913389516724217439865173984256692753481548261397821647539735198642964325178
004070030000085012090063800900000674307500001168020000450209000000008053601300420,814972536736485912592163847925831674347596281168724395453219768279648153681357429
000190807067340020000028035084900103002087094605000000040060009301500400070010000,253196847867345921419728635784952163132687594695431278548263719321579486976814352
700620000840009067050030080600800729200004100007090005120305000003040802000170900,731628594842519367956437281614853729295764138387291645129385476573946812468172953
780010040005320000630008570500400600420006009003001058071500900204080000000790032,789615243145327896632948571518439627427856319963271458371562984294183765856794132
098672400007040080000190005082000000035000847000009630020501300004003721060407090,598672413217345986346198275682734159935216847471859632729581364854963721163427598
000017500002408007001006320600000800230000090000645000019800400000570130085024760,943217586562438917871956324657392841234781695198645273719863452426579138385124769
500740000000350082016009740600008034004002060079600100000023091098000500020100876,582746319947351682316289745651978234834512967279634158765823491198467523423195876
020359004006200500030400000010507030708000000004698021009000002200710650670002010,827359164496271583531486297912547836768123945354698721149865372283714659675932418
120480005050200068070906002000048090003009520007600010080002670001000000069105403,126487935954231768378956142612548397843719526597623814485392671731864259269175483
000037005074010082030402016708309060100500940400200008000000800021980000500706004,216837495974615382835492716758349261162578943493261578647153829321984657589726134
032005007000601045006700100049002703070360809500090010608940500000070084090500020,132485697987631245456729138849152763271364859563897412628943571315276984794518326
100670050000014028069000000000089000080050231240030006700001900602008715050002064,128673459573914628469825173316289547987456231245137896734561982692348715851792364
639000705070400002000070930920005300800610000041809000180007004007200860305000100,639128745578493612214576938926745381853612479741839256182367594497251863365984127
908004060506700104030052000000001340607405002010020907309000580000080000201003600,978314265526798134134652798852971346697435812413826957349267581765189423281543679
978025000036000040100600000090080400007006102025093076509010200002900630040700005,978425361236871549154639728691287453387546192425193876569314287712958634843762915
780010300920604000001000809090006200035090070160340000000000501040008092300207068,784915326923684157651723849498576213235891674167342985872469531546138792319257468
600091000050206780083050020430007500079600014060100002040008000500070601002409003,627891435154236789983754126431927568279685314865143972346518297598372641712469853
800020007010007095009105860007053080600040059020000610450076001030489000070000300,865924137312867495749135862197653284683241759524798613458376921231489576976512348
400000183085069007002100500600400050003520806027090300036005000000037291090008000,469752183185369427372184569618473952943521876527896314236915748854637291791248635
006000300000001205380004006047980030620003058005040109093028000001600890400050000,516892347974361285382574916147985632629713458835246179793428561251637894468159723
520000008000904270710038500000003689640000100000700035006005900891600000270001040,524167398368954271719238564157423689643589127982716435436875912891642753275391846
016200590400700010030450008624000703000820000085003000007080056002107000000549107,716238594458796312239451678624915783371824965985673241197382456542167839863549127
300800400057093026000205070030407100109000048000019500900000000070020691803060007,392876415457193826681245973235487169169532748748619532926751384574328691813964257
805063009007001302002409000703090501400700980000000070920017054060820000501000030,845263719697581342132479865783694521416752983259138476928317654364825197571946238
000805000620400900915320000049050007300142000800000062000060275070010849000500100,734895621628471953915326784249658317367142598851739462183964275576213849492587136
002008031000542800670009004980007006000800050205063009003104605591030000840000070,452678931139542867678319524984257316367891452215463789723184695591736248846925173
007106000400090083802040000006004720000000305930007410520060000003050164001800059,397186542415792683862345971156934728274618395938527416529461837783259164641873259
100420003067809000802070000005010027003004000910000065041300850070200900390065004,159426783467839512832571649685913427723654198914782365241397856576248931398165274
700000000600092400000408120200073008004019052059004000068035079020800003105000600,742351896681792435593468127216573948874619352359284761468135279927846513135927684
010930200002684030000001007080060020040090150659070040076520403900003005100800000,518937264792684531463251897381465729247398156659172348876529413924713685135846972
040070059810040730600930200000098620001005000780060004095600010300204085000000407,243876159819542736657931248534798621961425873782163594495687312376214985128359467
500089014402003006080560000601008300035400900008002000020000140000607590709301020,563289714492713856187564239641958372235476981978132465326895147814627593759341628
090070602064502018810300000000406005403010090081000070000207004546080007200009530,395871642764592318812364759927436185453718296681925473139257864546183927278649531
010008092450030800007009406000470305032100040070690000900060700845300600003001280,316748592459236871287519436198472365632185947574693128921864753845327619763951284
004003708000048690005700000040600000320001950607580042001095000700100089002860130,264953718173248695895716423549632871328471956617589342481395267736124589952867134
800040167050000400601203000302106000009000080504700309030010025296005070700008640,823549167957861432641273598382196754179354286564782319438617925296435871715928643
205000710070600580060001092023800064609300000047050000800000920010042300900003007,295438716471629583368571492523897164689314275147256839834765921716942358952183647
080106007400090020051000006000058700000903045063027901800540260012080000900700300,289136457476895123351274896194658732728913645563427981837541269612389574945762318
005900048000000500861030002210075000008000003040860097302690800000450600490201700,725916348934728561861534972219375486678149253543862197352697814187453629496281735
420089306006500007709030020800002001900400208560800704004290050301670800000001000,425789316136524987789136425847962531913457268562813794674298153391675842258341679
820009700700800000005102063350001000007200408104090002000000090060703581500046000,821369745736854129945172863352481976697235418184697352273518694469723581518946237
032010900850003700010290080000500800006027004940006170500081060793600000100004250,632718945859463721417295683271549836386127594945836172524981367793652418168374259
040001720000000306716500080050900073000040000900230068004002000060014059300709200,843691725529478316716523984452986173638147592971235468194852637267314859385769241
050600000000140052802000490006004910093001807000500000604070003085400720910082060,451629378739148652862753491276834915593261847148597236624975183385416729917382564
096003000010070000002400085000360017250080409070090208900230004005008106004700900,596823741418675392732419685849362517253187469671594238967231854325948176184756923
900300180001047392008600504075091400060000008230506700516000007000000020000400930,947352186651847392328619574875291463169734258234586719516923847493178625782465931
900841700005000980170030020001002309080600070702003500003900650260000000090408010,926841735435276981178539426651782349389654172742193568813927654264315897597468213
009062070050100032400000000000000080208079604107803250640300001800900065023001000,319462578756198432482735196594216783238579614167843259645387921871924365923651847
000068500024503900000901003400002608018007000070030001930000005705000142802600007,397268514124573986586941723453192678618457239279836451931724865765389142842615397
000070060168005009750900321570040900002050040800009007410580000000420703036001000,329174865168235479754968321571842936692357148843619257417583692985426713236791584
005080061410005000008007023020010986170000200000009000080091050654200030000603074,735982461412365798968147523523714986179836245846529317387491652654278139291653874
007009520209603080140000070001050000605002497300000600002700003900500861460930000,837149526259673184146285379791456238685312497324897615512768943973524861468931752
060809000020347500003000800030006004000902050897010020200064009340500160081200070,764859231128347596953621847532786914416932758897415623275164389349578162681293475
400500920097200000510009004204305700080020340000018006000000060005906072306084010,438561927697243158512879634264395781981627345753418296879152463145936872326784519
000500071010030560508960002000108400702056800000040053009010207130820004086007000,623584971914732568578961342395178426742356819861249753459613287137825694286497135
000000479000520630314060080001000006030218040029300050005807000040030015280900700,652183479798524631314769582871495326536218947429376158165847293947632815283951764
720800000063090050908376002000010600005047300400008079090032000040000106310065208,724851963163294857958376412279513684685947321431628579896132745542789136317465298
250040090001070034007690500690800250000021980000000000560310700403005000078209040,256143897981572634347698512694837251735421986812956473569314728423785169178269345
007000650001009002300086900060120405790060030412050080000790104208005300000400060,987241653651379842324586917863127495795864231412953786536798124248615379179432568
000470120000690003605138000000000614090700300042501008068000005270000490901003807,839475126714692583625138749587329614196784352342561978468917235273856491951243867
046700005720030190090058006000076832600000000500190400001400000380020600009085070,846719325725634198193258746914576832672843519538192467251467983387921654469385271
800094370017005040200030000000017830430609050005800200600400000704080069000070021,856194372317265948249738615962517834438629157175843296691452783724381569583976421
305180000097403002160072005080004090902000067006500000040060100000039850030701900,325186749897453612164972385783624591952318467416597238249865173671239854538741926
035001070040090502800006043009070300780032901100500060010800000000704296000063800,235481679641397582897256143569178324784632951123549768916825437358714296472963815
000800004039600071006040052500309006900080020047001080010030000204500067783920100,152897634439652871876143952528379416961485723347261589615734298294518367783926145
280006100053090004071800260906023040000000072800500013002001000300960800000054097,289476135653192784471835269916723548534618972827549613792381456345967821168254397
741900820030000751000600000289006000000200073600041000598002100002703068000090540,741935826936824751825617394289376415154289673673541289598462137412753968367198542
