400000051061000700200070006500902047040506012109080030053200090000063004780105000,478629351361458729295371486536912847847536912129784635653247198912863574784195263
005810004902006030031902050008200790600500001010047000007000800000060302320705400,765813924982456137431972658548231796673598241219647583197324865854169372326785419
750019000800000230043600000020000100001075094300960800060507020100028060037000405,752319648816754239943682517529843176681275394374961852468537921195428763237196485
012307000000900050300068204080051007407800160093020000040100006600070095000035070,512347689864912753379568214286451937457893162193726548745189326631274895928635471
701009560000307800000065042080700090920014008035020006006000030200000904400831005,741289563562347819398165742684753291927614358135928476856492137213576984479831625
360000002007200490450060010000700040008640700010092650800021060021030805500907003,369174582187253496452869317635718249298645731714392658873521964921436875546987123
000012090002507081900040007800060420057800100060009038079034000000000540630180000,785612394342597681916348257893761425457823169261459738579234816128976543634185972
051800070300450010200006809008079600065300780004005003406700000000900430070020001,651892374389457216247136859138279645965341782724685193496713528512968437873524961
800070030000300609900052104104200060006500013730004805072010300005028000410009006,841976532527341689963852174154283967286597413739164825672415398395628741418739256
500800020100060093004001060800200017300904000002710008090030170068020500703405002,536849721187562493924371865849256317371984256652713948295638174468127539713495682
009000000502078430008965700200030071000610000040000290615700003700000148090320050,179243865562178439438965712286439571957612384341857296615784923723596148894321657
200000408008000230510000906090740500360005000080206091043800100000600027700953080,236579418978461235514382976192748563367195842485236791643827159859614327721953684
430090081002400005705008020600001290009060078300700000020046000108003054070105300,436592781892417635715638429647851293259364178381729546523946817168273954974185362
003100045402096070007800201000634000150000400200001098080400300009378100005002006,863127945412596873597843261978634512156289437234751698781465329629378154345912786
907000083081930400036017500000340090000000018053006702060209050000400206018050070,927564183581932467436817529172348695649725318853196742364279851795481236218653974
080012004403000027000600109500120063076004000090307800004006500700000098900805030,689712354413958627257643189548129763376584912192367845834296571765431298921875436
603078120152009700700000400900005310000306008017094002206000050004082603090000000,643578129152439786789261435968725314425316978317894562236947851574182693891653247
700409006250001780000700300010300094860100500000020603041907250607040000920803000,738459126254631789196782345512376894863194572479528613341967258687245931925813467
405009003010700960020030800050380020906005001084090507890060302600040000003108700,465819273318752964729436815157384629936275481284691537891567342672943158543128796
000001750006295380890704020300800005007060400029000170000046900051020006002900030,243681759176295384895734621314879265587162493629453178738546912951327846462918537
009000000300410080264007003720901005006030017090080000010005200058073060600008709,189326574375419682264857193723961845846532917591784326417695238958273461632148759
409062000270040610015000300000600007006089000003017250800530024000800190540070003,439162578278345619615798342124653987756289431983417256891536724367824195542971863
042070065900120700063500900050280047000004300890310020601805009000000200008700001,142973865985126734763548912356289147217654398894317526621835479579461283438792651
600000005702006830890200406000001000040009703206035089009017050500300620000080014,634178295752946831891253476983761542145829763276435189429617358518394627367582914
090516020054009700060080093103005002002900038000800050000000006008704010709103400,397516824854329761261487593183675942572941638946832157415298376638754219729163485
007290030035010800240800700020030001800005000000108459000300067906504020070000100,187296534635417892249853716524739681891645273763128459452381967916574328378962145
200050090060207048930680000000500602410030080008910007026004900370000024109805000,287453196561297348934681275793548612412736589658912437826374951375169824149825763
000602480670050902050100030000341060003009200810705000180000056700200004469000800,391672485678453912254198637927341568543869271816725349182934756735286194469517823
700418050601000080005073900020050600900320010500907043840000007006500002003006098,792418356631295784485673921324851679967324815518967243849132567176589432253746198
056907010001200708020000093010000806007850040400073000080060250540001030003009100,856937412931245768724618593315492876297856341468173925189364257542781639673529184
006050008080001920025034007000002600300078250040010090207400010058690340030000800,716259438483761925925834167579342681361978254842516793297483516158697342634125879
050040879410096005020083000042070000390200108800000003006021000000000390971004560,653142879418796235729583614142378956397265148865419723536921487284657391971834562
010372000305100900740008600008060300490780002000403570020510090009020006800000014,916372485385146927742958631578261349493785162261493578624517893139824756857639214
070301096000040800804076025129000070000708061000050300610094000540002000308600050,275381496961245837834976125129463578453728961786159342612594783547832619398617254
000009000405007300012640908030200080670000500000768409083402150120003000009100700,867319245495827361312645978934251687678934512251768439783492156126573894549186723
000560073020407080001030200050074039690050008083000401007600300000701096208040000,849562173326417985571938264152874639694153728783296451917685342435721896268349517
050209631763400080900008040308020507001906000400000903000000008037051000000740002,854279631763415289912368745398124567571936824426587913145692378237851496689743152
000980000041000007750000026230600700005004002097800410060190000000070130009053804,326987541941562387758341926234619758815734692697825413463198275582476139179253864
841200090036001708000090006380000079000036050012500040160940000050703000400010082,841267395936451728527398416385124679794836251612579843168942537259783164473615982
480000100005400007000395006030100090006007205024039008000000401700520300913060080,489276153365418927271395846837152694196847235524639718652983471748521369913764582
000100092860072300000056000100720804006800509705400003490000080000093051020604000,357148692864972315912356748139725864246831579785469123493517286678293451521684937
039025064802004010004670020200000051910000007040503008000860502000309070070041300,739125864862934715154678923283796451915482637647513298391867542428359176576241389
000050680360002109190400007500003070080709060600008402004300010020180000703600950,472951683365872149198436527549263871281749365637518492854397216926185734713624958
802060070600105890001230050000009000706003180095040600000080010409700200020401507,852964371634175892971238456283619745746523189195847623567382914419756238328491567
000001495000300076004050000500018034300902010670000080960023001280040700010076002,736281495852394176194657328529718634348962517671435289967523841285149763413876952
079253004060080000300000172010000900020300800840920305080000703005004060600791050,179253684264187539358649172513478926926315847847926315481562793795834261632791458
002450090910008060604090700080632000040000036000700150005087403000001005207004010,872456391913278564654193782581632947749815236326749158165987423498321675237564819
002074600001030850400001792060900400100000029007508310704193000030006005200000070,592874631671239854483651792365912487148367529927548316754193268839726145216485973
034082001215000060060007003401000029008490700000031085072164900000700050940300000,734682591215943867869517243451876329328495716697231485572164938183729654946358172
200807040006300500710004362030900001005003798070080450000052000069010034040009000,253867149496321587718594362834975621625143798971286453387452916569718234142639875
000704030710000980068300005070010040032007500005809072504000200600058091000960007,259784136713526984468391725976215843832647519145839672594173268627458391381962457
006007009590080070400150200005900162000043900002016800700300400060024005080090631,826437519591682374437159286345978162618243957972516843759361428163824795284795631
000030100030021040009745002600380000001500986040000570500010608070000491800096030,462938157735621849189745362657389214321574986948162573593417628276853491814296735
008000735900003004020000160016700002004305907790010080672900400001004300400586000,148629735967153824523847169316798542284365917795412683672931458851274396439586271
020059018800030500000010234036002801000003090954070006679000040000106700008400005,423759618861234579597618234736942851182563497954871326679385142245196783318427965
400020100907100480010700063005060839006370004000298000100030007038006020020000090,483629175967153482512784963275461839896375214341298756159832647738946521624517398
800000010060309007042005000006850130100007009200003064000700540053062081009000206,897246315561389427342175698976854132134627859285913764628791543753462981419538276
560013089030706100002080000600040305703100400010009060020000571970050008480600020,567413289839726154142985736698247315753168492214539867326894571971352648485671923
009063500000200061400100390003008100680075000052000807870500000100096043000004205,219463578537289461468157392743928156681375924952641837874532619125896743396714285
017500900003860000000109042091000084000000706608090203006207050050034800082001007,217543968943862175865179342391726584524318796678495213136287459759634821482951637
007326104000070030000840200340000009201003075005400080094000053010090806802607000,587326194426179538139845267348752619261983475975461382694218753713594826852637941
804096050005870400000002109060000730100004000903120008007003000600008025301450006,814396257295871463736542189462985731178634592953127648587263914649718325321459876
000480090970000000603000250740001608100005042002630100009200000410507300200063089,521486793974352861683719254745921638136875942892634175369248517418597326257163489
006008030200760058500100090470005800039000200800006071054210007302000900107904000,796548132213769458548132796471325869639871245825496371954213687382657914167984523
004070060700308109050946020090000805001005030320081704006010980400037002000200000,934172568762358149158946327697423815841795236325681794276514983419837652583269471
078030200003200840590600100080004520004009080157000090030106007000790610060085000,478931265613257849592648173986374521324519786157862394839126457245793618761485932
030087205000930007060200100020004000807106090410070600004009002205010076000350000,931687245542931867768245139623894751857126493419573628384769512295418376176352984
007290500160004030302000070008319006010400000900050800040030050020706000073580920,487293561165874239392165478258319746716428395934657812841932657529746183673581924
870200400056000000002079016000300289008460300703100050069001028040083007000025900,871236495956814732432579816614357289598462371723198654369741528245983167187625943
090072060605004100000300840301605900028000007006090000100000023043700508500001490,894172365635984172712356849371625984928413657456897231169548723243769518587231496
070060008080453002003200000000000690640870005502130000005004900009708100010600247,274961538986453712153287469837542691641879325592136874725314986469728153318695247
010049300024800017805030000200490750007500603060100020950620800080000070403010002,716249385324865917895731246238496751147582693569173428951627834682354179473918562
000080270300409006029075000000001900005037000002500431058600023091003704460000800,514386279387429516629175348836241957145937682972568431758694123291853764463712895
074600000500870203002040090007010000001029308030405061708100900010000504460030070,374692815596871243182543697857316429641729358239485761728154936913267584465938172
973208001000005080600704900100800045065000007020603800084170203002030590090000000,973268451241395786658714932139827645865941327427653819584179263712436598396582174
705004098000700020802605003080370000001050706650201800000030061200009450490000002,735124698169783524842695173984376215321958746657241839578432961213869457496517382
003080026060190504908002100402070098080340005700800010051060302000005000609400700,513784926267193584948652137432571698186349275795826413851967342374215869629438751
062000050900000100400639008078090630305210070000007900000820400047060081006500203,762148359983752146451639728178495632395216874624387915539821467247963581816574293
850100000940300210003027800400500160019070050076008903080006004300000670000759000,852164739947385216163927845438592167219673458576418923781236594395841672624759381
020010076000059000804003009040020800001080030760001400007800160002300084509006723,923418576176259348854763219345627891291584637768931452437892165612375984589146723
030741500580000000040003000060020009003006027052100300095200604008030902100804700,239741568581962473647583291764328159913456827852179346395217684478635912126894735
003002700670000014004680590300020801006590000710340006045100080000009070060050002,593412768678935214124687593359726841486591327712348956245173689831269475967854132
902040070060038500085009604094150002027006005000400300000800907100370080600002010,932645871461738529785219634894153762327986145516427398243861957159374286678592413
021070040307900005000400802000009064056201300980300500060080100503700280270000059,821675943347928615695413872132859764756241398984367521469582137513794286278136459
050006470800000009690370020006000145301064800500002307900040051020008000003750006,152896473837425619694371528286937145371564892549182367968243751725618934413759286
200050008680001004001006530100000352807090000002045009004903700000060200930807100,273459618685731924491286537149678352857392461362145879524913786718564293936827145
200070068000000400700418030504000002160900307000056001620030500090001080810005906,249573168381692475756418239534187692168924357972356841627839514495261783813745926
102000300004670090750000010000410050008709604003800700030900800490106073006052000,162594387384671592759238416627413958518729634943865721231947865495186273876352149
100000503425080106008090070200100040900063008006850009000000000030740820071032050,197426583425387196368591472283179645954263718716854239542918367639745821871632954
409036050020980003000000107030045082000000530800190046003072600046000000901508020,419736258725981463368254197137645982694827531852193746583472619246319875971568324
070180000302900001080300604001006009004008367050203400409050020000007086028000100,976184532342965871185372694831746259294518367657293418469851723513427986728639145
000500060092013400005289000000802000021000309904061075800704000356000100040050003,138547962792613458465289731573892614621475389984361275819734526356928147247156893
300000200070802001890000450007506000003040176084030900000394000200100040109060703,351479268476852391892613457917526834523948176684731925768394512235187649149265783
000000060105900007070008504090071402300409050080530600001604203903007810060080000,438725169125946387679318524596871432312469758784532691851694273943257816267183945
000480630723500040040900200300007086006010000070000590800026470400830010205000300,951482637723561849648973251394257186586319724172648593839126475467835912215794368
680970010200004006900503204700240500408010090013000008050036000800009003040000702,684972315235184976971563284796248531428315697513697428152736849867429153349851762
600001500075000090940200063000304000000086035708500040050420006860000907302078100,683941572275863491941257863526394718419786235738512649157429386864135927392678154
000070030060050400204600801630500092015090760000800000807904500009300270000021004,581472639963158427274639851638547192415293768792816345827964513149385276356721984
090000170050007040800029000063010007080265300029080510100600950030572060000000028,394856172256137849817429635563914287781265394429783516172648953938572461645391728
200700100500009006000481090050060087300824900041005000098000362700040509030600040,289756134514239876673481295952163487367824951841975623498517362726348519135692748
