090000000620100004703005908100540609800300070075089020000038060010902007004006503,591874236628193754743265918132547689869321475475689321957438162316952847284716593
700109300390008400054620170082000600009030250400750008030200801005001096608400000,726149385391578462854623179582914637179836254463752918937265841245381796618497523
400030070080026453005100006700080009503270000014000300900005264001060980000804001,469538172187926453235147896726483519593271648814659327978315264341762985652894731
090302000002007985006001043065079000430500070008060010100030820803200701000005000,594382167312647985786951243265179438431528679978463512159734826843296751627815394
702010000901085030580900400068070000100000560403002089020001940000000650800430107,732614895941785236586923471268579314179348562453162789627851943314297658895436127
018407930953001007600000800100904006700000209004250000500030014070080350026000708,218467935953821467647593821132974586765318249894256173589732614471689352326145798
100004850650970100034800002840023700010760004000008030002105390703200000000090006,127634859658972143934851672849523761315769284276418935462185397793246518581397426
100045609020000370970023010400070003008600192000080500309000004005100706260408000,183745629524916378976823415451279863738654192692381547319567284845192736267438951
600810040580600090020007010000140027750008000090000600016009305800251400000730200,679813542581624793423597816368145927752968134194372658216489375837251469945736281
540780000001000045000003000900000504400017680683020001820054017070692300090100060,549781236731269845268543179917836524452917683683425791826354917174692358395178462
100930650000248030800060074010700940024005000003086701095002006407000080000000300,142937658576248139839561274618723945724195863953486721395872416467319582281654397
370000000100072509502060408040001290085940003000000060007038006600017002000059140,378594621164872539592163478746381295285946713931725864417238956659417382823659147
007009046210070000000805300006100500000793004809004207300020009400360820608040005,587239146213476958964815372746182593152793684839654217371528469495367821628941735
084060010000108090650020007005043869000002000079500041000670400120800050046090073,984367512732158694651429387215743869468912735379586241593671428127834956846295173
000800020000690340617000000025307600100540008000060900859003060204000731070400005,493875126582691347617234589925387614136549278748162953859713462264958731371426895
030060100500170068600002040300081200070005006108000395020700080005006009890300507,937468152542173968681592743359681274274935816168247395423759681715826439896314527
700500006006014500190082300208000004014903000000000705600020093400351072020096800,742539186836714529195682347278165934514973268963248715651827493489351672327496851
800060507407300010030100080903201000146079000000605400010000970072004003580020006,891462537467358219235197684953241768146879325728635491314586972672914853589723146
704200500056700030209008067908050040400030020003006801010000000000001972800642003,784263519156794238239518467928157346461839725573426891312975684645381972897642153
600000370007908000104070005000000683026401900750000020008352000000009008360107490,682514379537968241194273865419725683826431957753896124948352716271649538365187492
000004003090675002700280910050000100069050084007100206400008070002001000085390400,528914763391675842746283915254836197169752384837149256413528679972461538685397421
080007005400029600670031090900200080100050476000314000090400703730060500506000018,389647125415829637672531894954276381123958476867314952291485763738162549546793218
300000620020140090108036500000001008209060170060984030005070300630098002040000750,374859621526147893198236547453721968289365174761984235915472386637598412842613759
890420100200056083006700900005001009673080050080040020109065207000000004300070600,897423165214956783536718942425631879673289451981547326149865237768392514352174698
860400205005006093070008140080039004300200000092180000054007000000500061607013009,863491275415726893279358146781639524346275918592184637154967382938542761627813459
001085039090010205002000006900124000307900060000600008005090070700003480406072501,641285739893716245572349816968124357327958164154637928285491673719563482436872591
002080670950100008400560210000250030103600902600007400700010004000004803008930160,312489675956172348487563219894251736173648952625397481739816524561724893248935167
300010805980047102001502040006205790407000000030400580702009030103000000000160900,324916875985347162671582349816235794457698213239471586762859431193724658548163927
000001502063007000008560000247000301000008000081040905906002010035700204000309007,794831562563927148128564739247695381359178426681243975976452813835716294412389657
093702060600900400007600092020108600570034800300000020705000038840056201000000000,493782165652913487187645392924178653576234819318569724765421938849356271231897546
906003002051020006300800090007300041200060809010954070000040530020107008873000000,986573412751429386342816795597382641234761859618954273169248537425137968873695124
078000002030080754902000610050340000600000007020106900480923006300001040001067500,578614392136289754942735618759342861613598427824176935485923176367851249291467583
200000009400570230901006780830090406095600000004701000000150978002004050000830002,273418569468579231951326784837295416195643827624781395346152978782964153519837642
200060009300400178080570040050040900607300050910005304700800620000000401008001093,274168539365492178189573246853246917647319852912785364791834625536927481428651793
050300008006200700103800602070010463294030001000008095400605300020040507800009040,752364918986251734143897652578912463294536871361478295417685329629143587835729146
402600007680030000000501200030904802000085010097000300150400000009203608006009074,412698537685732491973541286531974862264385719897126345158467923749213658326859174
006908200029000570804000601100040380035010046608020000000600019000793000052001700,516978234329164578874235691197546382235817946648329157783652419461793825952481763
007060030000008041309005207800001604050000092006503000200100400041020506090870000,417962835562738941389415267873291654154687392926543718238156479741329586695874123
009050060800930041010007300500700009000580706102400500030000080900001603046008002,329154867857936241614827395568713429493582716172469538231675984985241673746398152
003149002070003400019020500085000060030000201000617080050400000890301704002096053,563149872278563419419728536185234967637985241924617385351472698896351724742896153
200375001060002075030810000050021403700004090018009050080060019040000607900053200,294375861861942375537816924659721483723584196418639752382467519145298637976153248
700320800290610400304085060060009048020700530940008100680000005005060020000501007,756324891298617453314985762567139248821746539943258176689472315175863924432591687
006934005800600004300010700900085300002700090100000026453029001020050800708140200,276934185815672934349518762964285317532761498187493526453829671621357849798146253
600312805000000403009085060100000000034700000075109020050008900708030604260090108,647312895582967413319485267126853749934726581875149326451678932798231654263594178
704903010060015840008020300000000761200078050305006004500200000030509000491007026,724983615963715842158624397849352761216478953375196284587261439632549178491837526
200000031090807600305009800002060015510004000430700206000000190008650020720300004,287546931194837652365129847872963415516284379439715286653472198948651723721398564
003059080000000009007806340050460002026581030014000700600200090001000208480703105,243159687168374529597826341359467812726581934814932756675218493931645278482793165
000300000563204008900005470070060805841000200050009100287030600400020001030480090,714398526563274918928615473379162845841753269652849137287931654496527381135486792
021009500000280000007450091713000000005008072009304006360000810100020037008600904,421739568956281743837456291713562489645198372289374156362947815194825637578613924
006051000903400580007800103405709008091080074300000002809020400000160090000003067,286351749913472586547896123425739618691285374378614952869527431734168295152943867
071030540000619300080000000400800002050004070000120069016050098807390210205000004,971238546524619387683547921469873152152964873738125469316452798847396215295781634
903200500501000094620007000010400600000001078008093400105800730000062005049730010,983214567571386294624957183312478659496521378758693421165849732837162945249735816
720038000010050000900600405430072018500010700070903020300000091059060300800007204,725438169614759832983621475436572918592816743178943526347285691259164387861397254
000005069092008100000400000120030090000860000900002847030900580800001276246500030,387215469492678153615493728128734695574869312963152847731926584859341276246587931
560008034702090018008000000230000600000240900001605007004503080907120005150809070,569718234742396518318452796235987641876241953491635827624573189987124365153869472
010082905006000000780150402030007009205030700008260001100300600004500030067009158,413682975526794813789153462631847529245931786978265341152378694894516237367429158
000000049104800700002300050000290006000050072600403010007001280401007300050684000,536712849194865723872349651715298436348156972629473518967531284481927365253684197
007048092002600810100730600800006100064021030030594000500087023003005406090000500,657148392342659817189732654825376149964821735731594268516487923273915486498263571
230006004001025000000070056640098020150000003007600008402800300080130090079004601,235986714761425839894371256643598127158742963927613548412869375586137492379254681
000590320700041800008006005100400009009017000426039000003205100861000030270000960,614598327752341896398726415137452689589617243426839751943265178861974532275183964
001063080270010904500000062809100040030920000060034570000600050940080007020007301,491263785276518934583749162859176243734925816162834579317692458945381627628457391
700906020400057360000001508001005403070000690800623001280034007097100000050800030,735986124418257369962341578621795483573418692849623751286534917397162845154879236
400267000090008005300059400010020864060500307003000001000902010051084020807000003,485267139192438675376159482519723864268541397743896251634972518951384726827615943
053460209008500700060020005090340600700000908010702003000604000600080010270931040,153467289928513764467829135592348671734156928816792453381674592649285317275931846
080300040920610700000000001600809000700450629000200310070004930301570400005020060,187395246924618753563742891612839574738451629459267318276184935391576482845923167
800517000003000074000080160095003016140090008700002009009230450002008000000476900,864517293513629874927384165295843716146795328738162549689231457472958631351476982
050007268207040000010005000409500030006090005780201004001900006600470052000063400,954317268267849513318625947429586731136794825785231694841952376693478152572163489
007263005300001080002008900050000400703400061000690850100800609420030070078509000,987263145364951782512748936856312497793485261241697853135874629429136578678529314
030058400206904050040000020480090700900013065001002000015000290390580041700000000,139258476276934158548761329483695712927413865651872934815346297392587641764129583
009300160506070300000040005060920704240050609008000050001700436090001002702008000,429385167516279348387146925165923784243857619978614253851792436694531872732468591
400082070500100006080090100020000301001907005946003200108300402270056003009000060,413682579597134826682795134725468391831927645946513287168379452274856913359241768
320100085005804600000000370400583002087900050200600100096020000001005049700308010,324176985975834621168259374419583762687912453253647198596421837831765249742398516
205000010000804206890010700030060120000037009004509000920603000500270908017900030,245796813371854296896312754739468125652137489184529367928643571563271948417985632
009705042080063100064920050003210780602000034800009205050008009000006300071040000,139785642285463197764921853593214786612857934847639215356178429428596371971342568
400510083600002004001008090014006305050091000706050000000300740089000520107060009,492517683678932154531648297914826375853791462726453918265389741389174526147265839
040078100200400003700500090009006001301090070650200040100089020005327900000000086,543978162298461753716532498489756231321894675657213849134689527865327914972145386
045000069190000800200610007054790016000500000000201305021050004003004980060380070,745823169196475823238619457354798216912536748687241395821957634573164982469382571
000080012019000765500000000706004800080750400300009000050260037130900028620103040,463587912819432765572691384796324851281756493345819276954268137137945628628173549
075030800000809407600010500502400001007000930380906000004008120109700006000002054,975634812213859467648217593592483671467521938381976245754368129129745386836192754
120003094060800107004006500405080700010050000980164020802000000000700903053090068,128573694569842137374916582435289716216357849987164325892635471641728953753491268
005400973002800500004073001370600100010087004000009008801040309900300025040060800,185426973732891546694573281378654192519287634426139758851742369967318425243965817
008000003040290060000760040490056000070010050600400028004300096100080735056009002,968541273547293861231768549492856317873912654615437928784325196129684735356179482
700402906001000050602013000000000028060584000300007000120300807904800130005090400,783452916491678253652913784547139628269584371318267549126345897974826135835791462
502000600039050070000008020003004000700030541000201068000705430395020810010900000,542197683839652174671348925183564792726839541954271368268715439395426817417983256
200500700036409008800010900001003840007000006094605200102000009900256001000700503,219568734736429158845317962621973845587142396394685217152834679973256481468791523
010609200009070043548100600100007054300800091050004000000005907002960500800020030,713649285269578143548132679186297354324856791957314862631485927472963518895721436
000006037009080600820005000400200160180300009002094005050073040704002098013000500,541926837379481652826735914497258163185367429632194785958673241764512398213849576
060050070302009001070201004001700600005600420080305009000030250800002930900507006,169453872342879561578261394231794685795618423684325719417936258856142937923587146
800000409546809020300050700009060000450031000017000240004912500000700060120083000,871326459546879321392154786239467815458231697617598243764912538983745162125683974
200736000000080649000010700050200010300074058000100907810095400004800005700000023,249736581173582649586419732957268314361974258428153967812395476634827195795641823
005001003042063700070984000289000000000090687006400302100000570608200900400030006,965721843842563719371984265289376451534192687716458392123649578658217934497835126
030010600000208050495000000081059000200087160306400070000905710070002936013000024,832514697167298453495763281781659342249387165356421879624935718578142936913876524
209800760503120400061070050300250000082710006000000034900580017020060900015900003,249835761573126489861479352396254178482713596157698234934582617728361945615947823
040070000039100027500604008007056001000810703084300500006708900028000300010902060,841273659639185427572694138397456281265819743184327596456738912928561374713942865
802600009400001700005923600300000054009805167000097302670209001000000000000740805,832674519496581723715923648387162954249835167561497382678259431954318276123746895
480060001100007900000082007005090702000053846060400000820005000016700009093028050,487369521132547968659182437345896712971253846268471395824915673516734289793628154
090720030701800004350096010409600305200000000015008000006080200120005607040007089,894721536761853924352496718489612375237549861615378492976184253128935647543267189
016300000094605713070000850005704029000200341003906000620509000007000480001000002,516387294894625713372491856185734629769258341243916578628549137937162485451873962
000050063300010004249000500980600405007009000034070820000500080065003901102480007,718954263356218794249367518981632475527849136634175829473591682865723941192486357
093450012004002000520000083080906020070080100400130095000009700201000046037600008,793458612814362579526791483185946327379285164462137895648529731251873946937614258
