010060470724000000080002305300409601049003000205810000607005009000370258000100003,513968472724531896986742315378459621149623587265817934637285149491376258852194763
906805004000000850010700002380240070049017600600903001025001060004052037000000900,936825714472139856518764392381246579249517683657983241725391468894652137163478925
000403000152080300008109076003090000070205910600000280900506400040000150021030709,769453821152687394438129576213798645874265913695341287987516432346972158521834769
900102080407096000500800039860020700040030000000001503010009805009500040000743200,936152487487396152521874639863925714145637928792481563314269875279518346658743291
091004030004290050200703460408900007500182000003000105000007000600840092030650800,791564238364298751285713469418935627576182943923476185849327516657841392132659874
060207043000930070020045000008390067001000902607000010079010800040060530500800000,965287143184936275723145689258391467431678952697452318379514826842769531516823794
000000016046320000500080009002014030907200450000057690000043028030160000020708100,298475316146329785573681249652914837987236451314857692761543928839162574425798163
105080000080900470430006008007200100020090685501000009900024007600501300000830004,175482936286953471439716258897265143324197685561348729953624817648571392712839564
010078003004001205006325800900000600630000027072014098020500040800000130003097000,215478963384961275796325814948732651631859427572614398129583746857246139463197582
000150206002007008094020300040900103800470009053060000007000900100802005260000401,378154296612397548594628317746985123821473659953261874487516932139842765265739481
000030012020000400694520007009100000058000070012406503030609020005200864000008031,587934612123867459694521387369175248458392176712486593831649725975213864246758931
002000060700390001098015400009080040000201600030060178650803209000700034080009050,512478963746392581398615427169587342874231695235964178657843219921756834483129756
050908400830100095007040006906050300000002080013067000500623100000000009401000720,652938417834176295197245836986451372745392681213867954579623148328714569461589723
060041800000900760108300509740680000590002000000000103632800900400007020050039004,965741832324958761178326549741683295593172486286495173632814957419567328857239614
300000840000027000019684030054002709203010085170000260080900006500060000007403120,326195847845327691719684532654832719293716485178549263482971356531268974967453128
007900450006134000290008030000601000400700309518003004020050000389002071000000680,137926458856134297294578136973641825462785319518293764621857943389462571745319682
000003100200980300006410075004030007170000800900020560059040020803706400600208090,495673182217985346386412975564839217172564839938127564759341628823796451641258793
350040012400206800009017300907000000040001005085900620260000507000703040010005098,356849712471236859829517364937652481642381975185974623264198537598723146713465298
000004780000590000431000009000000006079810020205700300560080290092600007300001504,956134782728596143431278659813452976679813425245769318564387291192645837387921564
031007008900600102240003009000590080060030400053280076607000003000170200490008500,531927648978645132246813759724596381869731425153284976617452893385179264492368517
206705001409100000050902080000098026300010700042307000060030290030804075005000140,286745931479183562153962487517498326398216754642357819764531298931824675825679143
059104030060070901070002040800790000035200068000050102090000000402083600706400015,259164837364875921178932546821796453935241768647358192593617284412583679786429315
000300509730024600698700300200060001046100000009438007300890002020005480501000000,412386579735924618698751324273569841846172935159438267364897152927615483581243796
230000600090013070600200038050090204070800500100000083020050040001920805700064100,237489651598613472614275938853796214472831596169542783926158347341927865785364129
600005480097610000040300000503000060100002974070860020760290001009000032010408007,631725489897614253245389716523947168186532974974861325768293541459176832312458697
120000000000030456600789001058100007091053200400002900000520760300900048087040100,123465879879231456645789321258194637791653284436872915914528763362917548587346192
405092000100060087030150900080030470060581030000009006001003000027400695600070002,475892163192364587836157924589236471764581239213749856951623748327418695648975312
705010000020008006001090007080046075002300090000502013600005009304007800058430000,765213984429758136831694527183946275542371698976582413617825349394167852258439761
600052149024000000300009087000010020850603000090028064003796800701000006000084053,678352149924871635315469287436917528852643971197528364543796812781235496269184753
000713005067040001000009084039400500870005692200080043600300027080600010900001800,498713265567842931321569784139426578874135692256987143615398427782654319943271856
700093060005000902020006014604500700073004200810000006030081050000420609059037000,741293865365148972928756314694512783573864291812379546236981457187425639459637128
040671008200000010030900406005804600004000380070590002800030920090702001160400870,549671238286345719731928456325814697914267385678593142857136924493782561162459873
203400780500000900700120400106500000008000042304078600000756008090310056010082000,263495781541867923789123465126549837978631542354278619432756198897314256615982374
630007009000458600014000002100803090000900307400060501709300000005201064200076008,638127459972458613514639872157843296826915347493762581769384125385291764241576938
900100003000004207071860540690000000008620130002450008200003900013000750450080026,924175863586934217371862549695318472748629135132457698267543981813296754459781326
023050900008040070100370200640200398910600024000005700800009000059108630000030010,723851946568942173194376285645217398917683524382495761831769452459128637276534819
600072010425061300000504090170000000038000500000089020380250740250000080701400003,693872415425961378817534692172645839938127564546389127389256741254713986761498253
000100590000082401009705006960500018020300050040010200410690300370000040605008002,284163597756982431139745826963524718821376954547819263412697385378251649695438172
000000004720030056060079300530092078008004200600000003081006900900100605300080020,813265794729431856465879312534692178178354269692718543281546937947123685356987421
504000008100068070760020104086305400300047082900100005470000090000200051002013006,594731628123468579768529134286395417315647982947182365471856293639274851852913746
126003740040000305900080000000092003000870610800006052270400081659010000000500209,126953748748621395935784126564192873392875614817346952273469581659218437481537269
600004030083009200010070500029010700850000420006000095000503100000260008470890003,695124837783659214214378569329415786857936421146782395968543172531267948472891653
500000180408050620000072030856004000010600205300000900104027000007069350090108000,523946187478351629961872534856294713719683245342715968134527896287469351695138472
010005040070001536200069010003480900000032800064090100780000300600020075450700002,316875249978241536245369718123486957597132864864597123782654391631928475459713682
902300470000052000016700800070006000140070065030801009090603200700410090804000503,952368471487152936316794852279536184148279365635841729591683247723415698864927513
030720400190005030060403080007201000001300908000060704203050096000040005508006100,835729461194685237762413589487291653651374928329568714243157896916842375578936142
080003000591600000003041058000060405705009002240730091009000600070500023300817000,487253916591678234623941758938162475715489362246735891159324687874596123362817549
000098050000205480000060237560010000278400090390000804040900376019703042050000000,427398651136275489985164237564819723278436195391527864842951376619783542753642918
095260701000040002600500098840920300302800000050070020010000947500000010073016005,495268731738149562621537498847921356362854179159673824216385947584792613973416285
006027405803001000470000089009080200601900004005103700120750000300048506004000007,916827435853491672472635189739584261681972354245163798128756943397248516564319827
089000710005900000030284000008051006096300040570090103042000097007605304800000200,489563712265917438731284659328451976196372845574896123642138597917625384853749261
607013000000500300800000016000740093700006804005190600500089200324001009009300067,647813925912567348853924716268745193791236854435198672576489231324671589189352467
040003709907200008002700150050000207008100040000090060020004615600080004009051300,541863729967215438382749156156438297798126543234597861823974615615382974479651382
040010000069005100082090005600408070031020060000009350700350029200701043800040600,547813296369275184182694735625438971931527468478169352714356829296781543853942617
980051042507000000006400300400000000060709210200030670030094861010007005000082900,983651742547923186126478359478216593365749218291835674732594861819367425654182937
400050009002000178009620400000035020604000000001806050790040803030901006108700000,473158269562394178819627435987435621654219387321876954796542813235981746148763592
054007000000000592060830004043002901708100000001960307400709603082000000000304150,154297836837416592269835714643572981798143265521968347415789623382651479976324158
030409805090700102024016003000500901002008000600090087300002570408607000001000036,137429865896753142524816793783564921912378654645291387369142578458637219271985436
070306100090070504004002080800000901900053260001004000035068009406710050080400027,578346192692871534314592786853627941947153268261984375735268419426719853189435627
014030600700006058503907200000502940900000037005100000240750180309000020000008406,814235679792416358563987214638572941921864537475193862246759183389641725157328496
008000160000071003020040000570028009036510080000000040763002091800063004059007200,348295167695871423127346958574628319936514782281739645763452891812963574459187236
070010950350002004008030607006248000094370080200000005001000500700900362000607009,672814953359762814418539627536248791194375286287196435961423578745981362823657149
301020007680090052700000930100850400000006000025370809030204000000080306046007508,391425687684793152752618934169852473873946215425371869538264791217589346946137528
030050920695003008401007003050860002000790100008000056300010209140600000080204007,837456921695123478421987563754861392263795184918342756376518249142679835589234617
100208560093000028060500040086014000000000380004702009075003001002940700030060002,147298563593476128268531947986314275721659384354782619675823491812945736439167852
900020030007000486000805001045206070000500160090003800350400012209007000600180059,981624537527931486463875291845216973732598164196743825358469712219357648674182359
064002030500008167730000000002051004000040380000870902200900800895600701001504006,164792538529438167738165429982351674617249385453876912246917853895623741371584296
001003090005120403600070205080300040200000600006900001040500980003000157070860020,421653798795128463638479215987316542214785639356942871142537986863294157579861324
090030000352004800084007062001900020203005780049003005000048000007600100600270904,796832541352164897184597362571986423263415789849723615915348276427659138638271954
300100029008600005092030700860020000000000310504081060000009407085200090670340250,356174829748692135192835746861923574927456318534781962213569487485217693679348251
720000035080704600001006080095000078300050200264300001009400106630098000010200000,726819435583724619941536782195642378378951264264387951859473126632198547417265893
000045061860700049005000200507020100000039400001500030008090720290000006176004050,729845361863712549415963287537426198682139475941578632358691724294357816176284953
006020300070600180302004007050380210040060800090247000400900750730050000820001090,916728345574693182382514967657389214243165879198247536461932758739856421825471693
000900100057180090093060058604010002008073014009500000206000080000058760000740301,862935147457182693193467258634819572528673914719524836276391485341258769985746321
000900003120586000805000100087010500400000306006045090030400281000860900200009040,764921853123586479895374162987613524452798316316245798639457281541862937278139645
100020300065070902400000860000500074546080100019300200870060000000297030030008010,198624357365871942427935861283519674546782193719346285874163529651297438932458716
830106090790000000506807021000001009025038460000020030000509670003600580000074000,832146795791253846546897321387461259125938467469725138214589673973612584658374912
830000020004306109010420070470680000090700306150034800002907400000000050760100908,837591624524376189619428573473689215298715346156234897382957461941863752765142938
903000601006050002087014030000720190500008370809000004030402000008060020140093500,953287641416359782287614935364725198521948376879136254635472819798561423142893567
500020000079100083001780950090300004200001600100895000042000000300900020080006437,538629741679154283421783956897362514253471698164895372742538169316947825985216437
409005000060240301050008000001800002900020670030006098200030805004500967008701400,429315786867249351153678249641897532985123674732456198276934815314582967598761423
000080405002703100480026900060008070300004002079050003000802009007000060650390010,736189425592743186481526937264938571315674892879251643143862759927415368658397214
500060090300402008061003500903100000040300700010028004720810300005049020800007650,582761493379452168461983572953174286248396715617528934726815349135649827894237651
050078040102000080070020901640003802000015007090600530309050400018007005000004060,956178243132549786874326951645793812283415697791682534369251478418967325527834169
006002000020800100807030690340080000508100700000954000094000203000041056003206870,936712485425869137817435692349687521568123749271954368694578213782341956153296874
400900700000000365006108002020070603700000008059620000200510000091300407305060209,432956781918247365576138942124875693763491528859623174247519836691382457385764219
059001078431008050000046000274000000800405309000600100040100206007020030105900084,659231478431798652782546913274319865816475329593682147348157296967824531125963784
060057012080900005300000900700064390008010260490038000050020070000803500017400680,964357812182946735375182946721564398538719264496238157853621479649873521217495683
087001503000608000490023080005032041060090052300100800000204005026700000004050079,687941523253678914491523786975832641168497352342165897739284165526719438814356279
080010205000060309302004000950046070008093050041800000435000800007908002020000516,786319245514762389392584761953246178278193654641875923435621897167958432829437516
300800760000020001008476000170080502000932100000000084293005008050009607046000350,324891765967523841518476293179684532485932176632157984293765418851349627746218359
600107080007200013508400000000005694000680270701040008090076005305800940020000100,632157489947268513518439762283715694459683271761942358194376825375821946826594137
016370900503004020270000001900007650000106040000030007094080500030260800720501009,416372985583914726279658431941827653357196248862435197694783512135269874728541369
050319708020070004008600000070005400109000032430060801000040659910803040000200100,654319728321578964798624315872135496169487532435962871283741659916853247547296183
980000004000400013600030809000317002026500000700009048807021000200600900010045070,983156724572498613641732859498317562126584397735269148867921435254673981319845276
806540310015800020734009000000002806000030240040080000008020001061000054350170600,826547319915863427734219568193452876687931245542786193478625931261398754359174682
801040020040320809790000006000500003060100950520036700016080400000004070000965032,831649527645327819792851346174598263368172954529436781216783495953214678487965132
980200001030047600000050087005109070092008000004573002203600008150000430600004090,987236541531847629426951387365129874792468153814573962243695718159782436678314295
800010002047950100960040057003406001410070009002800300750000068006709004100002900,835617492247958136961243857593426781418375629672891345759134268326789514184562973
090006308500100700067850009400063000008000005625000001001078426000090080070201003,194726358582139764367854219419563872738912645625487931951378426243695187876241593
