000307105000840070036000900003105260420608050001004000007000090540900800108206000,984367125215849673736512948873195264429638751651724389367481592542973816198256437
300060080580700006047102005004050061010004200008907000106009050000800029029041030,391465782582793416647182395734258961915634278268917543176329854453876129829541637
007006300600020895280400000478010002520900706900500000000200038051708040000091060,197856324634127895285439671478613952523984716916572483769245138351768249842391567
050100340030000960904500071800076400400001750060002009003049012008320000609008000,256197348731284965984563271815976423492831756367452189573649812148325697629718534
001006400058900102020850030002084900100730206600000043040203690700010800009000004,971326458358947162426851739532684917194735286687192543845273691763419825219568374
000300007600807025020006090940610300003708000057000400810900206000002050470500081,589321647634897125721456893948615372263748519157239468815974236396182754472563981
680570900001000002500310006009745020000800170302000050007904000905000810240006007,683572941791468532524319786819745623456823179372691458137984265965237814248156397
020080600400090327106000400290000003004060085000107040003008002950400016070520900,729384651485691327136752498297845163314269785568137249643918572952473816871526934
800702530009150002060040000000009008405030007900870100013200070704060800250900064,841792536379156482562348719137429658485631297926875143613284975794563821258917364
760400000800000910030206005002070000091000360600050080403128009050300170200095008,765419823824537916139286745382671594591842367647953281473128659958364172216795438
001007640490200000506308009903054800105070060000830000600409013000005400820010705,231597648498261537576348129963154872185972364742836951657489213319725486824613795
070064510006010820089000007007005604834000000060200008000053002021407005500120900,372864519456719823189532467217385694834976251965241738798653142621497385543128976
803402001050070000090100230102060800037000009600025107476009300000006098010004705,863492571251673984794158236142967853537841629689325147476589312325716498918234765
268070001400001020700900406009208030300500270080013000047600000900480310050027900,268374591495861723731952486679248135314596278582713649147639852926485317853127964
042590060850720001000003000100007000000030629306208407089000700015400306000600092,742591863853726941961843275124967538578134629396258417689312754215479386437685192
406010358100002000900408000208900160000600042000025087610000705007030090030070604,426719358185362479973458216258947163791683542364125987612894735547236891839571624
905000402000430709000001005613080000800040020000750600300609000062008000108020370,935867412281435769746291835613982547857146923429753681374619258562378194198524376
080053107000970620300164900560000200090400070807010030940780005205046080000500000,689253147451978623372164958564837291193425876827619534946782315215346789738591462
060700051004020008830000760003605070109003045400090280000050000020004930348001006,962738451714526398835419762283645179179283645456197283697352814521864937348971526
900010004052003860000520700005430900180007000040061020014000670206105003708000090,973816254452793861861524739625438917189257346347961528514389672296175483738642195
800900005052701406064203080005000601090004870203008000008600347700005090000410000,837946215952781436164253789485379621691524873273168954518692347746835192329417568
270009010080001005904020300700045000050003209609700008060000753007008061140600800,275389614386471925914526387728945136451863279639712548862194753597238461143657892
100003008805004900020050460400209003008065002060100004000000120597000000210980370,146793258875624931329851467451279683938465712762138594683547129597312846214986375
620037500078090000040100206710006309000508104002000007054000900000900841003800060,621437598578692413349185276715246389936578124482319657854761932267953841193824765
005070090602004058030060041380019002007000010061050007070895004093000080400023006,845271693612934758739568241384719562527386419961452837176895324293647185458123976
705000080002073500090060300900706002060001940410090005800900004041085070500210630,735129486682473591194568327953746812267851943418392765826937154341685279579214638
400001893000000205079000410003067008980500060010049500200700000060004120140053009,452671893631498275879325416523167948984532761716849532298716354365984127147253689
003070406050000021700901050800005014600080000030204900002800000480709300169030580,213578496958643721746921853827395614694187235531264978372856149485719362169432587
009600507130084000000100004708010230640008090502090000070503600004960820920000000,489632517135784962267159384798415236643278195512396478871523649354967821926841753
310090547700031008059000060680007039002000016004809200000005700090400053020680000,318296547746531928259748361685127439972354816134869275463915782891472653527683194
800003002000000150670400009008079000090020507030810204500798000204600000010200308,859163742342987156671452839428579613196324587735816294563798421284631975917245368
730500002000600950106090807040219300508700100200000004970008600000045200004360010,739581462482673951156492837647219385598734126213856794975128643361945278824367519
005000631002107095003009002200000018000506479470380000064700500000403060310200000,795842631642137895183659742256974318831526479479381256964718523528493167317265984
030906000120000037680000000003000010060080540451020089790304002005800001008759300,534976128129548637687231495873495216962187543451623789796314852345862971218759364
084200001100600093900000080020069005017380000096005040000907430058000120300002700,684293571175648293932571684423769815517384962896125347261957438758436129349812756
000502400750060090803040016012009700080300059390100240000013000670050800100708020,961532487754861392823947516512489763487326159396175248248613975679254831135798624
802010090130080700000360004093400018200097006000000005005079000084100060610500329,842715693136984752579362184793456218251897436468231975325679841984123567617548329
000003600358600074002080100000904002003001050041050708607200500095040000800037020,179423685358619274462785193586974312723861459941352768637298541295146837814537926
020304080609002701000769000000000100071030506854000020460900000018007290500021304,725314689649582731183769452236495178971238546854176923462953817318647295597821364
057018300004200090900006000003721000060000900100000207000850130810409060200007045,657918324384275691921346578593721486762584913148693257476852139815439762239167845
007400301024050070809006000000620050306080200010000800060140030073200095080907004,657492381124853976839716542798621453346589217215374869962145738473268195581937624
000000205350100080068030000100503908700046001000200500006821007020400003419060000,971684235354192786268735149142573968785946321693218574536821497827459613419367852
500140000007009800090008601004300100156090020800270405023406008780030000000907300,568143297317629854492758631274365189156894723839271465923416578781532946645987312
000260038700005000160804059080079306300050040000081002090006003047190000520040060,954267138738915624162834759285479316319652847476381592891526473647193285523748961
079800020060001003205040600103079005007002901040080000630010047500300800080560209,379856124468291753215743698123679485857432961946185372632918547594327816781564239
370104000008900020004006305000002067010080004026030080900200000540000910200507600,372154896658973421194826375839412567715689234426735189963241758547368912281597643
046950820000000310090100600700080000605020003008710092002807400080042076900030050,146953827857264319293178645729385164615429783438716592562897431381542976974631258
072194000305020000600000180000000358008070009030950070900603400006710005780045010,872194563315826794649537182197462358568371249234958671951683427426719835783245916
175000086006000000020300071000740025700016900032809400940000003067100090500084002,175492386386571249429368571891743625754216938632859417948627153267135894513984762
860000305709130400204000800400009000070260001015040680500090060000083097000402100,861924375759138426234576819426819753378265941915347682583791264142683597697452138
900458000010027600007000030020095006678002000400030018040600070032019000800000351,963458127514327689287961435321895746678142593459736218145683972732519864896274351
007450091080001300002036005068000040001907200090080600005009720300000054006040938,637452891584791362912836475768123549451967283293584617845319726329678154176245938
170000039600000840004090706000270300081040200050310060019004005702000400035609008,178462539693157842524893716946275381381946257257318964819734625762581493435629178
750300020080062301002900800008790006000085702001000408030604059064003000100070000,756318924489562371312947865248791536693485712571236498837624159964153287125879643
261000073005001048080250009800904300000300702056008000920180005004000000000470060,261849573795631248483257619872914356149365782356728194927186435614593827538472961
003040208610000005092003070000090736008270041100000050400900000930026000500801069,753649218614782395892513674245198736368275941179364852486957123931426587527831469
003000009160400000004700250300580020090001700000200638607005800010040000052908073,723856419165492387984713256376584921298631745541279638637125894819347562452968173
409021000305690021000008360600700208290500076100003000800040000007000094002106503,469321857385697421721458369654719238293584176178263945836945712517832694942176583
000102007650800042040070908290030060000900200403050000080407305070000810001306009,839142657657893142142675938298731564715964283463258791986417325374529816521386479
780000000009046500040203009300075400018300706000810092805000031001060240000009060,783951624129746583546283179392675418418392756657814392865427931931568247274139865
302400000700051029000068010290603070040910083005000600001004068500080000000792540,312479856786351429459268317298643175647915283135827694921534768574186932863792541
009820650000490000036000098500000030780051000000374020402030500017000086350907100,149823657875496213236715498524689731783251964691374825462138579917542386358967142
200905084000700601030040020000000700016080030548060200620004093073102500400800000,267915384984723651135648927392451768716289435548367219621574893873192546459836172
100030500090127030026009800540003001007200085009680000052708003063090240400000009,174836592895127436326459817548973621637214985219685374952748163763591248481362759
009000004060000150412380000500900710020070600004000800086020093000709280003460501,859617324367294158412385967538946712921873645674152839786521493145739286293468571
007000801000907045906040070001030000790005030400000768100086002028500400564012900,247653891813927645956148273681734529792865134435291768179486352328579416564312987
300700080040309700100000095082900070001240600000006059020080000409072003003000501,395761482248359716167428395682935174951247638734816259526183947419572863873694521
032640001100008072400009000743001080000003069006500700070090304090106850005720000,832647591169358472457219638743961285528473169916582743671895324294136857385724916
000641000200090000014750030693070802150000047000005003000360005087400010030000284,379641528265893471814752639693174852158236947742985163421368795587429316936517284
907850030006700280020400001600090050000030704005206900100680095049070600803005000,917852436456713289328469571634197852291538764785246913172684395549371628863925147
400001800000040070329500060005030190701005003860009004000007950032960008087002000,476291835158643279329578461245836197791425683863719524614387952532964718987152346
090107050000920168830040000000002005005061480042000003104800030009600700700005049,296187354457923168831546297318492675975361482642758913124879536589634721763215849
409070020000800010076501000080000603000930000701042509368009402200405100050000007,419376825523894716876521394982157643645938271731642589368719452297465138154283967
900803000610009040308510000004001005200000160006327080007605308000704509090080400,972843651615279843348516792784961235239458167156327984427695318861734529593182476
000000900049500000201600804012000070060014003403028050094065027700030609800270001,387142965649583712251697834912356478568714293473928156194865327725431689836279541
006004137007900285000801000300005900200000010890700463640050390000030700050049026,986524137417963285532871649361485972274396518895712463648257391129638754753149826
000480602050003700060700051100000005800601930073250004000970800296008070004320010,317485692952163748468792351149837265825641937673259184531974826296518473784326519
068200030001903800000700650205010004900605000100078000000040008073006042520030900,768251439451963827392784651285319764947625183136478295619542378873196542524837916
069037005008204000700590008096010040057009300300050021070603800845002090002000100,469837215518264739723591468296318547157429386384756921971643852845172693632985174
600000800902305001040820975073200000800001050010007400008590012739060080000004060,657419823982375641341826975573248196894631257216957438468593712739162584125784369
030008067400000502069010004026059100700300009000800230070002640000130805801904000,135248967487693512269715384326459178718326459594871236973582641642137895851964723
004701000500090000700428063067000050050000978090040210003200000120006030800905107,634751892582693741719428563267189354451362978398547216973214685125876439846935127
308190400000006207050300900060900001102008090900005070721030604803200050005000703,378192465419856237256374918567923841132748596984615372721539684843267159695481723
060070009890002001175060004740010250600040810000837000050400060300000940012500038,263174589894352671175968324748619253639245817521837496957483162386721945412596738
000060001305870200620309408000000090290053600046020700079405020000180003401006000,984562371315874269627319458753641892298753614146928735879435126562187943431296587
748000300500301400903500067007005106020908050006000020400806500080490070001002090,748629315562371489913584267897235146124968753356147928479816532285493671631752894
840900605000204019003008000005106040306080070900020508001509400670000003000370200,842917635567234819193658724785196342326485971914723568231569487679842153458371296
000002701204006000090054800805000102061700900070300504306090080009047003100080209,658932741214876395793154826835469172461725938972318564326591487589247613147683259
703040501400000009009801000062017900001200036000500080500030214207060000030409600,783942561415673829629851473862317945951284736374596182596738214247165398138429657
004796012000000703056002040000480900073600080000150206135000000020805001900030470,384796512291548763756312849612483957573629184849157236135974628427865391968231475
009037020400009057102040300060050089080702401000003500500000200010200670300816040,659137824438629157172548396263451789985762431741983562596374218814295673327816945
200100930308074000156800020670090001010460800000502307000703050409080000005000406,247156938398274615156839724672398541513467892984512367861743259429685173735921486
000400057019086400004902806061057309000010000803009200020065100000300068070000004,682431957719586432534972816261857349947213685853649271428765193195324768376198524
106090702700060000090530000039400200800600509040000001001208004024071608570000003,156894732783162495492537816639415287817623549245789361361258974924371658578946123
500700208029800700040105060074090600200000035090308070010007043006250090800034000,563749218129863754748125369374592681281476935695318472912687543436251897857934126
000560407000102309280000000050300010003800206701090000408630050590080040060204100,139568427675142389284973561856327914943815276721496835418639752592781643367254198
008250079070036000102080400560900010000300200000041005310407900904000026700608300,638254179479136582152789463563972814841365297297841635316427958984513726725698341
608030019020100400400780000009002061000040952530000040086400005713050000000309700,678234519325196478491785623849572361167843952532961847986427135713658294254319786
008000910030700820002058406000520190000004067380076000920601050714000000065900030,578462913436719825192358476647523198251894367389176542923681754714235689865947231
300001068574009000000002500001000004790084030800070209005610003000205086016048702,329751468574869321168432597651923874792184635843576219285617943437295186916348752
