108090002023040700704106500502300807900510060000000003015080020400000009000634080,158793642623845791794126538542369817937518264861472953315987426486251379279634185
890010004010000650002700093005480062000600300000302547054130800026070009900000710,893516274417923658562748193375481962249657381681392547754139826126875439938264715
004087006130020700008400905009075460000906178000002030080100090021000000647003000,294587316135629784768431925819375462352946178476812539583164297921758643647293851
000020704060000195197400020300010209000058000406000003019007600700206050050900830,538129764264873195197465328375614289921358476486792513819537642743286951652941837
008090007094003200706004510800020000043100800500400960010800753000509040020060100,258691437194753286736284519861925374943176825572438961619842753387519642425367198
082004003700500009040310700300060580008007090629000001504008100036790000010003002,182974653763582419945316728371269584458137296629845371594628137236791845817453962
000057093000000450040306281006003009109204000072080000030602800560109700007500040,821457693693821457745396281486713529159264378372985164934672815568149732217538946
009602400000100020067904503800005000000340850501700090030026908720800000004001006,319652487458137629267984513893215764672349851541768392135426978726893145984571236
807002030060300029100900008976200000040000287308015040203007500050004003000090160,897452631465381729132976458976248315541639287328715946213867594659124873784593162
301460000895003000070009201008052470900004600060700050040218503006000100000970020,321467985895123746674589231138652479957834612462791358749218563286345197513976824
007200103900006002804000050700609000100430780080070200006094000031000076290000015,657248193913756842824913657742689531165432789389571264576194328431825976298367415
000005204086900010001064003709082040000001570350000009003200080260070001004109650,937815264486923715521764893719582346642391578358647129193256487265478931874139652
041907000800000005763042900039200001000006034100800060000000080085703642027050003,541987326892361475763542918639274851258196734174835269316429587985713642427658193
050708009000600002007034060015320900000000000800060471001800230673900108500000004,256718349384695712197234865415327986769481523832569471941856237673942158528173694
100604203000000470050000089090580704005007000060902031009070060430805900700230800,178694253923158476654723189391586724245317698867942531589471362432865917716239845
620507009010300050058090604080729010400005080732000000009800300100070006060041027,624587139917364258358192674586729413491635782732418965279856341145273896863941527
100420090340976010005001020460039007800000102037050004000840650070600309010000000,186425793342976815795381426461239587859764132237158964923847651578612349614593278
107060042020007809000005600005800000003701960000630704650020080012004300300980010,197368542526417839438295671765849123243751968981632754659123487812574396374986215
000002804009105002370000006068940051030800600000520370001730080500001400047009020,156372894489165732372498516768943251235817649914526378621734985593281467847659123
300002009000107000206008530700054801001020040960300700048010070030806020070900360,387562419495137286216498537723654891851729643964381752648213975539876124172945368
030041800981000007754000006400309000000250610092807000000030002167090003008400050,236741895981625347754983126415369278873254619692817534549138762167592483328476951
240308005310200090807050400002570031600000570009100000500013007060004008108960002,246398715315247896897651423482579631631482579759136284524813967963724158178965342
640003702108500009709006000500708000003400016004090520280607050000000008300052470,645913782128574639739286145512768394973425816864391527281647953457139268396852471
002570040350200600009401800407603008010050000593000201600890025008000070200004300,182576943354289617769431852427613598816952734593748261631897425948325176275164389
901040028300007100080002070100058093408900000050700601020000006000500740093480012,971645328342897165685312974167258493438961257259734681524179836816523749793486512
987000050000003026300015407060840010002600090890020003005000070210004000040156008,987462351154783926326915487563849712472631895891527643635298174218374569749156238
009031027050789004600000030180005749000800000900010062207900105403508090500062000,849631527352789614671254938186325749724896351935417862267943185413578296598162473
007100003000564800852090000190300040400000087300025690030209500000001004064007029,647182953913564872852793416196378245425916387378425691731249568289651734564837129
000020016945070080000908070050003600400801002308760050006400009091005300870302100,783524916945176283612938574157243698469851732328769451536417829291685347874392165
000341200005000060074520000700409380103002005690000700920018030030700006080005009,869341257215987463374526918752469381143872695698153742927618534531794826486235179
075900000302006100400002870730010405008000297200080060900403006000150000104600720,875941632392876154461532879736219485518364297249785361987423516623157948154698723
800100040750960000003047600002609100035000907000000084000000016009850030041230000,896123745754968321213547698482679153135482967967315284328794516679851432541236879
010300845245700001090000002500007009006010020400680103070120408000000930800530000,617392845245768391398451762531247689786913524429685173973126458152874936864539217
240100005008000070600205098306029057007300100000080046003047902152800000090000000,249178635538964271671235498316429857487356129925781346863547912152893764794612583
010603000005800400089000025061020090028467003700000000000910052500030170002076804,214653987375892461689741325461325798928467513753189246837914652546238179192576834
806070000100040035003209400050830900039100270010004000725006001000007840000320500,846573129192648735573219486657832914439165278218794653725486391361957842984321567
000000008001603720094007601580004300006908070009120000900270480300850100020046500,673412958851693724294587631582764319416938275739125846965271483347859162128346597
500324010080005007900800000050280100019003800036900570070000045400060000020070693,567324918381695427942817356754286139219753864836941572678139245493562781125478693
500090603008000002090160050054001008600305000001006790780520034002000089010034200,527498613168753942493162857254971368679385421831246795786529134342617589915834276
090605010010040806003790500000400002506010073040000080007063040089000205200809760,492685317715342896863791524978436152526918473341527689157263948689174235234859761
200004980405080000000790300600500002000047061089001050830002109507800036001006040,273164985495283617168795324614538792352947861789621453836452179547819236921376548
809700000200005310530240006004000120600510840080003070370080000090000064060009508,819736452246895317537241986754968123623517849981423675375684291198352764462179538
000798100024300006800000035006073010080106304007504009450200000079050020100600800,563798142724315986891462735246973518985126374317584269458237691679851423132649857
400092600018400500052807004000600751021008000503040009376100020090000830000069040,437592618918436572652817394849623751721958463563741289376184925194275836285369147
208060070070051000000083004300007120050010403089040600901005002004970001500004860,218469375473251986695783214346597128752618493189342657961835742824976531537124869
030941200250300014080600700600400308000175000490006000970200050001000860302000940,736941285259387614184652739615429378823175496497836521978264153541793862362518947
310000092872000000000510700004706800000000060036905041200003000080107405950804130,315478692872369514469512783124736859598241367736985241241653978683197425957824136
904603852700000000500184009000500046063900100020008300008009601007002030050740020,914673852786295413532184769879531246463927185125468397248359671697812534351746928
200607508043000100600014032050003800006700000010092470500008003080040795900020000,291637548843259167675814932759463821426781359318592476564978213182346795937125684
190780600006002059027000031400020080050806390302070500005400000000309010008010460,193785624846132759527694831469523187751846392382971546215468973674359218938217465
009704008301500006000800923004107030196020400000000502500200000743900061060003800,629734158381592746475861923254187639196325487837649512518276394743958261962413875
003504060000096752000080009450000000098703016070810000802050043640100020700062005,923574861184396752567281439451629378298743516376815294812957643645138927739462185
402090308000600019000053400003006000006910070080074021820000504600008100579030000,462197358358642719197853462713286945246915873985374621821769534634528197579431286
450008007602009803000000142000002000893105000127600004709350600000906030060000408,451238967672419853938567142546872319893145276127693584789354621214986735365721498
003045000100029065240070003009000320000010007820600090600050184051008700007400002,963145278178329465245876913719584326536912847824637591692753184451268739387491652
007100820402600103000059000060890070039001004500730000020400001006070530008305200,657143829492687153813259467261894375739521684584736912325468791146972538978315246
900006010600090805012300700057089001248000500000470200000000003001060980003718060,975826314634197825812354796357289641248631579169475238786942153421563987593718462
005009601400300070010007020796001000204500300000040806800260009103905002009070540,375429681462318975918657423796831254284596317531742896857264139143985762629173548
010403080806270000004000019000080651050907020203000004409100007360700008008050390,512493786896271435734865219947382651651947823283516974429138567365729148178654392
004070890018600400609003502705000200000020103000789040031002050580030960007100000,354271896218695437679843512745316289896524173123789645431962758582437961967158324
080006000070500201200479006403001090002050408100602035000810507600000380005007009,584126973976538241231479856453781692762953418198642735329814567617295384845367129
530000928004000175000800030000706090001005400067083010200600750040920006093008000,536147928824369175179852634452716893381295467967483512218634759745921386693578241
308506002020871006005400100800000013009207050040089000007032408006004390090000075,318596742924871536765423189872645913639217854541389627157932468286754391493168275
002860175003420809005000030760251008430090000000008790510079200020000000800100604,942863175173425869685917432769251348438796521251348796514679283326584917897132654
050600100037009026800170509600007010200806930013504000000025008070040300389000004,954682173137459826826173549698237415245816937713594682461325798572948361389761254
600012000524007000000954008200060003107090800000473015000800067803000491796000300,689312754524687139371954628245168973137295846968473215412839567853726491796541382
000904500600000100070350024500009080800200369003800000020601048080003001040090702,238914576654782193971356824562139487817245369493867215325671948789423651146598732
006253800040070001057000690000300009000006152004018030700001060063007200915400008,196253847348679521257184693671325489839746152524918736782531964463897215915462378
200005470310000600006907010100000908002348000005200000030620100071800009900004356,289165473317482695456937812143576928792348561865291734534629187671853249928714356
080053000500000673000410200906000004810000730030826000409100000020065100005742090,287653419541289673693417285956371824812594736734826951479138562328965147165742398
070040600400032100096000082910280006000073000803004590100507003005310004602000050,271849635458632179396751482917285346564973218823164597149527863785316924632498751
000107094061040830079000600900403006800720153002500000104008005625000070000000320,283167594561942837479835612957413286846729153312586749134278965625391478798654321
030400000090010520860730009000850960720006300650042800000900007083000040004500108,135429786497618523862735419341857962728196354659342871516984237983271645274563198
064000920500008070301700600000607009076240003409015000000503200840020107020000580,764351928592468371381792645258637419176249853439815762617583294845926137923174586
002050470604000010705800203000401907906580020000096308108030040040000509030207600,382159476694372815715864293853421967976583124421796358168935742247618539539247681
021709000000406010090058400350060007004000085000070620960200800807001053010300940,421739568538426719796158432352864197674912385189573624963245871847691253215387946
008900010051080906302000004006003000000407092425060100800002035509008200010030400,648925317751384926392671854976213548183457692425869173864192735539748261217536489
080600007000040529240307010009100300607054800100000042763000000000003175004082000,981625437376841529245397618429178356637254891158936742763519284892463175514782963
000080007290000040000047523000006078014703250602500000356002410400600002000100080,543281967297365841168947523935426178814793256672518394356872419481659732729134685
450620700008300090000007615002063100700980032900000408080000900003405020090710050,451629783678351294329847615842563179716984532935172468587236941163495827294718356
050601800040920530120800760000002040070105600800030009302500010500004908080070000,753641892648927531129853764936782145274195683815436279392568417567314928481279356
560030000300470018000002095000900007600501839810000020020008006030050400087106200,561839742392475618748612395253984167674521839819763524125348976936257481487196253
329051000806020004000700090007003000500012036060004018002805600010090083705036200,329451867876329154451768392197683425548912736263574918932845671614297583785136249
001056840038000905040010030006000370050907000800120000910004020005000467200700008,791356842638472915542819736126548379453967281879123654917684523385291467264735198
000076000015800600300000420003600000040030981070150002400000190000798003032060570,294376815715842639368915427123689754546237981879154362487523196651798243932461578
203001000160090000905430080034075108000204090700300056006080702010009040080000065,243851679168792534975436281634975128851264397729318456496583712517629843382147965
060090010000081700009305006803070905075000068690000203104069307000500020257000004,368794512542681739719325486823176945475932168691458273184269357936547821257813694
403020000060000000090700408700103005580040609030008201102009007600072103008601920,413825796867914352295736418726193845581247639934568271142389567659472183378651924
308079050006048070100006390010065080004000002070090403800200006060030000450080139,328179654596348271147526398213465987984713562675892413839251746761934825452687139
009005000710000049845020100207400300500006418000039670178600000300790200000008056,639145827712863549845927163267481395593276418481539672178652934356794281924318756
027900054000100700500480003050070921004000000260003000040050087019802300300040690,127936854438125769596487213853674921974218536261593478642359187719862345385741692
900400172176000980400000003605940008830005700000306001049002600000570000002001305,953468172176253984428719563615947238834125796297386451549832617361574829782691345
800001007000090453325000800097320040506008900000700106003160200078240009004000065,849531627761892453325674891197326548536418972482759136953167284678245319214983765
807210000350000600019030074608100095500306000001049280000700402920000038000002500,867214953354978621219635874648127395592386147731549286185793462926451738473862519
007086190200009045800000603050270019300618700004003000043000500010090480006102000,437586192261739845895421673658274319329618754174953268943867521712395486586142937
280000007009200800003409000600012000027030041950070030006008100040700650018540020,285163497469257813173489562634912785827635941951874236596328174342791658718546329
006095004081003200200840370760020500040006000903000081000608030002010705010500490,376295814481763259259841376768129543145386927923457681594678132832914765617532498
019043050050610000064009800030000790900070008700065430048150003002000601073006020,819743256257618349364529817436281795925374168781965432648152973592437681173896524
002000074056008020037002010700030008895010000240005760318070200000100950000406003,982351674156748329437962815761234598895617432243895761318579246624183957579426183
002037091804000000007694000051200604000306180000400020370002049900050008200008760,562837491894521376137694852751289634429376185683415927378162549946753218215948763
