200000009703080001098076405806030024000905800004020570020007000500060000030054102,265413789743589261198276435856731924372945816914628573421397658589162347637854192
000740102008005407000300690100000069090068024050904308503029000021403000460010000,935746182618295437742381695184532769397168524256974318573629841821453976469817253
500010090008700000002098003074520900801040700000000046600059081103004500009080032,536412897918735264742698153374526918861943725295871346627359481183264579459187632
001030080830610005060000430000560140089003000500002007900000720670200059204800600,491735286832614975765928431327569148189473562546182397918356724673241859254897613
500001093031600004000702008400069200978200000200010540706000810050048006009500030,527481693831695724694732158415369287978254361263817549746923815352148976189576432
000021400760090005100005093801200000054000076300048900900054207000030501020080600,539721468768493125142865793891276354254319876376548912913654287687932541425187639
090002004506003008070068020005080000017609500860100430009021007200400095003090210,398712654526943178174568923935284761417639582862157439659321847281476395743895216
000027000016503270320006001003000408090764050250000100700940800805000904001300006,589127643416583279327496581673215498198764352254839167762941835835672914941358726
670100009900003427002000080500084001036090005008300000095000070400057200007206093,674128359981563427352479186529684731136792845748315962295831674463957218817246593
000200857000400090803006400001075200240100005700900036050018000308020001064390020,416239857527481693893756412631875249249163785785942136952618374378524961164397528
000010035203500908970200060000094007060005040100800000041038052027600300309070800,486719235213546978975283461532194687768325149194867523641938752827651394359472816
000709302300000800748200601005802009907504080080300107623050000401060703000000004,516789342392641875748235691165872439937514286284396157623457918451968723879123564
580009400301706090000040001005000028007602300024078506090005130100400060700230004,586129473341786295279543681635914728817652349924378516492865137153497862768231954
906001500078300000350007008090100200600045009804290001200000030000960040100873006,926481573478359612351627498597138264612745389834296751269514837783962145145873926
040000126103700409000000500516009300000602000090154008037080205004003697050020004,745398126123765489869241573516879342478632951392154768937486215284513697651927834
020070490008500007000420010043007952150003060076000800600300500510690200902008000,321876495498531627765429318843167952159283764276945831684312579517694283932758146
109003200060870005003100080940000000050704603700502000800600029304000100090201708,189453267462879315573126984941368572258714693736592841817635429324987156695241738
408702000010950020700003801000040009980100050065000107800097403000600200071300908,498712536613958724752463891137245689984176352265839147826597413349681275571324968
900003426000080300051000900009021007000450201600700040400006182037800050020140003,978513426264987315351264978549621837783459261612738549495376182137892654826145793
000607000500080640070532080130009450902004000680210003000100070709000028048090510,891647235523981647476532189137869452952374861684215793365128974719456328248793516
050380200602007180041060500006870003090210070000600004004103050087040000510090060,759381246632457189841962537426875913398214675175639824964123758287546391513798462
000300069002100507193005080600098702407000003050000016005060000080703041019820000,574382169862149537193675284631498752427516893958237416745961328286753941319824675
100304920008060003090050700060002040709010000045009870900025400300700015002000608,157384926428967153693251784861572349739418562245639871916825437384796215572143698
004706900000005010830009500000150490200000008010320600087000340900601020150070060,524716983796835214831249576368157492275964138419328657687592341943681725152473869
820010600000560000090700530200038490040000080310090000006000201900640007150327800,825913674473562918691784532267138495549276183318495726736859241982641357154327869
080050934000064201032000070051200009790410002000030800000005700023801005007900060,186752934975364281432198576351287649798416352264539817819645723623871495547923168
000009000460010380081020607130006720709830004020040005000400090305270800600053001,573689412462715389981324657134596728759832164826147935217468593395271846648953271
000017620320400700000008009018300000050004082762000005000059004680700001041062390,894517623325496718176238549418325976953674182762981435237159864689743251541862397
003000090500960010000470230000000180040095700100287009024000500890000006307052008,483521697572963814961478235759346182248195763136287459624839571895714326317652948
203009060010700300650040700920081000007060008830900602300010400004508007000090135,273159864418726359659843721926481573547362918831975642395217486164538297782694135
002005000604100008000046390781600000200300705005029840850000070006080034090531002,932875416674193258518246397781654923249318765365729841853462179126987534497531682
000042070050070813016000004040005028280307000035000069900800007000001050003794002,398142675452679813716583294647915328289367541135428769921856437874231956563794182
700300409900700680415000200897040000240576000050280003100905876000402100060010000,786321459932754681415698237897143562243576918651289743124935876378462195569817324
320700000049005710006200038000540800100020090235809061010007050700903004408000006,321798645849635712576214938967541823184326597235879461613487259752963184498152376
800001503004002106002730090731600009000080000005400302050090061007500204040260080,876941523394852176512736498731625849429183657685479312258394761967518234143267985
230600000900000200060102408500400763000290001800567000004008010087000009009714300,238649175941875236765132498592481763476293851813567924324958617187326549659714382
700600004003001800010054907069000002540300710002598000080702403200040090650800000,795683124423971865816254937369417582548326719172598346981762453237145698654839271
670040325001000000800920071290600050500093602010700800040000506003085049008100000,679841325421537968835926471294618753587493612316752894142379586763285149958164237
570000160003200040908010075400300009060057800009106020704500300120009706000008050,572894163613275948948613275457382619261957834839146527784561392125439786396728451
360200004007030052800090010406000030750000190900120607001000003008740020049650080,365218974197436852824597316416879235752364198983125647571982463638741529249653781
108000000030100206520090040760030009089650030004001807010205090070080310405006000,148562973937148256526793148761834529289657431354921867813275694672489315495316782
700300209500179080800054600400020590000008300000095147090040006170062000020800004,741386259562179483839254671416723598957418362283695147398541726174962835625837914
004603070180040002050000060005804003620001005900270100000010030060032408401509600,294653871186947352357128964715864293628391745943275186872416539569732418431589627
308007610045060900000140020200008060854700000030900501600205000000480030079031008,328597614145862973967143825291358467854716392736924581683275149512489736479631258
050000340003078001960020070008050600700001409012400050000109206100237090300640000,857916342243578961961324875498752613735861429612493758574189236186237594329645187
000805070300010020082000905971048300826001049405200600000300006004009000000700518,649825173357916824182473965971648352826531749435297681718352496564189237293764518
579140020003902006100738000040060090002000083690300010901000240037014000860070500,579146328483952176126738954345861792712495683698327415951683247237514869864279531
085903060094006500000700001970500620002810930003000074007305000060000259010680300,185943762794126583236758491971534628642817935853269174427395816368471259519682347
060052008180340709003709060050010000400008230020030907590020000000400006034870100,967152348185346729243789561359217684471968235826534917598621473712493856634875192
002005014000006780043080020209030050004908000605401300350702009008000100010003065,862375914591246783743189526289637451134958672675421398356712849928564137417893265
900000503750069184100470000500082409040007800026003005000208067030000200090510000,964821573752369184183475692571682439349157826826943715415238967638794251297516348
900310000053902060600040007081504020006000001409180006300008412048007650000030090,974316285853972164612845937781564329536729841429183576397658412148297653265431798
210800000009560302008070004001000070620093000054620001040308600760052010000040593,216834759479561382538279164391485276627193845854627931945318627763952418182746593
384000750050000001200900860018097020500600103000080400100703040009052006703040002,384216759956478231271935864418397625597624183632581497125763948849152376763849512
000000709803040256907052040000900003035280070400000010176000800040670300082005000,254816739813749256967352148721964583635281974498537612176423895549678321382195467
014300005680000002205970040070401090090050003100060000740000518000020360009008024,914382675687145932235976841578431296496257183123869457742693518851724369369518724
490008007500000860032010054000000009001672008060053040000860300370025080005004102,496538217517249863832716954753481629941672538268953741124867395379125486685394172
000005100170240000604107080005030960900000300020000057010406009836071002400500800,289365174173248695654197283745832961961754328328619457512486739836971542497523816
002107064100590080670080100000708020900062035040300706060041050500900000083000070,892137564134596287675284193356718429917462835248359716769841352521973648483625971
080500004005067090026043080600000200079130040000200501100008603340070050000029007,983512764415867392726943185651784239279135846834296571197458623342671958568329417
200095000860020010000060073302000450070501600090700081103000704506408009000600008,237195846864327915951864273312986457478531692695742381183259764526478139749613528
560037000009006204087000300036120040700900081040065900250810090001002050000300008,562437819319586274487291365936128547725943681148765932253814796891672453674359128
600000107000510900230800060000003075700125400809640001508000209006701840304290050,695432187487516932231879564142983675763125498859647321578364219926751843314298756
000000070107320560604019080000000900031084006085170200402001000009500801500630007,823465179197328564654719382746253918231984756985176243472891635369547821518632497
061000007000060592007300800600100780084590030900802005100028000059007004342010000,561289347438761592297354816625143789784596231913872465176428953859637124342915678
020098070860300010000400003001057000006903580004810792390620008100530000050000904,423198675865372419719465823981257346276943581534816792397624158148539267652781934
490706230300098007056000000070000008000000140605043000040012095003805002001900073,498756231312498567756231984174629358239587146685143729847312695963875412521964873
000180520705000000283900006049030000502608904070040031800304109000702603006050000,964183527715426398283975416149237865532618974678549231827364159451792683396851742
005092400000100300720050060000700094006025081879006500000603000098000230560040070,635892417984167352721354869152738694346925781879416523217683945498571236563249178
703000050090058120005904800000603002809100004400000706001009070020371005006400390,783216459694758123215934867157643982869127534432895716341569278928371645576482391
400093270000020850130008040008900100300450009250007030500000400070361000906700008,485693271697124853132578946748936125361452789259817634513289467874361592926745318
609003072000670408001805003900700030002001005500000891856000000004002000720140600,689413572235679418471825963918754236362981745547236891856397124194562387723148659
200040050070608010510007009030000048000095320806001000400060500002000837750003260,268149753379658412514327689935276148147895326826431975483762591692514837751983264
050010807004890030000026000301000200092007050070064010800500302069081005430000009,956413827724895631183726594341958276692137458578264913817549362269381745435672189
003080040005000026690002180800030672006201000040000950100060095008409300700810000,213786549485193726697542183851934672976251438342678951124367895568429317739815264
902350080016004075700800400000000001078401620030092040100070800005000260400068900,942357186816924375753816492294685731578431629631792548169273854385149267427568913
000009000021060035000050782030000070280003401405807009706020053300400800900100040,573289614821764935694351782139642578287593461465817329746928153312475896958136247
020008005706020093500030640007900000060405028840010060000007039109052000453000001,324698715716524893598731642237986154961475328845213967682147539179352486453869271
530800009084107300607020000000430602100209000009050074005000007902300410000060058,531846729284197365697523841758431692146279583329658174865914237972385416413762958
460719028500860000000020003740000005090074102000901840020098401900030000600500730,463719528572863914189425673741286395895374162236951847327698451954137286618542739
507000000060920031100800760300400000040081902050070080000730005280609070400010206,597163428864927531132854769328495617746381952951276384619732845285649173473518296
030714809020050000100009053900040081007890060050603007005036070094080600010400200,536714829429358716178269453962547381347891562851623947285936174794182635613475298
003000080065041000870002910080700003027004006000920007100000000098465200540309760,213597684965841372874632915489756123327184596651923847136278459798465231542319768
500408903000000164003092070800900040620105009007060005001009280002570001400000300,576418923298753164143692578815937642624185739937264815751349286382576491469821357
000700890000006275000058106820300000031067009009480000408092003350000002097001640,165723894983146275742958136824319567531267489679485321418692753356874912297531648
030590000104068075007002890009750010250003047040010000006030000008000920070601408,832597164194368275567142893689754312251983647743216589426839751318475926975621438
509000300000200065008014209840300000070680050000057130930840020001002706200070940,529768314714293865368514279845321697173689452692457138937846521451932786286175943
000600900850007004609018000003024000000000107094750008200403800017002035400071060,371645982852937614649218753783124596526389147194756328265493871917862435438571269
800100200007390600463000008024030010500980000000004073000070940300501002178000060,895146237217398654463752198724635819531987426986214573652873941349561782178429365
503890000270630000910000050001003067000004820809200100006008400040160270000050093,563891742274635981918742356421983567637514829859276134796328415345169278182457693
000000594000002103000719080060043008208500901390021060070000025004006800931080040,712638594689452173453719682167943258248567931395821467876194325524376819931285746
020904307061570000009800005006148000200000050374050009000090000007200930503400860,825964317461573298739821645956148723218739456374652189182396574647285931593417862
614000080000407010200090605356200800900080000400039021030050700060140300508000092,614523987895467213273891645356214879921785436487639521132958764769142358548376192
900000008007208094230070000420091800083600007109805400700104600015306700060000052,941563278657218394238479561426791835583642917179835426792154683815326749364987152
000000204050800370901030005540680900003000046019700802800052000006470009000090710,368517294254869371971234685542681937783925146619743852897152463136478529425396718
000008000140007009006003457050009620078240000300060014002090860035070940000302001,597428136143657289286913457451739628678241395329865714712594863835176942964382571
508001020400000305030090006004308060020150070093204080007002000610087230900000150,568431729479826315231795846154378962826159473793264581347512698615987234982643157
004080900690003510370002000019600000703290000050010004005300786002840130000501209,524186973698473512371952468419635827783294651256718394145329786962847135837561249
500006009080090400002140570018007002076000950900004310830500106007020000009680004,541736289783295461692148573318957642476312958925864317834579126167423895259681734
000700362000000040900356000082070401000001005570463000047120900068900700150040800,815794362736812549924356187682579431493281675571463298347128956268935714159647823
