040081075900000360080907000109000630032604081004500200000408020573000000000036109,246381975917245368385967412159872634732694581864513297691458723573129846428736159
000008007501072340080010060200400005408000970607390000900001506003004002000200030,326948157591672348784513269239487615458126973617395824942731586163854792875269431
000409008030005620090037010010800900724000050000504007900001006508900002270000304,152469738437185629896237415615872943724396851389514267943721586568943172271658394
000090001705406200290050870500018040000000130060340059008009426603701000002000007,384297561715486293296153874537918642429675138861342759178539426643721985952864317
000750041107008296008200050000400000709016002043020085001005004060090300932100000,326759841157348296498261753215483679789516432643927185871635924564892317932174568
087090040010004527300150000000823060094000000006040851001000236063005089700900000,587692143619384527342157698175823964894561372236749851951478236463215789728936415
800409031004002000709000500308090006400706010000001029270004003001360450000500100,856479231134652978729183564318295746492736815567841329275914683981367452643528197
000040009803029600046300020004160000390500108007002053700008005100495000020600901,271846539853729614946351827584163792392574168617982453769218345138495276425637981
029080070037491200100307060000000005096502304048936000050000900000004817800160000,429685173637491258185327469312748695796512384548936721251873946963254817874169532
060010050200004890380270000700128000409030000030000026003061400000900530510007008,964813257271654893385279614756128349429736185138495726893561472647982531512347968
803017040090000005001942300007090010902800500300064000006700008450038700020001009,863517942294386175571942386647295813912873564385164297136729458459638721728451639
098000060000100053070526940600281000010003420900740800200600000040050001360009007,598374162426198753173526948654281379817963425932745816281637594749852631365419287
130090406006380001042007008050800203000950040007000190400630059070002600080040300,138295476796384521542167938954871263213956847867423195421638759379512684685749312
200010600069005407000908350107003000900700005300691804024000080000500001708300026,235417698869235417471968352147853269986724135352691874524176983693582741718349526
340700160001000082700006000084200900000080071206501300050000400002873005690002003,345728169961345782728916534184237956539684271276591348853169427412873695697452813
056021007907600102020089000000003040289070600004010205008000703590040006071850000,856421397947635182123789564715263948289574631634918275468192753592347816371856429
000210073398600040007900600100060059450709800000080032805030100000002004760501000,546218973398657241217943685182364759453729816679185432825436197931872564764591328
190000005000800600402037000000000009047025030680401050070904102050062003009780006,198246375735819624462537918521378469947625831683491257376954182854162793219783546
290607008007504000010030270500490026000000300034100850063700010950060004001080090,295617438387524961416938275578493126129856347634172859863749512952361784741285693
940200100080907020000006507320400005801600009000001360102004008079100204000350900,947235186685917423213846597326479815851623749794581362132794658579168234468352971
400398100050070030902400600080004012009006850720500300015900080090060700004200006,467398125158672439932451678586734912349126857721589364615947283293865741874213596
009800005000025000007014023300100500014079802000632900060087000500000260023400107,249863715136725498857914623392148576614579832785632941461287359578391264923456187
006500984430007012059000300010062050800010207900000000073800100500346709200005060,726531984438697512159284376317962458865413297942758631673829145581346729294175863
106002407045170300800000090000246800300090501600510000902300000003600940070050020,196832457245179386837465192751246839324798561689513274962384715513627948478951623
003000056020016409006080000009068037431900060070002000500000073007049802182070500,813294756725316489946785321259468137431957268678132945594821673367549812182673594
080900040016400307904020560070350006050060280400001030300008024007009000520000001,785936142216485397934127568879352416153764289462891735391578624647219853528643971
010030600847010050000000420050040060200089300030006008069420105001005070380700009,512934687847612953693857421958143762276589314134276598769428135421395876385761249
000050001409080602100302097050204709098037060670000100786000000003510000002900308,827659431439781652165342897351264789298137564674895123786423915943518276512976348
200300104054200000780056900100760400475008002600003800060870300000020570900100080,296387154354291768781456923138762495475918632629543817562879341813624579947135286
005000040010000720832001500690000007000809130000350002900500083048100006376420000,765982341419635728832741569693214857257869134184357692921576483548193276376428915
005780006900020017100600430001090800090046002028005079604000301007403020000500000,345781296986324517172659438561297843793846152428135679654972381817463925239518764
000070690000300201510002408004069002080050960007008005802015030790030000106040080,428571693679384251513692478354769812281453967967128345842915736795836124136247589
072008509001096003000070140009700000000040720036805000600002405200104680050030090,372418569541296873968573142429761358185349726736825914617982435293154687854637291
503908700080020093010304002800106030047209010001003007200600045000040006096700800,523918764684527193719364582852176439347259618961483257278691345135842976496735821
030004900601007400200086001029701500000020007750003008304058010180049760000000003,538214976691537482247986351829761534413825697756493128374658219182349765965172843
800103006507200040000780900020009100000000358600410007009800025005067013304020700,892143576537296841416785932728359164941672358653418297179834625285967413364521789
502000006300800700090100405800007509000000301400390060068004020007061000930702004,582479136314856792796123485823617549659248371471395268168534927247961853935782614
100006950090830000647200010030600200800003061002400870910000580050074000020050104,183746952295831746647295318431687295879523461562419873914362587358174629726958134
500080060016002000940031007709200405030096081000070200104060302072540010000009800,527984163316752948948631527769218435235496781481375296194867352872543619653129874
080002316006700204009031070030080000052900048400160903100807409007049600500000000,785492316316758294249631875931284567652973148478165923163827459827549631594316782
000531000480002900073000006000700060609305400240090008850010003001000240306059017,962531784485672931173948526538724169619385472247196358854217693791863245326459817
003004250207830900040070001562300000090005038000619400604100000030050070710090806,183964257257831964946572381562348719491725638378619425624187593839456172715293846
805000002060000940200700068073800120000000400509401070010503680600090007000042319,845916732367285941291734568473859126186327495529461873912573684634198257758642319
503090042000600800190700030800003407042907051070560000000051003000020680034800090,563198742427635819198742536859213467642987351371564928986451273715329684234876195
040078059020010000006400008180205007039006020000740030200890040507300000090007060,341678259825913476976452318184235697739186524652749831263891745517364982498527163
002003900000100806765000002000090020014000380370040005690005070500800401031602000,182563947943127856765984132856391724214756389379248615698415273527839461431672598
001002309560400008700001420003040270200000056070208904600093000005680000918700000,481572369562439718739861425853946271294317856176258934647193582325684197918725643
015400000000017609630820000500260807000500140028070530460009000000000008091050720,715496283284317659639825471543261897976538142128974536462789315357142968891653724
010300090705080060900001807092000100008010009007605420300860250040000003500402700,814376592725984361963521847692748135458213679137695428371869254246157983589432716
701480006003020140800000090050100429000030070000962005900000307400015000602807000,791483256563729148824651793356178429289534671147962835915246387478315962632897514
000900020300052000010087905058010037400020069061740008590401070070000004000806500,785964321349152786612387945258619437437528169961743258596431872873295614124876593
003005208000069040540800790800601300390200050000070024082040000750390000000020617,973415268218769543546832791824651379397284156165973824682147935751396482439528617
000001753000640020912070080006500300070020104098004000040900830030107005507060200,864291753753648921912375486426519378375826194198734562641952837239187645587463219
030800905207015800056307200000900061004080009000074000180040007602001500900620003,431862975297415836856397214728953461314286759569174382183549627642731598975628143
215008040600502000900036007730600020000710900000053108009000580047090060320400010,215978643673542891984136257731689425852714936496253178169327584547891362328465719
000709213000080040500064009030015006006203100078490000000900800042030967001000050,684759213917382645523164789239815476456273198178496532365947821842531967791628354
010506000070039450089701000400000005020080703006300098200000980005060037003470026,314526879672839451589741362438297615921685743756314298267153984845962137193478526
050804390200507008140030006074600501605700000080902000003190007000000830402000105,756814392239567418148239756974683521625741983381952674863195247517426839492378165
705100092004500106200030040000040801000600030800007065070020009316090070509086000,785164392934572186261839547657943821192658734843217965478321659316495278529786413
014500307007060005900400000050107890802090400030020006090002100200008503503706000,614589327387261945925473618456137892872695431139824756798352164261948573543716289
650200000000047500148003006079305002801000600003820040000900008000056709200004135,657218394932647581148593276479365812821479653563821947715932468384156729296784135
090060000006089007201703000047050020800004590003910800020030001000600052385007049,798261435436589217251743968947856123812374596563912874629435781174698352385127649
000003450900010002708090306020054001603000075090807200000060100002970008105200603,216783459934516782758492316827654931643129875591837264489365127362971548175248693
020001750107085093004000000070090600000057210309002004030074580610003000005810060,823941756167285493594736128271498635486357219359162874932674581618523947745819362
300070008500100060002004700020700006403005090680900540009012003700080400001360085,394276158578193264162854739925748316413625897687931542859412673736589421241367985
500010830028600190001307400009060020000001080604530900706000005432900010000470060,547219836328645197961387452179864523253791684684532971796128345432956718815473269
103002604000059007085100200900000080600407020401603005002000091370204000006038000,193872654264359817785146239937521486658497123421683975842765391379214568516938742
680020000000009301070540800100080560020700004305100007008974030509600002004003100,681327459452869371973541826197482563826735914345196287218974635539618742764253198
902800007001004082060500940000060810300450009200003600080002105005910000034700200,942831567571694382863527941457269813316458729298173654689342175725916438134785296
000032104700100900004500683001700350206083709090600008613050007085001002000900000,569832174738146925124597683841729356256483719397615248613254897985371462472968531
000470951040008000000219006029050600405006087080000300230080070057930008600001020,862473951941568732573219846329857614415396287786124395234685179157932468698741523
982005300300060480450100200007000649000019000500600000860020073010500820205307001,982745316371962485456138297127853649634219758598674132869421573713596824245387961
050410000000508046603007080301060009809002300020100067005009012900004730700200000,258416973197538246643927185371865429869742351524193867485379612912654738736281594
030000008904300500100020600098610004357080010000075802000730040500008167021046000,632159478984367521175824693298613754357482916416975832869731245543298167721546389
050001643010002007900843000003000854007060100500080702860930020040500090100006500,258791643314652987976843215623179854487265139591384762865937421742518396139426578
000219003081000070006740520003050490010002600007000000004800206390607100500430080,745219863281563974936748521823156497419372658657984312174895236398627145562431789
730000000000000196020145008100200405200856030067000000600481900000070042095030800,731968524854723196926145378183297465249856731567314289672481953318579642495632817
700060104060100300800900005480003007029051008005040060000500016030087200597200000,752368194964175382813924675481693527629751438375842961248539716136487259597216843
650104800403000005020970003300620000080097200000508700260080070190000460004006050,659134827473862195821975643347621589586397214912548736265489371198753462734216958
950000081040903200000000070507024608001509700024180009000200106032006004860050300,953672481748913265216845973597324618381569742624187539475238196132796854869451327
000000049130005080609100203020040700003981006400007305097310000500060000002408970,275836149134295687689174253926543718753981426418627395897312564541769832362458971
000469020002000030901008064140070059500003700086010003090720810200000006058300070,835469127462157938971238564143872659529643781786915243394726815217584396658391472
043500986009200040600000503100058070052006008030704009408010007060007010970430000,243571986589263741617849523194358672752196438836724159428615397365987214971432865
090027680604080032010000005405270016930000004000001800160030000002800407007590003,593427681674185932218963745485279316931658274726341859169734528352816497847592163
090005000750080361102004800609040070800060032500102400910370000000000090006028507,398615724754289361162734859629843175841567932573192486915376248287451693436928517
510098607003070012900000004100020405000806000007059080800300200056000100209407060,514298637683574912972631854168723495395846721427159386841365279756982143239417568
000073582709000040000006903000002450046005308008300029900057000300064200002800061,614973582739528146825416973193682457246795318578341629961257834387164295452839761
069003070028600034000000050010005090000760008705049020800020000004901003370086001,169453872528697134437218659216835497943762518785149326891324765654971283372586941
305090400009108003072053680010670300400030001060000274021900500500802000004060008,385796412649128753172453689218674395457239861963581274821947536536812947794365128
300264100000005200005000489569028000084106300000070000870090001030000857006010020,398264175147985236625731489569328714784156392213479568872593641931642857456817923
301408002070302800005700000040006080010573090203801000004200760006090300080000549,361458972479362815825719436547926183618573294293841657934285761756194328182637549
000120908940560130300000000000908054002030007700200300406080000209004586057000013,675123948948567132321849675163978254592431867784256391416385729239714586857692413
503100600000239070070050400008500030010700260009084000600070029920060005304008010,593147682846239571172856493768512934415793268239684157681475329927361845354928716
080000047040832109501006300000207000604009002100580930020040760307000500069001003,283195647746832159591476328938267415654319872172584936825943761317628594469751283
060710500410006007089502400802090003104003060300201090030100900000060278500400000,263714589415986327789532416852697143194853762376241895637128954941365278528479631
397006050600900102008407000850003600000219500014000027006570001000002040009680230,397126458645938172128457963852743619763219584914865327236574891581392746479681235
083000975002001080960700130405087610000090200030406009021340500007000004600005020,183624975572931486964758132495287613716593248238416759821349567357162894649875321
300980540000700000200400706058020910003004070420601080010030098060070203005008000,376982541541763829289415736658327914193854672427691385712536498864179253935248167
005009100400008037060004208003080701008600090700932004020000013000751800086040500,875329146412568937369174258693485721248617395751932684527896413934751862186243579
300640809004031700701900020000020500050400902070018004803050600010000030092370000,325647819984231756761985423436729581158463972279518364843152697617894235592376148
