001003024900000860054802700409070600020068000760001503003710090080500017000200000,871653924932147865654892731419375682325468179768921543543716298286539417197284356
830670200702301046109005700300004010000560000205000408008400602900000000001790005,834679251752381946169245783386924517417568329295137468578413692923856174641792835
000209100030000850009051006007890040680005003903760002050006014002400700040070390,465289137231647859879351426527893641684125973913764582758936214392418765146572398
600009270020030500004670000032000008000500910059104603008000790091000005005206841,613859274927431586584672139132967458846523917759184623468315792291748365375296841
200030009050400102006008040549013700002060908003007500007005083600000400981006005,274631859358479162196258347549813726712564938863927514427195683635782491981346275
000910300000008016204005700090060008050407000460051002028000001079004025500306800,786912354935748216214635789197263548852497163463851972628579431379184625541326897
051004060060170025200006030093400001000053070400000000084030002102700806076081009,851324967369178425247596138793462581618953274425817693984635712132749856576281349
000401500000360000080000042804705090900000650007029081502003708700000904046070320,279481536415362879683597142864715293921834657357629481592143768738256914146978325
709085000003600040428000000001002670040009020600000403107090200800001560000870039,769485312513627948428913756981342675345769821672158493137596284894231567256874139
059000007070891000200005301000082510000604900004350208700000000306009405001420086,159236847473891652268745391637982514825614973914357268742568139386179425591423786
309040075500006100080705409064001000700508000001030800920080001070904050036007020,319842675547396182682715439864271593793568214251439867925683741178924356436157928
201075900000010030400300028000028003089037006700600050500400000068900470902083010,231875964896214537475396128654128793189537246723649851517462389368951472942783615
400780000103002590620000030340050072002600000508010046071040080000901060005300900,459783621183462597627195438346859172712634859598217346971546283834921765265378914
000203000900175860807000320700508010010000900035040006006007159504006070002309000,641283597923175864857694321769538412418762935235941786386427159594816273172359648
000003800400005060689001005050306029013200700000070530072040900801000007046190008,125763894437985162689421375758316429913254786264879531572648913891532647346197258
004508016009000000078930500005020000080097030960400180000140023503060000207000604,324578916659214378178936542735821469481697235962453187896145723543762891217389654
090000001000032080607401005008050204050940700710600008003069007009004602001070030,392586471145732986687491325938157264256948713714623598523869147879314652461275839
150048000008002009740310000310069700090400800007200050824003600060700190000085003,152948367638572419749316582315869724296457831487231956824193675563724198971685243
708410050520009100000680003060007000403000072000540608001700249070103000650890000,738412956526379184149685723865237491413968572297541638381756249974123865652894317
000030071904600020007825000070200908200001530360500012080004069090300000105070400,852439671934617825617825394571263948248791536369548712783154269496382157125976483
500001490038095070071000006000809040200000050609023000020018700056300980007400021,562731498438695172971284536715869243283147659649523817324918765156372984897456321
003050820068040701010600049001000060002301090800205003004006000705400032900780500,493157826268943751517628349371894265652371498849265173124536987785419632936782514
030076041105308600000000090008060200000003080602041509090705102501000470800020003,239576841145398627786412395358967214914253786672841539493785162521639478867124953
039000000000250040004006928000003105071008206300607000040002893608400000700091600,239184567867259341514376928486923175971548236352617489145762893698435712723891654
000206300090005040780100509840603072059700034200010000400500000130008006065300210,514296387392875641786134529841653972659782134273419865428561793137928456965347218
000604092079010000600000803010070309040805200760031005500000000038500106090200047,381654792279318654654729813815472369943865271762931485527146938438597126196283547
040000080010006002952800406480050090000040003006020801705900104820370900003560020,647215389318496572952837416481653297279148653536729841765982134824371965193564728
000400007030215008618000000356090002027800510000040070900000020840307905203600400,592468137734215698618973254356791842427836519189542376965184723841327965273659481
900000320265009800034076050090400081307160000000025700100700905020000640080043007,971854326265319874834276159692437581357168492418925763146782935723591648589643217
005046000309702080048005010090270000000004308204000570400380790010600203006000051,125846937369712485748935612593278164671594328284163579452381796817659243936427851
207050000600200140085030060063000580000790010000805209004578900092000400800400071,247651893639287145185934762963142587528793614471865239314578926792316458856429371
003000500090420807170609042030080000020001034905070000401008209089200761050000000,243817596596423817178659342634982175827561934915374628461738259389245761752196483
000032060050090700006140083020400000140907002603080500080000206900510304700000019,819732465354896721276145983527463198148957632693281547481379256962518374735624819
005080497040001063000000200290350070080060000400100625930700500010030040807902000,125683497749521863368479251296354178581267934473198625934716582612835749857942316
801367400002040065090100800020005930705009000600010020904700006000290310013000040,851367492372948165496152873128675934735429681649813527984731256567294318213586749
001570000600409700000000253012060800040030006507042090805600130400017900029008040,281573469653429718794186253312965874948731526567842391875694132436217985129358647
700300580509042700400060302075900006060005240210083007008000000002098010600400009,726319584539842761481567392875924136963175248214683957198256473342798615657431829
020710069008050000407060230041003028600005100200098400000000007030947000050080091,325714869968352714417869235541673928689425173273198456892531647136947582754286391
073200009009517000028000400290340060600008001080065740000000050040809030000036827,573284619469517283128693475297341568654728391381965742836172954742859136915436827
609100045504200039000000708700058020008009010400000603001904050002030470300526000,679183245584267139123495768716358924238649517495712683861974352952831476347526891
900001000004800320052307006070103009040260078608500000800006410500400207009030060,983621754764895321152347986275183649341269578698574132827956413536418297419732865
600090201300000000879013005006900000001875040400021083027460000040050970003000500,654798231312546897879213465786934152231875649495621783527469318148352976963187524
086032000200008070340001000900100258000056000100000490701609030002040501630800027,586732149219468375347591682963174258428956713175283496751629834892347561634815927
000100040005804600028650000507000008060070039104302700080003060200091300001200597,673129845915834672428657913537916428862475139194382756789543261256791384341268597
000006000070080921094300050008030046010207305002600090000094802905800700043010000,581926473376485921294371658758139246619247385432658197167594832925863714843712569
042380610300006705080091000000204000005060030000800972403500890009037100120000006,742385619391426785586791243938274561275169438614853972463512897859637124127948356
400051007010902600003800900050009800040100020780463000230010006070006305805070100,498651237517932648623847951351729864946185723782463519239518476174296385865374192
009453100020890070050000600000920004087015003100000006048067020073001908500200040,769453182321896475854172639635928714487615293192734856948367521273541968516289347
070005080061000925030001006307020000059340008240080010000600040800710002004900751,972465183461873925538291476387126594159347268246589317713652849895714632624938751
700000020036000581928000400010060750009002000600540308043800000200300016005079203,751483629436297581928615437314968752589732164672541398143826975297354816865179243
002070045000108000090300006403000600100804000680209170060790003800052009007600420,312976845546128937798345216423517698179864352685239174264791583831452769957683421
040378500000060031005000004000000013908130000007482060100205470076000009009600058,641378592892564731735921684264759813958136247317482965183295476576843129429617358
005000800304028070800640023170080052006239018000000600240015007000000490019370000,725193846364528179891647523173486952456239718982751634248915367537862491619374285
490010008001500790200080300005000010000967004043800607080003902760420000010600005,497316258831542796256789341675234819128967534943851627584173962769425183312698475
003601000004000860520370190000090400050800700048020050700005009280406007000710302,893641275174952863526378194617593428952864731348127956731285649289436517465719382
500020009036000700400080051050000070001046800823005090080100020109300680002970000,518427369236591748497683251654839172971246835823715496785164923149352687362978514
527400000060730208030609010719000420000000080040957600072004063003008004000016900,527481396961735248834629517719863425356142789248957631172594863693278154485316972
003900004450000000087015063342008900001059020600100387700020009009030142000600058,123986574456273891987415263342768915871359426695142387718524639569837142234691758
600002800010054090009300075390048060000700209078006100460000350105000006082030004,654972831713854692829361475391248567546713289278596143467129358135487926982635714
050730100691200800200900600009308060017002580300040910030060050000400200048005070,854736129691254837273981645529318764417692583386547912732869451165473298948125376
000943600002100000098070054640030005105026803020000070000061020007804900500000348,751943682462185739398672154649738215175426893823519476984361527237854961516297348
054810000600027000870006930090000000106530002005000648920070406043200070001005800,354819267619327584872456931497682315186534792235791648928173456543268179761945823
000100008605047000240830509002090803803601700070004001300000027000500900067003400,739152648685947312241836579412795863893621754576384291358469127124578936967213485
052070014001009370970050060000302801090005000306001040615900000780006020000400700,852673914461289375973154268547362891198745632326891547615927483784536129239418756
820090700006100000070406502030000900900250106410800030003007008254030600008004029,821395764546172893379486512632741985987253146415869237193627458254938671768514329
351007000029006038040020500005280090902300006830005004006000020100040900080510703,351897642729456138648123579465281397912374856837965214596738421173642985284519763
060280090007006005310050000054007032006008004890000000009001580070324610031090047,465283791987416325312759468154967832726138954893542176249671583578324619631895247
000070013020850400907600000601407005003180020070090860000000506450002007108040390,845279613326851479917634258681427935593186724274593861732918546459362187168745392
026030700700400095009060012100000460000510070072908000490020803000001006305804100,526139784713482695849765312158273469934516278672948531491627853287351946365894127
009000076050367200020000403000001009148000620600058000000210000904000380035980107,389142576451367298726895413573621849148739625692458731867213954914576382235984167
001009036008630020020107800706024908189063000040000000205300081000091007000450300,451289736978635124623147895736524918189763542542918673295376481364891257817452369
010903084728000390300100600000700160006004005100050200063001900509800000240670500,615923784728465391394187652452798163936214875187356249863541927579832416241679538
340085607005030000700042009604020080000000503019370004086000405007690810100004900,341985627295736148768142359634529781872461593519378264986217435457693812123854976
530080000004609003600050827008206500705000301069071040100090085000014700203000004,532187496874629153691453827418236579725948361369571248147392685956814732283765914
064008250000000000200509107095107006000900820300040070002001080140030600937082004,764318259519274368283569147895127436476953821321846975652491783148735692937682514
700048900100700460050002300240807000007900000090063170003104590800000003400005216,736548921182739465954612387241857639367921854598463172623174598815296743479385216
800000649000370210500000080600020401104063000003900850002540000900680302710009060,837152649496378215521496783689725431154863927273914856362547198945681372718239564
006013257000000836008500000070160049300709001120005070007000000450008102290634000,946813257512497836738526914875162349364789521129345678687251493453978162291634785
100500206600104090050063840000081070947000003003009500070006420089205000001400300,194578236638124795752963841526381974947652183813749562375816429489235617261497358
005700090760000500040000802280605100000002350039140067001090400800301020670800030,125783694768429513943516872287635149416972358539148267351297486894361725672854931
200056008900003700050980036001005000006020850004100093370800120109400000040007000,213756948968243715457981236831695472796324851524178693375869124189432567642517389
005401060209000500000906700400000020020180300538700000070005109304800050600293840,785421963269378514143956782417539628926184375538762491872645139394817256651293847
002047010097001540010302060003000708050230004060905000049700080100800923000060000,682547319397681542415392867923416758751238694864975231549723186176854923238169475
000060900406500003500718002800090034001000207054302100609100000030000870702005406,278463951416529783593718642827691534361854297954372168649187325135246879782935416
003020904000000508204708000100600702090000030800475601027056000400080100000900063,683521974971364528254798316145639782796812435832475691327156849469283157518947263
410803700605090000098000126100004372034000000000500890020740001000900563006005000,412863759675192438398457126159684372834279615267531894523746981741928563986315247
090063004500070010860500200070614005002080000109207003480100072003000080000400591,291863754534972618867541239378614925652389147149257863485196372913725486726438591
102000000070605009800002046430000580000009070706014030080040200901020760500030010,162493857374685129895172346439267581218359674756814932683741295941528763527936418
000700301639040080000050024007620400050900800800031062070060005042000930103000070,425786391639142587781359624317628459256974813894531762978263145542817936163495278
510409602600500000023008900060017040800600130094020005930050800700004001008300070,517439682689572413423168957365917248872645139194823765931756824756284391248391576
907010300602040981000000020000430560190005400030806072400080600080070015700902003,947218356652347981813569724278431569196725438534896172425183697389674215761952843
040001900207030008186950000008200504570004000031690002050062800003700290000010037,345821976297436158186957423968273514572184369431695782759362841613748295824519637
708534001650900308901002000302075910007001060800000002140003009000060540000040070,728534691654917328931682457362875914497321865815496732146753289279168543583249176
008000019005089030000230570084010306090006700001000024029047800053001240000600005,238765419475189632916234578784912356392456781561378924129547863653891247847623195
700013005008000970030048200004851009800600000071020400100030500056407310009000620,762913845418562973935748261624851739893674152571329486187236594256497318349185627
002030050600000021805904000000300267000500908030078000026810004900000710700050006,472136859693785421815924673584391267167542938239678145326817594958463712741259386
709306004600800000080210009008000003350040072470009106910000020004001350000685400,729356814641897235583214769198762543356148972472539186915473628864921357237685491
002830045000070000040005891100006020000580010609002003050009080307040206820600034,962831745518974362743265891135796428274583619689412573456329187397148256821657934
091700200000300000050946370142090760000080900085000003006100805003024600070005024,391758246764312589258946371142593768637481952985267413426179835513824697879635124
002000000071020304460700500030070900096040108800610000008402005700500029005830060,382154697571926384469783512134278956296345178857619243618492735743561829925837461
