002000060746001093090005008004708100509000080100056209687004000400010000000820030,852973461746281593391465728234798156569142387178356249687534912423619875915827634
060080005020604091040390700000206503380000020001708040004050078072401059900000600,769182435523674891148395762497216583386549127251738946614953278872461359935827614
600020007009103450005040800080010000500472601210600030370290068000007103004500090,648925317729183456135746829486319275593472681217658934371294568952867143864531792
000070600900031004506800000013904760600000200009560803008240301034000020205009070,381475692972631584546892137813924765657183249429567813798246351134758926265319478
480000000600205007090063510003010002008709604204308090500000409007096080020500100,485971326631285947792463518973614852158729634264358791516832479347196285829547163
009105003830000605620090400900000120002046500083000009007201040010070800060350007,749165283831427695625893471956738124172946538483512769597281346314679852268354917
000007048900005000510080209030192070400030000061800035094600080702009106006020003,623917548948265317517483269835192674479536821261874935394651782782349156156728493
000002000010070020420063800100400985900050671068000300300800007046309050005040003,659182734813974526427563819172436985934258671568791342391825467746319258285647193
186002090000000056009704300050910730203400010000038600840090020070500908601020004,186352497734189256529764381458916732263475819917238645845697123372541968691823574
048002105602300008000001009000030420700000056004280900090150080050009071430060000,948672135612395748375841269189536427723914856564287913297153684856429371431768592
060400037783000054140020960090580700500700600002031000006000021030095800007100540,269458137783619254145327968394586712518742693672931485956874321431295876827163549
816900070027400003900820050080000900004570100602010480005006040100030029030005006,816953274527461893943827651781642935394578162652319487275196348168734529439285716
005008130800500206047060000032010009000275410000000080506420000400009605008001370,265948137891537246347162958732814569689275413154396782576423891413789625928651374
000000900205010046370002501003065890000080674040000000956007200100900008082100060,861534927295718346374692581713465892529381674648279135956847213137926458482153769
000069140036000009107840000003000050000310207050280010062091780080527600504000000,825769143436152879197843562213976458648315297759284316362491785981527634574638921
010800500403076800200590003080000600070210090001007402306051007820903040005020030,719832564453176829268594713582349671674215398931687452396451287827963145145728936
002000060610530700008014003001067850900005400370009026020903000000800370560270004,432798561619532748758614293241367859986125437375489126827943615194856372563271984
000470900069020500037100002080046007600000409002053100000597030200000018004800600,128475963469328571537169842981246357653781429742953186816597234295634718374812695
035100200010089400006520800720030040300000050540700190080093010000004006972000300,835146279217389465496527831721935648369418752548762193684293517153874926972651384
003028651080060002007000300040100035050082900018903200029047060600090704000005100,493728651581369472267514398942176835356482917718953246129847563635291784874635129
090413000603900000020008500500004000008075060079000102042600970001307008060020304,795413286683952741124768593516294837238175469479836152342681975951347628867529314
801007009000603400700028100000001000089050070654200030207100090513400008000006500,831547629925613487746928153372861945189354276654279831267185394513492768498736512
821000350040830000076000204050019007403205001900486000008900020105007490000000600,821764359549832716376591284652319847483275961917486532768943125135627498294158673
473001600605080103090400000800000002009052470001709050700105036030040705002003090,473521689625987143198436527857314962369852471241769358784195236936248715512673894
104500070309260000500041803005096008000000260007000400460800500930000702000032089,124583976389267154576941823245796318893154267617328495462879531938615742751432689
241050600005091070800600200060008905027003004100400030003709060786500000000040180,241857693635291478879634251364178925527963814198425736413789562786512349952346187
078601000009050000502080710703060002950040307200103500000500003000004070046320908,478631295619752834532489716783965142951248367264173589897516423325894671146327958
000000387700405006862001040531906700000008039940020000000079100050203090120000500,415692387793485216862731945531946728276158439948327651384579162657213894129864573
009201700830509001000700060904000506200008930050010804000103002476090003002000408,649231785837569241125784369984327516261458937753916824598143672476892153312675498
300008001000050029759000400070510002940070030008240906060400000035920608000081050,324798561186354729759162483673519842942876135518243976861435297435927618297681354
008000201904000078500073000000230000201700650007900480020050004060490100800601390,678549231934162578512873946486235719291784653357916482129357864763498125845621397
200100700380609005406200000000020580091370420008015000045000109073004600060030007,259183764387649215416257398734926581591378426628415973845762139173894652962531847
000070342920061000500480910080903120405000870100000003608200000010600490040015000,861579342924361587573482916786953124435126879192847653658294731217638495349715268
800000973700040000050000802060018300905600200010750000004001008370980000520003691,842165973739842165156397842467218359985634217213759486694521738371986524528473691
004700008308005000002016500010209400000060780003050601870530019920670054400002000,154723968368945127792816543617289435549361782283457691876534219921678354435192876
045700800806000702007090040000620080003001020080304600700058416200010093504900000,145732869896145732327896145451629387673581924982374651739258416268417593514963278
046520001000007503000809070810700002603000100500630047050042600302050090098000010,746523981981467523235819476814795362673284159529631847157942638362158794498376215
000003026800090500437002010090105407765000000042800300001604078000008000003050901,519483726826791534437562819398125467765349182142876395951634278274918653683257941
000000598240080060090703001109004000500960300004070080010825006057300040600000130,731642598245189763896753421189234657572968314364571289413825976957316842628497135
009047100020903750086001009000029000094060070015000063008000000000700435300506012,539647128421983756786251349673129584894365271215874963158432697962718435347596812
280003190300248000007900000406005020003060987001000600004080200050700068900002050,285673194319248576647951832476895321523164987891327645734586219152739468968412753
047035906003108405002090010400951070000060000800000031720010308600004007009500200,147235986963178425582496713436951872271863549895742631724619358658324197319587264
301000704000004000020186050800090000730001280054027900000000570160300098900640103,381259764596734812427186359812593647739461285654827931243918576165372498978645123
510008070002500004000007130000010900004023680089705002020070040806402090405000306,513648279792531864648297135267814953154923687389765412921376548836452791475189326
005003740097000001320406005608010023000054907000000160100000050032007008504900300,865193742497285631321476895648719523213654987759832164176348259932567418584921376
005210600700005080000093040100850300002004010640020709800600500301047090907000063,495218637713465982286793145179856324532974816648321759824639571361547298957182463
007026100100300006000005940090060000204890070035100280080000590050207003006400801,547926138129348756863715942798562314214893675635174289482631597951287463376459821
090000010704601800001093006010000028600408003039760000005004062208300001000509400,396847215724651839581293746417935628652418973839762154975184362248376591163529487
580000100007040293000102506809000000600003420045009308020080075710960000000030604,582396147167548293493172586839624751671853429245719368326481975714965832958237614
308620000000900548070100000002000010709004830100050670400062100803000060020537009,348625791216973548975148326532786914769214835184359672497862153853491267621537489
810000000540068307002500900090003400106020030000900051360050270004031800050746000,817392546549168327632574918795613482186425739423987651361859274974231865258746193
400102008900034000073060050000308004034700160105090007000050910710600280062900003,456172398981534672273869451697318524834725169125496837348257916719643285562981743
140009008590003600360758000400096102903005004000300700000062901000100000820004506,147629358598413627362758419475896132913275864286341795734562981659187243821934576
260501800004007203905040600001600082009010300000803004013005900400000007058302006,267531849184967253935248671341659782829714365576823194613475928492186537758392416
050920607140703000020000830037400000200000006690050028073006285501007900900008001,358924617146783592729615834837462159215879346694351728473196285581247963962538471
603010850208050094000007300980260070300009610005000002500700409090600030010803760,643912857278356194159487326981264573324579618765138942536721489897645231412893765
300270000060003090002000058201056704073092085080400010004000863000010009625000400,359278146168543297742961358291856734473192685586437912914725863837614529625389471
006000347180094500720005900300087004008001200005640000000002760400039082510000030,956128347183794526724365918391287654648951273275643891839412765467539182512876439
710408050000005608030000042080150300400207000069800507028904010090730206600000009,716428953942315678835679142287156394453297861169843527328964715594731286671582439
090053008070420039100000040008740003046900270057600010000000080000504002083290601,694153728875426139132879546218745963346918275957632814529361487761584392483297651
200518000095070004000040206500006942000350078910000000032005000007200683640001000,264518739395672814781943256573186942426359178918427365832765491157294683649831527
019000070008504031060008205040060000800000700700123409403076018100900302020000900,519632874278594631364718295942867153831459726756123489493276518187945362625381947
400201050910500604700600000000090800050406203240008901008074030000000520067105008,436281759912537684785649312671392845859416273243758961528974136194863527367125498
561002009800600002204035080003146000090008420000000073057090000100700895000024000,561482739839617542274935186723146958695378421418259673357891264142763895986524317
009750084204906005050800001020090000407080500108600370960000423040100600300002010,619753284284916735753824961526397148437281596198645372961578423842139657375462819
052070096000004053401039020709010000040000710086000000900043000510690004070025038,352871496897264153461539827739412685245386719186957342928743561513698274674125938
120007000047095000600108400502600000000970008090803041405000030000041960030026870,123467589847295316659138427582614793314972658796853241465789132278341965931526874
000503804600080090037000201184000620000060017060290405009020578250009000400010000,921573864645182793837946251184357629592468317763291485319624578258739146476815932
160000507020000340000978020350007609000400052810006070600010084009050000400283000,168342597927165348543978126354827619796431852812596473635719284289654731471283965
900005108500708000020000590068147050005300640201000003130926000000000206080403000,974235168516798324823614597368147952795382641241569873137926485459871236682453719
000060918807050004040003002560902000093640200008000007670080000000700435205190000,352467918817259364946813572561972843793648251428531697674385129189726435235194786
031600040470009000002580007040005160060002030057030084900460000300700002080201650,531627948478319526692584317243875169869142735157936284925463871316758492784291653
090830060300004021257900000500081204430750000081000009710060000000020058006300040,194832765368574921257916483579681234432759816681243579715468392943127658826395147
409080070080904302001000000000156490000000020030207051604570009790400008250301600,429683175587914362361725984872156493145839726936247851614578239793462518258391647
005201000702400010400076090000020436040500087083600000910000340000095600076080021,895231764762459813431876592157928436649513287283647159918762345324195678576384921
041036000000204063000510007100470000709020045000083002082009574956000200400000300,241736958875294163693518427128475639739621845564983712382169574956347281417852396
900481300240009010700300600030600002000090470000052908080500093000048500160007200,956481327243769815718325649839674152521893476674152938482516793397248561165937284
900304700506007000300000481000400508050062090009710042403008926720009103000000000,981324765546187239372956481267493518154862397839715642413578926728649153695231874
000423070400000001083006005810700000209058000070000602700015900502060008034090206,651423879427589361983176425816732594249658137375941682768215943592364718134897256
000002007809051030620490008090068013000300005200070460702010500000006004005930080,351682947849751632627493158594268713176349825283175469732814596918526374465937281
000060817020300609090074500500806902070010030904000050206400000080500000040090781,453269817127358649698174523531846972872915436964723158216487395789531264345692781
000048009180070600506030207060009005003000010701050048005102063090480070304000000,237648159189275634546931287468719325953824716721356948875192463692483571314567892
500000010080369200007000409800130000400002108020500937230907050045003690010040000,592478316184369275367251489879136542453792168621584937236917854745823691918645723
800059260070018490500600300600040050010003000000921700008094073002100008094706010,831459267276318495549672381623847159917563824485921736158294673762135948394786512
038004670000800000620013500002406700005020040706900310000001080107000900059008034,938254671571869423624713598812436759395127846746985312463591287187342965259678134
200049000100700005090006281040003000708000600310250907520490003600805014074300000,285149376163782495497536281942673158758914632316258947521497863639825714874361529
100003080700280005043000700070600908200409570006100302608007100000004090032905000,125743689769281435843596721374652918281439576956178342698327154517864293432915867
000651009280009000009700341905300710700090200036008000507000002000040605004003090,473651829281439576659782341925364718748195263136278954597816432312947685864523197
008004050705069400003700201000123700200090800600047005070601009090058300350000006,928314657715269438463785291589123764247596813631847925872631549196458372354972186
000024067608000003300007109000030500045209086236510700002050400010000000000980012,591324867678195243324867159789436521145279386236518794962751438813642975457983612
054006137008009250000730000060400080801003400072500309600001940215080000000200008,954826137738149256126735894563492781891673425472518369687351942215984673349267518
025004008003700051010006093200000000000617920004085070049501600700400030860920000,925134768683792451417856293276349815538617924194285376349571682752468139861923547
516040900080150032700600000000706025002010080430000006001509000005080740009002800,516243978984157632723698514198736425652914387437825196841579263265381749379462851
090612003300704509004000207003008050001005740780900100432500000170090605000801000,597612483326784519814359267243178956961235748785946132432567891178493625659821374
350000010160095407009300060000406300624008500870010900000000704000603028401057000,358764219162895437749321865915476382624938571873512946236189754597643128481257693
001050800308610070057800009060790510020085030004000008075402300130000600000000027,691257843348619275257843169863794512729185436514326798975462381132978654486531927
702008001060000900001593020630709002904062000050100008103400050000007840800300067,792648531365271984481593726638759412914862375257134698173486259526917843849325167
950600800000001003680700025009402010405090230720310400000007000004008759300900081,951623874247581963683749125839472516415896237726315498598167342164238759372954681
000930000000084960003601000040079108080050247052000000807160004905800302200000700,678935421521784963493621875346279158189356247752418639837162594965847312214593786
020000000390070000407005810600000309070620540001803076000190008580004020000708904,125486793398271465467935812642517389873629541951843276734192658589364127216758934
