060090071531470090008302060300059180000000002720100450200004013850700000004008000,462895371531476298978312564346259187185647932729183456297564813853721649614938725
400000003080120090500073100005010007760005304013600200000900081079400005002086030,421569873387124596596873142245318967768295314913647258634952781879431625152786439
010050002400020809003001070027060004090400130600508200004080900038006050570010040,719854362456327819283691475327169584895472136641538297164785923938246751572913648
000035001801009743690014000900460802120000007000001950260500030000382006407000005,742835691851629743693714528975463812124958367386271954268547139519382476437196285
900300001051004900064002035030710060070080400205000080700006800080540309009001200,927358641351674928864192735438719562176285493295463187713926854682547319549831276
002008045304000080050010207000900402000051030481200509070002860005803900230160000,712698345394725186856314297563987412927451638481236579179542863645873921238169754
084000190970005206006080043312068000490700005007200000260003009000002318005170000,584326197973415286126987543312568974498731625657294831261843759749652318835179462
010020050065700008300401026000004391002905087070060005903180000087090030001006009,714628953265739418398451726856274391432915687179863245943187562687592134521346879
010062034800005200090000007930700500000800063506003001470309005008640010300081042,715962834843175296692438157934716528127854963586293471471329685258647319369581742
604092010050000002980030670000015008340000100200780069030000020500460800001073095,674892513153647982982531674796315248348926157215784369439158726527469831861273495
408705000030008602097030008000010400210400030005087090070300105102000900060500724,428765319531948672697132548789213456216459837345687291974326185152874963863591724
930057600000031005704902010402010760080006541000080000070000306510079400008023000,931857624826431975754962813492315768387296541165784239279148356513679482648523197
060030400097000050001050803200680000010003704038001002002045009046078025070002000,865239417397814256421756893254687931619523784738491562182345679946178325573962148
070109003009006100206075040100057060020040000005003908537092000080000376400008502,874129653359486127216375849193857264628941735745263918537692481982514376461738592
003400050010352009086001000701034200240008070090500106000079038002610400000000500,923486751417352869586791324761934285245168973398527146154279638832615497679843512
004500090100302000200046805300020006840000209009107000006000430037060000080901057,764518392158392764293746815375429186841653279629187543916275438537864921482931657
100940000709000600020058013006400050530000264000100839940680000017002000068300700,183946572759231648624758913896423157531879264472165839945687321317592486268314795
002090034000108600145000700008570000051206080930004207600000002090601000017083540,862795134379148625145362798428579361751236489936814257683457912594621873217983546
000000160001430507800170000100004003090710200024905008450002070700000630600380420,937258164261439587845176392176824953598713246324965718453692871782541639619387425
108060005029000007000250001600109370900640000034780600800010000072400008001300920,148967235529831467763254891685129374917643582234785619896512743372496158451378926
000500009800600307150094000000810406700352000000000500510203904096000020308047010,672538149849621357153794268235819476764352891981476532517263984496185723328947615
603190000020300006080520704305000090012034005800060100000000041950410087070082000,643197528527348916189526734365871492712934865894265173238759641956413287471682359
503700000000004980000695700802930000705000001160807040020000069007540030300280170,593718426671324985284695713842931657735462891169857342428173569917546238356289174
020300008400098000013000027070034800050801076604050003092070000700500190008940005,925317648467298531813465927271634859359821476684759213592176384746583192138942765
007000931008050004200600070142009800503010207000040000300072069400001005065980300,657428931938157624214693578142739856593816247876245193381572469429361785765984312
004207008009045030000000201002804070040006809900700620058013000607050100430000092,314267958829145736576389241162894375743526819985731624258913467697452183431678592
000906070010070040000050360020400830650002007370810900560030001102089050000000604,235946178816273549497158362921467835658392417374815926569734281142689753783521694
200000019690008500370100060006009005480210003000600147003040000020000786019750000,248567319691328574375194268136479825487215693952683147763842951524931786819756432
903070041006000730040001805408009260097020500000004010020030000000950008651002003,983275641516498732742361895438519267197623584265784319829137456374956128651842973
000200003065910700701500640003600824207340010000090000000130090106008200408000500,849267153365914782721583649953671824287345916614892375572136498196458237438729561
200140000067308000000000185950070632804020000003000047010000029530007006096015000,285149763167358294349762185951874632874623951623591847718436529532987416496215378
300007048002004009710900060206010850090500000401023076020030000940001005008605030,369157248582364719714982563236719854897546321451823976625438197943271685178695432
500081070093506010001090205000043800600000100230070590067814002809200030050000004,526481379793526418481397265915643827678952143234178596367814952849265731152739684
060071400520800010087002039600000025790053008400090000000040000030610890001905007,369571482524839716187462539613784925792153648458296173976348251235617894841925367
925008000000170000800690042000400820100789500360001009003000060004210750017000003,925348617436172985871695342759436821142789536368521479283957164694213758517864293
060000410001900057000830062007005000004000370630004580400209000103007009079050148,968572413321946857745831962817365294594128376632794581486219735153487629279653148
050700360208400090100809700002375000080020501790000006000030820801000050003640900,459712368278463195136859742612375489384926571795184236967531824841297653523648917
012500600007010080900000500400300910001604830520000000036087050040056070800209004,312548697657912483984763521468375912791624835523891746136487259249156378875239164
008000170006075000230900004501060308469000002080201050000190830000430020002086007,958624173146375289237918564521769348469853712783241956674192835895437621312586497
600085410403020009000000060000000000070009132059306708730001900902740500080500006,627985413413627859598134267341278695876459132259316748735861924962743581184592376
008050049070000830005740600190070304020680000500009070600031020002400958000205000,268153749471926835935748612196572384723684591584319276659831427312467958847295163
467200000089100060000050708600800400012000009008732005030470180000605203190000004,467283951589147362321956748653891427712564839948732615235479186874615293196328574
510600004027000060900081300304902500000470010100000028060004230290100005000005897,513629784827543169946781352384912576652478913179356428765894231298137645431265897
700030480000004207100920030910780005870600000003005900600541002020000701080009300,752136489396854217148927536914783625875692143263415978637541892429368751581279364
700080054400201079918070300107450020060307000005092000092000500000160090000800603,723986154456231879918574362137458926269317485845692731692743518384165297571829643
060340005021000830700000009005081400690520070008964020580030701010200000900056080,869347215421695837753812649235781496694523178178964523582439761316278954947156382
060073040004968200002010803203004790100000005005080300809530600400000001750002008,568273149314968257972415863283154796197326485645789312829531674436897521751642938
000703890000006107405900000200100030307052406014060500000080052060409000180030604,621743895938526147475918263256194738397852416814367529743681952562479381189235674
900410060057809003020003005010000200500008047803200500300607009100042800006590070,938415762657829413421763985714956238592138647863274591345687129179342856286591374
006001249540390000180000700200000687093500000400200030007100560000965002300040108,736851249542397816189624753251439687693578421478216935927183564814965372365742198
050070100493000005002080460007201006030907520600500013070003004960000080001800290,856479132493612875712385469587231946134967528629548713278193654965724381341856297
500904028074260003038007006160070094305002000000010050700890200020040100000001067,516934728974268513238157946162573894395482671487619352741896235623745189859321467
400080601000200008097000400000095020020031700063007504906070805050014000071060309,432789651615243978897156432784695123529431786163827594946372815358914267271568349
020409076106500000700600908000007530042000800000013049001002000903006084085000360,528439176196578423734621958619847532342965817857213649461382795973156284285794361
038001609104037850950000070003040007281500000500600920070004060000090200400308001,738251649164937852952486173693842517281579436547613928879124365316795284425368791
004020800520000070008506940057800030300704290000093600010007583245600000000910006,794321865526489371138576942957862134361754298482193657619247583245638719873915426
503400000420008090079000065018709004000502300000060100096300200204000007780040901,563497812421658793879123465618739524947512386352864179196375248234981657785246931
400056001090200508007039200806100007509400006700000130080007040001300080204068900,428756391693241578157839264836192457519473826742685139385917642961324785274568913
015600007008900006020780190030510624070000053002090700090805001603000400004320000,915632847748951236326784195839517624471268953562493718297845361653179482184326579
100005460620071800005300072800100903003258640004006020970000000058094000000602007,137825469629471835485369172862147953793258641514936728976513284258794316341682597
706310020010720004000005100300000700050106042280590010008403906570080030040900005,796314528815729364432865197361248759957136842284597613128453976579682431643971285
061074003070000680000093500802500070016308040900060120200046800080200059037005000,561874293379152684428693517842519376716328945953467128295746831684231759137985462
000908040000006501900040703010480020030500104207090006020000960053020008600174030,375918642482736591961245783516487329839562174247391856124853967753629418698174235
400008000753000209020000641079002004680105030100700008090040000001209053005083900,416928375753416289928357641579832164684195732132764598397541826861279453245683917
003209070002000540509060130000040601030002090080170000000800014415600008700300900,143259876862731549579468132257943681631582497984176253396825714415697328728314965
508012076090050140407360005200001087905600310060038500004080000800700060000900230,538412976692857143417369825243591687985674312761238594324186759859723461176945238
706000205000890030403002610230900001007085060009730504002040000050007003010600780,786413295521896437493572618235964871147285369869731524972348156658127943314659782
083460507000073000000000201409008650050000020800506900062301809030004000500780002,183462597295173486647895231479218653356947128821536974762351849938624715514789362
703008051200000068000530090004260100000900600800057004306040719590700803000010000,743698251259471368618532497974263185135984672862157934326845719591726843487319526
900000007058491200060503100021600750047028060300040000205000009004960080030807001,913286547758491236462573198821639754547128963396745812285314679174962385639857421
040907000801000900073001054030400002009060801100250067050092400000800130608300020,245937618861524973973681254736418592529763841184259367357192486492876135618345729
069704300800093540200001000080000603050269100007000094105000820020400900300570006,569724381871693542234851769982147653453269178617385294145936827726418935398572416
080050300300701080607009000070000064500003870016900020002300140058067009001082000,184256397395741682627839415273518964549623871816974523762395148458167239931482756
150020040002607300300000005090140800801730000000009026087010609600370050420005001,156823947942657318378491265295146873861732594734589126587214639619378452423965781
000081307008003490200590060004010000570460200609007000800000500703026901910000603,495681327168273495237594168384912756571468239629357814846139572753826941912745683
300020008876005900090300500005072401208006000010040080000930206901604730400057000,354729168876415923192368574635872491248196357719543682587931246921684735463257819
407800006030000070261030090000400015920060400000395060700043208008006039000150000,457819326839624571261537894673482915925761483184395762716943258548276139392158647
200003460700409010038001095009600023005000740073002001080090504010000086060075000,291583467756429318438761295149657823625318749873942651382196574517234986964875132
300800072980003000400029500000000460070250000508340010000065809060400700120790034,356814972982573146417629583231987465674251398598346217743165829869432751125798634
000080162701650009000904070040025003698300050002100040000009000316000020025030786,459783162781652439263914578147825693698347251532196847874269315316578924925431786
560700400002090000430002100056029840001008020900003671000080300080057260070306050,569731482812495736437862195756129843341678529928543671695284317183957264274316958
769001040000000002405380106300860000006400005008972000002050398013200400000007500,769521843831746952425389176347865219296413785158972634672154398513298467984637521
410060090930702050708014000000026800060409070000000043100050900080003067070190035,412365798936782451758914326347526819861439572295871643123657984589243167674198235
000190020050070800381060040460700500009800072005300106800502094000000603700010050,647198325952473861381265947468721539139856472275349186816532794524987613793614258
105600280000019004048500700021006090800100302003090860070201040600007003300000950,135674289267819534948523716721386495896145372453792861579231648684957123312468957
000000056030807002400690001850020019041000270600089040085002000197060003000031900,719243856536817492428695731853724619941356278672189345385972164197468523264531987
000940070860001009000605120304000060080007340621500800700019005402078000000200030,215943678863721459947685123374892561589167342621534897736419285452378916198256734
008150070970600003002030401063910540020300100000740009000460300800000020500098006,348159672971624853652837491763912548429385167185746239297461385816573924534298716
700004306600290070004506010809310004106000500040002007000639000030000805401057290,792184356615293478384576912879315624126748539543962187258639741937421865461857293
000003052300500100640902070100000040086070009072000830001004090530208006097060083,718643952329587164645912378153829647486371529972456831861734295534298716297165483
000000016005409000062005070040001600007980301930600058020190003890057024700000080,489723516175469832362815479248531697657982341931674258524198763896357124713246985
040003080100060209729000046004092030651000000000576018063750804000004090080200007,546923781138467259729815346874192635651348972392576418963751824217684593485239167
907008004020050000004070853001240090070801430060000007100026000000305010083400025,957138264328654971614972853831247596579861432462593187195726348246385719783419625
001200000000780306030005008200160980500090603603008240046000019080050007950304000,861239754425781396739645128274163985518492673693578241346827519182956437957314862
780023105405700902000400030008590060070060000069134200000050390012000004003801007,786923145435716982291485736128597463374268519569134278847652391612379854953841627
030007009005100472400605030300589000007020180000010006501074308060800020009000715,138247659695138472472695831316589247957426183284713596521974368763851924849362715
041600300000901006086450970400070108092000005500023000050000083700010600020048007,941687352275931846386452971463579128892164735517823469154796283738215694629348517
001730000060090835020806000009010760607904000000050082500080001030000427940003050,891735246764291835325846179259318764687924513413657982576482391138569427942173658
007080120000000006431050790008076409709003000320040070010500083062000900000029054,697384125285791346431652798158276439749813562326945871914567283562438917873129654
600803002910000074085490600000031500090760000072900080006080000400102309000506210,647813952913625874285497631864231597591768423372954186126389745458172369739546218
