920000100008940076000030402080160053007200004610059000070608200000390701051000009,924576138138942576765831492482167953597283614613459827379618245246395781851724369
007000359100300800605900000801040063090010580076009200062000000000720090053081004,287164359149352876635978412821547963394216587576839241762495138418723695953681724
706030014020000503050602080800005000010700092060340007035090100002008070408060920,786539214921874563354612789847925631513786492269341857635297148192458376478163925
000180095060040201800030460300060002026074050005301970010000004009002700540800030,274186395963745281851239467397568142126974853485321976718693524639452718542817639
000008050010000607306072001002000490861004500900200038090030020150009004004860000,479618253215943687386572941532187496861394572947256138698431725153729864724865319
040900830003821900079000005520004003098650040006003020001500060060300009000008701,142975836653821974879436215527184693398652147416793528781549362265317489934268751
070500001230704900500023060004902003650080200007006008360009510009010030080007406,476598321231764985598123764814972653653481279927356148362849517749615832185237496
009280004000009102008056070590600010100000200060570308072830640001902700350400000,719283564635749182428156973593628417187394256264571398972835641841962735356417829
080000400040089026000370005030002760160030080520800904290703050076050000004060109,983625417745189326612374895438592761169437582527816934291743658876951243354268179
104000703000904061200000008003020005870436000600070800009780010031000402560200090,194862753387954261256317948943128675875436129612579834429783516731695482568241397
004590680000300000792060005930006200080000174500872060000730800600041039150000020,314597682865324791792168345937416258286953174541872963429735816678241539153689427
000360800002001059069042000070000038500490001346700000080005070100630002053980040,715369824432871659869542317971256438528493761346718295684125973197634582253987146
100048002027000801056001030008900000043060059070310000590700420002003600000005798,139648572427539861856271934618952347243867159975314286591786423782493615364125798
500302900007005020310700080000106250208500040004000709025963170031050000400800006,546382917987615423312794685793146258268579341154238769825963174631457892479821536
507006900410008700026010054000601000005003027000209386060030500009780040804005039,587426913413598762926317854238671495695843127741259386162934578359782641874165239
007600000060050430208004051043120000010060780790305000000732004000000806129800005,457613298961258437238974651843127569512469783796385142685732914374591826129846375
000208000908070001462000500005904038001506700000820100050000469700050302196000000,517268943938475621462193587675914238821536794349827156253781469784659312196342875
002001000600520093000648700204015839310009007000400500000003000403080010509070026,752391684648527193931648752264715839315869247897432561126953478473286915589174326
803060001007039500040200090402100080000002349000087050980000000530010076020045010,893564721217839564645271893452193687178652349369487152981726435534918276726345918
305100000020087056980000020200001004003090000001750608500904001046003570709060302,365129487124387956987546123258631794673498215491752638532974861846213579719865342
308074010570020890021006000600087100904005030000360002800902000000040005050001700,398574216576123894421896573632487159984215637715369482847952361163748925259631748
090643010047900000300008005804021090200000061030500007009400026050000000010307804,598643712147952638326178945864721593275839461931564287789415326453286179612397854
007053820000000305023060091490000010000080700085024600140600500600700043008049002,917453826864291375523867491496375218231986754785124639149632587652718943378549162
040069100050003760000001080830020075100900000602050004069740030203600800007010500,748269153951483762326571489834126975175934628692857314569748231213695847487312596
500010003790000020062080070007068001009200506800403090020630800008005004401007609,584712963793546128162389475257968341349271586816453792925634817678195234431827659
070830006100502903020604050784000000000900100600005070408000210239010600500046000,975831426146572983823694751784163592352987164691425378468359217239718645517246839
007040209058200600460007001030582060820000000000130040500360420001000003000879500,317648259958213674462957381134582967826794135795136842579361428681425793243879516
010503009300000508027000600006040073054100200130960000060092300800004000290800017,618523749349671528527489631986245173754138296132967854461792385875314962293856417
300008001040520600906700003072005000010000380008960500050170904004000037061409820,325698741147523698986714253672385419519247386438961572853172964294856137761439825
020003700070560080000120953000400005700090301451006000302084060560900024090000107,925843716173569482648127953239418675786295341451376298312784569567931824894652137
008070000002030050060800342504900200009203480000007031687019000090000060210054007,358472619942136758761895342534981276179263485826547931687319524495728163213654897
400002100610500097003790026080050000000430579000609300538000040070900002000014080,497862153612543897853791426389157264261438579745629318538276941174985632926314785
250006003031007890004902500090800000520360104000070006360420709000000000708001300,259186473631547892874932561496815237527369184183274956365428719912753648748691325
000000672060008040705100900900700000000915300001020504820030000690500201010004068,138459672269378145745162983952743816486915327371826594827631459694587231513294768
004050936830204010000790080275009000680000340000106002010402000060000057047005008,724851936839264715156793284275349861681527349493186572518472693362918457947635128
406030709790000031001200000040000903500800060100050074000501086800907200200060400,486135729792486531351279648648712953537894162129653874974521386863947215215368497
620300000090005380040190007100200600806009004052040013000000429000570006003008000,625387941791465382348192567174253698836719254952846713587631429219574836463928175
040100357000000000702430600590000001831600040007040009200006000006300980053098210,948162357365987124712435698594273861831659742627841539289516473176324985453798216
000004509096820040030070020020400067001700000058030910070305100810902400405000300,287614539596823741134579628329451867641798253758236914972345186813962475465187392
800060000050200089300901500008004120000079064630050070002417003000000002190308056,849765231751243689326981547978634125215879364634152978562417893483596712197328456
980023070000109300450870210000302590006700800700005000020000040340091006175040002,981423675267159384453876219814362597596714823732985461629537148348291756175648932
400000016167900845003000090801075002000008100020060003048302700000041600005700039,492857316167923845583614297831475962956238174724169583648392751379541628215786439
000800500100250609240060087560304210309100000000720006080000054070009000003000190,796843521138257649245961387567394218329186475814725936981632754472519863653478192
120008004070000250500900761400109080002560000001003907003081040890670030005300006,126758394379416258548932761437129685982567413651843927763281549894675132215394876
002019073001840050049030008095400600000000800400607210010065009008200000750001040,862519473371842956549736128195428637627153894483697215214365789938274561756981342
806700094047002510000980603270043900004000002010000080000009306460000051520801700,836715294947632518152984673278143965694578132315296487781459326469327851523861749
020000054001490000900007086200603010570021360000008500009360000410070000083500702,327186954861495273945237186298653417574921368136748529759362841412879635683514792
002307500170900020950040001006005009810603000300021004000500310007000802060804070,642317598178956423953248761726485139814693257395721684489572316537169842261834975
706000008034680010200000540300200060002074009045100203150493080800005100000006790,796541328534682917281937546378259461612374859945168273157493682869725134423816795
800000691706005032000200400310409000080000570060027003200903040091700000070006029,825374691746195832139268457317459268982631574564827913258913746691742385473586129
703204160800000000002710090600087003000490500057030020080005200040973000301006040,793254168814369752562718394629587413138492576457631829986145237245973681371826945
100003000003600410005079030006050780900210500014800069820760050000000020067405008,182543976793682415645179832236954781978216543514837269829761354451398627367425198
001045063072008000360009050430007000200000005000410790100092008005030040983600021,891745263572368914364129857439257186217986435658413792146592378725831649983674521
650040900002005107900380000030027006060100080004800509087400300005260040010003000,653741928842695137971382654538927416769154283124836579287419365395268741416573892
402800000000600387070000400340009001059701000200543600106300509000006870035090020,462837915591624387873915462348269751659781234217543698186372549924156873735498126
163049700500010000000502003070008009095260000801004207004680950002700800300000100,163849725527316498948572613276138549495267381831954267714683952652791834389425176
008607200040002300070050108861900002000000005000410897350804001009000760206003000,138647259945182376672359148861975432794238615523416897357864921489521763216793584
300004078007002040008030201810007590900020030040065000060010403000090726502000080,321654978697182345458739261816347592975821634243965817769218453184593726532476189
500310840690008302001400090040100007006005080080762000017004900200030600000090530,572319846694578312831426795945183267726945183183762459317654928259831674468297531
020040001905070604400900007050003000800014206700506019031000800680357000009028400,327645981915872634468931527156293748893714256742586319231469875684357192579128463
002760001931008500806300000000020030309504728010000094040090072008403906500600010,452769381931248567876351249784926135369514728215837694643195872128473956597682413
004002031600004200000085900802030010043600590105400007037800002200109040010050600,584962731679314285321785964892537416743621598165498327937846152256179843418253679
900010300040690000070000005002800500350207100608001040080002410009000702007453068,965718324243695871871324695712849536354267189698531247586972413439186752127453968
000650000908010025030900408007000003590040071203590800041086090702000000060005347,124658739978314625635972418487261953596843271213597864341786592752439186869125347
500000072006000930107380006083050004610900780000070200000640010405700008260095000,539461872846527931127389456783256194612934785954178263378642519495713628261895347
004720053000030008069000010400100705057068090000040130020059064008200000500004801,814726953275931648369485217436192785157368492982547136721859364648213579593674821
050030807920040010318000520600700900074100600002605000000007068501402030003809040,456231897927548316318976524635724981874193652192685473249357168581462739763819245
009500000070008012030600800003107026500940107080005403100300968000006005420000700,819532674675498312234671859943187526562943187781265493157324968398716245426859731
050000400002170060930800010804900000160020530500000802009030207000004300070060054,751396428482175963936842715824953671167428539593617842649531287215784396378269154
130000207600003800200006401000904026070600008804300005093100000010705090520090070,135849267647213859289576431351984726972651348864327915793162584418735692526498173
070063209058200071003105008000004065490080000061700030009000402006591700300028000,174863259658249371923175648732914865495386127861752934589637412246591783317428596
805004160621009700030020000560708900000600047008900053000000280250037000104005009,895374162621589734437126598563748921912653847748912653376491285259837416184265379
320000017457000200000003600201056000098300401700908002000080590000704006142060030,326845917457691283819273645231456879598327461764918352673182594985734126142569738
914700300000000105007802006206070000030008590800930400000200700043056089008090031,914765328682349175357812946296574813431628597875931462169283754743156289528497631
600001000824070500300000924000680009000035218207000000030060040009028703050017806,695241387824973561371856924513682479946735218287194635738569142169428753452317896
070002081840000306001000000058096070920017030006240000005604709090038450002500000,573462981849751326261983547158396274924817635736245198385624719697138452412579863
200500060407810000030000790002080007000001400098006523000300150050604908700090302,219537864467819235835462791542983617673251489198746523924378156351624978786195342
009040000265000003000702680803060050007013840020509000196070200400630500008004701,789346125265198473341752689813467952957213846624589317196875234472631598538924761
806070500010030040035809700070001003540080002000002651008403060700010005053200800,826174539917635248435829716672591483541386972389742651298453167764918325153267894
607001020090380004031200605406010000000000183080579400070402030000000006002095007,647951328295386714831247695426813579759624183183579462578462931914738256362195847
540067030000000697200090001700350104021084060006900000070000800930400500080502010,549167238813245697267893451798356124321784965456921783175639842932418576684572319
600040801020805604700020000009003400400610083105004009008700006507300090010090250,653947821921835674784126935869573412472619583135284769298751346547362198316498257
753060900208490060000017008300720050000300841560904200000000700127008005040005036,753862914218493567496517328384721659972356841561984273635149782127638495849275136
100007000083000009600200050850000307007600042094010080701082004030045706040300190,125897463483561279679234851856429317317658942294713685761982534938145726542376198
830001000400008027020650009700010400290307080001200060010500048608090005005002310,839721654456938127127654839763815492294367581581249763312576948648193275975482316
008000602610059800900200010087600000003420065050030004040000300005807100020510076,538174692612359847974286513487695231193428765256731984741962358365847129829513476
430000098072006405005700060008600034107000900600509070300014050020000300000095182,436152798872936415915748263298671534157483926643529871389214657521867349764395182
703002080008046593050100200200937600615000030007000408046000001000008076900005002,763592184128746593459183267284937615615824739397651428846279351532418976971365842
030040100120300069000605007802000600400000502600830090510900840000007005008106903,736249158125378469984615327872594631493761582651832794517923846369487215248156973
000850000024007000600003150409080300067005081003701026006092730040000500900314008,731859642524167893698423157419286375267935481853741926186592734342678519975314268
030010060020908100410060005700059204004300608090402017000107050965004000000020300,839715462526948173417263985781659234254371698693482517342197856965834721178526349
200940501071630000098700020000065007034080100000400280012007800000000090980500306,263948571571632948498751623829165437734289165156473289612397854345816792987524316
300000005080406301007058060071004002900100000405063809092005470600000008008610200,364921785589476321217358964871594632936182547425763819192835476653247198748619253
040015090200603000103004068000001040000850907307060200000290710608000000720000053,846715392295683174173924568982371645461852937357469281534298716618537429729146853
308740020000080061057900000076000008490005013000029500200100006013050089089437000,368741925924583761157962834576314298492875613831629547245198376713256489689437152
080400037095027040640005800008900010002500000000016203000300059470008001013294060,281469537395827146647135892738942615162583974954716283826371459479658321513294768
000907004590080003738006002200100508000004900073800200050400000601002780302019060,126937854594281673738546192269173548815624937473895216957468321641352789382719465
000106003090700100250000090020030070703510069680900002007304508008000006400050731,874196253396725184251483697129638475743512869685947312917364528538271946462859731
005000000031600002000804090820043016306709045000010080009351700060020450703000009,985172634431695872672834591827543916316789245594216387249351768168927453753468129
700090856000180002405027000102900040560004010907006030000000381009052700603000500,721493856396185472485627193132978645568234917947516238254769381819352764673841529
