000200005400006123650070089080000010170468000009320040730050060000904700005007038,318249675497586123652173489284795316173468592569321847731852964826934751945617238
000097201061580004009260080006710008300000050412300090004100020008006700970004300,853497261261583974749261583596712438387649152412358697634175829128936745975824316
000304150000076020300510008072003000490280600000050019940000060801002095003060470,789324156514876923326519748172693584495281637638457219947135862861742395253968471
008060200010009567405007003100098030000200085037540000009600000020000670086073140,978365214213489567465127893152798436694231785837546921749612358321854679586973142
005000760496010002000920401000103000070005086080000940820040005900278010160000070,215834769496517832738926451649183527372495186581762943827641395953278614164359278
040000090100600873007089200000002415052760000003008000065300001090010520200094608,548273196129645873637189254786932415452761389913458762865327941394816527271594638
009300041000080006386020070058200610901000053020040080000405000100060097400703500,279356841514987326386124975758239614941678253623541789867495132135862497492713568
030001400004008079020065001000000064056090832480720100560307000009080000100040250,835971426614238579927465381291853764756194832483726195562317948349582617178649253
406003170000400508509080420008000012394010060000357080270640000000002097061000000,486523179127496538539781426758964312394218765612357984273649851845132697961875243
087030506045902000130000470071000369002000010950800007000069000000720038004503601,287431596645972183139658472871245369462397815953816247328169754516724938794583621
090000016004376208200000500008102009005600300013590740700251803000004070060080900,397825416154376298286419537478132659925647381613598742749251863832964175561783924
760240009010080203002306700400001058000008902370090000105000600800079504090600001,763245189514987263982316745429761358651438972378592416145823697836179524297654831
060007000900184506008203904005020630700000090004608201000950023800040000010036705,461597382932184576578263914185429637726315498394678251647951823853742169219836745
120080000040300508900060710800014005309006070057920000000500190680140200000070043,125487369746391528938265714862714935319856472457923681274538196683149257591672843
807096010000000200491030805000080029760003400005200030608001070500009006010400583,827596314356148297491732865134685729762913458985274631648351972573829146219467583
280000100005400093070169002007300020060084000800070005000905006193200080006007430,289753164615428793374169852457391628962584371831672945748935216193246587526817439
007050061000421900800000530003810006400063082000000390168904000070002000059070040,947358261536421978812697534723819456495763182681245397168934725374582619259176843
600730020208000900049010560360900700000070845000200000914608000070003200820540090,651739428238465971749812563365984712192376845487251639914628357576193284823547196
002000300190250008008497002046000701007065000900300800205080093410000000070940106,752618349194253678638497512546829731387165924921374865265781493419536287873942156
010000009080067040300280500046005071007006800500700023700090068409500007003004100,612453789985167342374289516246835971137926854598741623751392468469518237823674195
002000400640905100070003085030010900500047001018600042306092050007300060000870009,852761493643985127971423685234518976569247831718639542386192754197354268425876319
600400100075100680080003025003075006240080009059604018407000003031009700000200050,692458137375192684184763925813975246246381579759624318427516893531849762968237451
003027649000034002080060007076590084001003090045701030200000500030400000069218000,153827649697134852482965317376592184821643795945781236214379568738456921569218473
238070106100803000500040000000016090940750000050000203000260700890000504307400860,238579146164823957579641382782316495943752618651984273415268739896137524327495861
400000019006054230307100000000890075050061002802003400963000001001049008040700050,425637819186954237397128564634892175759461382812573496963285741571349628248716953
009010205500460000048930007000600004020001093730280560600050100001700080970008000,369817245517462938248935617195673824826541793734289561682354179451796382973128456
003750060004060835008020000000812900020006003050300014402000690680009500700004001,913758462274961835568423179347812956129546783856397214432175698681239547795684321
700000280038609040290870000605080004000400000400750061000930006062510000900004307,756341289138629745294875613675182934813496572429753861547938126362517498981264357
040918702570000001200035069007109204008060000000824300000403510050600047090000000,346918752579246831281735469637159284428367195915824376762493518153682947894571623
052640018900050006010200700040020305027009600800300100600035092000087000081000400,752643918938751246416298753149826375327519684865374129674135892293487561581962437
000830504700040230030106000025000308480700001600000090009070002150304807860502940,296837514718945236534126789925461378483759621671283495349678152152394867867512943
040905030790180000065400800002090156301200007089000200000003070500800600016504092,248965731793182465165437829472398156351246987689751243924613578537829614816574392
000070080008000035320050401070006100006820040259001006703040200080009010461003900,915374682648912735327658491874596123136827549259431876793145268582769314461283957
200008040039004701007510060000060950090435072602000100005102800000700015800006300,261378549539624781487519263743261958198435672652897134375142896926783415814956327
001020000904630000680147200000004198000000000570906003300008002165300807002500906,751829364924635781683147259236754198419283675578916423397468512165392847842571936
830040620200030057015008000300017000526003004004065900960000280000090100782600003,837549621249136857615728349398417562526983714174265938961374285453892176782651493
000008960307062084084300701010509300040070000902800005073450002000001000025000106,251748963397162584684395721716529348548673219932814675173456892869231457425987136
000305040064070008908060100309000700700401532020600091050912000843000000002003607,271385946564179328938264175319528764786491532425637891657912483843756219192843657
000002950003708600000390071080049302000070046510600000160054000407200090290030008,871462953953718624642395871786549312329871546514623789168954237437286195295137468
716530000300201900000004050009300640500800300604900020007002004050090201801060097,716539482345281976298674153189327645572846319634915728967152834453798261821463597
007092600250000100000057040380001004170068209000940000910400053800000076060300000,437192685258634197691857342389721564174568239526943718912476853843215976765389421
501300009720010400604900805090056702000209080070000060142830600800000004003002050,581364279729518436634927815398156742416279583275483961142835697857691324963742158
097000005000600010035040820806002000049001370050080060021430900000800003070105602,697218435482653719135749826816372594249561378753984261521436987964827153378195642
900003605270000004465070300030040960091060020004081007002750100750100003080200006,918423675273615894465879312837542961591367428624981537342756189756198243189234756
020060103031800490907100050300690000080035000000204007002050000700008042609070580,428569173531827496967143258374691825286735914195284367812456739753918642649372581
060070080000012600380540092730060008056001070904700000400950020200030714000000300,162379485549812637387546192731265948856491273924783561413957826295638714678124359
000601000000470108360005002000097001082030950009200306450000807907850600130002090,874621539295473168361985742643597281782136954519248376456319827927854613138762495
000006901065008700400703060000070200306901080704600593083400050500000002009120040,837546921165298734492713865958374216326951487714682593283467159541839672679125348
008005026140000073000346000700032650950008000200000140009060005470900302010750080,398175426146829573527346891781432659954618237263597148839264715475981362612753984
400600050090084070200009000008013700930270800006500920010002040040700036053401008,481627359395184672267359481528913764934276815176548923619832547842795136753461298
004000706017900030206507090000300157080090400341600002050020048003100600600039005,594813726817962534236547891962384157785291463341675982159726348423158679678439215
460003000020907100031200760016700020008090050700024800009000000000180503084350902,467813295825967134931245768516738429248691357793524816359472681672189543184356972
190020008208400705006307000300102009070006051009500800054030006800900017000060540,197625438238419765546387192385142679472896351619573824754231986863954217921768543
050130008002490063009005000360070000700050249005000600207001080610002400000960070,456137928172498563839625714364279851781356249925814637297541386613782495548963172
900206004050030002760098500800074090009000170001023006104000007020540008380600020,913256784458731962762498531836174295249865173571923846194382657627549318385617429
400600081072080000096031200003000690050420000920760805080107060500000400369000057,435672981172984536896531274743815692658429713921763845284157369517396428369248157
025070306009400800800200145062005008370000000000012407701090000006830509050601004,425178396619453872837269145162745938374986251598312467781594623246837519953621784
000080230040609100010000095050310008009007040300025006802400001096130470030070060,965781234243659187718243695657314928129867543384925716872496351596138472431572869
005120300230050017000009060056008090003001040400070800070030450300600200010094608,965127384238456917147389562756248193823961745491573826679832451384615279512794638
983600720000000010070804036407010080160049000259360400800000240012090003000007005,983651724624973518571824936437512689168749352259368471895136247712495863346287195
058003120400000000230050090320010000070000209009040056090560031800290700605400080,958673124461829573237154698326915847574386219189742356792568431843291765615437982
070142890005070200100000060000050036907000000080309004020800603309010008450206010,673142895895673241142985367214758936937461582586329174721894653369517428458236719
086004035040000826503100700700610009200000470010900200301760000000090008490305000,986274135147539826523186794734612589269853471815947263351768942672491358498325617
300000051040006700002957000001000608089730100504001070090065320270800000100004806,367428951945316782812957463721549638689732145534681279498165327276893514153274896
000080120900000600060500304005034907000006083012090460700040001204810090008305000,547683129923471658861529374685234917479156283312798465756942831234817596198365742
009041300000700028004200069020035000430100080960002700000800500602004070008069041,289641357516793428374258169827935614435176982961482735143827596692514873758369241
002000010006091705580300004008030070900005006003140908349082061000004029010060000,792458613436291785581376294158639472974825136623147958349782561867514329215963847
300100205564030709700000800050040006026708904000201000000009007089000600001584302,398176245564832719712495863857943126126758934943261578235619487489327651671584392
032100500008097020401056300070005060013800000650700009906034070000002008000601054,732148596568397421491256387879415263213869745654723819986534172145972638327681954
700000005012040030058720109690103402000607800007090000004010600060508000180204300,746931285912845736358726149695183472421657893837492561574319628263578914189264357
020060040905010000010800073470021008002003400051008090080040901003000060090507200,728365149935714826614892573479621358862953417351478692587246931243189765196537284
056930008400580601010007000020008094905000700730100020049050000002400009800720105,256931478497582631318647952621378594985264713734195826149853267572416389863729145
001007000000100068290040300050063070320080054078090200430002005007014920000500706,861357492743129568295846317154263879329781654678495231436972185587614923912538746
060708000402130070000062530000010400507603092189000000050940700000007810603021004,365798241492135678718462539236519487547683192189274365851946723924357816673821954
400678000302004009000020580203400905700006348000091006000839000075000060804700201,459678132382514679617923584263487915791256348548391726126839457975142863834765291
207038000135400060000050000019000004006029307708006510000000450400802901060070832,297638145135497268684251793319785624546129387728346519872913456453862971961574832
010027840020960005700084036078300000650008000000001370530240000400005900082700001,316527849824963715795184236178392564653478192249651378531249687467815923982736451
051004008840900203002603005000300900000007010090045307703000062105870009420000080,351724698846951273972683145217368954534297816698145327783419562165872439429536781
201008045060104890400070010007090003003000608006405000000050700030001960094082000,271968345365124897489573216157896423943217658826435179612359784538741962794682531
491700005070132000000400800300005410007000092652001008030004007015098003800000609,491786325578132964263459871389275416147863592652941738936524187715698243824317659
000008035430100600600050027070960010000403090068002300500201000003879060007000942,721698435435127689689354127374965218152483796968712354596241873243879561817536942
000002015304100706006504000030067000500400083089001000200005807760000109010080340,897632415354198726126574938432867591571429683689351274243915867768243159915786342
090000020615400008700695030080030760000750000430002090800007210002506007003089400,394178625615423978728695134581934762269751843437862591856347219942516387173289456
090004083003502010400030906002760001900008040560000002750000000020403768800109204,297614583683592417415837926342765891971328645568941372754286139129453768836179254
620003810008190060005007900940000700002000008000956030050030200000781540310400000,629543817478192365135867924943218756562374198781956432854639271296781543317425689
760009501040300080001000002004003000206100900350080007025900108800005060603074290,768429531542361789931758642174593826286147953359682417425936178897215364613874295
970002001408000076032068050005090384804100000200070095000620900000050768040003010,976542831458319276132768459715296384894135627263874195581627943329451768647983512
075080004200090658409030701100000890000702400004000013867000500000650000012904300,675281934231497658489536721126345897398712465754869213867123549943658172512974386
090000506030049800160370000086902041507000000000038020000590002042087900003004070,794821536235649817168375294386952741527416389419738625871593462642187953953264178
000004820008210093050090006010762040560380000000409080470003100620000700001005230,196534827748216593352897416819762345564381972237459681475923168623148759981675234
002900060406050708580070031025106000700302400040080900001000307030001050690800040,372918564416253798589674231925146873768392415143587926251469387834721659697835142
000003007000270010038009604020036000045900180609050402480000000090300805062041900,214683597956274318738519624821436759345927186679158432483795261197362845562841973
003087000060590807090630004500009070040065000807420900000100360080370215600002000,453287691162594837798631524526819473349765182817423956275148369984376215631952748
007016080608207000190304020080000004302050670000930100001820400064100300200600005,427516983638297541195384726589761234312458679746932158951823467864175392273649815
102400008009002506040000300500300600007008000630075900700510000200967830005800410,152436798379182546846759321598341672427698153631275984783514269214967835965823417
403057001005600070091280000540060308000003940079010600000042700200000060080070095,463957821825631479791284536542769318618523947379418652956142783237895164184376295
300000041100920803806000700000070080000306009009584200070060500040000120502803690,327658941154927863896431752461279385285316479739584216978162534643795128512843697
049700028306050490080100000000083070217009003908500600400007305720068004000010000,149736528376852491582194736654283179217649853938571642461927385725368914893415267
783204000060009310002050040900083106600501730000600090040708050070000209018002400,783214965465879312192356847957483126624591738831627594249738651376145289518962473
000034600050720300180500200300046010900000083005100007040007020702608109006092005,297834651654721398183569274378946512961275483425183967549317826732658149816492735
