187005200000600000050240709003570000900068004070002038004010863690400050001000090,187935246249687315356241789863574921912368574475192638524719863698423157731856492
860430009007020000040700065000000801002014500409060070300001004090802300175900600,861435729957126438243789165536297841782314596419568273328671954694852317175943682
000810000901000004078603050700000002000091500403002716106970300039000008020065400,354819267961257834278643159715436982682791543493582716146978325539124678827365491
000950000107400083420000160006000250010876090374090000090523701002700806000040500,863951472157462983429387165986134257215876394374295618698523741542719836731648529
149000200070030480208006590010400002090010074007850903300021005006370000000508000,149785236675239481238146597813497652592613874467852913384921765956374128721568349
002675400100902807063000020000014030046200000008007005089100070030008206000040190,892675413154932867763481529975814632346259781218367945589126374431798256627543198
010470206030005040800230000027080009503100080090000510080009305009002600274006100,915478236732965841846231957127583469563194782498627513681749325359812674274356198
670001030240803700010052086700000049501007000004080200009306075800920600030000900,678491532245863791913752486782635149591247368364189257429316875857924613136578924
010360702503000400006091800080050001371020000400073009007230640040810005900006020,814365792593782416726491853289654371371928564465173289157239648642817935938546127
007000206051600080900040007002376040070009500000250031460013900028060400003008010,847531296251697384936842157512376849374189562689254731465713928128965473793428615
405180000020043105068009300080907500070820930002030008000205704601000000007401060,435182697729643185168759342384917526576824931912536478893265714641378259257491863
860047032003080670020000900089150700030460509001000040070800050540070800100032000,865947132913285674724316985489153726237468519651729348376894251542671893198532467
607450300090107080030000204020000000008721003700009805004610900903008600010040052,687452319492137586135896274329584167568721493741369825274615938953278641816943752
300007010400036020009510706050008300006021095180700040007400903008009260200800050,365287419471936528829514736952648371746321895183795642617452983538179264294863157
000103208090650003014000050709200600040000000230784010060001407008006009025970060,657143298892657143314892756789215634541369872236784915963521487178436529425978361
000010506005903100720060004000302067003080000800070041147005090500240080030706000,389417526465923178721568934914352867673184259852679341147835692596241783238796415
045009002630005070007380040024600000018002069000430080900107020006000705100800306,845719632631245978297386541724698153318572469569431287953167824486923715172854396
200680000073200041040100005009008100000060003021379400530000806068943010000050700,215684379873295641946137285359428167487561923621379458534712896768943512192856734
400000621619004008080000590805700900003480102060902070000000007740059310200806000,457398621619524738382617594825761943973485162164932875596143287748259316231876459
500700060000080421092036800085040100070069005600017030413000000000000000067392004,548721369736985421192436857985243176371869245624517938413658792259174683867392514
005013690000540000310000704000070030000935100600000089200086000987000240560002013,745213698896547321312869754159678432428935167673124589231486975987351246564792813
000500030100009780704200051070030025480760000092001000503670000000400006960005308,829517634156349782734286951671934825485762193392851467543678219218493576967125348
083970600560802037409010200010604800000500002602030070007000015000000400934001000,283975641561842937479316258715624893348597162692138574827469315156783429934251786
800405106000732400000006000402009005100800023036020000013050740050010382790000000,827495136561732498349186257482379615175864923936521874213658749654917382798243561
801000060029001340470090081000409710500067200040000053005003000006800429100002800,851734962629581347473296581362459718518367294947128653285943176736815429194672835
006130000000007142008405090023000607875200003901800400000090701090060050352010800,246139578539687142718425396423951687875246913961873425684592731197368254352714869
054607009301800000002090108500300400008000603060280017400726900000000200709005040,854617329391852764672493158517369482248571693963284517485726931136948275729135846
500807040000200000860001090900000230006384001005002708702903016000010005048600370,529867143314259687867431592981576234276384951435192768752943816693718425148625379
003000900070060104980027050651800030890400067400050200016008000000013045000795020,163584972275369184984127356651872439892431567437956218516248793729613845348795621
060800001000094058007000490040002670000300012105709304603025000859006020070100000,964857231231694758587231496348512679796348512125769384613925847859476123472183965
038006007079510600520900401014050370700830500900100002000760240005000096080204000,138426957479518623526973481814652379762839514953147862391765248245381796687294135
090230007001600090600004502016302050009008400740010860070000904000173080203005000,598231647421657398637984512816342759359768421742519863175826934964173285283495176
007809200062000040050000803580301007006400001140690020010700094700035000320040010,437819256862573149951264873589321467276458931143697528615782394794135682328946715
600903000040600090008214007000000705004130009009025140501000800020540063060007020,672953418145678392938214657216489735754136289389725146591362874827541963463897521
020030941008007030106905008070024013604180700000009850090000060001076405005000002,527638941948217536136945278879524613654183729312769854493852167281376495765491382
100075980040002001007030206000967830032000000970010500054001070001890300200056010,126475983349682751587139246415967832632548197978213564854321679761894325293756418
000140000040098025106370900003750000020009671604801300009500064700000210080000000,892145736347698125156372948913756482528439671674821359239517864765984213481263597
003900400270500081400708902004000200010030060507600103036407000002801056890020000,683912475279543681451768932364175298918234567527689143136457829742891356895326714
006000402380050900091200060000600328040003000050198040007001000004870090860930017,576319482382456971491287563719645328648723159253198746927561834134872695865934217
200000390540900800093740002000060903700014680105003007000058026001000000082106400,217685394546932871893741562428567913739214685165893247974358126651429738382176459
080200007001460350502790010400035600608910040000000208810000409005370000976000000,384251967791468352562793814427835691638912745159647238813526479245379186976184523
003205080041006072050481000060390005017000390400500020020000714000060000970020830,693275481841936572752481963268397145517642398439518627326859714184763259975124836
394500200700400801020703009000000000002001456086309070071980004000006000050040698,394518267765492831128763549517624983932871456486359172671985324849236715253147698
350068700400207000009004016104630800000800005035029004078000593061900070000072000,352168749416297358789354216194635827627841935835729164278416593561983472943572681
002047005800200090004089006900004061000000507006531020049006030065010084380072000,692347815817265493534189276958724361123698547476531928749856132265913784381472659
000005800063904001512000007050430000030058702674100000000006900900000520720380060,497215836863974251512863497258437619139658742674192385341526978986741523725389164
030940000082050400000021075500008010900570000673000020040600031057004006001297000,735946182182753469496821375524368917918572643673419528249685731857134296361297854
500200096006000300000031407040000200130506080280490100050100900720080003008347001,513274896476859312892631457645718239139526784287493165354162978721985643968347521
430109007015200060092005800000000016006040500870900420050004300003800000004032609,438169257715283964692475831549328716326741598871956423957614382263897145184532679
003605020060010470275000000000000090500400761086900503801009050039087010400062000,143675928968213475275894136314756892592438761786921543821349657639587214457162389
060702040401006005830000009008304000700020860390071050005610072002008000000090010,569782341421936785837145629258364197714529863396871254985613472172458936643297518
007396040000000503800010067004702000130450080600000900010085002700003000540920831,257396148461278593893514267984762315132459786675831924319685472728143659546927831
000087043104009008507063000301040025090830064006020090600500080720000900009000130,962187543134259678587463219371946825295831764846725391613592487728314956459678132
080074000205000030001009506900200300006000091030806045060032100014057009009480070,683574912295168437471329586947215368856743291132896745768932154314657829529481673
000690002100005908007301000602508003080072005740000000300800007001204860029006504,458697312136425978297381456612548793983172645745963281364859127571234869829716534
030902160460008005007400000000000801309050602200010340870006003050703020600040980,538972164462138795197465238746329851319854672285617349874296513951783426623541987
840069050001000630000400087052010000610003290900604700460705800000890300230000009,847369152591287634326451987752918463614573298983624715469735821175892346238146579
060001903000860005050900070300270690400000100020004038079603802006740000104508700,762451983943867215851932476318275694495386127627194538579613842286749351134528769
000624010906085000000730280008970102000003057640000800504000700032050000089061430,873624519926185374415739286358976142291843657647512893564398721132457968789261435
302006970050109600040782000008004120000070003090500007500060000100008506203900084,312456978857139642946782351738694125625871493491523867584367219179248536263915784
302000716000020508065008024041700300900364000250090000090000002804000105100089600,382945716419627538765138924641752389978364251253891467596413872834276195127589643
005617080300024500001003040000000206100950078740008000004200390090076010580000600,425617983379824561861593742958741236136952478742368159614285397293476815587139624
600490508579800003024000001000003150060200007010040600000056492906007030300080000,631492578579861243824735961298673154465219387713548629187356492946127835352984716
000300071062048530050901040701000064040000902900600810230400006008060705000080020,894356271162748539357921648781592364643817952925634817239475186418263795576189423
790540000603070040801620500000001008000460230900002704400000970510800006206910300,792548163653179842841623597324791658187465239965382714438256971519837426276914385
050000160000809070374200900000001500231605008600720304700002000819000007060390040,958473162126859473374216985487931526231645798695728314743182659819564237562397841
502080960004500032063007108008002470000400000605019003000800009237900005010000640,572183964184596732963247158398652471721438596645719283456871329237964815819325647
053600000600001004809342000002090150100076000034000907271800600000005803005200790,453687219627951384819342576762493158198576432534128967271839645946715823385264791
037400200100508490900060015005630000070901008002054107060000300340000501000790060,537419286126578493984362715815637942473921658692854137768145329349286571251793864
003041060507008109000060820901700000020004530600002004300200010809070600050100007,283941765567328149194567823941735286728694531635812974376259418819473652452186397
075300900036005004040000020000900318063007050500802040401290086000600000090081002,275348961936125874148769523724956318863417259519832647451293786382674195697581432
060032004047080150350000920800006200903070000520008430090000601001065070002407008,169532784247689153358741926874356219913274865526198437795823641481965372632417598
000300850008106002970002400002009070310000600005630089000000504053200010401860307,124397856538146792976582431862459173319728645745631289287913564653274918491865327
040508200200710008007060040900056400700009806058000103002000060060270501030045009,346598217295714638187362945913856472724139856658427193572981364469273581831645729
410300005005002009060090100502940000080030400700621080300080706020104030908700050,419376825875412369263895174532948617186537492794621583351289746627154938948763251
003000080600000420000930705104090600002305007907260830405010009001002060020780000,573124986619578423248936715134897652862345197957261834485613279791452368326789541
400100308007800000021060045000080900962530000504006010058092000006053094700000032,495127368637845129821369745173284956962531487584976213358492671216753894749618532
064087320135000090000010004008002000000040710200630980070950060820100570603200000,964587321135426897782319654518792436396845712247631985471953268829164573653278149
300000050706032400004700900090010003600270098508060702010400009000850100002003860,389641257756932481124785936297518643631274598548369712815426379963857124472193865
700005013040069008000102900085004070000020006362090401093008160200700000007040350,729485613541369728638172945185634279974821536362597481493258167256713894817946352
300000720007056000000004300000260049580907030260000100008090075910800460045030908,356189724427356891891724356173268549584917632269543187638491275912875463745632918
600070050930000608004030002105002007002900340070806009010003900280560701307200000,628179453931425678754638192195342867862917345473856219516783924289564731347291586
000379800004010720050000060042007085000908003306100900075090000603050098100402007,261379854834516729759284361942637185517928643386145972475893216623751498198462537
007009003090700610350182070000901000809000400034005206002603049500007080040050300,417569823298734615356182974625941738879326451134875296782613549563497182941258367
090005061080003000502600907000900000100068045200054308005000209063802070700040010,397425861681793452542681937854937126139268745276154398415376289963812574728549613
000100040096002300470009050000540108500000063002078000007310902043900670010720500,325167849896452317471839256769543128584291763132678495657314982243985671918726534
901000600052007003800145000000283007009076508003090002620009040047050081000800020,971328654452967813836145279564283197219476538783591462628719345347652981195834726
003001650000205090000900047006040800802009000740000536008104900175600002200008360,923471658467285193581936247316547829852369714749812536638124975175693482294758361
015000600007260004940000710008500003570804200020073980300652040000010009401009820,215947638837261594946385712198526473573894261624173985389652147762418359451739826
005040100000030086203601070470850090160400308000000200500080009037500060800902405,695748123741235986283691574472853691169427358358169247524386719937514862816972435
093780420000203010000050700180095060200010390700006500057002830000900050810004006,693781425578243619421659783184395267265417398739826541957162834346978152812534976
800901075307000200006024809000570310020008090013400006970050000000109053001060004,842931675397685241156724839489576312625318497713492586974253168268149753531867924
000040100817600005045200039100307050230000068004900200302009040008516000090000607,923845176817693425645271839186327954239154768754968213362789541478516392591432687
098500300000031670000940050031080200500603000407059000900000784060207530000410000,198576342245831679376942158631784295589623417427159863912365784864297531753418926
007040006000900803604031002000056007000203900258000300400018600076400005193070008,937842516512967843684531792349156287761283954258794361425318679876429135193675428
407900000900000581520603000010002004340070890690405002000260350003009700000010406,487951263936724581521683947715892634342176895698435172174268359263549718859317426
290006500003210080008074003000052301047000090001900006000007065860031270109000400,294386517753219684618574923986752341547163892321948756432897165865431279179625438
091000000400005960070840000000060247800030590056970100720100408080300020300002050,591623874438715962672849315913568247847231596256974183725196438184357629369482751
700050103020008060651027090008001356300004070090070400000439002105000008049805000,784956123923148765651327894478291356316584279592673481867439512135762948249815637
100060702704108000053049000590000000000000489426007031000305976030206800010080050,189563742764128395253749168598431627371652489426897531842315976935276814617984253
