500074010008603000609120840003000005090030200401009380300400001700902006025006470,532874619148693752679125843263748195897531264451269387386457921714982536925316478
000015402800090070016002300000604090709020800140050003302000908001000035480700006,937815462824396571516472389253684197769123854148957623372561948691248735485739216
040030072300058490006207050500009014020603900100500000007000801038700000490000260,845936172372158496916247358563829714724613985189574623657492831238761549491385267
004065302000070008850000100009000007010908245030042016041506000302000000705309060,174865392293174658856293174429651837617938245538742916941586723362417589785329461
603007059504002007092013000000080000479601080000704360301420900000006800007050016,613847259584962137792513648136285794479631582258794361361428975945176823827359416
090100420000000068603020500150309000000000146206007000002040307340080209910700050,895176423421593768673824591154369872739258146286417935562941387347685219918732654
008701040203400105060000090050009780001030952082070006010045600005002078400600030,598761243273498165164253897356129784741836952982574316817345629635912478429687531
240050090050074080010000600700020000301890400408003029000060072980740030506300001,243658197659174283817239654795426318321897465468513729134965872982741536576382941
040000060002008900019200750081700020050601407907000130008150000000302086020047009,745913862632578941819264753481739625253681497967425138398156274174392586526847319
010000400007600305000028690002983060034007020700410950006350270380006100000004000,619735482827649315543128697152983764934567821768412953496351278385276149271894536
300100000800530106020049000065082700470000083100005900049000607600700208500210304,356128479894537126721649835965382741472961583138475962249853617613794258587216394
600000300080901046097240080030702504002010093000085001940000600800100052020073000,614857329285931746397246185138792564752614893469385271941528637873169452526473918
205001003067005001000490020701940082300020060806000590410309700000810406080000000,245681973967235841138497625751946382394528167826173594412369758579812436683754219
700510603003420580000000001050700020049386000801090004500060170900032000604107009,792518643163429587485673291356741928249386715871295364538964172917832456624157839
000310490000006000821050007300800076090140850050002900480703001600000340005029008,567318492943276185821954637314895276296147853758632914489763521672581349135429768
703204060100360000000510090006070284200000000405800031048030009620090750930001008,793284165152369847864517392316975284289143576475826931548732619621498753937651428
700208650004501008200093400001307200630050000007000009020700845008012300090060700,719248653364571928285693471951387264632954187847126539126739845578412396493865712
000390750009071000036005080001400002950000400820053906307004801010000645060020000,182396754549871263736245189671489532953612478824753916397564821218937645465128397
200300917003750008080901000005000091400020500106800030079006280800407003000003060,254368917913752648687941325725634891438129576196875432379516284862497153541283769
200700600050320910810506003708000034600900508020041000904007800000050076300602090,239714685456328917817596243798265134641973528523841769964137852182459376375682491
003074269000008100020030500405600070030800000100020846000562001504700000269001003,853174269946258137721936584485619372632847915197325846378562491514793628269481753
100300760060000250380027000006040890708109004409750030051004902000500000203016080,142395768967481253385627149516243897738169524429758631651834972894572316273916485
036090540807030006005800207060301800000056021390070005008400010000015902020700004,236197548847532196915864237562341879784956321391278465658429713473615982129783654
040508006600070200003200540560017800200006004809400030007000120000051370308090000,742538916695174283183269547564317892231986754879425631957643128426851379318792465
030174008097002000000005602000000130940008000621900040802030090300501480005060700,236174958597682314184395672758246139943718265621953847862437591379521486415869723
100020090040605200030907800400206970007108000003050064070800051098000432201300000,186423597749685213532917846415236978967148325823759164374892651698571432251364789
009001800401020009270060000060004037508007041000000900350006000904308025020000170,639741852481523769275869314162984537598637241743152986357216498914378625826495173
805040700020160009000502680051390000200000940406000007100037020040609801000850004,865943712327168459914572683751394268238716945496285137189437526543629871672851394
000906300004032750081540002000004580790010006038090001540000127619000840000000093,257986314964132758381547962126374589795218436438695271543869127619723845872451693
000723400060004050209010830008009000000008126501460000050200904007590380300007005,185723469763984251249615837628179543974358126531462798856231974417596382392847615
006020004912730000400008010009000000670000308380105270005302600000016805000090040,856921734912734586437658912529873461671249358384165279145382697793416825268597143
035006200900000040100002857702809003004070001090000020403100608680430000070900500,835746219927581346146392857712859463564273981398614725453127698689435172271968534
005710000030092840100000075400020680002050309690300000067001000300040002208060150,985714236736592841124683975453129687872456319691378524567231498319845762248967153
000157034008002670005006901504000009601500780380920050900080103700000000006014000,269157834138492675475836921524678319691543782387921456942785163713269548856314297
400000150050200897080003260009071008003908000007000640020036070134005000000040025,492687153356214897781593264269471538543968712817352649925836471134725986678149325
001004700083270000060900015009306000107540002200080349370000080002060150000795400,921654738583271694764938215849326571137549862256187349375412986492863157618795423
710400850053200007082000040000500073306001009295000000000673094904020006000080200,719436852453218967682759341841592673376841529295367418528673194934125786167984235
500092800609401020070006043800900050904800130000104709102007000038000460000050070,543792816689431527271586943817923654964875132325164789152647398738219465496358271
009402005540000030007301006012003650006080700004009028028107000060000900070500104,639472815541968237287351496812743659396285741754619328428197563165834972973526184
769000010000000054000083902000400000370120698610000207106290000500607300920050180,769542813283961754451783962892476531374125698615839247136298475548617329927354186
010853000205090600700002003029000000000780240504001309090040006003010700482300051,916853472235497618748162593829534167361789245574621389197245836653918724482376951
003000060040560280000102503087010000320080019406009002500008720060405930000970406,253897164149563287678142593987216345325784619416359872594638721761425938832971456
020400059080010036406307820000006970004090103050701000500920000003005600210080004,321468759785219436496357821132846975874592163659731248568924317943175682217683594
800092035000140000016703002005008006460000080030900510042000600000820079300076040,874692135923145867516783492195438726467251983238967514742319658651824379389576241
125000400006050081030290007050080370410069800302000006900004530000900002048037060,125876493796453281834291657659182374417369825382745916971624538563918742248537169
080010062100000397600007000006795403040030000800600051700002000029803004038971000,387419562154286397692357148216795483945138276873624951761542839529863714438971625
001050070030400006092830050105000008078600400360001009800270901006090040040000203,481956372537412896692837154125749638978623415364581729853274961216398547749165283
200007693800006510070900200600201050005040001040039006090705080108300000467080900,214857693839426517576913248683271459925648371741539826392765184158394762467182935
006081350008096004420700000805600420100900030340010076700000200000540890000379060,976481352538296714421753689895637421167924538342815976759168243613542897284379165
024809000508031020600000070030400500050020806800017090007080050009005361360000004,124879635578631429693254178932468517751923846846517293417386952289745361365192784
040008502000060000897004001600105400103009027400832050001300008932400000000500690,346918572215763984897254361628175439153649827479832156561397248932486715784521693
000078900000000003482503000007080010013006502269005407324900000050010039100060704,631478925975621843482593671547289316813746592269135487324957168756814239198362754
003020610250001090008904700006030001090007050000800420105080070700600003024509008,943728615257361894618954732476235981892147356531896427165483279789612543324579168
060040093908030102200085400100520000080004630000700001020850079030002000675010040,567241893948637152213985467196523784782194635354768921421856379839472516675319248
451800009000000863000907400200005000869400501070300000086004072004056090017000004,451863729792541863638927415243615987869472531175389246586194372324756198917238654
380750096600040000070600508430006050010000360000907800002800047049005100000001900,381752496695348271274619538438126759917584362526937814152893647749265183863471925
009087500152000098300100400006953010431000000800020076000009020020306007060570083,649287531152634798387195462276953814431768259895421376713849625528316947964572183
009000000043010508208500634406001000080007419020300080050020070600700800100430205,569843127743612598218579634476981352385267419921354786854126973632795841197438265
630400000008070200201560400007000801060900030805100070020004605504700090910003008,639428157458371269271569483397645821162987534845132976723894615584716392916253748
950080300020006004078090105600948000000301000004007821001032506860000007009070400,956184372123756984478293165612948753587321649394567821741832596865419237239675418
800090020700608510093507000030040090006200007510003800042300900001976084000410056,865194723724638519193527468237841695486259137519763842642385971351976284978412356
090000603031002047004508020070000800002071050906003004600140709500027008300060200,295714683831692547764538921173456892482971356956283174628145739519327468347869215
360000900000070005084302001100046080075010026000509300002058004098060700001400290,367185942219674835584392671123746589975813426846529317732958164498261753651437298
500080020670001004003000500004209680100070030002040905910650800000300067040700200,591483726678521394423967518754239681169875432832146975917652843285394167346718259
031002060090053021005800309710060040006000700520009006000410207040080005070230800,431792568897653421265841379713568942986124753524379186358416297142987635679235814
000001080098003100037060492060800005004170369500040000002009000480300000700200536,245791683698423157137568492961832745824175369573946218352619874486357921719284536
009001302000059060201400070070030400904070801060800005002500600500016209400007083,649781352738259164251463978875132496924675831163894725392548617587316249416927583
400800009003204768007019000000060120025700040840000000504002073061030504070600290,452876319913254768687319452739468125125793846846521937594182673261937584378645291
820005400000032085906040037200396100080000070000010026090183000040060900107000053,823675491714932685956841237275396148681254379439718526592183764348567912167429853
001000700003406095020095008074921030030070080609008020500300001107040900008000640,951283764783416295426795318874921536235674189619538427542369871167842953398157642
060020970008600012029040005072000006014007390000150000050010630340970020000006084,465821973738695412129743865972384156514267398683159247857412639346978521291536784
000970026370001000409006300010004000900080005842690000063000089501020064780000010,158973426376241958429856371615734892937182645842695137263417589591328764784569213
002010300790000000063047020600830045010000800004061702300000960080020051540170080,452618379798253614163947528679832145215794836834561792321485967987326451546179283
536100008000002430702080900608005047003400080050039000010060720200340005060507100,536194278981752436742683951698215347123476589457839612315968724279341865864527193
004061720037000940005090018340012009060070000002000580290850000000007003803600001,984361725137285946625794318348512679569478132712936584291853467456127893873649251
060208000035040090700090400900180003040509027051000600206710830800020064070000002,469258371135647298782391456927186543648539127351472689296714835813925764574863912
000089000210640039400000200900400005050010807300072094007800060069300140803150002,736289451218645739495731286972468315654913827381572694127894563569327148843156972
608450930000000047000120650009060003027509000100840000372000001400006009001075800,618457932253698147794123658549761283827539416136842795372984561485216379961375824
000001090000600005714200000806400570030000021000973060005060789001320400608005300,563841297289637145714259638896412573437586921152973864325164789971328456648795312
605270001948000050070050403000708000124900308007040600000102000300080096480036200,635274981948613752271859463563728149124965378897341625756192834312487596489536217
000090501004006070725030080800020007053601020006000010080900062409052130300400009,638297541194586273725134986841325697953671824276849315587913462469752138312468759
704802010000000006060103089030009000901250043452000100500601700300920800807040002,794862315183594276265173489638419527971258643452736198529681734346927851817345962
002060890007400063080310200000080054304000000000205106695700020700090005120600300,432567891917428563586319247261983754354176982879245136695731428743892615128654379
006701040000000809080023070052008000009057010070600034908200700120000093400510600,296781345713465829584923176352148967649357218871692534968234751125876493437519682
008030020016709300500800607000904056005002008192008700030406000209050004700000100,978635421416729385523841697387914256645372918192568743831496572269157834754283169
960301008070040000001089005003200900000530680740000002010007056008090304450060210,964351728875642193231789465583276941192534687746918532319427856628195374457863219
200650340703020069008100000690480000000005820040003005500000016100390070920070000,219657348753824169468139257695482731371965824842713695537248916184396572926571483
090530000023080010100400607000700020305009406002350090087005003640000950000810204,796531842423687519158492637914768325375129486862354791287945163641273958539816274
430960020109002030080400500890350040270000105000076000025098004000100602300004790,437965821159782436682413579896351247273849165514276983725698314948137652361524798
000040750001509006400608902004000005605100073710830600906002000527000800030000407,269341758871529346453678912394267185685194273712835694946782531527413869138956427
003400006000038045005200700924070050008000003010096080702389100600002090040010007,293457816176938245485261739924873651568124973317596482752389164631742598849615327
006050080080001940050700602630290010004870050000004007400902003802500090310000008,246359781783621945951748632637295814124876359598134267465982173872513496319467528
000002801050070069843900050402001900500067000380459000100620704070038026000000080,796542831251873469843916257462381975519267348387459612138625794974138526625794183
380050006940000100607800090000493052000002304002001860060040000070900028090107435,381759246945326187627814593816493752759682314432571869563248971174935628298167435
600194075000030040000705200057089010300000902001046030080620401560007008130000009,623194875975832146418765293257389614346571982891246537789623451564917328132458769
086000020704180000300000490190508300560207100400900060250830000001090076000701805,986354721724189653315672498192568347563247189478913562257836914831495276649721835
009000500001090403480500027040270801000003079050086030200010000070004065390068100,739842516521697483486531927643279851812453679957186234264315798178924365395768142
000080940000030102063042500000058701810000000304900006030076005057300020406210009,521687943748539162963142587692458731815763294374921856239876415157394628486215379
082004670907000001045108000763020010000001900000005083000000200500960000021587490,182394675937256841645178329763829514458731962219645783896413257574962138321587496
060004910072003000504700060100006540005478000090020070830905001000060308201000004,368254917972613485514789263187396542625478139493521876836945721749162358251837694
