801000709090350040060007020410000065730809000600004000000708106000495200072130890,851642739297351648364987521418273965735869412629514387943728156186495273572136894
070480005000003080106020007004000906502000010930010048000602050043900071058007390,379481265425763189186529437814375926562894713937216548791632854243958671658147392
052800030807206509004050008020503410900060000005700003000000890106004002000302704,652849137817236549394157628728593416931468275465721983243675891176984352589312764
000400037070260504100003860750040002009050100063002708900718000824605000000000003,695481237378269514142573869751846392289357146463192758936718425824635971517924683
000200000450000706769300018090703002300800400000615080005000000020190307831002004,183267549452981736769354218598743162316829475247615983975436821624198357831572694
000803602607000000248000100090601453400500700000090001065900048001005307780200009,159843672637152984248769135892671453413528796576394821365917248921485367784236519
092008100400003006610790004000800250105000030023509800000904068040172590070000400,392648175457213986618795324964831257185427639723569841231954768846172593579386412
900500423008000060406023908009100000370059001000060807094030100105070200800604009,917586423238491765456723918689147352372859641541362897794235186165978234823614579
072004031850200000040063870008005940031800000000706005000000700906050204020010359,672984531853271496149563872768125943531849627294736185315492768986357214427618359
000008720502740900040000306000460005950000010800205630017300208000600000480090507,169538724532746981748921356321469875956873412874215639617354298295687143483192567
062080907000340000090020451210503600800007090500460700004030800073000109180002060,462185937751349286398726451217593648846217593539468712924631875673854129185972364
070350240000092013000104000700020096349800007001000050000006005530740680098003002,176358249854692713923174568785421396349865127261937854417286935532749681698513472
000051070009370408000600250008000000000009035527800610046003090210040006800200507,682451973159372468374698251938165724461729835527834619746583192215947386893216547
000050100900804300003016047847000000010000270500301900406502708030067020000109060,684753192971824356253916847847295631319648275562371984496532718138467529725189463
000008024789020030104050006008407050500090007201003600400060308350001702007900000,635178924789624531124359876968417253543296187271583649492765318356841792817932465
430070201000608070010000590708004000060980007200300050604005008079023040500000910,436579281952618374817432596798254163365981427241367859624195738179823645583746912
007800060000047190290500040001003700306950008800701500400100083030004200509030004,147829365685347192293516847951483726376952418824761539462175983738694251519238674
000610209050003800004000070410270300800005001029060500006400107001800960930120080,378614259652793814194582673415278396863945721729361548286459137541837962937126485
900080500530000006670490008020000954000142080700600003400007020009013700800900361,941386572538271496672495138126738954395142687784659213413567829269813745857924361
007400006608030514000000090000040059310705000020693180080920430205008060060010000,137459826698237514452861793876142359319785642524693187781926435245378961963514278
180570003009004020027006000002000008300090640710480500905020030800300007000165400,184572963639814725527936814492651378358297641716483592945728136861349257273165489
600009010870602005004000003013050900060907002205403001300000050000085067027100084,632549718871632495954871623713258946468917532295463871386724159149385267527196384
000500028370209000006070904009004500017068040000300009004000092080610005725003860,491536728378249156256871934639124587517968243842357619164785392983612475725493861
091637000570002004800050000230100850060000007000043010002790300050014086708060201,491637528573982164826451973234176859165829437987543612612798345359214786748365291
300000708047065900200100500008200000070006010100098400001002030650040009039071005,315429768847365921296187543568214397974536812123798456781952634652843179439671285
000685007078090000040100600000900768000063502120500003063020090090000104507800030,931685427678294351245137689354912768789463512126578943463721895892356174517849236
008000004300205760601094000090710800102000009050006000003062040014809520060100030,528671394349285761671394285496713852132458679857926413983562147714839526265147938
590087402001300060200004001800690750003000900650023000410000080067400095000200304,596187432741352869238964571824691753173845926659723148412539687367418295985276314
500030600002800091943700005000020874394000000000061000010080403000002008067054910,581239647672845391943716285156923874394578126728461539219687453435192768867354912
000006000374050920629000180400070010905004003000001002580902600103080000006703004,851296347374158926629437185462379518915824763738561492587942631143685279296713854
690500310001490700700002004108050970200108005030060008940000080507006031302070400,694587312821493756753612894168254973279138645435769128946321587587946231312875469
000070621090000800506080000309004160007850400024600009000401007008037900060290503,483975621192346875576182394359724168617859432824613759935461287248537916761298543
000008700000050630050100200007530009060201000409067001982040050706900300013602040,694328715271459638358176294127534869865291473439867521982743156746915382513682947
032604807000300090480050002008500769067001080090000230000739000840002005100000600,932614857751328496486957312218543769367291584594876231625739148843162975179485623
700009203025300600003500074060003890050106000004950100210480700090207560000000080,741869253925374618683512974162743895859126347374958126216485739498237561537691482
705090018600010092001740360093100000040605000000820504210080050060000907007003200,725396418634518792981742365593174826842635179176829534219487653368251947457963281
400000010713850000006230000009016002000900034080307905052090040008040506900068073,425679318713854629896231457539416782267985134184327965652793841378142596941568273
010700950308000600000003042630040000001005090705609301004907028000800700090261004,412786953358492617976513842639148275281375496745629381564937128123854769897261534
051370000807002600000098040720003001000807052906000030048000029000014000213600005,451376298897452613362198547725943861134867952986521734648735129579214386213689475
310600000504080200200307008682010300005020001090005670000194500000000840006000023,318642795574981236269357418682719354735426981491835672823194567157263849946578123
040820036180037000005001007700090080008000400003006021000500712061003000009408005,947825136186937254325641897752194683618352479493786521834569712561273948279418365
520900140490608300007010000010420038030005490000060070002870000080502060903100500,528937146491658327367214859715429638236785491849361275652873914184592763973146582
700300001018700402030002008943100060075008200006400000620007500000063009004850700,762384951518796432439512678943125867175638294286479315621947583857263149394851726
809105240100003005006700000025690001407002063000078500000400870640900030010280000,839165247174823695256749318325694781487512963961378524592431876648957132713286459
004007000030290005502010096057800030306900000200701004000658070040020050080003120,964587312831296745572314896457862931316945287298731564129658473743129658685473129
050470030040035900307100060082000010000857000960000470496002003003009800200003006,859476231641235987327198564782964315134857629965321478496782153573619842218543796
040200800800017000070500916708000000009076304160003052950024100000080237003000040,641239875895617423372548916738452691529176384164893752957324168416985237283761549
406030500075001000900807060103008290004100607000520003280060009009700041300005800,416239578875641932932857164163478295524193687798526413281364759659782341347915826
700000900091600030003004000400520700500078610000301020270005000084200506006437009,745183962891652437623794158418526793532978614967341825279865341384219576156437289
020950008704230000093008004008400006005380070640010023067090080000700061900002500,126954738784231695593678214378429156215386479649517823467195382852743961931862547
000000062400709100302058090508100020104030700700064308090400503000085000807903006,975341862486729135312658497538197624164832759729564318291476583643285971857913246
008300760936000501020040090605007004100500370000120080200019008007050100504086000,458391762936872541721645893685937214142568379379124685263719458897453126514286937
010930000000002136008704500600050800030100270500000001403000700890045000006827390,215936487749582136368714529671259843934168275582473961423691758897345612156827394
302060108409000007076002950005007002901540300700001890500090030000080264040106000,352769148419853627876412953685937412921548376734621895568294731197385264243176589
004200850508067013600051090020045001173008000000020609001002547800006000009300000,714239856598467213632851794926745381173698425485123679361982547847516932259374168
840091260100300800005407000406070900700000040092000031960050120200010003008960005,843591267179326854625487319436175982781239546592648731964753128257814693318962475
301000007460000290900805060020603901800402005703000004200901406000708052007304000,381296547465137298972845163524673981896412735713589624238951476149768352657324819
080370450050600010410050006200003000008760901706905840300027590000804300009000020,682371459957648213413259786291483675548762931736915842364127598125894367879536124
700201006030900080800560794014000007000030800250600900080390200160008050002040370,749281536635974182821563794314859627976432815258617943487395261163728459592146378
630800100104006700007049002700408005020390006008021009000000020241050080050700943,632875194194236758587149362719468235425397816368521479973684521241953687856712943
034080015000092006080400700001003024050060900706000008429500800007900100500276300,934687215175392486682415793891753624253864971746129538429531867367948152518276349
000807904008000057640003200010504000203091800000086090090010360050020000406009510,125867934938142657647953281819534726263791845574286193792415368351628479486379512
051700300960000042300016000000409805030080020500062400400008750000207004608501090,851724369967853142342916578216479835734185926589362417423698751195237684678541293
000005040604072900090800632003500004079008500210406007050120000300009010001000389,132965748684372951597841632863597124479218563215436897958123476346789215721654389
004030089060002030870005400400508120012600050000100907001006000000274060056000370,524731689169482735873965412437598126912647853685123947741356298398274561256819374
620003004580100030000700105000890700000020056900507010796004002803000060040005097,621953874587142639439768125215896743378421956964537218796314582853279461142685397
490050000001308500508400702005064810800030009000702600006001203003290140010070006,492657381671328594538419762325964817867135429149782635986541273753296148214873956
106480070307200004900100800204050080608002009001790040000006050052003901000010037,126489375387265194945137826294651783678342519531798642713926458452873961869514237
740030009903200001000080600008007045000050723005012908230095000100408000069170400,746531289983246571512789634328967145691854723475312968234695817157428396869173452
400000800000207190000030264500000020010963050879010300002071000950608007001400030,425196873368247195197835264536784921214963758879512346642371589953628417781459632
602007800034058000009040107000000074061020950300000060080071000940035002027004003,612397845734158629859642137298516374461723958375489261583271496946835712127964583
540000300000080020708004510000190040601003700009200035367000000900050008002471900,546912387193785624728634519235197846681543792479268135367829451914356278852471963
800016000090040057230000190700035601003009420046800070000700008010368002450002003,875916234691243857234587196729435681183679425546821379362754918917368542458192763
200060307001295060840000050005007190060030400070900008090680020400000003002001540,259468317731295864846713952325847196968132475174956238593684721417529683682371549
009080070002000006481000250304001920900025080000074030608090405000017000003500760,569482173732159846481736259354861927917325684826974531678293415245617398193548762
158060040200300780000950006400700001032810950060004030009600000007080503520009010,158267349296341785374958126485793261732816954961524837819635472647182593523479618
020600030405008000036400908009007052000020103040001700100790400950002310067050080,821679534495238671736415928619347852578926143243581796182793465954862317367154289
000000420010040003095800007000506308700030950800204060630002095002760130040089000,378651429216947583495823617129576348764138952853294761637412895982765134541389276
900070030203610008060800200004000607080500000109200054601005800030094005740360001,918472536253619478467853219524931687386547192179286354691725843832194765745368921
010000059305064700290010400042003007000100695501780000450890000000000030806320010,614237859385964721297518463942653187738142695561789342453891276129476538876325914
070310004000000263000204500780039000090005308001700000149000000038000792050600041,572316984814957263963284517785439126496125378321768459149872635638541792257693841
000003705023700060010645030000098503405100098070300006900820014007060009280004000,694213785523789461718645932162498573435176298879352146956827314347561829281934657
050400098702090030080761000004000602019004083300012000006100259400230070000058000,651423798742895136983761425574389612219674583368512947836147259495236871127958364
740000000000382040306570901000058020480200506002010090060031008109000702054600300,748169235915382647326574981693758124481293576572416893267931458139845762854627319
001300702000078090803002040208010409030000007750640100006980005400206003592000000,941365782625478391873192546268517439134829657759643128316984275487256913592731864
529040007180070500700200910050006000907004000010390806000030050000061024234080009,529143687183679542746258913358726491967814235412395876691432758875961324234587169
070100408839004150210300700020850006000400300560029000050000687700230004100060000,675192438839674152214385769421853976987416325563729841352941687796238514148567293
200030570009500014003071860500008030080067000342090007000000020097804100004650000,218436579769582314453971862576248931981367245342195687835719426697824153124653798
306205104200040008907001500000007005860300020004000610002004803070600090500108706,386295174251746938947831562129467385865319427734582619612974853478653291593128746
500900600810000500004608007000209083300506400049000200403007901600300024050012070,537921648816734592294658137165249783382576419749183265423867951671395824958412376
009800000300097604040002130001376405000008320006900700010080007280701050590004001,169843572352197684748652139821376495975418326436925718613589247284761953597234861
060003190104000037700400520000070041500260008002040000600800000027500009453017600,265783194194652837738491526986375241541269378372148965619824753827536419453917682
028400160560098002009070000030041000100020308400060020000000580601700490047930006,728453169564198732319276854932841675176529348485367921293614587651782493847935216
000000407004060019978050003000510604706090180509400300891300000020678000000000520,162839457354762819978154263283517694746293185519486372891325746425678931637941528
057900304008570010001006050300150090840302500070000060006001942003004780090200006,657918324428573619931426857362157498849362571175849263586731942213694785794285136
605001000097080604020000807000000500059067083031090020470012360002405170000800900,685741239197283654324659817746328591259167483831594726478912365962435178513876942
000830050010047006600019240003402700900000034870053610085000963021000000400070500,247836159519247386638519247163482795952761834874953612785124963321695478496378521
003056070040000501001703008360090020702300890080005007000400002006028910015000784,823156479647982531591743268364897125752314896189265347938471652476528913215639784
300520407004100092070000300080000906921400030000700051800030070740980520230650000,398526417654173892172849365587312946921465738463798251815234679746981523239657184
400010560900020013070009008000001625006570000301800004502040080800006090040203007,423718569968425713175639248784391625296574831351862974512947386837156492649283157
