030000026520000014804070009102005600400610953003098170780540000060007000000900300,937154826526389714814276539192735648478612953653498172789543261361827495245961387
010927500008004900700030006800705040063001000000800102097406010002000360045000890,416927538238654971759138426821795643563241789974863152397486215182579364645312897
000600078609004005000230100094105300502090080100002007380910602070000000900060050,243651978619874235857239164794185326532796481168342597385917642476523819921468753
600913074008200000090004605507600040320007090400030001000061287074005010001089000,652913874748256139193874625517698342326147598489532761935461287874325916261789453
400800061800400750090003020000900002507012406009067003320001000706000900010685000,472859361831426759695173824163948572587312496249567183328791645756234918914685237
094070860000010024860009000300080056000700430941003000000260087008100500205340090,194572863753816924862439715327984156586721439941653278419265387638197542275348691
029600000103029060050000040000087090391005070007034205000000453906500081084070000,429658137173429568658713942245187396391265874867934215712896453936542781584371629
700042509030900708015006320007800002046107000000000130803670000090005000500030206,768342519432951768915786324157893642346127985289564137823679451694215873571438296
004080700070001043050790100000940300702005006009030028390050600201000085540000007,124386759976521843853794162685942371732815496419637528397258614261473985548169237
040051302000000090950200061802060900000738010306400700560000074000609830108570000,647951382281346597953287461872165943495738216316492758569823174724619835138574629
054307800800009106709002050985070030300000240060100008040600080200038500000025907,654317829823549176719862453985274631371986245462153798547691382296738514138425967
008059030160000002040260070500097400836001500007000080310600009009042000702008006,278159634163784952945263178521897463836421597497536281314675829689342715752918346
000023790007500400830000620005002008460090502103480070690307000004006310001940000,546823791217569483839174625975632148468791532123485976692317854784256319351948267
057094000900852004000000010008060120030000000140273900570010048029046300003700605,357194862961852734284637519798465123632981457145273986576319248829546371413728695
109004003008603000200700450007930204540006800030020070000847160020001700000500098,179254683458613927263789451687935214542176839931428576395847162826391745714562398
000080170000070006950401230036005802870900500520006001684100005000348010003000009,362589174148273956957461238436715892871924563529836741684197325295348617713652489
025073400100020086900001030061009305090402000804500700300265800000000000700008912,625873491173924586948651237261789345597432168834516729319265874482197653756348912
040908563007542800900000000000000607705309014200054000009403080003020100061000025,142978563637542891958136472394281657785369214216754938529413786873625149461897325
004180053000000080700040209400025010009600305203801607006200001000006090120750400,694182753532967184781543269467325918819674325253891647946238571375416892128759436
900027401300040076004600000005402018000000790010350002207106053053090800060000004,986527431321948576574613289695472318432861795718359642247186953153294867869735124
000000100009048073006210058910050000400800560500903002850002700037400090001036040,785369124129548673346217958912654387473821569568973412854192736637485291291736845
002700000050091600408305079007080300034020091000000050800403105106809002070600040,962748513753291684418365279597184326634527891281936457829473165146859732375612948
016970002403106070005340008040090057000000230368000000000758001259001000700030460,816975342423186579975342618142693857597814236368527194634758921259461783781239465
500013042084600300070080090009004701001200960060500008005806073730000620002900400,596713842284659317173482596829364751351278964467591238945826173738145629612937485
905003102300180060060400000002570004003206800600004095048000000509600027710000503,985763142324185769167429358892571634453296871671834295248357916539618427716942583
895040070000800092010070000720350800000600001036004907087009516200030000054010300,895142673473865192612973485729351864548697231136284957387429516261538749954716328
002400030800067020050098000300780019004530080060001200200000605980100000530009001,672415938819367524453298167325786419194532786768941253241873695986154372537629841
200060007030080905001070480005003600469000300170000058050190060900204703010800040,248965137637481925591372486825713694469528371173649258354197862986254713712836549
100650900800004032037000100720980006010400050960701008003000000050207043000096070,142653987896174532537829164724985316318462759965731428273548691659217843481396275
035020010210803000006400009000008900647030002300040670080960104720000000409300850,935726418214893765876451239152678943647139582398245671583967124721584396469312857
065003028300070100004280070000800000079604300128090006093005602000000705600102040,765413928382579164914286573436851297579624381128397456893745612241968735657132849
901002008000408260600507004203060709007000053000800010072950100409000300050301400,941632578735498261628517934283165749167249853594873612372954186419786325856321497
190000000504170390006000800810500000020010409705320000000602008408050003070940610,197283564584176392236495871819564237623817459745329186951632748468751923372948615
000075200083020900004906031090032010607409800020701050150600004000010705039008000,961375248583124976274986531495832617617459823328761459152697384846213795739548162
800002050004601300760800400480020501203000048016070009050930070300000600009004120,831742956924651387765893412487329561293165748516478239152936874348217695679584123
006430000070002000541700023004008050020905710008063002130009540097500600000010080,286431975379852164541796823914278356623945718758163492132689547897524631465317289
010200360930070408420680001002547000080000009700069004000000130005002800061038070,518294367936175428427683591192547683684321759753869214849756132375912846261438975
070302960300070504186050000050400800003090007908006310402038000700009650090100020,574382961329671584186954732257413896613895247948726315462538179731249658895167423
003109604806000000090408050005203010600000270709005038010042507000700009200086001,573129684846537192192468753485273916631894275729615438918342567364751829257986341
410360005070081960000502000060000047105600080030904020901708032006150890000000000,418369275572481963693572418269835147145627389837914526951748632726153894384296751
000020050001308700500000106084007030097500610003062000006105900945070800300400002,879621354461358729532749186684917235297534618153862497726185943945273861318496572
000050814600000390080130500701003020090807000826004000000000470930600005450092130,379256814615478392284139567741563928593827641826914753162385479937641285458792136
090000503007003010300675002009001008204096057000280340008050600520004701413000000,692418573857923416341675982739541268284396157165287349978152634526834791413769825
000060423630900000078025090020810500000000130060054080004130250250080067000000904,519768423632941875478325691927813546845697132163254789794136258251489367386572914
090000030400007506500382410200700300006000098310046005920158040070030800001004020,198465732432917586567382419285791364746523198319846275923158647674239851851674923
060070800300002074410060500900300000280059461005006007050000100000894030000120980,562473819398512674417968523976341258283759461145286397859637142621894735734125986
003000006010760008050190700830000504400005870200004063002510000006020490507800230,723458916914762358658193742839671524461235879275984163342519687186327495597846231
003060070400809305670012900036000001008007029050040608900003400020700010000458007,893564172412879365675312984236985741148637529759241638987123456524796813361458297
702809600903012000000600005109034080005180070080050024001790002604001007800000930,752849613963512748418673295179234586245186379386957124531798462694321857827465931
900806102030000050708500060007000005000324010260090000020050700103009540490601038,954836172632917854718542369347168925589324617261795483826453791173289546495671238
600209508590007420000400090731000600050010000260008003010026940040570032800300700,674239518593187426182465397731952684458613279269748153317826945946571832825394761
007000030600005001500849000906200304430500280200060007080100960000902015000036420,847621539629375841513849672976218354431597286258463197782154963364982715195736428
020007405360984700001006000000630900003000021980050604070200596530790000400000000,829317465365984712741526389214638957653479821987152634178243596536791248492865173
900084500200003074080020060500400902140809000006070103008150090401602030070000005,963784521215963874784521369537416982142839657896275143328157496451692738679348215
490051000008000407600003200067200000901000000050968010300105042520800100006040089,492751368138629457675483291867214935941537826253968714389175642524896173716342589
400895020000700904670000000060300705900058106001009080000000360580410000032060500,413895627825736914679124853268341795947258136351679482794582361586413279132967548
900140000605029008000000032007095406009017025060800000054000003730082060000703810,923148657675329148148576932317295486489617325562834791854961273731482569296753814
809001602002060070103700000001400000500006038000107450024900500000020983600305700,879531642452869371163742895981453267547296138236187459324978516715624983698315724
400000005017200609050049038809000000030005072060037400900800256003064000700592000,498316725317258649652749138879421563134685972265937481941873256523164897786592314
008060000274000500000700318087100905090308070560002000900015003005200006013097400,138569247274831569659724318387146925492358671561972834926415783745283196813697452
800020004460005120017300000900000002300704908078000050000090506100073009040862300,895127634463985127217346895954638712321754968678219453732491586186573249549862371
700900508510000960200006703004070000060302090920014006001000080090067040053408002,736941528518723964249856713384679251165382497927514836471235689892167345653498172
609005002070100000004002369096080075015003008000010090800659027500400000042700080,689345712273196854154872369396284175715963248428517693831659427567428931942731586
030000500004006120008059000063907250102800090470200603980530700200000030010080004,631428579594376128728159346863947251152863497479215683986534712247691835315782964
640010507015006490080000006003002054000703820400000700051020600200689000709004300,642918537315276498987435216173862954596743821428591763851327649234689175769154382
260410079300020000000503860701890000520007003090200004108000097003900045000041600,265418379387629451419573862731894526524167983896235714148356297673982145952741638
000030600010020049000159300040903260008000051060078900390007500800000020407605000,279834615513726849684159372745913268938462751162578934391247586856391427427685193
000001080187040650005709300000904000251007900090600108068002003030050004900308062,329561487187243659645789321876914235251837946493625178568492713732156894914378562
400806100000000300820514007200009806000065010970000005004397020150020600030000498,497836152561972384823514967215749836348265719976183245684397521159428673732651498
009100502050000043040920007400000005290400130530087060000030800608502004000019200,769143582152768943843925617486391725297456138531287469925634871618572394374819256
200000500008907140600030700100060050053000807000043002800100093067052400021890000,274681539538927146619435728192768354453219867786543912845176293967352481321894675
002700904600104050030020000309008501080590670706000300000001863100085020040300090,812756934697134258534829716329678541481593672756412389975241863163985427248367195
001068007070052400400900020085100009307006100200000056060090512100030090058070040,521468937879352461436917825685143279397526184214789356763894512142635798958271643
760000005058000903309804670001400000800607030405020001023098000900501000100003709,764932185258176943319854672631485297892617534475329861523798416947561328186243759
200130009008900004307520000020093658030400107000005000070060400150800026040007910,264138579518976234397524861421793658635482197789615342972361485153849726846257913
200069700780000935000300024030657002907002160000000400000010008065840009004200310,243569781786124935519378624431657892957482163628931457392716548165843279874295316
260540000800009004035671000000006530052800010000200907190400063380010700004003008,269548371871329654435671829748196532952837416613254987197485263386912745524763198
070900806604081020205340900032000081400090750500000090041060030000007002006158070,173925846694781325285346917932574681418692753567813294741269538859437162326158479
010000640005400370007108009008025004270006900609347810080000105920703000003600000,312579648895462371467138529138925764274816953659347812786294135921753486543681297
908000150000086402700500600001040780050090020603008040020000000410025809009310007,968472153135986472742531698291643785854197326673258941327869514416725839589314267
000209700760100002340000096027005003050907048608010200000400081800036500005090007,581269734769143852342578196427685913153927648698314275976452381814736529235891467
000150008930004760070300102014800090305002000706003004069008050100020083820060400,642157938931284765578396142214875396395642817786913524469738251157429683823561479
000015080840700062576004001000098000920047650000300100100052470007860023009000000,392615784841739562576284391614598237923147658785326149138952476457861923269473815
000050804600190730270040100003060002040215060500908400060000908000386070017000050,931657824684192735275843196193764582748215369526938417362571948459386271817429653
004800000200600780000145006040003500106090048038000200960704015070050000802010009,694872153215639784387145926749283561126597348538461297963724815471958632852316479
200670050030000006001240700800350010529000030400708020904017000056009008100000094,248673951735981246691245783867352419529164837413798625984517362356429178172836594
409107002200060810008053000705900200020001096100008040000300508060075009004690030,439187652257469813618253974745936281823541796196728345972314568361875429584692137
300706020700900001000020308001080640004203700900100500026090050807050100095874000,348716925752938461619425378271589643584263719963147582426391857837652194195874236
000083040500090006007650008000000003912000070453100620798300012030004900160027005,629783541581492736347651298876249153912536874453178629798365412235814967164927385
430500007008201094005000026070040650093705200000009031050068000109370800026004000,432596187768231594915487326271843659693715248584629731357968412149372865826154973
203080900000100704008596001400200013600805000090030057005640030084010006170000209,213784965569123784748596321457269813631875492892431657925647138384912576176358249
040230109300006004065900007002014000000000608100070300004027500806050071007809020,748235169391786254265941837682314795473592618159678342934127586826453971517869423
026047005570000020089100300000008040800690071060200903030801006000030054150009200,326947815571386429489125367913578642842693571765214983234851796698732154157469238
000050947020630508010004300006907201034000000700820600879405000043091700000000006,368152947427639518915784362586947231234516879791823654879465123643291785152378496
360520109005010730048090000012000500000300080000862907900007004501040306730005000,367528149295416738148793625812974563679351482453862917926137854581249376734685291
761300005500087040008200001094000170670000308300000920000004062230005007059060000,761349285523187649948256731894523176672491358315678924187934562236815497459762813
014020087000946001000000500500098304070005109300100020740310600006807000082000050,614523987857946231293781546521698374478235169369174825745312698936857412182469753
020900000001600800648270510003041980090000000004807062710035600000000130509006004,325918746971654823648273519263541987897362451154897362712435698486729135539186274
060308005017000090900010020003406710700500802240000500500079360009603284000100000,462398175317265498985714623853426719796531842241987536524879361179653284638142957
010020060009834000580600400007009080605200090300070100000043809000067502004180370,413725968769834251582691437127359684645218793398476125276543819831967542954182376
