000030070620900540050000100703094620000000019402601008005270060008005300974080050,841532976627918543359467182713894625586723419492651738135279864268145397974386251
008290001040000059090164030600021300004006080850030700007000000960507004501900008,738295461146378259295164837679821345314756982852439716487612593963587124521943678
000058070700300102602900084006000251019400000208060000540009007003070006000182300,194258673785346192632917584476893251319425768258761439541639827823574916967182345
301409820098052007700006300420080070100700500003605901086100005004003060200000100,351479826698352417742816359425981673169734582873625941986147235514293768237568194
008040903000176005506000200000820750000009600034000002009031000600007040023050816,178542963392176485546398271961823754257419638834765192489631527615287349723954816
780450090000000408061079502620008710500340000090020005200030080850017060010000209,782453691935162478461879532624598713578341926193726845246935187859217364317684259
540790806900080014036024900670010090000040008000502703015006000000071200283000000,541793826927685314836124957674318592352947168198562743715236489469871235283459671
807009050060041000401378000600710000090800023200034006508000070020056430000200091,837629154962541387451378269683712945194865723275934816518493672729156438346287591
200005193700400500600083200000040019005002460930608000020931070480000000001070625,248765193713429586659183247862547319175392468934618752526931874487256931391874625
201005807000081050060000340406010900007568000800000075020003164005094003030720009,241635897973481256568972341456217938397568412812349675729853164685194723134726589
240090576070030000951000400300000085000200107690801200100700004028000700000425060,243198576876534912951672438312947685584263197697851243165789324428316759739425861
070000003506009004800023706491200080080060017000805240109070500300106000027400000,972641853536789124814523796491237685285964317763815249149372568358196472627458931
050000089400007036060100000090650700100908023020000045006034800800510000709020401,257463189481297536963185274394652718175948623628371945516734892842519367739826451
004000090000901027009302100203400005010700062007008000031087009060030508400259300,124875693356941827789362154293416785815793462647528931531687249962134578478259316
010040007080300501704090800001006020007800000540079000090620370302001405060030012,613548297289367541754192836831456729927813654546279183195624378372981465468735912
300700906879000010000050080006010509020006370530082100700003000192060400050400800,315728946879634215264159783486317529921546378537982164748293651192865437653471892
001005040040200300038109057009806000053001800020000731084070090500000206010098005,761385942945267318238149657179836524453721869826954731684572193597413286312698475
037000601005010700020006940090000503003240800870030090081097002450800106060450000,937584621645912738128376945294768513513249867876135294381697452459823176762451389
008026090003900810060300004712003009390540000800000670145800000200710060000009052,478126395523974816961358724712683549396547281854291673145862937239715468687439152
940050001062000740700090800000004000106007025050860390413000060000083970807005010,948752631562318749731496852379524186186937425254861397413279568625183974897645213
013200064080003002407089050000000390500947010801000200009060701056038000200100006,913275864685413972427689153764821395532947618891356247349562781156738429278194536
600370100080500043092048500050080260027010000000000094830021000009006018500003607,645379182781562943392148576453987261927614835168235794836721459279456318514893627
000045830700900040068010200050000008820060000609720013096204700301056090200009000,912645837735982146468317259157493628823561974649728513596234781371856492284179365
070300600040279000500400080700095020610000903000800401009017048002003560050002300,271358694846279135593461782734195826618724953925836471369517248182943567457682319
360010420029000180080700600507030000000500090410008060203007000800490050041602300,365819427729364185184725639597236814638541792412978563253187946876493251941652378
060054100104900000020800037600009501810700090903060028058001074030020060000537000,367254189184973256529816437672389541815742693943165728258691374731428965496537812
250006004010040000008713200080001000906004080000905030700300002003000195400020600,257896314319542768648713259584631927936274581172985436761359842823467195495128673
006000040000170500900002708063000000740050810000320007230008100004590070150006409,376985241428173596915462738563817924742659813891324657239748165684591372157236489
000507000623004000004090801180000020700050600409301007018400309050080072000269050,891537246623814795574692831185746923732958614469321587218475369956183472347269158
060059000500810604904200580000070036036001000850040100102030900040000073070092040,768459312523817694914263587291578436436921758857346129182734965649185273375692841
630080050004006810000290006500800700041605009008032065020000000703004120089003004,637481952294356817815297346562849731341675289978132465426718593753964128189523674
070200309100960500009040210004006020050080006306500471020300708700198050005000040,478215369132967584569843217914736825257481936386529471621354798743198652895672143
000000105720098000100203809040500060007060401806702003600000340572004008003917000,938476125725198634164253879349581762257369481816742593691825347572634918483917256
070095023306008000090024760060500901840000370000001006002100890009046000500230007,478695123326718459195324768267583941841962375953471286632157894719846532584239617
010007920200580003504000000000039076026010800059040000040002010005806009070190008,813467925297581463564923781481239576326715894759648132948352617135876249672194358
010023007040900060009000058200035014005270006380069070004600000127008000000004105,618523497542987361739146258276835914495271836381469572954612783127358649863794125
007809500020065400009004300086017003040030070100580609095200006200000010300600705,437829561821365497659174382986417253542936178173582649795241836268753914314698725
900034600400170092067800003016200300039058004500001070800603905001005080020000000,982534617453176892167892543716249358239758164548361279874613925391425786625987431
080097001003048900607500400040300620005800300800720090301000050024000703000105260,482697531153248976697513482749351628215869347836724195361472859524986713978135264
040000000003860950000130004360040809002095400014620370280900000506003780000200001,649572138123864957758139264365741829872395416914628375281957643596413782437286591
000050831080067000002001004020500000901070403600904058300648702409020000060003100,746259831183467529592381674824536917951872463637914258315648792479125386268793145
970008005000730190206054000060300502802000000040107083100200908008046070020090000,973618425485732196216954837761389542832465719549127683154273968398546271627891354
160009020000046008009070015001000064030007900690008003500300081004802700380060000,163589427257146398849273615721935864438617952695428173576394281914852736382761549
601080702000031600002709003007000400005803070090507080803650000049000201020104500,631485792978231654452769813387916425265843179194527386813652947549378261726194538
008040759902080400300100080060000208005706003420010060000594006000070000109203005,618342759952687431374159682761435298895726143423918567287594316536871924149263875
000000450038071060900360700047009501560048000803700020004003200620080000070100009,716892453438571962952364718247639581561248397893715624184953276629487135375126849
804560003000070251700902080530200006000803900001040070003024509907000010640150000,824561793369478251715932684538297146476813925291645378183724569957386412642159837
600400052030090140100000070308670000090080064001200000000508020700030005240160980,679413852832795146154826379328674591597381264461259738913548627786932415245167983
590703040038009000000012000001304620600070009080000105009008070060040210047500306,592763841138459762476812953951384627623175489784296135219638574365947218847521396
003069010004008609000740002079450060568007130000010700080390040305100800200005070,823569417714238659956741382179453268568927134432816795687392541395174826241685973
005040002008503010470020069060890000700002100000415020590300600100006080300970004,615749832928563417473128569261897345754632198839415726592384671147256983386971254
000002300092700800531490000600000205309081070150060000004010507080600049200007630,876152394492736851531498762648379215329581476157264983964813527783625149215947638
040070003701400290080961050000005001820090370050208000603500902200017486000000000,549872163761453298382961754936745821824196375157238649673584912295317486418629537
307506080200300190410000007030608500008020976002009003671090400000400750050800002,397516284286374195415982367739648521548123976162759843671295438823461759954837612
003019400002700509060408030800004600605020093031080007090001054100306700078000001,583219476412763589769458132827934615645127893931685247296871354154396728378542961
000300109500070080230804060790001240080020590005607800010240003300060072640005000,874356129561972384239814765793581246186423597425697831917248653358169472642735918
073008100100700023509000800040060009205003704090470010810090007007340008600200050,473628195186759423529134876741862539265913784398475612812596347957341268634287951
004030026005090014001700908000625007740000000209000030010073500930106800062048000,894531726675892314321764958183625497746319285259487631418273569937156842562948173
000306081090080002200400300070000000504067009300501068001204007902000400087103506,745326981193785642268419375876932154514867239329541768631254897952678413487193526
860000072042000001000000530009120700013087209000504083730901006600030040908062000,865319472342875691197246538589123764413687259276594183734951826621738945958462317
905001870001020000060700035000307086700009400403800200002905061010030900600070054,935461872871523649264798135129347586786259413453816297342985761517634928698172354
100500007048000500307260090936700401000080700000600023060309004400010250890005010,129538647648197532357264198936752481214983765785641923561329874473816259892475316
308000006010070400067000002000307900506082071000100284053706040000409850900018003,398254716215673498467891532182347965546982371739165284853726149621439857974518623
000006008020510309009304016071030400800700090300085070000000000407923000012000504,143296758726518349589374216271639485865742193394185672638451927457923861912867534
057010830100000069004879002001006950070400008206780000060000180009040200703200400,957612834128534769634879512841326957375491628296785341462957183589143276713268495
209053170000400002700001840860720009003000500050609001105080020604012003070000900,249853176518476392736291845861725439923148567457639281195387624684912753372564918
000049807007605004860300020005004009340006001900750300026800050480000002103070008,531249867297685134864317925675134289348926571912758346726891453489563712153472698
032140060000200047170500002003069508709000230048000010050080706980703000400010090,832147965695238147174596382213469578769851234548372619351984726986723451427615893
090320084508000310600007000410700005070200846000039200000806700156900020300040000,791325684528694317634187592412768935973251846865439271249816753156973428387542169
400001003000030097005726040806004300070052000020809401010000059000600800302087000,487591263261438597935726148896174325174352986523869471618243759749615832352987614
175003040000067001080009200000492807000705000090010003201000438460000950800200010,175823649942567381386149275513492867628735194794618523251976438467381952839254716
010269040060000059004007800009031008580076000070020500057310900041008030300040260,815269347762483159934157826429531678583976412176824593657312984241698735398745261
060000103001040020043090570500023900870004200600978001007001800020000064000830005,965287143781345629243196578514623987879514236632978451357461892128759364496832715
000010260402000039900073050020740000081500002090000516060495370500006804000830000,853914267472658139916273458625741983381569742794382516268495371537126894149837625
003005906008023400675800001042050098100300705060002040700090300004017000890006004,423175986918623457675849231342751698189364725567982143756498312234517869891236574
900025600074800020000006103451607900080090060000132000009340007030000080208700095,913425678674813529825976143451687932382594761796132854569348217137259486248761395
062500008050060327391800000000098006000001075947300200010070063508002000400900510,762534198854169327391827654125798436683241975947356281219475863538612749476983512
800600950020038041610920080000203005087060200100085069070041000200000003064700090,843617952729538641615924387496273815587169234132485769978341526251896473364752198
650014800020350900000607300038000207400095000102003050060040030907000041010086500,653914872721358964849627315538461297476295183192873456265149738987532641314786529
090008010203070004070040905900210000061000300050090480400600257000480090035000600,594368712213579864876142935948213576761854329352796481489631257627485193135927648
570080630360000100008040207720001045009023000410008000901600000005097060000502380,572189634364275198198346257723961845859423716416758923981634572235897461647512389
010530700048070003500208001800196500063000090005040820206300400000009070009685000,912534768648971253537268941824196537763852194195743826256317489381429675479685312
230700100000000680050480302300104050941005007700200006500019000000600520076008043,238756194417932685659481372362174859941865237785293416524319768893647521176528943
609207010020040007030910048010030905000060800080704020051008760060090002200005300,649287513128543697735916248416832975572169834983754126351428769867391452294675381
340050190000042500068000072270800000005300809009060000053006021004190083600070040,342758196197642538568931472276819354415327869839564217953486721724195683681273945
000450090074083005056000001400009060300802007107600402082004100009520800000070036,213456798974183625856297341428719563365842917197635482782364159639521874541978236
030060070004500600900081050090052060007000201006430008000805920001000700020306084,135964872874523619962781453498152367357698241216437598743815926681249735529376184
090020005004001600100980003000070000035090017206003050750300029803000060600817004,397426185584731692162985473918572346435698217276143958751364829843259761629817534
290004150706500032008020000400000000000071409080003026154700900060000003007890540,293684157746519832518327694472968315635271489981453726154732968869145273327896541
059071260004000080870005009010780420043010000700300600001094070060000930082000145,359871264124963587876425319615789423243516798798342651531294876467158932982637145
800600940006780001050104003004007850395000002007010006600052000020000305030940070,813625947946783521752194683164237859395468712287519436678352194429871365531946278
702030004000708039006002050000000600650090870070540013890070020020051000100300480,782935164541768239936412758319287645654193872278546913893674521427851396165329487
080009670006403100501000009370206590029304060000700300000840000200100058650002004,482519673796423185531678429374286591129354867865791342917845236243167958658932714
500020930000308401007400006703109540000000008204057600009006700800940200065010000,548621937692378451137495826783169542956234178214857693329586714871943265465712389
008360290900001008630004700501070860000000040420830000007009305200010080040000916,158367294974251638632984751591472863783196542426835179817649325269513487345728916
010000302005800000004001970000500680200007105608094000000302749076000503030900060,819746352725839416364251978197523684243687195658194237581362749976418523432975861
000001300001487009470030080002860005760500090038002004040600003800079020206005100,689251347321487569475936281912864735764513892538792614147628953853179426296345178
002000060600028041085700009400070308870603020020081006000090000091304705000502403,942135867637928541185746239416279358879653124523481976354897612291364785768512493
805090020012508067000100090043800056009070000076000930020600000050030071400205000,865793124912548367734162895143829756589376412276451938321687549658934271497215683
079180040500000306080043190801600070037050000000008002290805004000002950008430601,379186245514927386682543197821694573437251869965378412296815734143762958758439621
