400300089002800760900070241500090006000084070000103400270010000043760090019002850,467321589152849763938576241584297316321684975796153428275918634843765192619432857
500090001801704062020800703000416000490080010063200000740600000002005608005137009,576392841831754962924861753258416397497583216163279584749628135312945678685137429
060000470041268050009073200900001800002506000608009043300904001057010000000800020,263195478741268359589473216975341862432586197618729543326954781857612934194837625
048000000000269070079050023030000504400708009026410800300900005501307690000020001,248173956153269478679854123837692514415738269926415837362981745581347692794526381
900680005104007060000200780031096000750004200096705001000008103600000908002530040,927683415184957362365241789231896574758314296496725831579468123643172958812539647
009070300050000781030601002400005020005830006016709004000042013060500009290010007,149278365652493781738651492473165928925834176816729534587942613361587249294316857
304860009002070000085900070010387640000500102800040000001250700090008230600034050,374861529962475813185923476219387645743596182856142397431259768597618234628734951
056032000102060090080900006007400009030650170400028000045307002890000350700100000,956832741172564893384971526567413289238659174419728635645387912891246357723195468
004080600000005019739001040001030068200000500300469070020807900150300204608000030,514983627862745319739621845971532468246178593385469172423817956157396284698254731
000591000031000008450708200608020009970804603010000054006050940000040000000903176,862591437731462598459738261648325719975814623213679854386157942197246385524983176
700003500001500960006001027020056810030200000564807000400025008000400370080709042,792643581841572963356981427927356814138294756564817239473125698219468375685739142
097400300206000000840001760030920150050008000009017400000040608300090071102760930,597486312216379845843251769738924156451638297629517483975143628364892571182765934
952300080601070009008501040004850000000000290070003056380406000020930004005000061,952364187641278539738591642264859713513647298879123456387416925126935874495782361
000090002005730018310008000804270065090300000061004930700100400400060280080020506,678591342945732618312648759834279165597316824261854937726185493453967281189423576
540010080090000300301780002004106000200034705080002090070600003908050410030920050,547213689892465371361789542754196238219834765683572194175648923928357416436921857
130050020407098500020000609040005083002470060006030070210500700508007410000089000,139654827467298531825713649741965283382471965956832174213546798598327416674189352
009085700506900032000460000037000001000297080985100004004000603002710090018640500,129385746546971832873462159237854961461297385985136274794528613652713498318649527
002060080760098014900504070680400500054083009090670200000312006041000000000000093,432761985765298314918534672687429531254183769193675248879312456341956827526847193
008009000000700801260530490940000060015304000307000250030082900004000678050160000,478219536593746821261538497942875163615324789387691254736482915124953678859167342
046572089050010000000000046100209050260700000805040073000060010007358024009004300,346572189958416732721893546174239658263785491895641273432967815617358924589124367
020700008000005600408000739000804000703620450001057090109000046060132070205090000,926743518317985624458261739592814367783629451641357892139578246864132975275496183
002000037800405160100000009200173000649002700030000508006208040500096001010304006,452961837897435162163827459285173694649582713731649528376218945524796381918354276
900080050030600100007005486025061000100403507000098004062019800800074093300000020,946187352538642179217935486425761938189423567673598214762319845851274693394856721
060005930043670050001000007057100060090038405000000800279450000038006091600380002,762815934943672158581943627857194263196238475324567819279451386438726591615389742
960340501502100060007000983070000810000700309600008042003060200180420070040905000,968347521532189467417652983375294816824716359691538742753861294189423675246975138
001049006000630405600500200830902007074100600106008903290000080000700000500024710,351249876782631495649587231835962147974153628126478953297316584418795362563824719
180074009500200000002000143000060020608905300007840005005001607903702014000530800,186374259534219786792658143359167428648925371217843965825491637963782514471536892
000001075160230008845000300004000000039014200780920060002006050000349000370800901,923481675167235498845697312254768139639514287781923564492176853518349726376852941
602400008570900400300850020006209030180000000904030670005004769000000140000671002,692417358578923416341856927756249831183765294924138675215384769867592143439671582
402700103065200009009640082000090008807320054000000030600080010231007000090530406,482759163365218749179643582523194678817326954946875231654982317231467895798531426
790030000000105206005008040907042100430900800056000007028500010000374020600000903,792436581843195276165728349987642135431957862256813497328569714519374628674281953
030800005006102090907000300063940021020000680000050704050007008004691000012004076,231879465546132897987465312763948521425713689198256734659327148874691253312584976
080005107907000065020009300600000010035400009100980070800047032000060000200300658,483625197917834265526179384698752413735416829142983576861547932359268741274391658
017000300630704005000602040070300069500107084209005000048000001921040670000080030,417859326632714895895632147174328569563197284289465713348276951921543678756981432
700519003142083000030006700000034090005800060070020080908007041010400600300092005,786519423142783956539246718821634597495871362673925184958367241217458639364192875
064030890030000051870021004009350017200600500013008000058000040000097630000104200,164735892932846751875921364689352417247619583513478926758263149421597638396184275
650080020007150008003000900002000007010076805089430010000800109040520600136004000,651389724497152368823647951562918437314276895789435216275863149948521673136794582
400700090305040600270609010080307409500400002000068070609004008010050020800900105,461785293395142687278639514186327459537491862942568371659214738714853926823976145
080002000094058210500310080078090004600081000000275038700000563023006070050000409,187962345394758216562314987278693154635481792419275638741829563923546871856137429
060580000704009802050370910800000401300200607902640005003701000601005004080020030,169582743734169852258374916876953421345218697912647385423791568691835274587426139
002300006005000030016200009100000800920056071003097040000008067700010400058049020,492385716875961234316274589167423895924856371583197642241538967739612458658749123
098000207001000003600254081060800740030401095000792300010008000900523004007000620,498316257521987463673254981169835742732461895845792316214678539986523174357149628
000510400002403109600002070841009020930000000050370800780041906003080047020006500,398517462572463189614892375841659723937128654256374891785241936163985247429736518
520001000086750000009000304091064700600080095704230080017300600300408002000002501,523941867486753219179826354891564723632187495754239186217395648365418972948672531
800901560500000439007046008040000790000380100060092050090823000072010005603004000,824931567516278439937546218348165792259387146761492853195823674472619385683754921
206080000040900070500030196910004803032090060060000054100509300800021040070000002,296187435341956278587432196915674823432895761768213954124569387853721649679348512
070003984400005060030006020980132005160040090002070000203900001508000046010804000,675213984429785163831496527984132675167548392352679418243967851598321746716854239
005300006400000231020080750076253900084006000000900000200100408309004602000690570,715329846498567231623481759176253984984716325532948167267135498359874612841692573
805390070003000002600801540150208300009704065000000000080503701004020030200600009,845392176713456982692871543157268394329714865468935217986543721574129638231687459
200801060008090034000364250000100003059080010087209000706040000020900400013600089,234851967568792134971364258642175893359486712187239645796548321825913476413627589
900000267008653000014007000000540600190002008200710059030000425060804070009100000,953481267728653194614297583387549612195362748246718359831976425562834971479125836
008306500072840060900107000000000106600084970043000002300512004804090000160070000,418326597572849361936157428289735146651284973743961852397512684824693715165478239
400036900200008006060900008001002000693040800500080170004500700030020059805104300,458236917219478536367915248781352694693741825542689173924563781136827459875194362
000900240309026800010070600001802075508300906603090100052010000000007009860500400,786953241349126857215478693491862375578341926623795184952614738134287569867539412
030084902000700180005001734800016000014800260709000005091060020000053000206090047,137684952942735186685921734823516479514879263769342815391467528478253691256198347
350207800064080001007030900000500030008460102490001000802003064900000700510006208,359217846264985371187634925621578439738469152495321687872193564946852713513746298
703804090002059000008030601000020300140700059035960780089002060570000100000008070,763814592412659837958237641897425316146783259235961784389172465574396128621548973
609400372002000000504007186901600405000800060300205001706130900050790030400080200,619458372872361549534927186981673425245819763367245891726134958158792634493586217
070041030309005010000007602080070596602100000004090008800500340006002057041003009,278641935369825714415937682183274596692158473754396128827569341936412857541783269
860000300400600021509003080000090407020700130080340000270069000301528090005400000,862914375437685921519273684153892467924756138786341259278169543341528796695437812
080301907075090460000500010000080021790400000006035004240008000600007530900210806,482361957175892463369574218534789621791426385826135794243658179618947532957213846
810009003030040000007601004000500000003108902060720180040900050025006070071080296,814259763236847519597631824182594637753168942469723185648972351925316478371485296
900063008007080000060057940501070290340000600090804500600195070200000030058000400,915463728427981356863257941581376294342519687796824513634195872279648135158732469
530906800000325400009004007803090250060030001007060000050007080400810920002000104,534976812718325469629184537843791256265438791197562348951247683476813925382659174
080401050006070903070090020007000000060540001905320080000000410040268500032010076,289431657156872943374695128427189365863547291915326784698753412741268539532914876
300050040040000701201690008407008620000300870920500400093020060600107002800400350,389751246546283791271694538437918625165342879928576413793825164654137982812469357
910640030000090074002780005000000008046270500570068009080001206023050900195400007,917645832358192674462783195239514768846279513571368429784931256623857941195426387
000105094000030500086200000710624000098000070452078003000460205100890340300007006,237185694941736528586249731713624859698351472452978163879463215165892347324517986
002008100794200006610900304501000809006730000020090005005000062070140058000070410,352468197794213586618957324531624879986735241427891635145389762273146958869572413
073004600100850090060030042506000700090642100000508030000700060030090001702003580,873924615124856397965137842586319724397642158241578936459781263638295471712463589
020006010805000000300184090001000700600050032042009850084030007000017900070290046,429576318815923674367184295531842769698751432742369851984635127256417983173298546
060009004700560200530100908600000070200093000874025003005000610410800009000307040,168239754749568231532174968693481572251793486874625193385942617417856329926317845
002050081050000407460108002000800090080320760074090003100500000000903500039076020,392754681851269437467138952613847295985321764274695813146582379728913546539476128
080301204037908600400700000050020306049005000020096041000504703000000002510003480,985361274237948615461752938158427396649135827723896541892514763374689152516273489
007042310080050000200100807694000003000090105035084006052009070000008004013600290,567842319381957462249163857694521783728396145135784926852439671976218534413675298
000070005049030208600405100028640057007001300050900004000500000914060030780012600,831279465549136278672485193128643957497851326356927814263594781914768532785312649
500000900070160002000938060012003400005027080030400506028004009704001350900870010,586742931379165842241938765612583497495627183837419526128354679764291358953876214
709130004061450000200008009800006200050070086004000130003020090028503060910007500,789132654361459872245768319837916245152374986694285137573621498428593761916847523
001020040526008300090603800049007063300942008000056200704030005000800109000001027,831725946526498371497613852249187563365942718178356294714239685652874139983561427
036007401000200900050040726017090000400100280000050069061403005900508070008070002,236987451174265938859341726617892543495136287382754169761423895923518674548679312
060094010080700000459080360903000850000030000610500290002040000800203170700016930,267394518381765429459182367973421856528639741614578293132947685896253174745816932
270503609048000000006007230190086007500020800030090140000000070613009050000401360,271543689348962715956817234194386527567124893832795146425638971613279458789451362
205008090007409620000050003400065070670002401019030000900040030302007008081500006,265378194837419625194256783428165379673982451519734862956841237342697518781523946
000598200800000730142300000000006000070040593028030014010070008030900050407010060,763598241859421736142367985394156872671842593528739614915673428236984157487215369
050920007201004060080010034000003470046050309900070086007048000002500090005060702,354926817271384965689715234528693471746851329913472586197248653462537198835169742
030061200008050040109000005587000000900004603000917002604028739003000400701090560,435861297278359146169742385587236914912584673346917852654128739893675421721493568
069070105008063020400090000700018640020950001030007008050004000100600200243500970,369472185578163429412895367795318642824956731631247598956724813187639254243581976
003609008002000607090002040008341500200000409100207003706805030000010006054070280,473659128582134697691782345968341572237568419145297863716825934829413756354976281
200650400400007580008320016009000065360100800000703000000049120593000000120800007,271658439436917582958324716719482365362195874845763291687549123593271648124836957
000310804900607100005049002007908030023050006008001000040083600032000075060400010,276315894984627153315849762457968231123754986698231547741583629832196475569472318
000039020200004006060050908700320560000405100800060274040000830690007005080100007,458639721279814356361752948714328569926475183835961274147596832693287415582143697
170026003008109062040000009000008751650300200081000040005001807000760030090040000,179426583538179462246583179324698751657314298981257346465931827812765934793842615
000090600137004028406100300000000590074060801352000000710900200080031060009520070,528397614137654928496182357861473592974265831352819746713946285285731469649528173
210000009400071000305400608100008376920000050008005000000067400890300100607802503,216583749489671235375429618154298376923746851768135924531967482892354167647812593
040010370003002100006050020800003507030195800960800400050008004102000680004670009,248916375593782146716354928821463597437195862965827431659238714172549683384671259
700040308008500001000003256005002037240000080900168000010236900600705400020910000,752641398368529741491873256185492637246357189973168524814236975639785412527914863
020001060830905000040720019983000700000040900007010236060090070200006580105203000,729431865831965427546728319983652741612347958457819236368594172294176583175283694
020490173090002850000601020079300000000510400304008607010000000006003590785260000,628495173491732856537681924179346285862517439354928617913854762246173598785269341
097000200005200803603040015004030050080075002900001600030106704208300060100054009,897513246415269873623748915764932158381675492952481637539126784248397561176854329
001078050640050021002000930090010400080300000350604009020501307000000086400780105,931278654648953721572146938296815473184397562357624819829561347715439286463782195
