893000002070040800000630057050009080000024106002870090900006004165000300408251000,893715642576942831241638957754169283389524176612873495927386514165497328438251769
600780590050230460040000000700050230006000900001692008900307002400001050128005004,612784593857239461349516827794158236286473915531692748965347182473821659128965374
000020016000500370702003908005000600061008009070930401004012700500604820309070000,893427516146589372752163948935241687461758239278936451684312795517694823329875164
802600050070020009694070380009700018005043270700001000208300600060004805300090004,812639457573428169694175382439762518185943276726581943248357691967214835351896724
080090407200405000030007910000300090003201600614000370005032100000180006079060208,581693427297415863436827915728346591953271684614958372865732149342189756179564238
038009200902706000005420900000050800401380002000100473600000008209005046070200001,738519264942736185165428937327654819491387652586192473653941728219875346874263591
008000007534001800000009056007094010302060040000800205480035020090106300020700009,968452137534671892271389456857294613312567948649813275486935721795126384123748569
400060070009204003201050608307006800690000031004097005003500106010030400500708009,435861972869274513271953648357126894692485731184397265723549186918632457546718329
000805007610930040450700200000016980002000006904370001800450700020609000003000098,239845167617932845458761239375216984182594376964378521896453712721689453543127698
700004000060529031001007290000160400205040009003050817000801500007030000309000026,792314685864529731531687294978163452215748369643952817426891573157236948389475126
053006204400700001000302098024098060730000120010000000009061803045020000600570000,853916274492785631167342598524198367738654129916237485279461853345829716681573942
030000080870904003400006100000005002205681009307402600096000700000510840004003205,632157984871924563459836127968375412245681379317492658596248731723519846184763295
100000430058600100003028009095070003010805006080064200470000010002007095060392000,126759438958643127743128569695271843214835976387964251479586312832417695561392784
400097580680024009000300002000058070904000100300460090700003856001040300020506004,432697581685124739197385642216958473954732168378461295749213856561849327823576914
060040058004013690300570100980001000136089270020000000800060003042007900500200004,761942358254813697398576142985721436136489275427635819879164523642357981513298764
010509000080067091900030204200956000070208006045000000807100630090002018001300009,714529863382467591956831274238956147179248356645713982827194635593672418461385729
309800000002605001000000703000080469600050087170900200500103040087040002010200506,359817624742635891861429753235781469694352187178964235526173948987546312413298576
005100930700500020006390048002003760000050200840060009390070410500080006020004070,485126937739548621216397548952813764167459283843762159398675412574281396621934875
010000632070405008000030400053620040001040709069800053000001087200906500000070920,514798632372465198698132475753629841821543769469817253946251387237986514185374926
003900007480060000005000120070420010300007805041580030000009006860710304002005980,213958467487261593695374128578423619326197845941586732154839276869712354732645981
010507003009030060080000094890401007030008910006000200700205000041900680050106002,614597823529834761387612594892461357435728916176359248768245139241973685953186472
000004906006532001438000000009307502700060098140000070800009300512040000000206710,251874936976532481438691257689317542723465198145928673867159324512743869394286715
720000000300004907506008043460030700002005839005017020007401000009020050810060400,724396581381254967596178243468932715172645839935817624257481396649723158813569472
000940800073021400096300020600010047009005030000800106005630704002080000300107690,521946873873521469496378521658213947149765238237894156915632784762489315384157692
000010470000000800645900000300069000708520040509008620003001007000695002800700910,982316475137254896645987231324169758768523149519478623293841567471695382856732914
600480100350070900007510203003020054400908000102050790090007481008006000200000030,629483175351672948847519263963721854475968312182354796596237481738146529214895637
001700206920180030030500009004605902100820070082090000700004300010200605069000048,841739256925186437637542819374615982196823574582497163758964321413278695269351748
000007016405001700031206009027000053010900002008060090093008407800540030002003000,289457316465391728731286549927814653614935872358762194593128467876549231142673985
000920307800040059071000080000359040090017000107000036503406000429800060080030500,645928317832741659971563482268359741394617825157284936513496278429875163786132594
005060000002800609900037801000092400043100000806500070031700590700004320600085014,185469237372851649964237851517692483243178965896543172431726598758914326629385714
301706405070001090500340200000820376004907000000000008103500760890000002052069000,321796485478251693569348217915824376684937521237615948143582769896473152752169834
002050146090030070650001900004000020006907503070018000013804060200006008700320009,832759146491632875657481932984563721126947583375218694513894267249176358768325419
069020000704008300000501000070030459401000002090067080028009010103050700000804006,569723841714698325382541967876132459431985672295467183628379514143256798957814236
920060400050400089006013070070200100304005000208030096030000710401670350005000002,927568431153427689846913275579286143364195827218734596632859714491672358785341962
708016030430700002500009600009000850200034001070501049000000006000025307310860094,798216435436758912521349678149672853285934761673581249857493126964125387312867594
100002764700806935003040002000401000300200800824905000600090018015000007009073000,198352764742816935563749182976481523351267849824935671637594218415628397289173456
581004300000000620000071000603500009400910280000002700036190004709048530004060010,581624397347859621962371458623587149475916283198432765236195874719248536854763912
005001290060000041042068300300094000907300050480102000000000520018007003073609008,835471296769235841142968375351794682927386154486152739694813527218547963573629418
000021905000708200000040073360000000052300010087500029015070602200100490003086700,734621985591738264628945173369812547452397816187564329815479632276153498943286751
210008040005140000030500700006004087003610520420090060500002300090700006078003019,219378645765149832834526791156234987983617524427895163541962378392781456678453219
008400050409603802610095004025010709000087201006000000300204105060700008090000630,738421956459673812612895374825316749943587261176942583387264195561739428294158637
400075160013009700000062084009806030080000000001520900870000003030040250590600041,428375169613489725957162384749816532285793416361524978874251693136948257592637841
001049760060010052320000901080530000905000046032067000500302000000081009007450100,851249763769813452324675981186534297975128346432967815518392674643781529297456138
680007002000025300700034080040093006068500001000700500290300600005001794100000200,683917452419825367752634189547193826368542971921786543294378615835261794176459238
200007000560800304004300091900501020000000003031004709652100000307060800000270540,213497685569812374784356291976531428425789163831624759652148937347965812198273546
100000080406301002000006001012050430500708006063200790009002003080490500347000800,135927684476381952928546371712659438594738216863214795659872143281493567347165829
037600050800900730020800004400000100000051072019380405203007810671000000008046000,937614258864925731125873694452769183386451972719382465243597816671238549598146327
090600703604050010080100025200870004400090568009035000000000180730002000056780900,591628743624357819387149625215876394473291568869435271942563187738912456156784932
015003004098702000000100950962001040000500700300048160070030809000060031040209000,715693284498752316236184957962371548184526793357948162671435829529867431843219675
285674000060000000000819000024501980006000210700090300053040009009036041000007806,285674193961325478437819652324561987596783214718492365653148729879236541142957836
530600010000004960001080000250000090706308200300027048400012700900040025007900086,534679812872154963691283574258461397746398251319527648465812739983746125127935486
003070002000069500050480009400000080100920476700001090302050001006003800007890024,893175642274369518651482739429637185135928476768541293382754961946213857517896324
000000051020506008306040009041009060902804030080200000805031706000090400030702100,478923651129576348356148279741359862962814537583267914895431726217695483634782195
005408100671305004030000000352000060000690080000004217090780500084003000013200970,925478136671325894438169752352817469147692385869534217296781543784953621513246978
030500086907800402050607010010200900740001000302045007070006005108000003506409000,231594786967813452854627319615278934749361528382945167473186295198752643526439871
080047000001900050450000680013602409097100005002000030000003800930406001260809700,386547912721968354459321687513682479897134265642795138174253896938476521265819743
017430000360901400000080200000240060200003150005806007541000006008574930039000002,817432695362951478954687213173245869286793154495816327541329786628574931739168542
020060401704025306003100005030000100200970040956000800190083050608000200000042900,529367481714825396863194725437258169281976543956431872192783654648519237375642918
007405100000007028034000006900062857060308902010000004400050309390010060520080000,687425193159637428234891576943162857765348912812579634471256389398714265526983741
090508003256900400310027006060049081003002050000750300809010200000003014004000067,497568123256931478318427596562349781743182659981756342879614235625873914134295867
018509040047060300960000200600050003000100062390000185400200710080076000052401000,218539647547862391963714258621958473875143962394627185436285719189376524752491836
504026079160380000208074031600000040000018700010050260805940000000705000906030020,534126879167389452298574631683297145452618793719453268875942316321765984946831527
007030600200709130500000008748000500000800791051260004090050040300098006482001003,817534629264789135539126478748913562623845791951267384196352847375498216482671953
800005006070290040035106208000600034000087600029003500067304091591070003004000000,842735916176298345935146278758629134413587629629413587267354891591872463384961752
609100800027006004000057090106049000890003060050000032408000100003821705000700003,649132857527986314381457296136249578892573461754618932478365129963821745215794683
004063020301000005500000709906031008070025010010079604040700300020004187000986000,794563821381297465562148739956431278478625913213879654845712396629354187137986542
060001407010570020502090000030000904840200005100056800009042170083010006000703008,968321457314578629572694381235187964846239715197456832659842173783915246421763598
600900045090007003152046000003002860408070900010030507060013080009250100780000000,637981245894527613152346798573192864428675931916834527265713489349258176781469352
060020001410003769809010500600038000023070040507901020090500300106000870030004000,365729481412853769879416532641238957923675148587941623294587316156392874738164295
060725400002000105084000300000403009700081600420957000000040203003090587100000006,361725498972834165584619372815463729739281654426957831697548213243196587158372946
005060000100007029640003700000341002700000105300900000060502301208019004009604080,975268413183457629642193758856341972794826135321975846467582391238719564519634287
080602050342000001000009480104030900000570016720800003060080100018405000009027065,981642357342758691675319482154236978893574216726891543567983124218465739439127865
204680000190045706807390500000020058008104000309060007700053400406070010000000200,254687931193245786867391524641729358578134692329568147712853469436972815985416273
008070040000000260270509800190067054030001000700003028500010009080204003903080610,318672945459138267276549831192867354835421796764953128527316489681294573943785612
980000610400800000006030005067049300000270140310000920803025090051000060020708004,982457613435861279176932485267149358598273146314586927843625791751394862629718534
053090600806000030040000057018200040270601500900034800600105070000820000500006324,753492681826517439149368257318259746274681593965734812632145978497823165581976324
005760204003001070600058009000500800020410760060030015109000308800090020402007600,915763284283941576647258139391576842528419763764832915179624358836195427452387691
700000031590320600080001207810043000000695004600700020030050980040002100260079050,726984531591327648483561297819243765372695814654718329137456982945832176268179453
040020030903060100007009280080070000006438090209006040060005310090640020508001007,845127936923864175617359284384972651156438792279516843462785319791643528538291467
034009620007080009100420008080504001060000000302097050025801700910600084000050060,834719625257386419196425378789564231561238947342197856625841793913672584478953162
003096000042003050509042030400020000008301006000407105650700290200000087900010304,873596412142873659569142738415629873728351946396487125654738291231964587987215364
000406072008030600004512000600300150002875009000900007489100300503000004100000805,931486572258739641764512983697324158312875469845961237489157326523698714176243895
043000020700080005001079003900403002037050800460027090000195060580000000120600074,843516927792384615651279483918463752237951846465827391374195268586742139129638574
010690803500080960000032040201009000780000502900070300000504006106003050804007201,417695823532481967698732145241359678783146592965278314329514786176823459854967231
307060008048050000200040036000086090195200000000710240900003510501400709070000820,317962458648351972259847136724586391195234687863719245982673514531428769476195823
800239070010800200003000064600100702580760931300002050420095600000410000007000309,864239175715846293293571864649153782582764931371982456428395617936417528157628349
200070300400005000005201608000608004070950062301700009008100200020069050690040071,289476315416385927735291648952618734874953162361724589548137296127869453693542871
000870340100062079007100050923000607000308000580006904048005002009200000005030010,652879341134562879897143256923451687476398125581726934348615792719284563265937418
290600000003000080006071400041060090000003008062800570100205804050014029009780300,294638157713452986586971432841567293975123648362849571137295864658314729429786315
007406500020900004100500390015680000403050070800009210681700030700030000300000089,937416528528973164164528397215687943493251876876349215681795432749832651352164789
800090150006004032090301000042603080500800703007400000670902005409000020003056800,834297156716584932295361478942673581561829743387415269678942315459138627123756894
173000092000020006605790140004500021950060000007903000030076500002140630510800000,173654892849321756625798143364587921951462387287913465438276519792145638516839274
021050790003900604000360005004000002000012960970600500800040000000700310509208000,621854793753921684498367125164579832385412967972683541837146259246795318519238476
050010706070050020002094103901027600500800010037500080620040300300600809004100000,453218796179356428862794153981427635546839217237561984628945371315672849794183562
060240051030900000284050000000001605500700984000830000096007502370004860001009070,967248351135976248284153796728491635513762984649835127496387512372514869851629473
780030900020009561000004008040810005906000032003060000009270080100046000532100700,785631924324789561691524378247813695916457832853962417469275183178346259532198746
003401007000900060028006300802005000070020501060097430005003840930108020007050010,693481257754932168128576394842315976379624581561897432215763849936148725487259613
006000040030407090900082501300000070501700068020064903092000400007820016100500700,216935847835417692974682531369258174541793268728164953692371485457829316183546729
085000261004300009070000800200005040030846005501090003007059000106020400090618072,385974261614382759972561834268135947739846125541297683827459316156723498493618572
009500230000030046007408000506070004090305620020089005073000002800016000014290057,149567238285931746367428519536172984798345621421689375973854162852716493614293857
