580000009000210650010930007190086002067002408200000500039500806006049103000007040,582674319973218654614935287195486732367152498248793561439521876756849123821367945
701980520200000083800000700639050400040100070000020950005406000007002031906007200,761983524294675183853241769639758412542169378178324956325416897487592631916837245
740006000002000089906013000008059034000000050109407002634070500507080190000002007,745896213312745689986213475268159734473628951159437862634971528527384196891562347
300096702000038000092100600000002090071050000060380045007040201104700083008520900,385496712716238459492175638543612897871954326269387145957843261124769583638521974
080000000063409500019037062000078000190000084600020103502090030000700006040015008,785261349263489517419537862324178695197653284658924173572896431831742956946315728
824050001060009000001740030059401002030075069000300700070086240002000096000904850,824653971367819524591742638759461382138275469246398715975186243482537196613924857
750800200360070090902065007208009003009001000400620810000730004103000002000408906,754893261361274598982165347218549673679381425435627819896732154143956782527418936
005060030001809700062400500008946002734005060000010000050030208009701003020000140,975162834341859726862473519518946372734285961296317485157634298489721653623598147
000060001309201400100007285400708910261035000008040030090602000700080009030500740,527864391389251467146397285453728916261935874978146532894672153715483629632519748
004070080000650700301009002005020801040000000960008470807105300000900560090704020,654271983289653714371849652735426891148597236962318475827165349413982567596734128
007002900065800004304000501046005020080960300590107000000530410000009006230001700,817452963965813274324796581746385129182964357593127648679538412451279836238641795
100000000452089060070460001001040500980006040000302097800000250600801309030750000,196237485452189763378465921721948536983576142564312897817693254645821379239754618
000040801002900006300207500501702004840010000007000030069003050250860710000074900,975346821482951376316287549591732684843615297627498135769123458254869713138574962
901400380000027610004008059030600045000070000290805007300704021060000000007312800,971456382853927614624138759738691245415273968296845137389764521162589473547312896
040800100307029050005100062060032005090700040800900210103000096000506308620004000,246857139317629854985143762761432985592781643834965217153278496479516328628394571
703000540020900083000501000000103704002080106005796030810000270004007060030058009,793862541521974683468531927689123754372485196145796832816349275954217368237658419
036700040100602000005000920400830007000025300060907018719400050020001430000090600,236789145194652783875314926451836297987125364362947518719463852628571439543298671
080005910000280003654090000025030006300059800700102040130000080042000650009700200,283675914971284563654391728425837196316459872798162345137526489842913657569748231
001529400000061300625800070000000062790000800082390001804010037510004600009007000,371529486948761325625843179153478962796152843482396751864915237517234698239687514
034500600800900000009006728080400100120809370006032000007000091200051430040003807,734528619862917543519346728983475162125869374476132985357684291298751436641293857
051030070906000402000680031403050900690402008500007000300900026084160700000703005,851234679936571482742689531423856917697412358518397264375948126284165793169723845
200030109048065700963100500020318000070000000005007280600209005704600300090000004,257834169148965723963172548426318957879526431315497286631249875784651392592783614
806700004001009007290540038308050000019000052400098003020004600765010400000200001,836721594541389267297546138378152946619437852452698713123974685765813429984265371
706000400080000059400823700905780010602005070000001300000974030207500006500010040,726159483381467259459823761935782614612345978874691325168974532247538196593216847
500001403060502080704090210409310078007000906600080002008037090100060000000400050,592871463361542789784693215429316578817254936635789142258137694143965827976428351
080000201600500030000273090570009000000100760090004385012080900045601000800047002,387496251629518437154273698576839124438152769291764385712385946945621873863947512
084036079000000020100708605090100430500003902000040006600009050403065700001270800,284536179765491328139728645896152437547683912312947586678319254423865791951274863
000000080020019000005300701058207904607084053100930007700000035009600020034851000,971546382823719546465328791358267914697184253142935867786492135519673428234851679
004920010710480900800000500000000306072060000350001004030806095900034627007050801,564923718713485962829617543198542376472368159356791284231876495985134627647259831
204030601603501040019060070080000709000052030001470000700100406000790058502008300,254937681673581942819264573485316729967852134321479865738125496146793258592648317
950210007006908000000070140200107000301090006090534008020306400710000065008000092,954213687176948523832675149285167934341892756697534218529386471713429865468751392
007916000200040300400023078305409102001000890008600005080750600790000041060002003,837916254259847316416523978375489162641235897928671435183754629792368541564192783
604009000080005671750000000002610037000002800430580010007096050519800020200700043,624179385983425671751368492892614537175932864436587219347296158519843726268751943
040705900209060000078400310980251000003000005020800004001070509000003760650104002,346715928219368457578429316984251673163947285725836194831672549492583761657194832
001070003023006090450100000860002104000300702040000650600703208000590040100008000,981275463723486591456139827867952134519364782342817659695743218278591346134628975
200000709607230500040100000720006080000043002091580003004000090000050168138600004,215468739687239541349175826723916485856743912491582673564821397972354168138697254
006500309040208000010070006004300000900706504835401007003800675080095020002000100,276514389349268751518973246764359812921786534835421967193842675687195423452637198
000084000079502000102370605600000508051006039030900004000001800006005712907020003,563184927879562341142379685694213578751846239238957164425731896386495712917628453
080530210006002504005040069090000070002903100800000043720001480060759000301280000,984536217176892534235147869593418672642973158817625943729361485468759321351284796
904602000018000600000407030000750003071003090590000068009240070400506210360000085,934612857718395642625487931846759123271863594593124768159248376487536219362971485
752600190010000804600039000900503000001400537004002016120705040000000050870060300,752648193319257864648139275967513482281496537534872916123785649496321758875964321
009004328053702100000060000700000000035080040001279530120840700008600001040930600,679514328853792164214368975762453819935186247481279536126845793398627451547931682
210800649900504000003000010170009000000680007006041035500900002027035000480007006,215873649968514723743296518172359864354682197896741235531968472627435981489127356
042700059053000001010000247009020430000080005070530080060390008008005013020610070,842761359753942861916853247589127436231486795674539182167394528498275613325618974
050002048003006907004810500978200301501007000400053080002000406300000190090070002,159732648283546917764819523978264351531987264426153789812395476347628195695471832
590400300008029005706000020004075910000001600073002004000090460039086500801050003,592417386318629745746538129684375912925841637173962854257193468439286571861754293
000050060060148500490070000000009081102500073937020000206300009500402010000680407,821953764763148592495276138654739281182564973937821645246317859578492316319685427
709406001018002900200003508400025690007068015030900700142000000090007340600850000,759486231318572964264193578481725693927368415536941782142639857895217346673854129
070080006093500040650009302730005000200900158000046009004000900800100273000620085,472381596193562847658479312739815624246937158581246739324758961865194273917623485
000600090070058602390000054000234000507000103600001080020087005003406018001390040,285643791174958632396712854918234576547869123632571489429187365753426918861395247
900000702270003158000020030003600270740800005500041903000506001805204006096000000,931485762274963158658127439183659274749832615562741983327596841815274396496318527
200600005005034201700050680638001900000080047017905000009702804020000030006040509,283617495965834271741259683638471952592386147417925368359762814124598736876143529
170039040030150270098000006000005910200083500460020000800394700040002608007010050,172639845634158279598247136783465912219783564465921387856394721341572698927816453
080000657000849000300000000006090820803007060045003900104200390002065000070901005,489312657567849132321756489716594823893127564245683971154278396932465718678931245
008120000000046009209008405700015620390000700500200908630000000000097034001350807,458129376173546289269738415784915623392864751516273948637481592825697134941352867
700030040000060895100504600083600007504702000009050018000241500020000930861090000,756938142342167895198524673283619457514782369679453218937241586425876931861395724
902800000005043000040005610000060890578200000000501020406710059230000180700090006,912876534865143972347925618123467895578239461694581723486712359239654187751398246
400000600091080075000907080300400010070021400006590200019603008853700900000010520,487135692691284375532967184325476819978321456146598237219653748853742961764819523
062057000501000089704310000000000042040086900309701005007608200000904053600020070,962857314531462789784319526876593142145286937329741865457638291218974653693125478
100026570004005319073000800062009000050400906007801030035000100000240008080107490,198326574624785319573914862862539741351472986947861235435698127719243658286157493
004800070900010600050039200006500408030020001200000390090308006408072050570940010,324865179987214635651739284716593428839427561245681397192358746468172953573946812
030240700700085049002109600800007005140908370020003000000600010019050803506000092,938246751761385249452179638893467125145928376627513984384692517219754863576831492
001085600320400000908002304005708020039000040400130580064000007100870000007500019,741385692326497158958612374615748923839256741472139586564921837193874265287563419
008690502000008007930501040600200305000070900100003074200904000049105208300060010,418697532526348197937521846674219385853476921192853674261984753749135268385762419
020004690000000873038000020010600007005049000960030012590028000041900008700500460,127384695459261873638795124813652947275149386964837512596428731341976258782513469
009050004060083090231000007107006500300170028040000100090008600080430905005602000,879251364564783291231964857127846539356179428948325176793518642682437915415692783
053790048000600000278010005304075000080400500100029000006000251007230009900081603,653792148491658327278314965324175896789463512165829734836947251517236489942581673
390004610206070083004056000900000502030120060502700840105460070080000000700800900,397284615256971483814356297971648532438125769562793841125469378689537124743812956
140025370007400200600000010000036007020109830096580420900810000500904000010003640,149625378837491265652378914481236597725149836396587421964812753573964182218753649
000309600819700000060400012045690080000003200001005090106580700097000040280060350,452319678819726534763458912345692187978143265621875493136584729597231846284967351
600093027500601004000700010000086903709502008004300150458000000010008000002040096,641893527597621384283754619125486973739512468864379152458967231916238745372145896
700040050005800301006900402008270500060090010400031089830000060072150008900003704,719342856245867391386915472198276543563498217427531689834729165672154938951683724
470006098109000200000800003300007000040062970600100024060053800820009000901470560,473526198189734256256891743312947685548362971697185324764253819825619437931478562
008002350702080094000360010000000480050209000360140000400005001501736200283900070,618492357732581694945367812127653489854279163369148725476825931591736248283914576
500900047008000900601074008000701009900320600120005003406130720357060001000000080,532986147748513962691274538863741259975328614124695873486139725357862491219457386
009503084620007100000086090802000006003249000070058000000010705035702010140000002,719523684628497153354186297892371546563249871471658329286914735935762418147835962
008012000402360500000008360200050781793000200850004000006091070007000940500640000,638512497472369518915478362264953781793186254851724639346291875127835946589647123
200687100010000087005420009140090000903100805082063000000534010700000060300000948,239687154416359287875421639147895326963142875582763491698534712724918563351276948
000070916140006050090230700028040071000000305630810090400120807062009034000008500,283574916147986253596231748928345671714692385635817492459123867862759134371468529
005020080900000004002400695040010800890306500301900070000284103010670000030001042,465129387973865214182437695546712839897346521321958476759284163214673958638591742
250300001000408007009061430007010005516807040430000000072093600000000920600005018,254379861361428597789561432927614385516837249438952176872193654145786923693245718
080320071200009005930706020050200036104000702070800500500147090001000000600050807,486325971217489365935716428859274136164593782372861549528147693791638254643952817
701090000030008040000350089063209100405037000072080004008062507006400038950000060,781694253539728641624351789863249175495137826172586394348962517216475938957813462
409321006600004000005700038063180200700000000208090050901200803040678900050000040,489321576637854129125769438563187294794532681218496357971245863342678915856913742
470105000002000048000900305300009680040230091560000002600508209010400060008020003,473185926952367148186942375321759684847236591569814732634578219215493867798621453
702350906010800003009010400000503702804000060000069050105000004607102800340070200,782354916416897523539216487961583742854721369273469158125938674697142835348675291
800503200026008007700000401080009000600402003300050024070090056000081900204060070,841573269926148537735926481482639715657412893319857624178294356563781942294365178
200001700530260940000030008690500007001000035002080060086057090300000004400392100,268941753537268941914735628693524817841679235752183469186457392329816574475392186
008000014402900300607002500001020750000650092040890030059070100076408900300000006,598763214412985367637142589961324758783651492245897631859276143176438925324519876
102708090700060800040023100030049000208610400000000567001080043009300085006000020,162758394793164852845923176637549218258617439914832567571286943429371685386495721
000068300307029501590000008000050130069302000405010709000740000804003605010680002,241568397387429561596137248728954136169372854435816729652741983874293615913685472
000807120009140058006900003005790040090006200480051000701230000003004086500070000,354867129279143658816925473635792841197486235482351967761238594923514786548679312
806500100500030809002019007485090000070605018030200004100704065904100000000062030,896527143517436829342819657485391276279645318631278594123784965964153782758962431
000160009400053217830002000060005340000097600024080005000020903719600050300040180,275164839496853217831972564967215348583497621124386795648521973719638452352749186
601000450390060000074209001000504070007180003182700000040600235503002800000070690,621837459395461782874259361936524178457186923182793546749618235563942817218375694
095403700740008026008100000060031904000000270374050080003000000400027005100906802,295463718741598326638172549862731954519684273374259681923815467486327195157946832
090000060530900042200108907420070100000486035005002009008000704060090023010705000,897254361531967842246138957423579186179486235685312479958623714764891523312745698
002000090480501030056009407000700600090056800001092040007105902000300080164020700,712634598489571236356289417548713629293456871671892345837145962925367184164928753
009150630250040780030080040040006093002300000600400157900000800008270004001860570,489157632256943781137682945845716293712395468693428157974531826568279314321864579
000056040540080270007100900079003085000004002302600010108007069200000830056000400,923756148541389276867142953479213685615874392382695714138427569294561837756938421
