006470890700510600281003450020050010000240300900087500530000180004600000017000930,356472891749518623281963457428356719175249368963187542532794186894631275617825934
608040700000000514000902003370800000400160208002354006050201600800600049703000005,618543792239786514547912863376829451495167238182354976954231687821675349763498125
302507040100030006060400007401080900509001002078002403000004659950300800000800020,392567148147238596865419237421783965539641782678952413283174659954326871716895324
102000900080010003009078200060500080031900004054380000600140750000090800723006040,172435968586219473349678215967524381831967524254381697698143752415792836723856149
089530000173020000000080060204000150060010942590700008045800006007409513900000070,689534721173926485452187369234698157768315942591742638345871296827469513916253874
900000021005061870037004900000090054000687300001542600000350002062000038450078000,986735421245961873137824965678193254524687319391542687819356742762419538453278196
100000703070901450020000069050302800900810006002004570000043600064200010583007002,198456723376921458425738169651372894947815236832694571219543687764289315583167942
040908060100300405706200000020001096010050702400690830957004020800700103000006000,543918267192367485786245319328471596619853742475692831957134628864729153231586974
003002601005009072470500080000300000106008005094060000300295006201000007800671304,983742651615839472472516983728354169136928745594167238347295816261483597859671324
000209000020000130908650004806007340009100627050000000007093006401072900003400080,174239568625748139938651274816927345349185627752364891287593416461872953593416782
500300200000596001309072060020000800040010032693005700200480100008060049010700008,561348297472596381389172465127934856845617932693825714256489173738261549914753628
080046090096010005004007210000005083050192004007800500018000760902300008600020030,281546397796213845534987216429675183853192674167834529318459762972361458645728931
400091082037054060000006040000680250004307000009000100960100830208000009001070500,456791382837254961192836745713689254524317698689425173965142837278563419341978526
801350700020007090000040605090068004006402000300700001530016020042500908700800030,861359742425687193973241685297168354156432879384795261538916427642573918719824536
000100738090605400000072006086031000250090000300000840500400690900700000870020315,625149738793685421148372956486231579257894163319567842532418697961753284874926315
050060010000000378000902006630890005700100800012450090201000400049080063000740250,457368912926514378183972546634897125795126834812453697271635489549281763368749251
820090013007020500400005009200006408001087300306500002600001840010000000904730020,825694713197823564463175289279316458541287396386549172632951847718462935954738621
400218070851300290000006000000007803702000019016000500008003004037502060090600000,469218375851374296273956481945167823782435619316829547628793154137542968594681732
302040605065820400070300901900086300003001052287004000019000200006052014000000008,392147685165829473478365921951286347643791852287534169519478236836952714724613598
010502030600001054005806907047005302100700000902030000030180076501000409480000020,714592638698371254325846917847615392163729845952438761239184576571263489486957123
201800050036002940870000003000060500900040061003507092420009706005000480000001030,291834657536172948874695123182963574957248361643517892428359716315726489769481235
200000043040061000509070002010620000038940000007000950006490025050000890800030617,261859743743261589589374162915627438638945271427183956176498325352716894894532617
010470500070000103006902008800000602400380701057200000000006340003095007120004890,218473569974658123536912478891547632462389751357261984789126345643895217125734896
001850600209037000008000040007012400900300060603000517040763980005080000080001720,431859672269437851578126349857612493914375268623948517142763985795284136386591724
020000001004361000007085030012900500300008470608500000070010340800730029009602700,523497861984361257167285934712946583395128476648573192276819345851734629439652718
001500290040000001005430000000020070028703100037845060009608300072090008060000450,381576294746982531295431786654129873928763145137845962419658327572394618863217459
850000020300700400009003806080050104040067000000109005670004910023010060105200308,854691723362785491719423856986352174541867239237149685678534912423918567195276348
000205000003001096900030074520340010391807060040060900060004107087500000100020800,674295381853471296912638574526349718391857462748162953265984137487513629139726845
006098040017000002400007500009050108020010730670040020005204073030009006864300009,256198347917435682483627591349752168528916734671843925195264873732589416864371259
000035000080700930400982050002010640009000100003204007020367008060500204571008000,297135486185746932436982751752819643849673125613254897924367518368591274571428369
000008070437060500800320410050800600006004009709030028200045300014000060500102007,621458973437961582895327416152879634386214759749536128278645391914783265563192847
058010040300900670000046001502009004070000068109083500900701000804002093000000205,658217349341958672297346851582679134473125968169483527925731486814562793736894215
106700090004800200000049703003000010760250008280401305090002086058600000002090407,136725894974836251825149763543987612761253948289461375497312586358674129612598437
100074005050000819000000300043200698601500020720008500005301040000849700200006000,138974265457632819962185374543217698681593427729468531875321946316849752294756183
907063008500000071010080064830001000005400210009076000400000759000030800208547000,947163528586924371312785964834251697675498213129376485463812759751639842298547136
078500000040018029000000503090004030030780050605209400800027040023160007059000610,378592164546318729912476583197654238234781956685239471861927345423165897759843612
710900000008000206000050041405810000076400009083027050600743080002001360090000400,714962538538174296269358741425819673176435829983627154651743982842591367397286415
409020705050304002010600000704010036060809027905030180203005090000000058008001400,439128765657394812812657349784512936361849527925736184273485691146973258598261473
600405090073060100920000800000098200010030070047002003430010082098007630000500010,681425397573869124924371856356798241219634578847152963435916782198247635762583419
603090005700205060089030120000150080002904000010008407008310006030007000004000950,623491875741285369589736124497153682862974531315628497258319746936547218174862953
900000100050480306026705004040050000038207010100000600002003890003160470507090000,984326157751489326326715984249651738638247519175938642462573891893162475517894263
009100350506900001207040800050803100000092000084500006003609084700000003060701290,849176352536928471217345869952863147671492538384517926123659784795284613468731295
020000061051009300080070450100943600500020008602150007034005010000086703709002000,927534861451869372386271459178943625593627148642158937834795216215486793769312584
000000083907021046004500090002307060740000001065018200401080005050003007280905010,526794183937821546814536792192357468748269351365418279471682935659143827283975614
500200000300008204090160830005902100402730006089000050040071003000650071000000698,568243719371598264294167835635982147412735986789416352946871523823659471157324698
100902060400010507008040900005470080607030000030800201059006740840003002060580009,173952864496318527528647913215479386687231495934865271359126748841793652762584139
000800570009100364420007000300004100017950080094006000000000709031070005206003040,163849572789125364425637918352784196617952483894316257548261739931478625276593841
900010504801230006007098030000340002275600000080000070130005940006400108000920000,923716584851234796467598231619347852275689413384152679132865947596473128748921365
700032090010605084208000003039000400860200050007010900004009526000050700000300041,746832195913675284258941673539768412861294357427513968374189526182456739695327841
806053009040920001520060070050001840000800600700000102601230750900007080002000003,816753429347928561529164378253691847194872635768345192681239754935417286472586913
900600405810003690002019003500780000000040106760000020000007954030052800109000007,973628415815473692642519783521786349398245176764391528286137954437952861159864237
030001000005730800080006047800904520620015000010000903497020005002603498000050100,736841259945732816281596347873964521629315784514287963497128635152673498368459172
009146503800030094006050000003060200102008006097400051050710409000000720200090308,729146583815237694436859172583961247142578936697423851358712469961384725274695318
000007506000090470030800002000910000470200810080006035002140050319500060048703900,194327586825691473637854192253918647476235819981476235762149358319582764548763921
007030021630020807508104600150000003040093050000040002000709080310000906800056004,497638521631925847528174639152867493746293158983541762264719385315482976879356214
060120903045000000200709080000208769009030048000076001508300024104065000730000010,867124953945683172213759486351248769679531248482976531598317624124865397736492815
008017005035090087090600300009406700206080000001035064000000403873002900000500021,428317695635294187197658342359426718246781539781935264512869473873142956964573821
760010080020500031030007004800000000003194200000620050510960043000000907049803060,764319582928546731135287694892735416653194278471628359517962843386451927249873165
697800050300900000801024070025060001900050703700100046000003802080500090174009000,697831254342975168851624379425367981916458723738192546569743812283516497174289635
060309800408010200500700046800420009026097500040600301037800000600000905051000630,162349857478516293593782146815423769326197584749658321937865412684231975251974638
807520160140000000503400007400600503005008279000001000360270048009130025000009000,897523164146987352523416897478692513615348279932751486361275948789134625254869731
080070502002140907005090003000006300940000270000730018504008000630900000720310650,189673542362145987475892163817426395943581276256739418594268731631957824728314659
600104000003098071000050400039047020400020090070061008106070530002000080090305600,627134859543698271918752463839547126461823795275961348186279534352416987794385612
100098000042050098050000603905402080080070004036000007003100420700600009500904010,167398542342756198859241673975462381281573964436819257693187425714625839528934716
100095420620800007007001508260409000000080600401500080300000702500103000070006093,183795426625834917947621538268419375759382641431567289316948752592173864874256193
208350060006000900300800045710002300900064050005900804002790081000401000570030020,248359167156247938397816245714582396983164752625973814432795681869421573571638429
050004096806200000000050031102397005063000700049500002000001050200680107904030000,351874296896213574427956831182397465563142789749568312678421953235689147914735628
030000800280060903905070060850004607001080204007905008003790501000012040060403000,736249815284561973915378462852134697391687254647925138423796581579812346168453729
000002739002947008005003600090081005820006003103000070008600451600000000017408902,481562739362947518975813624796381245824756193153294876238679451649125387517438962
400021078970360002000008900600040300007500001845002006006470019230009540000010060,453921678978364152162758934619847325327596481845132796586473219231689547794215863
601020735030000400240009001908206004006001050074080300002500067500078019000100000,691824735835617492247359681958236174326741958174985326412593867563478219789162543
400000500003900806000046017030070600070020094006895002580000000012004080090100273,461387529753912846928546317239471658875623194146895732587239461312764985694158273
000605070040200900050017003105870000009004008080000260000030124008002795070549800,813695472647283951952417683125876349769324518384951267596738124438162795271549836
040907308009603170005210000000009503080370010901004060004800050203000094610000702,146957328829643175375218946467129583582376419931584267794832651253761894618495732
000005236304070000615029000001080650000007302090004870806000000030950010070002004,987415236324678195615329487741283659568197342293564871856741923432956718179832564
800014900000500600941200000009038001380001067062450008500390080720000000000000142,856714923237589614941263875479638251385921467162457398514392786728146539693875142
000006870001200003098453002000000040607008520040091308400009001032000050059860704,324916875561287493798453612983625147617348529245791368476539281832174956159862734
540109602000600039000258007002006001000390000463020000190045800020000960308000070,547139682281674539639258417972486351815397246463521798196745823724813965358962174
405030709001060004820970050690703200100000080007012040500800160000049000030001002,465138729971265834823974651694783215152496387387512946549827163216349578738651492
045007380000800701100563200890000560006004100500002009000090007289000003630108040,945217386362849751178563294894731562726954138513682479451396827289475613637128945
450901027109700604000000000800020090031500000906008072560090301708104050000002080,453961827129785634687243915875426193231579468946318572562897341798134256314652789
090007003000418500006050207000704080860500004703600050600000309470003160051900020,594267813237418596186359247915734682862591734743682951628145379479823165351976428
600003907504607010010000025009000870240091060800304000000400152320759400060000000,682513947594627318713948625139265874247891563856374291978436152321759486465182739
000376005008041200047800009170052603000060090802100050216004700390000001000600004,921376845538941276647825319179452683453768192862139457216594738394287561785613924
001042037870005060009060000007100200030094006425003801080701000306000050002580000,651842937873915462249367185967158243138294576425673891584731629316429758792586314
040300007008015900002000610400802030053070002090001070001008045670000089300249000,149326857768415923532987614417892536853674192296531478921768345674153289385249761
490000070005002190700504080900083040080700500230060000003620900020008067506041300,498136275365872194712594683951283746684719532237465819843627951129358467576941328
208706000030009000100800462004900300500002041807050000060081730002003095040007200,258746913436129578179835462624918357593672841817354629965281734782463195341597286
600000530059000120300410068005009700730800092004200080020000400890503006100762000,618927534459386127372415968285639741731854692964271385526198473897543216143762859
867002003000030402400500060010083946000001000079200805098000000500070139006400250,867142593951637482423598761215783946684951327379264815198325674542876139736419258
512000038003005907060800410100060700098000000030074001080106003000293050005400060,512749638843615927967832415154368792798521346236974581489156273671293854325487169
006005190042090078075200000409008027080130005000002400090420006700800003300610800,836745192142396578975281634419568327287134965653972481598423716761859243324617859
300000140780001609020090075000046000065200030007509802100005083090620000800410900,359762148784351629621894375238146597965287431417539862146975283593628714872413956
480020006900000010007160548000501007520030061000600800390000700010850002062790030,481325976956478213237169548649581327528937461173642859395216784714853692862794135
043806000010002078005139020906720015500084000430000900000000803002060500060407001,243876159619542378875139624986723415521984736437615982754291863192368547368457291
000600815002300060090054000100400500067015009003870020040060107900021053370000096,734692815512387964698154732129436578867215349453879621245963187986721453371548296
000250600800000201750006030007080060020001405000930087004100720016028000003500009,431259678869347251752816934197485362328671495645932187584193726916728543273564819
503002910070500430020070080000789006040000200106004050050640800700023000462005009,583462917671598432924371685235789146847156293196234758359647821718923564462815379
010403605300010840200065070679200010000900034080070200748002300500300906006100000,817423695365719842294865173679234518152986734483571269748692351521347986936158427
003000902780300006041008070010509003360020500090740010000907050005006409008010200,653174982789352146241698375814569723367821594592743618426937851175286439938415267
