000791005602008090050400013740950000090210084006000300200300000509080670874020500,483791265612538497957462813748953126395216784126847359261375948539184672874629531
604700000000680700200095038030502070406000200001976040908000065000804012050300000,684723591395681724217495638839542176476138259521976843948217365763854912152369487
050106080000040700900005040006000031000402060027008590600850370093020000745039100,354176982268943715971285643486597231539412867127368594612854379893721456745639128
007004060084057900050012003018006500405300020200090080000003200000170006903008074,127934865384657912659812743718246539495381627236795481571463298842179356963528174
050006230090401008000030906002700340480005001300002807106079400200800003040050060,751986234693421578824537916562718349487395621319642857136279485275864193948153762
040700231017020080006090500068005000009100870070430006080609300250810900004050000,945786231317524689826391547168975423439162875572438196781649352253817964694253718
603805004710402009000600020400050000090100000076300250009006710250010600008700093,623895174715432869984671325431257986592168437876349251349586712257913648168724593
600000749003000500100540302040090000030750806080206071860900050005807900027010003,652381749493672518178549362746198235231754896589236471864923157315867924927415683
023000070800501006004903100500096007007000043300002090060400058900657200010008009,123864975879521436654973182541396827297185643386742591762419358938657214415238769
000005010902400058670000090860270030590006020007809001240530060030908000700001004,483795216912463758675182493861274935594316827327859641248537169136948572759621384
030050004007040910200000603006010590400230070982600000859004300001000200600807000,138956724567342918294781653376418592415239876982675431859124367741563289623897145
009830401305600000008007060060304007097051000000000524013700205004195300000020800,679832451345619782128547963562384197497251638831976524913768245284195376756423819
010070830020000604590000010005019000100260053247008009070690001300050072000004380,416972835723185694598346217635419728189267453247538169872693541364851972951724386
075000490460000001000028006016902700800001309500346000029000050003070800004635020,275163498468597231931428576316982745842751369597346182729814653653279814184635927
000540060030810000908020107000300280000070096620000405709054030850006000004080029,271549863536817942948623157497365281185472396623198475719254638852936714364781529
206509040100200900340080070080000405001760030900010000800453091005006000003908206,276539148158247963349681572687392415521764839934815627862453791795126384413978256
050090000007302046430780201046900038280001700000600002300015090004003005001400870,652194387817352946439786251146927538283541769795638412378215694964873125521469873
010600004470008360308500200750002908000010600002793001596080702000000000103904500,215639874479128365368547219751462938934815627682793451596381742847256193123974586
700001006008500900013920008000810039030750080024009000050040001007000200642030500,795481326268573914413926758576812439931754682824369175359247861187695243642138597
000601527006359804000800600234000008050004201079008063095010702817000000000003000,983641527726359814541872639234167958658934271179528463395416782817295346462783195
600094012408050700090230050109000000075003624000805003000182005004000008300007960,653794812428651739791238456139426587875913624246875193967182345514369278382547961
460025300100070502025830940306009210097400800000000006040000600030007080900012005,469125378183974562725836941356789214297461853814253796541398627632547189978612435
506700403021060800000040900300070105050008020102003070080097000035020041607005000,596782413421369857873541962368274195759618324142953678284197536935826741617435289
403098050680020900100000037501040000040900060000051203000600579029004000306780001,473198652685327914192465837531246798248973165967851243814632579729514386356789421
002046170005003826000000009508000040901570300736100008070960500060010007200400003,392846175415793826687251439528639741941578362736124958173962584864315297259487613
000050201003400097060901004274006000009200806500190030457000600002037000800600900,948753261123468597765921384274386159319275846586194732457819623692537418831642975
030004085000300700000201096762000400504900231000500000926400010100008502408007060,239764185615389724847251396762813459584976231391542678926435817173698542458127963
360080007000014089000000040510000204073100000029570000190627003005930001002000800,364289517257314689981765342516893274873142965429576138198627453645938721732451896
076005430000013896100000050200839060001040009503070240060920017024006000900080000,876295431452713896139468752247839165681542379593671248368924517724156983915387624
200049500070006300089001000100803000047600020850000067002430009500000208360500714,231749586475286391689351472126873945947615823853924167712438659594167238368592714
050004060732050840400920003060100700209000500048002000003000000007438091010006025,951384267732651849486927153365149782279863514148572936693215478527438691814796325
908050003000700000020060015031400050695010420070000900560093080200001067014800002,948152673156738249723964815831429756695317428472685931567293184289541367314876592
006095000002160007400300501000010930000700080901200004680420370075008040320900600,716895423532164897498372561847516932253749186961283754689421375175638249324957618
007008004610005800520704093480090207005000069300507000090083105002600030000100040,937268514614935872528714693481396257275841369369527481796483125142659738853172946
807100940040930002020008507050209600704000000100843050009000203286000000000050001,837125946645937182921468537358279614794516328162843759519784263286391475473652891
079004005000009040023100000030040060705630001000805270600073109500400006090201800,879324615156789342423156987231947568785632491964815273648573129512498736397261854
008060000703102009490003610610507030087020005030001490200000851000009040000750006,128965374763142589495873612614597238987324165532681497279436851856219743341758926
050002300600000078048001009000005680010034000902170500000900013430028000007500460,159782346623459178748361259374295681516834927982176534265947813431628795897513462
001506280080007060950840030008074000007080520100290300039100750070020000000003046,741536289283917465956842137528374691397681524164295378439168752675429813812753946
000008000002090637054600020007806010200010845500003009096400503700100200400730090,679328451812594637354671928947856312263917845581243769196482573735169284428735196
004030700009405820610000500007082003400579610060100080086000040503007000920004005,854236791379415826612798534197682453438579612265143987786351249543927168921864375
003629000100000200050040087708100029060007041009500003600803000020005670000006054,873629415194758236256341987738164529562937841419582763645873192321495678987216354
007068020010000048005207093000000000068540002020030174003900005901023000840170060,397468521216359748485217693134792856768541932529836174673984215951623487842175369
602008001050100000004035027000200040000019870870360000200900036701020094035400100,692748351357192468184635927513287649426519873879364215248951736761823594935476182
000480306000010089250000710086005000090300600140029070005006020300800100407200590,971482356634517289258963714786145932592378641143629875815796423329854167467231598
000030800805920046001006000900003615056000007004070029503004000408760002090008170,269437851835921746741586293927843615356192487184675329573214968418769532692358174
600970450050002007020064081300097008100000030980051240004600190803015070006000003,631978452458132967729564381362497518145826739987351246274683195893215674516749823
100059000260000403700204508850610009902080301010002040000000206087100004003908000,148359672265871493739264518854613729972485361316792845491537286587126934623948157
600810070019300005007096200500940000802000700071000034430065900120700000000430680,654812379219374865387596241563947128842153796971628534438265917126789453795431682
407200980090010603000500200500000740600003800020640001048020100703980050050760000,417236985295418673386579214531892746674153829829647531948325167763981452152764398
210080000039204050400703006080509630020370000000002090004106920190030800005000070,217685349639214758458793216781549632926371584543862197874156923192437865365928471
960053700000800530004070080000940600010060029700005108070000200001289070340610000,968453712127896534534172986283941657415768329796325148879534261651289473342617895
060000050780400360300710000070205030009008074026090800010030602800600090050029041,264983157781452369395716428178245936539168274426397815917534682842671593653829741
070905004300000000000408605209003800408056009030010206100074028002000003605000100,876925314354167982921438675269743851418256739537819246193674528782591463645382197
030007182900410300000002006042800605009001700010276000008039000060100509007600430,534967182926418357871352946742893615689541723315276894458739261263184579197625438
000003050140680030067950002034015700900000365000000004070090601800024000012700089,289473156145682937367951842634215798921847365758369214473598621896124573512736489
200090400000307080031008006705000104046002300000000950090560020300081000070904510,287695431469317285531248796725839164946152378813476952194563827352781649678924513
700810059030000000040506280860004070012760800000902005387040500000000040000390107,726813459538429761149576283865134972912765834473982615387241596291657348654398127
350008700204100059090206000000504600000700310080061902009000004072093508800072003,351948726264137859798256431913524687426789315587361942639815274172493568845672193
408000073105390000060000400709140005200006809000058710020800000904270608036000900,498621573175394286362587491789142365251736849643958712527869134914273658836415927
010346209000700100008009006803050600060400010050002004025800940009034005670100002,517346289496728153238519476843951627962473518751682394325867941189234765674195832
805100040690000200200089710020000003530007890010008624900600005007004100004235000,875162349691743258243589716428916573536427891719358624982671435357894162164235987
000315000005209060930080041000073006081500200740600000016050790007400020250900803,468315972175249368932786541529173486681594237743628159316852794897431625254967813
308007400500030002000040670006270010801590004020001960004063098759400200000000001,368127459547639182192845673936274815871596324425381967214763598759418236683952741
800020507010070694007104302080007000000301060309560800020096000043000005090400100,834629517215873694967154382186947253452381769379562841521796438643218975798435126
030064105001032096800007400503000009200690071000245030600000050920070800047010000,732964185451832796896157423563781249284693571179245638618429357925376814347518962
000000295000308007791000040064000000357010029100057000010706000029130086500280403,638471295245398167791562348964823571357614829182957634813746952429135786576289413
800900567956004000270800100030060000009100002460000081518070400007040809000002013,841923567956714238273856194132468975789135642465297381518379426327641859694582713
001905037090364100250008060180007605000000200000296400500000008810043000037100009,461925837798364152253718964182437695946851273375296481524679318819543726637182549
004001805000000430000705020060000002908000506102903040300500000870310600021604970,794231865215896437683745129467158392938427516152963748346579281879312654521684973
000579200798000010600080000043060000105090870000103420000042930036007500421000080,314579268798426315652381794243768159165294873879153426587642931936817542421935687
200300017053090480070061000620000005000700009940080300091800052030400970002056100,269348517153297486874561293628139745315724869947685321491873652536412978782956134
026400018000800507905073600800001705501006030040200000000500903170098006000020040,726459318413862597985173624832941765591786432647235189268514973174398256359627841
090060000830050009010008700042300108009000230500700900008100026004003010700504800,295467381837251649416938752642395178179846235583712964358179426924683517761524893
020040500307600904005010860106090000800003010009750608500004203082100070040009006,628947531317685924495312867176498352854263719239751648561874293982136475743529186
900060570006300400050000010094020050700080640502701308610508900300007000000490730,928164573176352489453879216894623157731985642562741398617538924349217865285496731
056000007200014058090007460600040085085900701000300290040006000070050012801209030,456893127237614958198527463629741385385962741714385296542136879973458612861279534
000100509001057800087009036000064001000290607308705004900048000010000005740630200,432186579691357842587429136279864351154293687368715924926548713813972465745631298
210094030005007000600350040070000804000019027000006590002800100509001060084000072,218694735345127986697358241976532814853419627421786593762843159539271468184965372
060047008095000007100005032700906105004002060010050003270400001600000800048230900,362147598495823617187695432723986145854312769916754283279468351631579824548231976
020010000008000719000405600000632400700000023009800106140020005500006080300904270,623719548458263719971485632815632497764591823239847156147328965592176384386954271
006507001209640570000020340180260090032001800407035000060070080001900400503000200,346587921219643578758129346185264793632791854497835612964372185821956437573418269
500090708010000209207005010002058640001037000750609003060000801000840000300002960,546291738813764259297385416932158647681437592754629183465973821129846375378512964
005602009978400001030010740100300000250160080000900504700000300001008026084096050,415672839978453261632819745149385672257164983863927514726541398591738426384296157
009304100501008702000050030000781000400009308072000091600200003040060250300007409,269374185531698742784152936953781624416529378872436591697245813148963257325817469
000500000091470802062083790400000007000740030009062041680000100004800060230091005,748529316391476852562183794453918627126745938879362541685234179914857263237691485
100053080020610000030800407200460500700020104060000090006007028508009000340000009,194753286827614935635892417289461573753928164461375892916547328578239641342186759
015670000400302160900004070086900013039080400001006028053090280000028000000400500,315679842478352169962814375286945713739281456541736928653197284194528637827463591
080062400600000000300005026470090200506100930010007800005040008009030170001028043,187362459652479381394815726478693215526184937913257864235741698849536172761928543
000089031002050800930004670006005412004900000200001700007090500600007083301620040,465789231172356894938214675796835412514972368283461759847193526629547183351628947
015009802002003040940087035050600010270054600000090008008000007000146009604300250,315469872782513946946287135859632714271854693463791528138925467527146389694378251
062010300500600040108002070004975800806000027900800530030050460041003000700001200,462517389573689142198342675324975816856134927917826534239758461641293758785461293
006000007700006500090030408900075006060100079430002800001200950520041603040800020,356428197784916532192537468918375246265184379437692815871263954529741683643859721
701000600008912004090080230200004007009030100046890005010009408507000960030050000,721543689368912574495786231253164897879235146146897325612379458587421963934658712
620910007000004309001875000785400020300060090000032000800240530000106070006057401,624913857578624319931875264785491623342768195169532748817249536453186972296357481
000200870003090000050700169070408000009306005040050307237104900800000600506009042,961245873783691524452783169375418296129376485648952317237164958894527631516839742
810007950000068200006000013940500030000280090372001008000695000003004000651030740,814327956539168274726459813948576132165283497372941568487695321293714685651832749
010003600090200345000970081504030908000002004020580030670800000403060070251007009,812453697796218345345976281564731928138692754927584136679825413483169572251347869
080004000500300070037820009001000507900031060405600010003069120250040008009008406,682974351594316872137825649361492587978531264425687913843769125256143798719258436
267800009000010700590063040800120350030045070605000400000070090004200080008490510,267854139483912765591763842849127356132645978675389421316578294954231687728496513
