000020708003907010090001460000500046130600007520004380700000002001098000042306950,615423798483967215297851463978532146134689527526714389769145832351298674842376951
000143070000020000013790800021867040005000006870000010050076209390501400004200050,289143675547628391613795824921867543435912786876354912158476239392581467764239158
600081000070000030930007854007000018312000400000092500800009040045860702060250000,654381927278945136931627854597436218312578469486192573823719645145863792769254381
080790002000010900000320040600000010020000705750140630014038090560009008097050463,186794352342815976975326841639587214421963785758142639214638597563479128897251463
300000524001039700060800000004607008020910000000058030703200005090005670008304190,389761524241539786567842319134627958825913467976458231713296845492185673658374192
001007009520000081080600402030020000074809026005301800900430050000000090810006007,341287569526943781789615432638724915174859326295361874967432158452178693813596247
020890607190400000008003200516040000009102043030070080000000700905000031700651800,324895617197426358658713294516348972879162543432579186281934765965287431743651829
005309040040500906600012007002093050530000102000070000780000400100804200029006310,275369841341587926698412537862193754537648192914275683783921465156834279429756318
500308690040010207600000000820500009709480510000007400305076001010000302090040806,571328694948615237632794185824531769769482513153967428385276941416859372297143856
052409006400700830703080500087300000240008100001506200000000051090603420076010009,852439716419765832763182594687321945245978163931546278324897651198653427576214389
100000000003087602650100079009870306004052000800030057040000021710420500008005904,187296435493587612652143879529871346374652198861934257945368721716429583238715964
010005406200300000067040020004500002390680070000003100825700013000000007601930805,913275486248316759567849321184597632392681574756423198825764913439158267671932845
080000907600504800140009026020600305000010408078030060032900000500007010009206050,285163947697524831143879526421698375356712498978435162732951684564387219819246753
050090060096001320003000700500460091800053400012000000000014600370200015000905007,258397164796541328143628759537462891869153472412879536925714683374286915681935247
060000450000010079705002001082309040540600308009400200100060003003078016920005700,861793452234516879795842631682359147547621398319487265178964523453278916926135784
057020094200104630003007500900076280802000700400090003019800000000000002006319050,157623894298154637643987521931476285862531749475298163519842376384765912726319458
405000012000509070000800900901003000308070004002106058100002630023000007079064200,495637812816529473237841965951483726368275194742196358184752639623918547579364281
290507001008000540410000007980005200700461930000920005000670053000300804120000060,296547381378196542415283697984735216752461938631928475849672153567319824123854769
002106003000000507460009820895000004100003200000070006020460700347098010010500080,752186943981324567463759821895612374176943258234875196528461739347298615619537482
025090070010608309069000004000705008501032900480001200032104005007020060000300410,825493671714658329369217584296745138571832946483961257632184795147529863958376412
208005900050162800003400010000800040940250001060007300532001007000000038100079506,218735964459162873673498215325816749947253681861947352532681497796524138184379526
950760400000090300030108020700604200063002001084050007000010693000509080410030700,952763418148295376637148529791684235563972841284351967825417693376529184419836752
008040300007800020302000905060030470900012008000904030019005006080690001500001700,658249317197853624342176985261538479934712568875964132719325846483697251526481793
000230007043059000000008100520700010904060500007000284800090406006301098209004350,185236947743159862692478135528743619914862573367915284831597426456321798279684351
000204906070800040605700300000070000730600102594003800350002680002009000960300050,813254976279836541645791328126978435738645192594123867357412689482569713961387254
310000064080000927090600100000125080004908070029000300500010730002067001600040008,315792864486351927297684153763125489154938672829476315548219736932867541671543298
030000000600009081002003405158290700700000600003054000410830209090060000305017040,531648927674529381982173465158296734749381652263754198416835279897462513325917846
910640050608000000072080090007024035060100029040306007090010000800005760524003001,913647258658239174472581396187924635365178429249356817796812543831495762524763981
009015630080000205010732080703540000040960058000000009904007001006020000200384506,429815637387496215615732984793548162142963758568271349934657821856129473271384596
531000000800000574090062108000700320159080040720406090048300600200910000000070082,531847269862139574497562138684791325159283746723456891948325617276918453315674982
800000034000652000167080000010094560200070083435000001000840070903706100600001920,852917634349652817167483259718394562296175483435268791521849376983726145674531928
658000430004602910000000000020504100830001050010009687500400709100908360000025000,658197432374652918291843576726584193839761254415239687583416729142978365967325841
600905400270061050080270030098000070400028060020000100540030000000019008039706012,613985427274361859985274631198653274457128963326497185541832796762519348839746512
007002506810300090090600403000407620000050007034096000400080005205103070000000801,347912586816345792592678413158437629629851347734296158461789235285163974973524861
500000001002507380061024009700038000034060090085701000600090070009102560200800030,573689241492517386861324759726938415134265897985741623658493172349172568217856934
089003100701050000020410908004002689200000000000006570050090203306805004400070060,589263147741958326623417958174532689265789431938146572857694213316825794492371865
706902000030000000500700401082040305400230097003000008020305009160089002050106700,746912853231854976598763421982647315415238697673591248824375169167489532359126784
640000050000980000238041060090004230007095800100620700581000300060072009000003041,649237158715986423238541967896714235427395816153628794581469372364172589972853641
027006100000010003003950040540000208080093006601004750100300802098047000250100000,927436185465718923813952647549671238782593416631824759174365892398247561256189374
052000306800000004301605009000030800607008192100720000090804050005003070060109240,952417386876392514341685729524931867637548192189726435293874651415263978768159243
617000200000900003020700084800405060300002500250800190496010000080630000000004070,617348259548926713923751684871495362369172548254863197496217835785639421132584976
030068409060400510079000206006032050700500031080040607100059000050100708208003040,531268479862497513479315286916732854724586931385941627147859362653124798298673145
089103600020000004430600807200000408017090502050018070065407000100025300000800009,789143625526789134431652897293576418817394562654218973965437281178925346342861759
002000081780320906004805300000004008850090070006130200600570003940600050007012000,362947581785321946194865327219754638853296174476138295628579413941683752537412869
010000400900853100508007369000528004470060005009000010003200000600340970201006080,317692458964853127528417369136528794472169835859734216793285641685341972241976583
005614000020000001403000980800001790570209600000750010030960402206000850700308000,985614327627893541413572986862431795571289634349756218138965472296147853754328169
000200004056013000302900075003800009200050600519040203000068010005000097078002030,891275364756413928342986175463821759287359641519647283934768512625134897178592436
906080300004000850500293000009074200100620487000500016000007623050901040678000000,916485372324716859587293164869174235135629487742538916491857623253961748678342591
008400509094200370130005000006508000001960058200030007012700080800302040000040160,628473519594281376137695824976528431341967258285134697412756983869312745753849162
070600000601435800005001046102007400003050019800040702000008000096200130408390070,374689521621435897985721346152967483743852619869143752237518964596274138418396275
809301005000000008000057296078640000301500020040029030400010700560002009002780040,829361475756294318134857296278643951391578624645129837483915762567432189912786543
021005809086002010007000046190200000500186300000370002008030675000048923600500000,421765839386492517957813246193254768572186394864379152248931675715648923639527481
500013067743006090060040080020075004000000000900000218302500001800001906607090023,589213467743856192261749385128975634436182759975634218392567841854321976617498523
209008005000074001008030790002400019040103080030520600600001250003800004795000060,279618435356974821418235796562487319947163582831529647684791253123856974795342168
508400200006003000930060071002030090000070100450000068309010502070049000081302009,518497236726183954934265871162538497893674125457921368349716582275849613681352749
000009320400801005900672100001000749007320506000090008083005400750060001209748000,168459327472831965935672184321586749897324516546197238683915472754263891219748653
007308096356004200004001000090000004003025180160070502700180060020900045800000700,217358496356794218984261357592813674473625189168479532745182963621937845839546721
609200000200070341000038000700860500008009070060400002050090067400003010871025009,639241758285976341147538926714862593528319674963457182352194867496783215871625439
200030500000206809600957100000005002008070300905182070000090006106800400593700010,219438567357216849684957123761345982428679351935182674842591736176823495593764218
000350010006809003450200708000048900700005200861000000129000570045060800070090030,987354612216879453453216798532148967794635281861927345129483576345761829678592134
005000004600020050430980000002306907003010680540007201060000190310009508800730002,925673814678124359431985726182356947793412685546897231267548193314269578859731462
003600100007023040460890200050070600100000032200501980089004700615030009000016008,823647195597123846461895273958372614176489532234561987389254761615738429742916358
960000004003801205001070300084150000057062090000080020005017800049003106700600053,968235714473891265521476389284159637157362498396784521635917842849523176712648953
007903002865010000002400700300105000000000209001897600109040850600000003570081040,417963582865712394932458761396125478758634219241897635129346857684579123573281946
003015800500000021010368004600030590300402006081000007007050200420009603000004070,743215869568947321912368754674831592359472186281596437197653248425789613836124975
010000600507040039004302007800961020000000970060074000005006200200080594109030008,318759642527648139694312857873961425451823976962574381785496213236187594149235768
010000305306840000004905801000090078905002400200603000408026900670050103000070020,819267345356841792724935861163594278985712436247683519438126957672459183591378624
015300000090000002300080560087061400200000005030075089070104000906050710001027038,615342897798516342342789561587961423269438175134275689873194256926853714451627938
009060300040700015000802009600028000750004001100300490010000607405217030080950020,879561342246739815531842769694128573753694281128375496912483657465217938387956124
006050103805903000200001000502700090908000461040800700000200006001568040007040235,796452183815973624234681579562714398978325461143896752459237816321568947687149235
050007010008053700093000506030200009140000025006470008000349060270006040000080001,652897314418653792793124586835261479147938625926475138581349267279516843364782951
005008400420000017780300000040710056302090000060045900009002600016900305800051002,695178423423569817781324569948713256352896174167245938579432681216987345834651792
200607040015900700800043002706005800002000075080400910051280030000000600070394000,239617548415928763867543192796135824142869375583472916951286437324751689678394251
000306800140000370500900002290001000005080006000574098602093004030700015910008020,729346851146825379583917462298631547475289136361574298652193784834762915917458623
701040000000800004803059001100005260005003049400120073000000050089270300206008090,761342985952817634843659721137495268625783149498126573374961852589274316216538497
570000004000082100902703608100906045007001003400028060005610030830090000020000097,578169324346582179912743658183976245267451983459328761795614832834297516621835497
083500079900000600450760010070052980061004003005800704000197400106030000000400052,683541279917328645452769318374652981861974523295813764528197436146235897739486152
060500004903000000018043096700021350090650000000008010020016703004200080009870500,267589134943162875518743296786421359391657428452398617825916743674235981139874562
003204900650000000700060108009608003010040027805307600001000070000030504028059010,183274965654891732792563148279618453316945827845327691531486279967132584428759316
603047000007090800000300104805000607000002010060871430400020081050906702200580300,683147259147295863529368174815439627734652918962871435496723581358916742271584396
507900608020005000060810009006700900840021076701080320002046000090003815300000000,517932648928465137463817259236754981849321576751689324182546793694273815375198462
000000370054102008082900000000001004400356000809200650060038097900004031500700280,196485372354172968782963145635891724427356819819247653261538497978624531543719286
004012309080007120000800706603504000009230050720900000368050001007006008100003904,574612389986347125231895746613574892849231657725968413368459271497126538152783964
000100000031000705904070806090008053005002400870006100010300002000800567026049080,687195234231684795954273816492718653165932478873456129518367942349821567726549381
109074605800600000706890203080009000307060120005020039020000014001530806000047000,139274685842653971756891243284319567397465128615728439523986714471532896968147352
065000001004803090973005046021080003540020000000070600008600057700400010000130908,865749231214863795973215846621984573547326189389571624138692457796458312452137968
004000108075390060060000090020006000400030719701048500007150000908402030250800400,394627158875391264162584397529716843486235719731948526647153982918472635253869471
678200000000609025020000071900506040415090000200000003003000004150720908800014307,678251439341679825529438671937586142415392786286147593793865214154723968862914357
004010002390500100000870360013000400076000005020697800062000530708405900000102080,684913752397526148251874369913258476876341295425697813162789534738465921549132687
400082053200100040896050007502000070000360209080020400050010090104507038600000002,417682953235179846896453127562948371741365289983721465358216794124597638679834512
090700102400030700501060930010002000023040600007300085060890300000401009250070804,396758142482139756571264938615982473823547691947316285164895327738421569259673814
000106020420000500031590600009017003500030007010060980007004290008350040160000800,975146328426873519831592674689217453542938167713465982357684291298351746164729835
408010090250370600160082705010620000080005309000800410900063800700400160020000030,478516293259374681163982745314629578687145329592837416941263857735498162826751934
607015000400008050010900406800076003009000000200300507045030820036201000080090301,627415938493768152518923476854176293379852614261349587145637829936281745782594361
206400730070000000080001006004072093000006105718030040005014000300650089620900500,256498731179365428483721956564172893932846175718539642895214367341657289627983514
600820070003045809700003005060001403000270080245006100010000000009502600080630904,654829371123745869798163245867951423931274586245386197316498752479512638582637914
006003400509010030000800052405906001000700800920400670340000000600020908000605003,216573489589214736734869152475986321163752894928431675342198567651327948897645213
801300000000090507305002000200001480019780063403605009120500070030006902006070008,891357624642198537375462891267931485519784263483625719128549376734816952956273148
000500001260018400090004638630401070000005904080270003423600500700000200800950007,348569721267318495591724638635491872172835964984276153423687519759143286816952347
500000900040602038300005027009800040000200605068004100010483090702900004000700056,527348961941672538386195427159867243473219685268534179615483792732956814894721356
