034080071860005000900270360090500007002401900310000200008900104000006002070340085,234689571867135429951274368496523817782461953315798246628957134543816792179342685
000561002020080400089400000900003706052047081710020000060018004300070200004000603,437561892126789435589432167948153726652947381713826549265318974391674258874295613
000941000609700005000050030005000870002009164040863002031005027000000408050286000,523941786619738245478652931965124873382579164147863592831495627296317458754286319
050270836000600490103490700002105003000000608809307020408010065070000200500039000,954271836287653491163498752642185973735924618819367524498712365371546289526839147
080074600502000300000010078030006004005009007800140250200003409710080006009050082,981374625572698341643215978137526894425839167896147253258763419714982536369451782
380004001170090005000306900400680052028000709000025000052008370600049510004070006,389754621176892435245316987493687152528431769761925843952168374637249518814573296
900250040046307200080090001001020600030000700000501038059170003000000027002806490,917258346546317289283694571891723654635489712724561938459172863368945127172836495
100040032000007400680903001720050086046301705830000009000600904509800010002005003,197548632253167498684923571721459386946381725835276149378612954569834217412795863
609100073080060100002003004800210030905078060030940510740000050001037900006500200,659124873483769125172853694864215739915378462237946518748692351521437986396581247
029136008000000000167059002605900010710065080003402005000004900304000007080020560,429136758538247196167859342645978213712365489893412675276584931354691827981723564
608107000001005004090008620037694210502000007000000030004203508006800003100570090,648127359321965784795438621837694215562381947419752836974213568256849173183576492
083570000020300070000049000900160850062008400001000030000007301300250647104080900,683572194429316578715849263937164852562738419841925736256497381398251647174683925
300600901001000008060082050070500410040709503002300009104000800007050030690004102,328675941751493268469182357973528416846719523512346789134267895287951634695834172
012700600048001700700408009030692870100005000000000063007014020200380050501009046,912753684648921735753468219435692871176835492829147563367514928294386157581279346
000031852000860100300400007075000430026000000804790015401605000009080070060200004,647931852592867143318452967975128436126543798834796215481675329259384671763219584
730000040090002138106050009271080900008006010060090080040901206003700000500200004,732819645495672138186453729271584963958326417364197582847931256623745891519268374
630900020100050000009300700007015080450000207281004900000040063040070590300806001,634987125178452639529361748967215384453698217281734956712549863846173592395826471
000000452502098000460070900000047800170032009006000005080000023905026180704001006,897163452512498367463275918259647831178532649346819275681954723935726184724381596
379020010050830206000007900620010507037002041004005008190000005000394000800601030,379526814451839276286147953628413597537982641914765328193278465765394182842651739
200070903100046870085001000806027000030800240900000300007405160400010009009000052,264578913193246875785931624846327591531869247972154386327495168458612739619783452
007090286060021009050000140000008000000014003903000700001067004072500860480032005,137495286864721539259683147615378492728914653943256718591867324372549861486132975
906000005028094700700003100060001324310060000087200050053900800000050090204078060,936817245128594736745623189569781324312465978487239651653942817871356492294178563
080400096000008007025600010009005002050096400100340080700800531060200708004037020,387451296641928357925673814439785162258196473176342985792864531563219748814537629
000100000045309680307680400526007000030500297004008000053000706000000900108496003,689145372245379681317682459526917834831564297794238165953821746462753918178496523
001060500409008003200053090084500002000090060013800000000030005760900034000127980,831269547459718623276453891984576312527391468613842759198634275762985134345127986
002000008700035906064007210000069000040000103209800500000600000013024070590108004,952416738781235946364987215175369482648752193239841567427693851813524679596178324
100300000009065082020407610061209750308000090500000004005070000080602030007904128,156328479749165382823497615461289753378546291592731864215873946984612537637954128
001203740002007059005098020910000507000001380400360000360500278078400691000000000,891253746632147859745698123913824567256971384487365912364519278578432691129786435
902306100340070800705008009010000002000000954006582000050020000000060308230147096,982356147341279865765418239513794682827631954496582713659823471174965328238147596
710080900002400030060002000080094020090605007503007060000000008026019300439060205,714386952952471836368952741687194523291635487543827169175243698826519374439768215
604050007070020300900800010000075080830100904402009000000008065095710030006034102,614953827578621349923847516169475283837162954452389671341298765295716438786534192
000100070065904000000032009680090005300007082071005004007806090092510000400020853,923158476165974328748632519684291735359467182271385964537846291892513647416729853
030001002000870691700004500400086200027930800506400003050302070000500480619000000,938651742245873691761294538493186257127935864586427913854362179372519486619748325
007000000540062000390580410050010098180004067970300002800400209400030780031020000,617943825548162973392587416254716398183294567976358142865471239429635781731829654
007060000394000060060709850700450001000020900803100720102800000050630104400000380,587263419394581267261749853729458631615327948843196725132874596958632174476915382
010400090007006048090010700000670320000030000180925070500082400401300050806500032,618457293357296148294813765945678321762134589183925674539782416421369857876541932
734080001001020000650009087090070800125003040000900603500310024000600000800040305,734586291981724536652139487396471852125863749478952613567318924243695178819247365
001360708004000105800000090900670020052800006037054000080000050020981003006520001,591362748264798135873145692918673524452819376637254819189436257725981463346527981
037006090126009403005070108010750002000032506400000000090017300500004680000090001,837146295126589473945273168613758942789432516452961837298617354571324689364895721
305600008040010702020009053200006900103700000670820001000000204800347500091000600,315672498948513762726489153284136975153794826679825341537961284862347519491258637
050064000027000140100079003301600029000800057680000310009002700000591060408030000,853164972927358146146279583371645829294813657685927314569482731732591468418736295
002300708050016400900000062400007803591800000307605000030000097060041005000960020,642359718758216439913478562426197853591834276387625941134582697269741385875963124
034000600600008001500900740000400000209160030807200065000003058790050120108602004,934571682672348591581926743365487219249165837817239465426713958793854126158692374
241003607000004000005080109070506200410390006030700890007002000893070010600010050,241953687789164325365287149978546231412398576536721894157432968893675412624819753
000000006406180200350040170070020004013000090200905800009073080708506039000400005,187352946496187253352649178975821364813764592264935817549273681728516439631498725
940700003006008700003050020680000000070046059024130000800000075130020908000501062,948762513256318794713954826689275431371846259524139687862493175135627948497581362
087105096090006752060004300540760009030000104001030870970000001002000000000890023,387125496194386752265974318548761239739258164621439875973542681852613947416897523
200003100000070406000000098090000040301780050804019020402031007073006900056820000,248693175519278436637145298795362841321784659864519723482931567173456982956827314
000400036300170005240500090003046007001087240900015300506000000097030082080009610,715492836369178425248563791823946157651387249974215368536821974197634582482759613
000009008950160400340800100000008700701000560600002900020040670003500010105297030,216479358958163427347825196592618743781934562634752981829341675473586219165297834
000570010008002004040908605500306200231040000000000079700003090096100800312805060,623574918958612734147938625579386241231749586864251379785463192496127853312895467
608200050000090070500034908903081020001000004800700690400006300250370109000102760,698217453134895276572634918963481527721569834845723691417956382256378149389142765
400200600300800205020409037610007008085012000700908500509000000008603002034700010,457231689391876245826459137612547398985312764743968521569124873178693452234785916
209600047070021000038000060300400070091058000506039002400000503020007091010805006,259683147674921358138574269382416975791258634546739812467192583825367491913845726
034009800700004001509600020002081007000720039600000500900405308100800760006300094,234159876768234951519678423392581647485726139671943582927465318143892765856317294
071300600800400200036950408090600750500079000042000063000008079000506120014020000,471382695859461237236957418198634752563279841742815963625148379387596124914723586
000002641040905008700000000035200060600050100209807300372008000001304002800600790,593782641146935278728146935435219867687453129219867354372598416961374582854621793
802065004005000310079000002080002400503009001021308750600754100000801090300020000,832165974465297318179483562786512439543679281921348756698754123254831697317926845
080360050200004390000000001010500200670091500030087004100006478068470030005030029,481369752257814396396725841819543267674291583532687914123956478968472135745138629
290003000000570400003601950060940001820050300050008072000100007430090105006000840,295483716618579423743621958367942581821756394954318672589164237432897165176235849
430710000080090073000006500300420900591008000200000681040000720010835060009040108,435712896186594273927386514368421957591678342274953681843169725712835469659247138
000319008700080052600007100000000090902105304843000600005900400060203870010006530,524319768731684952698527143156438297972165384843792615385971426469253871217846539
305070840008006902970140000000700004290000150130000000083200706000050090000061200,365972841418536972972148563856719324294683157137425689583294716621357498749861235
012657000050002100600900300800205400230000580007301090000740250980000060000160804,312657948459832176678914325896275413231496587547381692163748259984523761725169834
073000040900000200201650007000780900030140065054300820006900083017020409000510000,673291548985437216241658397162785934839142765754369821526974183317826459498513672
030640000000017048070082509500098037210000000000130600307900080020065710064000020,835649271692517348471382569546298137213756894789134652357921486928465713164873925
000950701000400020203870069100000000090208003472010580981600000504703200000005600,846952731719436825253871469138567942695248173472319586981624357564793218327185694
567100409020000000300026108930000056000768900400300012089057000102000500000002604,567183429821974365394526178938241756215768943476395812689457231142639587753812694
600100490009002070400085003010000000000390001830740062580670000004050086207009500,628137495359462178471985623916528347742396851835741962583674219194253786267819534
400008090100700856205390071010004000790205040003800209060517020007000600000020034,476158392139742856285396471612934587798265143543871269364517928927483615851629734
360001402000070019007000800006803004005460700108005900051208000900000200020930056,369581472582374619417692835796813524235469781148725963651248397973156248824937156
070000049436002000205000001800900063000507000900081050003800075001040090040036810,178653249436192587295478631857924163314567928962381754623819475781245396549736812
000804059000069070700520800024001000000000610580090302090730100012080096860000504,136874259258169473749523861624351987973248615581697342495736128312485796867912534
100948020070060500000175004018700200030500160400320005800009050000010406790002380,153948627974263518682175934518796243237584169469321875841639752325817496796452381
301098000900260300708045001002000008400610900000007620009100002007084065000000740,321798456954261387768345291672439518485612973193857624549176832237984165816523749
800501700090080300601007004000000900067390058400105020030600570170800002004003009,843521796792486315651937284315268947267394158489175623938642571176859432524713869
800600400056001003372905000009050010508204090040170080204783100100000200005000036,891637425456821973372945861729358614518264397643179582264783159137596248985412736
100090020007854306046000800050000100600009004002761005801040092900007538003006001,185693427297854316346172859759428163618539274432761985871345692964217538523986741
008520600700003002100006703503700006000408000076000409010850900604301020205000038,438527691769143852152986743543719286921468375876235419317852964684391527295674138
051039007080450000900060510600003950000740006208500400300070081000002040079610200,451239867786451392932867514647123958593748126218596473324975681165382749879614235
000060200097030506000700430500000000028917060316800004000053010841009000003600702,134568297297134586685792431579346128428917365316825974762453819841279653953681742
200047958000030406706000310082004007009560030000003100800150000094000000013008795,231647958958231476746895312382914567179562834465783129827159643594376281613428795
970004506006003010800050729032080090000600407080509000000700200314000000029040650,971824536256973814843156729632487195195632487487519362568791243314265978729348651
830401200009760400000002973105000020096004750000030000470680010000005040581000009,837491265259763481614852973145978326396124758728536194473689512962315847581247639
009014003025037800008500040700300008064000500090060721001695370047002090000000100,679814253425937816138526947712359468864271539593468721281695374347182695956743182
000098407300200000004005009908003050025600000470020060080310205006900803001040700,652198437397264581814735629968473152125689374473521968789316245246957813531842796
069050100017060020005008090046200708000903260030700400074601080000020503080007004,869352147317469825425178396946215738758943261132786459574631982691824573283597614
016007000049860700000300800020005163007080005104900280793004020500008041000200600,816527934349861752275349816928475163637182495154936287793614528562798341481253679
041020000300080501600000080084506300130900040269000007000007803500309700900041060,841725936392684571657193482784516329135972648269438157416257893528369714973841265
530070000090210008008009607260005900743001000000340001310800572000506080400000090,534678219697213458128459637261785943743961825859342761316894572972536184485127396
290080000000690700805304002700005010100900560030010049010037950002040803670000000,297581634341692785865374192729465318184923567536718249418237956952146873673859421
054021980000000050290000300730090001000502046006008009042780010908460075360000000,654321987873946152291857364735694821189532746426178539542789613918463275367215498
400069000920010360000300407208407006610000900030620005007008010041005023090030080,473869251925714368186352497258497136614583972739621845367248519841975623592136784
050460070100090004009027050803000140900008560002674030300009800004203000791500000,258461379176395284439827651863952147947138562512674938325749816684213795791586423
030401000060370000521000000400705091000009850000640702006020409800560270007090008,738451926964372185521986347482735691673219854195648732356827419819564273247193568
040002700005980001837006509980003650300040908700200010602000000010520060008700034,149352786265987341837416529984173652321645978756298413672834195413529867598761234
246003000031470500700000009008730002009602050400800710007049600003001207050080001,246953178931478526785126439518734962379612854462895713127349685893561247654287391
000806509097020010600500240410739006050000321800000000040900087106005000030002400,324816579597324618681597243412739856759648321863251794245963187176485932938172465
000000060452009007867540010009000050008972003200010000600098300730200081905700400,193827564452169837867543219379684152518972643246315798621498375734256981985731426
200450300580002097004000600053060700907040010000800003009080056070190200405000008,296457381581632497734918625853261749967543812142879563329784156678195234415326978
