017060003048020157900500800051000709030400528000003006000946300309200040200008070,517864293648329157923517864451682739736491528892753416175946382389275641264138975
070028000000000200008354670000031405160005080240009030730040506010060003082000094,476128359351796248928354671897231465163475982245689137739842516514967823682513794
023081500000200010100954000200073090001000008750060004500806040060709020982040100,423681579895237416176954382248573691631492758759168234517826943364719825982345167
002000000543700108091005026035008002900600070700010540080037600000002319000500000,672981435543726198891345726135478962924653871768219543289137654457862319316594287
001054009067000004000309700090600002000030470056201080400590001680003200020870005,831754629967128534542369718394687152218935476756241983473592861685413297129876345
080000100090150024032704008840093007700000000000506001900020085056089703000310960,584932176697158324132764598841293657765841239329576841913627485256489713478315962
000064900908000002300002075005008036040700000120935040430000607080073120600501009,257864913918357462364192875795418236843726591126935748431289657589673124672541389
007938200900600100004072030000026950005740006078000300459001080003405620020080000,517938264932654178864172539341826957295743816678519342459261783783495621126387495
604700501000009200780401003008300000040605090109070006000000070071020809053080624,694732581315869247782451963568394712247615398139278456826943175471526839953187624
400000800700502609080100532820070000900301780000006091506200003004009050070030906,452693817713582649689147532821974365965321784347856291596218473234769158178435926
009001400214068050063900700070034600058020370400509002800605007000010860090203000,789351426214768953563942718172834695958126374436579182841695237325417869697283541
700000890020070304685030000040810007302950006090206501000020153000700040061090200,734162895129578364685439712546813927312957486897246531978624153253781649461395278
900030080074000102000504060050941020860002400000000903007406301301059007640700008,926137584574698132138524769753941826869372415412865973297486351381259647645713298
060097805005100490040006000920000040007003610610080200000045000082370000500600927,261497835875132496349856172928561743457923618613784259796245381182379564534618927
002003040908050007047060009000031706109406820050800030000007500800902460023080001,512793648968254317347168259284531796139476825756829134691347582875912463423685971
305000000406057001820604700089200003000010650007860209010080907002930004040000010,375128496496357821821694735689245173234719658157863249513482967762931584948576312
960700012800092040203100000140800600085603400000000007072305009000040730501000080,964738512817592346253164978149857623785623491326419857472385169698241735531976284
940760000001403208000000090094007300130000526005002040608031009000000805573904010,942768153751493268386125794294657381137849526865312947628531479419276835573984612
000608002049150060600070539700080410026030008001506003002900070090027000530000200,375698142249153867618472539753289416426731958981546723862915374194327685537864291
000000974006800530530020001000102000468530000170600090005483060890001700003000420,281356974946817532537924681359172846468539217172648395725483169894261753613795428
260000907034000000800504030700050100091080203023700560907042000000600080040391050,265138947134967825879524631786253194591486273423719568957842316312675489648391752
049035006007040030100008702820503100000072000304000090010609008452000001060100350,249735816687241539135968742826593174591472683374816295713659428452387961968124357
507000640900020001301508000230070080000900253006400100075003060400061720080004009,527319648948627531361548972239175486714986253856432197175293864493861725682754319
000803060010479003007000050162900070009080500500104300453600809906000100080002040,294853761615479283837261954162935478349786512578124396453617829926548137781392645
020036705000140923009805000072090400000070508860003009000000001394060000510204000,421936785658147923739825164172598436943672518865413279287359641394761852516284397
900008305000016007427090000002074630004500020308060900780003460000001000059200800,916728345835416297427395186592874631164539728378162954781953462243681579659247813
000058000710000400980600270070035620060820904034009000100506000020040805403001709,342758196716392458985614273879435621561827934234169587198576342627943815453281769
070000000904230060016900740602170090090040300000500214020090087003456009100000003,278614935954237861316985742642173598591842376837569214425391687783456129169728453
008000536005009100200403080070001000604708201000960807001004002960010050040320000,498172536735689124216453789879241365654738291123965847381594672962817453547326918
090163050002750600050800430006009100010000542208000070020031000004006809709400010,497163258382754691651892437576249183913687542248315976825931764134576829769428315
004510008200406930007203506000320005870090310009008070920050460005004083080000000,364519728258476931197283546641327895872695314539148672923851467715964283486732159
004680000056000007000043208470800301501004006090030520780490013200100905000060700,324687159856219437917543268472856391531924876698731524785492613263178945149365782
000508790040070350001906004130000028200084003609005100800602000492010600005003800,326548791948271356571936284134769528257184963689325147813652479492817635765493812
009534000800970001000001020051800407040300602600009000760000200008100354405090008,129534876836972541574681923351826497947315682682749135763458219298167354415293768
000300815400082009000670030700001603309050104000200078050800200140006000627009500,276394815435182769891675432782941653369758124514263978953817246148526397627439581
750090108000074060000200093486910002030086019000000500109000004540800020827030000,752693148398174265614258793486915372235786419971342586169527834543861927827439651
012000640400650100003700280057893000006000319020000000090407000000006020084019570,512938647478652193963741285157893462846275319329164758695427831731586924284319576
090410000203000100040308507700502860050800004600090005001076000030005280002900401,895417632273659148146328597714532869359861724628794315481276953937145286562983471
000200950060003000207860401300040000070500048800039207120900060004127080050080004,483271956561493872297865431312748695976512348845639217128954763634127589759386124
000006087709000010010082005000403750092050008000010004073040502600300040150009003,245196387789534216316782495861423759492657138537918624973841562628375941154269873
057009004980200710100000600001098000203100095000700046005083020300420000006050407,657319284984265713132874659461598372273146895598732146745683921319427568826951437
090080145804020063000100000350046070000001038600090000002760001030250000580000906,293687145814925763765134892351846279429571638678392514942768351136259487587413926
100050070095400801004023650000096300070000020608240000012600580300000960840570200,163958472295467831784123659521796348479385126638241795912634587357812964846579213
736004008100008090094100650500270013000340000200900005400010200010050879309620000,736594128125768394894132657548276913961345782273981465457819236612453879389627541
120000000740010803000300004098175400000006020016902500064090070370080159000700008,123468795745219863689357214298175436537846921416932587864591372372684159951723648
000070001008106500790030240060009003003800070200005400300200054910000080026087010,652974831438126597791538246865749123143862975279315468387291654914653782526487319
900000040031960005508000062000000490345010007210076008000080050020507006000304789,962758143431962875578143962687235491345819627219476538793681254824597316156324789
209760050030080490140000070620570000000600001005043080701020005000309060400850902,289764153537182496146935278628571349374698521915243687791426835852319764463857912
006508100800000902251040700420900010000070623305000000000003845009060070784002309,976528134843617952251349786427936518198475623365281497612793845539864271784152369
005170000280000600034000905000581207809006400010400003720600008068005130900340000,695174382287953614134862975346581297879236451512497863723619548468725139951348726
010290007794010002003000800005043090000006308007100506130050004002800060060970020,816295437794318652253467819685743291941526378327189546139652784472831965568974123
003008050080200104000760092500010300600002018940807025000405200010000940070980060,293148756786259134154763892528614379637592418941837625369475281815326947472981563
003600040400003682002170000071095000060008250900420300130500008000049006800030970,593682741417953682682174593271395864364718259958426317139567428725849136846231975
080019430003402760007600001090507102800300006600000940100000007052038090009205000,286719435513482769947653821394567182821394576675821943138946257752138694469275318
010009650057408020200060080580000419000000800390082060170300040020007300906204100,813729654657438921249561783582673419761945832394182567178396245425817396936254178
000057983700010006094800200402009060000070001083200004020040050015003079600008030,261457983738912546594836217472189365956374821183265794329741658815623479647598132
176400008200009005000060430501700690702000004400018000000042300009800506805030102,176453928234189765958267431581724693762395814493618257617542389329871546845936172
170008000000097180205000940040701030006500000790300006030940500800100002010035064,179458623463297185285613947548761239326589471791324856637942518854176392912835764
701000050080600320600090800153000000000001072900860000096400080005980130004573006,741238659589647321632195847153729468468351972927864513396412785275986134814573296
629070000400021005700003006830040000064000910000802070300005829018000500500904063,629578431483621795751493286837149652264357918195862374346715829918236547572984163
009001032048095100000400005403260070020709601000000800060040000304007010750820300,579681432248395167136472985413268579825739641697514823962143758384957216751826394
730080000200301009500240600060010500089000237402000100004906752600008000005074380,731689425246351879598247613367812594189465237452793168814936752673528941925174386
400009002720500600060803710000000563907000000040102008001048095030060200204700080,413679852728514639569823714182497563957386421346152978671248395835961247294735186
739000040000200100042063850600020014050039082070408060500107000086050000300000029,739581246865274193142963857698725314451639782273418965524197638986352471317846529
004080003700192800600700090510900027090000164400030000200008001150620070006307950,924586713735192846681743295518964327392875164467231589279458631153629478846317952
204600001000019730007080500020001094800530600006200000060003009900850070351047200,234675981685419732197382546523761894819534627476298315768123459942856173351947268
000400000001500062806090003908002010062014380000670094135007000090005608000230007,359426871471583962826791543948352716762914385513678294135867429297145638684239157
500804000000706180000000659794003002031000740052010006040230500000000937009600020,516894273923756184478321659794563812631982745852417396147239568265148937389675421
010300045086900007034250901600024000007003120800700300000070009005009060240018050,912387645586941237734256981693124578457893126821765394368572419175439862249618753
900802000010000570006370010204060801051900400630050007020006090140087030003401000,975812346312649578486375219294763851751928463638154927827536194149287635563491782
000940070408500601006071250905000800103000047020415000000020700201083009000609003,512946378478532691396871254945367812163298547827415936639124785251783469784659123
007561403000070080200400001000004600036290008951003007043809005572300000600000010,897561423314972586265438971728154639436297158951683247143829765572316894689745312
012009007400000830000008201050081400307500600000360050040100300600050780905002060,812639547479215836563748291256981473397524618184367952748196325621453789935872164
070092008900608000860070190000000003405001087000254060700100040130040006002730005,571492638923618574864573192216987453495361287387254961758126349139845726642739815
602000500000090083005027000080401700400008130750002460943005007007360800200010009,692843571174596283835127946386451792429678135751932468943285617517369824268714359
010500904800930002700002016305724000000090040020108073007016500690000830002800001,213567984846931752759482316365724198178693245924158673487316529691245837532879461
000085027900001500038000400060190058700030000801206730014000000300902670007054302,146385927972461583538729461463197258729538146851246739214673895385912674697854312
020070400509000001000053802006008100400031009057069038048600700230040010060002000,823176495579284361614953872396528147482731659157469238948615723235847916761392584
017069005200000030480307006001000029930250007000040810000098340520004070890030001,317469285269185734485327196641873529938251467752946813176598342523614978894732651
040700052360050790080600010503000000000102000094037106008006020007010805020090304,149783652362451798785629413513968247876142539294537186458376921937214865621895374
600070032000840070059060100090001000348900705120000068032000800005300097000450026,684179532213845679759263184596781243348926715127534968432697851865312497971458326
901430050460070102050102096007000060000908300640000208030700945000800000102005703,921436857468579132753182496387214569215968374649357218836721945574893621192645783
470300600000050820908042010301080590509073046600000080060000000700105200013029000,472318659136957824958642713321486597589273146647591382265834971794165238813729465
001902700400350096050480000030000600007108005824096030700010560003840000009000248,381962754472351896956487312135724689697138425824596137748219563263845971519673248
040006092060001430200890007401020003030905001500080000890732060026000508704000000,147356892968271435253894617481627953632945781579183246895732164326419578714568329
580240063049001702007600400700583001003000005000170090068005009010900247000300080,581247963649831752237659418794583621123496875856172394468725139315968247972314586
300109005050307806006000020800036970012050300000400000507002000209843010001900680,328169745154327896796584123845236971912758364673491258587612439269843517431975682
500000001080520067069301402001490080004605300070000205038017000200800000400003690,542769831183524967769381452351492786824675319976138245638917524295846173417253698
007430102900060080450290000000000000348600700026050401500083020079000003010027605,687435192932761584451298376195374268348612759726859431564183927279546813813927645
890370000000020130700400200257800000060209003080010004600540019930000076071600050,892371645546928137713465298257834961164259783389716524628547319935182476471693852
896240001000006025040730000001009306060000040050020107005360800003004059720508000,896245731137986425542731968271459386369817542458623197915362874683174259724598613
007003094048071005650080700500107203090005000782600100006002040030010520010900060,127563894948271635653489712564197283391825476782634159876352941439716528215948367
903000000060090405040081700102005084098003000457600029000020003700000108010069057,973456812861792435245381796132975684698243571457618329586127943729534168314869257
740015006009000540200008030300650000007809160050247008600000804030000057084020900,743915286869372541215468739398651472427839165156247398671593824932184657584726913
820037006009000345000060000090300018500049600007180200310090074605708000000050800,824537196769821345153964782296375418581249637437186259318692574645718923972453861
020000000800030796907005002050600041006100830004790200000000580013000009002460003,321976458845231796967845312758623941296154837134798265679312584413587629582469173
107300580046000000500200490802700001300010058000069007920000700008904305630050020,197346582246598173583271496862735941379412658451869237925683714718924365634157829
060200401309500006000010500825190004000800070090064000200730008003005600741009030,568273491319548726472916583825197364634852179197364852256731948983425617741689235
300407012900030006502008704000260370061000009208075000005304100040009860007010090,386457912974132586512698734459261378761843259238975641695384127143729865827516493
030060007000501490610702008260300040800095070900080032450008910000074000182000000,534869127728531496619742358265317849843295671971486532457628913396174285182953764
