012397000000000005306004007070940001463070500900600080020083490004701800035000002,512397648749816235386254917278945361463178529951632784127583496694721853835469172
012803000530000201400050007040260000960481503000700009000090010083020604650300080,712843956538976241496152837345269178967481523821735469274698315183527694659314782
340060107000900068005470002010287000807040003002006000200053609508000700190000040,349862157721935468685471932413287596867549213952316874274153689538694721196728345
060190870050070003002650400006387900900000100248000030000006090371420650004508020,463192875159874263782653419516387942937245186248961537825716394371429658694538721
050020047300006000008370026000510800601800003200034009013450000900001000070060901,156928347327146598498375126739512864641897253285634719813459672962781435574263981
600009310800030200000700058500007032060410800249050000000503100051290600907080043,675829314894135276132746958518967432763412895249358761486573129351294687927681543
720109000348070000001000240200800000680210503410067900060050098000901306050006004,726149835348572619591638247237895461689214573415367982162453798874921356953786124
900001058300246910007800300400609003001002600020084070000000091706050280504900000,962731458358246917147895362475619823831572649629384175283467591796153284514928736
070019300085003420069802000000070140021958760006000000003600270900204008050180000,274519386185763429369842517598376142421958763736421895843695271917234658652187934
200000051480010030605000700001630020098700600006000478007004062030250080000001905,273469851489517236615823794741638529598742613326195478157984362934256187862371945
405300100000009030070260090906150870000400200021037600007000014050020900830704060,495378126612549738378261495946152873783496251521837649267985314154623987839714562
093201000708040000400005690204900050060000471080030260000790300001800700520060040,693271584758649132412385697274916853369528471185437269846792315931854726527163948
670300001901605003308900002064000007000006280000230509002080040780090300053700010,675328491921645873348917652264859137539176284817234569192583746786491325453762918
009400000050900760037006020001800602200065003700309008000054031020700506048010090,619472385852931764437586129391847652284165973765329418976254831123798546548613297
080020070001600004306090280502089007090005003048100002910040050700003400000576010,489321675271658934356794281532489167197265843648137592913842756765913428824576319
060007320309400050702080010038500900020064003005090004017009000590028600800030007,164957328389412756752386419438571962921864573675293184217649835593728641846135297
806412700070006050041000000600809000520000308100270040080090103305700000009048600,856412739273986451941537862634859217527164398198273546482695173365721984719348625
200104030900000560305020074040800090060031007800007000050006043007200089090043001,276154938914378562385629174741862395569431827823597416152986743437215689698743251
200000900034060085700301000027005803610000209003800047001940526000753100900006000,286574931134269785759381462427695813618437259593812647371948526862753194945126378
010520607064001008300000002030080000528069000090702001000800105007000300000354090,819523647264971538375648912731485269528169473496732851643897125957216384182354796
000000534080070902400600000200010406009706805001500700037400200100003680958000001,716892534583174962492635178275318496349726815861549723637481259124953687958267341
000800075920000634010004000083950001000403002509000080107508460406730090030000500,364892175928175634715364829283956741671483952549217386197528463456731298832649517
700031000500208004030005601005700960200000008346050000010060730090083052000920100,724631895561298374938475621185742963279316548346859217812564739697183452453927186
040710200050008106700009054820000000103024087000900630010456000560000041080037900,648715293952348176731269854826573419193624587475981632319456728567892341284137965
008700401136250070704003026300567000400908700005000800000000209901040080067010050,528796431136254978794183526389567142412938765675421893843675219951342687267819354
304020000001007069090800370010050020906080000200360805400501002000040537000690400,374926158581437269692815374813754926956182743247369815438571692169248537725693481
002650004000000080736009100600020350090078401300001070020106800010840230004007009,182653794459712683736489125671924358295378461348561972523196847917845236864237519
002016300370020000005009020600007100028005400010040087180000039900638000004900070,892716345371524968465389721643897152728165493519243687186472539957638214234951876
050039002108702030000600010000010508900206340040008076003820009096400700507000180,754139862168742935239685417672314598985276341341598276413827659896451723527963184
000002000010630009290040830005001000003090071700380400630004058159000206080060007,378952164514638729296147835945721683823496571761385492637214958159873246482569317
603000070000006800074800020050047980012090030400602005800905400500001003009763100,683214579925376841174859326356147982712598634498632715831925467567481293249763158
052000709400890001007040030310002007070081600080060093008070214000006000049020000,852613749463897521197245836316952487974381652285764193638579214521436978749128365
000108000093400610000050203700000500500070029201069830410803700050002000380040096,625138974893427615174956283739284561568371429241569837416893752957612348382745196
013008050500602481420900007800506030000300240069070000000400025080090000756800100,613748952597632481428951367842516739175389246369274518931467825284195673756823194
032140007400070038050920060000000000708300100020764000500002940901600050086005003,632148597419576238857923461394281675768359124125764389573812946941637852286495713
307008006000400850040012000206500000903800004010009203890047000050290130602000007,327958416169473852548612379286534791973821564415769283891347625754296138632185947
050000003200108074730960100070800420900050001106002709000003600300480010020790005,851274963269138574734965182573819426942657831186342759417523698395486217628791345
467003920359700860000000000031500204900010000500407008700004610080926430002001000,467183925359742861218695743831569274974218356526437198793854612185926437642371589
603009701070086050008000004000500060194300000200070408030704500059610020010020903,643259781971486352528137694387542169194368275265971438832794516459613827716825943
003807046000150270090006501006000008405603000020594000300075802740000090012030700,153827946684159273297346581936712458475683129821594637369475812748261395512938764
008490650302000001000060030100340000004020876089500040050010207640200085007009000,718493652362785491495162738176348529534921876289576143953814267641237985827659314
009004120070000045060320908010243700006001000305600804030156009800000007002809400,589764123273918645164325978918243756746581392325697814437156289891432567652879431
207006010003004970000080062000300507508102040094008300001097030600405100080020004,247956813863214975915783462126349587538172649794568321451897236672435198389621754
002009046003250000800064500500120900908000723074000000005080109301500070400706030,152879346643251897897364512536127984918645723274938651725483169361592478489716235
300002007070800650006091080200003000000050704401620009020010805039000010065480300,318562947972834651546791283257943168693158724481627539724316895839275416165489372
910600540005000200260090037070400806100302000002075900059037600080000094300080001,917623548835741269264598137573419826198362475642875913459137682781256394326984751
010000000806950740079003020100406000340081500002000800400800030920700105005300062,214678359836952741579143628158496273347281596692537814461825937923764185785319462
000000850040792060610080007870009200201000400069001008005070009183004025700500310,937416852548792163612385947874659231251837496369241578425173689183964725796528314
300000904098012005060070300020000000500001408800067019030058172702034000089000500,317685924498312765265479381921843657576291438843567219634958172752134896189726543
500200400030010008600074095043087010008090037006105009700800001005040000090056320,519268473437519268682374195943687512158492637276135849764823951325941786891756324
690000010028170000000964300002607405004500900071000082000030806050400090030095207,693258714428173569715964328982617435364582971571349682249731856857426193136895247
000000900890070041003906500080000096200043050705208100400800703600025000002710080,527431968896572341143986572384157296219643857765298134451869723678325419932714685
000850940060700002003090100058002061014005007002069000700020003041000058005004700,127853946569741832483296175958472361614385297372169584796528413241937658835614729
090100045004037006200080073060001050005020190300000004050609001109054080600003020,793162845584937216216485973968741352475326198321598764852679431139254687647813529
004020001005607040003000690820039057700000800500001004010002003000508000602703910,964325781185697342273184695826439157741256839539871264418962573397518426652743918
000031089008024070050806000030000940200700001090065307380219006507300100020000400,472531689618924573953876214736182945245793861891465327384219756567348192129657438
004006700150087060006304280209000406000040070080010050078090003003700819020005000,834126795152987364796354281219578436365249178487613952678491523543762819921835647
007000801600503020924001007040090200809700310030065040000800600000000054091200700,357429861618573429924681537145398276869742315732165948573814692286937154491256783
702500031000400805080002400200060700310907000608010004000105060103089002009026008,742598631936471825581632497295864713314957286678213954827145369163789542459326178
500986000041020006870430050035260010280700000109000003000104200007000560090008047,523986471941527386876431952735269814284713695169845723658174239417392568392658147
703000080400350092190068070000020004086730009010900500820095003005800600037042000,753219486468357192192468375379521864586734219214986537821695743945873621637142958
504600023083002000000017005096030070405090000000004802001803246600100030070900058,514689723783452619269317485896231574425798361137564892951873246648125937372946158
800023590000500070010960003360015480040000620500070009920804050407001200100700060,874123596693548172215967843369215487741389625582476319926834751457691238138752964
920006300760000104305070000640850720200040090080037010800100507000390000050084600,924516378768923154315478962641859723237641895589237416893162547476395281152784639
003807000700490203000560190040008000009670450100305020095000700030000060408206510,913827645756491283824563197542918376389672451167345928695184732231759864478236519
005000306008601007000300029060020000012784500043900000700009008300005094080007610,195472386238691457674358129867523941912784563543916872756149238321865794489237615
320000010008040070000032904070980000260013500400065300690400100105670480000000060,324597816958146273716832954573984621269713548481265397697428135135679482842351769
008000490420086070507000006100020000000740308060900500940510007300860200050200913,638157492429386175517492836183625749295741368764938521942513687371869254856274913
071950006090830000300200140006010500400000072083060900902008307100000008045390060,271954836694831725358276149726419583419583672583762914962148357137625498845397261
040300060100002708007500904050706000920005400604080010000003090800017203760900580,549378162136492758287561934351746829928135476674289315412853697895617243763924581
019050300007300060005001980490006000000024500061708009100405200008000704300872000,819657342247389165635241987492516873783924516561738429176495238928163754354872691
609000001020800050470502306000003400501076800080290600000754002000001008390000040,659347281123869754478512396962183475531476829784295613816754932247931568395628147
004000253900075004103600000089000000700096001060840020000001082030059040207003900,674918253928375614153624798589132476742596831361847529495761382836259147217483965
891705400060010590700000000000029008300001060072600053650983010048000000009260070,891735426463812597725496381516329748384571962972648153657983214248157639139264875
507000436600207005001000290290508000806009074010400000050016708000000059400800620,527981436649237815381654297294578163836129574715463982952316748168742359473895621
806400000150030000200600789002001460034090052000000003760184300005029010000000897,896472531157938246243615789972351468634897152518246973769184325385729614421563897
010504079500200800000790003006030410020100005800000007365800720070020690049001030,613584279597213846482796153756938412924167385831452967365849721178325694249671538
001030058742050000050090604100700800400302001620400903000940230307001006080000090,961234758742856319853197624135769842479382561628415973516948237397521486284673195
010270509500000002870409003340005010006001800000627090030080405090013620008060000,413276589569138742872459163347895216926341857185627394631982475794513628258764931
800032000045006090079005806900000740180450002000301900008210500460000207000067014,816932475245786193379145826953628741187459632624371958738214569461593287592867314
036004200001008500400016080510300400682701000003020070725400096000100007090000040,836574219271938564459216783517369428682741935943825671725483196364192857198657342
050090300030401008007002001000150970904000060060800020002310500473900006081020400,156798342239461758847532691328156974914273865765849123692314587473985216581627439
090400200080070010003280795400930106010827000500006037007000040002564000160000083,791453268285679314643281795478935126316827459529146837957318642832564971164792583
700000150540007300000000096401270509000300070603951008900605040030008200006403007,762839154549167382318542796481276539295384671673951428927615843134798265856423917
046000007200010030090806000084020090002340106500007004060035200100700380705902000,846253917257419638391876542684521793972348156513697824468135279129764385735982461
000530920000070361040960700050619000079004250000007008003000007864000000002805009,687531924925478361341962785258619473179384256436257198593126847864793512712845639
900300728010060040005072090070208100004100000069500082702080409000000805030901006,946315728217869543385472691573298164824136957169547382752683419691724835438951276
200006143580000670016900000090000000004163000700020408300005010060074020905080034,279856143583412679416937582692748351854163297731529468347295816168374925925681734
047008006000430020008060950500007408309100600070302090601000700000200503800904001,947528316165439827238761954512697438389145672476382195621853749794216583853974261
005010309000004076623050800360042190001007035090800000050200004400086700800090000,745618329918324576623759841367542198281967435594831267156273984439186752872495613
600001590041000802003050000034019208020700100086003070209607000000300607000080450,672831594541976832893254716734519268925768143186423975259647381418395627367182459
020007005860010030504920010700503802006200900200080074000040500903100400050060087,129837645867415239534926718741593862386274951295681374618742593973158426452369187
000090601005302040400000280006000000030174902010830075050210007087065000091700030,823497651165382749479651283746529318538174962912836475654213897387965124291748536
030500692560430800081000000090010000000607040600908570000090700002005380800246051,437581692569432817281769435795314268328657149614928573156893724942175386873246951
000200700007069301420081000209530008080000040600008570030000019046302000502017000,961253784857469321423781695279534168385176942614928573738645219146392857592817436
007060300206001480300905001400378020820400073000090000042109000060000105130050008,917864352256731489384925761491378526825416973673592814542189637768243195139657248
420003060609070015005006400006702030080500907102000000700200300090015084040800692,427153869639478215815926473956742138384561927172389546768294351293615784541837692
080002470000090300065701002001400007920500830800600050604030091710060020003005000,189352476472896315365741982531489267926517834847623159654238791718964523293175648
070003910600800003020014008005090060480020070000308105209700000010900680360005007,874253916651879423923614758135497862486521379792368145249786531517932684368145297
007203040600140000500806109000310700703908006080005290109000300060400820820007050,917253648638149572542876139296314785753928416481765293179582364365491827824637951
