050197080000020390470003500860001400007000820100309060002900006500000040018604003,253197684681425397479863512865271439397546821124389765742938156536712948918654273
600000803008040100129600070010500000702300040050298000060025080400009020073061054,647152893538947162129683475816574239792316548354298716961425387485739621273861954
409000610010090580780310004000970026050100840960430700000003000200600900100720065,429587613613294587785316294841975326357162849962438751596843172274651938138729465
090000204006198070050206800000010020027539010004000300070300005802605049001004700,198753264246198573753246891385417926627539418914862357479321685832675149561984732
020068510000030049780100020308004000100500960009601700540802370806040100097000000,923468517615237849784159623368974251172583964459621738541892376836745192297316485
920008560000500400060701000054007009001420030780009100003050010006070204500006800,927348561138562497465791382354187629691425738782639145273854916816973254549216873
008035600026900001010000734030074260704000058900861000000729800100003020005600400,478135692326947581519286734831574269764392158952861347643729815187453926295618473
430000000010408702076001800000600004901087050025000300000200605800964030703010009,438726591519438762276591843387652914941387256625149378194273685852964137763815429
060059203000036780070208100095020000304010620001900804010000460806400000030002070,168759243942136785573248196695824317384517629721963854217395468856471932439682571
265008009800001070140050003000097054901040300004060082630200700070085000002309600,265738419893421576147956823326897154981542367754163982638214795479685231512379648
009000007320910406570400200052000040630080001007306800005030709000504302100708000,469852137328917456571463298852179643634285971917346825245631789786594312193728564
000100000000970850415800070900406015003209400008030200024750069600000700890001023,789125634236974851415863972972486315563219487148537296324758169651392748897641523
164009000009020500008710309300095800020006900500800071070043050400200003010080602,164359287739628514258714369347195826821476935596832471672943158485261793913587642
002537009060000000000908010090620007810000300006071040000049078384002090500100002,142537869968214753753968214495623187817495326236871945621349578384752691579186432
000000560127680009005070000040293000060008274001000030003001006970004805500820400,894132567127685349635479182748293651369518274251746938483951726972364815516827493
430000200100008650009070048005263100090005002307810004703600980000051000250900003,438596271172438659569172348845263197691745832327819564713624985984351726256987413
012000450006810000030400078000008901300500040007203060901070002050609003780050090,812937456476815329539426178625748931398561247147293865961374582254689713783152694
409000630000700010183200000510800000706010450028059007002030971000905200000008046,479581632265793814183246795514867329796312458328459167852634971641975283937128546
000067810790400500000508340806009005002080700040370100524006000039000020000901000,453267819798413562261598347876149235312685794945372186524836971139754628687921453
703001480480000079602000305007900043908200100000503200204065000000407500010009060,753691482481352679692748315527916843938274156146583297274165938869437521315829764
300060540007000018060701009000109000002085004105374000400000362001208090500900700,319862547257493618864751239746129853932685174185374926498517362671238495523946781
050210000690000081000300654007964000810007900005008073730490008000000102006051300,458216739693745281172389654327964815814537926965128473731492568589673142246851397
600075100030000490071008050840009001060300205003600970005004006000093020402710000,624975183538162497971438652847259361169387245253641978395824716716593824482716539
160054000038000400009007021002003068750600000400915300000000905090362700071040086,167254893238196457549837621912473568753628149486915372624781935895362714371549286
100380900007002010000901605800500406470600030093040502060703090029800000080000350,146385927957462813238971645812539476475628139693147582564713298329854761781296354
602000950850600004034800207080400720207001000000080095000306100001725086040900000,672134958859672314134859267985463721267591843413287695528346179391725486746918532
000860003250090017367000800102008090700030004040710000005009408010600900900305260,491867523258493617367251849132548796786932154549716382625179438813624975974385261
704050000030400020000018900003804060210900008006070030040160700625009001800200500,794652813138497625562318974953824167217936458486571239349165782625789341871243596
009006870006730000054001000820910300030000148600070005003052006000800490100407200,319546872286739514754281639825914367937625148641378925493152786572863491168497253
700300050039280000604009087000902700073004006410005003098700600205000100100060209,781346952539287461624159387856932714973814526412675893398721645265493178147568239
000200091900640800375010000000531028002400350006007400050309006804060900090000702,468273591921645873375918264749531628182496357536827419257389146814762935693154782
004000017000275300050090000005600700010048630006003008030400089071002460600850200,294386517168275394753194826385629741917548632426713958532467189871932465649851273
000000263310040050800700900071200406080005009030418500420007390000054001006090008,947581263312946857865723914571239486284675139639418572428167395793854621156392748
900005020038090400010000680580400076070900100301062000007201900400070030000806050,964185327238697415715324689589413276672958143341762598857231964426579831193846752
000830920719060408000001050270000100800005003140706005080020000000004070652108090,564837921719562438328941657275483169896215743143796285487329516931654872652178394
020010000300000075000600280005701642000008010009204500760820100500030009094005860,428517396316982475957643281835791642642358917179264538763829154581436729294175863
001279080065400000007006024000100009908025013070804500000080036602700900300500401,431279685265418397897356124526137849948625713173894562754981236612743958389562471
090005200051800360308610070000790005002004017700080900000002498016003000040500006,697435281451827369328619574134796825982354617765281943573162498816943752249578136
000480907960010000803500026206001800090030005154800703675002001000000040010000509,521486937967213458843597126236751894798634215154829763675942381389175642412368579
000470300705000001009160080010000509390080760002007014000304090081002400940000605,128479356765823941439165287817246539394581762652937814276354198581692473943718625
100007009009300806030020740405700100800910600200004080060450370001806500007003001,154687239729345816638129745495768123873912654216534987962451378341876592587293461
004076000108350090090000237000048050009200080020107006000403170653000029001000800,234976518178352694596814237317648952469235781825197346982463175653781429741529863
860000100012000750047210000009000026200480300071005800005708009030956001600030400,863597142912864753547213968489371526256489317371625894125748639734956281698132475
060000900501026030000809020080003001000102540003450800308005760207300050900071004,862534917591726438734819625485693271679182543123457896318945762247368159956271384
901600300700039012800000007408100020000090703005020080060070805009050070030402601,921647358756839412843215967478163529612598743395724186264971835189356274537482691
169000030000061080000400000706103920050870300200600008002009010300080769807000054,169528437473961582528437691786143925951872346234695178642759813315284769897316254
004000910092034700305007000000500386061080002500042000208070001100009500700016048,674258913892134765315967824427591386961783452583642179238475691146829537759316248
020607104000080300043005078009210000104008050780000030005023609006700800001940020,528637194917482365643195278359214786164378952782569431475823619296751843831946527
069500000082000510000007082040069350000200008006701040300008601000095070407320090,169582734782943516534617982241869357973254168856731249395478621628195473417326895
020009600491600000005030207079143080500000000603250000048060301032870905000010700,327589614491627853865431297279143586584796132613258479748965321132874965956312748
069000010403050000700000386005490100080020060000381024006130049000060057920700000,869273415413658792752914386235496178184527963697381524576132849341869257928745631
900500871000600040570800003609004000007209006351000002000407538000910200082060700,963542871218673945574891623629154387847239156351786492196427538735918264482365719
600940000007560204201008050304070600090410080050200300002300701800007000003109065,635942178987561234241738956324875619796413582158296347562384791819657423473129865
005400009000006053301070600060503017080000200572008090007900436239100000400087000,625431789748296153391875642964523817183749265572618394817952436239164578456387921
800020765000430020690500000020005100706043800005617400501700290070009010430000600,843921765157436928692578341324895176716243859985617432561784293278369514439152687
028300600900500000060009075006001300705028100084600009040107002300400800007253040,528374691971562483463819275296741358735928164184635729649187532352496817817253946
002068105005102006000003090800201300570000900100040078006900040090005723307800500,942768135735192486681453297869271354574386912123549678256937841498615723317824569
060008030104900000050107062007250810002070003000603400300014250040005600071800009,769528134124936785853147962437259816682471593915683427396714258248395671571862349
801524003260008000590310007000400250600002098080009300709000605000800410020100030,871524963263978541594316827937481256645732198182659374719243685356897412428165739
900700060080010205100423080090007504408000000325601700060305100000089600003200070,932758461784916235156423987691837524478592316325641798869375142247189653513264879
006029701400008500080030006609001000130000072070000604010940807090300020200057403,356429781427618539981735246649271358135864972872593614513942867794386125268157493
006009000701000386050000270207080004004036910100500038000240050600093400000105007,826379145791452386453618279237981564584736912169524738918247653675893421342165897
000354807706200090050000400000040608500001200013060500280000004095087130031900000,129354867746218395358679421972543618564891273813762549287136954695487132431925786
006870003000602804190003000400090500053006012000204070800127000530000020710900008,246879153375612894198543267427391586953786412681254379864127935539468721712935648
600009020000602003070083560004870030008900000209001040000030005001540679087006010,613759428845612793972483561164875932738924156259361847496137285321548679587296314
009081000400700031070023050100534800000000495006098070030017062268000000005900004,359681247482759631671423958197534826823176495546298173934817562268345719715962384
060017000401003005930800602005060370020390040006054800800000004010002080079000150,562917438481623795937845612145268379728391546396754821853179264614532987279486153
007023400085010070030400890040500108000340000200907650951008040006050200000706003,197823465485619372632475891749562138568341927213987654951238746376154289824796513
560020000040061930007800502018002000000054600000903704070016403024700195300000000,569327841842561937137849562418672359793154628256983714975216483624738195381495276
000520070009000083040007200000030000600700140000160095080090004097345001013006002,168523479729614583345987216951438627632759148874162395586291734297345861413876952
080900704000570203920410500503800040070000869190020007600000005002046031000130020,385962714416578293927413586563897142274351869198624357631289475852746931749135628
518400200036010709000603004270008000000040600080301000095000840000097165001020903,518479236436215789927683514274968351153742698689351427795136842342897165861524973
010005487500980031006700000120340000080070260030002009094020800200631070700000005,913265487572984631846713592129346758485179263637852149394527816258631974761498325
006290805700148000209060013020507340008000067040930120050000002000804000073010900,416293875735148296289765413621587349398421567547936128154379682962854731873612954
500983001000002700846005000000048093050000600900170040320601070080030010604000502,572983461193462758846715329267548193451329687938176245329651874785234916614897532
003207004020004500090003800785300009401080620902700000000500003000100746008060190,813257964627894531594613872785326419431985627962741358146579283259138746378462195
000012005104500708006430090038060407005100000700009006407083250280004300093700000,379812645124596738856437192938265417645178923712349586467983251281654379593721864
513200000209008734008006100000050000100302067000004309706400980090060020040180005,513247896269518734478936152937651248184392567625874319756423981891765423342189675
005000000720400918600037000030805004904000050000000291510020460470960300080070020,145289736723456918698137542231895674964712853857643291519328467472961385386574129
002790003100008706006000850050671000000000500041302080090007000400230105700805620,582796413134528796976413852859671234327984561641352987295167348468239175713845629
006000710700560093930800200000005130004020000302070409600000051507380000000401608,486239715721564893935817246879645132164923587352178469648792351517386924293451678
702006000390010000005900014006208070009001408083070006040002109000740025008035600,712456983394817562865923714456298371279361458183574296547682139631749825928135647
400002006870500000000067043015003000902700001040090568059000020030140600000020189,493812756876534912521967843615483297982756431347291568159678324238149675764325189
010030428900506001730000000300040006802000109560007040000078300200401950079020060,615739428924586731738214695397142586842653179561897243456978312283461957179325864
080050090672300001400706302530001000000008000907260500005040600020093040301000870,183452796672389451459716382538971264264538917917264538895147623726893145341625879
009000040040308720008010900307006200006000070890520300050082100400160030700400890,139275648645398721278614953317946285526831479894527316953782164482169537761453892
250900010607000008940610705030502804400700600000008900705091003000005160300020047,253987416617254398948613725139562874482739651576148932765491283824375169391826547
000689004620000073001270009030000600708050100902100007000800906007410025340900080,573689214629541873481273569134792658768354192952168437215837946897416325346925781
908020301000507092030010640060700100000048000819060730670900450000401080200300000,958624371146537892732819645465793128327148569819265734671982453593471286284356917
020100006903000470014607080007084000000095010245700800470003062600000900080050100,728149356963528471514637289197384625836295714245761893479813562651472938382956147
000802034950006701000070500803410002600009070240035090061700800400000000082104305,176852934958346721324971586893417652615289473247635198561723849439568217782194365
109085600040002090800000023005903004007006500380040001900200000534090078060700310,129385647743162895856479123615923784497816532382547961971238456534691278268754319
008000390500021800006004005085600903064007250130800000400060000003005762000293001,218576394549321876376984125785642913964137258132859647421768539893415762657293481
000620000102009700004107000370510406080900510010400300760004805900056020003700090,837625941152849763694137258379512486486973512215468379761294835948356127523781694
700040010040700308000365002200086071809410003016907020090000067002008400300190005,723849516645721398981365742234586971879412653516937824498253167152678439367194285
003058040260003057090720100000001400826400003015089072359040000000007098700030060,173658249264193857598724136937261485826475913415389672359846721642517398781932564
400600105025080093600120000500007009807019034000240500090000060080030001300076480,478693125125784693639125748542367819867519234913248576294851367786432951351976482
510082000020700860006093001874050009001000248090000050005001304000460070902800500,517682493329714865486593721874256139651379248293148657765921384138465972942837516
107200000000084730060950020205308640098001000030760005500000800040009012716000304,187236459952184736364957128275398641698541273431762985529413867843679512716825394
100050640006700503000400009000000060032008095560029014780060250004032007091800000,179253648846791523325486179918547362432618795567329814783964251654132987291875436
