004056900020000001390201700000340210002090000070600085050000078700803006906400130,814756923627934851395281764568347219132598647479612385253169478741823596986475132
063079000000000000000805264700406000812300500900080301309620007000000128050040090,463279815528164739197835264735416982812397546946582371389621457674953128251748693
049075010000002809067300500000047350710050060006109200108000000300904020000003708,249875613531462879867391542982647351713258964456139287198726435375984126624513798
036041000000020097800030040000009001004850070003060852508006000600003219090417005,736941528451628397829735146285379461164852973973164852518296734647583219392417685
030100000900070002180259003306024107005907000020310005803000204040065000000000960,632148579954673812187259643396524187415987326728316495863791254249865731571432968
006000204073090006150300008000705802500014090040280001009801000010062000628500700,896157234273498156154326978961735842582614397347289561439871625715962483628543719
300020048007500300600040900020056709904301050000000180083090005705230400401700020,319627548847519362652843917128456739974381256536972184283194675765238491491765823
070100520060730009400205008040802017950000080000010306630080001107940000008000670,879164523265738149413295768346852917951673482782419356634587291127946835598321674
800103260017200000004060080000500003408900056060037002200059000903070140500810300,859143267617298534324765981792586413438921756165437892241359678983672145576814329
570102004063080072009005000900407000312800006080060109401700360005300087000090020,578132694163984572249675813956417238312859746784263159491728365625341987837596421
908000500070015639060400000002190080450038001000007364000080400509023000083006070,918362547274815639365479128632194785457638291891257364726981453549723816183546972
020005001804000370569003080700810029000000006006390100003054610908000700041720003,327485961814269375569173284735816429192547836486392157273954618958631742641728593
302000000049061720000004810905040070007090300021008405090800000000000506504723001,312987654849561723756234819935642178487195362621378495193856247278419536564723981
050002080007945001600003700030050108082010970100490006000000590063000004004871200,351762489827945631649183752936257148482316975175498326218634597763529814594871263
009072040050800607010540000700003000400080065680091703000100378532060900000004200,869372541254819637317546892721653489493287165685491723946125378532768914178934256
820009570109043000076800100390100050047000000000000689062080700000904006500270031,823619574159743268476825193398162457647598312215437689962381745731954826584276931
000005184934000560000200007076098200008450000091003050050000700183079000200001639,762935184934817562815264397576198243328456971491723856659342718183679425247581639
050298300000035001490700002004029080087300200000017000700500064100000500520006903,651298347872435691493761852314629785987354216265817439739582164146973528528146973
019000300750003064000201000000090008403800509000104072078000200504302700000508046,819746325752983164346251897127695438463827519985134672678419253594362781231578946
001000254002006907790030000458010000009005610000890000580900703020040060063072809,631789254842156937795234186458617392379425618216893475584961723927348561163572849
080306000050000081600504730090603047040070050201000008007409003060230590004801200,789316425453792681612584739895623147346178952271945368527469813168237594934851276
800930001960000040050107000300096070102005004000020083090070000504800720016042800,827934651961258347453167298385496172172385964649721583298673415534819726716542839
090006003005009106008042705140000600006003089070500002930427500000001004700980200,497156823325879146618342795143298657256713489879564312931427568582631974764985231
000502903200801005065030040600010000051074680790300024003687000000000091842000070,487562913239841765165739248624918537351274689798356124913687452576423891842195376
608007100040006003700509200001000905536200704400800000009040062802315090070000000,628437159945126873713589246281674935536291784497853621159748362862315497374962518
302600190947000003050008000600150079201004500070830200504900060000400801010070020,382647195947215683156398742638152479291764538475839216524981367769423851813576924
230090800064050010100364000900023000402080007083500400810700260000000050007640091,235197846764852913198364572971423685452986137683571429819735264346219758527648391
760080900000302000059006083100009045070405800004270010900104270400023050680000000,763581924841392567259746183128639745376415892594278316935164278417823659682957431
400080750950620308010307040821400000000590260005700800000000426760801500009003000,436189752957624318218357649821436975374598261695712834183975426762841593549263187
080000057004705100000930046007001605602800009100020300008302090400080000291607004,386214957924765183715938246837491625652873419149526378568342791473189562291657834
000084060000607023510000840094003000760000905103062080008700400900028001270090050,327184569489657123516239847894573216762841935153962784638715492945328671271496358
500100093000807006704690500002070000040500301096408005030061029080030100000900604,568142793923857416714693582152376948847529361396418275435761829689234157271985634
010827003700004000080000069830000047970010680406050000500082300000170094092000005,619827453753694128284531769831269547975413682426758931547982316368175294192346875
500090062000010000481300005207009806840006970030500000000080027709001304350240000,573894162692715438481362795217439856845126973936578241164983527729651384358247619
706940002000806107080002090903007800052080600000200034200003050890000710040150009,736941582529836147184572396913467825452389671678215934261793458895624713347158269
004068070250900010017520009000007300540300002670800041000009500002400003030010480,394168275256973814817524639129647358548391762673852941481739526762485193935216487
000008020720506300030900018000607000610200097003004500400760900000000081950023400,149378625728516349536942718295687134614235897873194562482761953367459281951823476
006504009004087050030000200108020300050000106260700904040608007500000001001945000,826534719914287653735169248198426375457893126263751984342618597589372461671945832
000604080106009300350020007000500008290103000070090052609007005010008040740310260,927634581186759324354821697461572938295183476873496152639247815512968743748315269
304000070000008500801702004095000030006400087000106400020580100008030060109074002,364915278972348516851762394495827631216453987783196425627589143548231769139674852
802004063004380200590000700700050004040100800028039507309065000000020086010000970,872594163164387259593612748731258694945176832628439517389765421457921386216843975
605200000002853600000014082034109000008000007150060090040021005090300700700040318,685297431412853679379614582234179856968532147157468293843721965591386724726945318
206000090098504000740030500009307028060100743000280000000068401073050060000010007,256871394398524176741639582519347628862195743437286915925768431173452869684913257
003500980080004007000006000100840072040293600035000008020007009458020030069030100,613572984982314567574986213196845372847293651235761498321657849458129736769438125
030080000002097108609005402270063800801000069000400050004320005008500910010000700,137284596452697138689135472275963841841752369963418257794321685328576914516849723
008095004074800026100000090500006700030040182047902000002050978306400050000108003,268795314974831526153264897521386749639547182847912635412653978386479251795128463
065240090800300001000700350109080070004000600200070034000009065002430900018502700,365241897897356421421798356139684572574123689286975134743819265652437918918562743
800950470004010908300000000907080061010003050630027800209000006500064080040000002,861952473754316928392748615927485361418693257635127894289531746573264189146879532
930010800500692000006800057000050042021000000470009003000045390008021000740360010,934517826587692431216834957893156742621473589475289163162745398358921674749368215
600007095970804000000035080763000100800200000002091007290500610300010004051680002,638127495975864231124935786763458129819276543542391867297543618386712954451689372
000300400709050001010409806104560030290704005006000208060038010000010602020000970,658321497749856321312479856184562739293784165576193248967238514435917682821645973
000001203807900010003040006082007001400200530000164090340025009070008050506090700,694571283827936415153842976982357641461289537735164892348725169279618354516493728
000050600081000040200409730009280476700061000300000009002670310607105200045008000,473852691981736542256419738519283476724961853368547129892674315637195284145328967
090200001060390085408000007007003050900005240200410803000000060071080090300764002,795248631162397485438156927847623159913875246256419873524931768671582394389764512
090600007271300500050000402407009801300500070020080000006002104918003600000960038,894625317271348569653197482467239851389514276125786943736852194918473625542961738
000094005504080970100700304305009420000810050702005008090000002860103000003040007,678394215534281976129756384385679421946812753712435698491567832867123549253948167
070009030090460000506001000900083640080070100000604002300200785002700001860015904,178529436293467518546831279925183647684972153731654892319246785452798361867315924
684900050000000203900100000820076005701300040000500908090035104000001007003764020,684923751175648293932157486829476315751389642346512978297835164468291537513764829
630945800002600310057002000028000653005000004160800090000310046010720000400069700,631945872942687315857132469728491653395276184164853297279318546516724938483569721
069020008080300705500074020000630070400002053006000109807200060192006400035001000,769125348284369715513874926951638274478912653326457189847293561192586437635741892
090008002046200030017600000100000956702040800000153000300089700000502091005070460,593718642846295137217634589134827956752946813689153274361489725478562391925371468
009007010500860040832050700000500003008021000960040050023700169000400800100603007,649237518571869342832154796214576983358921674967348251423785169796412835185693427
004763102900820650003000004100009005000640080032050007070400000049080200560031009,854763192917824653623915874186379425795642381432158967271496538349587216568231749
820001500003000740005600029034860000590007000106094030040706308000020004609030150,827941563963285741415673829734862915592317486186594237241756398358129674679438152
700000809100600030032045000026400100009082005300007004901706200050010700040230008,764321859195678432832945671526493187479182365318567924981756243253814796647239518
040020306120600005007003490080140060004006008050700203009000081035070000200058709,948527316123694875567813492382145967794236158651789243479362581835971624216458739
190000507072004008060130002000400710200063000483090050008005000006310040030208609,194826537372954168865137492659482713217563984483791256948675321726319845531248679
060200700000098030040006082800420901003070008070100560001530006009007420405060000,368241759512798634947356182856423971193675248274189563721534896639817425485962317
060053080870004002004000691000301408000000000190082503048700206700040900356100000,261953784879614352534278691625391478483567129197482563948735216712846935356129847
503009200760800940004670010240050071800000600630981000090032706000000082150000003,583419267761823945924675318249356871815247639637981524498132756376594182152768493
080003041400000600069520703712300060005018000090040052000086027070190008004000900,587963241423871695169524783712359864645218379398647152931486527276195438854732916
702860040010027500000194300080670005605000090300000200000902600408003001500400083,732865149914327568856194372281679435645231897397548216173982654468753921529416783
004007000000240800706500012200094006085600100040300070560730904930020750000001003,824167395153249867796583412217894536385672149649315278561738924938426751472951683
200006100000030500075080092001004007000967300008050400053700061060392000480000709,249576183816239574375481692631824957524967318798153426953748261167392845482615739
000030904100200007008007006300001000704500008010069540900000061270050300430198020,627835914193246857548917236359481672764523198812769543985372461271654389436198725
900803504065000900000006013206740001039602008070005000007250800050400002601900070,912873564365124987748596213286749351539612748174385629497251836853467192621938475
100029460080500070009064105500310004060407000201000800000003009030098706700100020,157829463684531972329764185578312694963487251241956837812673549435298716796145328
100000020084203507030096008507400906003500281000060000460035100020000090009180003,176854329984213567235796418517428936643579281892361754468935172321647895759182643
020570009900000801000600237318200000005100648070005000600390704000001500009804106,123578469967423851584619237318246975295137648476985312651392784842761593739854126
004128600350009000020000890500640000080203105002015074070400930036070001000050008,794128653358769412621534897513647289487293165962815374275481936836972541149356728
086504007529700300040210600001005060030078009002060008050090130700000004908100050,186534927529786341347219685871925463635478219492361578254897136713652894968143752
003400905010860000000002060040200009507003080260009013006530002409600570820010004,683471925912865347754392168341286759597143286268759413176534892439628571825917634
200000100980230050650000004400090321090000700860107095740650003000480006010300800,234765189981234657657918234475896321192543768863127495748652913329481576516379842
040007058000000030107809240609710380000503072020640000480060019000201000360000805,246137958598426137137859246659712384814593672723648591482365719975281463361974825
000070020050384600170000304309006401080020506000849700400007108000905003236000005,643571829952384617178692354329756481784123596561849732495237168817965243236418975
071800035200007906009063810016000050053009400000400680300028000090541000080030072,671894235238157946549263817416382759853679421927415683365728194792541368184936572
092360000000050006040007810504009201008000090030014507000800302729000060863100450,192368745387451926645927813574689231218735694936214587451896372729543168863172459
040325060000100038907040100680759004000001082305400000200060050009200007461070000,148325769526197438937846125682759314794631582315482976273964851859213647461578293
500004003001000040020987500900205806005031900000860000400010070002376009806002010,568124793791653248324987561917245836685731924243869157439518672152376489876492315
704000380000870061060090005001602703906050020470100000580310049200900006010005800,794561382325874961168293475851642793936758124472139658587316249243987516619425837
403905260000800015601000000200149708000007000700000546090270403500000000070030082,483915267927864315651723894265149738348657129719382546896271453532498671174536982
900706120103020068205300000004095230009601000080003970031000700000000045052480000,948756123173924568265318497714895236329671854586243971431569782897132645652487319
003006001400002700170800350042019607090600010000058003760083004050000900800240000,923576841485132769176894352542319687398627415617458293761983524254761938839245176
380000002000501600504000730030025970000940020007008040700006308850400000029073051,386794512972531684514682739438125976165947823297368145741256398853419267629873451
004305008570000600800001090000070153093000000002140006680009041000600270200430005,924365718571894632836721594468972153193586427752143986687259341345618279219437865
400306809001405060200000500020010790010009024608740103009007000000801036053000200,475326819981475362236198547524613798317589624698742153169237485742851936853964271
000350004800100290027080005001900050000670300960028070006203010100045806735000040,619352784854167293327489165271934658548671329963528471486293517192745836735816942
054200360000001009090380002708009050009030006120060047280100000000800704036075100,854297361372651489691384572768419253549732816123568947287143695915826734436975128
020450008089002304000069710250300000006704500800200960090001240510640800003000000,127453698689172354345869712251396487936784521874215963798531246512647839463928175
005000238030059701002040009000004020057010800081092053070000400094860000600031070,945176238836259741712348569369584127257613894481792653173925486594867312628431975
