091200030035068004070050600060310002000087950408002000502009700000000095017000280,691274538235968174874153629769315842123487956458692317542839761386721495917546283
070001400040080030800062901007000106195008040230054090000000020300700685000346000,972531468641987532853462971487293156195678243236154897769815324314729685528346719
070910053409008000300400800020050700540620390806000510032100600010307004700560000,278916453459238167361475829123859746547621398896743512932184675615397284784562931
300500984100006027040078300856030100000420090904001000090600075570004038030200000,367512984189346527245978361856739142713425896924861753491683275572194638638257419
000060420503904000700100900080009700001700030000003296100000574000000000807325010,918567423523984167764132958386259741291746835475813296132698574659471382847325619
200730005000209604007084000300000090976000002500000318090570801001602400700800030,249736185183259674657184923318425796976318542524967318492573861831692457765841239
018950300630000900000710008049507010000020450007160830006080002254000000900300005,718956324635248971492713568849537216163829457527164839376485192254691783981372645
480000900902406038007000120058024000009580601030900002700200003006140570040300010,483712965912456738567839124158624397279583641634971852791265483326148579845397216
070029051603140000020608700400560802086000900005000410190000004300200000002470308,874329651653147289921658743419563872286714935735982416197836524348295167562471398
000700039200040800014060000500003041020097000860100590300050170006001005008479600,685712439237945816914368752579683241421597368863124597392856174746231985158479623
040210900009037200001400060010020050000600807520094030063905100807000543000800700,345216978689537214271489365716328459934651827528794631463975182897162543152843796
007600200000409503904050060500920300206070001080005006300004602105007890400218000,857631249612489573934752168541926387296873451783145926378594612125367894469218735
062050000907460012108390007703920400005800906000001080000000600400000025000635709,362157894957468312148392567783926451215843976694571283579214638436789125821635749
031009800002051700008730006000070000056008347840005160270000009010060004000923000,731649825462851793598732416123476958956218347847395162275184639319567284684923571
023016070010084050680000200009030100078002690000708000002400001750000903430560008,523916874917284356684357219249635187378142695165798432892473561756821943431569728
078400060250000904001030085600002809000561000003007200060093001082600470105700000,378459162256178934491236785617342859829561347543987216764893521982615473135724698
900705016050200090000003700040000080580076000001009200230080041008100600706590020,923745816157268493864913752649321587582476139371859264235687941498132675716594328
250109070000200360009008001078020940001036020506080703015090000007405000040070180,253169874184257369769348251378521946491736528526984713615892437837415692942673185
027465003083000500000807690006100080400050200100948050070002100009300000205694000,927465813683219547541837692756123984498756231132948756374582169869371425215694378
080005000307040900002090106004950603100002805890001047701680300900003704060700000,689135472317246958542897136274958613136472895895361247751684329928513764463729581
060508120010400893400210000020009006031000050050600207500927400000060780903100500,367598124215476893498213675724859316631742958859631247586927431142365789973184562
053094000610005020004000800080060000002300906001049200020007080030000051700800430,853294167619785324274613895987162543542378916361549278125437689438926751796851432
702090000800010050400600178301900064000070500009236000056002700000860020204700039,712598346863417952495623178371985264628174593549236817956342781137869425284751639
008300000340691200065020007601007000800000500729400068000200031070006004090018050,218375946347691285965824317651987423834162579729453168586249731172536894493718652
900000008000720900601003200020005743000089150400002000003060007100050306790801400,972146538534728961681593274829615743367489152415372689253964817148257396796831425
007050642020900005008004730490801060003000087001300000300006490506709008010203000,937158642624937815158624739495871263263495187781362954372586491546719328819243576
407300005090001803000042090300000060020810500014907020001754000802006030006030009,467389215295671843183542796378425961629813574514967328931754682852196437746238159
703004580600007004080950026908100003000090210061400008300521090002000650010708000,723614589695287134184953726958172463437896215261435978346521897872349651519768342
089007100060000080547120600008004050001900230430000000010670020900200065020039401,389567142162493587547128693298314756751986234436752918814675329973241865625839471
900058400307001080005063701000200005020094670801006009060070800050000132432005000,916758423347921586285463791694287315523194678871536249169372854758649132432815967
000050701309001000005207680000300060942010008700085100000034005584070020060020079,628453791379861254415297683851342967942716538736985142297634815584179326163528479
905160800810090602000004009600270304030000200500940001000001906364700050029800070,945162837813597642276384519691275384437618295582943761758431926364729158129856473
006050030420010700700006108000004007308600910001023500600500000050400893209780004,816257439423918765795346128562194387348675912971823546684539271157462893239781654
006020090140000080807000015604700020010009007093650001052964000000085403000017002,536128794149573286827496315684731529215849637793652841352964178971285463468317952
800200000010908035920067001009000870407103600082004050064079002500030060000001307,843215796716948235925367481139526874457183629682794153364879512571432968298651347
240005000001300058007096100003400600000920030410000002700010893500600240000289070,248175369691342758357896124923458617876921435415763982762514893589637241134289576
260500170000218006059600040000004590037000000020085001400002609000030700380960002,268549173743218956159673248816324597537196824924785361471852639692431785385967412
206700100000130700080540002400069300700200008008004095009010800320600049070005610,236798154945132786187546932452869371793251468618374295569413827321687549874925613
300046000020001459010080007600200043470000508082003900000090700031005000509810600,357946281826731459914582367695278143473169528182453976268394715731625894549817632
000002603700600104080743020000300000095068700130495000506907002002080500009004010,954812673723659184681743925268371459495268731137495268516937842342186597879524316
001700300008020005053000640700009510060040020089235000030001270006804930900060008,491756382678423195253918647742689513365147829189235764834591276526874931917362458
009470208036800070700532001058200000900150640600040003300000705100709080060000009,519476238236891574784532961458263197973158642621947853392684715145729386867315429
710004000005007490060500300506800000030000620090320108872900060000250070300061040,713694285285137496964582317526819734138475629497326158872943561641258973359761842
801400500720160900000007006008000050500094007273601080600005043040280100109000260,861439572725168934934527816498372651516894327273651489682915743347286195159743268
090083000710000050002040609800300070500001460407002001000500240106037508008090037,695183724714629853382745619821364975539871462467952381973518246146237598258496137
000208000100050003592001067304706005015090002060820300680503000701000006000007490,436278159178659243592431867324716985815394672967825314689543721741982536253167498
007090060080200010410850002000000430049085000103007800020001700504960180600030205,237194568985276314416853972852619437749385621163427859328541796574962183691738245
000958021002070000800061400580000700600040012000700359007000190216000040050003000,734958621162374985895261437589132764673549812421786359347625198216897543958413276
900008200003500000650020931010045807070193004504000002200060709009087500030000160,941638275723519486658724931316245897872193654594876312285361749169487523437952168
581200900604108002200000070000051890007480000003060057348009700005304600090010020,581237946674198532239546178462751893957483261813962457348629715125374689796815324
320700168400008700000150000010900280600000405807560000200001097004000030039607002,325749168461328759978156324513974286692813475847562913256431897784295631139687542
090520100400000320038614700070130005540090860060000017900050042000700030650800900,796523184415978326238614759872136495541297863369485217987351642124769538653842971
750320001040090006009704082900007520300968000010030000094600007000000830802075040,758326491243891756169754382986417523325968174417532968594683217671249835832175649
407301002003070060516000000600900041800002050204600830100043009000058720000290305,487361592923574168516829473635987241871432956294615837152743689369158724748296315
000209360050700014068000500900000002000010480603820007000034000500600801012087930,174259368359768214268341579981473652725916483643825197896134725537692841412587936
040056020500070001309040700056000010100000070804903005907001503038007040000208090,741356928562879431389142756256784319193625874874913265927461583638597142415238697
073004500000000003104028760800500190600000200520167300090005610010940002080003057,273694581968751423154328769847532196631489275529167348392875614715946832486213957
241000580800006403600050090068500240070040600900038010093001007400300900000280000,241793586859126473637854192368517249175942638924638715593461827482375961716289354
506100300000000004090078020007600091009023080850400607034200700700090510120860000,586142379271936854493578126347685291619723485852419637934251768768394512125867943
005020064490000700072190000800006030043000150260000478000930005180045000009070802,315827964498563721672194583857416239943782156261359478724938615186245397539671842
090035204000819370003270005052001040400080060800902010027000030160000900008457000,791635284245819376683274195352761849419583762876942513527196438164328957938457621
800500060017403805920600041000000700000264030300017600030150020280009010054080000,843591267617423895925678341461935782578264139392817654739156428286749513154382976
080000720006009000501072036900520000040800000032006400700103200100040950400760308,384651729276389541591472836917524683645837192832916475758193264163248957429765318
005100047970058300003006000000720080020600050564000700806500900000310400109000023,685193247972458316413276895391725684728634159564981732836542971257319468149867523
200301005060070030007590480006080900590600020120400700001704003900050060040028000,289341675465872139317596482736285941594617328128439756851764293972153864643928517
004000002003902570710586000600701004300800009520390010490070006078010040000050280,954137862863942571712586493689721354341865729527394618495278136278613945136459287
075300180098050000000190700006070010000210430503804200840009000001026073000000950,675342189198657342234198765426973518789215436513864297847539621951426873362781954
926000070504610083000970005401800060002040507000035400700050240000001009813020000,926583174574612983138974625451897362382146597697235418769358241245761839813429756
100036040040817095600000000005009007031070050009200816900005208720904000080020430,198536742342817695657492183865149327231678954479253816914365278723984561586721439
000000032210600980000107005604002019920038000037006040003070500100009800400081620,746895132215643987398127465684752319921438756537916248863274591152369874479581623
000002130010390580800000794008006070273901040605040300500600000001804200920500860,759482136416397582832165794148236975273951648695748321587629413361874259924513867
906030000004009802050107000070000600308401059005300480603054090100890260000000007,916238574734569812852147936471985623368421759295376481623754198147893265589612347
365700002000080001810340050679000100000010800002537004030009200090068040040150096,365791482924685371817342659679824135453916827182537964536479218791268543248153796
006485900820091500000000403095673002070000016003000090009538604007020038060004000,736485921824391567951267483195673842472859316683142795219538674547926138368714259
072530090030080742108000006000900850085600004040250071000000300600004017927001000,472536198536189742198472536261947853785613924349258671814725369653894217927361485
081090000000056000020700064000048025700900006006010380800300940932460001010020050,681294537374156298529783164193648725758932416246517389865371942932465871417829653
020450060800000000604100059483001900001037200200500081908004023000060000007090804,729453168815976432634182759483621975591837246276549381958714623142368597367295814
207601090030004800504720003010370900609102008045006007060000000908000300003510604,287631495136954872594728163812375946679142538345896217461283759958467321723519684
070200039003078400851000070500180200608503100904000000002306000100007005000940028,476215839293678451851439672537184296628593147914762583782356914149827365365941728
205400000400090375083600201720109030030050100009004800000003008500260000018007690,275431986461892375983675241726189534834756129159324867642913758597268413318547692
000407006800000200200060431076109020010300070005006094003090000040801500659270003,531427986864913257297568431476159328918342675325786194183695742742831569659274813
092100004800940015600005703005407026030000500004008070300090000010502800060304009,592173684873946215641825793185437926736219548924658371358791462419562837267384159
028040506630000000070030918000080600069005042400200785300501000000070004100096270,928147536631958427574632918752384691869715342413269785347521869296873154185496273
010009700500360408403507060064030090009800200100705004670000000020004159000213000,216489735597361428483527961864132597759846213132795684671958342328674159945213876
100000800000060030059042007000300205070150460086409001027905000010030706904010008,162793854748561932359842617491376285273158469586429371627985143815234796934617528
501090300700000062000804000020010879600400035059003000074051000300670290090302010,561297348748135962932864751423516879687429135159783426274951683315678294896342517
560000190002000003473020000106008700004309008300072045090010360000005087800094020,568743192912586473473921856126458739754369218389172645295817364641235987837694521
017000308300000460600002900170004500005690000290000070020480001500039004080761003,917546328352918467648372915176824539835697142294153876723485691561239784489761253
010640070300001002004372008097080605060405320000007040045908700086000051002010000,218649573379851462654372198497283615861495327523167849145928736986734251732516984
012300005890040006004205700006010000000783401007000829053471000600009003001806500,712368945895147236364295718486912357529783461137654829953471682648529173271836594
800269050030100800015007024300002006007630080008704901060000009540010000009503062,874269153236145897915387624351892746497631285628754931763428519542916378189573462
006059030900400817000810006010005900060200701003080040035060209270008300004007058,186759432952436817347812596418675923569243781723981645835164279271598364694327158
010053700830604001000920000300080070204107906060490002400008090905010034076000250,612853749839674521547921863391286475254137986768495312423568197985712634176349258
510800007007006300003090400021008000790052800050930010604001790080000053200080006,512843967947216385863795421321468579796152834458937612634521798189674253275389146
500670380790001040208005091031040000805000000006982000000390005602700800040200610,514679382793821546268435791931547268825163974476982153187396425652714839349258617
009006704000154006020800000108400050700900203000063008000000060350281090497030010,519326784873154926624897531138472659765918243942563178281749365356281497497635812
900060172000000408100084060007100046005200803800306900070005000640079025030610090,984563172756921438123784569397158246465297813812346957279435681641879325538612794
003689500709004000010000000000058030205760004096410750802030971000200600500007300,423689517759124863618375429174958236285763194396412758842536971937241685561897342
000001250000004603060287900104703000089020004006040107071050080000900030832000500,497631258218594673563287941124763895789125364356849127971352486645918732832476519
810406903640520000500000006405030010021800009030007200007009534004080600090305007,812476953649523871573198426465932718721854369938617245187269534354781692296345187
