643070050100004009800300207000095700090200010405007086204800005007403091030001060,643972158172584639859316247381695724796248513425137986214869375567423891938751462
800000104140008072009000050900680020000400301230170040300720000078009006605034009,852367194143958672769241853914683527587492361236175948391726485478519236625834719
590403007010008902004000005200900060046210003000040000730891400061030800902500700,598423617317658942624179385273985164846217593159346278735891426461732859982564731
800070002070610000340090607021000480009504300000061000208300095000906024700050003,816475932972613548345298617521739486689524371437861259268347195153986724794152863
300500017000008090064720030000386500010009028005010004200003000581060000670040209,328594617157638492964721835492386571716459328835217964249873156581962743673145289
090530000400000031001480900010005406800090000260007803350000040040003720080970015,796531284428769531531482967913825476874396152265147893357218649149653728682974315
104028900600950102000000050480710200207069000000003089703000640000002097065080001,154328976678954132392176854489715263237869415516243789723591648841632597965487321
078100069250040007401000000003008091096050200080301600004070000027603508000900102,378125469259846317461739825543268791196457283782391654814572936927613548635984172
270390800003020405908006020000040078507600000690002001010007030800459060000160200,275394816163728495948516723321945678587631942694872351416287539832459167759163284
042018006080000010370400005003002000706050084014069000000087209000021350098500100,542318796689275413371496825953842671726153984814769532135687249467921358298534167
097061035108040020200008000003005090000100207702609001050003600800900043004006570,497261835138547926265398714613725498589134267742689351951473682876952143324816579
007010690920700100005400030460907000102804500500020903000102000680040705039000060,347215698926783154815496237463957812192834576578621943754162389681349725239578461
800301070004070000070049306060025003000800100295003400400060002350000007017500800,826351974934678251571249386168425793743896125295713468489167532352984617617532849
020001608000584009019360050700000860002905003503800007004030906100600582000007040,425791638376584129819362754791423865682975413543816297254138976137649582968257341
003400006004709058000052901930040015080000070007526000000010280240930000056000030,593481726124769358768352941932847615685193472417526893379615284241938567856274139
400307000029000031600000784050900000007064802200080190000001005030426070804090206,485317629729648531613259784158932467397164852246785193962871345531426978874593216
000905200024610790690000003702009080063100040500380102087000000000040030900762008,178935264324618795695274813712459386863127549549386172487593621256841937931762458
000408730600210050580306009001080000030090400029000061040500320200007045010800097,192458736673219854584376219451682973736195482829743561947561328268937145315824697
020070060000930050308010240960000083803205400074068010007000630009487000050000000,125874369746932851398516247962741583813295476574368912287159634639487125451623798
245000700100060900006170032900020560060804000083000070300508001420736009008090000,245983716137462985896175432914327568762854193583619274379548621421736859658291347
091004006507009300400510200006125709030000000019007080003600004980040500000092078,391274856527869341468513297846125739735986412219437685173658924982741563654392178
001006240703010809208005003010080074500000000009543080006000000000100935830207060,951836247763412859248975613312689574584721396679543182196354728427168935835297461
360091000008002000000400603500109034480750900002300006040805090235004708007060010,364591287758632149129487653576129834483756921912348576641875392235914768897263415
003980020074002010000300600000000409048010367795000080310090008000005070659004200,563981724974652813821347695136728459248519367795463182317296548482135976659874231
009380400100046008020009006081600500600500397070234060800000259504001000030970000,769382415153746928428159736381697542642518397975234861817463259594821673236975184
907040005010570903030160002706801500305000080001720006609000007000902040450000130,967243815214578963538169472796831524325496781841725396689314257173952648452687139
081042503307080004600000100000090030052700000109054080008007006004930012700500049,981642573327185964645379128476891235852763491139254687298417356564938712713526849
030908240000040009010605070000030400850200000690000108900304050208060007065710900,536978241782143569419625873127836495854291736693457128971384652248569317365712984
008000610060800005040009037019030040400906050075200008000308000207041900300005162,738452619961873425542169837819537246423986751675214398196328574257641983384795162
000005030040091005307400006400009010629500800083070020038100004500208970002006000,891765432246391785357482196475829613629513847183674529938157264564238971712946358
408300000000071060075000809900605002700490618020030004090020006001000040002708503,468359721239871465175246839914685372753492618826137954397524186581963247642718593
000570100070083026003001500081906000509700000026040390942100070010004085000620000,264579138175483926893261547481936752539712864726845391942158673617394285358627419
070900830540106000800570600360000100700238090029605000014090520030002710000000003,176924835543186279892573641368749152751238496429615387614397528935862714287451963
000201748080093001052000000810009000073510002000804060000060907047105300620000580,369251748784693251152748639816329475473516892295874163538462917947185326621937584
730006024902300105006019000000560007405003080000098002020000050100000739360470008,731856924982347165546219873218564397495723681673198542827931456154682739369475218
150400000069008003807200050203004080005000671078019400000760205001000046000302800,152437968469158723837296154213674589945823671678519432384761295721985346596342817
160500032000200780070090001009400020300018094005300600630900805807002009050036040,164587932593241786278693451789465123326718594415329678632974815847152369951836247
108030790030007006020594000009260031410009000200740500805000620700905000040006010,158632794934187256627594183579268431416359872283741569895413627761925348342876915
096000501054210800080050060402500910031004680060300270008007020700080430000902000,296873541354216897187459362472568913931724685865391274548637129729185436613942758
601007090000080030045000020000004900372009400080150670720600001009002850100408000,631247598297586134845931726516724983372869415984153672728695341469312857153478269
040260000070004805012090070800002900100408003624300001209701300005000408000503000,548267139976134825312895674853612947197458263624379581289741356735926418461583792
800030920024600380003480005502100060001394000080000007900260000060007510245800000,856731924724659381193482675532178469671394258489526137917265843368947512245813796
800900007050001940200300860002700005000604392090080100380205006107060030060003400,831946257756821943249357861412739685578614392693582174384295716127468539965173428
040306010520080009007900008005040020600530400001009007900710806200603070300004050,849376215523481769167925348795148623682537491431269587954712836218653974376894152
009006807034000260000570001400908000510040900800027000370402010000060008085090036,159236847734819265628574391462958173517643982893127654376482519941365728285791436
500230010004009870930004050050000000000705304702100096069000200020308007071020048,586237419214659873937814652653942781198765324742183596869471235425398167371526948
059200730041000068000010500073005010080906002200080400006702900097004000308150004,659248731741593268832617549973425816184976352265381497416732985597864123328159674
100000056003800904700360280260413005000000000934570010000198000005007800007004032,182749356653821974749365281268413795571986423934572618326198547415237869897654132
000005807100000060006908430050300002429570100068090000200017006007400908000000205,943165827182743569576928431751384692429576183368291754295817346637452918814639275
600500200090008031000042600006000704003090800007410050100025480702160300035700060,678531249294678531351942678916853724543297816827416953169325487782164395435789162
205817000067040008300006020004508309791000045000000060500000204000320900170089006,245817693967243158318956427624578319791632845853194762539761284486325971172489536
620500873080009041400006000210095700007410090053070100590100000008000036070850002,629541873785239641431786259214395768867412395953678124592163487148927536376854912
018076000009410070004900023050008307040020010067500089000391000200000000730000064,318276495529413678674985123952168347843729516167534289486391752295647831731852964
806005130020000900000679205002700000900804003600090841070020059540080600000401300,896245137725138964314679285482713596951864723637592841178326459543987612269451378
005000700034600020002800145080351490903000500000490086709180000000007630021040900,895214763134675829672839145286351497943768512517492386769183254458927631321546978
000901300000700160906083570040800006062050004530002700708010000450090000003204810,275961348384725169916483572147839256862157934539642781728516493451398627693274815
760580030009610200050000700040020060002030954805060100300201008004000090107903040,761582439439617285258394716943125867612738954875469123396241578524876391187953642
105906400002700080790008053000090010200305600030000872670080000050040209004513060,185936427342751986796428153467892315218375694539164872673289541851647239924513768
009208040060050097032900100204060800000704006500120070090531002108040000000000760,759218643861453297432976158274365819913784526586129374697531482128647935345892761
200001305008056091400370000010400069670008030002005700020000006007100820309060040,296841375738256491451379682813427569675918234942635718124783956567194823389562147
970000015001847600000900280009300060500680034004015008007093000860100000403560002,978236415251847693346951287789324561512689734634715928127493856865172349493568172
010800609090002053035060010120073400500200000800000075000050124000608000007904308,712835649698142753435769812129573486574286931863491275986357124341628597257914368
400780603009053014007000082030605470600109000002040100080000060001902350050370900,425781693869253714317496582138625479674139825592847136983514267741962358256378941
004086003100790050030001270096050037450000010708400062000010080861002940900005000,574286193182793654639541278296158437453627819718439562325914786861372945947865321
010037208000901500406008001003045700008000020540820006604500090070602100050090030,915437268782961543436258971263145789198376425547829316624513897379682154851794632
000000124020086070709010058000060201850000006401007980908070000503290000006100403,685739124124586379739412658397865241852941736461327985948673512513294867276158493
031069500000540007090200016020070081080403000407910020009780254802050000640000300,731869542268541937594237816923675481186423795457918623319786254872354169645192378
009000700020008610081920005042087000050610000000500398800003004067100003410070026,639451782524738619781926435942387561358619247176542398895263174267194853413875926
690500200700020003305041960060000010438100700107008009200057600040630150000009080,694583271781926543325741968962374815438195726157268439213857694849632157576419382
064000801002900060000013007093085000700060000800102043008500076000470200510006930,364257891172948365985613427493785612721364589856192743248539176639471258517826934
000000840507010002304786000760805100000003000005400690900100456600009703800500020,196352847587914362324786519769825134418693275235471698972138456651249783843567921
000030006201007058560004900700040802008006400050020030800010527070609100030800000,987531246241967358563284971719345862328796415654128739896413527472659183135872694
105920360000004000290038140076080030800000507300402090060051080030200071002060900,145927368683514729297638145976185432824396517351472896469751283538249671712863954
600150290704000001090030508060002174300840020009617080280000000000573000001009403,638154297754928631192736548865392174317845926429617385283461759946573812571289463
800093060500080904004200730010000620086075043009100000302016000040500080060724050,871493562523687914694251738715348629286975143439162875352816497147539286968724351
010052000000070096064900070500100720048060001009300045020000809003201400700085063,917652384352874196864913572536149728248567931179328645425736819683291457791485263
300006025740000108120094600500018000003400070060039250008005700007000004091260003,389176425746523198125894637572618349913452876864739251638945712257381964491267583
406000005907010400020075000500009007000824060004030108309200800160090200008706003,416982735957613482823475691582169347731824569694537128379241856165398274248756913
089060005340009017000010300000700520020904030060050090006508100007003408410002000,189367245345829617672415389894736521521984736763251894936548172257193468418672953
010009050092006480050203001006310700020000004007008190540700603000490070800005200,614879352392156487758243961986314725125967834437528196549782613263491578871635249
004200735300904081000087000007000350600078029091600000010000040405002800230405090,984261735376954281152387964827149356643578129591623478719836542465792813238415697
702000069800036015010020307008500400253080090090001002000645020900800700004000630,732154869849736215615928347168592473253487196497361582371645928926813754584279631
001064025300900604009507800000708002530040006078000190200010400000600310803000007,781364925325981674649527831196738542532149786478256193267813459954672318813495267
410000203007108900006020840050800007002500600601009050030000090870603002009015400,418956273327148965596327841953864127742531689681279354135482796874693512269715438
000470100206085003075060800900710006054009000780020004000008390300000001102650070,839472165216985743475361829923714586654839217781526934567148392348297651192653478
006009851980470230000010004200008605100002790004300080700050000042900000053021060,476239851981475236325816974237198645168542793594367182719654328642983517853721469
006090024008305009001048000070200600403060207500031000690080500100970000084500703,356197824748325169921648375879254631413869257562731948697483512135972486284516793
250000094008906013030040700097105000003400080820300600070803005460090100001050270,256731894748926513139548726697185342513462987824379651972813465465297138381654279
000260158506900027007030000430700009205008000090120040800041502750000913000000060,943267158586914327127835496431756289275498631698123745869341572754682913312579864
000170602800504010000060980900005000073410025420680390086000030500020000109053007,394178652862594713751362984918235476673419825425687391286741539537926148149853267
007490000600300020205010008008509060170000050030020709000040831900081006050706200,387492615614358927295617348428579163179863452536124789762945831943281576851736294
010900052703800000004053007807010406020000031000394700006008040001260800000079605,618947352753821964294653187837512496429786531165394728576138249941265873382479615
700004800802005000000109006070003904001200050903006080040601097530040000069070402,796324815812765349354189276675813924481297653923456781248631597537942168169578432
049007608280000307000600049300900205060080000104060803097043000001290054002001000,549137628286459317713628549378914265965382471124765893697543182831296754452871936
009740005200010860508029040000006102905000080000582007047001093100030070006800004,619748325274315869538629741783496152925173486461582937847261593152934678396857214
100000590054700231200006070806010002407009100000247000080530904061800005003000000,178423596654798231239156478896315742427689153315247689782531964961874325543962817
078000013504019780090600200000430000160007540007201000930050001000006809806700420,678542913524319786391678254289435167163987542457261398932854671745126839816793425
000103800700000060205708104050004007809000012003090086006030020491670300000501000,964123875718945263235768194652814937879356412143297586586439721491672358327581649
010502000008070200060310049721840300030200700005006010300000095674080003059000860,413592678598674231267318549721849356936251784845736912382167495674985123159423867
002010040000806500031094600143200005900030082600007019075000203086900000000403070,862315947794826531531794628143289765957631482628547319475168293386972154219453876
