003060052000001083520040760000100048106500000078090030400005300002870009051602000,813769452764251983529348761395127648146583297278496135487915326632874519951632874
150009760004000200009806540726000000005908021000400300048705090600301005007000800,153249768864537219279816543726153984435978621981462357348725196692381475517694832
060003048590078006400090030040900100301800600000000054005106300032085000000200071,267513948593478216418692735846957123351824697729361854975146382132785469684239571
000604701079500000402081009040000600081020037000306098000005180325000000800973060,538694721179532846462781359943857612681429537257316498796245183325168974814973265
000940085050001090080302406570000120009008030040026007060205009300600070104083000,631947285452861793987352416576439128219578634843126957768215349325694871194783562
090000700012700086870100035900280000206050070030090100420500300500603400000004028,695832714312745986874169235951287643246351879738496152429518367587623491163974528
860410300230060005000000002070140080006095040001008029609730000020801070050009100,865412397234967815197583462972146583386295741541378629619734258423851976758629134
900060008804079103001030054050200790000100000402050000000094602613000040200008537,935461278824579163761832954158243796396187425472956381587394612613725849249618537
500060023002390000010020800850470030070000900904802150007100090020000046608000705,589761423742398561316524879851479632273615984964832157437156298125987346698243715
047090000308002000205710006030500017100080340009600508020370050000000001064028070,647895132318462795295713486832549617156287349479631528921376854783954261564128973
620300570000026800103000020700000004000958000000040395840060710590004600310007402,624389571975126843183475926759632184431958267268741395842563719597214638316897452
006000040074050100020030906030000800090087051005061027740008000800602030001040590,316879245974256183528134976137425869692387451485961327743598612859612734261743598
070802000000600503260154000800001007304580601009040000502400300000090208007003910,975832164148679523263154789856921437324587691719346852592418376631795248487263915
860003004000841006502000100000704030030020500709060028100500300004197000680002070,861253794973841256542679183258714639436928517719365428197586342324197865685432971
075000800904200600100605070097300008300010024200780900010007030000806105026930400,675193842934278651182645379497362518368519724251784963819457236743826195526931487
000570900840069050091000000008600700470108032620050004004000500000730186063020070,236571948847269351591483267318642795475198632629357814784916523952734186163825479
009508401007400000020037850000090763413005008000002000060041097091200000800060302,639528471587416239124937856258194763413675928976382145362841597791253684845769312
295400000000100074710302050009240600003080107508006030000000542300800090060097800,295478361836159274714362958179243685643985127528716439987631542351824796462597813
000001070504000090610040802021003700000090150403076080005817940890002000007050300,382961475574328691619745832921583764768294153453176289235817946896432517147659328
001069200907100030520804910000210086000000070003006504304070090089020000010508400,831769245947152638526834917495217386268345179173986524354671892689423751712598463
009000804000060079254090001001005000000080635080342000760050040048700590300018720,679231854813564279254897361931675482427189635586342917762953148148726593395418726
008050000200071860016008500640905000000804003905200100704102090501003680030090007,478659231259371864316428579643915728127864953985237146764182395591743682832596417
760400300400010902010003080020000040540830000009106507080060470000307250006590130,768429315453718962912653784621975843547832691839146527385261479194387256276594138
000000906090802050000390420750000012021040309083060007200008000340710060070605030,832154976496872153517396428754983612621547389983261547265438791348719265179625834
010037560020058700900004081042000009801040207300600010570080020036091040000503000,418937562623158794957264381742815639861349257395672418579486123236791845184523976
200008043370010890400000106120800004090702680000069030004000507807004020650003000,261598743375416892489327156126835974593742681748169235934281567817654329652973418
401000700056000080000903006000070519300402060078000400514009008200760051009080300,431826795956147283827953146642378519395412867178695432514239678283764951769581324
300280097045000000208069030004090850000310060706000002500004001092600078610003500,361285497945137286278469135124796853859312764736548912583974621492651378617823549
047003000600000820003091600082300041071029060500070090030000005005862400408700010,247683159619547823853291674982356741371429568564178392736914285195862437428735916
008064250590800300400020907040089503107002060050000000020731000039005810600000004,378964251592817346461523987246189573187352469953476128824731695739645812615298734
040560072090804053605300090430000000026000000001090860074036000000170906002058010,348569172297814653615327498439685721826741539751293864174936285583172946962458317
068003010000008304470100005507920080680054002900600000050076008000010200012030097,268543719195768324473192865537921486681354972924687531359276148746819253812435697
004067005190340020720000408001700804500010006002000093800605000040083009000429700,384267915195348627726591438961732854538914276472856193819675342247183569653429781
003006000070240003805900720000098001600500480002100036700810040900007500214009000,423786195179245863865931724347698251691523487582174936756812349938467512214359678
500201630000064702004009000000800000730050916125600083601008047000030000009740021,597281634813564792264379158946813275738452916125697483651928347472135869389746521
000420038090073402000100065007000853103096000254000000600750029000040600328001007,716425938895673412432189765967214853183596274254837196641758329579342681328961547
200037000003200009478060301056080010309000052000500807610003405040079060002004000,291437586563218749478965321756382914389741652124596837617823495845179263932654178
600200003300509017050804000500900700021005300400021056803000902006008075010470600,694217583382569417157834269568943721721685394439721856873156942246398175915472638
007036450400205000003070009000524100000060390728000600004093007050800010309100860,287936451491285736563471289936524178145768392728319645814693527652847913379152864
086003000500200000304090100002010038900057000418306005640900070001008043009070520,186743259597281364324695187752419638963857412418326795645932871271568943839174526
260008900005300001010004005090500710083002504007090083030800020600009470042607000,264158937975326841318974265496583712183762594527491683739845126651239478842617359
500009700070003040642000950000007036900106800800040010020680000310000200400005187,583469721179523648642718953251897436934156872867342519725681394318974265496235187
074000050000900002081536007050801300000004016030270540005018000009600031600000270,974182653563947182281536497457861329892354716136279548325718964749625831618493275
800050406020938010000140029080704000501000042630009100090300000305680701007000005,819257436426938517753146829982714653571863942634529178198375264345682791267491385
000015790820060000005480030000000610403007850090650000308002001001390004950001072,634215798829763145715489236582934617463127859197658423348572961271396584956841372
204600870039000005010200406002074003076000900900850010065108200008709000000030604,254613879639487125817295436182974563576321948943856712365148297428769351791532684
813000507270500400009012360080600005060043290104207000000000000500489600637000000,813964527276538419459712368382691745765843291194257836948376152521489673637125984
097200501000080049210300000001000650020793800480005007002061305030000090600804070,897246531365187249214359768971428653526793814483615927742961385138572496659834172
900108003000304062506070010000000050850297001140080309602009400000003007071005200,924168573718354962536972814269431758853297641147586329682719435495623187371845296
010529000076003800900000230000000603008170000594086000450097010007004056300050007,813529764276413895945768231721945683638172549594386172452697318187234956369851427
020780430590010070008350000910602800000041009205000040782000300600090507000400106,126789435593214678478356912914672853837541269265938741782165394641893527359427186
009001430700400090021063008000038054000500600050102907810200000304809701070000060,589721436736485192421963578197638254248597613653142987815276349364859721972314865
000009017120706509000340008480000730005602800369000000000107005874000900900024600,648259317123786549597341268482915736715632894369478152236197485874563921951824673
200043061807000932000090000000051009076000020013006540009408000064002000080610350,295843761847165932631297485428351679576984123913726548359478216164532897782619354
098000002000078060107930040003006750002194800400000900600020413040619000800007005,598461372234578169167932548913286754752194836486753921679825413345619287821347695
100030050080701006406520000002050083000000547007863009090080025300100900601042070,179634852285791436436528791912457683863219547547863219794386125328175964651942378
560310400009050823000000000801000900300400572700605001970108030042070650000004000,568312497419756823237849165851237946396481572724695381975168234142973658683524719
007504020203079000000100900800906070600000841074002509900058700032000005048360100,197584326253679418486123957815946273629735841374812569961258734732491685548367192
070600800360800050000005092800004936604070020010008400500003007002010004480027310,275691843369842751148735692827154936654379128913268475591483267732916584486527319
089063001700000000052790004608420000010000009030070580070300408000500013100082605,489263751761854392352791864698425137517638249234179586975316428826547913143982675
300569400010070039050040006400800200706000050031020074000910800070403020008006190,387569412614278539952341786495837261726194358831625974563912847179483625248756193
042910006700000408600030950000061005010000300008450070004200097809006500230007180,542918736793625418681734952927361845415872369368459271154283697879146523236597184
010005300008000002397040006280001700469058000000260054000000007800123400054600100,612975348548316972397842516285431769469758231731269854123594687876123495954687123
000001350150703096074000021020805600037000000800060009400098013000200005509600048,296481357158723496374956821921875634637149582845362179462598713783214965519637248
009040500070002001030857290490100008780020460305000020810400900000010630046900005,629341587578692341134857296492136758781529463365784129813465972957218634246973815
540020300037604050020501008306008400000302000000167905802000003001090627900070010,548729361137684259629531748316958472795342186284167935872416593451893627963275814
200813700900000540017490200001020097805006020000040300008000000300602010540970006,254813769983267541617495283431528697895736124726149358168354972379682415542971836
000013090960008200000020408601280000300000025080049007710600509093007064850004300,428513796965478231137926458671285943349761825582349617714632589293857164856194372
000000700180209000605407030003000502270560084000040000090003006040050071068100290,934615728187239645625487139413798562279561384856342917791823456342956871568174293
090106040800530600500807201000000004301002068060700350050001000004080079120040503,793126845812534697546897231285963714371452968469718352958371426634285179127649583
800730600046080029052090180000205700610000004078904031109600403400050070020003000,891732645746581329352496187934215768615378294278964531189627453463159872527843916
038041600100520000000608709570800901009000320820000570005910004000007160406003000,938741652167529483254638719573862941649175328821394576785916234392487165416253897
020009500641030090300700004017500200200001003093800046000080365000900010004052078,728649531641235897359718624417563289286491753593827146972184365835976412164352978
030900052000007014180600007070000206906200080408090300000364000500000100600051743,734918652269537814185642937371485296956273481428196375817364529543729168692851743
002000907001040060850907000000021040004590072103006809060050000705008400348100700,432685917971342568856917234597821643684593172123476859269754381715238496348169725
300000000087001605000074100109000002500030084002760530723600098050020000400980007,314256879287391645695874123139548762576132984842769531723615498958427316461983257
020010490000020030196040002000809047807062000035400000710000006609753020400090800,328617495574928631196345782261839547847562319935471268713284956689753124452196873
702503084050400001301020500000098007086107320030000100028600095095700400000004060,762513984859476231341829576214398657586147329937265148428631795695782413173954862
000006729001050080090023400007405060005090010360800000050009840703001200046070005,534186729271954683698723451817435962425697318369812574152369847783541296946278135
700600080000082009014000067001037004062001070000209053006340001930000800007028500,729614385653782419814593267591837624362451978478269153286345791935176842147928536
086000059003205641001030070190000000400070003052094080030750400700800020800149700,286417359973285641541936872197328564468571293352694187639752418714863925825149736
005002806070001090302070504006300000050008001047290680060000230009540000080600907,415932876678451392392876514826314759953768421147295683764189235239547168581623947
060980070000752901000000002020070040900310080001500006306190020800640530097008000,265981473438752961179463852623879145954316287781524396346195728812647539597238614
020007001060300040001462000000800307008105090654000000800500032015009780709004000,423957861567318249981462573192846357378125496654793128846571932215639784739284615
008030100650090702200406005090060040003000276700800310580020400019580000400709000,978235164654198732231476985192367548843951276765842319587623491319584627426719853
761083000000040802020509076075430000300008590004001020256070039090000458003100000,761283945539647812428519376975432681312768594684951723256874139197326458843195267
000100000720008405654002010900260004080000072100000503003700090000804600007021308,398145726721698435654372819935267184486513972172489563843756291219834657567921348
040010290900500000300007408200098030617052000000060010006400005079001680432000970,745816293928543167361927458254198736617352849893764512186479325579231684432685971
000403960020870500194000030000981070000006003506000280008600401070320890005040000,857413962623879514194562738342981675789256143516734289238697451471325896965148327
053000100009067000200103007040800002006090400120050809004000671070000583080306200,753928146419567328268143957945831762836792415127654839394285671672419583581376294
041060098560400000790500260009073000200806010680005400000000182800094370050300009,341762598562489731798531264419273856275846913683915427934657182826194375157328649
409020600301460005008300070600500007024006008010940000030005200700608900005030010,459827631371469825268351479693582147524176398817943562136795284742618953985234716
408020300200054008070006052090000040500002070083010600007060104000037090069008035,458921367236754918971386452692873541514692873783415629327569184845137296169248735
007560040894000070035807900910380007700904000400050260260100004000002581000000300,127569843894213675635847912912386457756924138483751269268135794349672581571498326
070000408060904012201500690000060000358000040410320500000209100007040060589070000,973612458865934712241587693792465831358791246416328579634259187127843965589176324
908560104041002000370000009095004700600200008400017600102400035800000060030850090,928563174541792386376148529295684713617235948483917652162479835859321467734856291
106500002500047300732006090400010058070802906000060130000491020003000005800300070,146539782598247361732186594469713258371852946285964137657491823923678415814325679
304009200700001008080002300560840002100050730947000060400128509001005086009700000,314689257792531648685472391563847912128956734947213865436128579271395486859764123
086205400100007009052130008040060205000403190007800030800370000009000070200041056,786295413134687529952134768341769285628453197597812634815376942469528371273941856
004810270000500003000009600012005004300720010908004500006087000270000408031060009,694813275127546893583279641712695384345728916968134527456987132279351468831462759
