150830600026000900090200705700160050010007304000942008340000090500008007002054013,157839642826475931493216785784163259219587364635942178348721596561398427972654813
700080400290600508014000690000003001050907060481050003009305000630400020020001000,765189432293674518814532697976843251352917864481256973149325786637498125528761349
310000960000980000200053001004060500021000407090720030800570010007400809040002605,315247968476981253289653741734168592621395487598724136862579314157436829943812675
006043078107800009040005000013608004900000720000570301608100200200390000050004060,526943178137862459849715632713628594985431726462579381698157243274396815351284967
002003060050010079014209005040000903000062000589400000700500302093100080000040701,972853164358614279614279835246785913137962458589431627761598342493127586825346791
000870910060500700000092406379000002004003060000410500602001005030050070017368004,245876913961534728783192456379685142154923867826417539692741385438259671517368294
301005200060000480005287300000900001078600000509803002000001604014020009907006030,381465297762139485495287316236974851178652943549813762853791624614328579927546138
900503006020600400000048010570000042090001500104000379700030804206900005003725600,947513286821697453635248917578369142392471568164852379759136824216984735483725691
060800903002004000597600002039502061401308000000070080000007258000900007053001406,164825973382794615597613842839542761471368529625179384916437258248956137753281496
007806100020004903059010004860000200000080030905100600201950000480307010000060708,347896152128574963659213874864735291712689435935142687271958346486327519593461728
500090010001402760070630800100580300703000200060000074040009020080106005309820040,536798412891452763472631859124587396753964281968213574645379128287146935319825647
001000006780000240356008009500060900240009063007010084090000300000745001600300020,421957836789136245356428719513864972248579163967213584194682357832745691675391428
002001069001502070059800003060148000003600010090075200800006407300200000014700080,782431569631592874459867123267148395543629718198375246825916437376284951914753682
350080900000700030040001087700605200006320004031900058010500740072090005900040010,357486921128759436649231587784615293596328174231974658813562749472193865965847312
080100500634290800000040000360050002007920680009038100095000061170400000806007340,982176534634295817751843926368751492517924683249638175495382761173469258826517349
004000093078310400050070600106904070082730010400080050900005000000000842001627030,214568793678319425359472681136954278582736914497281356923845167765193842841627539
000010030021930000067002150200600304005080007490001800950068200603700048000400900,849516732521937486367842159278695314135284697496371825954168273613729548782453961
050020140708600200940003080201004703007306000000090605400587001300000902006000400,653928147718645239942173586261854793597316824834792615429587361385461972176239458
008009104091360720000005006040700200803020050705901000300000080500016000062830049,658279134491368725237145896946753218813624957725981463374592681589416372162837549
080500602106002080040000000009803500000019068002050340070040003900061720300908100,783594612196732485245186937469823571537419268812657349671245893958361724324978156
130006079600019020020508300800031090003000260016400500079020003048900100000705040,135246879687319425924578316852631794493857261716492538579124683248963157361785942
710062080000040352004903000400090070009010500860300140900056030086079020050800007,713562984698741352524983716431695278279418563865327149947256831386179425152834697
004006038000105002692700000070001063000530000810070945507009081980000400040208000,154926738738145692692783154475891263269534817813672945527469381981357426346218579
910006045803020000670008100007900080004050203000030900058710000320005094060043500,912376845843521679675498132537962481194857263286134957458719326321685794769243518
000100370382004000900050002065410000070000901000630480720500008109002753000090600,654128379382974516917356842865419237473285961291637485726543198149862753538791624
901005060002800005080740001000003000605980047428001090009104002070030600300000804,941325768762819435583746921197453286635982147428671593859164372274538619316297854
900005312030070000000190680506009270407000001300810065802054090004302050000060800,978645312631278549245193687516439278487526931329817465862754193194382756753961824
687003009100206030000095701010002850000410600740008093004080006079000040000050207,687143529195276438423895761916732854538419672742568193254387916879621345361954287
100207000040030006500000423670950200000010840091300000003089060209470010708502000,136247985942835176587691423674958231325716849891324657453189762269473518718562394
103500000006140087000020003802070400001002000570918060907604200020700509430080000,183597624256143987749826153862375491391462875574918362917654238628731549435289716
910480205000000036000726000400057000235009400000800103800500760007230004002604010,916483275724915836358726941481357629235169487679842153843591762167238594592674318
725040100008030400003708900830000206097006510000193004150000080004027000200050300,725649138918532467643718925831475296497286513562193874159364782384927651276851349
500000004031000080089070601000030258005180007076200000140950300203700906600024000,562891734731462589489573621914637258325189467876245193148956372253718946697324815
301008507000060000049200000020030801000041070057000490090704200700650308504010000,361498527275163984849275136426937851938541672157826493693784215712659348584312769
500000000028005000007830410130000009406000802870206004910048600005071000000620350,541967283328415796697832415132784569456193872879256134913548627265371948784629351
300108004200670900000040065805900100040007000700023008090450002008006510010200603,356198274284675931179342865835964127942817356761523498693451782428736519517289643
000050203000612570090400108100065000800907004609008002402000730001086000560030090,716859243348612579295473168124365987853927614679148352482591736931786425567234891
590006702830107040600000000008700003064903010020508006013400908000090020970300150,591846732832157649647239581158764293764923815329518476213475968485691327976382154
050003008004072900730810040000059007907480050560000010300000204006700083812090600,251943768684572931739816542143659827927481356568237419375168294496725183812394675
006008902004930058000070040680004030072050010910700500030009081800320000500060700,356418972724936158198275346685194237472653819913782564237549681861327495549861723
060000530000010702240900061000875010803600000000001940700300605008097020400500009,169782534385416792247953861924875316813649257576231948791324685658197423432568179
008003050500610000070004906703089040002000015800200003907500400100936080600071200,268793154549612378371854926753189642492367815816245793937528461124936587685471239
130400080000000902005080130490507600021009050060030020002804095806000740003010000,139472586684351972275986134498527613321649857567138429712864395856293741943715268
600080203108002070004937010020010045001003980700400006090200800305009702060000500,679184253138562479254937618926718345541623987783495126497256831315849762862371594
800100570300009480047305000200840350100503002000000900060000701080012040050706090,829164573315279486647385129296841357174593862538627914962458731783912645451736298
000086051061205000800390600000700038200000710940008560070840090185060403003000200,729486351361275849854391627516724938238659714947138562672843195185962473493517286
000752001001060080007001450020007003703900800409000020560008019000543072000019000,846752931951364287237891456625487193713925864489136725564278319198543672372619548
002030705000001490980600003600092000470800019020507608091050804053000062000700030,162934785537281496984675123618492357475863219329517648291356874753148962846729531
100049000034080057562000004640000200009100080000002006801005409000320500370098001,187549362934286157562713894648937215259164783713852946821675439496321578375498621
900010300008006407071402008002903700000000050006040180064050200309107000500820009,945718326238596417671432598152983764483671952796245183864359271329167845517824639
400060031150732000680000900760520800090108600000003020800040069000081240030900700,427869531159732486683415972761524893392178654548693127815247369976381245234956718
072304000096820000400500701000736190000000000080291045003002009605040000009658032,572314986196827354438569721254736198961485273387291645843172569625943817719658432
060001900500000843003000200301098007020050000790200354800004500240609010170805006,462381975517962843983547261351498627624753189798216354836174592245639718179825436
800013090046090070007600053208000009000530002091068000002081630050402010100000704,825713496346895271917624853238147569764539182591268347472981635653472918189356724
050082390390000021000700460003649000002010700604008500840900000060031070700500102,456182397397456821128793465573649218982315746614278539841927653265831974739564182
006000017000400000290300605518207060439006200000000009100709020854602700020050380,346925817785461932291378645518297463439516278672843159163789524854632791927154386
200001508900000402006708000050804009407010006098230005010073900000500013024000000,273491568981356472546728391152864739437915286698237145815673924769542813324189657
049050860000402013600000500300091054100320700006008000538000006000070029027604080,249153867875462913613987542382791654154326798796548231538219476461875329927634185
090230740006007300002406810000008035601000270007605400805013000074000000060890020,598231746416987352732456819249178635651349278387625491825713964974562183163894527
000400700157000030043090106469801200020000085000709004085200300000008090210035060,692413758157682439843597126469851273721364985538729614985276341376148592214935867
012000560067500030500270890080003050009067003001405006128300000030001904004600000,812934567967518432543276891486123759259867143371495286128349675635781924794652318
080769005140080000006002003315020000004000600070904021800007402700105890009030500,283769145147583269596412783315826974924371658678954321851697432732145896469238517
000000005500691080040057602090025300002030768801700000004900207003008010000270004,369482175527691483148357692796825341452139768831764529684913257273548916915276834
100500070000006302938020100070609230800014760005003004040700800500000090617082000,126538479754196382938427156471659238893214765265873914349765821582341697617982543
008106070600000049045800020000205001080300000107004905006521300900007650403000002,298146573631752849745893126369275481584319267127684935876521394912437658453968712
074086020900037060300900004803600000040010589007002010050000601081064200002005007,174586923925437168368921754813659472246713589597842316459278631781364295632195847
190300080800007250070650400000100070340805100600043000900002736006031020002009800,195324687864917253273658419528196374349875162617243598951482736486731925732569841
001000082040075000008103005050002034000390600004086001309201700000900026805400900,571649382243875169698123475956712834182394657734586291369251748417938526825467913
800300410000020067169500020040907000007180009003400050094200536520609000300000008,872396415435821967169574823641957382257183649983462751794218536528639174316745298
829000600000030540000019000060580203357400900001060000030000478100246090000300002,829754631716832549543619827964587213357421986281963754632195478178246395495378162
208600340970000015016070000000907408080340021000006000060052000520001870800003090,258619347974238615316574289135927468687345921492186753769852134523491876841763592
470900100800400603000001050520003079037100000980052000000060230100040060096300507,475936182812475693369821754521683479637194825984752316748569231153247968296318547
010000023003080070700300604000001060020097018009600400097030840608470590500000002,814756923963284175752319684375841269426597318189623457297135846638472591541968732
050020700007801040043000980000140008600075109002006370178003006006000205005094000,851429763967831542243567981739142658684375129512986374178253496496718235325694817
301068709000041620000000040008120030520090080000054000009000060706900405850700203,341268759975341628682579341498127536527693184163854972219435867736982415854716293
460009005070600002900040810090503068002004000001800740200080950009306100350200000,468129375175638492923745816794513268682974531531862749216487953849356127357291684
150040890008067002000000001509800030021090004007004510630000070905700400700032068,156243897498167352273958641549871236321695784867324519632489175985716423714532968
000006001008190075630070004070038000400900200050640093014502800005010060020300009,597426381248193675631875924179238546463957218852641793914562837385719462726384159
741300000000024000030680079270000504800030160000970280406800930050000006310500800,741359628689724351532681479273168594895432167164975283426817935958243716317596842
007003580020900400940075000000890200451200000000031006200000951180002030563040070,617423589325918467948675123736894215451267398892531746274386951189752634563149872
100063090704208030060000500017500208300076000950400310240000700039027600008001005,125763894794258136863914572417539268382176459956482317241695783539827641678341925
000021037007500000041000090104972000098304602530010000000083401200040900000007586,659421837827539164341768295164972358798354612532816749975683421286145973413297586
002510030070090506480007020140200050200800079008006100003620700500009804600000010,962518437371492586485367921149273658256841379738956142813624795527139864694785213
020589030000006409708000600000013000006900008082040915010700040860304007003095020,624589731531276489798431652957813264146952378382647915219768543865324197473195826
540000897002060350000059002603204001078000400250607000421000603060821009700300000,546132897912768354837459162693284571178593426254617938421975683365821749789346215
390005400408900000207000018026590041080017030000206700004000320019000080500640070,391825467468971253257364918726593841985417632143286795874159326619732584532648179
009700100200005004078304000700050090301008000650001028040020080120000053030569000,469782135213695874578314269782456391391278546654931728945123687126847953837569412
640200905000040000700083001100502097037010068590000200801000000009000426052700083,648271935913645872725983641184562397237419568596837214861324759379158426452796183
058096040000800302700000590010004270025061430600309000480100007000000600039057100,358296741194875362762413598913584276825761439647329815486132957571948623239657184
000056740005080090290100080600004009570000160100025803820090400007300000036200507,318956742765482391294173685683714259572839164149625873821597436457361928936248517
385000002000400100701029506620003807000060901109704000060008000030100024400350700,385671492296435178741829536624913857873562941159784263967248315538197624412356789
060590042030600500740008009008320000500780600392100070007005800900003005100002704,861597342239641587745238169678324951514789623392156478427915836986473215153862794
000090700002350000003100084005000031380000900040720600500014260060900017809067000,158496723472358196693172584725689431386541972941723658537814269264935817819267345
400010093000067080080500007307800004100070000950120300005046000790002610023000905,476218593539467281281539467367895124142673859958124376815946732794352618623781945
003000560029017004000083100802004906070000000010905080500430070368090020040006010,183249567629517834754683192832174956975368241416925783591432678368791425247856319
000105049904000500030906008400001023002000000816070090705680310020004006009002750,278135649964827531531946278497561823352498167816273495745689312123754986689312754
000400700700350010010608005069002140073060802200810009540700900098003000020095060,935421786786359214412678395869532147173964852254817639541786923698243571327195468
090068002007045093002700056000803040156920300800000000001600074064010208200009100,495368712617245893382791456729853641156924387843176529531682974964517238278439165
370900025806053000100400000080017300602000810000005069540230000000001270030089000,374968125826153794195472638489617352652394817713825469547236981968541273231789546
702030080850007400004600002500000098093002000080950013300420100060005000005168079,712534986856297431934681752521743698693812547487956213378429165169375824245168379
