003050090960102000800064320020610450000070860100005000401000007078000002590083010,243857196965132748817964325729618453354279861186345279431526987678491532592783614
070009208620705090000001300910270000203086000500103040705400003004000060060300980,371649258628735491459821376916274835243586719587193642795468123834912567162357984
040832090098400007000000005569700041020050800001309600403001000010080020007904013,745832196698415237132697485569728341324156879871349652453271968916583724287964513
900180024100200030067000900000605403002000750048370006806532000300004805010009070,953187624184296537267453918791625483632948751548371296876532149329714865415869372
280030704000061059009000060053906007040370091800045002000002040308700105400810000,286539714734261859519487263153926487642378591897145632971652348368794125425813976
060500000100020890005430007320647000008000023090080001804005910600000038907003200,769518342143726895285439167321647589478951623596382471834275916652194738917863254
010059060000382105430000280000000006008000574097100000320096000000045001604730890,812459763976382145435617289243578916168923574597164328321896457789245631654731892
698500000300419800010006023000005008009801460500693007070020531000008700042300000,698532174327419856415786923761245398239871465584693217876924531953168742142357689
300800502000604000004039100032000000048006913701050080080001460053002090009700008,396817542175624839824539176932148657548276913761953284287391465653482791419765328
408109005092008000107060000040630700039020000500800040200050387600704050000300016,468179235392548671157263894841635729739421568526897143214956387683714952975382416
100800042083005000607390000046070500800000010012040768030006051950030070000029804,195867342483215697627394185346178529879652413512943768234786951958431276761529834
760930002000001000300042785902500670008000520070000301400190800050080094010076000,765938412284751936391642785932514678148367529576829341423195867657283194819476253
060081900309005060070000002103004079600150803000902056001070000080309420027006080,265781934319425768874693512153864279692157843748932156431278695586319427927546381
010007004607009020500623000470305010002860003090000408001708000000200900803041067,219587634637419825584623179478395216152864793396172458961758342745236981823941567
100009307050680000004002010203940150500023004060800700680500000000004075700100023,126459387357681249894372516273946158518723964469815732682537491931264875745198623
000006004100402870300000605002600507030104008008057090700300900095020003840900010,289576134156432879374819625912683547537194268468257391721348956695721483843965712
300050280409000060007209010002090000908410736060508400001340905000100003600000071,316754289429831567587269314742693158958412736163578492871346925295187643634925871
907030050054200180001406000090380200016000007080901000043005700200014006500700009,927138654654279183831456972495387261316542897782961345143695728279814536568723419
064107000200030906350400800400000200020075034906020150001000002003050008790386000,864197523217538946359462871475613289128975634936824157581749362643251798792386415
065900000100300790007008401300027080040003620008000005690005003050609108074100009,465971832182354796937268451316527984549813627728496315691785243253649178874132569
428010700000980301000007005680040100000032070902600400530400200040006093010570080,428315769765984321391267845683749152154832976972651438536498217847126593219573684
530409001609000700180200500000040812452008009000907000701000205000060040008103900,537489621629531784184276593976345812452618379813927456761894235395762148248153967
006103420000700000407029580502001060000080309700400010100096002053000070900002140,896153427325748691417629583582931764641287359739465218174596832253814976968372145
000008006021006570090730004005940007104800300900570080040120800006000205830000090,457218936321496578698735124285943617174862359963571482549127863716389245832654791
002000807010450030000067000070000410360570002000901065509008200700320090028040006,652193847817452639493867521975286413361574982284931765539618274746325198128749356
000800402009060000860074300003006014526018000070090200091500003200000957040037800,317859462459263178862174395983726514526418739174395286791582643238641957645937821
708060309000090217050100000080003000609510004204000071460070082100008690003600000,718264359346895217952137468581743926679512834234986571465379182127458693893621745
304900028610008907000720410100690700050000200000201060400000000060005103790380050,374916528612548937589723416123694785956837241847251369435169872268475193791382654
800340109002500700496017000000002800078650002010090050000074300003000096045860010,857346129132589764496217538569432871378651942214798653621974385783125496945863217
000000204014008000309402070600003000730060825058000009100700050046290380020030016,875319264214678593369452178692583741731964825458127639183746952546291387927835416
705800103300020004080016090000400031902000000008903060109040002500701809040050700,765894123391527684284316597657482931932165478418973265179648352526731849843259716
079001830015280700000007026490320570000800000506019004007465010900000000000070368,279641835615283749843597126498326571721854693536719284387465912962138457154972368
030605094204000805080009010000806030150030000900000070840700102016024003007050900,731685294294371865685249317472896531158437629963512478849763152516924783327158946
760829003905600000400000010000030000180907300090060208007043900200700005056102840,761829453935614782428375619674238591182957364593461278817543926249786135356192847
710002000350800960604050700069003080080907250405060300000006030000409100820130004,718692543352874961694351728269513487183947256475268319941726835536489172827135694
400780300270400901086003050800600000000007030602150790025040000904008500300009260,459781326273465981186923457897632145541897632632154798725346819964218573318579264
309208004050097080000600010467000108100000300203560090540030070000070602800402009,319258764654197283728643915467329158195784326283561497542936871931875642876412539
005000038102530006600000900370490500050806040004020000708950000060700003000018029,495167238182539476637284915376491582259876341814325697728953164961742853543618729
009010053320040000605000708080309004071000000400050690000025089807004510003901006,749816253328547961615293748586379124971462835432158697164725389897634512253981476
601002783000008021300100009094605037500034062030000500100900000000023048742500000,651492783479358621328167459294615837517834962836279514183946275965723148742581396
005009610004002000000700248000000130059260000821070005900830076407915800000600400,285349617674182359193756248746598132359261784821473965912834576467915823538627491
200000009009004800813750060100902058000041700540073010006210000000080095370006082,264138579759624831813759264137962458698541723542873916986215347421387695375496182
070800051001340090200500400060009100005007030480000620940008206700000583010620007,674892351851346792239571468362489175195267834487135629943758216726914583518623947
652007010000980000040060005160804270004002086070300900900103500080570000001020490,652437819713985642849261735165894273394752186278316954927143568486579321531628497
000020790003190080600403050080001400450060009200080175065007000800019060109038002,514826793723195684698473251987351426451762839236984175365247918842519367179638542
000000030015060740007048600230410006500002090900350180000080007000100308006907250,642791835815263749397548621238419576561872493974356182423685917759124368186937254
005900060300062705690300810080007300514000080000020640470109500000000000968005024,825971463341862795697354812286417359514693287739528641472189536153246978968735124
840200069006003400500100007790504100060030900305090008900060810002000574017800000,841275369276983451539146287798524136164738925325691748953467812682319574417852693
039070002100000000008100960200609700093007040400002801070005413050020089006004000,639478152145296378728153964281649735593817246467532891872965413354721689916384527
095400600300020710700300080020000008001568002507930000003780001068000000204009035,895471623346825719712396584629147358431568972587932146953784261168253497274619835
678090400000830100020005000009206870803051006007000000510070049000000680906304200,678192435495837162321465798159246873843751926267983514512678349734529681986314257
020000300000100678500840209013720006002501904080900000034290000600000050007468100,821679345349152678576843219913724586762581934485936721134295867698317452257468193
009802400307000000080040653630090501008006009205714006400600700000009002070501380,569832417347165928182947653634298571718356249295714836421683795853479162976521384
061200050400080007070304200004609000250040930006000108002015800090070510300820070,861297354423581697579364281184639725257148936936752148742915863698473512315826479
012750009600000000780039014006040905031000080840063027000420600000005802907100500,412758369693214758785639214276841935531972486849563127358427691164395872927186543
006200003300009410020005089002070130509601000004080067010000070087003200600800540,946218753358769412721345689862974135579631824134582967215496378487153296693827541
070002310084910050000006408203090001000500902061084000700405030095070600010020080,579842316684913257132756498253697841847531962961284573728465139395178624416329785
950000004086000072100063008000030700748500030000904016007650000200800900004021607,953782164486195372172463598619238745748516239325974816837659421261847953594321687
100087000060400907040920030205000100003010580000038490750003000004200360802009040,129387654368451927547926831285694173493712586671538492756843219914275368832169745
005009028060012400000400000030205040080300100006007809142600005058001600097800003,415769328863512497279438561931285746784396152526147839142673985358921674697854213
020400091005003008807500020060048030109200450700009000000005246031600080000872000,326487591415923678897561324562748139189236457743159862978315246231694785654872913
010002038500000002008364019704020080900080304005019060609000000347800005000705400,416952738593178642278364519764523981921687354835419267659241873347896125182735496
510023006000500782908407500000900045060015009709000020006002004200740830081009000,517823496643591782928467513132978645864215379759634128376182954295746831481359267
070605009402007008095102430720916050060008000100070040800200315900004076000030000,378645129412397568695182437724916853563428791189573642847269315931854276256731984
295008000000300027003004800081032509000906000004080012010600408400750906037040050,295178643846395127173264895781432569352916784964587312519623478428751936637849251
403010029001508000007200500200040006900006780704100093000900070000061402386000015,453617829621598347897234561238749156915326784764185293142953678579861432386472915
000007068035804000070319002900105007800000654300020000002730400090600180046500700,419257368235864971678319542964185237821973654357426819582731496793642185146598723
860003507090070010001004008600509400700362090500410003000820000037000001104005209,862193547495278316371654928613589472748362195529417683956821734237946851184735269
002908040750000000800160350004370060090610008203009007300040189006000004010205000,632958741751423896849167352184372965597614238263589417325746189976831524418295673
548160090000073000000800205070059010800400030039000000091240670200008049600037002,548162793926573481713894265472359816865421937139786524391245678257618349684937152
000010500006503409000428070030001000908007640600200305400085002790140003012700000,247619538186573429359428176534861297928357641671294385463985712795142863812736954
097800010000500300203019076470953000060000052018006000000690143001000268000024700,697832514184567329253419876472953681369781452518246937725698143941375268836124795
040005026170406000000790080490010002200300567300608000000001000085070200720003954,849135726172486395563792481496517832218349567357628149934251678685974213721863954
301057000002008600790120038000900475500000082200430900000803796000010050864000000,381657249452398617796124538613982475549761382278435961125843796937216854864579123
037614000200098600090025803108060504904000007000050280000200015070083006406000000,837614952245398671691725843128967534954832167763451289389246715572183496416579328
002310400080006010650000700003098000500604801260700300709500000400189006000020035,972315468384976512651842793143298657597634821268751349729563184435189276816427935
950280000460030000002064005700801540504000002006070398090006001013000460000902870,951287634468539127372164985739821546584693712126475398897346251213758469645912873
590008260100040090070200005002300071030600500400000800200710049600032000050090380,594178263126543798378269415862354971937681524415927836283715649649832157751496382
013540008080000400000073509600009020700080000050210804200430600030107005004620007,913542768587961432462873519648759123721384956359216874275438691836197245194625387
000720380000900402108500000050090000900300067071084020012030005600001908407805003,549726381763918452128543796256197834984352167371684529812439675635271948497865213
000000180130098000604050007000020930005407008040600020007013040090802000510000362,759246183132798456684351297876125934925437618341689725267513849493862571518974362
026000108000000000000305604008007041100640790430002050010063000300021507069800002,526479138843216975971385624698537241152648793437192856215763489384921567769854312
029500001504007000030014028060090000000075043072300600600049700098000060100260035,829536471514827396736914528365492817981675243472381659653149782298753164147268935
830904001905000000000060070021053700500400082006190400000610208042300900070000650,837924561965731824214568379421853796593476182786192435359617248642385917178249653
397400800000000304000106090180070000609028000040003650400200016050709400068000502,397452861516897324824136795185674239639528147742913658473285916251769483968341572
910058046762400000000000310807009000420710080005006230208004050040300008000600900,913258746762431895584967312837529461426713589195846237278194653649375128351682974
000300607097240000035000120402850009100007208903004700060090500000008471008710003,214385697697241835835679124472856319156937248983124756761493582329568471548712963
002560007400300985907108320003002049809001030000000500060000000005470801100096704,382569417416327985957148326573682149849751632621934578764815293295473861138296754
703040500502136070040080002009702460030805700206000100008900650000300041000051900,783249516592136874641587392859712463134865729276493185318924657965378241427651938
020096007507000800000078034000000195300040780658010020060402051000037040209600300,824396517537124869916578234472863195391245786658719423763482951185937642249651378
090035070060000008305060410402000193008204500600000000910408036000009701080703000,894135672761942358325867419472586193138294567659371824917458236543629781286713945
108005020090060050700900100065302000070090084400107305002074000604200810080600090,148735629293461758756928143865342971371596284429187365912874536634259817587613492
000079080400200073000480109005100060600823500007004001350000000089051302201700006,162379485498215673573486129835197264614823597927564831356942718789651342241738956
920050000000000071080600930130004506400960100600081020009020008005700340870390600,923157864546839271781642935138274596452963187697581423319426758265718349874395612
040130005168900007070802400500006004031020050000070029600058902007000103904600000,249137685168945237375862491592386714731429856486571329613758942857294163924613578
812004060000000030047950000000560100173009008200807400600041209008600007090030000,812374965569182734347956821984563172173429658256817493635741289428695317791238546
372000105601700000004038000703810200026009050000004800050040060000500748000203009,372496185681752934594138627743815296826379451915624873158947362239561748467283519
050790028008340070160500000002080003300064009095103800074050300810000065000002090,453796128928341576167528934742985613381264759695173842274659381819437265536812497
800001700053000020000900806702803005000490107109600040310206000600370004407005200,864521739953768421271934856742813695536492187189657342315246978628379514497185263
100047600006000050425306007000003000700090084502600100040700029000031806839400500,198547632376219458425386917914823765763195284582674193641758329257931846839462571
