000040307300602900008009560003000250016207000090081004030400029001500086980000730,269845317357612948148739562873964251416257893592381674635478129721593486984126735
670008200000700190002305040200400000704020003109087006900106000085003900010004752,671948235543762198892315647268431579754629813139587426927156384485273961316894752
109800060250401070060930005090012040700000530081500600007106280000050304018090000,179825463253461978864937125695312847742689531381574692537146289926758314418293756
670080004000109200000340100004052900590800007380600510920071060000000450018006000,671285394843169275259347186164752938592813647387694512925471863736928451418536729
730058460042003800060000009050000200000080701180094003500760010300005000079320006,731958462942613875865472139654137298293586741187294653528769314316845927479321586
002900083080064500090050001100308070006000340000070020010702009029100630840030700,562917483381264597497853261154328976276591348938476125613742859729185634845639712
006500000015029000920083410080006900600094820000000570041300090300201600200070040,436517289815429367927683415782156934653794821194832576541368792379241658268975143
093010046000703020001000805900005673060291500004000000700000008020840009045630010,293518746458763921671924835912485673367291584584376192739152468126847359845639217
500208030060010840012047006008003010100400750070600900630500080090000201007094000,549268137763915842812347596958723614126489753374651928631572489495836271287194365
020050800071430500000607040008000005003060010045910730900304080010020004600500307,426159873871432569539687142168743295793265418245918736952374681317826954684591327
740000000309080600001203500000400000435602780007309010500106007008940200620007005,742561938359784621861293574916478352435612789287359416593126847178945263624837195
000810054007209003180050009200006001940100507005004200004730090390080005502000060,629813754457269813183457629238576941946128537715394286864735192391682475572941368
000300104500006002094801070025009080608000030001470006082000015070024000300007009,867392154513746892294851673725639481648215937931478526482963715179524368356187249
600002948901006000000307200004050003800020750002903100009080006750400010040601300,637512948921846537485397261194758623863124759572963184319285476756439812248671395
070610349406008200002300700100005002748000090500030060600700051290080400000140008,875612349436978215912354786163495872748261593529837164684723951291586437357149628
709002030682005090030000006000900000006028410098760500000250007000301802405070300,749682135682135794531497286254913678376528419198764523813256947967341852425879361
004300010069027005085690200040100000006900732000080050203004067000030149070560800,724358916169427385385691274542173698816945732937286451293814567658732149471569823
307009160060400090000000503401907050050208079200530600008001007006080040902040000,327859164165423798894176523481967352653218479279534681548691237716382945932745816
800007910002000030010204506005030074006058000293006000000489700630001000040020195,854367912962815437317294586185932674476158329293746851521489763639571248748623195
054000200080100340900080060030760100001500426020000080307009005200003870065410000,154376298682195347973284561438762159791538426526941783347829615219653874865417932
005062030908010002070004900720800051030200007500603094600090000002705400004000805,145962738968317542273584916726849351439251687581673294657498123812735469394126875
003080401600342000090050600501009836004200070980605000000700002702000189000004500,273986451615342798498157623521479836364218975987635214856791342742563189139824567
400000635010850007307000100190002006060019520580470003000020304006730002000048090,428197635619853247357264189193582476764319528582476913871925364946731852235648791
300002900026700580008640000100000362060051094007200000083000070740830201005090008,371582946426719583598643127154978362862351794937264815683125479749836251215497638
380020900406093200700040001805710062910008005030000000070206010000004503000580740,381627954456193287729845631845719362912368475637452198574236819168974523293581746
000050000010438027007109830203005000040600079056000010630500094100070002905002008,368257941519438627427169835293715486841623579756894213632581794184976352975342168
050600709004031028037000400040070300103090006090820005600405200000910000005002087,251648739964731528837259461548176392123594876796823145679485213382917654415362987
600009000004205900930040207800001400097400060001900502300760008010000024256080003,672319845184275936935846217823651479597428361461937582349762158718593624256184793
019085020407200000000004360090001700078000005006030140005890006200040093063150800,619385427437216958852974361394561782178429635526738149745893216281647593963152874
070004809806000150050200000007130095009607008020090070000049620014050003302860000,273514869846973152951286734467138295539627418128495376785349621614752983392861547
000081035094050072000007860400060503010000000027005908003000200108240006006300794,762981435894653172531427869489762513315894627627135948943576281178249356256318794
000318600005009020030000940340065009091403007000070100400607850800021000650000003,924318675165749328738256941347165289291483567586972134419637852873521496652894713
802073046006090702100406803504000000000301900060007050270080400309200000005000108,892173546436598712157426893514962387728351964963847251271685439389214675645739128
008043000000670001040520807005010082107300090824000060000059200596000400001804300,718943625352678941649521837935416782167382594824795163483159276596237418271864359
500900078040062010910000506084007030600000700057083602002819300000004000071350040,526931478748562913913748526284697135639125784157483692462819357395274861871356249
895300006001709040040000800009003205300410670000920100104000308602000900007850012,895341726261789543743562891419673285328415679576928134154297368682134957937856412
057809300400260870201003000090007520560000030172000004000030060003690010820540000,657819342439265871281473659394187526568924137172356984915732468743698215826541793
000012000090580060006300002360000004280970001000200570103006450000005807004091300,738612945492587163516349782367158294285974631941263578173826459629435817854791326
003105070020060431900007680062700040159600000700002508410000200000390000005408710,683145972527869431941237685862753149159684327734912568418576293276391854395428716
005040089700010300000962000001008072002000908940073060050031200020006540360500010,215347689796815324483962751531698472672154938948273165857431296129786543364529817
100096080080400000036070520000200900024019053700300600900025000603008071040060800,172596384589432167436871529361257948824619753795384612918725436653948271247163895
160020040085016003000000900001060700690003082070450030300801609900700058042000010,169327845485916273723584961531268794694173582278459136357841629916732458842695317
600009800059304007402180063940500000000840500007020308080001200003050706200030091,631279854859364127472185963948513672326847519517926348784691235193452786265738491
000804500675000003300000092000205700280061009401090600030140060504007800800309007,129834576675912483348576192963285714287461359451793628732148965594627831816359247
360402000008960000090070350052008401100500070007000620900310700006000009720090148,361452987578963214294871356652738491149526873837149625985314762416287539723695148
470200906200086000000005100504003000820000014067000092000509001309700480005318070,478231956251986743936475128594123867823697514167854392782549631319762485645318279
900008034074901006082003001041000080063020170000036502850000090007000000109470200,915268734374951826682743951241597683563824179798136542856312497427689315139475268
005003000820060071104200030080709000000000420309150706650408300902600008000920010,795813264823564971164297835286749153517386429349152786651478392972631548438925617
030000060002057000819043007204800076000430900003000105500001009100006524007090008,735928461462157893819643257254819376671435982983762145546281739198376524327594618
080300090157020604060070108014000009300000802700549300009006407500100203200700050,482361795157928634963475128614832579395617842728549361839256417576194283241783956
028513000000000028160040090601430000300090546005008900050100760709000800030250000,928513674543976128167842395691435287382791546475628931254189763719364852836257419
005200708000006010019804003304080002100907000570000406000463900706001080003020500,635219748487356219219874653394685172162947835578132496851463927726591384943728561
009030250500409308710200000024800610300000000000000597001067004090003006078904000,849736251562419378713258469924875613357691842186342597231567984495183726678924135
103204800000075061007980430201500000470000008060090310980100200000030600045006079,193264857824375961657981432231548796479613528568792314986157243712439685345826179
600780004079500308010004056040010007030270900001905600000030200805009003027406010,653782194479561328218394756942613587536278941781945632194837265865129473327456819
920075800000064700076020100004030009803000056050001300300000900100452080602900047,921375864538164792476829135764538219813297456259641378345786921197452683682913547
590008300001970060080154200600000912030006400000820007023490050700000093160500800,597268341241973568386154279678345912932716485415829637823491756754682193169537824
000007032500000000014090068080050040090103026321680900006240380700060004900000001,869417532573826419214395768687952143495173826321684975156249387738561294942738651
100040030600205009730009820007400060283010090090008015350070000002900003004080700,129847536648235179735169824517493268283516497496728315351674982872951643964382751
709800000020016074000002009000500236013400500800009010006070003004600051905003802,769834125528916374341752689497581236613427598852369417186275943234698751975143862
400000780130008902090050001809702000700100005002090300906805004000960520071023060,465219783137648952298357641859732416743186295612594378926875134384961527571423869
000000008003057090920100360001074089059030004060002500170400030008000052645090010,516329748483657291927148365231574689759836124864912573172485936398761452645293817
640053080000600790032000000074006205001028600090071000105094807007010030020800400,649753182518642793732189564874936215351428679296571348165394827487215936923867451
500000070310042080040000200094001000120037608003060950000089700070510002950000413,562398174317642589849175236694851327125937648783264951231489765476513892958726413
000100080001039067407050000820060005045290016030740000003000601970003800000524090,392176584581439267467852139829361475745298316136745928253987641974613852618524793
140250030900000000600000480000029705487006002000003060000138056531900004002700900,148257639973684521625391487316829745487516392259473168794138256531962874862745913
079203008508090010130600007803001050600000090041070002005100634090008000200054800,479213568568497213132685947823941756657832491941576382785129634394768125216354879
050000020004089000700165003000003901506400007839000002670340000100026080040001350,951734628364289175782165493427853961516492837839617542675348219193526784248971356
600008109008429300050060004203780000010003500980000030006051090001302705004070002,642538179178429356359167284263785941417693528985214637726851493891342765534976812
090040060800030201504180070765003100081059000200000086300062007900400000017000450,193247865876935241524186379765823194481659723239714586348562917952471638617398452
000201307003050024040900106070080900502600081800000070098003000051002600306009000,685241397913756824247938156174385962532697481869124573798463215451872639326519748
004609008350010200000703600040501000008340009900078403105000000020000870007902305,714629538356814297892753641243591786578346129961278453135487962629135874487962315
750000060040090830003064095006700100107000003390020080064072000008100509900053020,759318264642597831813264795486739152127685943395421687564972318238146579971853426
000083096070590300002100000840010000000600700700235400510006084003000562400000030,154783296678592341392164875845917623231648759769235418517326984983471562426859137
040103007382079000610005000030081000500000208000060410026400830009200041070918020,945123687382679154617845392234781965561394278798562413126457839859236741473918526
402700301300600980070050002500007804200360015031084200050000000000831000680020090,462798351315642987879153642596217834248369715731584269153976428924831576687425193
013090008800002403706001050004603001050927800628500000000248030509070002030000006,213495678895762413746831259974683521351927864628514397167248935589376142432159786
083000040090001020700609500400705902008000051000004800030020060007050203604307080,183572649596841327742639518461785932278963451359214876935128764817456293624397185
000027080009830001300000600890100500702080010036040029001600003468000970020500000,615927384249836751387451692894162537752389416136745829571698243468213975923574168
400095080005400091073006205304800010250010009060000370700043008008600000109070020,412795683685432791973186245394867512257314869861259374726943158548621937139578426
320090100600470250090800400000009005008200003903601740000007020460058001700300960,324596187681473259597812436246739815178245693953681742839167524462958371715324968
005701000300506947200000000000409605840005270601300800090204000007008501003060020,965741382318526947274893156732489615849615273651372894196254738427938561583167429
002809001017300005058400260430000097006000108000631500200178040093002010000060700,642859371917326485358417269431285697526794138879631524265178943793542816184963752
804010030020009100001003005030802010000005692760000008180750000503200700009008046,854617239327589164691423875935862417418375692762941358186754923543296781279138546
006000000910000052530814000000000217060132008000097600094080071050040806020560094,476925183918376452532814769349658217765132948281497635694283571153749826827561394
008025460510007000900804000780090003000400200006708059051603000420000310090200087,378925461514367892962814735785192643139456278246738159851673924427589316693241587
308600005000800004020000100000000410400987030205010069004093700090070240710058306,348621975157839624926745183839562417461987532275314869684293751593176248712458396
002030100408500030060010247009600700305094001800370004031005078600002009007040650,792436185418527936563819247149658723375294861826371594231965478654782319987143652
010037089030209700050104006008000140109300005000406030600702000703050200405600010,216537489834269751957184326368975142149328675572416938681742593793851264425693817
005100004010094080208035070100060820073050900620007043400000306001200000067001450,795128634316794285248635179154963827873452961629817543482579316531246798967381452
130008000008750002700632080070900040004180307903000506000000024016020700309040061,132498675698751432745632189571963248264185397983274516857316924416829753329547861
409003020512090008700056100046039070080000052003700000005060713000872400600000000,469183527512497638738256194246539871987641352153728946825964713391872465674315289
070008002000075408104000350000604005028903000003120806030090000842000600060702103,375418962296375418184269357917684235628953741453127896731896524842531679569742183
000700120429000506006005400602090035705100008000003060900058000040610007080237090,358746129429381576176925483612894735735162948894573261967458312243619857581237694
000650902030900000400007058700000401006320005018009600600180000091530070350004010,187653942235948167469217358723865491946321785518479623674182539891536274352794816
901800000260700010000400306716020400000300025520000179040080030000906054008150007,931865742264793518857412396716529483489371625523648179645287931172936854398154267
090005700400020600000013294070009050800050073059800000630007410001604020900280000,293465781417928635568713294176349852824156973359872146632597418781634529945281367
400090760087504009100003002009020500034076000020408036000010000600800140005200083,453192768287564319196783452869321574534976821721458936348615297672839145915247683
901000040000008006050074000004090073072000081830500060760300200023051008008046035,981625347247938156356174829614892573572463981839517462765389214423751698198246735
250107040090082600000000000030510780600009020047000031001020008009006405800300069,256197843193482657784653192932514786618739524547268931461925378329876415875341269
