204000970800500016090600000700000090000142500006030480430956700050080000028073001,264318975873594216195627834742865193389142567516739482431956728657281349928473651
004000020805072400300850006500000000097005082080900300000061009460020005900438100,674193528815672493329854716543286971197345682286917354738561249461729835952438167
030680100940050000801209063007020310105803006200004809050700400009000028000100007,532687194946351782871249563487926315195873246263514879658792431719435628324168957
600015000405700600032490070006004050008051029070830040704000091001367000000000200,687215934495783612132496578216974853348651729579832146764528391921367485853149267
800394076006500040000207100920000800004619050057040003030000528702908000000003400,815394276276581349493267185921735864384619752657842913139476528742958631568123497
150097800020305090706020400438510000500006003000040020200070014019000680600008000,153497862824365791796821435438512976572986143961743528285679314319254687647138259
500000210290004007007086059006875003003010890000000020780090030049300081010460000,564739218298154367137286459926875143473612895851943726782591634649327581315468972
109000570050040200087005309040032050560800002000070008803620400210080600070901000,129368574356749281487215369748132956561894732932576148893627415215483697674951823
900007200540080007082603001004032100897000030020050064000070605360900018000100040,931547286546281397782693451654832179897416532123759864419378625365924718278165943
300709060000400803006010700080002050047060000001974620023005170908600530005021000,354789261172456893896213745689132457247568319531974628423895176918647532765321984
000004500360001487700300006007950002632070900805000010100090008040230650000006204,281764539369521487754389126417953862632178945895642713126495378948237651573816294
045920068002010034300600070009807520004050000000000603100079080078532010400008009,745923168862715934391684275639847521214356897587291643156479382978532416423168759
630000057000920608000000010020600031471030009009800020100009002853470000007360400,632148957715923648984756213528694731471235869369817524146589372853472196297361485
710304000205180000300507680009800700040700503070006090003200406621040070000005930,718364259265189347394527681139852764846791523572436198953278416621943875487615932
706910000023040090080507000009000830000060405150002006210300500400290100000084607,746913258523648791981527364679451832832769415154832976218376549467295183395184627
000004800800030057001020030920018070650000009083076002260005014300000020009780005,732654891846139257591827436924518673657243189183976542268395714375461928419782365
080040000300706820210005069000003082008400090900050007607102035105300000020090640,786249153359716824214835769461973582578421396932658417647182935195364278823597641
008000507000040060072906108700093005060105700031008009400201903080760000100504200,648312597915847362372956148724693815869125734531478629456281973283769451197534286
300007290480100070000000015000075006940200800030986000012050300700001024800090700,361547298485129673279638415128475936946213857537986142612754389793861524854392761
018006002000700803030005790900350106600100048047020000001800024005270000000043600,718936452594712863236485791982354176653197248147628935371869524465271389829543617
900650008200040600030780015000000540800200307071300060009008000100570209605021030,917653428258149673436782915392867541864215397571394862729438156143576289685921734
069007508000003041007250030003400000078000060145009270800005609200300087006804000,369147528582963741417258936623471895978532164145689273834725619251396487796814352
000419086070020539080500400003800290006031007240057000502000004004002301190040000,325419786471628539689573412713864295956231847248957163532186974864792351197345628
400107890038000007005009000050208030009500062170003400000841200040000500067320100,426137895938452617715689324654278931389514762172963458593841276241796583867325149
180900075040000398500002000807026900200008017019450000000700604031509002600003000,186934275742615398593872461857126943264398517319457826925781634431569782678243159
002930067600700840000608103300007082290000370004090005073805000560021000100000406,812934567635712849947658123356147982291586374784293615473865291569421738128379456
090750400001006080000002763000003050800960032109400800507039000024001000006270015,693758421271346589458192763762813954845967132139425876517639248324581697986274315
120300000004000026030090708200650093510040080000208100000006000940020057070584061,128367549794815326635492718287651493513749682469238175851976234946123857372584961
009200067007068413000057020940100800006004200300500000060800004804023070531009600,489231567257968413613457928945172836176384259328596741762815394894623175531749682
300000000650200900007008104100057096080600000000403502004000230720104805060590040,341975628658241973297368154132857496485629317976413582514786239729134865863592741
003250400008073050009000607000798000607030100040002080201086305090010206050400090,763259418418673952529841637132798564687534129945162783271986345894315276356427891
370000100509408000004073006008705000090000200020961040200096050810500003000080067,372659184569418732184273596438725619691834275725961348247396851816547923953182467
040280600170030089009600405280401007004000310500920000000000020030840506060075008,345289671176534289829617435283461957694758312517923864458196723731842596962375148
000006801007534200960000030500708400000190006021603005400300000805010090010802374,253976841187534269964281537596728413348195726721643985472369158835417692619852374
000967004000500910070043000900070641045200800006890200030002105004600080180700030,851967324463528917279143568928375641345216879716894253637482195594631782182759436
100002630740000020000469800310800960824010000005073000000600008090100340032008070,189752634746381529253469817317845962824916753965273481571634298698127345432598176
570100208200576001030000060620701030400002910000804007009040000010085409750003002,576139248248576391931428765625791834487352916193864527869247153312685479754913682
010006500305701600790840200208000040047500000000012307900060451000030006024007009,412396578385721694796845213238679145147583962569412387973268451851934726624157839
007900003023500800980042000690004058105003067000000100060780209051206030070000600,517968423423517896986342571692174358145823967738659142364785219851296734279431685
018047090005900000000000306100305029009016705070004080000701060230000100600580047,318647592765932814942158376186375429429816735573294681854721963237469158691583247
100800000000340280602079040807006300530020017000000009050017600200400001009038450,143862975975341286682579143897156324536924817421783569354217698268495731719638452
087040150001000900602050804450002790006900023000073006030086070900021040025000008,387649152541238967692157834453862791876915423219473586134586279968721345725394618
104208003950600000000093006086570900400000100790004820500080371308042600070000002,164258793953617248827493516286571934435829167791364825542986371318742659679135482
000003080001000479960405020003702904804009000070600010206950307037260500100000800,742193685351826479968475123613782954824519736579634218286951347437268591195347862
970003000302000508548001039020000700100408090050200046060039120081070000400050060,976583412312946578548721639624395781137468295859217346765839124281674953493152867
030806705017000840004010092008000037000050209060903400490070100000385000052400600,239846715517239846684517392928164537341758269765923481493672158176385924852491673
000908106800050020062407000240093008001700005300060740905802300100000980006000070,734928156819356427562417893247593618691784235358261749975842361123675984486139572
300007008060031270094000060045200007000809010930065002120300900050108034000070500,312697458568431279794582163845213697276849315931765842127354986659128734483976521
009083056500090300800407200004002007070000001103060098000804100060529003450001070,249183756517296384836457219684912537975348621123765498392874165761529843458631972
020741390800006140090800005460903010700000030089607200600000420003150700001004080,526741398837596142194832675465923817712485936389617254658379421243158769971264583
001840002036100050840002009510600000020704100304050600000090030070006204950003870,791845362236179458845362719517628943629734185384951627468297531173586294952413876
004060078010300500007804100040902060106008090093050200502000080000079040060203001,234165978618397524957824136745912863126738495893456217572641389381579642469283751
009020670003906050074100000000408302100050400060017080240080009907003500051002800,519824673823976154674135298795468312138259467462317985246581739987643521351792846
201800000470003062060005900009740003008010600020009150014600509000070300936204000,291867435475193862863425971159746283348512697627389154714638529582971346936254718
000025980500003407001609000009004306047960850200080000003178000070000214056002030,634725981592813467781649523819254376347961852265387149423178695978536214156492738
403900020010000746006080005800009067002753009100200034504320000280005010060047000,453976821918532746726184395835419267642753189179268534594321678287695413361847952
100080450009700600028046000030090800080020097407100300050200710060005039000304060,176982453549731682328546971231697845685423197497158326853269714764815239912374568
009740080003908001000100670080023016005000804000094030040206300708000000962001705,619745283273968451854132679487523916395617824126894537541276398738459162962381745
039500004008709610065010803050060030000003279240000080300048002004007000680000100,139586724428739615765214893957862431816453279243971586371648952594127368682395147
000308200703400506001069007510030600006004950089200014040000000050812300900700002,465378291793421586821569437514937628276184953389256714142693875657812349938745162
940060052000001060020030007080206910093500000004000870008000039039780020670010504,941867352357921468826435197785246913193578246264193875418652739539784621672319584
020405030100000048400097050005060900000253170631000020090300002000780064806001000,728415639159632748463897251275164983984253176631978425597346812312789564846521397
000083100008020050430560070000604015576001204009000030800000006012700508007290300,725483169968127453431569872283674915576931284149852637894315726312746598657298341
601052070040000500080300006009200008203704610007605400030009840900500032100007900,691852374342976581785341296469213758253784619817695423536129847974568132128437965
084002600000093007000500100402980001031026050500040900009810534005000702700004860,384172695156493287297568143462985371931726458578341926629817534845639712713254869
004010000309850000080000420000580610060000097010902503005003280201070059900400060,754216938329854176186739425493587612562341897817962543675193284241678359938425761
910700480600020000007068120720109600040070000000000803400230008569010300000604005,912753486684921537357468129723189654845376291196542873471235968569817342238694715
408060072030000060050020800070004006100859700325010400000700089964100030000300510,498561372231478965657923841879234156146859723325617498513742689964185237782396514
020170000008406900704300008400012007009500100060009253305900080002807314080000060,926178435538426971714395628453612897279583146861749253345961782692857314187234569
006070130100480200000000008307000000050030004409158006700910025004005700210064903,846572139193486257572391648387649512651237894429158376768913425934825761215764983
024130800607000009000000430009008070071250600000460080002080090008003714010590300,924135867637842159185976432469318275871259643253467981342781596598623714716594328
405028063380000002000070090804039100001060009906000205000000830200490000610507000,495128763387956412162374598854239176721865349936741285549612837278493651613587924
009008170000064008702901003061500009000800042430007000120039050000600030057100600,649328175513764928782951463261543789975816342438297516126439857894675231357182694
520003900800100007000980600130507009790004035004000102260870540900401080000005703,526743918849156327317982654138527469792614835654398172263879541975431286481265793
000040000090007053700060218300100000008500670100286094903020000016000780847000500,581342967692817453734965218369174825428539671175286394953728146216453789847691532
600000080520301000039060710064900000001087240900003050003540008140000920070020360,617294583528371496439865712764952831351687249982413657293546178146738925875129364
070000400020850630080412090098030050000500140402009000007906003010000800005300027,571693482924857631683412795198734256736528149452169378247986513319275864865341927
009203010370000090268049000000700908104500007095306200000065034807001600400020100,549273816371658492268149573623714958184592367795386241912865734857431629436927185
800300910020060508054208007013000200500047000680900051061000000000075104900802036,876354912329761548154298367413586279592147683687923451761439825238675194945812736
002780010146030000700005900009060803003004005060900700000490008304007200020058076,592786314146239587738145962479561823213874695865923741657492138384617259921358476
000500160400000050003107000100008906004079800608300702307240001002005083560090004,729534168416982357853167429175428936234679815698351742387246591942715683561893274
008390107400020900600105020000502004000080000705400830003009001017040085020806070,258394167471628953639175428186532794342987516795461832863759241917243685524816379
010405079000300000659087000700600018300090006020100405507001030930000280000004060,213465879478319652659287143795642318341598726826173495567821934934756281182934567
500079600040300000600800972070293105800400000000005097704060001030000850060501040,582179634947326518613854972476293185895417263321685497754968321139742856268531749
280090040000607900160540000003080069020100004610009207401003580800710300090002000,287391645534627918169548723743285169925176834618439257471963582852714396396852471
000709000008020047095040260134600000007000385050072014003401890020050000006090070,642739158318526947795148263134685729267914385859372614573461892921857436486293571
006007208000040000102006053458002001300080007097050060004900700010024905000365002,946537218835241679172896453458672391361489527297153864524918736613724985789365142
003000060006509107000740090800904005000005700007103840708000910041300000250860003,973218564426539187185746392812974635394685721567123849738452916641397258259861473
840235000900470031000000000500700609036009020007012580000050092002106007080000105,841235976965478231273961458528743619136589724497612583614857392352196847789324165
107004600060710025020000009375096840000300900080070051000050000906200010200048030,197524683863719425524863179375196842412385967689472351738651294946237518251948736
800740090010300000640000501000009658000100020023060004000095702700400860198020300,835741296219356487647982531471239658586174923923568174364895712752413869198627345
503809000700140500920360700000500380009000006001037040008000624005091007630420000,513879462786142593924365718472516389359284176861937245198753624245691837637428951
000050469010030070205000008026040000908010005004802030502074900830009100000003620,783251469619438572245967318326745891978316245154892736562174983837629154491583627
906084002038920006000503100080607504600810030701040200003000601000230700405000090,916784352538921476247563189382697514654812937791345268873459621169238745425176893
090074020062100000800000950900400802320016570000030006600705410041800060030000709,193574628562189347874362951916457832328916574457238196689725413741893265235641789
000006000204500009103002570080460002500010300091003800400725080029030000030008064,958376421274581639163942578387469152542817396691253847416725983829634715735198264
000008600900430072002006013001800009273100080600075040850014000016200050407900000,134728695965431872782596413541862739273149586698375241859614327316287954427953168
600020087000004000935001060007000400080263010090000035100759000400306002700400508,641925387872634951935871264317598426584263719296147835128759643459386172763412598
000900070014036000608007105305409000070600240800072900400001090000825300031000680,253918476714536829698247135325489761179653248846172953482361597967825314531794682
007300600030010002690847000000000065008739020014060930053001400001000058020095370,187352649435916782692847513379124865568739124214568937753281496941673258826495371
