010600000206850701400007020049060032700040598000015006130480007600000900080200005,317624859296853741458197623549768132761342598823915476135489267672531984984276315
030000100001746080709008502078320000060090200504801790602580940000604000000009031,836952174251746389749138562978325416163497258524861793612583947397614825485279631
109850000000000020500090831000700004726008050840013006090526070050470010207300900,139852467684137529572694831913765284726948153845213796491526378358479612267381945
000010050040007630506092100009008006020040073870205000300006090200080041001370008,798613452142857639536492187419738526625941873873265914384126795267589341951374268
170005008020031000004600070809200400450100200000906085002000760001809530960070040,173495628628731954594628173839257416456183297217946385382514769741869532965372841
075000003600048000412000500000230005041706900000005810090003061783600200000972004,875129643639548127412367598968231475541786932327495816294853761783614259156972384
810000905760000208005004030032500007040380010500907000079020600100090483000610090,814236975763159248295874136932541867647382519581967324379428651126795483458613792
000064001130500602002000970810600200070098000390007408080000009509300710700040063,957264381138579642642831975814653297275498136396127458483716529569382714721945863
906008704027000005084009060000401070000030048010650030750004320009200601800193000,936528714127346895584719263293481576675932148418657932751864329349275681862193457
001040069700100020030900508005800270060010000008260400000020140100537802390000050,521348769789156324634972518415893276263714985978265431857629143146537892392481657
067500108030000920800002000014850002000001096000937000082060700071004603400003015,267549138135678924849312567914856372753421896628937451382165749571294683496783215
007004003000100480090035100530806007089200004200090010802300000604010090013070250,127984563365127489498635172531846927789251634246793815852369741674512398913478256
010400908620105700000060000900807000700520130300000500260349001007000400008010352,513472968629185743874963215951837624786524139342691587265349871137258496498716352
004000900000728005820410307000073010450006090310500700082600000690004000500807032,174365928936728145825419367268973514457186293319542786782631459693254871541897632
603045708007100300000080092002090806900600005170200000038700060700030400041009230,623945718897126354415387692352491876984673125176258943238714569769532481541869237
070000049230001700900860100000693000180070230005200400006004002810506970503000081,671352849238941765954867123427693518189475236365218497796184352812536974543729681
508601000170000096009230080004300002080109560350008000000402307005000000602805400,528691734173584296469237185914356872287149563356728941891462357745913628632875419
500009600000210850034700000915600320007930400060805010700500036006004902100002007,521489673679213854834756291915647328287931465463825719742598136356174982198362547
108009200204006150073040900400000003305002090009105068002607040000800000600593070,168759234294386157573241986416978523385462791729135468852617349937824615641593872
200008300090000765000450900150200096706903000024600107830027004041000003000001500,265798341498132765317456928153274896786913452924685137839527614541869273672341589
007002408025000010006800790010690800054000001080005237902074000030100500000008624,197362458825749316346851792213697845754283961689415237962574183438126579571938624
020000075000304600860090310600971230172006580940080000000200956000000700051040000,329168475517324698864795312685971234172436589943582167438217956296853741751649823
024500706006070895000010200507080609400000000063900074080150000000890032205306001,924538716136274895758619243517483629492761358863925174389152467641897532275346981
061200450780000093402700008596070000000500010020409600000624700008010000000053942,961238457785146293432795168596371824874562319123489675359624781248917536617853942
600029000080570010950100320000000547004390000270010060300060200010004056806900004,631829475482573619957146328193682547564397182278415963345768291719234856826951734
053407000000003460807106002700000045000201600090640018239500070060000930004080500,653427189921853467847196352716938245485271693392645718239564871568712934174389526
005080010800604003042350000127000800000700090930000026000810530000097082604002009,365289417891674253742351968127963845456728391938145726279816534513497682684532179
800005062547300000210978000030006004100804070009010380000000408625000007000021900,893145762547362891216978543738596214152834679469217385971653428625489137384721956
005017000020800900300050478600002000900400003180000560070308000460009352290000001,845917236726834915319256478634582197957461823182793564571328649468179352293645781
010080003906003280020560007000650400105000972847900000000402035003010600002800001,714289563956173284328564197239657418165348972847921356671492835483715629592836741
000790040400000009009103825043052006105600000890007030560080091002900600000005378,258796143431528769679143825743852916125639487896417532567384291382971654914265378
024078000097020004300060000060000709070690320100000058000100480803050907902400560,524378196697521834381964275265813749478695321139742658756139482843256917912487563
029070004800510709100040300004007002600950001070800503706081005035002080000600900,529378614843516729167249358354167892682953471971824563796481235435792186218635947
080240000706000050014030090500000603072090400068001970400580300050009700000364001,985246137736918254214735896549872613172693485368451972421587369653129748897364521
008030205000081000604007001200470058300059070400000900006000392030806000105002604,718934265523681749694527831269473158381259476457168923846715392932846517175392684
080003004740000120030060905300098000920000508000570600100030070000250496600847000,589123764746985123231764985365498217927316548418572639154639872873251496692847351
000010500900826040010409360103560820584000007069003000340100000702040100050008270,426317598935826741817459362173564829584291637269783415348172956792645183651938274
500000062000875009040610000000004603005007020412009807200030405780900000903006081,578493162126875349349612578897524613635187924412369857261738495784951236953246781
026001807040053010500000490604800005900030700157200000000504030700096280003002006,326941857849753612571628493634817925982435761157269348268574139715396284493182576
509201070030000618600007002003170000245306081000400009400980020800050037090000054,589261473732549618614837592963178245245396781178425369457983126821654937396712854
002001059650000080900600004270030060090405030400067012081002570700013008004080300,842371659657294183913658724278139465196425837435867912381942576769513248524786391
800009650035480200040010980400000000670140390059000002000001800002760030793005040,817239654935486271246517983421953768678142395359678412564391827182764539793825146
060804050058027009132060000075000180900006003004000070010405200007001400003072860,769814352458327619132569748675293184981746523324158976816435297297681435543972861
000006000340000209080091054652070803007000001008230040090000006005743080000089310,579426138341857269286391754652174893437968521918235647893512476165743982724689315
006004800580600309020590001000286405005300600090000010004070920070005030309140070,916734852587621349423598761731286495245319687698457213154873926872965134369142578
894002006020000738030016004105070000000390050300005201002000470000089100006500093,894732516621954738537816924165278349248391657379645281982163475753489162416527893
030906180860004009002000073010609700000040030097580000500000210480150000009700005,735926184861374529942815673214639758658247931397581462573498216486152397129763845
006000000980000712000409003147028090020745080060003020000930004008507001203000069,536271948984356712712489653147628395329745186865193427651932874498567231273814569
000390010650000800094050007000201490482030650000800000100002040503470100807600020,278396514651724839394158267735261498482937651916845372169582743523479186847613925
590078000341005002067002100000960050286700040000003001900000804000580320730046009,592178436341695782867432195173964258286751943459823671925317864614589327738246519
017050000000040360304020105430000000008006594705080201200005940080290007006301800,617953428852147369394628175439512786128736594765489231271865943583294617946371852
700060021050170000096300500400005203870000905003600048612007000000004370000800092,738569421254178639196342587469785213871423965523691748612937854985214376347856192
098070060045060230370010000002040009013200570000900820800007103000190000460008005,298573461145869237376412958682745319913286574754931826829657143537194682461328795
300740021005100070000062803030200004009506000051098007640000019080009005002310760,368745921925183476714962853836271594479536182251498637643857219187629345592314768
060207000400080002090056701501004300000568000000700908850092030306000409007401600,165247893473189562298356741581924376739568214642713958854692137316875429927431685
005083690000540007100060003009100302604020015700300840803200904050000106200097000,425783691396541287178962453589174362634829715712356849863215974957438126241697538
205460000400005120060970000374000008026008900010300270830090040001200750009010030,285461397497835126163972485374129568526748913918356274832597641641283759759614832
000087600006090047400500329030040005680002000500370180320001000004000703019800560,293487651156293847478516329931648275687152934542379186325761498864925713719834562
000708021600051340300000000900005437240019805008060900004200576060004000823000000,459738621672951348381642759916825437247319865538467912194283576765194283823576194
910074085007006003503000906401900500005802000732010600060758401000000009200140300,916374285827596143543281976481967532695832714732415698369758421174623859258149367
100039040070801000032000096000910003000057480760042050009504800020000069083700200,156239748974861325832475196245918673391657482768342951619524837427183569583796214
007193008020576003001000000005802304760950021400000060000000902350040087098300005,647193258829576413531428796915862374763954821482731569174685932356249187298317645
003800009049607105007200830010005607000080000060400512096300054005002000730049000,623851479849637125157294836314925687572186943968473512296318754485762391731549268
674010000080000209001035070800103054032040800005607090200070005400200608356000100,674912583583764219921835476869123754732549861145687392218376945497251638356498127
090004000062007083100080400009300501601045009370096002500060090004800027710020008,897634215462517983153982476249378561681245739375196842528763194934851627716429358
800100000001060075000350280003000000086007900709010354400920830360040020097500106,852174693931862475674359281143295768586437912729618354415926837368741529297583146
060000800403100705700405060650000093000097200028000001000706308201084007000051900,165279834493168725782435169657812493314597286928643571549726318231984657876351942
200000608004396010000040005008700900350008001409250070000600000730081000960537200,293175648584396712176842395628714953357968421419253876845629137732481569961537284
080901600604800010705430900900080070030204000021060530000605180152000400000007309,283971645694852713715436928946583271537214896821769534379645182152398467468127359
050000840900006000280104960007802010600700200000931400310050084800610790002000053,156329847974586321283174965437862519691745238528931476319257684845613792762498153
900070803002104060010000002007080004130790005008640720080000000350000108420069050,945276813872134569613958472267581934134792685598643721789315246356427198421869357
700080023060059040048203000905007002200500490610030870501870000000000001037004069,759481623362759148148263957985647312273518496614932875591876234426395781837124569
900500000300080561210060800080401300002057940050030007003006708000900013670020000,968513274347289561215764839786491352132857946459632187593146728824975613671328495
090050146405000000001090030200679005060840910007305000102700003040008060870000002,798253146435186279621497538214679385563842917987315624152764893349528761876931452
000348021010052060070000305009001480200003000561080000080029070900400600456010003,695348721314752869872196345739561482248973156561284937183629574927435618456817293
000000000800930014610002830520080709700200060000460008967300100004005003030098026,453871692872936514619542837526183749748259361391467258967324185284615973135798426
080000605600023000140076082201080090000040000037005001000008906003100700710062504,382419675675823149149576382251687493896341257437295861524738916963154728718962534
300002190460090003000045000100530006004820300009000075500003628080100907700060400,375682194462791583918345762127539846654827319839416275541973628286154937793268451
000008734003109860007040005086205400900700206704003900050000618390820000000050020,219568734543179862867342195186295473935714286724683951452937618391826547678451329
800065100900807540600001002090680010452009700080000023040700000001400609700203850,824365197913827546675941382397682415452139768186574923548796231231458679769213854
100000900038764000254001030070302605010080070040905000086000390500230007000040108,167523984938764521254891736879312645315486279642975813486157392591238467723649158
004001385700020100060003004002500008830090010007060920040706000605840700100302090,294671385783425169561983274912537648836294517457168923349716852625849731178352496
942610080030070100100080059760523010000400000214000300800900060650800074007050002,942615783538279146176384259769523418385491627214768395823947561651832974497156832
050400038400809600031070040000950000002000061609024007015208400000067083700300092,956412738427839615831675249173956824542783961689124357315298476294567183768341592
502090070701400009030006000900500340070840100600100020006050703300210405105003890,582391674761485239439726581918562347273849156654137928826954713397218465145673892
000652104005007063001008000002100007070503689030080040050000000643000002008374090,389652174425917863761438925892146357174523689536789241957261438643895712218374596
000400000700010360340089501070091006018500700590600002001007038902806000050002040,125463987789215364346789521274391856618524793593678412461957238932846175857132649
000096007000203508026700040009401006000050000201600350302004070700030890914080000,453896217197243568826715943539421786678359421241678359382964175765132894914587632
709040000810007050020003609003250800085001460100009000260470080090062007400300100,739546218816927354524813679673254891985731462142689735261475983398162547457398126
000089003012607800040000007900706050056300400704800100007130904020000600008502030,675489213312657849849213567981746352256391478734825196567138924123974685498562731
600095802009860010005034070100009050008012407360000000700040035201086090500700006,673195842429867513815234679142679358958312467367458921786941235231586794594723186
000000829500700034060239010040800096701040002900050070803690000000008500620305080,317564829592781634468239715245873196781946352936152478853697241179428563624315987
087006004300750000006203090040010078070040201200005009020001000908400060063900457,587196324392754816416283795649312578875649231231875649724561983958437162163928457
000809300400000971031060005059070040000905027040230008368020000000406000720500010,572819364486352971931764285259678143813945627647231598368127459195486732724593816
000100500000203014084900000050020703706308905002009040300000061025000809010047002,263174598597283614184965237951426783746318925832759146378592461425631879619847352
204006009007301046010000500560890200092000000700000305031054000400060780009280000,284576139957321846316948527563897214192435678748612395831754962425169783679283451
902036070000070480107820300020000906506190000008307100053604800000050004010009200,982436571365971482147825369721548936536192748498367125253614897879253614614789253
004001200250304000961500048107400060000086093000152000040003075802900000003070009,734891256258364917961527348187439562425786193396152784649213875872945631513678429
590300074130040068000807001600700802352000000070403610000014520906000000000002709,598361274137245968264897351641759832352186497879423615783914526926578143415632789
804900020079000043000001006030040800000060312015009070590200000600700051400830760,864953127179628543352471986736142895948567312215389674597216438683794251421835769
