000100600023050000100706089460073090300008500975010840040005160700290000080400032,897134625623859714154726389468573291312948576975612843249385167736291458581467932
009005210010070086500004300153000020000100600020037940070009000060342170490060805,739685214214973586586214397153496728947128653628537941371859462865342179492761835
209035804000800015000106070075000903300409058060200000800001790102040000706900030,219735864637894215584126379475618923321479658968253147843561792192347586756982431
080500906130080040040062700098070003302800160501040000050900020600000380000001479,287514936136789542945362718498176253372895164561243897754938621619427385823651479
901074003030680050040000001013402080450006900200300006008030010006205000090000275,961574823732681459845923761613492587457816932289357146528739614176245398394168275
100000058405600390037001000043006907000010020002005834380007005060580000704209000,196432758425678391837951642543826917978314526612795834389147265261583479754269183
003600040200008009560724001010046580020170000000800003108290600406001007070005300,783619245241538769569724831317946582825173496694852173138297654456381927972465318
000002604590100030070930200180000700050380002207005900000046010060200500039070000,318752694592164837674938251183429765956387142247615983725846319461293578839571426
700050060048970030529040100910823700000605010000000002004700620096002407080100009,731258964648971235529346178915823746472695813863417592354789621196532487287164359
008926004004710005026030700090600000045300098010040520200000607300084900059100000,578926314934718265126435789892651473645372198713849526281593647367284951459167832
203050900050096700600403028960520001007309004000004050000600030040087160080100002,273851946458296713619473528964528371527319684831764259195642837342987165786135492
000003005860004000040176003380500720006900500002080094050308941100020037004009800,721893465863254179945176283389541726476932518512687394257368941198425637634719852
900628000600070032004003700030000650100702040800059020307085001010900060208400300,973628514681574932524193786732841659159762843846359127367285491415937268298416375
050090006000803041730015080000960037020000000409507200010306004000400829508020100,851294376296873541734615982185962437327148695469537218912386754673451829548729163
789000000000108946000025003305009068010006025400000390120300080006000704097010500,789463251253178946641925873375249168918736425462581397124357689536892714897614532
004700000690100032008049051070412003905308000000000826000596014040000000061230008,154723689697185432238649751876412593925368147413957826782596314349871265561234978
900302007021006080087000500002013059005708630840900000500009060700050302008640100,956382417421576983387194526672413859195728634843965271514239768769851342238647195
409100000008000560673020009000560018200004900005030270380057004700610020060090030,459176382128349567673825149937562418216784953845931276381257694794613825562498731
004070051320409060005801400008260000003080017570000009000096200680300075400010030,894672351321459768765831492918267543243985617576143829137596284689324175452718936
006740500200009700054000800007508901800610000001004302005302104109060250400000037,986741523213859746754236819347528961892613475561974382675382194139467258428195637
076020019500003400000108652480206070090015000010000200050000090200407068700390004,876524319521963487943178652485236971392715846617849235154682793239457168768391524
501002030308607900000030710007000206160000083009004570740300020005800049000020100,571942638328617954694538712457183296162759483839264571746391825215876349983425167
029408070008103004100760000510040000080002300042097108006000007095001802000030960,329458671768123594154769283513846729987512346642397158236985417495671832871234965
760053004000000038081400520400000096000102003050076800009500160100207400024000079,762853914945721638381469527417385296698142753253976841879534162136297485524618379
750020006940080500000060793002001000070500100300600042001004060860307010290000354,753129486946783521128465793482931675679542138315678942531294867864357219297816354
050038100001900068700001002940070000007520010030600540600800730000000204293005000,456238179321957468789461352945173826867524913132689547614892735578316294293745681
020000400005400170076190008310200600060003059000049200948000002000080713701506004,123867495895432176476195328319258647264713859587649231948371562652984713731526984
218000000906050048000090072409306700605004800030009006043000500007810000000700613,218437965976251348354698172489326751625174839731589426143962587567813294892745613
120804700065200408007051030310000904049005620000600003000017002004090870050002060,123864795965273418487951236316728954849135627572649183698317542234596871751482369
800905000000008240407016003029370150001009000700080006010000700958000430300402090,832945617165738249497216583629374158581629374743581926214893765958167432376452891
050400007010008050006007320900002075800104906034600800002030069000705241179000000,258463197317928654496517328961382475825174936734659812542831769683795241179246583
800107006605030009407050003000003061070590040340271000009700180500940007000008020,893127456615834279427659813952483761178596342346271598239765184581942637764318925
600003008009408000870000031000030000425900070087150090250700080103090067000062400,612573948539418726874629531961237854425986173387154692256741389143895267798362415
800540030260700019040001600020010000004800590010650700082004056370980040009002003,891546237265738419743291685527419368634827591918653724182374956376985142459162873
000190002003070004081400050000530906540007000706010080610008300302006000007020049,475193862263875194981462753128534976549687231736219485614958327392746518857321649
000100004002587019006004080508001060070200900014035000000050108050976300247003000,785169234432587619196324785528791463673248951914635827369452178851976342247813596
017200800020007540500190020000806730703020150458000000001304000200001076086000009,617245893829637541534198627192856734763429158458713962971364285245981376386572419
002700080890040600015000002008005096007000530050203401600004010320598700000010300,462759183893142657715836942138475296247961538956283471679324815321598764584617329
000100003053074006400800020031060900000510034906020080800005100060207009070690250,687152493253974816419836725531468972728519634946723581892345167165287349374691258
004003160062500809005409070000031000500604008107800300030070000006128004090000580,974283165362517849815469273689731452523694718147852396438975621756128934291346587
009400002300150000201060004000290600007000080104500937080000100700940560056030028,569473812348152796271869354835297641697314285124586937483625179712948563956731428
070982430040000600001007002500000010900630050023590807090040305406870000018250000,675982431249315678831467592564728913987631254123594867792146385456873129318259746
010500730030980062006070800970104000003009005050006480160200053000007040480300010,819562734734981562526473891978154326643829175251736489167248953395617248482395617
030206070605001800190700005048000000060008120500320609300092040021800500700400006,834256971675941832192783465248619357963578124517324689356192748421867593789435216
306002900000075180507900400700010504108240006902060030690700050030106000000058000,316482975429675183587931462763819524158243796942567831691724358835196247274358619
002100000506700198040083000007040065000097203100060400300400906025006000700508042,872159634536724198941683527297341865654897213183265479318472956425936781769518342
000000004093015800701040020800000670005008000002501309900032010204000008030760950,526387194493215867781946523819423675375698241642571389957832416264159738138764952
806270540004008001090065003000030800700000134010507090000843005509002070020000006,836271549254398761197465283962134857785926134413587692671843925549612378328759416
600000820930608500400010007050706000001093080096420000070809650020000043300045100,617354829932678514485912367253786491741593286896421735174839652528167943369245178
500400630000050008093020700050860100009000020400071300720609080105007090060345000,571498632246753918893126754357862149619534827482971365724619583135287496968345271
003050076250000001801004000900300608010240095760800040602090530500780000040003020,493158276256937481871624953924375618318246795765819342682491537539782164147563829
010200960000400008749000100080506010950008007400037200108000430670310050002060090,815273964326491578749685123287546319953128647461937285198752436674319852532864791
058410020709086300000000006060078400010030950030900008000090140003007600104002075,658413729729586314341729586965278431812634957437951268276895143583147692194362875
063008000200006095810720040100090004605003001090450200038000000400079060000030127,563948712274316895819725643182697534645283971397451286738162459421579368956834127
002000053480001700053046100900030040614020800000900072070060900591703060000005080,162879453489351726753246198927638541614527839835914672378462915591783264246195387
009763008020010000075900406008300054460820700700009000031007600200600009090208045,149763528826514937375982416918376254463825791752149863531497682284651379697238145
010023007000070040409000600800015009305008010600042700150800903000009100080007265,516423897238976541479581632847615329325798416691342758152864973763259184984137265
030208006605009820020100090060401007800030004107080200004652100009000400700090350,931278546675349821428165793563421987892537614147986235384652179259713468716894352
501080000004230000200001697630900280108326040090000500000502400809700000700810030,571689324964237815283451697637945281158326749492178563316592478849763152725814936
060300000500002804300007510905003600002040000600078049070900008009081003130426070,861354792597162834324897516945213687782649351613578249476935128259781463138426975
300045068000900200000176000007480006002000000040023957190000083560010040028050091,379245168416938275285176439957481326632597814841623957194762583563819742728354691
029400780070005406003107052890060203307240500050000090000098010600700340031000000,529436781178925436463187952894561273317249568256873194742398615685712349931654827
008604005003580270700000100000020096640700020580900300097102400000805000210340609,128674935963581274754239168371428596649753821582916347897162453436895712215347689
731004008000073000204800006060900004020100903300082050807010000000005029090060140,731624598986573412254891736165937284428156973379482651847219365613745829592368147
000037058300509120000060700830005069000600010006024087950080200204100090017000003,461237958378549126529861734832715469745698312196324587953486271284173695617952843
412900000700200980000654700000800193106079000030000002350000040040016800089020510,412987365765231984893654721574862193126379458938145672351798246247516839689423517
580000709000600040020300805900403000005120380240070006001800050000040910037050420,586214739379685241124397865918463572765129384243578196491832657852746913637951428
400000000901030005000409670000010420050800069730020000078103004209608050045700180,487561932961237845523489671896315427152874369734926518678153294219648753345792186
070600300005700289003584010600002108540000000000410007304090000890070002002300605,178629354465731289923584716637952148541867923289413567354296871896175432712348695
080105200000034790000000008001240603620000500340058001809001064062700009053090070,984175236216834795735962418591247683628319547347658921879521364462783159153496872
000500703010009000406038900080000041000865300309004500007100029032400070500902608,298541763713629854456738912685397241124865397379214586867153429932486175541972638
700000263020000005008310090040090007095070140006003080500006029400820350001940070,714589263923764815658312794842691537395278146176453982587136429469827351231945678
500006300796000084000700001609050000802000540000470002401200806003605127000089030,514826379796513284328794651649352718872961543135478962451237896983645127267189435
320500600100000948060007003000070060004001309005803000002745000080060007000090120,329584671157236948468917253831479562274651389695823714912745836583162497746398125
500801040041036007003000000020700080600409051070068090204000009800190602300057010,562871943941536827783942165429715386638429751175368294214683579857194632396257418
053000200100002009400700856700430000000650497000000605090140580300200004006078902,653984271178562349429713856765439128832651497914827635297146583381295764546378912
008025400053900200016000000700302890000470010004809063040008120300000005091260007,978625431453981276216743958765312894839476512124859763647538129382197645591264387
070510000600200704008690105504980206000170040039000080100050008402000900305002000,973514862651238794248697135514983276826175349739426581167359428482761953395842617
005006200060040010003509780294300150700400000300100098500071030940250060001080002,175836249869742315423519786294368157718495623356127498582671934947253861631984572
050000600809104030006907204004010008930205000172680900040502060200000791600800050,457328619829164537316957284564719328938245176172683945741592863285436791693871452
000630040000205070532010098061000083700042000209008000800470069900000005017906020,178639542694285371532714698461597283783142956259368417825473169946821735317956824
300005600850190003091030078500620000012500049748000000200080900070900062003400010,327845691856197423491236578539624187612578349748319256265781934174953862983462715
190063080458070006070002009810000005603059000000600200204100570900030040061807030,192563487458971326376482159819324765623759814745618293234196578987235641561847932
400200006006010207001049083009702008680000050500030010008900600700003905012007000,435278196896315247271649583149752368683491752527836419358924671764183925912567834
960010403000076020407300015196002000005008300300654700851900006000000840000060009,968215473513476928427389615196732584745198362382654791851947236639521847274863159
217003080005000269490080000030270540560190300008004006800400027070030900001600050,217963485385741269496582731139276548564198372728354196853419627672835914941627853
540060090803400075060200300090800060602050008050910007000000246081049700000003010,547368192823491675169275384794832561612754938358916427935187246281649753476523819
384650090001000240050100000027300010500009608006480000008006009910700460032040507,384652791761893245259174836827365914543219678196487352478536129915728463632941587
060090013040678000000001070830000041006210500072804090523900060000420800900030050,768592413341678925259341678835769241496213587172854396523987164617425839984136752
010056007076403900030200050000920460981070003000005008007040000005009610094301200,219856347576413982438297156753928461981674523642135798167542839325789614894361275
109027040006080207020500610070000150900300804200451000060000000008903060400860075,139627548546189237827534619674298153915376824283451796362745981758913462491862375
000502090902030000010060008000100870057000042080003600070840001094007305560001027,836512794942738516715469238629154873357986142481273659273845961194627385568391427
020507300003096700100080029050601000200300461004020093068000050400005000001004870,926517348843296715175483629359641287287359461614728593768132954492875136531964872
500400702010058040230000001070524900809060005040010260700090180000700603680003070,568431792917258346234976851176524938829367415345819267753692184491785623682143579
204008050531000470078300001950001307000006000002470590060090084785004200000600000,294718653531269478678345921956821347347956812812473596163592784785134269429687135
042005080009030100000708690387600450904000003010500000001009000500204800700360002,642915387879436125135728694387692451954187263216543978421859736563274819798361542
004200703900000625005008000061004050050900800070120040138040900000002470200896030,614259783983471625725638194361784259452963817879125346138547962596312478247896531
650090017400003000900200004070040300340010895000005406809700100200086009010052003,653498217421573968987261534576849321342617895198325476869734152235186749714952683
520800030040905007639400100096070008070380200400501000000002004008000961000150370,527816439841935627639427185396274518175389246482561793713692854258743961964158372
097036140000009500302000000580067900001020480209001007104000050600340210000078600,897536142416289573352714896583467921761923485249851367134692758678345219925178634
