520004809000587000000300016007105280004900003310048000471000600006702400900000038,523614879169587342748329516697135284284976153315248967471893625836752491952461738
007008309300002080050040007090057001832900006700806040009600100406180023020000000,247568319361792485958341267694257831832914756715836942589623174476189523123475698
308000079020050000940000108000675003004021090806430700590000240001000830600307001,368214579127958364945763128219675483734821695856439712593186247471592836682347951
074120600250030009900060000830400070400013050060900002180206007000005800000780043,374129685256834719918567324839452176427613958561978432183246597742395861695781243
000200007040500930083400062300050040029803000014006780000090100076010805050000026,695238417247561938183479562368157249729843651514926783832695174476312895951784326
700608209000004801160920050200450600089032007504000010003000900050001400006790003,745618239392574861168923754231457698689132547574869312813246975957381426426795183
908073400100002086560100200004817650000006321000000070851300007090000008306905000,928673415143592786567148293234817659789456321615239874851324967492761538376985142
005700300910800020000001006004006700208100040006380095437500000000023000601090508,865742319913865427742931856394256781258179643176384295437518962589623174621497538
905003000100870020200649070000107058000000693608000000020900415040080900301500706,975213864164875329283649571439167258712458693658392147827936415546781932391524786
008091004030600207025000690000060409162005800800703000040000310309010050007082000,678291534931654287425837691753168429162945873894723165246579318389416752517382946
290670003001005004007309260050020071830060000000090028106000007070000540020840900,295674183361285794487319265659428371832761459714593628146952837978136542523847916
000030800300500410007006029600070000204050190108200006063490070001800002009017040,912734865386529417457186329635971284274658193198243756863492571741865932529317648
026000019004080570300010800090005000080024300602730040700140095000600201000598004,826357419914286573375419862493865127187924356652731948738142695549673281261598734
000090052914030007050860034000302000530000081208506049109007000007040600000000098,863794152914235867752861934491382576536479281278516349189657423327948615645123798
010705026907002100800034000600950402070080005094070300005610000380000014020000590,413795826957862143862134759638951472271483965594276381745619238389527614126348597
024103090631080000870000004100097000000360500007000028210004680980700040000052300,524173896631489752879625134158297463492368571367541928215934687983716245746852319
207080000400035012000070904020001805039400060060750400010640050003002601000803070,297184536486935712351276984724361895539428167168759423912647358873592641645813279
012600300040059070809000000008100006203070005700002800905004038600203100007500090,512647389346859271879321564498135726263478915751962843925714638684293157137586492
690800410205034800000500092007003050001000008000692074542010009000270000070008603,693827415215934867784561392427183956961745238358692174542316789836279541179458623
010703604620050007000009203802500000009002415040000030084190506070000000005860070,918723654623458197457619283832541769769382415541976832384197526176235948295864371
200410000850093007010800490007050600500060080043900005000208964002070100300006500,239417856854693217716825493987352641521764389643981725175238964462579138398146572
608000047100090020020041030000980500700302018034005900010000006470250380305600000,698523147143796825527841639261984573759362418834175962912438756476259381385617294
053000100800100374020006908300008760091400000286070003074000000000050210000930805,453789126869125374127346958345298761791463582286571493574812639938654217612937845
000600508020309701519000300080503270000047000036012080952080004400090000001004006,347621598628359741519478362184563279295847613736912485952786134463195827871234956
100305400900020586000070010003917000020080970010060005000200763002609000508030004,186395427937124586245876319853917642624583971719462835491258763372649158568731294
050009000620400070007032081902047060060005902100000300000860103040051098008700420,851679234623418579497532681932147865764385912185926347279864153346251798518793426
007109300005046000130002096850037260000000804600000051300860040200050007000004910,467189325925346178138572496851437269792615834643298751379861542214953687586724913
840006000000008037306102504001479005009803001000000820700050493090067200020000106,845736912912548637376192584281479365659823741437615829768251493194367258523984176
090000007380920460015708002900316000400000036000250780020530904000600510031007000,294163857387925461615748392978316245452879136163254789826531974749682513531497628
005010004700080260006400790270005130001940000090002006600000000837600040400270053,925716384743589261186423795274865139361947528598132476652394817837651942419278653
002900500800070034010008607071600008600430070305000209067500000090020450020849010,732964581856271934914358627271695348689432175345187269467513892198726453523849716
201090057000008000403152006000304800905000402060000701500073009002600000706980013,281496357659738124473152986127364895935817462864529731518273649392641578746985213
930000064600000002800105709000010406005600271004207300206708000070320150083040000,931872564657439812842165739728513496395684271164297385216758943479326158583941627
090046308060000510250187090030810700004000000800794050106025900047900030000008100,791546328468239517253187496635812749974653281812794653186325974547961832329478165
006010050100039040489700006002000580000046710700001029200500300065390070043080000,326418957157639842489725136612973584598246713734851629271564398865392471943187265
306000000070049602540300001030700100000100008089024700400260800010083405920000070,396812547871549632542376981235798164764135298189624753453267819617983425928451376
250970080800100000000080946100234090603008000070000005028090301530000400040067028,254976183869143752317582946185234697693758214472619835728495361536821479941367528
020050060000300700078904105300100080006000209009865004064210090001040003900070050,423751968195386742678924135347192586856437219219865374564213897781549623932678451
004170380002000079100090000000000400046982000700506023850403206069000001030050800,694175382582364179173298654925731468346982715718546923857413296469827531231659847
503480200060003790004017300705000003012050080300076045091000006800065000000002079,573489261168523794924617358745891623612354987389276145291748536837965412456132879
903800020000000057820600010000007003280540960050980000060010004002460090190200075,973851426416392857825674319649127583287543961351986742568719234732465198194238675
900010050083002004704000093201056009000038600050000017060091582805020400040007000,926314758583972164714865293231756849479138625658249317367491582895623471142587936
040000900510003000630810700000579004700000600002046105006791540000060310890400060,248657931517923486639814752163579824754182693982346175326791548475268319891435267
308020096040071200000006104674000009520000018003259000800507060000030005090010402,318425796946871253257396184674183529529764318183259647832547961461932875795618432
054601009003000070801093002700205830060040501120060000900000750000486000032700600,254671389693824175871593462749215836368947521125368947986132754517486293432759618
300082001009100602100605007038710400064000100507048900020079850000000003043500060,376482591459137682182695347938716425264953178517248936621379854795864213843521769
000500860806304012120090007070001009090620501000053040600048070502700300004100090,947512863856374912123896457375481629498627531261953748639248175512769384784135296
000130270007000050041006009030500162010982003004600000060207098000809300905040720,698135274327498651541726839839574162716982543254613987163257498472869315985341726
090000701406108000052094060030570000024010380600000200700801005000940030961020008,398256741476138592152794863839572614524619387617483259743861925285947136961325478
030040060802005009090800107000000000060030702071900435057008621020300080009061000,735149268812675349694823157543712896968534712271986435357498621126357984489261573
080070094046050180700020000010030020900104003500006800000807000420013609037940500,385671294246359187791428365814735926962184753573296841159867432428513679637942518
104006930902003048030000000680109500203084601000005070006050002800092007005400160,174826935962513748538947216687139524253784691419265873796351482841692357325478169
002470083090000700000832060300740000006500040078106009617000200004900351000080400,562479183893615724741832965359748612126593847478126539617354298284967351935281476
020000080135000400700106205000098136400200809000053000010300978900045000006080020,629574381135829467748136295257498136463217859891653742514362978982745613376981524
003001089400007500050964000002010043004052060769080000130200695800006170020000800,673521489491837526258964317582619743314752968769483251137248695845396172926175834
030021009008007030590000014003800507007036092420009060005074020100008400000360800,734521689618947235592683714963812547857436192421759368385174926176298453249365871
000910006002500038070860200023451090090020060700008005050030480401700050900000703,348912576162574938579863241623451897895327164714698325257136489431789652986245713
007940620002010004065008900800597006603800001020300400031002800050000307940030000,187943625392615784465278913814597236673824591529361478731452869256189347948736152
020309000760000350400051020049800007200005081500640200130000040000093705000104608,825369174761428359493751826349812567276935481518647293137586942684293715952174638
002507000081309040700000069007008300090000104500470002250940007109603020000080501,942567813681329745735814269427198356896235174513476982258941637179653428364782591
009002000072048050060001408820070000307000014010053600208906503600400002001305000,489532761172648359563791428826174935357869214914253687248916573635487192791325846
040060000905010300008503024704100600000049802300680100007001009090800051560700208,243968517975412386618573924784125693156349872329687145837251469492836751561794238
000600504000052010670010093003000740200900008018200350306400801500090006400703000,132679584849352617675814293963581742254937168718246359396425871527198436481763925
030608000000023450296000100000185090600000807002700030810070025700040308503090010,435618279178923456296457183347185692651239847982764531814376925729541368563892714
005831040090000005230900700070206083000070090021004500300050004050700169006142000,765831942198427635234965718579216483643578291821394576317659824452783169986142357
020100040300704816000006502001200085059070001008003090806090200070400160002807030,627185943395724816184936572731249685459678321268513794846391257973452168512867439
000291800007500296050060000080006900340000080205103600060007129100000054400300700,634291875817534296952768413781456932346972581295183647563847129178629354429315768
609008100000003024500617000090050073360700409102400805706020030040060002080901000,639248157817593624524617398498156273365782419172439865756824931941365782283971546
054000079007064010380509000000406000702080006000100392096000005800230007103000048,654312879927864513381579624539426781712983456468157392296748135845231967173695248
010008090904006580000073200500090870287000030003000106700001005020400761030250900,312548697974126583658973214561394872287615439493782156749861325825439761136257948
030010706000490030096020010450200000003060485000700309640009850001050000070830102,234518796517496238896327514459283671723961485168745329642179853381652947975834162
905000780000500000013076500002047030500901076040850029080000300071032900004009061,965314782427598613813276594192647835538921476746853129289165347671432958354789261
000096100105370240079402060020100050900000306048609000006800400301005090200003807,432596178165378249879412563623187954917254386548639721796821435381745692254963817
000300296000097410043002800070208050104000008620000907060430000400001709092065030,517384296286597413943612875379248651154976328628153947761439582435821769892765134
900000201026003070000540000050800100308100025041007906060005000012760304003080700,935678241426913578187542693659824137378196425241357986764235819812769354593481762
001806002007040039905000100000379410610000000700002850800001200000200304340058700,431896572287145639965723148528379416613584927794612853876431295159267384342958761
020100500000829600607504080000000490916002703003600008400060300308000007009047002,824176539531829674697534281285713496916482753743695128472968315368251947159347862
460100050003700201008053007082000174300009065000000090154096000009580030000072000,467128953593764281218953647982635174371249865645817392154396728729581436836472519
009076005680030207000204039010500040050023800002001006500009100400007063308010070,239176485684935217175284639913568742756423891842791356567349128421857963398612574
007040000130000790409600251002010070000470108060008503008020460090300000675100900,527941386136852794489637251842513679953476128761298543318729465294365817675184932
400001086300509020700020300070004500100086703906300042820070050690000004001002009,452731986318569427769428315273194568145286793986357142824973651697815234531642879
021000000004050900903067010050608023000370004096200075040009267072004080800000000,521983746764152938983467512457698123218375694396241875145839267672514389839726451
027080915090407306800000200000150060600000198904300007000006751508904000360200000,427683915195427386836591274782159463653742198914368527249836751578914632361275849
059600042000200006008040570040001650700903100520060903010400000002030410000078035,159687342437215896268349571943821657786953124521764983315492768872536419694178235
000000000000069810548007300300021704904008000250306900071500206603100000400070098,169835472732469815548217369386921754914758623257346981871594236693182547425673198
108720003007006000920403000850010706000690010003000049500000894702040605096008001,168729453347156982925483167859314726274695318613872549531267894782941635496538271
100400050086010300400900602250600490093000000701005820000246007302080000900507001,129463758586712349437958612258671493693824175741395826815246937372189564964537281
035070600090005481102000000000010800684900010020600037900003002007058004000260570,835471629796325481142896753379512846684937215521684937958743162267158394413269578
230060750400500060000310809000000100609007003050980000140200007086043005720006040,231869754498572361567314829874635192619427583352981476145298637986743215723156948
060078910040320070000100604530200000904610200070085000800090006002700405007060093,365478912149326578728159634531247869984613257276985341813594726692731485457862193
802000010703608490095000000056090020070000380309210560100059800000701032000460007,842975613713628495695134278456893721271546389389217564127359846564781932938462157
605090000300075061280000490009326007001008000800000943423500700000064000000013800,615492378394875261287631495549326187731948652862157943423589716178264539956713824
060970003009040008107008250800067900403109502500400010904000380000090700001302006,268975143359241678147638259812567934473189562596423817924716385635894721781352496
070480609061070084009005030080910076004000012900002800100000003000043000020068507,372481659561379284849625731285914376734856912916732845158297463697543128423168597
069004030000000860180073002200531490000786010005000003051260000800059600020400079,569824137732195864184673952278531496493786215615942783951267348847359621326418579
100470300900508240060900080002790103700060020040002805205301090300000407001080000,128476359937518246564923781852794163713865924649132875275341698386259417491687532
086350001740800020900700306010062950002500047400000800009200030068030014000001705,286359471743816529951724386817462953632598147495173862179245638568937214324681795
300062710090500006608000043230704000000930600079010800005401020000028007040007001,354862719197543286628179543236784195481935672579216834765491328913628457842357961
070030000240009001000500680004006705019200060605803009080010030301000902900067400,578631294246789351193524687834196725719245863625873149487912536361458972952367418
070500004800010006004007120300060900020190005500002380016700530087000000030620410,172536894893214756654987123341865972728193645569472381216749538487351269935628417
