800000090100500342003609007950300081087000005320040600000083500460700020000420710,875234196196578342243619857954367281687192435321845679712983564468751923539426718
070900516600102000008004000009007300000203084350001072500380067090000140720005009,472938516635172498918564723289647351167253984354891672541389267893726145726415839
001705086080040020000030400017090600000200007506870230000002903469051800305000000,941725386683149725752638419217593648834216597596874231178462953469351872325987164
809100042507809003031040800900004005020035400006010090004067021100002074070000500,869153742547829163231746859913674285728935416456218397384567921195382674672491538
001000500007019043259700080460000000000080010070902605510003002000400890802671300,341268579687519243259734186463157928925386417178942635514893762736425891892671354
100908640029000308043000500001742800506000023080000010095100000000470000008256709,157938642629514378843627591931742856576891423284365917795183264362479185418256739
001030095007004800850090020070248006104005300290600007000007000000002654003150000,421836795937524861856791423375248916164975382298613547582467139719382654643159278
832009001000080042000600007020060390953008060040007010760025000090040073005091400,832479651576183942419652837127564398953218764648937215764325189291846573385791426
020080405000120003078409000041050360050004072009806040610000039390060850000200007,123687495964125783578439126741952368856314972239876541617548239392761854485293617
019000350005026000800000407170209080038601000000070045350094270007000016200008000,619487352745326891823915467174259683538641729962873145356194278487532916291768534
031060000700091042000070039300005070070034560028000400016800907050620010000040800,931462785785391642642578139364985271179234568528716493416853927857629314293147856
008036900500910704900200061070065090049103500003040000060000058001072600400000302,718436925526918734934257861172865493649123587853749216267394158381572649495681372
030020004580001000901045030050670100408030900360908050000100200002000678070290040,736829514584361729921745836259674183418532967367918452643187295192453678875296341
019500008700100063020900014002001040800050007590740600040009000260800070000063280,419536728785124963326987514672391845834652197591748632148279356263815479957463281
090080000230500490000403027409030000570800600820071500960007001000050836001200004,194782365237516498685493127419635782573824619826971543968347251742159836351268974
060080400000104270800090035009006382500070100400200000005007903021609040008013500,267385491953164278814792635179546382532978164486231759645827913321659847798413526
600400000040003970000028010002004005308057000010906080090070450100800230720310096,687491523241563978539728614972184365368257149415936782893672451156849237724315896
009486700080500020600007910003052000106000309054690080472300000000041003030700806,219486735387519624645237918893152467126874359754693182472368591568941273931725846
053028701100000040602700000070005280308090560200003907040501800000006030000480179,453628791187359642692714358974165283318297564265843917749531826821976435536482179
300000060005901807008456090602008000807000510009647200014005080000020703200004100,391782465465931827728456391632518974847293516159647238914375682586129743273864159
001000080600805002009070400020090346104080970090500000700006014038150200000240507,571429683643815792289673451825791346164382975397564128752936814438157269916248537
017009062002040800000005000060403051000682049300000020040000015680900030509017400,417839562952146873836725194268493751175682349394571628743268915681954237529317486
700000830020003010304150900105900026000030000876400500010002347090086200057010009,761249835529863714384157962135978426942635178876421593618592347493786251257314689
409005083020070605100200000005410370300009050080006040900650100240300008060840730,479165283823974615156283497695418372314729856782536941938657124247391568561842739
015800906000700080024000001000965020100003860970020305400030000280510070030609004,715842936693751482824396751348965127152473869976128345461237598289514673537689214
070050620600740508803000010090085071415900000006020390047039000030400087000010200,174358629629741538853296714392685471415973862786124395247839156531462987968517243
060127049209600108000400600071002030096000805002036400907005060030000000000871500,568127349249653178713498652471582936396714825852936417987345261135269784624871593
006001093703080100000024080360005012040070500890030006238500060500000740000019005,486751293723986154951324687367495812142678539895132476238547961519263748674819325
000050008003270000824030907700100400001562000008009503900000800400300165070026004,617954238593278641824631957759183426341562789268749513936415872482397165175826394
000200300086701004092000056527103600019020000030008500450080009008390071000400060,145269387386751924792834156527143698819526743634978512451687239268395471973412865
001000807040070069006905004305081000090200080007004025200109500718020400000007600,931462857542378169876915234325781946694253781187694325263149578718526493459837612
040010287000005049600700005415200000007006901009030070100908436000024000870500100,543619287721385649698742315415297863387456921269831574152978436936124758874563192
090402008520060040000080013000607920064100007030008005207000490040056800001790030,193472658528361749476589213815637924964125387732948165257813496349256871681794532
150302080903010007024008500030090020002405079000800006070000601006150098010007430,157362984983514267624978513431796825862435179795821346378249651246153798519687432
000523040500100000400000090745009002019080400020006007300070060070840509001602800,198523746567194328432768195745319682619287453823456917384975261276841539951632874
070300461600050023032700800000010006480900000250070040005800904017023050800097100,579382461648159723132746895793214586486935217251678349325861974917423658864597132
709003000506920100020140005005000300031408070400050026060270908073010250900804000,719583462546927183328146795685792341231468579497351826164275938873619254952834617
390000002007080500600104380001530000006900405070010020125800006000250090084073000,398765142417382569652194387241536978836927415579418623125849736763251894984673251
030078400064302007090600000400001826910000040000506700003000000002789510500010084,235178469864392157791654238457931826916827345328546791183465972642789513579213684
207060041010004360900030507000500620124000050008003009060001098503047000000086700,237865941815794362946132587379518624124679853658423179762351498583947216491286735
090001670001549008200780004010050037068070000500390200000003056430000000086400093,894231675671549328253786914912654837368172549547398261729813456435967182186425793
030002045008500106090007200400070050800090001029803600310040009006000000705610802,631982745278534196594167283463271958857496321129853674312748569986325417745619832
600908005000630108901500000070005260004000009108249700800007040037000520500021300,623918475745632198981574632379185264254763819168249753812357946437896521596421387
290040561000000030507080002060002159100003000749005080306050007002001046001908000,298347561614529738537186492863472159125893674749615283386254917952731846471968325
000300000000602719018740006200104590080000041000056020035000000040028100006907800,672319485354682719918745236263174598587293641491856327835461972749528163126937854
004008100010000090850701602060024039047160005005000060301809000089600004020005007,694258173712436598853791642168524739947163825235987461371849256589672314426315987
068000730000096002000230004901020050000670000034958000020005046090000180780040305,268514739347896512519237864971423658852671493634958271123785946495362187786149325
940700860170906000000000000000160205035007004008049030009200050350008472004070106,943752861172986543586431729497163285635827914218549637769214358351698472824375196
000578600007300004910002000400000903053040170180007050006900210000006809208050730,324578691867391524915462387472815963653249178189637452746983215531726849298154736
080960070007008090030020001060001000503700048002354007451000603600005084000002900,185963472247518396936427851764281539513796248892354167451879623629135784378642915
000800060075009002002063010050007004008095003009610000106508300043071026020400980,314852769675149832982763415251387694468295173739614258196528347843971526527436981
200050100010783094000001003000329040083005006450070019090000000605400070170060800,239654187516783294847291653761329548983145726452876319398517462625438971174962835
100009305590100000087030200800407500006000001020090046074010000010520073009806004,162749385593182467487635219831467592946258731725391846274913658618524973359876124
160900420350070000400203017006090801000000000709045062030502079080006000205400630,167958423352174986498263517526397841843621795719845362634582179981736254275419638
801300000900004620043056100500070800390200400700601095000030008008502007420108006,861329754975814623243756189514973862396285471782641395659437218138562947427198536
086000094007600200509100030000000809000530600020090340000700001034008507065020980,286375194317649258549182736453216879978534612621897345892753461134968527765421983
790036480005000000402800610309610800007080004840009500060902300000040090020503007,791236485685491723432857619359614872217385964846729531164972358573148296928563147
830720000006000080907000153700058620001900000002000394100084530050060047064005900,835721469416593782927846153793458621641932875582617394179284536358169247264375918
007005001180400520300009460000046970049030008030208000500000610020100035000002790,497625381186473529352819467218546973649731258735298146573984612924167835861352794
760040009050000028804009730900030200482100600006078001310054000005600097000000350,763842519159367428824519736971436285482195673536278941317954862245683197698721354
054089070003000060208340009001050032000090106830200700400000050002560800970031000,154689273793125468268347519641758932527493186839216745486972351312564897975831624
205080040010000873000403010008900007043600200950070180009050600060001438400200090,235187946614529873897463512128945367743618259956372184379854621562791438481236795
790005002060024000000000318403790056015000020900106000100008005007630080820070940,798315462361824597254967318483792156615483729972156834139248675547639281826571943
004000050009170008823000006070080000051903020600024013080300405000200700105890630,714638259569172348823459176372581964451963827698724513287316495936245781145897632
003004089700009002001800700038200100204700506070006000000900063102308040049027000,523174689786539412491862735638295174214783596975416328857941263162358947349627851
080307005900000701000540200008700106402080000073690080050001023004003600700026904,286317495945268731317549268598732146462185379173694582659471823824953617731826954
067800040500410209010027000980000501051960000003140807000003480006200030070580900,267859143538416279419327658984732561751968324623145897195673482846291735372584916
000003007679002500005100894400096010008074002300800700004501600910620005080000003,841953267679482531235167894457296318168374952392815746724531689913628475586749123
650030008002007301090842600001900503800000060000070042900004270070001000036085004,657139428482657391193842657741926583825413769369578142918364275574291836236785914
204005300007082009180090407700254090008100600003968001350007004060000010000600032,294715386637482159185396427716254893928173645543968271351827964462539718879641532
500004269604530000800070500070080340401700600000109080023000008060001403705000100,537814269694532817812976534279685341481723695356149782123467958968251473745398126
600400921009005036010000000080270000302000040760938500001000067400050209008320000,657483921249715836813692475185274693392561748764938512521849367436157289978326154
000018500093040280040307009000270600380100004972000005604050030508001070000862001,267918543193546287845327169451273698386195724972684315614759832528431976739862451
230105040408070000000002030010053027020000809605080004067009000380610900009000201,236195748458376192971842536814953627723461859695287314167529483382614975549738261
010008703350090601000500040009704005230000060046050190801039000067820000000006024,912648753354297681678513942189764235235981467746352198821439576467825319593176824
900005103005041806004600007007009002032180000000406300741002500008000600600954080,986275143275341896314698257867539412432187965159426378741862539598713624623954781
820300670076840100901050000010005097200410000040680050003000008700060904050128060,824391675576842139931756842618235497295417386347689251163974528782563914459128763
107000204005001860490030070000093050030016900840520600706050001250000048000308000,167985234325741869498632175671893452532416987849527613786254391253169748914378526
000100800048503000072400060005080930080002701019306000200070500034000070600809140,563127894948563217172498365425781936386942751719356428291674583834215679657839142
300000000075080000010274036000500090009136400002040180490000020603050009801302000,346915278275683941918274536134528697789136452562749183497861325623457819851392764
600427005501000870000008069050930001012005407040000080030610040700000900000082006,689427135521396874473158269857934621312865497946271583235619748768543912194782356
030600840000250037890010005005000120004080009200100300000040650068009703001006002,532697841146258937897413265385974126614382579279165384923741658468529713751836492
000300210400600003800019047070028001100050400005001096306005700084200030792040008,967384215451672983823519647679428351138956472245731896316895724584267139792143568
200000310000508006604072005300200008007309050160087200700960041003040800010000790,258694317971538426634172985349256178827319654165487239782963541593741862416825793
003080002000002050500149007402000390006073045050000068010500970090630004800400100,963785412741362859528149637472856391186973245359214768614528973297631584835497126
300200057000000008090374100004020030700061902001007560800192040605000000140806000,316289457472615398598374126964528731753461982281937564837192645625743819149856273
002050070100309800980264000070403180400020300590000600001006940030107200605900003,362851479154379862987264531276493185418625397593718624721536948839147256645982713
480607000020000630305090100700801290000054000100200056800006547009010800072000009,481637925927185634365492178754861293296354781138279456813926547549713862672548319
730102500008500006050003074560090030020751090001200000004000810012680900090004702,736142589148579326259863174567498231423751698981236457674925813312687945895314762
603080001009004060054300207130005006006400072082010900000073004208600003070800050,623987541719524368854361297137295486596438172482716935965173824248659713371842659
007002006000470190052301000280006530031700240400009008006084070590600003010000805,147892356863475192952361784289146537631758249475239618326584971598617423714923865
400000008000267009002003051201000800809300060030790000340005000106800035905001427,463159278518267349792483651271546893859312764634798512347925186126874935985631427
302050907000004680050791000004500800690027301108940002061000000000000274520000030,342658917719234685856791423274513869695827341138946752461372598983165274527489136
098240005004900201500000007026109300000082500905003004341007009060000000007806010,798241635634975281512638947426159378173482596985763124341527869869314752257896413
018006002002050400570400800090004680800060541007000003300000000060895700054012900,418976352932158476576423819195234687823769541647581293389647125261895734754312968
060009507030080140009420080200010000070500004350078000940600012100043076080000030,468139527532786149719425683296314758871562394354978261943657812125843976687291435
080000007000500430010326005200735109009008300006102080900000240064000050003609710,385914627692587431417326895248735169159468372736192584971853246864271953523649718
010008360006040000809065070070000659503009800040020107605000000780003024230910000,417298365356741298829365471172834659563179842948526137695482713781653924234917586
071308060850091004000000002000037020413800500000500600030006000102009048590020070,271348965856291734349675812685937421413862597927514683734186259162759348598423176
080029503000010008506300070002407010001950006030800902900004080400603050207000300,184729563379516428526348179692437815841952736735861942953274681418693257267185394
