100070036000004250782030040007900500300100028006000093030005001201008400050740080,145279836963814257782536149827963514394157628516482793438625971271398465659741382
200596300000000040009800201708605000006003050104080070010000496407260800805309010,241596387683127549579834261738615924926473158154982673312758496497261835865349712
000005376070408050000200000840600730100007004900320001005003280390540600006901000,284195376679438152531276498842619735163857924957324861415763289398542617726981543
600002005300409000700035840060580009053100702018040036002701900500000008004000063,641872395385419627729635841267583419453196782918247536832761954596324178174958263
270008001506790004010000063040610800003002006009850400000900507085037000600200010,274368951536791284918524763742619835853472196169853472321986547485137629697245318
209000183301090000000800040000012300074050006000706095610003850900045000003070029,249567183381294567765831942596412378874359216132786495617923854928645731453178629
206074050901005800300009624010460007000030000400097300007000142090000006050810030,286374951941625873375189624513468297729531468468297315837956142192743586654812739
700001405092708000600250800000816309480005700063020010009374006300000904107500000,738691425592748631614253897275816349481935762963427518829374156356182974147569283
200090010070480300069500700000800004700310608005009030924050060600008103080270540,238697415571482396469531782316825974792314658845769231924153867657948123183276549
000000060080057090907024380060070004020506000059803100001002037400080000530019200,245938761683157492917624385368271954124596873759843126891462537472385619536719248
001000600050073942000692080480000200000460070300801050028704010005000093670900800,291548637856173942734692185489357261512469378367821459928734516145286793673915824
010090050500600084080570620640850000301200079009010500090030400000002030002186700,216498357573621984984573621647859213351264879829317546198735462765942138432186795
004709026007004930020000001801302000670008503000900000060005310250430700410690008,534719826187264935926583471891352647672148593345976182769825314258431769413697258
000206007009030806570100002008420050020070090013800004800900600060005471154000300,381296547249537816576148932698421753425673198713859264837914625962385471154762389
802600004090000500000104308000000070910008400246507001000050609470020030050803710,832675194194382567765194328583419276917268453246537981328751649471926835659843712
534000000080001273200006900940700106307010000000900480006004050005632008710050020,534297861689541273271386945948725136367418592152963487826174359495632718713859624
209080400041000760007105902000059000904701003800060270000300000000090084050204601,239687415541932768687145932723859146964721853815463279496318527172596384358274691
006010002082000000009308005004165300700000100900703046600200480030007500005804090,576419832382576914149328765824165379763942158951783246697251483438697521215834697
006085701080004052000076080067300010420000000805000029502700000039010405100409006,396285741781934652254176983967328514423591867815647329542763198639812475178459236
028040690000218030540000000000000065007009201085360700400102800000730910390600070,128543697769218534543976128914827365637459281285361749476192853852734916391685472
860000000070600540004109003006700920502080100100205060900010000005003278040560001,869354712371628549254179683486731925592486137137295864923817456615943278748562391
060000020300007491000451030250060019090580600430000000000005060007038102009100078,164893527385627491972451836258364719791582643436719285813275964647938152529146378
750000910006008320004060500800000002103045007090302080070054860400700001062009000,758423916916578324234961578845697132123845697697312485371254869489736251562189743
002009085300007004140680200030000400000020070509300026000040612800005009760030000,672419385398257164145683297237896451486521973519374826953748612824165739761932548
003207001090860000460013070201500300600020004080000910000004058730050000500709230,853247691197865423462913875241598367679321584385476912926134758738652149514789236
430000000002600005508071004000910026000038010049000700056090307001085090200007008,437859261912643875568271934783914526625738419149526783856192347371485692294367158
320090058007004300590006002040502000970080120180000000206005093008100005000300760,324791658867254319591836472643512987975683124182947536216475893738169245459328761
000048100548000070103076002004000020800650030079010064060920750900080000200107009,726348195548291673193576482654739821812654937379812564461923758937485216285167349
001000002009307065060059400600020009040061207800705030985000076000078004200100300,351684792429317865768259413617823549543961287892745631985432176136578924274196358
002080600000006040860300009200901078134070500080004002070402030043600081501090000,412789653395126847867345129256931478134278596789564312678412935943657281521893764
060013807102800000430062900009008352020070000040500106001037000350100060000950001,965413827172895643438762915719648352526371498843529176691237584357184269284956731
007000540046900802000701003618250000400080207005394000020000014000800300300060090,937628541146935872582741963618257439493186257275394186829573614764819325351462798
003010954500008060070400230008500070059072380032800100820906000000000600901030047,283617954594328761176459238618593472459172386732864195827946513345781629961235847
280390070000080500006007002910063804065100307000800026037000005400001060500072408,284395671179286543356417982912763854865124397743859126637948215428531769591672438
000580069004020000000419007030605080090000046201030900670048021028007000049100030,712583469954726813386419257437695182895271346261834975673948521128357694549162738
034010098900057200005000007000503000347800056600090012000680003001079400060002800,734216598986457231215938647192563784347821956658794312479685123821379465563142879
502000060000400030093810020000070019240000087670289000005930400706002000080001350,512397864867425931493816725358674219249153687671289543125938476736542198984761352
075064003000950708014000090130000284000008300006120000300007006200580407009406010,975864123623951748814372695137695284592748361486123579348217956261589437759436812
000748200000000003006209050080060500000051908507902000020003640905000017340670090,153748269294516783876239154489367521632451978517982436728193645965824317341675892
001905200000087000380000067970050002406709030000403905000016409035800020004000018,761935284542687193389241567973158642456729831218463975827316459135894726694572318
792001040003000020000004005017000008068927010500006030009502400040060370071083609,792651843453798126186234795917345268368927514524816937639572481845169372271483659
000000146820670000050093720000060000203000809019007450030500000008020971901004230,397258146824671593156493728485962317273145869619837452732519684548326971961784235
100207080060030509047900002405000068900164000020000300258070014001800700300602090,139257486862431579547986132415723968983164257726598341258379614691845723374612895
100002040000790620086003710702500000060000005930816004507020000418000000000905100,179682543354791628286453719742539861861274395935816274597128436418367952623945187
100900080750200000000000403970020004031605070020030106000040602090050810860700309,142963785753284961689571423976128534431695278528437196317849652294356817865712349
600095004030700500890000100000840000009503046700006002048200003501400700200168090,617395284432781569895624137356842971129573846784916352948257613561439728273168495
000002409902045600700600150000050000428309070030100906100204700040000318005030000,356712489912845637784693152691457823428369571537128946163284795249576318875931264
460000170705000003009020046070109450000206000038000000000300010354800009010097205,463958172725641983189723546672139458541286397938574621297365814354812769816497235
430001602000060800002390701070005406000107053305004009719003000560000020800750000,438571692197462835652398741271935486946187253385624179719243568564819327823756914
580004931006000020002981007060095040200370069710200000300062008950030000004000005,587624931196753824432981657863195742245378169719246583371562498958437216624819375
005000702206900100304070050910008000600400270002030080000850016840700009003001040,185346792276985134394172658917528463638419275452637981729854316841763529563291847
000014050000300624000680300200003705081000000040590068104209000357100040008000076,632914857819357624475682391296843715581726439743591268164279583357168942928435176
060030010005100839009200060086000305000076000214005700008900200370051040040708000,867539412425167839139284567786412395593876124214395786658943271372651948941728653
100703048006010000080050920090040500060009804270006030410305006009028700732000000,125793648946812357387654921893147562561239874274586139418375296659428713732961485
940200060020801005008043017000650900006000041390000080400006820030127600500300009,941275368723861495658943217174658932286739541395412786417596823839127654562384179
100020096040000080007903500000860305026059070000201004004170000803500201009004600,135728496942615783687943512491867325326459178758231964564172839873596241219384657
031002045704000960905068000010040003090100700003005090002089400800013050300070608,631792845784351962925468371216947583598136724473825196162589437847613259359274618
600900432005000700000008009067100004200370800010090206004035080970020000053040601,681957432495213768732468159567182394249376815318594276124635987976821543853749621
095100030601370002000000000100208500408009010700001069840050000006027008023006907,295184736681375492374692185169238574458769213732541869847953621916427358523816947
010300070060001020930024006200800365000490710870000002300500081095060000000070049,512386974764951823938724156249817365653492718871635492327549681495168237186273549
560800290030009004074500000800003001000200340090186005102048073006020009000670580,561834297238769154974512836827453961615297348493186725152948673786325419349671582
800001200700056001030700080005400029400002030000079006020000010970310800360098540,856931274742856391139724685615483729497562138283179456528647913974315862361298547
000403700064800090001607020042000501075900200680010007806070053010005000300204080,298453716764821395531697824942738561175946238683512947826179453419385672357264189
026080100000003706098601034000007008003019670004020903060508090430070020501040000,326784159145293786798651234912367548853419672674825913267538491439176825581942367
340280005009050160500007000090000007006402030080691054400008023027103080600000070,341286795879354162562917348294835617156472839783691254415768923927143586638529471
005004708670000100890003050000080400300006029120400560000200000730650940400709601,215964738673825194894173256569382417347516829128497563986241375731658942452739681
004701509000095003003260080200508610100040900076000030610009000058107400900600002,824731569761895243593264781239578614185346927476912835612459378358127496947683152
620480900400509060700030000090014200050027080840300001003098075900005810001700000,625481937438579162719632548397814256156927384842356791263198475974265813581743629
020100800008907041034050209690000080087034000000780602005060000370500100006402093,729143856568927341134856279693215487287634915451789632945361728372598164816472593
703000000008000240000610035150032090604700800009506020200000009071305480045109006,713254968568973241492618735157832694624791853389546127236487519971365482845129376
510400030006205840090086700120600900300500070080040200400800000072003060003090001,518479632736215849294386715125637984349528176687941253451862397972153468863794521
703650108000040030694010720100480950065900003002000470019000200008300060500078000,723659148851742639694813725137486952465927813982135476319564287278391564546278391
080600205120800073000007400206400501050200000700091300090014700300900060014050000,487639215129845673563127489236478591951263847748591326692314758375982164814756932
200930050048021006007006010001000042680045001900007003000380070102500080005069300,216938457548721936397456218751693842683245791924817563469382175132574689875169324
000400010005092630300500907908000400076800002200017006502004000010006780800930040,629473518785192634341568927938625471176849352254317896592784163413256789867931245
000203807000009004503700060002190050650307200040008070801600000970080003304000105,496253817217869534583714962732196458658347291149528376821635749975481623364972185
000300000308002704514000006009760245070089000400501090003100600802030470760005008,627314589398652714514897326189763245275489163436521897943178652852936471761245938
010080035300000802604000007890005610031200700067901008928640300000050000700300904,219786435375194862684523197892475613531268749467931528928647351143859276756312984
000029030040000008136040020600005000028003900700080361300501070870400095002760100,587129436249356718136847529613975284428613957795284361364591872871432695952768143
000090000650040918803017200710008030502070680400003007126000050000009470000530021,241895763657342918893617245719468532532971684468253197126784359385129476974536821
040500270300019600008620900000400306007980010001050029869040005024063800070000000,946538271352719648718624953295471386637982514481356729869247135524163897173895462
500090040830100900420007160000070500006908072040010096093080050008045600150600003,561892347837164925429537168982476531316958472745213896693781254278345619154629783
004000139000020000701890040050608700409200008600500301270050000500007960040010080,824765139395124876761893245152638794439271658687549321278956413513487962946312587
000563800070900000026080034900042608005100000200050700000009160061030000003008275,149563827378924516526781934917342658685197342234856791852479163761235489493618275
010304600300000007000529008080103400090700053700080910200000000040610005658002790,815374629329861547467529138586193472192746853734285916271958364943617285658432791
009000060200590400500602081006003029802705004430080007005018700600400002170000030,319874265268591473547632981756143829892765314431289657925318746683457192174926538
700000506260003010008409003095010040003050007001682000050200064100800750900700020,734128596269573418518469273895317642623954187471682935357291864142836759986745321
000500003620080007100036980800000090301700400064010200008004069700002005005807140,489571623623489517157236984872645391391728456564913278218354769746192835935867142
400720000002006008031000047107035009860000030040870500200040010900001674000509803,498723156572416398631958247127635489865194732349872561286347915953281674714569823
000800030500064709908000210000108040600720008003000502802037000479002050060491000,726819435531264789948375216297158643654723198183946572812537964479682351365491827
705430020006000003020090080008057001504610008093200000000025470410700090600008010,785431629946872153321596784268357941574619238193284567839125476412763895657948312
064051000000002340305900060600100023070500108900008570013764000000093800720800000,264351789197682345385947261658179423472536198931428576813764952546293817729815634
531900004070018030000000200007000509450060003000200807092004050680009070314052600,531926784276418935948573216827341569459867123163295847792684351685139472314752698
600700004139800002020005086013002000006100070008004509050003900000900000701068430,685721394139846752427395186913572648546189273278634519852413967364957821791268435
070260050049300601008009030300000105050001804000907000000080700014702003620540900,173268459249375681568419237396824175752631894481957326935186742814792563627543918
009040060080200070570100803835009240016580007090004000000370650002060090103020000,329847165681253479574196823835719246416582937297634518948371652752468391163925784
000863000040005308060010027800507002021640950630090000003470290010200000900000081,257863149149725368368914527894537612721648953635192874583471296416289735972356481
007030060452090700000001850960100000308600041004000200000902607500008900003407000,187235469452896713639741852965124378328679541714583296841952637576318924293467185
000405000048010039109600700024003680063500902700000050076020800000089040002100007,237495168648217539159638724524973681863541972791862453976324815315789246482156397
300000104084001250150003060610005008008200970007009546000020030400108007905004000,396572184784691253152483769619745328548236971237819546861927435423158697975364812
