003094015002053600070000800900000073847015920000006400306100000100647050000008002,683794215412853697579261834961482573847315926235976481356129748128647359794538162
040030080200801070803026000000500200006014007100008509600040050097005401005302900,541937682269851374873426195784593216956214837132768549628149753397685421415372968
100870400405930700908002160000600002540000930321000080050048000207000050000100376,132876495465931728978452163789613542546287931321594687653748219217369854894125376
603405000170300060004070203008600900062001000500209080410830007050900008309017004,623495871175328469894176253748653912962781345531249786416832597257964138389517624
090000703800041050501600900009000360074210000608307001000030640000002100002768009,496825713837941256521673984219584367374216895658397421785139642963452178142768539
040020800300050040709800002030170006010086090400005370002400607050009104600012030,541927863328651749769843512935174286217386495486295371192438657853769124674512938
001008620090400800050609310010000067067104000938020500070065030500800190004300002,741538629396412875852679314415983267267154983938726541179265438523847196684391752
800630000700001020012470000060003000008900450094865002070000801006059030320006005,859632714743591628612478593567243189238917456194865372975324861486159237321786945
002030760701200085093500400005000294004000000870001030000009023000047001056812900,582134769741296385693578412165783294234965178879421536417659823928347651356812947
000300072090824000041067900089071634004080057020000190038600000070093020000000015,856319472793824561241567983589271634314986257627435198138652749475193826962748315
904002000050003870010900006008390400000720000600500301000007060730609080560400012,974862135256143879813975246128396457345721698697584321481257963732619584569438712
360000008402806100008054700000908010090300560703100002280000000050400903000072405,365719248472836159918254736526948317891327564743165892284593671657481923139672485
001040008970102000003007061800206005054800020360000079000401030019050407005008900,621345798978162354543987261897236145154879623362514879786491532219653487435728916
090560300031090006540700100400010709000008010205070060000030058687004003900020400,892561347731492586546783192468215739379648215215379864124937658687154923953826471
720004031001007469000501000006800003900042800504600210030108005890370020000000070,728964531351287469649531782276815943913742856584693217437128695895376124162459378
840630070002000006053100900000004800590086007710900600060070005900050308300209014,849632571172598436653147982236714859594386127718925643461873295927451368385269714
320000001800010490000450072080320104002000030900760500650800003010040780740500600,324697851875213496196458372587329164462185937931764528659871243213946785748532619
900840600801500903603209007230001004060900350010007000400000800005700029000385000,957843612821576943643219587238651794764928351519437268476192835385764129192385476
003019720000000050700428000605004900040072010180600003006007009090350068200040030,863519724924763851751428396675134982349872615182695473536287149497351268218946537
200006500050930000907002080080064000400100072063050100070390060009410805308000001,234876519856931427917542386182764953495183672763259148571398264629417835348625791
410050000000800273000097100803700900001006002924030060390470000080509040700200806,417352689659841273238697154863724915571986432924135768396478521182569347745213896
050460000107005630340090850030572006509030017800000000020008000610020090904100700,258463179197285634346791852431572986569834217872619345723948561615327498984156723
008054130072030000031700408027610300003900010040008500700106000090000750004002089,968254137472831965531769428827615394653947812149328576785196243296483751314572689
020030000040509603709060480500000040080023901000005706857600010014000002300048090,625834179148579623739261485573916248486723951291485736857692314914357862362148597
750000980902000045000001230800270190006030000400609053300708024504100000070506008,753462981912387645648951237835274196196835472427619853361798524584123769279546318
000120000500047316080000050436009700050061840900000030800230007194000000002906500,643125978529847316781693452436589721257361849918472635865234197194758263372916584
070106024603000800010027950180503000409000100050008709090000008062050403040079060,975186324623945817814327956187593642439762185256418739591634278762851493348279561
000600000105070304940008250007005090419200070028000406000130709200489015600000040,732654981185972364946318257367845192419263578528791436854136729273489615691527843
420806000500000170076900800007040005030005604105302009210008000069200350800000420,421876593598423176376951842687149235932785614145362789214538967769214358853697421
000690570500200083900085004093700001800040600027010400061800000004020398000050200,138694572546271983972385164493762851815943627627518439261839745754126398389457216
067490002040700000105300670300000510400807200070231800900004068008900000020060350,867495132243716985195382674382649517416857293579231846931524768658973421724168359
080600003007008006902070000000004310130020005698000070010206508000401037453900200,581642793347598126962173854275864319134729685698315472719236548826451937453987261
000015304003600000087009020005004071700038006000500240320001009904060050061200408,296715384453682917187349625635924871742138596819576243328451769974863152561297438
900502100035000080700603040280030005054090017003406900840000000000074006016009030,968542173435917682721683549289731465654298317173456928847365291392174856516829734
070090500005063048908005000092007100100020073800450006409108705000600021060040300,376894512215763948948215637692387154154926873837451296429138765583679421761542389
064200070000008095200013008007300000902675000000040150500094003780020410109000026,864259371371468295295713648457381962912675834638942157526194783783526419149837526
003005007140023069000604020960040031080009200000072000098000003500080140417000500,623895417145723869879614325962548731781369254354172986298451673536987142417236598
100500800670302090093080406209070600400098000000631040085010230002004700000700001,124569873678342195593187426239475618461298357857631942785916234312854769946723581
060007130090540000000021046309000007071408600280053001705810000000000200008239054,462987135193546872857321946349162587571498623286753491725814369934675218618239754
065008034100700502002090100000140005970020008004003207506039001029000400300400060,765218934193764582482395176238147695971526348654983217546839721829671453317452869
035470000820300004006082100300000049074190000502030608910200800000006037007850900,135479286829361574746582193381625749674198352592734618913247865258916437467853921
730006200000030405501200009000008003063910000802045100008002096200700584670009020,734596218926831475581274639157628943463917852892345167348152796219763584675489321
000260001905030400041900700006020940870010025000000800200700306309850000180600200,738264591925137468641985732516328947873419625492576813254791386369852174187643259
008502007506140320020070010107003080090600005003490600001900040705008201900000800,418532967576149328329876514167253489294687135853491672681925743745368291932714856
080107602400060000910003085300001090007040801008052064000900026045800100700200530,583197642472568913916423785354681297627349851198752364831975426245836179769214538
000905080608100009470000310000028060091000700803090402705004006020080003104630507,312975684658143279479862315547328961291456738863791452735214896926587143184639527
000050706130204900850000040000300410025016000900705002049080120300060000070423080,294158736136274958857639241768392415425816397913745862649587123382961574571423689
040207089060031002030008500700013904000905000003080160600040030000070058182006000,541267389869531742237498516758613924416925873923784165675849231394172658182356497
000490012920007048308000000510060090230005004800200063607510000050609020000004800,765498312921357648348126975514863297236975184879241563687512439453689721192734856
170008504209004006060207000000302780407080102520010900010070038040093600005600000,173968524259134876864257319691342785437589162528716943916475238742893651385621497
396000208100200000004079050650800007000090010408007306903740002000000760020013540,396154278175268934284379651659831427732496815418527396963745182541982763827613549
000000309087300040304658010000000001105460090760500023051703800020090004008026000,516274389287319546394658217842937651135462798769581423951743862623895174478126935
037006000000052003000400870100000690500237001084001005900800306002109048076020050,237986514418752963695413872123548697569237481784691235941875326352169748876324159
500038042290600003001049700082005109000014070007860005100080000369400007000500620,576138942294657813831249756482375169653914278917862435125786394369421587748593621
580260040000007801032009000000700000209100600600005403700008256000093010401600008,587261349964357821132849567345786192279134685618925473793418256826593714451672938
700300800095028010402600030000507000930006020000219400200085007810070090009000340,761394852395728614482651739124537986937846521658219473243985167816473295579162348
830070000010060289005001306002090043600204010700003500509047000000009800208100705,836972451417365289925481376152798643683254917794613528569847132371529864248136795
700200500150894070803060000010300920040010800000609307008005000400000235026170090,764231589152894673893567142617358924349712856285649317938425761471986235526173498
085000040940070020000506003400207900501030008078009600300065081000390002007010060,685923147943871526712546893436287915591634278278159634329765481164398752857412369
000870510750230400009000006630007050200450000100000809080065120016002080040090073,463879512751236498829514736634987251298451367175623849987365124316742985542198673
065000700480003002139007580528400900000002060000910004050600030300100609700054010,265891743487563192139247586528436971914782365673915824851629437342178659796354218
000050930900700000004002601200130007065009402008000060010504090706008020450090103,627451938981763245534982671249136857365879412178245369813524796796318524452697183
004096007701005002089300000400103080500027900630400201000512600870000000000060439,354296817761845392289371564492153786518627943637489251943512678876934125125768439
400800905096000200520310840000504107030087020000620500080031000000970001104050060,413862975896745213527319846268594137935187624741623598689431752352976481174258369
001060578200000000006930004070400003000010900050389061008602007930058200007100400,391264578245871639786935124179426853863517942452389761518642397934758216627193485
050470010000062073040080006006000020003009540008105600100850700074000930200000000,652473819981562473347981256596748321713629548428135697139854762874216935265397184
240000075053080000169570004970030040000900030002001006004006097080004102001200080,248169375753482619169573824975638241416925738832741956324816597587394162691257483
930000500008000039000007026075013040401025060000008250300740102067800094840009000,936284517728561439514397826275613948481925763693478251359746182167852394842139675
600300210502000690090052074300040700701090008058100030240800050900025000000071406,674389215582714693193652874329548761761293548458167932247836159916425387835971426
004000090680340070002196500050408709060750240030000010005900600140680000700003028,514827396689345172372196584251438769968751243437269815825974631143682957796513428
687004000000090370000020004290040000006083105851600009002017080010035906045000002,687354291524196378139728654293541867476983125851672439962417583718235946345869712
006000100910503004007010082700200000000008930058904070060807500400000091030050020,386742159912583764547619382793265418624178935158934276261897543475326891839451627
840009000200800350005072600509040010080190007600503004026000095300007001104200760,843659172267814359915372648539748216482196537671523984726431895358967421194285763
000070002300506700002840691050309008840050060060010070015600023004280910900000400,486971532391526784572843691157369248843752169269418375715694823634285917928137456
000000307670012008005603920400006709000805200930047010100400036090008000020050800,219584367673912458845673921452136789761895243938247615187429536594368172326751894
000030010980600005570009402008402930002000040060983001030065180700200000046091500,624537819981624375573819462158472936392156748467983251239765184715248693846391527
980003060025000041000507902406019000050300006300060170030208000201704050809000703,984123567725986341613547982476819235158372496392465178537298614261734859849651723
009008000070040063800600540300006005920100080060920007100093402250004706000500010,649358271571249863832671549317486925925137684468925137186793452253814796794562318
079300500430000001800426070002001030004870002005000680010900048000530200600080903,279318564436759821851426379782691435364875192195243687513962748948537216627184953
290050000705600200030701400050007610000043708308000090010905000000080160000206037,291458376745639281836721459452897613169543728378162594613975842927384165584216937
710008320060000700208005004020400973906100008407030600080040056000500001005092000,714968325563214789298375164821456973936127548457839612389741256672583491145692837
034500000700903604806002010200090340000807500175600200090050728000010006603408000,934561872712983654856742913268195347349827561175634289491356728587219436623478195
000503807005804102600000030480600900007002080300950270256070000000010496900300000,129563847735894162648721539482637951597142683361958274256479318873215496914386725
005020009749000206000067300086012004000580900100000007300006710020490000500308002,635824179749135286218967345986712534472583961153649827394256718827491653561378492
000460001210307600804005000500000380070509006100002407000203090409010805003080002,937468521215397648864125973542671389378549216196832457681253794429716835753984162
007010800006000009900206150200805304000400710050090000700009530690037040014580060,537914826126358479948276153271865394869423715453791682782649531695137248314582967
010604003290000600004032007000025804060080200320106700540008002780050190109007005,817694523293571648654832917971325864465789231328146759546918372782453196139267485
800021000000490520000850603304215800000700001002306000096000457507000000148000369,853621974761493528429857613374215896685749231912386745296138457537964182148572369
000090683020031000604507900000069100005400000708005430350000002010700069086300047,571294683829631754634587921243869175165473298798125436357946812412758369986312547
802064530030700000050000412740006000300050890500802006070001054000073089201000600,892164537134725968657398412748916325326457891519832746973681254465273189281549673
800005000700200190050146002074308060000020800000500070039800600120030900560700041,812975436746283195953146782274318569695427813381569274439851627127634958568792341
300009017045010000600704030906108502030006009000070080097050800800020091060003004,382569417745312968619784235976138542538246179124975386497651823853427691261893754
092030001003006780047001600700052090010007400080900005300400007960800050008120030,692738541153246789847591623734652198519387462286914375325469817961873254478125936
000900401020100098700054300004600500009270006180000070002016805510030007600002900,863927451425163798791854362274691583359278146186345279942716835518439627637582914
006900045200305907000010600090540300800001004650083000000020000560008109409600230,136972845248365917975814623791546382823791564654283791387129456562438179419657238
700040081069007025308000400124000007000910500000008062005021730600004000087506900,752349681469187325318265479124653897876912543593478162945821736631794258287536914
930086020010970508005000000629100003008020400500000600003400709000390001204705080,937586124412973568865241937629154873378629415541837692183462759756398241294715386
047001008200003091000260540000007803050620700016084000800900302060400100009035070,647591238285743691931268547492157863358629714716384925874916352563472189129835476
000000040602170009501600003003014500070598100200300000960005008008030095307080426,739852641642173859581649273893214567476598132215367984964725318128436795357981426
005809040830002070006410503000000056009003000081500009090240300103706000470001800,715839642834652971926417583347928156569173428281564739698245317153786294472391865
