010060209000739004504000060300045800478900000009200001006400070000056010200801930,713564289862739154594128763321645897478913625659287341136492578987356412245871936
204600807000100003090205040300000760000807015601304080730501002400090031050020600,214639857567148923893275146385912764942867315671354289736581492428796531159423678
600530004005060730014002900000720010000006400892410000008090305527100809036000007,679531284285964731314872956463729518751386492892415673148697325527143869936258147
508031409004005003670400002200010037100068000005290000349006500001900070060000804,528731469914625783673489152286514937197368245435297618349876521851942376762153894
150002800008910400700306005003001084860200100000097260090000500274003000000640007,159472836638915472742386915923561784867234159415897263396728541274153698581649327
200180000450000600007000429030020750004600000710009203090057080600230900875010040,269184537453792618187365429936821754524673891718549263392457186641238975875916342
760100050200390010040520608000675000008004260300010079004283007500400001029000300,763148952285396714941527638492675183178934265356812479614283597537469821829751346
007230040046050700010000802000009300038060901000004058504020000083090127001806005,897231546246958713315647892152789364438562971769314258574123689683495127921876435
000060800509014060820900500700000020003009104604305007970203010000780305001006008,147562839539814762826937541795148623283679154614325987978253416462781395351496278
100670000040050078390408600020810307000003006000000129076100450001005000280934000,158679234642351978397428615529816347714293586863547129976182453431765892285934761
000006419060100000305200000070050090001003874908020300530900008020070061000468205,782536419469187523315249687673854192251693874948721356536912748824375961197468235
030002050900170620080004070820906004000030001000058060500000000017860200490705300,731682459954173628286594173825916734649237581173458962562341897317869245498725316
000097002040602051000400089200000000007813025065070043700135000019000806020060007,158397462943682751672451389231546978497813625865279143786135294519724836324968517
002060431070000000500003009081024090000017206906508040300079520050040700100000008,892765431673491852514283679781624395435917286926538147368179524259846713147352968
400000010718056300009040008080674030602003070000500100500701092060302040901080700,456238917718956324239147658185674239692813475374529186543761892867392541921485763
000007040015309000380120060004000003026080094753006100009040010000602007071000025,962857341415369278387124569894271653126583794753496182239745816548612937671938425
000780010709400000056009304078600020003010000060002985290003061005200400100507092,342785619719436258856129374978654123523918746461372985297843561685291437134567892
000002809000540300002000061170405090403600210006390000084063070900000150020007008,365712849819546327742839561178425693493678215256391784584163972937284156621957438
310700040000820001020000000800074300005009207009206008056130790071060005400900006,318795642694823571527641983862574319145389267739216458256138794971462835483957126
200000709007180346300075800100230084080007500400600001520040000000090027006800900,218364759957182346364975812175239684682417593493658271529743168831596427746821935
200680400908200130070041500000094007460308000810067002000002600023010050705000090,251683479948275136376941528532194867467328915819567342194752683623819754785436291
086004030000907400070800260210590070093400000000000051020010603064030700709005080,986124537352967418471853269218596374593471826647382951825719643164238795739645182
075103000002004036610280070020045010380607400009000007050800069900050203007090000,475163982892574136613289574726945318381627495549318627154832769968751243237496851
800001020520004370009000008051060009003280406408300000034120500090706000700050060,847631925526894371319572648251467839973285416468319752634128597195746283782953164
006100900700000005805700320000009052134502008059800640380070004000201000040080071,426153987793628415815794326678439152134562798259817643381975264567241839942386571
598020340000835000006000700010482000075001026000500094807000600004100030120079050,598726341741835962236914785619482573475391826382567194857243619964158237123679458
001250003906030500000406000602008900005700030340900021500170309008000040000004672,481259763926837514753416298612348957895721436347965821564172389278693145139584672
860700003000900047010045620043071000002080009058003200500004700090030082000600314,864712953325968147719345628943271865172586439658493271531824796496137582287659314
402500090501036807000009000904270600010090205600003100735080060000300002060007510,472518396591436827386729451954271638813694275627853149735182964149365782268947513
000040106100070920030250070006034001901806405020900000207003060090000300400500718,782349156145678923639251874856734291971826435324915687217483569598167342463592718
809002570042016000005700004030020810690000003000407056000160780000005009128003060,869342571742516398315798624534629817697851243281437956953164782476285139128973465
500907080030060709020010400400100208206730010085400600700009853300200000049080100,564927381831564729927813465473156298296738514185492637712649853358271946649385172
050239010809000406070008005045070030020510807006000200300100060468300100007020900,654239718839751426271468395145872639923516847786943251392187564468395172517624983
040900235002080000590000704820490060301000900400718000080651000003020010607300050,148976235732584691596132784825493167371265948469718523284651379953827416617349852
001000008040030002709050160000460510006200980174000000208500630090012040050690000,361729458845136792729854163982463517536271984174985326218547639697312845453698271
005003920400060100300725600020890050060000400000017090091500008200480703043201000,685143927472968135319725684127894356968352471534617892791536248256489713843271569
900064002000300079051200400003050048090078300004600500085109000270506004100080930,937864152428315679651297483763951248592478361814623597385149726279536814146782935
001600000769004200305010080600300104000200300108079005824000700070500060000900830,281693547769854213345712986692385174457261398138479625824136759973528461516947832
004065139000810005020039060500040000019000370803000002090004000207008604301700200,784265139936817425125439867572643981419582376863971542698124753257398614341756298
205000001001057080034900070007009000000023600060080412980500003010368059000001026,275834961691257384834916275127649538548123697369785412986572143412368759753491826
040870103029605000100403006650092000007001260000300071005040090980200000013050740,546879123329615487178423956651792834437581269892364571765148392984237615213956748
026100000800073095000400103065704300700380010400090200280630000001005000040900076,326159748814273695957468123165724389792386514438591267289637451671845932543912876
307000005000052630010008040000901000004600208000030507706010420200060053103409000,327146985498752631615398742572981364934675218861234597786513429249867153153429876
007309060200650000010004308500180009400700025028000610009060080000407500600023104,857319462234658971916274358563182749491736825728945613349561287182497536675823194
010020043059600070000089100003007500080031020275090004020408009600970050400003006,816725943359614872742389165163247598984531627275896314521468739638972451497153286
024000307000100090705306000060000008003900614401503009600791200200600800017080050,124859367836172495795346182962417538573928614481563729658791243249635871317284956
500800020031074900064091030000129004100000890020300056408052700000900600756000080,579836421231574968864291537685129374143765892927348156498652713312987645756413289
005000000080960013200040900009607020320500080416380700608000597000700108000039400,195273846784965213263148975859617324327594681416382759638421597942756138571839462
003000060600054007000970348208560900090102700000030010701000203006000005005248001,473821569689354127152976348218567934394182756567439812741695283826713495935248671
400080000000301082003007001096200740075109000000005903020063009800010500760900208,412586397657391482983427651196238745375149826248675913524863179839712564761954238
000301700209040600000260000913002805005034006670800020006759210080000304100080000,468391752239547681751268439913672845825934176674815923346759218587126394192483567
000000075807003400910080020750040000690020348030890060080002136000065000402100009,346219875827653491915784623758346912691527348234891567589472136173965284462138759
000000030040080705250406000610750002008003900000640007709000501120300869060104000,981527634346981725257436198613759482478213956592648317739862541124375869865194273
079036000001008960230054000903005270000000006780010430000200105010060040348070090,879136524451728963236954718963485271124397856785612439697243185512869347348571692
080024700050900128001750000010080005007600394000302601302007000490001860000506400,986124753754963128231758946613489275827615394549372681362847519495231867178596432
082000590900045000007600030005100060600002704170809000051020900040380607003050200,482713596936245178517698432325174869698532714174869325751426983249381657863957241
000000650048607900900100030200050700085300041317020080003002008070014020406000095,731298654548637912962145837294851763685379241317426589153962478879514326426783195
000704300405001002060020009053408006897200010000050000609300050001087400080610027,912764385435891672768523149153478296897236514246159738679342851521987463384615927
000070300304900702090024516406000001012500800000069004607830090250006000830001007,125678349364915782798324516476283951912547863583169274647832195251796438839451627
240001730109570000608030000020000500083912004407308900000709240000460090000000805,245891736139576428678234159921647583583912674467358912356789241812465397794123865
090305200123080000800104600010850040206000007000730109480967030050000080300000724,694375218123689475875124693917856342236491857548732169482967531751243986369518724
382000090009807400100090035000370000518060000000004682000405960260900010030010040,382541796659837421147692835426378159518269374793154682871425963264983517935716248
890132070000000060052408000000674502010080700400900036003027980070001003509300100,896132475341759268752468391938674512615283749427915836163527984274891653589346127
032006000000030800006509070950082030604003020000710005080107360200000980100400702,432876519795231846816549273951682437674953128328714695589127364247365981163498752
062500000080709406500010982006008500091302040204100000700900060000000714405006800,962584173183729456547613982376498521891352647254167398738941265629835714415276839
090610000100540080025387900000700800008000564402003070750200030046000700003006210,894612357137549682625387941519764823378921564462853179751298436246135798983476215
000080962020100350000400000007390400059700010080005006098004020604012008300057600,741583962826179354935426871267391485459768213183245796598634127674912538312857649
000030800603500107720100040000309050040210390006075000005040082260007001184000600,451732869693584127728196543812369754547218396936475218375641982269857431184923675
050000030307050904000602007400060392005007001008410605703040100902500400060980000,156794238327158964849632517471865392695327841238419675783246159912573486564981723
786010024035000906090004000000040305500086190207300000000501040000800601600029037,786913524435278916192654783869142375543786192217395468378561249924837651651429837
000207000950400600048030100009762530600850407000009080004005900130000002802601004,316297845957418623248536179489762531621853497573149286764325918135984762892671354
300007900890030005016400020020040067031086450000501008075300009000609740100008000,352867914894132675716495823528943167931786452467521398675314289283659741149278536
450023070100000400067500090040010008002000350035209004003002149070080000591006002,459123876128697435367548291746315928912864357835279614683752149274981563591436782
609000000000030705738004060070108002490060000002900003000002490083057010201806507,659781324124639785738524169376148952495263871812975643567312498983457216241896537
013902050400001000800736002026405030300007890007000000000018046074320001050000900,713942658462851379895736412926485137341267895587193264239518746674329581158674923
870500300000601020200040005600450090025009087940080006100820060008034100030000049,876592314453671928219348675687453291325169487941287536194825763768934152532716849
708005931000010008090307200003200509560009100040006000100023084086040090050000702,728465931635912478491387256813274569562839147947156823179523684286741395354698712
020019060036800740514000020700008100309200450000036800005007000040090007000650039,827419365936825741514763928762548193389271456451936872295387614643192587178654239
000281007000003005200060410810020960904000003000004500050930806308700000027005040,549281637186473295273569418815327964964158723732694581451932876398746152627815349
039020740000800230000590001498300050720400360061000000000201470002000003504007890,839126745156874239247593681498362157725419368361785924983251476672948513514637892
007260400200800093590001007064300000070045019003070800000086000010703060008900725,387269451241857693596431287164398572872645319953172846729586134415723968638914725
003900465890500702140020000000009580700210004009060073081650000060040308302007000,273981465896534712145726839624379581738215694519468273481653927967142358352897146
056400000320900070904083100000200060700050019840010300291046500400005008000739000,156472983328961475974583126513298764762354819849617352291846537437125698685739241
807200600023400985400000000600050100010030204070820050050003409009076031001900560,897215643123467985465398712632754198518639274974821356756183429249576831381942567
006000380040010070502890010009000002730084900600007450008750100190040500300026007,916472385843615279572893614489561732735284961621937458268759143197348526354126897
089025700005300208700091060400016500000087049002000000053009080040730002860400030,389625714615374298724891365478916523536287149192543876253169487941738652867452931
003270800869004200000000060070001080035800906210003704642900501000000093000140020,153276849869514237724389165976451382435827916218693754642938571581762493397145628
520806900009000086068030040001204000007000298930008005000340100700500320400009007,524876931379412586168935742851294673647153298932768415285347169796581324413629857
200840050130006000460009070000007000029053600500200107801092004076410830000600900,297841356135726489468539271614987523729153648583264197851392764976415832342678915
005060800810075930000002600060740001302009004004080300000918400420600508930000070,295361847816475932743892615569743281382159764174286359657918423421637598938524176
850020010706048009409007003072063000000050890100000067001002000000080400630409051,853926714716348529429517683972863145364751892185294367541632978297185436638479251
560200810000310050208000009030100002002090705600070430091030000785000960000080074,563249817974318256218567349837154692142693785659872431491736528785421963326985174
000400062005980700031075804062530000040100370900640000100009403000060920207000008,879413562425986731631275894762538149548192376913647285186729453354861927297354618
006000000200530004100897605824000010009052070670900300000300481790608050030200000,956124738287536194143897625824763519319452876675981342562379481791648253438215967
080070900304002051007000006500040030008106200002900008905084600016503009470001020,681375942394862751257419386569248137738156294142937568925784613816523479473691825
050000000006012004032750000007094080060000003900805006001040208870006090005309670,159463827786912354432758169317694582568271943924835716691547238873126495245389671
500041800960530400107000000790020500084005301005008670600007940000004030031860020,523741869968532417147986253796123584284675391315498672652317948879254136431869725
706100530003040000820309040500800600000407080001000007670098005190500426302000900,746182539913745862825369741537821694269457183481936257674298315198573426352614978
008400060090830002400096130584100090030060000000920340000007000806005720105040600,318452967697831452452796138584173296239564871761928345923687514846315729175249683
500304169806005300000700000720500016401690870009000024100970080060820005030000000,572384169896215347314769258723548916451692873689137524145973682967821435238456791
