073000040120900508506204009000082094000700600045030870000000200397005006000368010,973856142124973568586214739761582394839741625245639871618497253397125486452368917
507609400000020030042001700809000500030058001600047000451006023060000108970003004,587639412196724835342581796819362547734958261625147389451876923263495178978213654
095000470340000028028000001900405167004906005030800200200301900000608000010074300,695182473341769528728543691982435167174926835536817249267351984453698712819274356
005006007930070400070004082107300600006050208050702903548000000000205000063090140,485126397932578461671934582127389654396451278854762913548613729719245836263897145
010000030000400512275080600000860000520004003609003050430072900801009007090500140,914256738368497512275381694143865279527914863689723451436172985851649327792538146
240050000500004600013060200020941007000020405098300020050600010009087000760009840,246153978587294631913768254625941387371826495498375126854632719139487562762519843
000710009007200680980006030030800107004000850090065040405097000061004005300080062,643718529157239684982456731536842197214973856798165243425697318861324975379581462
015072000006409000000000038500810700089000640041600503030040065978020010000001002,815372496326489157497165238563814729789253641241697583132748965978526314654931872
002740900780300004004095001196500030005002608030000107003620000040970280000801006,512748963789316524364295871196587432475132698238469157853624719641973285927851346
600390001502000000089050406006010049374600800010570020700200008403100560025030000,647398251532461987189752436256813749374629815918574623761245398493187562825936174
490250600000600008057000402063010007700005040002890300000020130035049086910030500,498251673321674958657983412563412897789365241142897365874526139235149786916738524
030000561690300007007004908028510006000000300005709180000621070782005000500830040,834972561691358427257164938428513796179286354365749182943621875782495613516837249
050308002109020040700004003070409100000000200308600705020900301400060500507001068,654378912139526847782194653275489136961753284348612795826945371413867529597231468
010700529050020400300009000600084001000000080401060050006510007048307006020048930,814736529759821463362459178675284391293175684481963752936512847548397216127648935
009050000302700980000021347900010002050600130000807609703069000008000420061504003,479358261312746985685921347936415872857692134124837659743269518598173426261584793
090802604007010030400073000501940200062000008000007005970006080080004120006305709,193852674657419832428673951531948267762531498849267315974126583385794126216385749
070045098300006002009100506502000704000027050040003200004802100187060000060900043,671245398358796412429138576512689734893427651746513289934852167187364925265971843
130020500000068140076003009314600000007009800000005312803090701920000005060200400,138924576592768143476153289314682957257319864689475312843596721921847635765231498
004080000001007086570069010030102900080070150206050403000015290600703000097800000,364581729921437586578269314735142968489376152216958473843615297652793841197824635
607000840200900000000005760800000005900300010306017400083060120001020907002054083,657231849248976531139485762814692375975348216326517498583769124461823957792154683
074000000023008914800090200300050000050607800090304006208005130160902408000000070,974126385623578914815493267386259741452617893791384526248765139167932458539841672
090002000060810007040700280120907050000623700000040090008030006709005420056400310,897352164562814937341796285124987653985623741673541892418239576739165428256478319
802070090094000035000054000040821703080000500601300020030290054060507200900016000,852173496794682135316954872549821763283769541671345928137298654468537219925416387
005700913070060000020859000160200580058003079200004001009005600030400002810900007,685742913974361825321859746163297584458613279297584361749125638536478192812936457
009201830076008190000000004050100060201700400804300750400030028090805000003062905,549271836376548192128693574957184263231756489864329751415937628692815347783462915
900004680053000000040800201000072803005006090721390500509017300000060027004000006,912734685853621479647859231496572813385146792721398564569217348138465927274983156
000051320400080900305204008008005100040003007070090062600800040804069700900010500,786951324412386975395274618268745193149623857573198462651837249824569731937412586
901007403000261500852000070000109000000084760203000009005040906080005010307000840,961857423734261598852493671678129354519384762243576189125748936486935217397612845
705003080940200000000080400000045093800007250003600170080506002102070300460090008,725463981948251637631789425276145893814937256593628174389516742152874369467392518
006094003500630090007002140000073082800000019950120600030000408620805030140007020,216794853584631297397582146461973582872456319953128674735219468629845731148367925
710593400000080000200007803302000050000016070460020009096100500540009600007000038,718593462634281795259467813372948156985316274461725389896132547543879621127654938
000002000614500703800070056060300040752060090001209000490030280005400930070080100,537642819614598723829173456968317542752864391341259678496731285185426937273985164
080040000302107095010623007020000009907030080004510026008700510100090408460000000,786945231342187695519623847621478359957236184834519726298764513175392468463851972
604020300000610080030009100300790405000500096008000007900001740420080050150360020,614825379279613584835479162362798415741532896598146237986251743423987651157364928
058000461300000007072504000000050783800062005039007010204900000100076304000081056,958723461341698527672514839426159783817362945539847612264935178185276394793481256
009630500700020030005004901300108450040900000620003708074000200160800070003000146,489631527716529834235784961397168452548972613621453798974316285162845379853297146
000076040020000058900500603807200301400300000012090570700900200080001000050064190,538176942126439758974582613897245361465317829312698574741953286689721435253864197
040003060500090001109026087321000000097050008000470209083140000000000056702960100,248713965576894321139526487321689574497352618865471239683145792914237856752968143
405200000068004001300090740030079016004005800090401520250080690000530080006000007,475213968968754231321698745532879416614325879897461523253187694749536182186942357
045807200000005060800010500003680090120004000007039001090003645060700020000400830,945867213271345968836912574453681792129574386687239451798123645364758129512496837
000409058100000200002107903005003790470000806069008040800065317003004005600200000,736429158198356274542187963285643791471592836369718542824965317913874625657231489
500720603001004720900300080080030400750000001020106900307080002094007305000690040,548729613631854729972361584189532476756948231423176958367485192894217365215693847
050801200000745009010030064089600000002300610007054030800109000690000705403070800,954861273236745189718932564389617452542398617167254938875129346691483725423576891
000086000010403009040700000700500810684010027200060030802900053090250060170004008,927186345518423679346795182739542816684319527251867934862971453493258761175634298
560000000804106050002009003008504306300090001057030480070800102000063040495070000,569387214834126957712459863928514376346798521157632489673845192281963745495271638
002076305610050008900204001000010400200930800063800059020091000050400730804000016,482176395617359248935284671598617423241935867763842159326791584159468732874523916
020000003004006070500289000970000654102500007060900280000417060308000015006300400,621745893894136572537289146973821654182564937465973281259417368348692715716358429
100500403008690027200700010000004065000002800715006900020005700490080100060300080,176528493348691527259743618982174365634952871715836942821465739493287156567319284
100000000430020890806005024904830760003500000010709002080004301000670000200900580,192487653435126897876395124924831765763542918518769432689254371351678249247913586
902500800070060045006342100060003500704001300100024067003109600000000720850000091,942517836371968245586342179268793514794651382135824967423179658619485723857236491
103000286060001050800000907304107008590003002000049070002034060001762500900500700,173495286269871453845326917324157698597683142618249375752934861481762539936518724
700902350306047090020100006095600200200000470000309100047051008050080904001006000,784962351316547892529138746195674283263815479478329165947251638652783914831496527
100093000008070506302450001090100600506024090080900423073040800000006005410702000,157693284948271536362458971294137658536824197781965423673549812829316745415782369
050302090000068004400007100195400008040095307200016000307020400810030500020000609,751342896932168754486957123195473268648295317273816945367529481819634572524781639
200039000009800006640075800408310900092008700300000460007240010000500047000006503,285639174719824356643175892468317925592468731371952468857243619936581247124796583
400002000050107900602580040004800200007305081890200600003900120005006703900010004,479632518358147962612589347534861279267395481891274635743958126185426793926713854
050086900001700364090200000004060000300000147287130000102805009640000025008000470,753486912821759364496213758914567283365928147287134596172845639649371825538692471
000030006070804932008001040010092000003007800540006001690070315000005270020410090,452739186176854932938621547817592463263147859549386721694278315381965274725413698
060001200050967480003802070601090005407080060800040900009500600210300008004000031,768431259152967483943852176621793845497185362835246917379518624216374598584629731
040200090000000705802150300207090018003500004010060509080074160700006000091300080,546237891139648725872159346257493618963581274418762539385974162724816953691325487
100500020040087000603020810310042700804700000000090150000051906720069085060003000,187536429942187563653924817315642798894715632276398154438251976721469385569873241
200310869005604130000908000070000008090000547130500000760093250400006000800042001,247315869985674132316928475572469318698231547134587926761893254429156783853742691
020760051095000700607130802000290300400008600062370000030601085800050203009400000,328769451195842736647135892581296374473518629962374518734621985816957243259483167
074060000500004000061390072600100030000020090902480701730008059140006800208500300,374862915529714683861395472687159234413627598952483761736248159145936827298571346
007005000810063000609000040002018007130704029085300000400500760000930051060100208,327495186814263975659871342942618537136754829785329614491582763278936451563147298
093000800400751900005930100507600030320180000008000500740002006000590201000340089,193264875482751963675938124517629438324185697968473512749812356836597241251346789
007610008806500470240300900092000000700001035005260104400050703008000000010049680,957614328836592471241378956192435867764981235385267194429856713678123549513749682
009074000002908410007050806000600080201005700030800129005000930640000008100702005,869174352352968417417253896974621583281395764536847129725486931643519278198732645
800040900479002006100000250002007060001300870950108000504001030003206108000700690,825643917479512386136879254382497561641325879957168423564981732793256148218734695
000001907506930000400002350900046000037800000650390001008500072201700049000064080,823451967576938214419672358982146735137825496654397821348519672261783549795264183
003640058408090000700300020500000219096470300031002006170030000009000507050080460,923647158418295673765318924547863219296471385831952746174536892689124537352789461
000010803039060004106830200704000082065100300000974000400000000201095000098200750,527419863839562174146837295714356982965128347382974516453781629271695438698243751
005009000612008000040302806060400207023050960000070010100900438870004005000600090,385769142612548379947312856561493287723851964498276513156927438879134625234685791
700030890091058000203001006908700002000203070600000040307804560010006780004090103,756432891491658237283971456938745612145263978672189345327814569519326784864597123
086001000300500710900070000062309080000000209809400561050008004001003002070052603,786231945324596718915874326562319487147685239839427561253968174691743852478152693
610070049084250003000009080702410060056008000000300002578090300049030076000001500,615873249984256713327149685732415968456928137891367452578694321149532876263781594
600009103002510040034000008009000057000604030763020800000400002921080400005700060,657849123892513746134267598249138657518674239763925814376451982921386475485792361
105003407920000000076059000640078150008200009000030200810005960407000018000060304,185623497924187635376459821642978153538216749791534286813745962467392518259861374
000900105007408203301000007200000800093081000740062590809130000002006400560007008,426973185957418263381625947215749836693581724748362591879134652132856479564297318
020001004057090610004000309006002000049500001000030847201608000000700050090300708,923861574857493612164275389786142935349587261512936847271658493438729156695314728
700925108000400350002080007025004000000300080910760500280009640063000001470100000,734925168896417352152683497325894716647351289918762534281579643563248971479136825
080207013640980000000300490092050040300100500700409026800000000000006271917503800,589247613643981752271365498192658347364172589758439126826714935435896271917523864
015903070000100409000076030200001600030200145900040800109050008020369000670004052,415983276367125489892476531284531697736298145951647823149752368528369714673814952
006908371000020405479000006001009600007480050253001000690500080000002000105307000,526948371318726495479135826841259637967483152253671948692514783734862519185397264
030090006070002081800075020004000300902800654060910870400050030027400000108060090,235198746679342581841675923784526319912837654563914872496751238327489165158263497
008006073360501400020807009000000340010700060709400200930000801042059000601020500,598246173367591482124837659286915347413782965759463218935674821842159736671328594
490102050030079800000400000006050270080007300050960010004610000063000901208005040,497182653631579824825436197346851279189247365752963418974618532563724981218395746
094370800601902000000005046003081002820000074070600050000030215005007000942008003,594376821681942537237815946453781692826593174179624358768439215315267489942158763
600001007090465300538200000300607201004900678080040030001008000005020016000700409,642831597197465382538279164359687241214953678786142935461598723975324816823716459
009003000007040602200006138018000000006809357000500200090030500040007010830021074,169283745387145692254796138518372469426819357973564281791438526642957813835621974
300205090104063002085100006020000000706000408900370060400000050600840001003902007,367285194194763582285194736528416973736529418941378265472631859659847321813952647
130072900085014070060508000750100042000790030008040500000300008043060010002001760,134672985285914376967538124759183642426795831318246597671329458543867219892451763
080063209910800067000000500000007406020039071058100002003002090600000100200754003,587463219914825367362971548139287456426539871758146932843612795675398124291754683
070080009001600304004207060009005410016090705020300086000078000300910020005400108,673184259281659374954237861839765412416892735527341986192578643348916527765423198
030041870005000003000207690009000400610470020870952000007000230000680051001003960,936541872725869143148237695259316487613478529874952316467195238392684751581723964
000900400069800070152740390006570140030090060000003820040000237010060000703025001,387952416469831572152746398926578143831294765574613829645189237218367954793425681
072850000004630002001027900900000003050082700006700104035060819040000000620015040,372859461894631572561427938917546283453182796286793154735264819149378625628915347
005000400680300209040016053004027000053180600910004805071000090390200006000053007,135792468687345219249816753864527931753189624912634875571468392398271546426953187
520001098803000720009300004000005800700000019600409205005600100060804000901032470,526741398843956721179328564392165847754283619618479235435697182267814953981532476
007000001040300800006025090070001020853200409200800600305090000010064000029130067,537689241942317856186425793674951328853276419291843675365792184718564932429138567
