040200870150036000703000100065000020800007405070409030080301067000000594002500000,946215873158736942723948156465183729839627415271459638584391267317862594692574381
600009000704030981008020053000003108050070000940086020012500040000001307007098002,635819274724635981198724653276453198851972436943186725312567849589241367467398512
230810600075004020008300010002500906300001004080730050007009100090080500500260709,234815697175694328968372415712548936356921874489736251827459163693187542541263789
407020010310076002800304500029000076704900100000058200050000630003600409000190005,467529318315876942892314567529431876784962153631758294958247631173685429246193785
260900400800016705000807003700020831000060000153009640000003920020400150541000000,267935418834216795915847263796524831482361579153789642678153924329478156541692387
005000108001040970800600300093004500070180000406307000200000690010092040007010805,745923168361845972829671354193264587572189436486357219254738691618592743937416825
009005000300070610040100038107500003290030080080090764000800240806000007030026090,619385472358472619742169538167548923294637185583291764971853246826914357435726891
700430010020080069405001000004000700001002084839700500600970050008045970000010302,786439215123587469495621837264158793571392684839764521642973158318245976957816342
600042090703006005504000018035090800902401000460000030201705000000800760000900402,618542397793186245524379618135697824982431576467258139241765983359824761876913452
000026370036810005009003100107005000020060904460300002870504600000970048010080530,581426379736819425249753186197245863328167954465398712872534691653971248914682537
300201004805079030020054006050800000062030900400002070017020600030006859009500100,376281594845679231921354786153897462762435918498162375517928643234716859689543127
100700050043500826890000301927040000000000064000832000510390740000000108430020090,162783459743519826895264371927641583381975264654832917516398742279456138438127695
590160078100090000326000400400200007682007050000006900005009714041080206000003080,594162378178394625326578491459231867682947153713856942835629714941785236267413589
102060980003054060000000041010203700070046090435070800709000602050009000004738000,142367985893154267567892341916283754278546193435971826789415632351629478624738519
080402060300008210040693000296000050000070409010000080004060092000530047008201005,785412963369758214142693578296384751853176429417925386534867192621539847978241635
100780009360020500049010682000000960500430008070005040013800700000260004025300091,152786439368924517749513682234178965596432178871695243413859726987261354625347891
008100205200305060609020100000000082032960047000740300500030090090004651016800000,348196275271385469659427138764513982132968547985742316527631894893274651416859723
002069005001000720308705000740080603000000050009037100007904060800002319016800400,472169835591348726368725941745281693183496257629537184237914568854672319916853472
400000000000009046020350001000000908507041002031906000250080067310760009704002053,473618295185279346926354781642537918597841632831926574259483167318765429764192853
009010003406037008003008510837004600000000040105709002070980201060200350000046700,589612473416537928723498516837124695692853147145769832374985261968271354251346789
000207004085130002790800006000000070604000810578902040040058320010360050003000907,361297584485136792792845136139684275624573819578912643946758321217369458853421967
603080050000750904400900032080071600509200000030009200060034007702000080018600500,693482751821753964457916832284371695579268413136549278965834127742195386318627549
700081400005600008002090700000300010806570900009000645490050280600910000207006300,763281459945637128182495763524369817816574932379128645491753286638912574257846391
510020300706080004008003900020105080403000609000000207300607501604300000095042700,519426378736589124248713965927165483453278619861934257382697541674351892195842736
309200401008903000560010370000300050000746002000000168005100007040058200083400690,379265481418973526562814379296381754851746932734592168625139847947658213183427695
052080600060002001804600700090040267006910030308050040009400805100300920040700000,752184693963572481814639752591843267426917538378256149639421875187365924245798316
600010800092500607500409001204008000060120073001000902000050030408030250000974060,643217895192583647587469321234798516869125473751346982916852734478631259325974168
001907000007004692004083700000300801600000040043598000076421009210005300080000007,521967438837154692964283715792346851658712943143598276376421589219875364485639127
580370000002000000003084510607042090204900705090600300400050801050003609070091400,581379246742165983963284517637542198214938765895617324429756831158423679376891452
000395608060410070803002010610800950009000403080057002000020805000030090476000000,147395628265418379893672514612843957759261483384957162931726845528134796476589231
900051400070302600030000027084500700102000090600813050040080030005000002000694005,926751483578342619431968527384529761152476398697813254749285136865137942213694875
807001402904050600050000000006230089410700020030906700703020500000600008040078901,867391452924857613351462897576234189419785326238916745783129564195643278642578931
090040675000807490010500030038219000760008900000600052051700000380001000004000026,893142675625837491417596238538219764762458913149673852251764389386921547974385126
026100400000007009010843700004920608508070030000301050300006000870092300609000105,726159483483267519915843762134925678598674231267381954352416897871592346649738125
300006050259070060100003400010002890048100000062054307000980500030021740607000200,374216958259478163186593472513762894748139625962854317421987536835621749697345281
100400008009307540052000037805020000070904000090105603900000070000008026003706019,137452968689317542452869137815623794376984251294175683968231475741598326523746819
340720000900003720000018503450087300821006900000000010080064005060500040000000170,345729681918653724672418593459187362821346957736295418187964235263571849594832176
063070902100008640500109008000537020008001000309000450710004030905006000086200107,863475912197328645524169378641537829258941763379682451712894536935716284486253197
108002063300900802050030700009070010030284070240005006800400000000510029014007050,198742563376951842452836791589673214631284975247195386825469137763518429914327658
000040007701090604040000080009705100500230008280406300020073490038060200006001005,893642517751398624642157983369785142514239768287416359125873496938564271476921835
000004050010280076207036100940010003608000005000009047002090000084307002003840060,836174259419285376257936184945718623678423915321659847762591438184367592593842761
009000420100080050000469030005003064030791000982650007000007800004010203053008076,369175428147382659528469731715823964436791582982654317691237845874516293253948176
902500000070090020300016040061040092700609810080020007014700008607102005000004000,942573186176498523358216749561847392723659814489321657214735968697182435835964271
075400069000000000090086401063940000080065200009001037504093000800500020030018006,175432869648159372392786451263947185781365294459821637524693718816574923937218546
002081900000604000700000156600209018059030407180000309075840000400300600090502003,562781934913654872748923156634279518259138467187465329375846291421397685896512743
890003060054020031006700205430000000070369100501008920023040700100000080007100046,892513467754926831316784295439251678278369154561478923623845719145697382987132546
069008001050704000003000752005460908070190203024003000100520000000000806630007014,769258431251734689483619752315462978876195243924873165148526397597341826632987514
704900000000704086090302001000506400610020037050037002970100003360008000800000259,784961325123754986596382741237516498618429537459837612972145863365298174841673259
020059840000080000460000305700800900050600710009023004670042080001007050504100620,127359846935486271468271395746815932352694718819723564673542189281967453594138627
007000003000401250000906017028000006046103900300805000060207090234000008901050640,197582463683471259452936817528794136746123985319865724865247391234619578971358642
045207906001000570003090004900005681000006000074000250000010730056040002120300008,845237916291864573763591824932475681518926347674183259489612735356748192127359468
000703908030080000004020705300000000008092061150476300043650007809040000060008012,521763948937584126684129735396815274478392561152476389243651897819247653765938412
090610800000004016020805090050700003300000780009002064000173200008050109034090075,493617852587924316621835497856741923342569781719382564965173248278456139134298675
090601250063008004000950070050013000047000320002000086030040907009100800026070010,794631258563728194281954673658213749947586321312497586135842967479165832826379415
009050000006720008570004000680490020002800049300000107000910403037500006018070902,829153764146729538573684291681497325752831649394265187265918473937542816418376952
000624100041070005090508000030700020024900000700041038870060003352100600006005009,583624197241379865697518342938756421124983756765241938879462513352197684416835279
001000204009002000004073098086040000030500001020701643000004030700200509508900060,361895274879412356254673198186349725437526981925781643692154837743268519518937462
069002803400098072005107000007089020000700130082060000010050047500010609603000050,769542813431698572825137964157389426946725138382461795218956347574213689693874251
150900804300562100006000000900040010000720035003609407000015008407300200020008096,152937864348562179796184523975843612864721935213659487639215748487396251521478396
005300087400920005701080400002056000004030602650000019039400070010700820000068030,965341287483927165721685493392156748174839652658274319839412576516793824247568931
102500070003007020070080160000600340204018000065034700806900005090050210400003600,142569873683147529579382164718695342234718956965234781826971435397456218451823697
007030800084007312020000005060502900003009067700010000001090620500801040902043008,157234896684957312329168475468572931213489567795316284841795623536821749972643158
680010070071300002040506008700208001005907006030000040004721600000000050823604900,689412375571389462342576198796248531415937826238165749954721683167893254823654917
000008910000501042020700560700130000905040008260059004030000709079602300100000080,546328917397561842821794563784136295915247638263859174638415729479682351152973486
000940007790008026508300000040030000910004508020105060006780003001000009300200470,132946857794518326568372941645837192917624538823195764456789213271453689389261475
600090000007301605903007408709100500800079001005040072000068050000000803210950006,681495237427381695953627418769132584842579361135846972374268159596714823218953746
005043901001600430030007050400000005908700100070001290003006000020030680809524007,685243971791685432234917856412398765958762143376451298143876529527139684869524317
007309620002010800900000054309800100074506902820700005000170009003042000600083040,487359621562417893931268754359824176174536982826791435248175369793642518615983247
647000003800027001050000600000090327704001000090502008000060050280030090901008004,647915283839627541152843679518496327724381965396572418473169852285734196961258734
000004502670080000000210308304600207080709050150000400700005010409028000008390600,831974562672583941945216378394651287286749153157832496723465819469128735518397624
020308041800409632000000000300076098047100206082005100006800500050604020100030007,529368741871459632463721985315276498947183256682945173236897514758614329194532867
519400020708029300000007045297800106003000809000063400005640000000010080680000507,519436728748529361326187945297854136463271859851963472175648293932715684684392517
065010870020070030400000500000100003200040180850206900013700008000060094070025360,365412879128579436497683512749158623236947185851236947613794258582361794974825361
460070003005008201900503700309062004000050008050100690007400102000009060206300400,468271953735698241921543786379862514614957328852134697597486132143729865286315479
201708504300061800607400009100200658000000007009605000400090020800514030050007001,291738564345961872687452319134279658568143297729685143413896725872514936956327481
008340020270900000100000050500021043000800097030006000320050100801200475007089006,968345721275918364143672958589721643612834597734596812326457189891263475457189236
019004003008050160620000050080070405030219070001800300090620000000500840203001790,519764283348952167627138954982376415435219678761845329894627531176593842253481796
912000000000001047005062300000080060049000035030049180704103028680900501050078000,912437856368591247475862319127385964849216735536749182794153628683924571251678493
050007032800019004074000000008026700009700680030501009200000408016005020000640905,951467832862319574374258196148926753529734681637581249295173468416895327783642915
002000090000470352083006407090630025008000000270050109000941060430000080901305070,742513698619478352583296417194637825358129746276854139827941563435762981961385274
640000009920067800807200056501700008080010240000005100279030000000400500304120090,643851729925367814817294356531742968786913245492685173279536481168479532354128697
000020700509000040000705930024010070700000100690403008260109403040280000008360057,436928715579631842182745936824516379753892164691473528267159483345287691918364257
005600790000800206400001000200067000706403005184029030007900300000050001900200048,815632794379845216462791853253167489796483125184529637547918362628354971931276548
020000030508004001490016082000705046000092105706000900063007400000900010072508060,621859734538274691497316582219735846384692175756481923963127458845963217172548369
035200016028005090007080003010036579400000000000179480080090120063002007000754600,935247816128365794647981253812436579479528361356179482784693125563812947291754638
016304009000002800020107540045000607103020090908001030700900086000050070090018002,516384729437592861829167543245839617173625498968471235752943186381256974694718352
007002005018004700350900610490601000800000300002058009000200130040170920600800004,967312845218564793354987612495631287876429351132758469789245136543176928621893574
907000020004206000300018009080150000002007008000809573009003014050060002600470080,967345821814296357325718469783154296592637148146829573279583614458961732631472985
000070013090200040107860900700005180008930506206004000070000000605048300000310270,562479813893251647147863952739625184418937526256184739371592468625748391984316275
032600084064310007090005200705100000000049500080000006300801020078000030400206075,532697184864312957197485263745168392623749518981523746356871429278954631419236875
000071650070290003008300400400008079021530804500006020002010005900400010067000208,394871652675294183218365497436128579721539864589746321842617935953482716167953248
500090700013405090406380020000708900080060004170000005001200030040506087260040100,528691743713425698496387521634758912985162374172934865851279436349516287267843159
080902000105067200009100034093240500500010802070008006068050007300009018000070600,784932165135467289629185734893246571546713892271598346468351927357629418912874653
000780090976000050003001002800030000050072410320104905065300270000006004204900108,412785396976423851583691742841539627659872413327164985165348279798216534234957168
900002300500004700007960000240001003080070500010023006090510000600000048800300902,964782315528134769137965284249651873386479521715823496492518637653297148871346952
008274000060080300029100005000006740350490060001007009090050800803040012000300976,538274691164985327729163485982516743357492168641837259296751834873649512415328976
000609507275801000903000004530006090400300700007020008010004900006013080040280056,184639527275841639963752814538476291421398765697125348812564973756913482349287156
004970030250030000000100608800000043100009020090650107010002760703500002906048000,684975231251836479379124658865217943137489526492653187518392764743561892926748315
500260900901000030870500010060005000240380000050910680000024800003000067092700105,534261978921847536876593412168475329249386751357912684715624893483159267692738145
600002510029740300080090407030109054005280000006004700000006270003008000104503906,647832519529741368381695427732169854495287631816354792958416273263978145174523986
