061000230800504000470012005000060080040097013052300760900001040000000328086070900,561789234829534176473612895397165482648297513152348769935821647714956328286473951
050020000071008900000106830910380600685000200702050004000007019003060040020401060,856923471371548926249176835914382657685714293732659184468237519193865742527491368
010000580053800092000020437049608005000910300000030740008200000500360020107009600,412793586753846192986125437349678215275914368861532749638251974594367821127489653
300100056940020800000003702208006100107052004090780600000000407004310000506804093,372148956945627831681593742258436179167952384493781625839265417724319568516874293
040095062008200000305087100500006930070000086609100400400072000000830009012400005,147395862968214753325687194584726931271943586639158427493572618756831249812469375
002100940703008005000506000500030000004700390800620051090000007060800120015407039,652173948743298615981546273576931482124785396839624751498312567367859124215467839
300000040019340082504209060400076000001900000060038001000090007032600800006412509,328761945619345782574289163493176258851924376267538491145893627932657814786412539
003608004400700009001005802070000040398000500250001603500080020040020001000096370,923618754485732169761945832176359248398264517254871693539187426647523981812496375
700306000001002050009140032070000940004275100305000008100590700682004090900000300,728356419431982657569147832276813945894275163315469278143598726682734591957621384
083000006090050814506007200020160040460005029017080300000230050000048930004000007,183924576792653814546817293325169748468375129917482365879236451651748932234591687
806940001300705900704630000080020000400800103000506070000090260019004850040207000,856942731321785946794631582187423695465879123932516478573198264219364857648257319
900015200180040070356002000603071050400093102000800000060000908020609740000450001,947315286182946573356782419693271854478593162215864397564127938821639745739458621
005002760720900003139007500010080002500793180000500400004305600090000070800600040,485132769726954813139867524317486952542793186968521437274315698691248375853679241
005000048000580970930040005820700006000032090040060017060001403100050020790300050,275619348416583972938247165821794536657132894349865217562971483183456729794328651
000070463200901500480000000500068009030200807004350021000019000029000700705600084,951872463263941578487536192572168349136294857894357621648719235329485716715623984
050080701080013040600002930900030015074061002003509000035020670100470080820000000,359684721782913546641752938968237415574861392213549867435128679196475283827396154
017820000000000802500040390090500034000070265460010700200196400004007600180400003,317829546649735812528641397792568134831974265465213789273196458954387621186452973
970080003000402870405010006809060010030007050060000402304050700000001500106004928,972586143613492875485713296849265317231847659567139482324958761798621534156374928
940000001010040837006580002093250010002009008650030040000002070387100900000403600,948327561215946837736581492893254716472619358651738249564892173387165924129473685
570040000000001000290003087007008460350200010018500090102907053000060800600102900,571849236863721549294653187927318465356294718418576392142987653739465821685132974
050860019602053800300700000087024130001309002020600400000090050075000084840100600,754862319612953847398741265987524136461389572523617498236498751175236984849175623
600801000504000010003000689009046070002000030100205098008530007020007060470109003,697821354584693712213754689859346271742918536136275498968532147321487965475169823
090650704030087000001340205603002000070000150200070400000020891400105006009860000,892651734534287619761349285643512978978436152215978463356724891487195326129863547
000007650209085170000300004100500000040026000306000985401093060080040509700000201,834917652269485173517362894178539426945826317326174985451293768682741539793658241
000000007607030020000908650008027940025004013701090006102500060480003000090640100,819256437657431829234978651368127945925864713741395286172589364486713592593642178
030800070000620409010007008601208500203105084500000600095000700304070096008002003,436819275857623419912457368641298537273165984589734621195386742324571896768942153
700800091203100040580390000900000476864050000002009100008917032000008710030060500,746825391293176845581394267915283476864751923372649158458917632629538714137462589
600574030080602040000000009030007001079108260560300000000200005810030000027940800,692574138183692547754813629238467951479158263561329784946281375815736492327945816
000000510042910730600780904060400102100870600004003005000090081703640200805200000,987324516542916738631785924368459172159872643274163895426597381713648259895231467
500704360000090800009006001308002106004300985790050002100020007806010040023407000,512784369637195824489236751358942176264371985791658432145823697876519243923467518
109048300004200070807510290060020405300105080071090600000400802006003540000070001,129748356654239178837516294968327415342165789571894623793451862216983547485672931
705604010000000600031028094082010003007000500109060072020070856010009300504300009,795634218248197635631528794482715963367942581159863472923471856816259347574386129
080671000500000700190005008064500030305026010000390040000840002001002396703000500,482671953536984721197235468964518237375426819218397645659843172841752396723169584
600985004700400839040000200030700600000058107100000590080630001905040020002001070,623985714751426839849173265534719682296358147178264593487632951915847326362591478
800600000503200609002083107200070000470008503009104008090305072026001040300000906,817659234543217689962483157238576491471928563659134728194365872726891345385742916
270501300406700900005630000100250087000008000300040509003000160064007008020409050,278591346436782915915634872149253687652978431387146529793825164564317298821469753
109000200008690000040500030080320057020069804910040000570904060260007308000000400,159473286738692541642518739486321957325769814917845623573984162264157398891236475
805030060490000803006079000260300100701200304000980070000020750903015020040000601,825134967497562813136879542269347185781256394354981276618423759973615428542798631
520046000900003107000000060053200800000100724000070590208300051030809600617000300,521746938986523147374981265753294816869135724142678593298367451435819672617452389
070032001540100007009000820700500008608090050120403600080001400003000015000629003,876932541542168397319745826794516238638297154125483679987351462263874915451629783
040700090000920001005063002010008005060409120803006007190050003600300704308000510,241785396736924851985163472419278635567439128823516947194857263652391784378642519
600300000300850140020007506090200680500140290000000000007502800800910005204060310,645321978379856142128497536491275683586143297732689451917532864863914725254768319
307406100000090805004002006009000603008500702710600090040705000803000201025183000,387456129261397845594812376459271683638549712712638594146725938873964251925183467
005307004309080670008026000800460900607030005020010800050900300046000201100052009,265397184319584672478126593831465927697238415524719836752941368946873251183652749
005203008100075009400800070030509260860000005020040100006018702010000390907600040,675293418183475629492861573731589264864127935529346187346918752218754396957632841
400907200050430079000000081800312060093008004026700050004050708900046000000100300,461987235258431679379625481845312967793568124126794853614253798937846512582179346
190000708032007006400310520040000350308102040670000900000571000020063090506040800,195624738832957416467318529249786351358192647671435982983571264724863195516249873
300021500670030920008500306000140809020007004000306070490800705003000200180005060,349621587675438921218579346736142859821957634954386172492863715563714298187295463
465000002009580000070630400030900108000350640610027590700400206108000070090100300,465719832329584761871632459537946128982351647614827593753498216148263975296175384
400019002056083010300004960710050006000790800008000035003120000060030584079006020,487619352956283417321574968714358296635792841298461735843125679162937584579846123
300609000027050640008000075600037001704006900800901020036280100400105280000090500,345679812127358649968412375692837451714526938853941726536284197479165283281793564
001608500609032400800400073207100900305000061000020087040209130000000005006080002,431678529679532418852491673287163954395847261164925387748259136923716845516384792
107006085002901040034082007300054060200000500800097004056400030700600008010000920,197346285582971643634582197379154862241863579865297314956428731723619458418735926
009701300627400900000680040000040820040015000573002090001030000050000280098000561,489721356627453918135689742916347825842915637573862194261538479754196283398274561
040002750700000806039000001070410528950700000000038000082107400001050970000060003,146382759725941836839675241673419528958726314214538697382197465461853972597264183
307020506000040780095061300028300090460070005000000600000905000900400107081000042,347829516612543789895761324728356491469178235153294678274915863936482157581637942
008006720500300109009070004300040200020810407007500003600059000010204608400081500,138496725574328169269175834351947286926813457847562913682759341715234698493681572
200100000005080017074369200002008530060090021400070800803045670007000005040001009,289157463635482917174369258792618534368594721451273896813945672927836145546721389
002007010007500268640009570810200000009031800020804006300010050000470309906002700,532687914197543268648129573813265497469731825725894136374918652251476389986352741
000850200950006008307920000003540107804102060090000030000400805700000000600781904,416857293952316748387924651263549187874132569591678432129463875748295316635781924
007210000008053019920604500103000800054070006060320007000008400006107025000960030,537219684648753219921684573173496852254871396869325147792538461386147925415962738
230050690001083050005490071010900040702000500098047030050076100000230900600000084,234751698971683452865492371316925847742368519598147236459876123187234965623519784
006075100004906080785000200120700006000042090540063800830000040007039008900007520,296875134314926785785314269123798456678542391549163872832651947457239618961487523
590002030704360000000040608900030004860400010010008293605070980000000002320180070,596812437784365129231947658952731864863429715417658293645273981178596342329184576
000051040016700809030000007190000700702040630008520000609004083203900001500008060,927851346416732859835496217194683725752149638368527194679214583283965471541378962
000037000560000094040600800801700000056040030790503210009000007100260005420108900,918437652567812394342695871831726549256941738794583216689354127173269485425178963
906500000380007590020008103090800050000746300071003402100062070005080060002400001,916534728384217596527698143493821657258746319671953482149362875735189264862475931
600000800001200090095007300040000068200700019007190040300400002070016005804305000,623941857781253694495687321149532768238764519567198243356479182972816435814325976
070900001900450060034200500610040097050000830008002600100708002309000000042569000,576983421921457368834216579613845297257691834498372615165738942389124756742569183
073500006000006209006041300349000002060490180700032050490700500010008000000200698,173529846854376219926841375349185762265497183781632954498763521612958437537214698
093540200000320005620009100000070400180003906050000008030400010209605704076800000,893541267741326895625789143362978451184253976957164328538497612219635784476812539
000095007403100008270304506600510720080000003500002040001029060000703100068400900,816295437453176298279384516634518729182947653597632841741829365925763184368451972
003002000607000900100860405034010708200093014000008006508049601060201803070500000,843952167657134982192867435934615728286793514715428396528349671469271853371586249
900402050050300007007096001040800205700000006060057890016200080400039000502010460,931472658654381927827596341149863275785924136263157894316245789478639512592718463
000005080004030156000410002000003000086920700207804301905000034410607800002000000,621795483794238156538416972149573268386921745257864391975182634413657829862349517
000930052900086031002050000106040080090061045005703000340002009500400007071000860,814937652957286431632154978126549783793861245485723196348672519569418327271395864
856030000002007951090020008000063070009001502074500300080072060400800005100904020,856139247342687951791425638518263479639741582274598316985372164423816795167954823
090500003000410620005083100007002039250307010086900004000024758001600000820000900,192576483738419625645283197417862539259347816386951274963124758571698342824735961
080005003147000590000002010600050700030100008052090460090800047003049026001730000,289415673147683592365972814618254739934167258752398461596821347873549126421736985
082130040000904057900000020060000783500001900200086004003609100070200006040003098,782135649316924857954867321461592783538471962297386514823649175179258436645713298
082700016305120090090000800540860000070301200000004063100009725600000904820040000,482795316365128497791436852543862179976351248218974563134689725657213984829547631
950000800008024005067000093000000080093062040000705201080231700430080100020040060,954376812318924675267158493572413986193862547846795231689231754435687129721549368
401000009000070860850060021900007216000849700035600000029030000370108050086700400,461283579293571864857964321948357216612849735735612948529436187374198652186725493
914000000020081065000302704000050807190648000350070100400000350580930000600007082,914765238723481965865392714246153897197648523358279146471826359582934671639517482
030007618007050000406009053900075030000080076005601900218004300000100094600020007,539247618187356429426819753962475831341982576875631942218794365753168294694523187
000180206000605340054000089107500003403007900098020004000706000230450701701000008,379184256812695347654273189167549823423867915598321674985716432236458791741932568
008467000000080720940320000802650300350900640090010078064700895000000231020001000,218467953635189724947325186872654319351978642496213578164732895789546231523891467
009021000100003406000740050002507049900030100078006305000205030004908007690000800,549621783127853496863749251312587649956432178478196325781265934234918567695374812
004600000000013062501800000700040801040950030602301070300520008000700019987000300,234695187879413562561872493793246851148957236652381974316529748425738619987164325
005006781000900000803520009071839065000000400620004030180290006060070950007400000,295346781746981523813527649471839265538612497629754138184295376362178954957463812
608300000050000120107000004703080016501603090040950007000007300962000040004806201,628314975459768123137529684793482516581673492246951837815247369962135748374896251
070106020693002400004000570830200000009458000025003090186000034000000058002700109,578146923693572481214839576831297645769458312425613897186925734947361258352784169
000730500702050093006009801820600007100040068405207000070513000200000136009000040,981736524742158693536429871823691457197345268465287319674513982258974136319862745
000005800807130400005607003700320690056908200400000010000061002038050706092040500,213495867867132459945687123781324695356918274429576318574861932138259746692743581
400906000300002540027300008009007054500401980000000010096024000840030600102050007,458916273361872549927345168619287354573461982284593716796124835845739621132658497
080430090000080070003605100061900020720000904040007530004090008900301056510028000,187432695652189473493675182361954827725813964849267531234596718978341256516728349
001268000005001000860090400007080306040050907030002054780009002920016080104000030,471268593395741268862395471517984326248653917639172854786539142923416785154827639
050020710600805903000400005094100260320090080006007050801000600073004000900302408,458923716612875943739461825594138267327596184186247359841759632273684591965312478
090050810007009000000302600920010007650000041003490050402070005385040000010006030,296754813837169524541382679924615387658237941173498256462873195385941762719526438
007090300000004517200000096000006804401800000930002070070248005006300108090105020,647591382389624517215783496752916834461837259938452671173248965526379148894165723
