000200730705000001000680004040306050060074092390021070800050003400000210910043600,684215739725439861139687524247396158561874392398521476876152943453968217912743685
501400009000080670680100003200300005000005040490201068860000002004930100103806700,531467829942583671687129453276348915318695247495271368869714532754932186123856794
800000605003205009901400730005806000780000094302059008610030020004001086200007000,827193645463275819951468732195846273786312594342759168618534927574921386239687451
000003204800009050035800706140000900027010308009567000608002507072080000900400001,791653284864729153235841796146238975527914368389567412618392547472185639953476821
200100008000036200100050097739000006580007900400025000050004060901070045008091300,275149638894736251163852497739418526582367914416925783357284169921673845648591372
700006400002010030538004067000163080007050004006008923410002590000301006209080070,791836452642517839538924167924163785387259614156748923413672598875391246269485371
800000010005009024300075000016002708024030095980000200000760000090000481001408603,869324517175689324342175869516942738724836195983517246438761952697253481251498673
040200005100006307070390020001075060309004001050060840800400000700002950025038600,643287195192546387578391426481975263369824571257163849816459732734612958925738614
810603400000400607090008015052006000000000720100090048480100003300025000500080179,817653492235419687694278315752846931948531726163792548489167253371925864526384179
860704003000500090070182405000976040001058027000000000009000100402000600030210870,865794213124563798973182465258976341641358927397421586789645132412837659536219874
000400100000092085780650409500901006348000000060007302402060030073000090900080071,295478163634192785781653429527931846348526917169847352412769538873215694956384271
120400000000106700009800030930070068058003402000604500540090600800760020000001305,127439856385126749469857231934572168658913472271684593542398617813765924796241385
070000900052300080306400720109040000030008106000203870004650090801000200590070010,478125963952367481316489725189746532237598146645213879724651398861934257593872614
009006040600350001020070508010902850700560030300040002074003100500780309000020006,859216743647358291123479568416932857782561934395847612274693185561784329938125476
207800046500600010010005200090060003003500760084031900060427800000900001378000009,237819546549672318816345297795264183123598764684731952961427835452983671378156429
000060892680000100100200004000000000457130008038009570091420306064003020700080005,345761892682394157179258634916875243457132968238649571591427386864513729723986415
074610000509200600030005080000043890060002005458090301040027013001000060002900407,874619532519238674236475189127543896963182745458796321645827913791354268382961457
060000040000129050280006301724300100000510780000900602042030007900084000075000068,561873249437129856289456371724368195693512784158947632842635917916784523375291468
000045900072000008501206300040500789900070504300000060000900010015034200680102070,863745921472319658591286347146523789928671534357498162234967815715834296689152473
580027040000593100002000060395060804706850000010000002009000017608140509043000000,581627943467593128932418765395261874726854391814739652259386417678142539143975286
009002600580093100041580000013006002000010485090720000000070020067900004050008093,379142658582693147641587239413856972726319485895724361938471526267935814154268793
413007006208503070900040020002068000170300900005901600000080091000024807600000250,413297586268513479957846123392468715176352948845971632724685391539124867681739254
205009604008700051630050000000002930800540700001087006070000005940200080003014090,215839674498726351637451829754162938869543712321987546172398465946275183583614297
700130002204000109059080000902040007360001820000506300001000400070002065008475000,786139542234657189159284736912348657365791824847526391521963478473812965698475213
058003020020980071000204000600300050300897600100065790007000045060502930004010008,958173426423986571716254389679321854345897612182465793297638145861542937534719268
500642300908000000200008605001200004830910067000075000604500910009420080000760503,517642398968357421243198675791236854835914267426875139674583912359421786182769543
040020385009608120001000000008350400073000906152000000600031048000984070000700203,746129385539678124281543769968357412473812956152496837697231548325984671814765293
091000024000087300063090500000375600020000400080046071206009007400001005109500036,891653724542187369763492518914375682627918453385246971256839147438761295179524836
080023001104700050760010008800000365300074090002008000006000009905102400430509020,589423671124786953763915248847291365351674892692358714216847539975132486438569127
027000160500060048080302509004003900005006000003428005900000702100054300006070080,427985163539167248681342579864513927215796834793428615948631752172854396356279481
000005180006000040309470205600000000430650970018304000800049010060802000020010350,247965183156283749389471265695127834432658971718394526873549612561832497924716358
801000074300054020070009500004600305290010006000095008006020100000900437003807600,851236974369754821472189563184672395295318746637495218746523189528961437913847652
001908032005600004400000670130700000800060010040082056079324800608501000000070290,761948532295637184483215679136759428852463917947182356579324861628591743314876295
200400080307005009400198000053260001014009200070000860006050310000300400009807520,291473685387625149465198732853264971614789253972531864746952318528316497139847526
000200050000463000007508023006000000530087009049300102860004905070000064021090078,314279856258463791697518423186942537532187649749356182863724915975831264421695378
074380050806000000100504970000600007300007010510008042030050204200090800009401030,974382156856179423123564978492615387368247519517938642731856294245793861689421735
409000307000800901170096200050009008030020500604003000003072009908401020017000605,489215367326847951175396284752169438831724596694583172543672819968451723217938645
090260400080037000623000500008050003001008790500410006410900000007005620900302804,795261438184537962623894571268759143341628795579413286412986357837145629956372814
300070050001060030620100090040008000193050800075412000008703004002940506900006700,389274651451869237627135498246398175193657842875412369568723914732941586914586723
000153006096000500000907082080092070009500004102004600075810023004070800030046001,827153946396428517541967382483692175769581234152734698675819423214375869938246751
076004501200700000040918006000020604500001907002000080769050030100049002003070150,876234591291765843345918276987523614534681927612497385769152438158349762423876159
040300070000009102508260003000001209060500400870040010600090508100630000403058620,249315876736489152518267943354871269961523487872946315627194538185632794493758621
080320000701090063200001004013002009020087006690050840500068001300700005000400790,984326157751894263236571984813642579425987316697153842579268431348719625162435798
800030600060400532000902004709300128026000053000015070003174000287050000004000069,842531697961487532375962814759346128126798453438215976693174285287659341514823769
040070008503002000060500094010209460800000037006005100200001670070953200134600009,941376528583492716762518394317289465825164937496735182259841673678953241134627859
600904570000030000210600800006048900001507203740190000905012704003700095080000002,638924571579831426214675839356248917891567243742193658965312784423786195187459362
960052300570060800001700000230001600000470009107800530680040105340000780000209000,968152347573964821421738956234591678856473219197826534682347195349615782715289463
004070801900008004000910500807430016520007900006002080000200407438000609602300050,264573891915628374783914562897435216521867943346192785159286437438751629672349158
800006720020109005009002410604020008700000090000568300900043070005700600201080030,813456729427139865569872413634927158758314296192568347986243571345791682271685934
040670092000005003008240106070006049300580010010090250750000004006009800002031700,143678592267915483598243176875126349329584617614397258751862934436759821982431765
400320050186900040000000807310200708600500100020680000004009013703040900090860500,479328651186975342532416897315294768648537129927681435864759213753142986291863574
270900100009080502000706004020003900907600050183004000805200009004100060610050083,278945136469381572351726894526873941947612358183594627835267419794138265612459783
050040008084060100310007090000004300090850000200013064005038907006000020007102630,659341278784269153312587496561724389493856712278913564125638947936475821847192635
000010800060405090097600430800300020940800000013040509006207001031069200050080007,524913876368475192197628435875391624942856713613742589486237951731569248259184367
034080057800560041120009000000900300900451002206300400402800063000007090070010508,634182957897563241125749836741926385983451672256378419412895763568237194379614528
030409002070001000050070694000080049000590106620000570200703085007062000483010200,836459712974621853152378694715286349348597126629134578261743985597862431483915267
000210560600000871500003090034006000092000100100870002040700005006401920050908037,489217563623594871517683294834126759792345186165879342948732615376451928251968437
301090007490201300000005900007108005060000200284607003800060004700009680520300010,351496827498271356672835941937128465165943278284657193819762534743519682526384719
310000900075090820002540103460003007900870602001000340200060400009080050006907080,314728965675391824892546173468213597953874612721659348287165439139482756546937281
400008001021300000009040056003457900200060400800019007075900020300020070010000864,436578291521396748789142356163457982297863415854219637675984123348621579912735864
047500690200010500009704800020603450705028001300070006430000000010069708000800320,147582693283916574659734812821693457765428931394175286438257169512369748976841325
040029051800671090002300670103004820000530000009000406020050069500018000000903000,647829351835671294912345678163794825284536917759182436328457169596218743471963582
050000709890400000700002053100000035000010280020653907300980006502060401004000000,251836749893475162746192853179248635635719284428653917317984526582367491964521378
060200410050400970000010306002503080013000050080007600020000009908360540400801062,369278415251436978847915326692543187713689254584127693126754839978362541435891762
100009803306002004090507200904000000032040067060800100600300020780014600050070091,125469873376182954498537216914756382832941567567823149641395728789214635253678491
100039420090006007070402980060500140208000003000270090004160700007000065350000800,185739426492816357673452981769583142248691573531274698824165739917348265356927814
000020065670080040001700020050603002900150037060098000030900001210307008400000350,389421765672589143541736829154673982928154637763298514836945271215367498497812356
034005700960310000080200500870501064010006200002030009040062050500090410007800003,234685791965317842781249536879521364413976285652438179348162957526793418197854623
090008600507010400108400902006970500400350080000000000900607050052003006071084203,294738615567219438138465972386971524429356187715842369943627851852193746671584293
218004070700090032000600840005800900000037186000209307109405008020060005004001000,218354679746198532953672841375816924492537186681249357139425768827963415564781293
009204010082100300400076095000060000120080400060305829390001000007090050001748006,579234618682159347413876295938462571125987463764315829396521784847693152251748936
004063208700500360010000009090400000806730105020080704000820503005609800070010020,954163278782594361613278459397451682846732195521986734169827543235649817478315926
360085270041070030000904006800600900900013000000002047018069005635400008002700100,369185274541276839287934516823647951974513682156892347718369425635421798492758163
070890000306501400400600018000000001207403900500019637809300060000082703001000002,175894326386521479492637518963758241217463985548219637829375164654182793731946852
409070000000200508003100070007005104060900003050460290300608702840050630001090080,489576321716239548523184976937825164264917853158463297395648712842751639671392485
008600900527080030601302070083069040000000001960470080010000504005008703300240010,438617952527984136691352478183569247754823691962471385819736524245198763376245819
620003094005004008003010000000051200900007005307020010000240700001006539789000060,628573194175694328493812657864951273912367845357428916536249781241786539789135462
060200708008095400004070630600900140070008000300450002120000509003706080000020016,561243798738695421294871635685932147472168953319457862126384579953716284847529316
001009007000256008050807640000030120507020300004900085180600530020000090340000006,861349257473256918952817643698735124517428369234961785189674532726583491345192876
700356810000200004003080796000000027007163000510800900160009040098020500400000030,749356812681297354253481796836945127927163485514872963165739248398624571472518639
300001048200056100090280003003800600065700009070400021900000050000090804547020030,356971248284356197791284563423819675165732489879465321918643752632597814547128936
700560120080090004600040073050007230302056900010000040940070000103900560000201008,734568129281793654695142873459817236372456981816329745948675312123984567567231498
450019086900600140030700000807092000000430070026001500090000038100004050085203009,452319786978625143631748925847592361519436872326871594294157638163984257785263419
407050010800006390001702000010908056005010000900034200020409060070000008369200005,497853612852146397631792584713928456245617839986534271528479163174365928369281745
000010690002005001860007002000002736320190080004870000790080045046000310200350007,475218693932465871861937452189542736327196584654873129793681245546729318218354967
204070506003080000809405100400700219108000007730600008500140092006300000000092065,214973586653281974879465123465738219198524637732619458587146392926357841341892765
301050700070300940049068000205840300083001060004507090100004250000920070060005008,321459786876312945549768123295846317783291564614537892137684259458923671962175438
002600008009530010060409020100200005005008039374001086000090003000070540856000701,432617958789532614561489327198263475625748139374951286247195863913876542856324791
000007041700092608000843200085000409624000700900051000050600000370900006008010023,892567341743192658516843297185276439624389715937451862259638174371924586468715923
073000904409002081105600070304590020000030058057004000000810600000950302601007000,273185964469372581185649273314598726926731458857264139592813647748956312631427895
850060000074930010000504820000010735002407600600390080700000003005649000981000002,859162347274938516163574829498216735532487691617395284746821953325649178981753462
320051008601000070450093260005040100080210003700008009049006000003820054000500907,327651498691482375458793261235947186986215743714368529549176832173829654862534917
040000890009500200230061070064700080100490003800200500051030620000047008307005900,546372891719584236238961475964753182125498763873216549451839627692147358387625914
002100009000074305100806700004028050090040002307600081060900047749000008053000200,472135869986274315135896724614728953598341672327659481261983547749562138853417296
100365007900842000000010060800000205050700930043000001201600040006174008370090500,128365497967842153435917862819436275652781934743529681281653749596174328374298516
900065320004800006005047000007004060000913507500200090700008100420709008036020000,978165324314892756265347819197584263642913587583276491759638142421759638836421975
070083000603070504891000000005024030018006257000000906042035010300060078000940000,574683192623179584891452763965724831418396257237518946742835619359261478186947325
050020103071085002300000090005094006003201080040006520060970201800503007009060400,458629173971385642326417895285794316693251784147836529564978231812543967739162458
080470003730001042009000810068000050040003200100708006005100030200356070610090000,581472963736981542429635817368219754947563281152748396875124639294356178613897425
507000640009204005000090078052160000701400030906038000038050407000001952000006100,527813649869274315413695278352167894781429536946538721138952467674381952295746183
