890250076573000908001000400000081003009700010060340502200904000708060300040100067,894253176573416928621897435452681793389725614167349582236974851718562349945138267
074092000100006009002130005080207043300000720000010096090004002006785000048000030,874592361153476289962138475689257143315649728427813596791364852236785914548921637
004890601061002003850004000029000070000030200107600908030058040002007005008040097,274893651961572483853164729329481576685739214147625938736958142492317865518246397
007000009302050018408390000010705004009480500003020687200968003000004050600003700,157842369392657418468391275816735924729486531543129687275968143931274856684513792
007084500020600040050003800409008021000031450006070008001390005070000200360200970,697184532823659147154723869439568721782931456516472398241397685975846213368215974
365700004070000080002910000400030020900102407006080000050003270001264530080000900,365728194179345682842916753417639825938152467526487319654893271791264538283571946
400008100060000079397060080230800500840702006509010000010500932000206000003490000,452978163168325479397164285236849517841752396579613824614587932985236741723491658
000800000200041679659203400000300081390017020540080000800000706030000040106029005,417896253283541679659273418762354981398617524541982367824135796935768142176429835
160008070703006905800230000340700506002009000000540012005190740080005000297600300,164958273723416985859237164348721596512869437976543812635192748481375629297684351
053070008010006030402001905000000057024039100860400002307048020001090600000020809,653974218918256734472381965139862457724539186865417392397648521281795643546123879
290070084450080673000600000020930000000067200683042500000850041700000069004001002,296375184451289673378614925527938416149567238683142597932856741715423869864791352
001004859904000003708500610000900002002350040075680001036000000500720406800003900,361274859954816273728539614183947562692351748475682391236495187519728436847163925
067090030005800420800030509004000007100360900609052001010008290050610000480007605,267495138395871426841236579524189367178364952639752841716548293952613784483927615
902003570015000604000070008000197000060035100007406920040000709008000060300859010,982643571715928634634571298423197856869235147157486923541362789298714365376859412
073800020006007058100940003009006204300100007050090080005013900600020070400508306,573861429946237158128945763819756234364182597257394681785613942631429875492578316
006510000000328070700000100287043910005000024300009007698100200500030600004002058,826517439419328576753496182287643915965781324341259867698175243572834691134962758
306070001090005087050190604000009305780000060002040000400820500019030042060000713,326478951194365287857192634641789325785213469932546178473821596519637842268954713
321900504800500397007600000000040006208100005090060231070009120500000400400378009,321987564846521397957634812135742986268193745794865231673459128589216473412378659
507946000461000000023100050004060720000002903800507001005680090219000060070030014,587946132461325879923178456194863725756412983832597641345681297219754368678239514
000000920503028010700913650400031000009006800062490030005102000308067002010080004,681754923593628417724913658457831269139276845862495731975142386348567192216389574
001006009300004025020087040004235000930010002056000180062900730700840000810000500,541326879378194625629587341184235967937618452256479183462951738795843216813762594
108900000200140805050060340027003000900006080003500472000800059871309060400072000,148935627236147895759268341527483916914726583683591472362814759871359264495672138
004600021032000007900008400340002506050041089007080000000007100500900030860153200,784635921632419857915278463348792516256341789197586342423867195571924638869153274
230004500410705809008603000001040080090506003002800705040100290705000010020037000,237984561416725839958613472571342986894576123362891745643158297785269314129437658
630009004012000000005700260486015000000078590000320001893040052004603079000000800,638259714712864935945731268486915327321478596579326481893147652254683179167592843
000012009085030400104890037400200100860007005000681090000500201609000578072000040,736412859985736412124895637497253186861947325253681794348579261619324578572168943
200301004095004000000000237020050009007430018006170300500200180060008090041600502,278361954395724861614985237123856749957432618486179325539247186762518493841693572
000100500060497200200003890850069010043005062900300700070010008002006000001582304,739128546568497231214653897857269413143875962926341785375914628482736159691582374
609500400027090008150820700200480031900067000035009604460002390000700002010000500,689571423327694158154823769276485931941367285835219674468152397593746812712938546
090324701731000000000005000008070049420600000000108053803060500049203008050907060,596324781731896425284715936318572649425639817967148253873461592649253178152987364
003248060000070000450600009602080004010000087007305120300760005104003600080902703,793248561261579438458631279632187954915426387847395126329764815174853692586912743
090100003200006500070054801103080760000200008400065300037601000008027100020340005,895172643214836597376954821153489762769213458482765319537691284948527136621348975
080700000502000087001904030079000006300600004000231079016003000895060200000095400,983752641542316987761984532179548326328679154654231879416823795895467213237195468
000300670100000358086400020003702980020001000504006001002950003700204506008000040,295318674147629358386475129613742985829531467574896231462957813731284596958163742
030071006006080009970006300002600401000035080800040030495027008060000047001000290,534971826126483759978256314352698471647135982819742635495327168263819547781564293
000083105008600700063401209009002310750800906040100000807090402400000607000300050,274983165198625743563471289689752314751834926342169578817596432435218697926347851
160350900400890000058200030309002814005070006000001025040683000000000100732000050,167354982423897561958216437379562814215478396684931725541683279896725143732149658
008790300050026100610300400800012540305070002090000060730000280060804090109050000,428791356953426178617385429876912543345678912291543867734169285562834791189257634
970405800100030095020000000004008530060003402002610087080057060006800040007200100,973465821148732695625189374714928536869573412532614987481357269256891743397246158
000069700087004020930000108098070063150000070000930804000041306700250001004008050,241869735587314629936527148498172563153486972672935814825741396769253481314698257
032006014006000030700800200000005060910004300407902050000308120500060907081050000,832596714196427538754813296328175469915684372467932851679348125543261987281759643
052006973000800000900050810028070600160982000300005004030761500600004300470200109,852146973713829456946357812528473691164982735397615284239761548681594327475238169
009000000720006090300005817200000475100003200056080030500109060073200009080407503,819374652725816394364925817238691475197543286456782931542139768673258149981467523
700000052008060409096050080070009100805000043020013708400675200300400076100300000,741938652538267419296154387673849125815726943924513768489675231352491876167382594
680045790403000160070000003008700200902036001005190040000067008000510000206409350,681345792423978165579621483168754239942836571735192846354267918897513624216489357
500304068010000230070020009902007300300008705001406000060000080098010004400500021,529374168814965237673821459982157346346298715751436892165742983298613574437589621
097806430510070000060230007000009840000061072372500600900002000000400180680050309,297816435513974268468235917156729843849361572372548691931682754725493186684157329
070080320620050107000000000530002040009001008080700690051603400200405860403970000,975186324624359187318247956536892741749561238182734695851623479297415863463978512
903010020070000400004205083000050367500140000029308000310700906050809072002000004,983417625275683419164295783841952367537146298629378541318724956456839172792561834
008603004000702500000410200104008700000005060630000108506070002203004001970200040,728653914419782536365419287154368729897125463632947158546871392283594671971236845
009000000500023690482010500107006000040970805200004006000150900760090200010300408,639745182571823694482619537157286349346971825298534716824157963763498251915362478
508900002000084700029500001600030408010700050357008000760000000000040619900021080,578916342136284795429573861692135478814762953357498126761859234285347619943621587
105406000030800014009700200400309501000040030008025407700003625096270003010000080,125496378637852914849731256472389561951647832368125497784913625596278143213564789
070290048000600170010000030027083005009700014080000000302008700095010062000450900,673291548258634179914875236427183695539726814186549327342968751895317462761452983
010307049800009060006000500570024090300100000620005170700408300040053020000610780,215367849837549261496281537571824693389176452624935178762498315148753926953612784
006004709001730806000600042004975030700000000890200104207306500050010003910802000,386524719421739856579681342164975238732148695895263174247396581658417923913852467
040010906006800300371000042200600030507020009000307058600002400012009000098140500,845213976926874315371965842289651734537428169164397258653782491412539687798146523
000809603050002090018030007090000710003074008520100009230007005401006000600090384,742819653356742891918635247894523716163974528527168439239487165481356972675291384
900012507603070000000950080470000009000026800008109023090804200706000340001230605,984612537653478912217953486472385169139726854568149723395864271726591348841237695
001906050500047602004380900802500000000009260053000017010690034008000000070012008,781926453539147682624385971862571349147839265953264817215698734498753126376412598
200007300000500001604890007005000720870306090430021800723900400000100030900004006,258617349397542681614893257165489723872356194439721865723965418546178932981234576
400007850002000700031050960305200490900080006000470000500340070047028001100060208,469137852852694713731852964385216497974583126216479385528341679647928531193765248
058000400700901032230070900006790000100300500095400008020009604000240380807506001,958623417764951832231874956486795123172368549395412768523189674619247385847536291
070100935005800040160900072403005097700320680080000000620040000000030061097500000,872164935935872146164953872413685297759321684286497513621748359548239761397516428
100060000000009235853200001024030750009000000010450902070100306060042080005780400,192563874746819235853274691624931758589627143317458962478195326961342587235786419
570800006913072000000003009150409600060280300000001480235100907004050018000007040,572894136913672854846513729158439672467285391329761485235148967794356218681927543
609012003001536240000007000000900600208000005054000170000008007035160480102304090,649812753871536249523497861317985624268741935954623178496258317735169482182374596
058200040000090036900104000000086107230000509700009060640000700005003490120070050,358267941417895236962134875594386127236741589781529364643952718875613492129478653
040000520086070000901200037004000003070900450000006819032500071800120000500439006,743691528286375194951284637194852763678913452325746819432568971869127345517439286
020070090073500210000600800096000000402860150800240037010000003005983040004001960,528174396673598214149632875796315428432867159851249637917426583265983741384751962
480720003006900000920004010600840700290003040000070506150000308030268090000010072,481726953576931284923584617615842739297653841348179526152497368734268195869315472
100052003374001200000800640710000009000003502503240708008605000000020304290070000,186452973374961285925837641712586439849713562563249718438695127657128394291374856
000200071050000406100073980037028605000006308020050040018490003200010090905002067,389264571752189436164573982437928615591746328826351749618497253273615894945832167
010620000085004009730090084179000030008300400400506010002407090300081045600000002,914628753285734169736195284179842536568319427423576918852467391397281645641953872
450130007628490000007005000000810040000300002002700905004560380300004070901000060,459138627628497153137625498593812746746359812812746935274561389365984271981273564
040209006806010097005036040090000003703002481000080200000900700607153000150024600,341279856826415397975836142298641573763592481514387269432968715687153924159724638
000010000000230405089007030078302500001500204400079060206000008094000300750800621,342915786167238495589467132678342519931586274425179863216753948894621357753894621
500030000234610500096750082000000000048290036001480009370001650000009728060040010,587932461234618597196754382923176845748295136651483279379821654415369728862547913
000000030063172000008000752000790060030200481450003000080341900040000608912050070,274589136563172849198436752821794563739265481456813297687341925345927618912658374
007080050620000809090305600002400100800019060060708040500804000000500473930002001,317986254625147839498325617752463198843219765169758342571834926286591473934672581
200000906047018000500700000008905007163000000000140320800502109009070462000403080,281354976947618253536729841428935617163287594795146328874562139359871462612493785
003108400410506008970400005730940200006002019200000000100630807020085300000009004,563198472412576938978423165735941286846352719291867543159634827624785391387219654
000700000508021907043060500000100850092085074006000000007004365000009040085002709,219753486568421937743968521374196852192385674856247193927814365631579248485632719
009600802005300000468050071000102004800000000207004530900010040730000190540068700,379641852125387469468259371653172984894536217217894536982713645736425198541968723
102004000570010000040650900000090358401028090309000410908006270060973000010500600,192834567576219843843657921627491358451328796389765412938146275265973184714582639
000000050610340020040056103580027060074000000900100008103060500200000974000982001,839271456615349827742856193581427369374698215926135748193764582268513974457982631
030674005008000460500300201700106320085030000200000009000090010051708000096205080,132674895978521463564389271749156328685932147213847659827493516451768932396215784
049000003080530240500200061003090050170004002002086430804070006090610700010003900,249861573681537249537249861463792158178354692952186437824975316395618724716423985
009000100400905208738006400080534007023009000604010050090607080060000002100802903,259483176416975238738126495981534627523769814674218359392647581865391742147852963
090600005003001020600940170280000700059800064704009000000470010070502980830000050,197623845543781629628945173286354791359817264714269538965478312471532986832196457
004613000600020450830009000060070000205000300143005908052090036000006502090800107,524613789619728453837549621968374215275981364143265978452197836781436592396852147
245000603000000098000037012010095000090070300607802000003410080059600700004008906,245981673371264598986537412412395867598176324637842159763419285859623741124758936
006000000001040025700098300000600490039000078680020013400009800000754001527001060,346572189891346725752198346175683492239415678684927513413269857968754231527831964
002000480000459070010030906609200305580790004003100000300976001000080260407000800,952617483836459172714832956679248315581793624243165798328976541195384267467521839
019040000607205400050080603090052371003070086081009240002030007000006500000701020,819643752637215498254987613496852371523174986781369245942538167178426539365791824
071000400060920000000064082000390700050100028790040306002530000915002070300000004,271853469864921537539764182126398745453176928798245316642537891915482673387619254
200090000080200400060043102800010709035060040007000006003850000010420307402007510,254198673381276495769543182826314759935762841147985236673851924518429367492637518
500176800204800000000040639009500108610090007000000304056710000140308000007000250,593176842264839715871245639439527168618493527725681394956712483142358976387964251
700604000000001804008302069250009000670000050004000173005960300040010008806030021,739684215562791834418352769253179486671843952984526173125968347347215698896437521
000583672000200318000010040006050000900100200007600934250000006891400700700930050,149583672675294318382716549426359187938147265517628934253871496891465723764932851
