201040006000790000459060200000805001786000030000470920090000570560023040003000012,271548396638792154459361287924835761786219435315476928192684573567123849843957612
600000070741500290020003000000079340300002060054100008108600502003091006002080000,635924871741568293829713654216879345387452169954136728198647532573291486462385917
208040000050860304000002710840203000715000040903010607000900835002007001000156900,238741596157869324469532718846273159715698243923415687671924835592387461384156972
000910000069078030004605120000000573502000000810403600000020004400507368395000010,253914786169278435784635129946182573532769841817453692678321954421597368395846217
600090103000307200040005600390700060081002005702400800050201048100500709000083010,627894153519367284843125697395718462481632975762459831956271348138546729274983516
019000042000200105860004000000076093003900800008010720070000000005407360106083409,519738642437269185862154937241876593753942816698315724374691258985427361126583479
010000050003800026690004800706405100500093000980720300000610704002009568007000009,218967453473851926695234871736485192524193687981726345859612734142379568367548219
800070000031400506502309000920100403000760021004003050200005019003690008408000670,849576132731482596562319784927158463385764921614923857276845319153697248498231675
046720930000309700007408020100080506590000800602005140301600000050800000000004210,846721935215369784937458621174283596593146872682975143321697458459812367768534219
150030807070000006002001000910500208500700460300602091439150000000200030000000745,154936827873425916692871354916543278528719463347682591439157682785264139261398745
000800700704009000000406035008015009940280500006007010590000140407002800083560002,635821794724359681819476235378615429941283567256947318592738146467192853183564972
000360000010005604006029580043081000605007028000900073000500740108602095900010002,587364219219875634436129587743281956695437128821956473362598741178642395954713862
043250008700630020000800609006040300400780501052900000020090180001000947080300006,643259718798631425215874639876145392439782561152963874527496183361528947984317256
300170050590302004017000006000000070405890020020005893000506140060200500009037008,346178952598362714217954386983621475475893621621745893732586149864219537159437268
000800650009070108070005040040506002000300009006082010020900030308610070157200400,413829657569473128872165943741596382285341769936782514624957831398614275157238496
000086032240010600007200010700603500800047090026090703005008029000405007031000050,159786432248319675367254918794623581813547296526891743475168329982435167631972854
085370000006000023200406100400930801009067000870010065000581390690700080000000200,185372649946158723237496158462935871519867432873214965724581396691723584358649217
100800050300402090020361004000000100009700840058906020006008472270040000801005030,164897253387452691925361784732584169619723845458916327596138472273649518841275936
809010200000560400010070090070280051260300000000650930001048023740000086530000700,859413267327569418416872395973284651265391874184657932691748523742935186538126749
205080030001005700000001046076000000020000891030548002900063005400810060083902000,265784139341695728798231546876129354524376891139548672917463285452817963683952417
006739400084060000270000010020600970400058000900002035000097008013000040005180600,156739482384261597279845316528613974437958261961472835642397158813526749795184623
309008000020003050076090084103500790702006008000002400000040270095100006480005903,319458627824763159576291384163584792742916538958372461631849275295137846487625913
000100426004290050085700093702035080000400001093080000600529000500000860070010042,937158426164293758285764193712935684856472931493681275648529317521347869379816542
350704009980010005000800230200130674001002000000050300100069000000400007609003820,356724189982316745417895236295138674731642598864957312178269453523481967649573821
007108900302006010009350020000005000080200403604801752200009008000060540471000006,567128934342976815819354627723645189185297463694831752256419378938762541471583296
080027050060900100703460080800000001500700004402190678000500760940600000010039200,189327456264958137753461982876243591591786324432195678328514769945672813617839245
038400002040600807502019400254068030000000010900723000001300970700000080800504600,638457192149632857572819463254168739387945216916723548421386975765291384893574621
000907300600050008072600409710030086008702500039000001106004000803100925050008000,581947362694253178372681459715439286468712593239865741126594837843176925957328614
150206008800700300073000916928004105000000040064508003002653700000009000010400620,159236478846791352273845916928374165531962847764518293492653781687129534315487629
300500009078020010904100037000047051600010200040900000060050900059008043280003670,316574829578329416924186537892647351637815294145932768463751982759268143281493675
203008000060003580051900007740016390598004000000000250000000900400265070000780061,273658149964173582851942637742516398598324716136897254687431925419265873325789461
207804005040703019009500004000070002078201390105060000800000041030000060001905080,217894635546723819389516724693478152478251396125369478852637941934182567761945283
006052000487600005000000100702069008503400090190000070900708036030001082005320009,316952847487613925259874163742169358563487291198235674921748536634591782875326419
900568003028000500010000007100004008040307650250000001700090240403020806080601070,974568123328179564615432987136254798849317652257986431761893245493725816582641379
000900008020054003693020410007001230502060007860000000310702060400600070000048950,154936728728154693693827415947581236532469187861273549315792864489615372276348951
600807039025010000073600040300000004000981300702400096400000060080703051000509702,641857239925314678873692145398276514564981327712435896457128963289763451136549782
050240300247090060030500900104900002000016009708002000002070040003000508680054017,956248371247193865831567924164985732325716489798432156512879643473621598689354217
000740019009003060030600802107300086060590070540070000080450000000000200602800091,826745319419283765735619842197324586263598174548176923981452637374961258652837491
001400000230006095080025400058070004700901020600000100000004306029057840007013000,571439682234186795986725413158372964743961528692548137815294376329657841467813259
038900060920010804040703000300851000016009005009000270500027640700006109200400003,138942567927615834645783912372851496416279385859364271593127648784536129261498753
009400050070006009200300601900000000605030840080015700001270300523160000040050108,369481257178526439254397681937842516615739842482615793891274365523168974746953128
900100602006835000047000001300407090070062005412050700058000009200003070001600080,983174652126835947547296831365417298879362415412958763658741329294583176731629584
060900730030000004004050200508040090079630000000208100406001905002006481750000023,265914738937862514814753269528147396179635842643298157486321975392576481751489623
001460000300090020670000405080042500754010800900807030008106007200000350097003016,821465793345798621679231485183642579754319862962857134538126947216974358497583216
070460503203005004000180020060019008984000060100000300008700251600004739092500800,879462513213975684546183927365219478984357162127648395438796251651824739792531846
008090005609500307050600100010004500423705000700902603504008009000000714370020000,138297465649581327257643198916834572423765981785912643564178239892356714371429856
002930010060041070000000403007002058090800200010400060874206009309000006021005700,742938615963541872185627493437162958596873241218459367874216539359784126621395784
700006091000804230023070800079400100100000000346005002408010300000090005905203086,784326591691854237523971864879462153152739648346185972468517329237698415915243786
100005600000004703823000500691000004040390000307012005008063002005700090460208010,174835629956124783823679541691587234542396178387412965718963452235741896469258317
042090085009600203000000000080104009105206070003000500507029401230000700010047650,642793185879615243351482967786154329195236874423978516567829431234561798918347652
020900040000004079064015030000200516070008000290003004600537800103600050009840002,327986145815324679964715238438279516571468923296153784642537891183692457759841362
490000150000010620000609800083002000040008017002540000670020900908030002035104080,496287153857413629321659874183972465549368217762541398674825931918736542235194786
020719300460280090003000008580006004300070600014020053040501000209040005008060079,825719346461283597973654218587136924392475681614928753746591832239847165158362479
608540100030060005000700030500009403896004020070120080400000000001608970003095602,628543197137962845945781236512879463896354721374126589469217358251638974783495612
009010300005034600040860702670001905090000830100020007500300084020008000004750100,269517348785234619341869752673481925492675831158923467517396284926148573834752196
930010064070050800500040007010300056080000200340076109106980000020005700000234005,938712564274659831561843927719328456685491273342576189156987342423165798897234615
006320540070641200009000130000750400380200075100003080968100000400007800020500069,816329547573641298249875136692758413384216975157493682968132754435967821721584369
069130082000008006000570900010003007005000408483052000300260045001090700028007109,769134582154928376832576914916483257275619438483752691397261845641895723528347169
060900230007600085900070100000059300890700024700084001030060000205001400648300700,564918237317642985982573146426159378891736524753284691139467852275891463648325719
000204109700005002400070306908000001000960830050081600610500720270390500800100004,586234179793615482421879356968753241147962835352481697619548723274396518835127964
000390050900070038000600200670019500500003010092048000300850006014000020850001397,287394651965172438431685279673219584548763912192548763329857146714936825856421397
000048300890000005010329006001000007680405002002017940508074060720006010000900703,276548391893761425415329876941283657687495132352617948538174269729836514164952783
090050704400900250010060300560700901003041008002000603804009005000120800730006090,396258714487913256215467389568732941973641528142895673824379165659124837731586492
000731540900620030000000806514000902620005400008072000109000300070090008250064190,862731549945628731731549826514386972627915483398472615189257364476193258253864197
004021038700530000020008956302750401480900000617000003000142800000000265009800000,954621738768539142123478956392756481485913627617284593536142879841397265279865314
104900063070000050500280004008006940000000005230051007010062090920008700867030410,184975263372614859596283174758326941641897325239451687413762598925148736867539412
070010006006200100804093200009704302030900080408000700100000450002306090000105607,275418936396257148814693275659784312731962584428531769167829453542376891983145627
068950100200000000000206905000070803970015000000603500102000004307001089005048207,468957132259134768731286945516472893973815426824693571182769354347521689695348217
102905030840060900096180740000000401487002000650700000005400309020070000000638050,172945638843267915596183742239856471487312596651794823765421389328579164914638257
720050040091000008508026001000000523010007064306000000804710300005800017009302600,723158946691473258548926731487691523912537864356284179864715392235869417179342685
490201000100087300805900620760000005010000098309102004250609070000300806000074050,493261587126587349875943621762498135514736298389152764258619473947325816631874952
009000010350100400700905068040007835806001790090430006020003007400560000108000200,689374512352186479714925368241697835836251794597438126925813647473562981168749253
006009801054308079009000040680700090000003100300000562070005310240800006500091008,726549831154328679839176245685712493492653187317984562978265314241837956563491728
000060027108400000030709054900000200400605030061820500000500960620010070390000008,549361827178452693236789154953147286482695731761823549817534962624918375395276418
000094007405000010001207060004380000002045901006701800300008402209560070100000093,623194587475836219891257364514389726782645931936721845367918452249563178158472693
000008063001045009089001000650470901007030520203000080000950402094607008002000700,425798163361245879789361245658472931917836524243519687876953412194627358532184796
027004900105930006080050040000790000608002700050600102000109280019008603070040000,327864951145937826986251347231795468698412735754683192563179284419528673872346519
300000080000102006187004000900760032005090010031500400070840900504300600006205700,362957184459182376187634295948761532625493817731528469273846951514379628896215743
000008105097030000560904030050400006209600040400002810000000620718090300040503007,324768195897135462561924738153489276289671543476352819935847621718296354642513987
150000006009500400602710000043000060000340189800025007000630270208001605710009030,154893726379562418682714953943187562527346189861925347495638271238471695716259834
000002054003810700070003060610020009408071005302680000000000906004005207801900040,186792354543816792279453168617524839498371625352689471735248916964135287821967543
398507001070010009040820035600480200409000000031600070000000940200063800005070016,398547621572316489146829735657481293429735168831692574763158942214963857985274316
060104090007000030300005206403070900005300627090800500004080050210600000039007801,862134795957268134341795286423576918185349627796812543674981352218653479539427861
570018230300000080004900607060005403009070500730201000100630800040052006000080792,576418239392567184814923657261895473489376521735241968127639845948752316653184792
005000008890043076003109020240600800080050013057000000000401900170002600600870240,415726398892543176763189524241637859986254713357918462528461937174392685639875241
904200031087003405000050870503800009020007060600021700000060020465900080130005900,954278631287613495316459872573846219821597364649321758798164523465932187132785946
203068040007042000810090605090703000400029001005000960680000030702014000501000078,253168749967542813814397625196753482478629351325481967689275134732814596541936278
007095000803046107000030008000020086570100000900003450060400300700962005108007002,617895234853246197429731568341529786576184923982673451265418379734962815198357642
008010009320600004100045730042560008080090006000200350090100200001007800250930670,478312569325679184169845732742563918583791426916284357897156243631427895254938671
740006002820003001003810060080900400067001950500040207010000009600725003304000800,741596382826473591953812764182957436467231958539648217215384679698725143374169825
000006000809400510037180940003010000054003207920004800040070060501000703008090025,415926378869437512237185946783219654154863297926754831342578169591642783678391425
100826070400000500809000130076509200008700004900130000703200960050080002000007040,135826479467391528829475136376549281518762394942138657783214965654983712291657843
001005784007209000560400000054006000300800065008070901002108406900004800400300017,291635784847219653563487129154926378379841265628573941732158496915764832486392517
000002030654080010009700005000028003041960000720053600570004091000090762802001300,187542936654389217239716485965428173341967528728153649576234891413895762892671354
302000908006080000097130002410070093008000005020401070009702500080005460000610300,342567918156289734897134652415876293768923145923451876639742581281395467574618329
003000528206700100401005090018379000590001060000020080004002003030600205700480600,973164528256798134481235796618379452592841367347526981164952873839617245725483619
080940700302070004007001060090450081006013000018009052070030508001600000250000930,185946723362578194947321865793452681526813479418769352679234518831695247254187936
080034700000910203300057091700006900000021605200090070060000400903860010810500002,189234756675918243324657891751386924498721635236495178562173489943862517817549362
001900007600800003003026040700000485000270906860410000230001870000000050400769020,581934267624857193973126548712693485345278916869415732236541879197382654458769321
007910050010026807340000600490800205000050304200007000020300018050700000670194003,867913452519426837342578691496831275781259364235647189924365718153782946678194523
