000059000408001290000260708026000050800700600730018040009000120570930006300040000,217859364468371295953264718126493857894725631735618942649587123571932486382146579
080004010092060800700050309030076001500000402060012500910030005458020600000900070,385294716192763854746851329234576981571389462869412537917638245458127693623945178
000800010060304097800005320008050240500981036970000500030602000204090000651000000,423879615165324897897165324318756249542981736976243581739612458284597163651438972
000901300300470060610030040004007130020009807005180090000004600903500002408600005,547961328389472561612835749894257136126349857735186294251794683963518472478623915
050401802012000094080070006390000000005108700807560200900856100006203008000000403,653491872712685394489372516391724685265138749847569231934856127176243958528917463
600057300400900600508302001200590700091080006004100080962800005100040890005700003,619457328423918657578362941286593714791284536354176289962831475137645892845729163
173009000002000005960814000000640070029700040800000103004097036200000000090183002,173529684482376915965814327351648279629731548847952163514297836238465791796183452
500170300430500000007000029301080006002709400090060205083000000060800057000426001,529178364436592178817643529341285796652719483798364215183957642264831957975426831
000800000800140079306597082008069005705208630000004200200001457009030060104000000,917823546852146379346597182428369715795218634631754298263981457579432861184675923
000008500016700080079405002100260008304901007020000039400050090930800010065020003,243698571516732984879415362197263458354981627628574139481357296932846715765129843
860009001004150067030007020090500700473020180501000002002408500640030000000600930,867249351924153867135867429296581743473926185581374692312498576649735218758612934
003601090650302040010079000300000070400710005000065208090824300540000016807050009,783641592659382741214579683365298174428713965971465238196824357542937816837156429
840065100301009045060003009005010027200030801700026030000780000906000410003004052,849265173321879645567143289635418927294537861718926534452781396976352418183694752
000065709900004000084000200050010800208403016609020005045070090300009074000300581,132865749967234158584197263453916827278453916619728435845671392321589674796342581
000030074060100000580040000000610790209504003001702005903200586000309400715000200,192835674364127958587946321458613792279584163631792845943271586826359417715468239
083050960200079584000600700400025300006740009008903050019400200500100600000082000,783254961261379584945618732497825316356741829128963457819436275532197648674582193
085009004600010209000700031520903000014560090008000003040200360709005080200130000,185329674673814259492756831527983416314562798968471523841297365739645182256138947
002800904010000000480321607000010806350700400100064090003050700540090380890002060,632875914715946238489321657924513876356789421178264593263158749541697382897432165
003054809600001070050062030509000020012608040007010390030400017480070200900500600,123754869694831572758962431569347128312698745847215396235486917486179253971523684
004907060000010023900058000820500400019084050070002380600091004500000200003640710,134927865758416923962358147826539471319784652475162389687291534541873296293645718
010900203054180009300027008180206500000010070760408000000000600002090137508030940,817964253254183769396527418183276594425319876769458321931742685642895137578631942
042093007005804031009007502031205080060100000090080050050300000400960020807001006,142593867675824931389617542731245689568139274294786153956372418413968725827451396
900052740000180006002009038000204060000000073134090800085070020091640000076803005,968352741543187296712469538857234169629518473134796852385971624291645387476823915
007905002030020804008041600510030706006000900300807020000074000824090105605000030,467985312931726854258341697512439786786152943349867521193574268824693175675218439
090800040157900030308500027082004500005001609960070004074009000000760001000023050,296837145157942836348516927782694513435281679961375284874159362523768491619423758
001250800700004100090006032006003050042900007300820006000000074864500903570019020,631257849728394165495186732986743251142965387357821496219638574864572913573419628
067800509090067000820501306080003600000700840140000052000008125000209000030140900,367824519591367284824591376782453691956712843143986752479638125615279438238145967
060400020200050048309000701080007000103605904754009800070000200000014006005328010,568471329217953648349862751986247135123685974754139862471596283832714596695328417
106500000300000870008490200089000051005860423600100000052040907000020038900670540,126587394394216875578493216289734651715869423643152789852341967467925138931678542
050300000010069007079020804400002030580100620003700080200005903006004010100890006,654378192812469357379521864461982735587143629923756481248615973796234518135897246
060000049810002075090376200620000000080641007007038501400007030070910004000500006,762185349813492675594376218621759483385641927947238561459867132276913854138524796
000501900390040205080060074010004000046108090003002800004030680025700013600009002,467521938391847265582963174819374526246158397753692841174235689925786413638419752
000051000036790004540308002090007080100206407400000650067900005308000120000005030,729451368836792514541368972693547281185236497472189653267913845358674129914825736
900000820003070019001460050080050107710290480400700002050900000000008306092310000,967135824543872619821469753289654137716293485435781962358946271174528396692317548
930018650007090081014500032050970014000002890306000000040080700625000000003000060,932418657567293481814567932258976314471352896396841275149685723625739148783124569
000000864047500030026039170900000780010040500002671000005860000230000000008010942,359127864147586239826439175964253781713948526582671493495862317231794658678315942
000064070087090006001072900009007510000380600032601400005200008498005102070000300,923564871587193246641872935869427513154389627732651489315246798498735162276918354
001804700200050000308070610009000382020601004054008900900410037000907000600530400,591864723276153849348279615169745382823691574754328961985416237432987156617532498
000905030250060007001000408400507901098340000700001000609700302000800564542100080,874915236253468197961273458436587921198342675725691843689754312317829564542136789
000009840030075000020600017160300900000008701900042085002001006607004300300090052,756219843831475269429683517168357924245968731973142685592831476617524398384796152
060705010000000084015029300050031002008600000009040706700306405400012070006870930,364785219972163584815429367657931842248657193139248756781396425493512678526874931
107005892000080600020001034005002000700340021940100067800906000030800050609020040,167435892493287615528691734315762489786349521942158367854916273231874956679523148
009400006001028000800060920208500301050040000390270000074050080500700092600380540,729435816461928735835167924248596371157843269396271458974652183583714692612389547
480200060007050821060070500140960050902305000030008700003400000600001290000086013,485213967397654821261879534148967352972345186536128749813492675654731298729586413
820379000504002900000000608070604012030005060001030009650008400080043070700190500,826379145514862937397451628975684312238915764461237859653728491189543276742196583
050000301900010280007630050003981040600200000041067002800540960000009020070000008,256498371934715286187632459723981645698254713541367892812543967365879124479126538
900000028070036000001000900020003600097100004604507300250074100006280035400050087,963415728872936541541728963125843679397162854684597312258374196716289435439651287
402800796000405000073000100061020004008030609500064020300100052910007300000089007,452813796196475283873692145761928534248531679539764821387146952914257368625389417
080403070010005062000120500029008106407009038008040000030500400270830019900076000,582463971714985362693127584329758146457619238168342795836591427275834619941276853
030080940096010300501070008009000820600500107400720050000000003020309080370060502,237685941896412375541973268759136824682594137413728659968257413125349786374861592
140060002823900000000008093070000486008475000200300051006059000000020035950001047,149563872823917564567248193375192486618475329294386751436759218781624935952831647
000004005065700082028005790090200006007081000300900400076050003910030028203008107,739824615465719382128365794591243876647581239382976451876152943914637528253498167
430020005070500068080010000500930007003007952600400010000090086809004000002160390,436829175971543268285716439528931647143687952697452813314295786869374521752168394
001960723000050060200437001003800040000123009009000072080500010000000506092700804,451968723937251468268437951623879145745123689819645372386594217174382596592716834
500300000900600708068290010305010400010000060206780350000000634027009100840005020,571348296932651748468297513385916472714523869296784351159872634627439185843165927
900007056080100000046008107009016504000280301070305090012950000800000000065000730,921437856587162943346598127239716584654289371178345692712953468893674215465821739
000908003006500094030007600000100570082003000410006200025080040300070980009402007,154968723276531894938247615693124578582793461417856239725389146341675982869412357
004850002920700064630000107013090020080602030050000400007945000301000000000010986,174856392925731864638429157713594628489672531256183479867945213391268745542317986
035000801060000000907080405009006372020100040500079000004003157800050030000697200,235764891468915723917382465189546372726138549543279618694823157872451936351697284
010000030059402000800005201000001006432007090760800004023070860008163470000090500,214786935359412687876935241985341726432657198761829354123574869598163472647298513
200078000030000009009500846001000057000421080603050200040390501106200300070086400,264978135538614729719532846421863957957421683683759214842397561196245378375186492
200807069040000070709306504300005018020090300501008407018700005000069000605400032,253847169146952873789316524394675218827194356561238497918723645432569781675481932
003094000006000092078000100017602004000017265050300080000203410400905800200081307,523194678146738592978526143817652934394817265652349781785263419431975826269481357
908000012250000467600051000000570280083000700100009306700692040060480005040300009,938764512251938467674251938496573281583126794127849356715692843369487125842315679
304007000609200100020048590400500007802061400010000006001059080500720030090083040,354917268689235174127648593463592817872361459915874326731459682548726931296183745
030000901859000600060400007001630004000210030970008020005020010204980760780054200,437862951859371642162495387521639874648217539973548126395726418214983765786154293
003005000000600748600000950250009800046012300900704001002400500175030009000080062,483975216519623748627148953251369874746812395938754621862491537175236489394587162
930760540070204003018900600804000000000006715000300006000078002500609801007050900,932761548675284193418935627864517239329846715751392486196478352543629871287153964
680240000705006010010007900000008620000750800300094070903000001050079043002000508,689241357735986412214537986597318624461752839328694175943825761856179243172463598
060918020024050900000007065500630000040090500092700401003800007200000019850002600,765918324124356978938427165581634792347291586692785431413869257276543819859172643
080700904570020000000614000403005200009300607200968000008500190120007850300000706,681753924574829361932614578463175289859342617217968435748536192126497853395281746
015689030008430000000000602003208500064007010021000073040003809002001007080950400,215689734678432195439175682793218546564397218821564973146723859952841367387956421
000700051503009020006031408040098500002600700059000082008060000070003016300052904,984726351513489627726531498147298563832615749659374182498167235275943816361852974
030001974240000800769008023000000509080652040107300080800420000010005600300109052,538261974241973865769548123624817539983652741157394286895426317412735698376189452
050600300700000000090042810010008537000064000023001049507020090060050008002980106,258619374741835962396742815614298537975364281823571649587126493169453728432987156
000704020408050701002960300160003500020070940003805007039201000000000106500049008,356714829498352761712968354167493582825176943943825617639281475284537196571649238
064530700800000600001007400000010040025800039300940086000069015050702000980001002,264538791879124653531697428698213547425876139317945286742369815153782964986451372
000403000003050260940081050016000509000100070004298030000006020800007603059800041,765423918183759264942681357216374589398165472574298136437916825821547693659832741
070008005050000423000040600300052096090861047080400000007010060019005000400037082,674328915958176423123549678341752896592861347786493251837214569219685734465937182
100078609402501000008600000057002100000100032000089040080004067500030910794200005,135478629462591873978623451657342198849165732213789546381954267526837914794216385
004071008860020700005400032256040900000200100107068005692000000080000050070390064,324671598869523741715489632256147983948235176137968425692854317483716259571392864
080936102004005068010040000047000630000020004900500001002601500806270000093008070,785936142324715968619842357247189635561327894938564721472691583856273419193458276
075904000800000002241000500007008023630002700020500908080013005400070600000060431,375924816869751342241386597597648123638192754124537968986413275413275689752869431
900006000004910020758000000200000970000038010076240080401082006360001058025070490,912856347634917825758324169283165974549738612176249583491582736367491258825673491
800104007000000280190700605640905003002608054009003700080406002050000030430000019,825164397764359281193782645648975123372618954519243768981436572257891436436527819
100003256000070300080405019090068500200140063007050080005280004943000002060000090,174893256529671348386425719491368527258147963637952481715289634943516872862734195
082050904007196302000400010204005009008600070500000001005382000609510700000007403,182753964457196382963428517214875639398641275576239841745382196639514728821967453
703560400020800090065000000500204007809300005400790681600900023001470800090021000,783569412124837596965142378516284937879316245432795681647958123251473869398621754
000020400030900805721500030600007503075100900908006201004010000000268704250400006,589623417436971825721584639612897543375142968948356271864715392193268754257439186
100002608937400200000705040400500020806000907000071830080930000020107400350006090,145392678937468215268715349473589126816243957592671834781934562629157483354826791
807001400910863500030000000206400010000090705050380940000020003680500200100004076,867251439914863527532749681296475318348192765751386942479628153683517294125934876
501002760870600040900430080602500800080009004409020300705000000000043019000810620,541982763873651942926437185632574891187369254459128376715296438268743519394815627
030500624070300085000096010000800000382010007059030042500469100008720039700000050,931578624276341985845296713467852391382914567159637842523469178618725439794183256
500600000032008047900050280007004038160020005000107009300701000805040090049200360,584672913632918547971453286297564138163829475458137629326791854815346792749285361
190703600450100020008500900076310004000000850810902300200600070600009030000040100,192783645453196728768524913576318294329467851814952367285631479641879532937245186
075090000180060052900045610090300700260007140003081005400000308007000000006210009,675192834184763952932845617591324786268957143743681295419576328827439561356218479
090076000370480200060120870000605030200000100010047085600850020700300064145000000,892576413371489256564123879487615932256938147913247685639854721728391564145762398
000600700070019000004350090609403021008260400000080035100000080030740502700192006,891624753573819264264357198659473821318265479427981635142536987936748512785192346
200648001103700000080005900604300009000090027520070600061200300050003108907400050,295648731143729865786135942674312589318596427529874613861257394452963178937481256
009045073100002090085600000600710500051806032700204008040008000006901450002030900,269145873174382695385679214628713549451896732793254168947568321836921457512437986
