070030806600500207000001500890260004005704000027008039100007060930820000008900005,579432816613589247284671593891263754365794182427158639152347968936825471748916325
030002100200358900064000000000060010050890074082475000000130050510904308690000000,935642187271358946864719532749263815356891274182475693428136759517924368693587421
000070005470053120062000000610430008000102900023065007100300090080090740904000560,391274685478653129562819374619437258745182936823965417157346892286591743934728561
080040000300900016000002805005200003048030091900708600001050900290601500603000047,586147329327985416419362875165294783748536291932718654871453962294671538653829147
045069002100000030000700804007036008206050400050920007090201005020800761030045080,845369172172584936369712854917436528286157493453928617698271345524893761731645289
210503007008920005005000600701000520960001800000870309120080090030040708046300000,214563987678924135395718642781439526963251874452876319127685493539142768846397251
007000598030014020006590030205000960910060842400000100080002700000340006000108050,147236598539814627826597431275481963913765842468923175384652719751349286692178354
500039000007460000300007520926010070000804100408720300003051006090000001150002809,541239687287465913369187524926513478735894162418726395873951246692348751154672839
020804360071209000408000000000000032017900800034152700000008020750600000609701403,925874361371269584468315279596487132217936845834152796143598627752643918689721453
921350007000010000000600024070580200534200009600090301005000400040738900893100060,921354687467812593358679124179583246534261879682497351715926438246738915893145762
900350080004009507300060100107402053206001098030007000000000010409026000805100064,971354286684219537352768149197482653246531798538697421763945812419826375825173964
600010098005004002310007000000020651001003270700650304230008060890502400007940000,642315798975864132318297546483729651561483279729651384234178965896532417157946823
100203005402060309000740001008090007000806450243000080800001000076300200050000798,197283645482165379635749821568492137719836452243517986824971563976358214351624798
000023900700000105306104002007980300439006000502000007048007060060498050100600000,851723946724869135396154872617985324439276518582341697948517263263498751175632489
000000976021506004000387100400600098089010760300050002008900000294008000075104300,853241976721596834946387125412673598589412763367859412138965247294738651675124389
700315060800400900020009070003070401410050286060002007300080000049206000005000103,794315862836427915521869374253678491417953286968142537372581649149236758685794123
000097400000003098020860350210500000980406031003000680360000204400071065708000900,835197426674253198129864357216538749987426531543719682361985274492371865758642913
049002600000000010205134008430090560570800000002400030706001905800006104000520070,149782653387659412265134798438297561571863249692415837726341985853976124914528376
730000000100006940804012065900860010082000006000405070301090000050637001260004780,736549128125386947894712365947863512582971436613425879371298654458637291269154783
709856010000009000050700930600901040200408590001370800368010000010000400040500062,739856214824139675156742938685921347273468591491375826368214759512697483947583162
029760800800900000030005070064020051000053004905100600710040002500210008006008300,429761835857932146631485279364829751172653984985174623718346592593217468246598317
020000009507000164000005830065003090000004001003987050704150020009400603106020700,328641579597832164641795832865213497972564381413987256734156928259478613186329745
097000053348100020000040100430006008005009200600372001201030000070050090060804705,197268453348195627526743189432516978715489236689372541251937864874651392963824715
600507083020130400000008590100400006300071000700090804804620070007003105005000020,691547283528139467473268591189452736346871952752396814814625379267983145935714628
000273500002000010908600700016020040090000860000040351075031094380000000064005230,641273589732589416958614723516328947493157862827946351275831694389462175164795238
006001050107020003054000008000205090080400120900007504203609000510000960700850400,826341759197528643354976218471285396685493127932167584243619875518734962769852431
403010200620800074500006000068400530000090040710020008000509300200060180079030005,483917256621853974597246813968471532352698741714325698146589327235764189879132465
400380000009100230005006000070020100031790804200000605000800740067200509902510000,416382957789154236325976481574628193631795824298431675153869742867243519942517368
069700000010020040040015006800001230500800000601509007072104500000090824003006090,369748152715623948248915376897461235534872619621539487972184563156397824483256791
903407002602030049007010080005070800060900010400005070809054360000382090000100500,983467152612538749547219683295671834768943215431825976829754361156382497374196528
308040002400005306607100090000087020000610548003920010041300005006450089970000000,398746152412895376657132894164587923729613548583924617841379265236451789975268431
000200080030050700907036400804000390050700621100090004700102500062085030001004069,645217983238459716917836452874621395359748621126593874793162548462985137581374269
802600010000007204040950008405000096010530420000000081904010060068320050300009700,872643915596187234143952678485271396619538427237496581924715863768324159351869742
489005020000201006001000040608700000105083009740650012032904051070100000000006308,489365127357241986261897543698712435125483769743659812832974651576138294914526378
002057400900402000001900003000005008450060200000370160080000070290018600034600051,362157489978432516541986723617295348453861297829374165186543972295718634734629851
000907450005016308230000010008309000700040025040700806071005000600001003904820100,816937452495216378237584619528369741763148925149752836371695284682471593954823167
100049705000100600000208000850300194030000000406097820003006010902050360700480059,128649735394175682675238941857362194239814576416597823583926417942751368761483259
000300100060072000780009462009080045050034200016200800021060070008005090340708600,592346187164872953783519462239681745857934216416257839921463578678125394345798621
020504390093000100000700005068400000007960501000001802650000203300092007400803010,726514398593286174814739625168425739237968541945371862659147283381692457472853916
900000030048000071006120500852090006000600009000871000209017083003009050710004000,921745638548936271376128594852493716137652849694871325269517483483269157715384962
000600370800000591039040008002501600006007132380009000500720000140003020020800957,215698374864372591739145268472531689956487132381269745598726413147953826623814957
006450091009002000400801370040305109008070002305006400020060704760120008000009000,836457291179632845452891376247385169618974532395216487923568714764123958581749623
007100030900008001201600005005842000090070200706003008800791062000004059300000804,587129436963458721241637985135842697498576213726913548854791362672384159319265874
601008400020300000500002067416900830070050040009006020703010609208740100090003000,631578492927364518584192367416927835372851946859436721743215689268749153195683274
700068200945000003860004005006200000401003708050009310070100400500087091009020500,713568249945712863862934175386271954491653728257849316678195432524387691139426587
801069030020800000009030500016002970000500400043000260700080024030070006004105300,851469732327851649469237581516342978278596413943718265795683124132974856684125397
406300002012000700703008069048519070960000000000070208300680004004200350500003100,496357812812964735753128469248519673967832541135476298371685924684291357529743186
210049370007200005840530200000000001076005000000480957460850030000301080050070060,215649378637218495849537216584793621976125843123486957461852739792361584358974162
005091064800600570700000002230105000049006200601040008000034781000200090450009003,325791864814623579796458132238175946549386217671942358962534781183267495457819623
010807002000093700508040301000020068340600050009014200406000007000080916200705030,913857642624193785578246391157329468342678159869514273486931527735482916291765834
019003070240051006603002000050680001900300205087000040700020958000904060100000007,519463872248751396673892514452689731961347285387215649734126958825974163196538427
800607400020000079060590001080400037071006502005000100004980300036714800090300020,819627453523148679467593281682451937971836542345279168754982316236714895198365724
000803570090000008070520160100069020030010604800407003007005201602040300500980040,461893572295176438378524169154369827739218654826457913947635281682741395513982746
005020000109500072200498003700003050080200490564010007000001600000760041003000025,835127964149536872276498513792643158381275496564819237427351689958762341613984725
820094000700000064000072010908006407000001058036000000040720906050308020007100300,821694573795813264364572819918256437472931658536487192143725986659348721287169345
081050970000060300023140000900800006006004032040003750000007410510000000270500680,681352974495768321723149568937825146156974832842613759369287415518436297274591683
000006150070009400810570003003600000500138020987045000450000008009020560200700031,392486157675319482814572693123697845546138729987245316451963278739821564268754931
740300092003028010008500604200003908000040000010900570070000006504870100960150300,745361892693428715128597634257613948389745261416982573871239456534876129962154387
005002004680000009030468010300200050002000706907010830700081943001096000000004065,175932684684157329239468517368279451512843796947615832726581943451396278893724165
003000400865000073940020050109307002000502100000840069000234000058100900006008017,213785496865419273947623851189367542674592138532841769791234685358176924426958317
020004030500067048090850002800001090260040003309600710000000001700310680030902005,628194537513267948497853162874531296261749853359628714985476321742315689136982475
012045030000106005700020090024003800000091050003062001000080046956030708078000520,812945637349176285765328194124753869687491352593862471231587946956234718478619523
000409060304010072080000005408607300020008590700500640290100000806032100005706030,512479863364815972987263415458697321621348597739521648293154786876932154145786239
180040503950700080003650200000870902094003010520004600000000760030020008847510000,186942573952731486473658291361875942794263815528194637215389764639427158847516329
700009010900480600001050042107000004005060003020873000400206090063900201000035000,746329518952481637381657942137592864895164723624873159478216395563948271219735486
000300940908060500070080263000100007540008009001290300300025400009670000862040010,625317948938462571174589263293154687546738129781296354317825496459671832862943715
604210000020009005010560300870005490039801020002000070790030000005946000100000860,654213987327489615918567342871625493439871526562394178796138254285946731143752869
003900560900270004014006000000000000527100908006380742079508300002030010030409800,283941567965273184714856293348792651527164938196385742479518326852637419631429875
498002500500300000032560047006700485010020009003009060000016700040980010200053600,498172536567394821132568947926731485814625379753849162389216754645987213271453698
406050301050003820007008004703200010041370060800504900020800040900000706300960500,486752391159643827237198654793286415541379268862514973625837149918425736374961582
020130000000000917068075000903020800000009030400086150630047508004500006087090200,729134685345862917168975423953721864816459732472386159631247598294518376587693241
006804003009000510420030007174000069005073020080400001907051800300080000060009072,756814293839762514421935687174528369695173428283496751947251836312687945568349172
060040208849230000000600001020170084030009670054020030200905060097000000005084003,361547298849231756572698341926173584138459672754826139283915467497362815615784923
006000050230500041000239080081900007620070500054001000003400090018007060900008403,896714352237586941145239786381945627629873514754621839573462198418397265962158473
051000730004800002600013009003050408097304000200060590300200007080100600720508041,851629734934875162672413859163952478597384216248761593315246987489137625726598341
085026409900000072400003860350010920000900683708000000020604010010280005030057000,185726439963841572472593861356418927241975683798362154529634718617289345834157296
070400005000107340006002800240050000607000092015003080000900260801060700009010030,173486925582197346496532817248659173637841592915723684354978261821364759769215438
930060450064090000025130006409000800000000120007540030078309500000800001193002760,931268457864795213725134986419623875356987124287541639678319542542876391193452768
000100000300470890275000004050807900048260003003009100004700530001080002620005409,489153267316472895275698314152837946948261753763549128894726531531984672627315489
030007800006009400240580130007000300150732009680040005000090040012005060300160708,531427896876319452249586137927658314154732689683941275768293541412875963395164728
032800090000040803050003716003070058710020000090605400040900100500000067680012005,132867594976541823854293716463179258715428639298635471347956182521384967689712345
053000020000010006140009500830005000602080070075062300907206054000800901008004230,753648129289513746146729583831475692692381475475962318917236854324857961568194237
400912000007060032690070000150200008070340005000008697005431800940005000008629010,483912756517864932692573481156297348879346125324158697265431879941785263738629514
400500103000090500850620000370010960009300040200800017007000030908700604010468002,496587123732194586851623479374215968189376245265849317647952831928731654513468792
800630007350004000010790450008042300000000082003100790900800001230050900104007200,849635127357214869612798453798542316461379582523186794975823641236451978184967235
032050609040001058050340000076208010800000005000900063009010780001096002060702400,132857649947621358658349127576238914893164275214975863429513786781496532365782491
030009046700400102009000830008050000600002009041703200084907050056004007200100380,832519746765438192419276835928651473673842519541793268384927651156384927297165384
003750806084009020070006100206000300040085901001400570500690400000301000738002000,123754896684139725975826143256917384347285961891463572512698437469371258738542619
006040208702600930510030400067000001004807300800590000030180507201300000080009040,396745218742618935518932476967423851154867392823591764439186527271354689685279143
005096007900400500700008406003520000601037004000000780580640000410309020006010900,145296837968473512732158496873524169691837254254961783589642371417389625326715948
009570000073020064002403080000012470060008001000600093800067210037009000200180057,489576132573821964612493785358912476964738521721645893845367219137259648296184357
004001090038024700070005806500098000006100003200070010000200430000860079019400208,654781392938624751172935846541398627796142583283576914867219435425863179319457268
260704000730080600000000950000509081400030700920006004013020009600815000040603020,269754318735981642184362957376549281451238796928176534513427869692815473847693125
962000030300000750010420800025700081030050406008001200700840000000906018050102000,962587134384619752517423869625794381139258476478361295791845623243976518856132947
000403800070000500356802400000060009608015020001024007012000908005001040700640010,129453876874196532356872491247368159698715324531924687412537968965281743783649215
010208000952000108000039405003017060040083012000500700006070000007924000035060904,314258697952746138678139425523417869749683512861592743496375281187924356235861974
900200600058300000106000740500700026080000319040096000001830004200010807030579200,973241685458367192126958743519783426687425319342196578761832954295614837834579261
650003004009106002000075000701500039800609050020034080490000700000082100203400068,657293814389146572142875396761528439834619257925734681498361725576982143213457968
000908012240050006608400703570001090003020008069307000106805040020030007700000005,357968412241753986698412753572681394413529678869347521136875249925134867784296135
004020730030400500000860090500006301200708049697300000070002000001005468809100050,184529736936417582752863194548296371213758649697341825475682913321975468869134257
