500607000300015400028000000006008745470000090003009610100200906600050030940300158,514627389369815427728493561296138745471562893853749612135284976687951234942376158
000000000005093041870060390001570000002946000506020087047000200100830065000200930,913482576265793841874165392431578629782946153596321487347659218129834765658217934
040006900703004800902030005000001702000080040315000600400108307507200069600095000,148526973753914826962837415894651732276389541315472698429168357587243169631795284
600000009849006000710408200100629078903005600000047010000184590020000406000000730,632751849849236157715498263154629378973815624286347915367184592521973486498562731
520040801007100004000609050200000306003980000415007200000831000094006030070200568,526743891937158624148629753289415376763982415415367289652831947894576132371294568
000540092410003800000000140360007000049058010007010260000080900035100700678902050,783541692416293875592876143361427589249658317857319264124785936935164728678932451
408003052009002030070016800130290007005030064000008003080701020700045900061000408,418973652659482731372516849136294587895137264247658193984761325723845916561329478
400159000361000040075300800090020057006001900000800203007003608038502000120007400,482159376361278549975364812893426157256731984714895263547913628638542791129687435
400000085587200000601000940003008050000100203000604007090053106060800400210790000,429361785587249361631587942173928654846175293952634817798453126365812479214796538
000203800806000170204080039000061204000030001570900360305090680007045000108000020,759213846836459172214687539983761254462538791571924368345192687627845913198376425
102007603069002804050000009008600010604000902700301000001030047480075300003090206,142987653369512874857463129238649715614758932795321468921836547486275391573194286
800604730900000050003000801002010090170003400000785200401908003708100960650040020,815624739947831652263579841582416397176293485394785216421968573738152964659347128
900002150000030000206408000061500089005071300000206010080604705009000000030805402,943762158578139624216458973761543289825971346394286517182694735459327861637815492
005000137004060005300708000800102009019000706570400300200009008000015600056030042,685924137724361895391758264863172459419583726572496381237649518948215673156837942
580600030020000059600013040005040900000800701306972000200700510009300008700268004,584629137123487659697513842875146923942835761316972485238794516469351278751268394
507028003080040000104000605070019000006300508003605209600900800902001040058002030,567128493389546127124793685875219364296374518413685279641937852932851746758462931
710200800489030000500046007003005070600083500040900016208190060090060045000027900,716259834489731652532846197923615478671483529845972316258194763197368245364527981
078160500000089720030007001025000009906003278000010460041008000590240080000705030,278164593154389726639527841425876319916453278387912465741638952593241687862795134
089002503620500080000100060000670300810009400560038009000300020040825097071040005,189762543624593781735184962492671358813259476567438219958317624346825197271946835
800309200020050000306000810700030480009016075431500900102080047000000002003004600,817369254924851763356247819765932481289416375431578926192683547648795132573124698
125000000030000279740068001200450600983002000000300000007000120600900537000801406,125793864836145279749268351271459683983612745564387912497536128618924537352871496
092301000000060800000749005003000004078500060610094027207000931004020670830600400,592381746741265893386749215923176584478532169615894327267458931154923678839617452
300064091920050400670013000090700043000001082805030100007026005000048060503000800,358264791921857436674913258192785643736491582845632179487326915219548367563179824
060030007019080240080090300028641090073008004006200005700000060004520108050009070,465132987319785246287496351528641793173958624946273815732814569694527138851369472
061000083053004900700008040580900704000030106002740059200009015007010200090080360,461297583853164972729358641586921734974835126312746859238679415647513298195482367
500860900470200008360005001710900203000370060000082000030009012107000340080006590,521867934479213658368495721716954283852371469943682175635749812197528346284136597
900008400407000052012056000075340008306080205200600170000037090500120600080009001,953278416467913852812456739175342968396781245248695173621837594539124687784569321
700162030900070000600800000030050002000304800407090610500001009082000504304600027,745162938918573246623849751831756492269314875457298613576421389182937564394685127
293000050000026009801070400507800016036000700000900230080204300049010060170005090,293481657754326189861579423527843916936152748418967235685294371349718562172635894
096400000103800200804607005062003107950070003030200408000050340000001809007006010,596432781173895264824617935462583197958174623731269458219758346645321879387946512
630080410000009007800120090010307008000090500007540600041003200090006035350010080,639785412124639857875124396512367948463298571987541623741853269298476135356912784
000520760840700000000063100000072809085006043090400000213047005900085310600900000,139524768846719532527863194461372859785196243392458671213647985974285316658931427
090080000302500008007400650603010900470900020080730100900070040025000307030001086,596187432342569718817423659653812974471956823289734165968375241125648397734291586
060005049720860000100703000071004203000150080450307006300000190002008605080090020,863215749724869531195743862671984253239156487458327916346572198912438675587691324
054800009000030261300107500070400030500079000028005600007008910030960042001040806,154826379789534261362197584976482135513679428428315697647258913835961742291743856
001090603020016000000204970040570308600401005900080002706002430000368010500900000,471895623329716854865234971142579368638421795957683142786152439294368517513947286
970005810002000509400780603605810400000040900030000001000400002120093000700500080,976235814382164579451789623695812437217346958834957261563478192128693745749521386
409051000080006500001040206007308009020000037508609040813000000000093008000700061,469251783782936514351847296147328659926514837538679142813462975675193428294785361
501004000090700030064021005800000070050600201072105906607400009300002018000903402,531894627298756134764321895816249573953687241472135986627418359349562718185973462
081000400070002390000130500050396010006700000890000040400960020502001800960508000,381659472675842391249137586754396218126784953893215647418963725532471869967528134
307058000006000002020006470100023007700965300090400006000100050038049020005037048,347258169956714832821396475164823597782965314593471286479182653638549721215637948
002800000400700509700650130064000921000090804020100067030081005609300000500002470,352819746416723589798654132864537921173296854925148367237481695649375218581962473
903050008180207004050000000700069210000004609000030087092410000378005046001703500,943651728186297354257348961734869215825174639619532487592416873378925146461783592
400510003001020809709006050000074260680005400000000035214930080000400000900601720,428519673561723849739846152395174268682395417147268935214937586876452391953681724
064200510905047003000000009042030000030528000810690000080013025700000890200000406,364289517925147683178356249542731968639528174817694352486913725753462891291875436
800090070900605804341020050004708510090000300070031028000009680050200100603004000,865493271927615834341827956234768519198542367576931428412379685759286143683154792
005000006400102090000480130390000620060240008001030570639000000800050007700016940,125397486483162795976485132398571624567249318241638579639724851814953267752816943
450006000002480009706300210000605000000070095130000080001090560027010030093208000,459126873312487659786359214978635421264871395135942786841793562627514938593268147
060470000007051400890006501580000920070938005003060000000780030021094760040000000,165479382237851496894326571586147923472938615913265847659782134321594768748613259
000800260807056000010234000500000008380900100600001420095000600100702090004305017,453879261827156349916234785541623978382947156679581423795418632138762594264395817
306008000010000097000050406040006089790240605035010702000704000002085100980300024,376498251514632897829157436241576389798243615635819742153724968462985173987361524
200009350030140800407200060500002037029080100000060080004690720890005403010400006,261879354935146872487253961548912637629387145173564289354691728896725413712438596
000002006174060000900040185040000820023075000706080003600001950001006072008730401,385192746174568239962347185549613827823975614716284593637421958491856372258739461
006080235700002080010600000080760302040091500605004010037209406000400100000030098,496187235753942681218653974981765342342891567675324819837219456569478123124536798
207503090100640520040000800008005014062070300300009600910280040000007003605100002,287513496139648527546792831798365214462871359351429678913286745824957163675134982
300007005000026700604900300030089002000561009580400070007154080200000040058000901,321847695895326714674915328136789452742561839589432176967154283213698547458273961
700150042003000700008709016490002501020468000300000000000200450800036029050001037,769153842213684795548729316496372581125468973387915264631297458874536129952841637
009507001300020406810900200400070028000000003256080007080100002067098500540063000,629547381375821496814936275431675928798412653256389147983154762167298534542763819
080490510320000008009010700006300950004700200000049060010500072060070300042006105,687492513321657498459813726176328954894765231235149867913584672568271349742936185
004060080100502004970010020080000075030489010602300000520907800007130009000008140,254763981168592734973814526489621375735489612612375498521947863847136259396258147
003084006000170090250000100001007000680302400090060280060450807400000510000918030,913284756846175392257639148321847965685392471794561283169453827438726519572918634
005806023830000000046702000370900502200040006084050007100500074000301890098070000,715896423832415769946732158371968542259147386684253917123589674467321895598674231
500000094046009100001207000820000070030406051100500309700980600650104780002000003,578613294246859137391247568825391476937426851164578329713982645659134782482765913
050200680000003000809605001001406053000019068002070000600100570530000004210807900,453291687126783495879645321981426753745319268362578149698134572537962814214857936
081004000053100070700080200600050000104096050000020809002049317000270604030608900,281734596953162478746985231698357142124896753375421869862549317519273684437618925
004100000980006007570240001260570300300800400015020000030005624000609508700000090,624197835981356247573248961268574319397861452415923786839715624142639578756482193
200003670106000980000780020860507010702000430030420800000859000541600000009014000,258193674176245983493786521864537219712968435935421867327859146541672398689314752
040563020009001004068000370050100890000046100700080002076000050203009000090027410,147563928329871564568294371654132897982746135731985642476318259213459786895627413
900870000000460075005002100057029004490000031602080700060500800370000046000690312,916875423823461975745932168157329684498756231632184759261543897379218546584697312
307200080410009600065008930050040007072156400100900806900020001030080020000405300,397264185418539672265718934659843217872156493143972856986327541534681729721495368
003061900002053074700200031028070095004000002600904080009008740010030000005400006,543761928192853674786249531328176495974385162651924387269518743417632859835497216
004503700900060051000791080001000905020037006408900003805410600600000400100870002,214583769987264351356791284731648925529137846468925173895412637672359418143876592
500002000682100300009600408130090057900830102005040006000009500051407000007020013,543982761682174395719653428134296857976835142825741936268319574351467289497528613
000001000548090000097030240705809100000200003069140500013007460002000805600008901,326481759548792316197536248735869124481275693269143587813957462972614835654328971
000016870000250604109047002851000030040100906000780025703020000582603000000500090,425316879378259614169847352851962437247135986936784125793421568582693741614578293
640100207200000048300005900004000050100080306009327100018430070050600009720009000,645198237291763548387245961834916752172584396569327184918432675453671829726859413
050900760470001308000030400302807006040190000001003025520000000806504091000086004,153948762479621358268735419392857146645192873781463925524319687836574291917286534
000008070130000002029300605070980050450002306000004800200750000504600008096043001,645298173137465982829317645371986254458172396962534817283751469514629738796843521
000473000902000004000060385306000010487009026000050408800500009070201050190730600,568473291932185764741962385356824917487319526219657438823546179674291853195738642
079008000050269040004005002000090017030820050065030004700040130041000200006007098,279418563853269741614375982482596317137824659965731824798642135541983276326157498
300906000020700903080400507010009600750000020039605014068200005204083000000004870,347956281625718943981432567412379658756841329839625714168297435274583196593164872
060000200893050070000000851100002009308000640040780005205103007007098004009620030,561874293893251476724369851156432789378915642942786315285143967637598124419627538
030000040061009300800600570000204080000350604950080007300041800780960010012530060,237815946561479328849623571673294185128357694954186237396741852785962413412538769
764000301200800005089040000003056090000004006800012400020090050095031004300070100,764529381231867945589143762413756298972384516856912437127498653695231874348675129
500300090083000200720809006100406820040708000009030100607020000400571030230000950,516342798983167245724859316175496823342718569869235174657923481498571632231684957
087100060000065000120900030840290300360051470002030800005080219204600000030000007,587123964493765128126948735841297356369851472752436891675384219214679583938512647
090035040040080570010400000600000010500010632200079000058002003003947080007008460,892735146346281579715496328684523917579814632231679854458162793163947285927358461
000000000971506002203081056004039010056200007100008300000403670000002090698070400,865327149971546832243981756784639215356214987129758364512493678437862591698175423
702300400800900100041000096460070019050080000003002508310640850900810040000205070,792361485836954127541728396468573219259186734173492568317649852925817643684235971
000009071605300080080260400050640300920087504001000000040010298008426005300500100,234859671615374982789261453857642319923187564461935827546713298198426735372598146
005301200800200540043070006056000001108000420000083700007005032010096000064000097,695341278871269543243578916756924381138657429429183765987415632312796854564832197
905002078067010000400090102100830004020000307008604590000205400090070816306100000,915342678267518943483796152159837264624951387738624591871265439592473816346189725
630000500000020043080704109000459000407180002009006080205060490000801000300540670,634918527971625843582734169823459716467183952159276384215367498746891235398542671
040100000007020068301560020000900840670400950050007001030802006405030000802690003,246178395597324168381569724123956847678413952954287631739842516465731289812695473
006170380009000100300208040700096002003805004400031600090002070502080000008360050,246179385859643127317258946781496532963825714425731698694512873532987461178364259
000000020009100706480900001010070005000830607056009804042600500100320908370004000,631758429529143786487962351813476295294835617756219834942681573165327948378594162
400070003809002714005003090501000400946005370000100860700800000060300582200064100,412978653839652714675413298581736429946285371327149865753821946164397582298564137
500002003701000000283690500009800204000005107000160050000507806360001020870930010,546712983791358642283694571159873264638245197427169358914527836365481729872936415
756108900080039001300200004000900078821005400005006000100700039004623100000000005,756148923482539761319267854643912578821375496975486312168754239594623187237891645
030040020746093800000007060500020070300104500201076380109005600000008005600410009,835641927746293851912857463584329176367184592291576384129735648473968215658412739
