108900400000060905020004030000100600300709204075300080500032890089650000604001007,158973462743268915926514738892145673361789254475326189517432896289657341634891527
149000000800090630006001070000059140008370065090004807270610500650007080004023000,149736258827495631536281479762859143418372965395164827273618594651947382984523716
005400800062010000700609003003072098084306000210000050800500247500043600070090100,195437862362815974748629513653172498984356721217984356839561247521743689476298135
100403800709000604063000020000570006800091750020800049200019005000302010004008370,152463897789125634463987521391574286846291753527836149238719465675342918914658372
000005076608400000019802300002907000000004005097086041403008012021000000970300060,234195876658473129719862354542917683186234795397586241463758912821649537975321468
104900025002060000090001003037400016506020009000500070008130640700098001000750030,164973825372865194895241763237489516516327489489516372958132647743698251621754938
600080000715090008800040367000821030100000000009630045004200609020009700008573000,643782591715396428892145367457821936136954872289637145374218659521469783968573214
540300008000720000000001746020008010309605000086900073130090000052840900900000260,547369128861724395293581746725438619319675482486912573134296857652847931978153264
840013050205080009000000300014870520060005040000290070308620017070300000409700800,846913752235487169197562384914876523762135948583294671358629417671348295429751836
040309010160080409700050000305002680200031000010000007000706394406010520902800000,548369712163287459729154863395472681287631945614598237851726394476913528932845176
000098740004605390002070016006800900005240800170309060400000035020700600830001420,653198742714625398982473516246817953395246871178359264467982135521734689839561427
060000300008709002504018900087205014005000008312600007000096800401003000000450023,769542381138769452524318976987235614645971238312684597273196845451823769896457123
150780000203100000000034060840000106005900230070608095401003600007500040080029007,154786923263195784798234561849352176615947238372618495421873659937561842586429317
000100603080509000107020400068000070005008912009050360700094000900210057032070009,524187693683549721197326485268931574375468912419752368751894236946213857832675149
093460020800090700507000041706051002000320090080706100305080000200004068040203010,193467825824195736567832941736951482451328697982746153315689274279514368648273519
010000509004300080080026004549070001830205000001809700000500600020167030900038070,312784569694351287785926314549673821837215496261849753173592648428167935956438172
006010354000200700730000800005001230079300006410706000002000040850040109060080500,926817354548239761731564892685491237279358416413726985392175648857643129164982573
010040832500670409040300070490006705000000201782000090050890000008002004006015300,617549832523678419849321576491236785365987241782154693254893167138762954976415328
210590008057040900000600020006007432021800700305006090080060000009310080740000105,214593678657248913938671524896157432421839756375426891182765349569314287743982165
000500006000723400790180200400098060023004500010200930058000000000005609200460070,382549716561723498794186253475398162923614587816257934658972341147835629239461875
009305017070160000840200503000002030010870402005000690684003170902004000007500200,269345817573168924841297563498652731316879452725431698684923175952714386137586249
006789500520400000100006080870650021402000058010070003000007006009300240730008100,346789512528431679197526384873654921462193758915872463251947836689315247734268195
380460000000029500500730204008900632000000415010054800000008920201070000046300007,382465791174829563569731284458917632927683415613254879735148926291576348846392157
040009000003060001007802536109204070060300029800900150300750400070001300026000008,645139287283567941917842536159284673764315829832976154391758462478621395526493718
300090080000100607060084002530970004080051000002006019018700300740310050900200400,324697185895123647167584932531972864689451723472836519218745396746319258953268471
100050024650089070072301000740000058080620300301000906900037000000405061000060500,193756824654289173872341695746913258589624317321578946965137482238495761417862539
000678040400010007009520160010800950907000016000950002005203600730080000046000280,521678349468319527379524168213867954957432816684951732895243671732186495146795283
030400250509080000800001960000007800600130040020046530407200090980510007060703001,136479258549682173872351964354927816698135742721846539417268395983514627265793481
000050702040000008801090460002301500900870036605240000000080020006907103200000954,369458712547612398821793465782361549914875236635249871193584627456927183278136954
805013060604500020020000107260090034400007005001380090507400082000000903300068000,875213469614579328923846157268195734439627815751384296597431682186752943342968571
000815302008097000050062000062001507035000190010000804090200400304080060700030010,679815342248397651153462978862941537435728196917653824591276483324189765786534219
067000400020008050510490072000010307000280040140600089400970023003000506680020010,967152438324768951518493672892514367736289145145637289451976823273841596689325714
000008010930060020084019700000000075740020000603401008306000080100052903005780060,567248319931567824284319756812936475749825631653471298326194587178652943495783162
670800005901200000000540700002930501000000278548010006020476093000000602890000010,674893125951267384283541769762938541319654278548712936125476893437189652896325417
000749050209010030008000060500003280086200500130008009040925600020060104907400000,613749852259816437478532961594173286786294513132658749341925678825367194967481325
063090500020300047050028901000760050410000006270004809000070100091006003800059002,163497528928315647754628931389761254415982376276534819642873195591246783837159462
006027103030400090800109420700000065090070000600054810207086040000040080050003001,946827153132465798875139426784312965591678234623954817217586349369741582458293671
190500006200061890004007000500000004600010782023600001437280500000000600000950030,198532476275461893364897125581729364649315782723648951437286519952173648816954237
040900617860050200000300040020500000710806004009004570380702001901000002000083096,543928617867451239192367845428579163715836924639214578386792451971645382254183796
200000800069000054000730100602008000050096073004050002003080500970620040180300200,217564839369812754548739126632478915851296473794153682423987561975621348186345297
000001790754803600002650800360008000005020009000410370100000560280004010007060430,638241795754893621912657843361978254475326189829415376143789562286534917597162438
009000680021040050700300409068001000010438200400520100030060020690007005000050704,349175682821649357756382419268791543915438276473526198537864921694217835182953764
000507420000306050200000039530100070040009080609050000902400001160085740480060003,316597428894326157275814639538142976741639285629758314952473861163985742487261593
003008401000600700520090060600400103108500009047020000010040800074060035295030000,763258491489613752521794368652489173138576249947321586316945827874162935295837614
080050000003008907000062140490720003010805704072030000600000010940200300530019680,184957236263148957759362148495721863316895724872634591628573419941286375537419682
206405100010000507090000060642007010800001003037908054080000290005030400400760080,276485139318296547594173862642357918859641723137928654783514296965832471421769385
060803500490070000000000021080000305300091080024000670200009043010052060907310008,761823594492175836538964721689247315375691482124538679256789143813452967947316258
705400860004300000030895400009521600800000019000006020021000038070104052900070000,795412863184367295236895471349521687862743519517986324421659738678134952953278146
900000062020070508035100090090015070001046200000703800700601003004320000280900607,947538162126479538835162794498215376371846259562793841759681423614327985283954617
200009874050700900100006300005100020600045010000030048090857006030290005008004107,263519874854723961179486352345178629682945713917632548491857236736291485528364197
070000004045701008209508360104030005000085002600900030020690100593002070700003080,876329514345761928219548367184236795937185642652974831428697153593812476761453289
360709000248000050907000100713500020005410900004006030000082610500060304000900870,361759248248631759957824163713598426625413987894276531479382615582167394136945872
600920013308057000040001000070800690800002000029060307093014200280300509500000700,657928413318457926942631875175843692836792154429165387793514268281376549564289731
201960005600005700030000020050201486008030009009604000000300004790012500003870160,271963845684125793935748621357291486468537219129684357812356974796412538543879162
000090003206080007009006210900400370003500000810700029001004060620001504057030800,184297653236185947579346218962418375743529186815763429391854762628971534457632891
908076040420089100700000500037040000000230600000900207300800060014092080095001003,958176342423589176761423598237645819189237654546918237372854961614392785895761423
068090301002080000301006907004710002020039005050002060080004030000070654090250100,568497321972381546341526987634715892827639415159842763785164239213978654496253178
090001086410009200500600309900820050600030000048790001300502140800000067075060000,793251486416389275582647319931826754657134892248795631369572148824913567175468923
025000800000500630840690100001950000000300790307020405008170060000409020014000308,625731849179548632843692157461957283582314796397826415258173964736489521914265378
003000000650724009000693802060100004800000027030970610900200040105300098004050700,293581476658724139741693852567132984819465327432978615986217543175346298324859761
100002860000005000009070104004800600306049010510023009200010700085000040040960053,137492865462185397859376124974851632326749518518623479293514786685237941741968253
300102007240090000900705800870000430400000671091000005060304700108007002000851090,385142967247698153916735824872516439453289671691473285569324718138967542724851396
040008100500361020300000090060703805200090400705610000007280006400007500039500071,642978153598361724371452698964723815213895467785614932157289346426137589839546271
080005604040872000503090010920000300100409007360500408802000703005107920000000005,289315674641872539573694812924768351158439267367521498812956743435187926796243185
047082600209500400000010070000700910500063004372009008003000040000051806008076352,147982635269537481835614279486725913591863724372149568653298147724351896918476352
090207000080605013000100407402300008960050100050002006600400000000018034300790250,194237865287645913536189427472361598963854172851972346615423789729518634348796251
400107006003500000705200100080000690002804007501093004900002751007306900008005200,429137586813569472765248139384721695692854317571693824936482751257316948148975263
000480020540000370079005000091000080406900002005063049030102004008040050200398060,163487925542619378879235416391524687486971532725863149637152894918746253254398761
000002084010000000020863017873040900004201000000000705245190300031625008900700000,357912684618457239429863517873546921594271863162389745245198376731625498986734152
070300000500082170204000090030705060016009500800041000020490000000006415607500300,971364258563982174284157693439725861716839542852641937125493786398276415647518329
903800501070006400001090078305008740000000003096405012129070080048300060000502000,963847521872156439451293678315928746284761953796435812129674385548319267637582194
004795000001030002870001003060023180020040300500007090010976500050008007006000400,234795861691834752875261943967523184128649375543187296412976538359418627786352419
005070402000300085870000103049830070600190500300020040200009000490612007080050006,135978462962341785874265193549836271627194538318527649256789314493612857781453926
230004060706500000004062007000020000002196350058070900600900084017000030040051092,231784569786519243594362817369825471472196358158473926625937184917248635843651792
300982000075030090010060403204007008060000301003008050009001000507000024080250609,346982517875134296912765483254317968768529341193648752629471835537896124481253679
004000900100580030076100508001030006000870190290040750040060000002007080035902604,584723961129586437376194528751239846463875192298641753947368215612457389835912674
140500002602009000003000840308204700070086000000010280510000067906070000020403015,149538672682749153753621849368254791271986534495317286514892367936175428827463915
079400002640019000500002008923000600005600013000008007000000020008120736006087459,879453162642819375531762948923571684785694213164238597357946821498125736216387459
000031007087000009360500024200809061590000000700604300002783010001400002004060950,425931687187246539369578124243859761596317248718624395952783416631495872874162953
760008310900700084200090000600005043070003000009801502000602005010080490030040700,764258319951736284283194657628975143175423968349861572497612835512387496836549721
394080002000504600000970080020005000070028031850700096908200040100063000002410005,394186752287534619516972384621395478479628531853741296968257143145863927732419865
080000592560040070001802006009008305200000004450001760807900003620000900043570010,384617592562349871791852436179468325236795184458231769817924653625183947943576218
000504029000100607203900000045302080900086041070000300009000200620040053010075904,761534829594128637283967415145392786932786541876451392459613278627849153318275964
000000670004910200502603098908076000300401009060520803009700020010035000007008450,193852674684917235572643198948376512325481769761529843859764321416235987237198456
906870010504306007000100500600000040087000320400910000000492830002000670800703091,936875412514326987278149563659237148187654329423918756761492835392581674845763291
710006009200900740600820000001630000040050060300104257120003084030080501059070000,715346829283915746694827315571632498942758163368194257127563984436289571859471632
801000060000004703700582040017040005030106207900200800024001050605009070009830000,841397562592614783763582149217948635438156297956273814324761958685429371179835426
930006200014907803000240007500700600008031520009060004400000000002800750600090018,937186245214957863856243197543729681768431529129568374481675932392814756675392418
104037000207006901050800060000450093008021750006000802800300040010070005030009206,164937528287546931953812467721458693398621754546793812872365149619274385435189276
803070500000804010021000003008605000500010020619000780092150300360000470007046900,843271596956834217721569843278695134534718629619423785492157368365982471187346952
007091005200000394060050000009060837840507100010000002408000070000708901005032406,387491625251876394964253718529164837843527169716389542498615273632748951175932486
604100920032000007509700030000045001100902570900600403003068000081390600000507008,674183925832459167519726834367845291148932576925671483453268719781394652296517348
010802060003050007040709503020000096000316200800000070002605009074100052360900480,517832964693451827248769513421578396759316248836294175182645739974183652365927481
408000710006800030020050009700008300000410050109300604830100547090702003601040800,458239716916874235327651489745968321263417958189325674832196547594782163671543892
800270309000960000300000752005000904070084006032697010053042008200100500706000100,814275369527963481369418752685321974971584236432697815153742698298136547746859123
300100069085700140090025700100002000009030605047800010063007000018954000204000080,372148569685793142491625738136572894829431675547869213963287451718954326254316987
000290007605000080370800104420500300001008002900107800503700009800004526049010030,184293657695471283372856194428569371751348962936127845563782419817934526249615738
006032400000108500000400368050200000248506107607000009701000080020047610900003005,586732491493168572172459368359271846248596137617384259731625984825947613964813725
902001000080020000760054090500000010800730062436009008309060700010047056000500083,942671835185923647763854291527486319891735462436219578359168724218347956674592183
600000320030000090015023040040080530980106000200070609007402010190600004300005007,679541328432768195815923746746289531983156472251374689567492813198637254324815967
