306000809070060020009507010800359700700008900015604003007400002030810000200030540,356241879178963425429587316842359761763128954915674283687495132534812697291736548
030017620046008709090400005600084000002090400000620130100053007008100900307000260,835917624246538719791462385613784592582391476974625138169253847428176953357849261
380905140700000000021300008400050700800601000960040020600012970004007513050490800,386925147749186235521374698413259786872631459965748321638512974294867513157493862
003700900207100080001540006402068307035420608000000004900010240100273000006090500,543786912267139485891542736412968357735421698689357124978615243154273869326894571
009803500040019002807060940700300000080090050300028010000000060005472003210530407,129843576546719832837265941791354628682197354354628719473981265965472183218536497
001029004700600091000750800500342010610007000800000020005060970003018465020900003,361829754758634291249751836597342618612587349834196527185463972973218465426975183
009210300604000570000065018000008009030970206206040700780190045000030000142700000,859217364614389572327465918571628439438971256296543781783192645965834127142756893
408000002530090168020050000000001050000673800940028007180304000360700409050000630,498136572537492168621857943873941256215673894946528317189364725362715489754289631
980130060007400001502060904103506097000307008000002010020000003700090420608004050,984135762367429581512768934143586297295317648876942315429651873751893426638274159
060017000700036905000509740003000501091200800000045200680004000019060008402980030,965417382724836915138529746243698571591273864876145293687354129319762458452981637
050670908029400170004090200001003020000000605570001000490810030208950000600000700,153672948829435176764198253941563827382749615576281394497816532238957461615324789
600053000004000080080609013009105002003090001060028007238070040900400020071000356,612853974394217685587649213749165832823794561165328497238576149956431728471982356
009100000030006902506700041004009708700050209010300060070032000061008094008461500,849125673137846952526793841654219738783654219912387465475932186261578394398461527
408109200030500000620030081000940015000870900042001600307000890080700000105604023,458169237731528469629437581876942315513876942942351678367215894284793156195684723
300027006000600510042080090080060000409200031763001004004850003108046070500000020,315927846897634512642185397281463759459278631763591284974852163128346975536719428
529087001001300400407020090000002050708040060362500009000006004005009270100070380,529487631681395427437621598914762853758943162362518749273856914845139276196274385
100020096050003040207680100008030005000071004704900681305210000020560000001009070,143725896856193247297684153918436725562871934734952681375218469429567318681349572
080700020600082901900165034270008100004000050003001089052403000000009700100600005,381794526645382971927165834279548163814936257563271489752413698436859712198627345
000008002907200605600510030000300064015000000002740598003802700048096200050000900,531968472987234615624517839879325164415689327362741598193852746748196253256473981
020400010003198700000032800600000045300207009108003006087050060940000000506710920,829475613463198752715632894672981345354267189198543276287359461941826537536714928
000000140812000000450006007000190000380504700700030095006002401920750803000043059,697325148812479536453816927265197384389564712741238695536982471924751863178643259
034800000100603802500790100060010009003400007085307420092045008706000010000000503,634821975179653842528794136467512389213489657985367421392145768756938214841276593
908700034000002000104030802000023009813090007040500160500807000060010520300040096,928751634736482915154936872675123489813694257249578163592867341467319528381245796
008206000910070203000019045103045090500800170000900002004023506000600700380007001,438256917915478263672319845123745698569832174847961352794123586251684739386597421
623070090000402510504080070000039026300521840008000001007004930050006000001700004,623175498789462513514983672145839726376521849298647351867214935452396187931758264
700056000000043009930001800100500400060200087875000002000008300620090100304060705,748956231251843679936721854192587463463219587875634912519478326627395148384162795
409002000080061020000000105062700030000236490070095008800004603003910000521080004,419352786785461329236879145962748531158236497374195268897524613643917852521683974
004000610009003208800010009076540300000380002050020940700250100180904700900700060,534892617619473258827615439276549381491386572358127946763258194185964723942731865
009600100800304206200000089501060400400027003073009000100070034007050968050408010,739682145815394276264715389521863497498127653673549821182976534347251968956438712
100063070000105920009280600200070090063490005047006082780030100050000004006850000,124963578678145923539287641215378496863492715947516382782634159351729864496851237
087050000000710904050460308000500609031006027604200830902080500003100000700940002,487359261326718954159462378278534619531896427694271835912687543843125796765943182
680400701100080020003007690009050067230000500000602004070300800004018905820900010,682439751197586423543127698419853267236741589758692134971365842364218975825974316
029040001670500208105307060050004306700815400090000000060000700003009812800400003,329648571674591238185327964251974386736815429498236157962183745543769812817452693
075904200308005000900020107460100098007600030500800406600030072004570000013089000,175964283328715964946328157462153798897642531531897426659431872284576319713289645
100800304304001075092000080005329000000405600007060049009504700600007900000080023,176852394384691275592743186465329817918475632237168549829534761643217958751986423
006040310305000870000100009040720006700080530000016002800069007007430090920508400,296847315315692874478153629143725986762984531589316742834269157657431298921578463
260008014000070605800009007089501020530040009610000000470180000900036750003002006,267358914391274685845619237789561423532847169614923578476185392928436751153792846
400002000109700036850090000530060210040309570000008000200010047076080300000506080,467832195129745836853691724538467219641329578792158463285913647976284351314576982
309608047100000203750000006040370080900006000000100562087010409030000075002004300,329658147168497253754231896246375981915826734873149562687513429431982675592764318
050700080604050000001900200040010003320560700070043698800001350000020070090078016,259736184684152937731984265946817523328569741175243698867491352413625879592378416
005107602006900700301000000029540006030700140000083007400010008062005390090426500,945137682286954713371268459729541836638792145514683927457319268162875394893426571
503007120140300009007000800004129000815003200060400070002010530900708060056004008,593847126148362759627591843374129685815673294269485371482916537931758462756234918
090600200004800000630059000700400091050018003200070068041020980560390100002005040,895641237124837659637259814783462591456918723219573468341726985568394172972185346
900030000062040001000658000100320700007006000000507389050180204304900065721000800,975231648862749531413658927198324756537896412246517389659183274384972165721465893
008060453003000016050024970702403090040050000009000804600071005307005620080900100,928167453473598216156324978762483591841659732539712864694271385317845629285936147
050007610630400080004100009086030052010240900700050000007800500320900140400010206,259387614631492785874165329986731452513248967742659831167824593325976148498513276
207008091004507800906020700090200004040903010002004380000015207031060000700300005,257638491314597826986421753193286574845973612672154389469815237531762948728349165
005037008061005040000100290710900000200064800340800027084000300097008162000600500,925437618861295743473186295718923456259764831346851927684512379597348162132679584
050306907040805006001000800860700010000004200009530084092000700300160020000073500,258316947947825136631947852864792315513684279729531684192458763375169428486273591
000830200094010750000000360700002600635904000010007085208090030950078001047000000,576839214394216758821745369789152643635984172412367985268491537953678421147523896
007100960003720004600394010000051670950040008010600020000000300062900500041008007,427185963193726854685394712234851679956247138718639425579412386862973541341568297
060840039209005000005701000080074600002100090154030028090006200306000040000580010,761842539249365187835791462983274651672158394154639728598416273316927845427583916
750080090023700800000002600860490700004001000002036010095100374308000002000640950,756384291123769845489512637861495723934271586572836419695128374348957162217643958
000207304050006801302000090400900000201048700068700030087600040004301006090050102,816297354759436821342185697475963218231548769968712435187629543524371986693854172
050000004380069200902030080001008500760020008430000007000310605540090012023640000,657281934384769251912534786291478563765123498438956127879312645546897312123645879
860001900004500030002900068309002007000310205400807390080420500700008000013060400,867231954194586732532974168359642817678319245421857396986423571745198623213765489
070620510805401003260900040500080074010050200003700001900006032008090000640503790,374628519895471623261935847526189374719354286483762951957846132138297465642513798
000495603200000090000031800601000704007106350400980002985700000070020408100003005,718495623234678591569231847691352784827146359453987162985714236376529418142863975
000002160460930000052000800800600409070105026300790500201008005080040907007500030,739852164468931752152467893815623479974185326326794581291378645583246917647519238
007030290008006730050900006683009501010002340402000089706200050000104003000568000,167835294298416735354927816683749521519682347472351689746293158825174963931568472
040925001375600008902000400000036082001407500080190060009300047028010005600004009,846925371375641928912873456794536182261487593583192764159368247428719635637254819
003106900050430000001070080030000794009050260860200010200000570748009100000012000,483126957957438621621975483532681794179354268864297315216843579748569132395712846
000140000054700089069000000200070004400031025078000010010400060007900058900628037,382149576154762389769385241231576894496831725578294613813457962627913458945628137
800305070720840000005109004270000510000500060300900708000700039080090156003004200,894325671721846395635179824279468513148537962356912748562781439487293156913654287
006300057950042608302000000000709020508060140000004700065000910190800003020050060,416398257957142638382675491641789325578263149239514786865437912194826573723951864
000040008006700020700120056800600205500090100473001800029570000008300407140009000,235946718916785324784123956891637245562498173473251869329574681658312497147869532
019500200004000006370008190730820004000000500200305809001000300080671000060203480,619537248854192736372468195735829614198746523246315879521984367483671952967253481
100805000304020090050003760000400500027019030090000871502078006003600900068200407,176895243384726195259143768631487529827519634495362871542978316713654982968231457
800000720400052000001060508700000905050004000230180006010090034073600100508320090,865413729497852361321769548784236915156974283239185476612597834973648152548321697
000004200018500094096007310000070020030012940040008071060900000100065830759040060,375194286218536794496287315681479523537612948942358671863921457124765839759843162
300000600091002043002071589910850070000640000057010030703000008060000902080420010,375984621891562743642371589916853274238647195457219836723195468164738952589426317
180620390005030700030890020000100046800000039003580100002910080640050010907000004,184627395295431768736895421529173846871246539463589172352914687648752913917368254
900003605016002007325008010230000040000000069004051380190786000008209000703400000,987143625416592837325678914239867541851324769674951382192786453548239176763415298
005700400008000170020003089010670000047012000206308050000090036000504200000861590,165789423938426175724153689813675942547912368296348751451297836689534217372861594
070895001305000400060010070086072090000000230100960000090257800400100007003040015,274895361315726489869413572586372194947581236132964758691257843458139627723648915
000008005106240003730609000000000420094015070670000008800302041015470082900000030,429138765156247893738659214581763429294815376673924158867392541315476982942581637
059003000017020600860000000000075891000000004030461205580900703001007080706100029,259683147417529638863714952624375891175892364938461275582946713391257486746138529
000000005030170000240800169056000890700012000304080000905400037010765020000930040,861294375539176284247853169156347892798612453324589716985421637413765928672938541
050018400360070080070230090200840100003005004006003720430960002089000006001007500,952618437364579281178234695297846153813725964546193728435961872789452316621387549
208003704050810900640000000703900002460270001009030800500007060000460038010002005,298653714357814926641729583783941652465278391129536847534187269972465138816392475
080257490050000083402030000000900500026400100801720000000060930375008640040000051,183257496957641283462839715734916528526483179891725364218564937375198642649372851
048295600300000072051703000005026498006001000000409007080010340002540000600000805,748295631369184572251763984175326498496871253823459167587612349932548716614937825
050010400003082070179600000700005800918000302000000046400803500020040630300057190,852719463643582971179634285764325819918476352235198746491863527527941638386257194
400009200009000370056203090302075801045001900800900060130480000020100704060350002,483769215219548376756213498392675841645831927871924563137482659528196734964357182
020807060500100900834600700600000070003050800040903050107420380002300015009080040,921837564576142938834695721695218473213754896748963152157426389482379615369581247
000073040000900200572000080900780120040000760008301000010005000300100496207800030,891273645634958217572416389956784123143592768728361954419635872385127496267849531
040021500008090060710400090091500083056100000000630020900008074080007000430005002,649821537528793461713456298291574683356182749874639125965218374182347956437965812
109060870000001930604700002006003090407150000523084000000029140700035600042000008,159362874278541936634798512816273495497156283523984761365829147781435629942617358
802000509000010036004503207103705008090106004000020060570604000020000140908200073,832467519759812436614593287163745928297186354485329761571634892326978145948251673
009300027270500100600004050400070080091200030030806045080050090007430600020608000,549361827273589164618724359465973281891245736732816945386157492957432618124698573
810200490904000000605700080100600800030092546009030000057008300000013208000420060,813256497974381652625749183142675839738192546569834721257968314496513278381427965
400005001380079200021800059006750000013006048000430900500304010000900620867002000,479625381385179264621843759946758132713296548258431976592364817134987625867512493
601070000003000504270053910048905060060000305009120700000007430095600180000008002,651479823983261574274853916748935261162784395539126748826517439395642187417398652
809020103004703008500100000402800500000001097010560040005008001000302064670000000,869425173124793658537186429492837516356241897718569342245678931981352764673914285
004300005000090100300000862080974500501060000006001287905200401062700000700150003,614328795827695134359417862283974516571862349496531287935286471162743958748159623
007605000082090007530021040003060000000802901600057208010000306008940002709000500,947685123182394657536721849823169475475832961691457238214578396358946712769213584
200000065007008090080500207000902056100007489300040001504023000006480013009005000,243791865657238194981564237478912356162357489395846721514623978726489513839175642
908000470006007300000014005001052004200600709370080060100400900500960083020305000,958236471416597328732814695691752834285643719374189562163428957547961283829375146
000170030700300048950086700081500000002030107000009064007064200208000091500020306,824175639716392548953486712681547923492638157375219864137964285268753491549821376
090000640003256008280070003960000000700328109000900854000030021415000000002840070,597183642143256798286479513968514237754328169321967854879635421415792386632841975
