001305008700060000000028640900100065050649203020800000200000307095010400678900000,461395728782461539539728641943172865857649213126853974214586397395217486678934152
304002100100000850052790040010004500008600007970030001003020006609580000080409300,364852179197346852852791643216974538438615297975238461543127986629583714781469325
000500009000004870680090020400803052052007060063000100020480003700036010509010480,214578639395624871687391524471863952952147368863259147126485793748936215539712486
600008703100500290082900045050409000701000900030080026040605000006723000523000100,695248713174536298382971645258469371761352984439187526947615832816723459523894167
650000400000809210008040700000000050003762800412030009200070904907201003385400000,659127438734859216128643795876914352593762841412538679261375984947281563385496127
003700046542000003008005190010009300230800054060200007700080000900304805004056001,193728546542691783678435192417569328239817654865243917756182439921374865384956271
700001200050060008080052470000900120007005840804037006308096750620400031900000000,739841265452769318186352479563984127297615843814237596348196752625478931971523684
300008004001060090006007058500094107002005060790300800005430901200080000409050073,357928614841563792926147358568294137132875469794316825675432981213789546489651273
000169035300800069000200470680050012040908000030010900720000503090047001506090800,478169235352874169961235478689453712147928356235716984724681593893547621516392847
006013500020094010800560300305041920000000760718600000007030849180905000000002070,976213584523894617841567392365741928492358761718629453257136849184975236639482175
095800210034005006006090480300070800501043060020000090408006000170200000000001537,795864213834125976216397485349672851581943762627518394458736129173259648962481537
960800100070000603400072005000019400190050067803400020006000080302700509700041030,965834172278195643431672895627319458194258367853467921516923784342786519789541236
050706008609010203000000040070803402040600107230000000098504600100028050500300709,452736918689415273713289546971853462845692137236147895398574621167928354524361789
008400310507002400009008000083041200600000904020063087090050720700106000304800509,268479315537612498149538672983741256671285934425963187896354721752196843314827569
400610030067090045510307200900260410038500002000001070024009807000008900000050004,482615739367892145519347286975263418138574692246981573624139857753428961891756324
501000000070200080200014590760300020080690010093000004000086209009005163014030007,541869732976253481238714596765341928482697315193528674357186249829475163614932857
085000930400080076001302004507106200830040500000900040190005000002401600600800709,785614932423589176961372854547136298839247561216958347198765423372491685654823719
090030000300400012250609004940510073070000840500020600400350700610090050000800039,894132567367485912251679384946518273172963845538724691489351726613297458725846139
090032000607000080820005041030940600205000000001000738500104063400690050080200010,194832576657419382823765941738941625265378194941526738579184263412693857386257419
060700204000000610809040300090002003070601008006095041284350090000000070057168000,563719284742583619819246357198472563475631928326895741284357196631924875957168432
026003051000089704000201000408070510190064030070090060039000000701000802200507600,826743951513689724947251386468372519195864237372195468639428175751936842284517693
059830206600700080400000097070043000800005609261070300080091050020506004004020100,759834216612759483438162597975643821843215679261978345386491752127586934594327168
014005000700000296698070000007018030059430007006200400043109062000600983000080105,214965378735841296698372514427518639159436827386297451843159762571624983962783145
000010000438067009000805602245008010900100030000006274004000500167090300080723000,652419783438267159791835642245378916976142835813956274324681597167594328589723461
095000317270010908800050000008000061760804500040300000030905004902406005006000780,695248317274613958813759246328597461761824593549361872137985624982476135456132789
300040010061000002084609700470003190030060050502800306190002807008750000000000041,357248619961375482284619735476523198839167254512894376195432867648751923723986541
180007400007042309090000050006003010810020703005690040640738001078005000300060002,183957426567142389294386157426873915819524763735691248642738591978215634351469872
060400237030650400009027000571000040000200160640005309103009506004810920080000000,865491237237658491419327658571963842398274165642185379123749586754816923986532714
010809720006000043000160009802006500004570000003002017321090400008301690050240080,415839726986725143237164859872916534194573268563482917321698475748351692659247381
093010000000002706100580003874200030000051040520003600050040100609007080010090472,293716854485932716167584923874269531936851247521473698752348169649127385318695472
060030029908016500300007400810070200040601000005042800070050901009000370002098050,467835129928416537351927468816579243243681795795342816674253981589164372132798654
014068090703005600090420000600849005205070030040000800970032001001006320000700509,514368792723195648896427153637849215285671934149253876978532461451986327362714589
023000050506070009010002008439060000002000005600291400080035607790840002000700104,823914756546378219917652348439567821172483965658291473284135697791846532365729184
309040500060080920004210607006050000705102003010003240001060000092407080080000070,329746518167385924854219637236854791745192863918673245471968352592437186683521479
570800600000000023100920400690008250000740000031060009905480700084003065020107900,572834691849671523163925487697318254258749316431562879915486732784293165326157948
502080007400001096010705803020569000004000280307020000780100049005008070096003100,532986417478231596619745823821569734964317285357824961783152649145698372296473158
107000954640300700000050100008560301010002470090008000409705003820091000000800020,137286954645319782982457136278564391516932478394178265469725813823691547751843629
700082050024100067060000030001094370000000800950068401593400002408050009600070000,739682154824135967165947238281594376346721895957368421593416782478253619612879543
000006700080400032931000060005040903390005010278010600060250009507100004040037200,452386791786491532931572468615748923394625817278913645863254179527169384149837256
001905820700004000052001043060500007008003000040108590270000000600800039095030401,431975826786324915952681743169542387528793164347168592273419658614857239895236471
060050309008170000314000008540300000702080100000409600003902405400000060009001723,267854319958173246314296578546317892792685134831429657173962485425738961689541723
002701000030002800007060409650100000004009063900038540040000306005943080078520010,492781635536492871817365429653174298784259163921638547249817356165943782378526914
580240000074000030203009080900500007050806120001000006760905004300410070008030950,589243761674158239213769485936521847457896123821374596762985314395412678148637952
910000086874100025005730004400080200030400500582000019000526070100007000090040603,913254786874169325625738194461985237739412568582673419348526971156397842297841653
620003009097006000001708000060050038013049020500060704450130000209000500038000062,625413879897526341341798256964257138713849625582361794456132987279684513138975462
708006090010370020000105000046000907007020005009480300500963018020004630000800704,738246591915378426462195873246531987387629145159487362574963218821754639693812754
500000430080005000039071008040600350200580090670090002800010900067002004102408005,521869437786345219439271568948627351213584796675193842854716923367952184192438675
009060400450700080000000031020005014180906070003280006802000005504023907600010300,379168452451732689268459731926375814185946273743281596832697145514823967697514328
089040000005703609200900071108306050090004020000100908030805047570000010040060300,789641532415723689263958471128396754697584123354172968936815247572439816841267395
000460000021008500000300689108000700056073002070050390490600200507012004000030970,389465127621798543745321689138249765956873412274156398493687251567912834812534976
759800240000007009200040036030009108800004650170500000501300070004056013080020000,759863241643217589218945736435679128892134657176582394561398472924756813387421965
030006095000728004102000600500001000403060820080037049010050007096083050200904300,837416295965728134142395678529841763473569821681237549314652987796183452258974316
002004300061000005580300197800097000010030002000050806928000050050609420003100780,792514368361978245584362197836297514415836972279451836928743651157689423643125789
170046080000708509400300100000520030302000810069000004054001003030000270786009000,175946382623718549498352167817524936342697815569183724254871693931465278786239451
040020700632000100008039005006001000097800504310050009400706000700090802500012360,945128736632574198178639425856941273297863514314257689423786951761395842589412367
008000026210700009905600708600500010094103000000042903081004000730000050000905307,378459126216738549945621738623597814894163275157842963581374692739286451462915387
460000900705000003030672005007040030800030419001500607000904180020005000900068700,462853971785491263139672845297146538856237419341589627573924186628715394914368752
300160080906304201008000007002516000547200000030000900100092500080050002050870634,325167489976384251418925367892516743547239816631748925163492578784653192259871634
105760300002030004070009060010040230800300009604002501050000708090150020300820006,185764392962531874473289165519648237827315649634972581256493718798156423341827956
006840000030700008010002004003050100704610500050084907002109803000005620167000009,276841395435796218918532764823957146794613582651284937542169873389475621167328459
020000090800904000015307420060208001003069870040071000000000305500046010007000280,324615798876924153915387426769238541153469872248571639481792365532846917697153284
007208000510307200000090405405002307130400600002010009804005001009100036000006780,947258163516347298283691475495862317138479652672513849864735921729184536351926784
300840000092001608001009207000204090080370001000096053006400000400053079015008060,367842915592731648841569237153284796689375421274196853936417582428653179715928364
300001400000200085907040000082470900500003100709062050003006007000510020010300648,328751496641239785957648231182475963564983172739162854493826517876514329215397648
070300009400906507850024610020570000000083000510000004700060825600007301291800400,176358249432916587859724613324571968967483152518692734743169825685247391291835476
007020400090407602820960001003000050068054003100080709015003000000002004306070208,637128495591437682824965371473291856968754123152386749215843967789612534346579218
904530010320009006000100080006012004000000023000807090209000500470068000063950700,984536217321789456657124389596312874748695123132847695219473568475268931863951742
160008007005920000000070640000300901007564082820000400000840095290001030030007108,169438527745926813382175649456382971917564382823719456671843295298651734534297168
096500300002003540000819700078402093000000001205031000000040080087005026054060107,796524318812673549543819762178452693439786251265931874621347985387195426954268137
096201780010005003030706400041608009652000000700000000004800320000940078073000504,496231785217485963538796412341678259652319847789524136964857321125943678873162594
060328040040060000003700050000610309680040007070002000520001900400070516097800030,965328741742165893813794652254617389689543127371982465526431978438279516197856234
100080935508600000020000040076290810213007060000003400905300007000408200000971050,164782935598634721327519648476295813213847569859163472945326187731458296682971354
400018602000740903058300007005002090010503000690000800009450076030060120700009040,473918652126745983958326417345682791817593264692174835289451376534867129761239548
050000003003800000407600020610050708200090460005000190004106009970043000080079504,852917643163824957497635821619452738238791465745368192524186379971543286386279514
000607020083000405002485100005076004600008290107390000000053009040002730008100600,451637928783921465962485173895276314634518297127394586216753849549862731378149652
003800000419650730658000020000025800807400000060000093030007504004016270100509000,723891645419652738658734921341925867897463152265178493936287514584316279172549386
002046590109080700070000080900015206246000103000400900001000000008537000500800420,832746591159283764674159382987315246246978153315462978791624835428537619563891427
300026057504800160000910000018000004430000620070000039009050703062080400800170000,381426957594837162627915348918263574435798621276541839149652783762389415853174296
900500060100027004068300250000030029000005008083040000052090806704008003000053710,927584361135627984468319257571836429249175638683942175352791846714268593896453712
700503002406090000058600107209000040000060300835071009000000030610800205974200000,791583462426197583358624197269358741147962358835471629582716934613849275974235816
100350627006902000800000150038040562204090001500000040005100700070009034390600000,149358627756912483823467159938741562264895371517236948485123796671589234392674815
406070800090280300080501090005840007003000620870906001014003009209600740700000002,426379815591284376387561294165842937943157628872936451614723589259618743738495162
390005026007000500605014090000029750400050001030071800000608100120090003004000980,391785426247963518685214397816329754479856231532471869953648172128597643764132985
004105060120003058000020370900862004000000790013000200090030510087004000560209000,734185962126793458859426371975862134248351796613947285492638517387514629561279843
009050000810004600406002730600420018100000200037600509948000007000000000020915800,379156482812374695456892731695427318184539276237681549948263157561748923723915864
007253010020006074610000080594000800001500000070008902008042700030090006409031500,847253619925186374613974285594327861281569437376418952158642793732895146469731528
000401002702086000050090430600100200480005007301740905000500698090000003030062501,963451872742386159158297436675139284489625317321748965214573698596814723837962541
517020008030600004240080510360009751000013900000205040050000062108000090090470080,517924638839651274246387519362849751485713926971265843754198362128536497693472185
006740980008006700000910000800300026500002400170060305904003617027000000050009840,216745983498236751735918264849357126563192478172864395984523617627481539351679842
021300800060000790800402500005080900480000060090074130016800007903005000000610420,521397846364158792879462513135286974487931265692574138216849357943725681758613429
600400001074003290890007003041080300300206800900070020509002084020010056700060000,632498571174653298895127643241985367357246819986371425569732184423819756718564932
002080000070203008360500710100008050700000240054300607009625004010000009045091800,492187365571263498368549712126478953783956241954312687839625174617834529245791836
060020941090703802508040000004050060610300007000608200080170006000509000270000300,763825941491763852528941673834257169612394587957618234385172496146539728279486315
000000005728000103000826040301050090040907000090600018400700500210039400605100270,964371825728495163153826947371258694846917352592643718489762531217539486635184279
000070010000690308325040007000008500062910080009300040950207600700005120003160000,698573412417692358325841967134728596562914783879356241951287634786435129243169875
006450000203000800097268010040006900000300170000019083009700000168900040000085290,816453729253197864497268315341876952985324176672519483529741638168932547734685291
008620075600000004050004102100047009000100300307560080032871500006230000070000090,418623975629715834753984162185347629264198357397562481932871546546239718871456293
080501030700000042002076008003892507070040600019000020001060300050208009406753000,984521736765389142132476958643892517278145693519637824821964375357218469496753281
003509600500020904004010037002078050036000041810300000600000083289007060000605702,173549628568723914924816537492178356736952841815364279657291483289437165341685792
005000200002096403007100658300265090008009000070400160540801000000003001890000704,465387219182596473937124658314265897658719342279438165543871926726943581891652734
