120076000003005090000810000059760008072050003408309700000080050094500027060002381,125976834783245196946813572359764218672158943418329765231687459894531627567492381
010803900097020080003670005401090750005400360000002000920001030056000218000067004,512843976697125483843679125481396752275418369369752841924581637756934218138267594
050090203100800700036004090000180075000400900900023680003006017020050400080917030,857691243149832756236574198462189375378465921915723684593246817721358469684917532
000400000010000062078053090607001085002870906003020400360108007020060000504097003,936412758415789362278653194647931285152874936893526471369148527721365849584297613
000081065000307801000950000000204090108090240200600573502046080063500007914000000,327481965495367821681952734756234198138795246249618573572146389863529417914873652
263000010109005000080029067040300090900560480300008001000850270002006004507001008,263784915179635842485129367748312596921567483356498721614853279832976154597241638
004003005190080600735100000000042009500030080840001070000067042013500090200900058,684273915192485637735196824371842569526739481849651273958367142413528796267914358
000050090603200007020769800080000300506048970140307050008500420700900100002004003,871453296693281547425769831287695314536148972149327658318576429764932185952814763
030010005007600094010875600800000003600307200090200000409002380021004706060501020,236419875587623194914875632872156943645397218193248567459762381321984756768531429
107003940008040016006059708300004091740300050069800000050020030000007200802001560,127683945598742316436159728385274691741396852269815473654928137913567284872431569
004001000073084520008503600400608702759040830062000090900030005000800009017000400,524761983673984521198523647431698752759142836862375194986437215245816379317259468
050093400078010003910500620000600080092400705805070200000002307640009010000704050,256893471478216593913547628734625189192438765865971234589162347647359812321784956
300000007800004069600520300007480650502010008000007901006390040045002080710000200,354169827821734569679528314197483652532916478468257931286391745945672183713845296
034080050060007002000401700209308006070006500100059003502603480000195060007020010,734982651861537942925461738259348176378216594146759823512673489483195267697824315
040800000206007090000040123980002307005001462600050001402090700070030008310506040,143829576256317894897645123981462357735981462624753981462198735579234618318576249
720308060043000100806700005000030090059200000000480012602040000400197600018005304,721358469543962187896714235284531796159276843367489512672843951435197628918625374
005400830001702009360005407200006040000020600089007001410050006700080325008600090,975461832841732569362895417237516948154928673689347251413259786796184325528673194
080600300060007541003020070500030914000000000021090086100400057008013002947800060,785641329269387541413925678576238914894176235321594786132469857658713492947852163
009800031000360500000000926630284050000057008150000007503900000012406070800012400,469825731721369584385741926637284159294157368158693247543978612912436875876512493
074000900300065004018002360003970500080001000907306200260030078749020005000040100,674813952392765814518492367123974586486251793957386241261539478749128635835647129
017006000403000920960800107705320080000045003200970040301050008009000700000062005,517296834483517926962834157745321689198645273236978541321759468659483712874162395
025000000700003168600000009040560000082040700500809031450700000009034800107005290,825916347794253168613478529341567982982341756576829431458792613269134875137685294
562090030074020000380760001030400070040100506905600000000080025700000340200503187,562891734174325968389764251631459872847132596925678413413987625758216349296543187
020003089006904005100000300080002003709060040430501060065400018907800006000009052,524173689376984125198256374681742593759368241432591867265437918917825436843619752
600002309070300000093075080002050704057040000010680003080006020500094001704100600,645812379178369542293475186862953714357241968419687253981536427526794831734128695
431820500700000600080004020620071000000090247504003090008100930090030008065040010,431826579752319684986754321629471853813695247574283196248167935197532468365948712
080605120230000900000702003300010040065807009000049508106000005029103600070200800,984635127237481956651792483398516742465827319712349568146978235829153674573264891
005021740200897005301000000060130000500002073890054020000080307400009060000670092,985321746246897135371546289762138954514962873893754621629485317437219568158673492
106000530700023084038009000690041007000058000000200160007900300580400906004035210,126874539759123684438569721692341857371658492845297163217986345583412976964735218
020076500800010006097003020000004751403000000002965080280007600100540890000030014,321876549845219376697453128968324751453781962712965483284197635136542897579638214
000740509000200037030006000400071600021000705009450008062085000080304100005900023,218743569596218437734596281453871692821639745679452318362185974987324156145967823
016050040007820050000063207850306000062780000400000900900005701031000500720004086,216957843347821659598463217859346172162789435473512968984635721631278594725194386
000000530005090702703006400058760000100004080070902601400010009069023100020800004,982147536645398712713256498258761943196534287374982651437615829869423175521879364
080060024030100907014200050000089030005607200693000800000805700172040000000090361,587963124236154987914278653721589436845637219693421875369815742172346598458792361
020830009005027038001900704060004050400080003002750800080092071000076000103000600,724831569695427138831965724368214957457689213912753846586392471249176385173548692
700010826650902000030007004006400013003080007120030000000004060504600900907500108,749315826658942371231867594876459213493281657125736489382194765514678932967523148
100200480200000670087000035301806002895310000000490000602708904430560000000000008,163257489254983671987641235341876592895312746726495813612738954438569127579124368
640000200098000037003910000030701068200000740501006003009075084062040000050300090,645837219198652437723914856934721568286593741571486923319275684862149375457368192
480700052007005900060082000740053001906010020052090304001900860800600407000030000,483769152217345986569182743748253691936417528152896374321974865895621437674538219
030706010840035020007009050000000400010970080985000073290040860406000007300051000,532786914849135726167429358723568491614973582985214673291347865456892137378651249
005340900040257000103008000030000090780160302009020406400700030800000614062900500,675341928948257163123698745236475891784169352519823476451786239897532614362914587
104000090030008006060930054078020030040005900200671080059700260000200010002890007,124567893935148726867932154578429631641385972293671485459713268786254319312896547
080062093050108600040000007014200030700500912903000000200005709000701000806943050,187462593359178624642359187514297836768534912923816475231685749495721368876943251
170004000000106009904050006385009020020870040000021003049000050803700260500300107,176984532258136479934257816385469721621873945497521683749612358813795264562348197
039470001000205700000010506070060048108590003062003000204080007093001000806700350,539476821681235794427918536375162948148597263962843175254389617793651482816724359
000000859048100607600200040010500300005400072030069005900620034200018000370000000,123746859548193627697285143419572368865431972732869415981627534254318796376954281
001900060050040128280007034370005001000600007642000090000082370010060002009053800,431928765957346128286517934378295641195634287642871593564182379813769452729453816
009030075060150000720600180010002034406003009003080010004090520801006900900874000,149238675368157492725649183517962834486713259293485716674391528831526947952874361
302908050087002014960000000090065470700020301000800090104000805600307000030501026,342918657587632914961754283293165478758429361416873592174296835625387149839541726
009046800008000012130000500000005090802070300450830007206090034300002160014007000,529146873648753912137928546763215498892674351451839627286591734375482169914367285
070010450024050098603900020000280137000796000005000000201000840030064015048003000,879312456124657398653948721496285137312796584785431962261579843937864215548123679
040009060207650830003201054051000470304000902000103006002300008090070000800496100,548739261217654839963281754651928473384567912729143586472315698196872345835496127
000900008070306029040020010083000140001702300502140090030850000907000600100400953,216974538875316429349528716783695142491782365562143897634859271957231684128467953
086900000304060005000007302062708000508610040003000090005300008140050700000240609,286935174374162985951487362462798531598613247713524896625379418149856723837241659
008500960000080000120640053000800090740012500009360170290105006853070000070000040,438521967965783421127649853312857694746912538589364172294135786853476219671298345
008000062200003700050680090002067009410820050079140008000590004300010026704000900,938471562246953781157682493582367149413829657679145238821596374395714826764238915
100639500830200004000010600017000009680495000520700030004000090070560201350002708,142639587836257914795814623417326859683495172529781436264178395978563241351942768
080004002520060010000302908050608000700510000010003290000700346608000701103040050,387194562529867413461352978954628137732519684816473295295781346648935721173246859
008401905500020607007000002040602301072900008000053090084106703009000400030008100,628471935513829647497365812945682371372914568861753294284196753159237486736548129
003090020504010000020008730002000504000063819160900000081005007905007306706480000,813796425574312698629548731392871564457263819168954273281635947945127386736489152
508004090120000046009000170000679300230000700000520000067300450050901080081006002,578164293123897546649235178814679325235418769796523814967382451352941687481756932
040860010300105007500030648004507009102000704000910380480200005000090021020003000,247869513368145297519732648834527169192386754675914382486271935753698421921453876
010205000004000170009060080430008006060003920082007310520301007307580200008090600,813275469654839172279164583431928756765413928982657314526341897397586241148792635
090403010607020300410600700000586040026907000980100050000010280005000003002350469,298473516657821394413695728731586942526947831984132657369714285845269173172358469
020001005869000070100700900000070430302905000014006050970020804008009300043680001,427391685869254173135768942596172438382945716714836259971523864658419327243687591
023400080506002000070010902600305000080100034105208000740006809000700301060890045,923457186516982473478613952694375218287169534135248697741536829859724361362891745
605001200400000830302060009700906001004082605000040080800090107010304900057000020,695831274471529836382467519728956341134782695569143782843295167216374958957618423
083000600510060020079214000090050073002309400000001800450000902126900300008070045,283597614514863729679214538891456273762389451345721896457138962126945387938672145
000004590009060071300005008901070302200108005060240800000600000012837004073029000,126784593859362471347915628981576342234198765765243819498651237612837954573429186
374008001000009200602401007109200060050100320060057004700800010008340500005006930,374528691581679243692431857149283765857164329263957184736895412918342576425716938
000236004410007060007005009500000700006100028029040053968300002700090000053860010,895236174412987365637415289584623791376159428129748653968371542741592836253864917
070082600016400003400030590050040700397605002000009160000500070024003001830091200,573982614916457823482136597651248739397615482248379165169524378724863951835791246
010000034700819200025003070030000601000586000094000850407601002000350006060700049,816275934743819265925463178538947621172586493694132857457691382289354716361728549
000000300800420050906801400002070094007503061600240080003708000100050026540000900,724965318831427659956831472382176594497583261615249783263798145179354826548612937
080000005509700000412006000701024090000308046600051300053400010000890602906037000,387219465569743281412586973731624598295378146648951327853462719174895632926137854
400030100980704003005200040006009002010070900307506400060012509800300700050900620,472638195981754263635291847546189372218473956397526481764812539829365714153947628
400007000006805190801306000000150004309004007508000610004020900060008050207900083,495217368736845192821396745672159834319684527548732619184523976963478251257961483
000800703000250091460009520230004087500610302010070000300020006008063900079100000,952841763783256491461739528236594187597618342814372659345927816128463975679185234
003217008800005040005940600090080061020450009107300050000020470630000010041090023,463217598879635142215948637594782361326451789187369254958123476632874915741596823
019500600700826500500000243086950000030000090000001854091360007020010000000204380,219543678743826519568179243486957132135482796972631854891365427324718965657294381
006000028000379100741000500000650470000002030025008009102065040003800900090431000,936514728258379164741286593819653472674192835325748619182965347463827951597431286
108005032450001008079040006000000100900070040040123050620800001003960700800304025,168795432452631978379248516235489167981576243746123859624857391513962784897314625
305700900200040000700589600098000000010006502570300080006020079800060135050100004,365712948289643751741589623698254317413876592572391486136425879824967135957138264
103006070700040096000201005200105009030790800400008000090080602006000743540600010,183956274752843196964271385278165439635794821419328567391487652826519743547632918
420039006008000700900106050000001007340008560501400003060020190004590002050007048,425739816618245739937186254896351427342978561571462983763824195184593672259617348
507040309600500100830600502040000098060300200910062700000001075009000803400287000,527148369694523187831679542342715698768394251915862734286931475179456823453287916
052040010670000000010830500004003807006900200095071360000000120080350940043602000,352749618678125439419836572124563897736984251895271364567498123281357946943612785
009800005012907080300500740496000071000000502050163000004010936000082010670004000,749836125512947683368521749496258371183479562257163894824715936935682417671394258
000300109097085000002610470060020310000004090504060800003007000418000005905003082,846372159197485263352619478769528314281734596534961827623857941418296735975143682
000680039209030075100500402500400090007060310040708000080001000791000040350290680,475682139269134875138579462516423798827965314943718526682341957791856243354297681
070800009201006500009034607930087000006500034080100005007902050024600001000045060,673851249241796583859234617935487126716529834482163975367912458524678391198345762
150360020000018460200000038000006087094080003307009610820700000009000001761040500,158364729973218465246975138512436987694187253387529614825791346439652871761843592
040000710860400500102038000000040901700860040530020070080306020900070005253900400,345692718869417532172538694628743951791865243534129876487356129916274385253981467
030000470800500006167000900409001002270604100000800500000403201500060003082070690,935216478824597316167348925459731862278654139613829547796483251541962783382175694
450000106029350070000402000002006900501000400860017000016209005905004208000070030,453798126629351874187462593732546981591823467864917352316289745975634218248175639
632070000090000000000050296007008042080069350000740600006005021400300800805106700,632974518598612473741853296967538142184269357253741689376485921419327865825196734
709050004020001030003000056080040060000036402602005089470900100005400000196002703,769358214524691837813724956387249561951836472642175389478963125235417698196582743
382047500060000000705902000240500890670390001003008407000703028100005306000260100,382647519964851732715932684241576893678394251593128467456713928129485376837269145
000200540240650009190708000060824070050000028400070013000309760003060001076010090,638291547247653189195748236361824975759136428482975613514389762923467851876512394
000056080030490027000000601072509006100700400050003208540308160001070000086900034,714256983638491527925837641872549316163782495459163278547328169391674852286915734
