005209080400060073013500200100974000000000000926001300070080060050002001089006725,765239184492168573813547296138974652547623918926851347271385469654792831389416725
000036009009200050070900261304800500050100042067090000800470603000080010532000800,125736489689241357473958261314827596958163742267594138891475623746382915532619874
000000280000590306093810074071000045000050630509070008007020001010307800640009000,156734289784592316293816574371268945428951637569473128837625491915347862642189753
307890001000000090000123480900012050708006020016305004005000210090451730600070800,327894561184567392569123487943712658758946123216385974475638219892451736631279845
046318900107205008300000004080903025000560000600024007700450806000000050230009040,546318972197245368328796514481973625972561483653824197719452836864137259235689741
060009340015032070800700200790603805000000090001085000030090780400100006050007902,267859341915432678843761259794613825586274193321985467132596784479128536658347912
910208073806090010270400080005000200140700039390504000008042006500010004000600090,914258673856397412273461985685139247142786539397524861738942156569813724421675398
490600000003802001006037000300000070845090200072108040209370560000050080010400902,498615723753842691126937458361524879845793216972168345289371564634259187517486932
000050007010863200400072900207000080000000006083904500956008003030500764100020009,328459617719863245465172938297635481541287396683914572956748123832591764174326859
016008070700013200208005003030500906607089540040100000065407080000290700000000360,316928475754613298298745613831574926627389541549162837965437182183296754472851369
050061030106700020204098010600370000500046003000000950370810400800400000029003170,957261834186734529234598617698375241512946783743182956375819462861427395429653178
007010008000609150030020064080003900300061047045000000518706000260945000009000030,657314298824679153931528764786453912392861547145297386518736429263945871479182635
030001009095000761800920040054038100008006500070400830000370000013085020700204900,437561289295843761861927345654738192328196574179452836542379618913685427786214953
803000007500010009269007508000249100482500700000003600030000000604072801005090046,813925467547816239269437518376249185482561793951783624138654972694372851725198346
080309000500720100079010500300000000015040760067080040040002006098500270000961038,481359627536728194279416583324697815815243769967185342143872956698534271752961438
000106890000700200341020500500000120000390064674000300280510007007802010009030000,725146893968753241341928576593674128812395764674281359286519437437862915159437682
946001000350070291000000800809000005020860070100002900502400708000705010004390060,946281357358674291271953846839147625425869173167532984592416738683725419714398562
703900000000000958400060002109480000050010603600570000068300000520100076001042090,783925461216734958495861732139486527857219643642573189968357214524198376371642895
430086500709005401058000000007901020003000006890700040605014809000050702920003000,432186597769325481158497263547961328213548976896732145675214839384659712921873654
000809076480107200009005000040603008160040037500012040070000903205000810803500000,351829476486137295729465381947653128162948537538712649674281953295376814813594762
007409015000020090000085302629000170003070546400000000006130008942800000080097650,237469815568321497194785362629548173813972546475613289756134928942856731381297654
000090603370120500802600010009000306085007040200010079000285400140000000003060907,451798623376124598892653714719842356685937142234516879967285431148379265523461987
008020130412030807007006000000069280000084950060000701000301005790508600045000090,658427139412935867937816524574169283321784956869253741286391475793548612145672398
070050308900000060010800200002009400350670001009402075800090052503180009600040700,276954318938721564415863297782519436354678921169432875847396152523187649691245783
800000520004070080069080003402001000005602098010038007600027004000000059397100000,873419526524376981169285473482791635735642198916538247658927314241863759397154862
100480020004061900060500700580000002007002630403910000091040503050097010008030070,175489326234761985869523741586374192917852634423916857791248563352697418648135279
000000802206530407080610000500000030013086905000007040640009580008240071005003200,351794862296538417487612359564921738713486925829357146642179583938245671175863294
500906400840020001009470030007009052010500003400201800060000004000060380230800570,573916428846325791129478635387649152612587943495231867968753214754162389231894576
960001000000034026100720000400070905050208000700560300000000060281000730637000591,962851473875934126143726859426173985359248617718569342594317268281695734637482591
003706050000040090071032008700080506306904002200005047024610300005007010090800000,483796251562148793971532468749281536356974182218365947824619375635427819197853624
641000032320080500800120007005009004000000390003768005000405081200096700000310900,641957832327684519859123467185239674762541398493768125936475281214896753578312946
802000300670000904000031200095300700084005006030178040000600007000094850001800023,812469375673582914459731268195346782784925136236178549528613497367294851941857623
136004000000800750080092000900583040010000900200079060540000100000018002000620037,136754829429861753785392614967583241318246975254179368542937186673418592891625437
900030000000718090030602010006907302005000670420800009280005001104000007063040205,971534826642718593538692714816957342395421678427863159289375461154286937763149285
204390160000080509050000248000807000090002305675100000060400980001003000902000416,284395167716284539359716248423857691198642375675139824567421983841963752932578416
610000000030000257004038090069500870403900010007016030000620084006007005200180900,612759348938461257754238691169543872483972516527816439391625784846397125275184963
086050000400010920050070801004109030070280000600300592300000607060804000800020013,186952374437618925259473861524169738973285146618347592342591687761834259895726413
200018900070400006004930028930004072120005030407000000750000603000080107000690080,263718954879452316514936728935164872126875439487329561758241693692583147341697285
704009030010680020006402090080030000050940007309057002200060053500801000070000849,724519638915683724836472591487236915152948367369157482298764153543891276671325849
090062008700040050050008031012087093005000400000601800000000920904305000080700065,193562748728143659456978231612487593875239416349651872537816924964325187281794365
200010005030400109509608004007060000106007800002931070000000508085024030670000940,264319785738452169519678324347865291196247853852931476423796518985124637671583942
000920080095070006002048010900400007400680200030001060019060502086005103000300000,143926785895173426672548319961432857457689231238751964319864572786295143524317698
000504003030200650006030801300920008021000507054106900010380070400000200098007010,182564793739218654546739821367925148921843567854176932615382479473691285298457316
000003609964010000500020080007350020000007400810600030049105002320000008650004700,182473659964518273573926184497351826236897415815642937749185362321769548658234791
300540608007931050024007000183000027000000060900050140002680905008700200400309000,319542678867931452524867391183496527245173869976258143732684915698715234451329786
070090030800300600200806045600001850007430001094608200012504007300009500000000002,476295138851347629239816745623971854587432961194658273912564387348729516765183492
050390700100840002290001030821400007000580003003206940900050804006000050040070106,654392781137845692298761435821439567469587213573216948912653874786124359345978126
000100607700025010040006009800604000102800300600039800080001045975000038003070020,529143687768925413341786259837614592192857364654239871286391745975462138413578926
080000200603090070010032005004000000050700609000845702702100083008306001009000560,985417236623598174417632895274961358851723649396845712762159483548376921139284567
300060000900574320007908500010003940060000008402800701006205490050006180003041002,345162879981574326627938514718623945569417238432859761176285493254396187893741652
004000061080230090010000703090020046605900102007004500070060000502809004930105020,354798261786231495219456783193527846645983172827614539471362958562879314938145627
000006207001804900379020400050730000280001506004008020460010003802050009017003600,548396217621874935379125468156732894283941576794568321465219783832657149917483652
300150604502730000070906000247060900010208040006000750000003180198000200050020060,389152674562734891471986523247365918915278346836419752624593187198647235753821469
007000340206000000000560002000200019380450000900617500070030680040008090059000720,517892346296374851438561972765283419381459267924617538172935684643728195859146723
000300700005840090631005024060420908200031600004090050080009070400060000900000132,849312765725846391631975824563427918298531647174698253382159476417263589956784132
902040005030000060060080203100950086604003910708020000300067408000100097805092000,982346175437215869561789243123954786654873912798621354319567428246138597875492631
076095010400000030003010506300900002084060007905401800010009408700500600040080320,876395214451826739293714586367958142184263957925471863512639478738542691649187325
020005000000900043648000020002003600187060000050480970009357410010004386200000005,923845167571926843648731529492173658187569234356482971869357412715294386234618795
000000017273040060008650200490800320056002700000090000104085093500160070800020400,645238917273941568918657234491876325356412789782593146124785693539164872867329451
086004070700100000020089150304502000690030027075000040000865004040200809001007030,186354972759126483423789156314572698698431527275698341932865714547213869861947235
067900005030064010904070080003006800020500046100700250058203760090000300000081004,867912435235864917914375682543126879729538146186749253458293761691457328372681594
020041960000380100730005002905008014062090008800607050400020007009006800000100340,528741963694382175731965482975238614162594738843617259416823597359476821287159346
078623000500000200006500704007082503000910002060035090050170040000060810980004000,478623951519847236326591784197482563835916472264735198652178349743269815981354627
065030010000090802040712500087040090000603720100005600700400030912000050400008200,265834917371596842849712563687241395594683721123975684758429136912367458436158279
380000009007003400064825001098007000040309062200100000000070816005006730100400095,382741659517693428964825371698257143741389562253164987439572816825916734176438295
100760032009004008035091600000430001080000260704008005000000573010940000820607000,148765932679324158235891647952436781381579264764218395496182573517943826823657419
501000009070090024004570080056400310007020600400703002080200400130006005000018296,521834769873691524964572183256489317397125648418763952689257431132946875745318296
071002000030600507090400630026198700400500090580000302008900040100060003053070108,671352489834619527295487631326198754417523896589746312768931245142865973953274168
130000002059300400740002800000504130005001006390870040000040709027013050060020008,138469572259387461746152893682594137475231986391876245513648729827913654964725318
020003800070010090604800103050080070000695240901020006580061900000700020300409000,125943867873516492694872153256184379738695241941327586587261934419738625362459718
020050070390800062000031400600103000000074150003000780960005840800009035700020000,428956371391847562576231498657183924289674153143592786962315847814769235735428619
030620000409075010075408000763090001050801067002004090000080509206000040001203800,138629754429375618675418932763592481954831267812764395347186529286957143591243876
000089010000700005080000329043601000807005040005002607150390070090100060300458200,534289716629713485781564329243671958867935142915842637152396874498127563376458291
004090006085300070729000001000164020010020005008000034000017860300400250076005009,134792586685341972729658341953164728417823695268579134542917863391486257876235419
050031006002060080000080941900803054073000090004005702010000400005607000067420800,458931276192764583736582941921873654573246198684195732219358467845617329367429815
090620000010530097307010040000870609036000800800450130002000063050109008004000005,495627381618534297327918546241873659536291874879456132182745963753169428964382715
906003005001800700530000010600107800004009206020080390050306009100200000078050040,986713425241895763537462918693127854814539276725684391452376189169248537378951642
300020704700590020010800000097000050000409860001070003025106000604080300080750290,359621784748593621216847539497368152532419867861275943925136478674982315183754296
210004530038000007000086090060009085053760100807002040009105602700000000040800910,216974538938251467574386291162439785453768129897512346389145672721693854645827913
204700901000023705080000420007016050300902000069000870070060004800159030010300690,234785961691423785785691423427816359358972146169534872973268514846159237512347698
050610000102034500780500006306009700000000432071028000030046870508070961000000020,954617283162834597783592146326459718895761432471328659239146875548273961617985324
610070090087290003009008250960000031000060500201037080000026010054701600000003408,612375894587294163439618257965842731873169542241537986798426315354781629126953478
050009270300040060079350000835001090000000001001706804400000510067208030200094086,154869273382147965679352148835421697746985321921736854498673512567218439213594786
002803001690070003305006000003060002720010690060400080508902070007000540010540200,472853961691274853385196724853769412724318695169425387548932176237681549916547238
000000316153600008040080907060205000790300100002098004600047020800001005070020039,987452316153679248246183957468215793795364182312798564639547821824931675571826439
109007500060200049023900000302004060470809105000063700000075806600002070080100000,149637582867251349523948617352714968476829135918563724231475896695382471784196253
190300400020049008006005030000702105703000086040008090600800000500006017007520304,198367452325149678476285931869732145753914286241658793614873529532496817987521364
103005009570090200000020601000756000000200135402801000000074080300000094009083702,123465879576198243894327651931756428768249135452831967215974386387612594649583712
300070150090026000057004028100409002078100003025800604086095300004000760030000000,342978156891526437657314928163459872478162593925837614286795341514283769739641285
006301050007000023200067010005076000903800702020940860000100009048090030310650000,896321457157489623234567918485276391963815742721943865672134589548792136319658274
020008050154060000607009042000030100030702906048600520000000000015320809809100007,923478651154263798687519342296835174531742986748691523372986415415327869869154237
604520000005008001007006003080050067000140902100607300300019400700800200009070015,634521798925738641817496523483952167576143982192687354358219476741865239269374815
020000047150020300046107009004305700039000010500069802800090400010006025000730001,928653147157924368346187259284315796639278514571469832862591473713846925495732681
520010000009008000000400567100004780053070002804069300010040005967000038030006129,526317894749658213381492567192534786653871942874269351218943675967125438435786129
035010009940062013002000870010080730006003000000540906079605100000004020083020005,735418269948762513162359874514986732896273451327541986279635148651894327483127695
400009003005060070792150000600000002007300894014098500058074300000020605200000010,461789253835462971792153486689547132527316894314298567158674329973821645246935718
000476300008059000200000600009800007450600801307940005006002570005783040010000002,591476328638259714274318659169825437452637891387941265846192573925783146713564982
000520003400030087900768501203400050071090008600003100108009700060080009005006020,817524693456931287932768541283417956571692438649853172128349765764285319395176824
500000740080510000634200000040670090905048201713050006100009005020700600008000930,591863742287514369634297158842671593965348271713952486176439825329785614458126937
000400201000085000409610800203000067068900050500300902030800000002090700105206094,856439271321785649479612835293158467768924153514367982937841526642593718185276394
