600030410000072509890000300480503920002004000003087001570016000200008036010400080,627935418134872569895641372481563927762194853953287641578316294249758136316429785
076000895030208041010000000000041020060805070400079600500700106003004900790530200,276413895935268741814957362387641529169825473452379618548792136623184957791536284
000102000248050006930806007006408700029003084080009250350700408000000100060900002,675192843248357916931846527516428739729513684483679251352761498897234165164985372
709105400040009087200060053300910000000002000820470600060030008402008730180000290,739185462546329187218764953374916825691852374825473619967231548452698731183547296
300401500600508002900000030105060073004000900290750800006370250500800007007000619,372491586641538792958627134185962473764183925293754861416379258529816347837245619
008047060002900700400600510090002030031000870600850400089060000000509320205071006,958147263162935748473628519894712635531496872627853491389264157716589324245371986
860000071000040908000010250507893010030702000900004005028576090093000020010200406,864925371251347968379618254547893612136752849982164735428576193693481527715239486
000970004043200005060105070800300002005080730004006980010002053000801620039004007,581973264743268195962145378896317542125489736374526981618792453457831629239654817
000012004800006072700390560069000087010504600308600120000840013002007000000903000,653712894891456372724398561569231487217584639348679125976845213432167958185923746
070000060200097380354002090000003100800604072000980000700129540013050809000430000,978341265261597384354862791649273158835614972127985436786129543413756829592438617
050300900900648700001070030000500421000082000609100000006090008804200603273050004,758321946932648715461975832387569421145782369629134587516493278894217653273856194
000000008805600720007031090006200005009004210103975006640020009090580400702003080,934752168815649723267831594476218935589364217123975846648127359391586472752493681
000600000009040321523070800180000092000400067907510000040036700036009010701080050,418623975679845321523971846184367592352498167967512438245136789836759214791284653
300901560010034200007500000240009300005000600009073480982040030400067010001002000,324981567516734298897526143248659371735418629169273485982145736453867912671392854
000500000301700904904006807708000190030100062605200000000020680090034205087050030,872549316361782954954316827728465193439178562615293748543927681196834275287651439
691000070000000680000405031008002000003900506500307049400080007005001200762504090,691823475354179682287465931948652713173948526526317849419286357835791264762534198
005361040020000000000800970100003026060050000804007003009400360706090510501700208,975361842428579631613842975157983426362154789894627153289415367736298514541736298
709008043600590020018030070000002400560000009400175800030020700020000061000084500,759218643643597128218436975381962457567843219492175836935621784824759361176384592
000000294207060830009001007701002605060000020400037009000710050050480000003509018,516378294247965831389241567731892645968154723425637189894716352152483976673529418
403600070207400508000001900040300059300080000680092004000705016701006300504800200,493658172217439568856271943142367859379584621685192734938725416721946385564813297
200000700108005009900702658080234000007090805006000410600571000000900560004008003,265389741178465329943712658581234976427196835396857412639571284812943567754628193
600002815500004000900018070310426090009007006004950000070830001000000750135600040,647392815581764329923518674318426597259187436764953182472835961896241753135679248
000120904208730000300005007702009460030800079000600100015000006670300298900006050,567128934298734615341965827782519463136842579459673182815297346674351298923486751
000750009000004001002000308500000600180230070070091043009620007001008200800403500,318752469965384721742169358593847612184236975276591843439625187651978234827413596
306042800009305070000007206402509060030000018700000540008200054500080000260400709,376142895829365471154897236482519367635724918791638542918273654547986123263451789
002003610000208000004650900001000728085710046030000090060942000108030000920000570,852493617619278453374651982491365728285719346736824195567942831148537269923186574
402800600090000007508070410200049005000100030300060700001235080900018004060700500,472851693196423857538976412287349165654187239319562748741235986925618374863794521
106094020000060900030700500053008002000301090904070003800100760005600408700400005,186594327527863941439712586653948172278351694914276853842135769395627418761489235
000230050300006042809007006706105030041090000905800700070600200400000108010389004,164238957357916842829457316786125439241793685935864721578641293493572168612389574
310046002890001700506098300042600800000000095000032040030010509960080007071005400,317546982894321756526798314142659873683174295759832641438217569965483127271965438
090027560800401702703006000310000095040000607006948020007060100002015809450030000,194327568865491732723586914318672495249153687576948321987264153632715849451839276
600043000381600020020000007005760400000800109000052060290087005013400900870300016,657243891381679524429518637935761482762834159148952763296187345513426978874395216
207080064095600002400309010040150070012004000500962800700008050008430100000700690,237581964195647382486329715849153276612874539573962841761298453958436127324715698
500009070000780005290300406000000100423006000008530960016000807030840000000907510,584629371361784295297315486659478132423196758178532964916253847735841629842967513
060902800100800679030000002419508203700030401200060000300000940804107050075004000,567912834142853679938746512419578263756239481283461795321685947894127356675394128
930005020010060087008000603300090041497003002000200030579800006002900008080147050,936785124214369587758421693325698741497513862861274935579832416142956378683147259
900013600003670010005000200800920047074800900590000008308502000062004085100030060,987213654423675819615489273831926547274851936596347128348562791762194385159738462
300700040064300025008092060620001409400003007007500010006085300709000600250100000,312756948964318725578492163625871439491623587837549216146985372789234651253167894
004050000037601008090200605016030000200780350000900007960100000058004270002000039,624859713537641928891273645716435892249786351385912467963127584158394276472568139
790200005204010039000000704051400006300058000029306010000087060160002093048030000,793264185284715639615893724851429376376158942429376518532987461167542893948631257
009380450005609030008500102604200900000001000200040081090006807830000004701025000,179382456425619738368574192614258973983761245257943681592436817836197524741825369
050070080903400205080103004120600009075002030600800100308064500001520900000000760,456279381913486275287153694124637859875912436639845127398764512761528943542391768
200107009008960003009400056000010020501000804073604010000500692900038500040200700,236157489458962173719483256694815327521379864873624915387541692962738541145296738
030250704000004608000009013728031009460570000005806400007900020081000030500027000,136258794972314658854769213728431569469572381315896472647983125281645937593127846
648020000000040070009050306030860900120003087000001500460900203002006058500710409,648327195351649872279158346735864921124593687896271534467985213912436758583712469
046005390090308004010000060208100000000037100004006250900000006065020073023040500,846715392592368714317492865278154639659237148134986257981573426465821973723649581
006270150801300209070000300040080020902100760005002004000700003307010500500960000,436279158851346279279851346643587921982134765715692834194725683367418592528963417
310080402006410090000502007579000003000000200040608150630700840007036000802150000,315987462726413598984562317579241683168395274243678159631729845457836921892154736
050090483413005007200070060080007900009601024640200500007053001000428000930000800,756192483413865297298374165382547916579681324641239578827953641165428739934716852
000600900210000068008000700052070090030185204704093000500004380647009001090010600,375648912219357468468921735152476893936185274784293156521764389647839521893512647
060010009090004130530000800004056092352001000900700401070092006005400007000560080,468315729297684135531279864714856392352941678986723451873192546625438917149567283
804000030050074020179200500000510000200007368900080400500068910601000002083900040,824159736356874129179236584468513297215497368937682451542768913691345872783921645
040029500005080170009300260120074006076190040300800000000000030407001900010658000,641729583235486179789315264128574396576193842394862715852947631467231958913658427
250304000090002080406057900809000005103020007000600003000430701700008460601075020,258394176397162584416857932829743615163529847574681293982436751735218469641975328
801790004590001700700003120000004000160200080052070003034080097008065000200940006,821796354593421768746853129389514672167239485452678913634182597978365241215947836
608003540003068007140509600904087000500000006000300920020170008016000050800094030,698713542253468197147529683964287315532941876781356924329175468416832759875694231
003020600004809000000100057502970300160053200090000470001002008080700906009680702,813527694754869123926134857542978361167453289398216475671392548285741936439685712
020085030400090002065402710706050000300100090040000586602810000980000360000300400,129785634473691852865432719796258143358146297241973586632814975984527361517369428
089200006001007450204000030000400007623000000840005001700503609036028004000900180,589234716361897452274651938195482367623719845847365291718543629936128574452976183
701290085830500900002006000060001020007450300098000107024960800180000076005040003,741293685836574912952816734463781529217459368598632147324967851189325476675148293
600010092000908501003200007207001305091540700300006800002439060080070000100000204,658317492724968531913254687267891345891543726345726819572439168486172953139685274
090010005630007200500090648010370084000002360040805901025008000007000003309006070,892614735634587219571293648216379584958142367743865921125738496467921853389456172
007004800900207041300500060058040023100002080060100509003670050002003604810000900,627314895985267341341589762758946123139752486264138579493671258572893614816425937
000250060081400090902087000408001000070030058005620009000300472120090386607000005,743259861581463297962187534498571623276934158315628749859316472124795386637842915
004007061083000400000085000900810002600009080400020370070042500009053206150060003,594237861783691425261485937937814652625379184418526379376142598849753216152968743
700005480160000090005003200010500000000002003089041520004200100590704860800390000,732965481168427395945183276217539648456872913389641527674258139593714862821396754
270040910500007020006082005020001706004073080030500094067009000000350100003026040,278645913549137628316982475825491736694273581731568294467819352982354167153726849
008010420000907160640803005050094210039000000204100700570000890080670040003200050,798516423325947168641823975857394216139762584264158739576431892982675341413289657
900007080005040007020108940401200005000009860500670003009031402702000000100860300,946327581815946237327158946461283795273519864598674123689731452732495618154862379
850046000010000200700130004007002935500008046041000780200060093063970000408005070,859246317314587269726139854687412935532798146941653782275861493163974528498325671
302000904000080017150700000480039001500600030000428600900003250040010873060257000,372165984694382517158794362486539721529671438731428695917843256245916873863257149
045709006300150070000000902980304010070005390006010400000020561004036700057800200,245789136369152874718643952982374615471265398536918427893427561124536789657891243
020070000100800534406910800000753600008400000950081020070090160002006049010500083,825374916197862534436915872241753698768429351953681427374298165582136749619547283
032100006580470000009800004700023010100900200096500408000069703300080520000054081,432195876581476392679832154748623915153948267296517438815269743364781529927354681
002504009071208560000690030000107080304060700009005002460700000000800075820003100,632574819971238564548691237256147983384962751719385642465719328193826475827453196
070530409010070300006009280590401002600080901007093060004300075080010000200600004,872536419419872356356149287598461732623785941147293568964328175785914623231657894
600004980041650000709100000910060040005070230026508007070000520203010060000300400,652734981841659372739182654917263845485971236326548197174896523293415768568327419
402006000010007380000900010006000420070500908090014600083270105500030062700040890,432186579915427386867953214356798421174562938298314657683279145549831762721645893
006000089080057420520030000042000017100806005000072830015400006003020000700003140,376214589981657423524938761842395617137846295659172834215489376463721958798563142
000906007630050000080070040048300250903007000160009080000034006005010390020800401,514926837637458912289173645748361259953287164162549783891734526475612398326895471
100307840006400900270080005000205706080073100650010030509028070000009620400000001,195367842836452917274981365341295786982673154657814239569128473713549628428736591
507000200000080910098005030051640000800102004004950300906030780400007090023001050,567319248342786915198425637251643879839172564674958321916534782485267193723891456
006000003080712096940008010100003050600280170054070089000100000307050200000409560,716594823583712496942368715178943652639285174254671389465127938397856241821439567
050000201098060000306072008005031026020006870004090500040720000081050090000908607,457389261298165734316472958975831426123546879864297513649723185781654392532918647
900735000060000500400019078250190030030060104080070020001080203000300050800200697,918735462367824519425619378254198736739562184186473925571986243692347851843251697
005460392064010500800700000032000060048002079900007030003075001206300058080100900,175468392364219587829753416732941865648532179951687234493875621216394758587126943
000085037170000029000100600524090008890034000003000005600901400410028500359600200,946285137175463829238179654524796318891534762763812945682951473417328596359647281
070506002500000010089740030006290040000001206001070503200003861004800007350000009,473516982562938714189742635736295148945381276821674593297453861614829357358167429
020000768408000020109007500007800000653010002010504973090103006530040000206005040,325491768478356129169287534947832615653719482812564973794123856531648297286975341
084007350100205040000010000450096000007000090630180700703800412900000037001002008,284967351176235849395418276452796183817523694639184725763859412928641537541372968
070350100685190002200006090002030654000700000001005800000604000506020700900008430,479352168685197342213486597792831654854769213361245879138674925546923781927518436
208000007305008090017020400802954100050000649000070802073005006900013005000800010,298431567345768291617529438862954173751382649439176852173245986984613725526897314
300615040250780001096000007000370908040021030005000100001036075480002600000890002,378615249254789361196243587612374958849521736735968124921436875487152693563897412
100073800740060052000290030600021000908300017000400005270840600030000070005900108,192573846743168952586294731654721389928356417317489265271845693839612574465937128
609000850070090023000140070907038001020060000100200480800000500030012600240503009,619327854574896123382145976957438261428761395163259487891674532735912648246583719
700000500102390800460200070009036027000009600080574001005010980030750060004003000,798641532152397846463285179519836427347129658286574391675412983931758264824963715
950010370000645100000030026530000060048009005200700000002004007000003098409068230,956812374723645189814937526537481962648329715291756843382194657165273498479568231
080004027100350400309007100000000950017820004004063008050190006008005000290640003,685914327172356489349287165836471952517829634924563718753192846468735291291648573
004050016096804307000001200740006005025100090300090000003000060800070400051032089,284753916196824357537961248749386125625147893318295674973418562862579431451632789
708301490000007000006040085000400026604050800089120070010090040907603000205000010,758361492492587163136942785571438926624759831389126574813295647947613258265874319
