000984000501000900083200070000176039600005001200430805020090087004502000306700050,762984513541367928983251674458176239639825741217439865125693487874512396396748152
009800502052009046740050000000007109084300000000000023090080710600420030000795008,169834572852179346743256891326547189984312657517968423295683714678421935431795268
500069010000001085007300902706040803890670000031005740005800034040200050620090000,582469317369721485417358962756142893894673521231985746975816234148237659623594178
208050090601309400070006005040061008017800000000400203406520801003090070080100960,238754196651389427974216385342961758517832649869475213496527831123698574785143962
060002180010309070574060000490050068002030500000008039800005001701080900020706040,369572184218349675574861392493157268682934517157628439836495721741283956925716843
009670000020003800070501034004060750300480620001300009700005040040010290806090300,439678512125943867678521934984162753357489621261357489792835146543716298816294375
690020000104600000003005070265003001040007980780514002000002130000890207500700400,697328514154679823823145679265983741341267985789514362978452136436891257512736498
005008060020031004704000100003080002890020500150904300900046700040500906008270003,315498267629731854784652139473185692896327541152964378931846725247513986568279413
080000700405600901300070064900010030700086290020400108019000002804023507000045080,186294753475638921392571864958712436741386295623459178519867342864923517237145689
000900706730024000090800010009705030380600420471000900000089054640010200000060108,812953746736124589594876312269745831385691427471238965127389654648517293953462178
001300069370010200006007040108032070040680001005040090050904000002060054960105008,421358769379416285586297143198532476247689531635741892853924617712863954964175328
405000000002450306907230048000000900000106750100049630501860000070010020380970000,435698217812457396967231548746325981293186754158749632521863479679514823384972165
000090060007005804060130005700409006182070000004028030000003107405002093309040020,541897362937265814268134975753419286182376459694528731826953147415782693379641528
900050700602040000000602480070010000204308001350900000108006040000197003760003502,943851726682749135517632489876215394294378651351964278138526947425197863769483512
098700006050002370400000921000849000004005030067001500009004060086027040100380002,298713456651492378473568921532849617814675239967231584729154863386927145145386792
609000030581040200070006510040010000805004600002583009490200007200870005003000902,629158734581347296374926518947612853835794621162583479498235167216879345753461982
600000001092060057800015400054080000900003045010006920300540702008001003070900680,645897231192364857837215469254189376986723145713456928369548712428671593571932684
000069004500002010070030089004850092780006300209100670047000803600004000135020000,812769534593482716476531289364857192781296345259143678947615823628374951135928467
109000000040010080720309005032580060050001400800267003476020090080003070005100042,169758234543612789728349615932584167657931428814267953476825391281493576395176842
901000007040001368500206000309520100014800050002004003000000670105703089800090201,961348527247951368538276914389527146614839752752614893493182675125763489876495231
008065903390802060040070001150200090200001380060034500007003104000000070006490008,728165943391842765645379821153286497274951386869734512987623154432518679516497238
100805000703100006080070049007020580059640200030080007065000308000900012240030600,194865723723194856586273149617329584859647231432581967965412378378956412241738695
830710090006400000070090013600000000050074002029301085103006208500000400000930056,835712694916483527274695813687259341351874962429361785193546278568127439742938156
840000000000320109120409007006050000034701025007600893070800000650090300001270450,849517236765328149123469587286953714934781625517642893472835961658194372391276458
000082004045607020100000900039000700506410090080005000003049061900850030710020580,697182354345697128128534976439268715576413892281975643853749261962851437714326589
060050930908710005004030600809100306010002058752000000400020073020408019000007400,261854937938716245574239681849175326613942758752683194496521873327468519185397462
900000734034600000005800100008000450000290360700030012000461000090005020603007508,986152734134679285275843196328716459541298367769534812852461973497385621613927548
900038500001790000023001607600080035004653100090100802060407900709000001540000080,976238514451796328823541697617982435284653179395174862168427953739865241542319786
430000200000104097076508030200080106010269008080050003002300074750010000890600500,431976285528134697976528431249783156315269748687451923162395874754812369893647512
013094006600701400000680020001008700008020040060570002702903080000050009430000100,813294576625731498947685321291348765578126943364579812752913684186457239439862157
000000009035078100268903000500001200090005783000740060600080042400302905050000670,741256839935478126268913457576831294194625783823749561619587342487362915352194678
000840002093602817600007530540000000000209051001074300050080700100300609020000040,715843962493652817682917534549138276837269451261574398956481723174325689328796145
000008052006030419309000000004603108500200007060071000601790084070080500900402703,147968352826537419359124876794653128518249637263871945631795284472386591985412763
000691002412030008000000500500000103700405029024089700900700000058004600076100300,835691472412537968697842531589276143763415829124389756941763285358924617276158394
090400307000020501508007200405130906000000020971500000630040800700009010009083040,296415387347826591518397264425138976863974125971562438632741859784259613159683742
706090080130600400090007002001000000400000958085704006320940000000065790000000104,746392581132658479598417632261589347473126958985734216327941865814265793659873124
000009020060001045924703010005008000078000204002960057003000006810002009050480100,581649723367821945924753618495278361678315294132964857243197586816532479759486132
042508000507000100003020080210004006036900000750800239008070003600009025000416070,142598367587643192963127584219734856836952741754861239498275613671389425325416978
000791080500030070001806390063040000109000007040902006304000008026070015800425000,632791584598234671471856392263147859189563247745982136354619728926378415817425963
060003048000510006200006900041208007507030600009005420000000000030400572008700190,165923748894517236273846915641298357527134689389675421712359864936481572458762193
390007601008409020724030000040000780003001000000520100160890450000070002502010906,395287641618459327724136598241963785853741269976528134167892453439675812582314976
082000091000003705050906023090102000643070080100000409030005007409200060015000930,382754691961823745754916823598142376643579182127368459836495217479231568215687934
028005003910200060003014097000049000070100800305000016007002009580300401092600030,728965143914273568653814297861549372279136854345728916137452689586397421492681735
000805100700009064008024090003096087000150300027000506006030078090002000305060201,469875132752319864138624795513296487684157329927483516246531978891742653375968241
009305020007600004010090083080002030400059060600008701005820010096070200030014500,869345127327681954514297683981762435473159862652438791745826319196573248238914576
603700040100008009085093700400200650009074030802100900000010002020905060350680400,693721845174568329285493716417239658569874231832156974946317582728945163351682497
200100064096004500000007809403890000570000200061705000102000040900060308085301070,258139764796284531314657829423896157579413286861725493132978645947562318685341972
030015080005006300200900076070020090500690108080304000400700903023840057061000020,637415289895276341214983576376128495542697138189354762458762913923841657761539824
050040031000005000947020060000312900006450007802709400003500000024006510060071008,658947231231685794947123865475312986396458127812769453183594672724836519569271348
300070402026308010509200008900150000000006140078030506002009000415620070000004300,381975462726348915549261738964157283253896147178432596832719654415623879697584321
007003918000470000360190000708020005090600823000500040010004280805900406020030007,457263918189475362362198574748321695591647823236589741613754289875912436924836157
040000590980000402000600318000802000501900004008500167300705009007006200400103005,143278596986351472725649318674812953531967824298534167312785649857496231469123785
800570020000040506019008030070009000900037160054002300100080002083106409062000000,846573921237941586519268734371659248928437165654812397195384672783126459462795813
090042030060080520005610970080700603009100040321005700007090050406000002000350800,798542136163987524245613978584729613679138245321465789837296451456871392912354867
800300450020040601900608072008000000160080290300765100039201060000000700247050000,816327459723549681954618372478192536165483297392765148539271864681934725247856913
708005600601300009300104500000806105025001004009000087000600090003078400270540003,748925631651387249392164578437896125825731964169452387584613792913278456276549813
076900302000006000054010009031800000500040071000590840100083090060000504298070106,876954312912736458354218769431867925589342671627591843145683297763129584298475136
500004000089060000010298006007006035005070841300900070004000200206100509900007013,562734198789561324413298756827416935695372841341985672134859267276143589958627413
006009007070423108400080050300900001002060005040108930160000203005700000080040090,836519427579423168421687359358972641912364785647158932164895273295736814783241596
008020001034050700620000000900043000710800300000009586200095048051006900070314605,598627431134958762627431859986543217715862394342179586263795148451286973879314625
190705002086003050054020001300000000608904500020080700071008609000530000402106070,193765482286413957754829361347652198618974523925381746571248639869537214432196875
305062004070095100006340208008070090540000000020400315090000000167030040004000783,385162974472895136916347258638571492541923867729486315893754621167238549254619783
200000079019040563000076080003008604040001090925000700000005130037600050080200000,268153479719842563354976281173598624846721395925364718692485137437619852581237946
000170000010250970308000000900500000051420003600980024500062700740810060003000089,295178436416253978378694152924536817851427693637981524589362741742819365163745289
300001507809060104000800009406007000050090210001583040200630008500020030080104070,362941587879365124145872369436217895758496213921583746217639458594728631683154972
054000600093006820200007004078603509300940006005010002600830100002009047130000000,854291673793456821216387954478623519321945786965718432647832195582169347139574268
050020086010056240690800000700010050380400002001902703000060005060340910004008007,457129386813756249692834571729613854386475192541982763978261435265347918134598627
850000690600310802020600004500084001390000000006007940010070500000029038207056010,851742693649315872723698154572984361394561287186237945918473526465129738237856419
300180200096004007000003500700005080105760090243000000900010006070208034000040721,357186249896524317412973568769435182185762493243891675924317856671258934538649721
002803900500060023008450000039710050020640000601000790807200010050007032000004670,162873945574961823398452167439718256725649381681325794847236519956187432213594678
610005000004903070300240009040060218008000590502070306050100023007004050000300800,619785432284913675375246189743569218168432597592871346456198723837624951921357864
350000902070065100000310008086204700000056001530090080890007604040100307002000090,351478962278965143469312578186234759927856431534791286893527614645189327712643895
204070800003860009065904000438090020500207904000035010000050083709001400000600200,294573861173862549865914372438196725516287934927435618642759183789321456351648297
014000985005071003060400200000006000830007500090820040040060307900000012027305800,714632985285971463369458271472596138836147529591823746148269357953784612627315894
087006000005170906301005400800900030014000508090600702058047060200009003000200104,987426315425173986361895427872954631614732598593681742158347269246519873739268154
800501006020090000005670300004856010300004902607030040403007500000020008980100407,839541276726398154145672389294856713358714962617239845463987521571423698982165437
005900320460002080001060000090000500100009243003810760004050007087103000502480090,875941326469732185321568974796324518158679243243815769914256837687193452532487691
000074026001000000070060015480005300300000079050019000108400600900580203045607090,593174826621958734874263915489725361312846579756319482138492657967581243245637198
026010000504000730091830040070096310060300000805400007050007960010200504900600082,326714859584962731791835246472596318169378425835421697258147963613289574947653182
008002370000500004630700901570001000402090080010400259006900412204070530000080000,948612375127539864635748921579821643462395187813467259786953412294176538351284796
002100600706080051050704090030090020587000003000050460021008000900003007300642080,892135674746289351153764892634891725587426913219357468421978536968513247375642189
900105000000073500030000874006024080015090600040007020027030100104006790350080002,978145236462873519531962874796524381215398647843617925627439158184256793359781462
001000005400760002030094000050000104000081030060203097090020001302540600008900070,671832945489765312235194768853679124927481536164253897796328451312547689548916273
807900001600008295240030000090000000020370504084150070000005302001007650000490008,857926431613748295249531867795864123126379584384152976978615342431287659562493718
605071008300000090041030205002480000184060300090000007007003500800600109410208000,625971438378524691941836275732485916184769352596312847267193584853647129419258763
083690704000005920060071000010000805420000007009863000270900058600000031005024000,583692714147385926962471583316247895428519367759863142271936458694758231835124679
014000900050801000006075002300567010260430005000200800087003409009000370040092006,714326958952841637836975142398567214261438795475219863687153429529684371143792586
600000903801007400000410086500100809163002000004073060000800002320096050400005070,647258913891637425235419786572164839163982547984573261756841392328796154419325678
830620040000007005072490100006240070091003400000500390029008037100070050008060002,835621749914837265672495183386249571591783426247516398429158637163972854758364912
050080070100605820908000100023800050000070680070549000000901400230067000614200300,352184976147695823968723145423816759591372684876549231785931462239467518614258397
048050610010900043230000700452009007080201930300067800100406002000083500000000000,748352619516978243239614758452839167687241935391567824175496382924183576863725491
005940000041000078390061200000075409200306580007002001503800000170030004000200600,725948136641523978398761245836175429214396587957482361563814792172639854489257613
500291000008000000069000730000002005700005163103600908801020000390800546070040010,537291684418763259269458731986132475724985163153674928841526397392817546675349812
029560010613009800000430002007002005350070491860000007004000030005680000790100000,429568713613729854578431962947312685352876491861945327184297536235684179796153248
019567008370200001400009050090806000007100285000070300000004613906050000084030070,219567438375248961468319752593826147647193285821475396752984613936751824184632579
030800710000065000200300054000009005910700620807510430008006007704230000003090800,539824716471965283286371954342689175915743628867512439128456397794238561653197842
580300000700092064060000502400850310071000000800400206009208040030009605100000007,582364791713592864964781532426857319371926458895413276659278143237149685148635927
059010620800700001003040050642000900105900708000030004090800000260001083001470506,459318627826759341713246859642187935135924768978635214594863172267591483381472596
500200068600174005209006307000600080360001200005090400102050070000017030048300000,574239168683174925219586347491625783367841259825793416132958674956417832748362591
400008560560704000203010970054070620000809700900040003090206010001300008728000090,417938562569724831283615974854173629132869745976542183395286417641397258728451396
