190520300302047090000309040050000780800004000900610003000870064060002509201005000,194526378382147695675389142456293781813754926927618453539871264768432519241965837
008040100507830020100906003009184050056000000400200097000520400234000019080000670,398742165567831924142956783729184356856397241413265897671529438234678519985413672
090005060004130870300900500200000401600280007108470005010004300980500106002600090,891745263564132879327968514279356481645281937138479625716894352983527146452613798
068090003001865000000104002070000005000603780540200010300041029620070040050900308,468792153231865497795134862876419235912653784543287916387541629629378541154926378
020600000703100600080934250240000801000201730005070060050008340009300000006050079,524687913793125684681934257247563891968241735315879462152798346479316528836452179
000001096007900485800706210104800000008060520760305008209400300300210000040008070,423581796617923485895746213154872639938164527762395148289457361376219854541638972
080059000000460030501207690805000002020043005700900810007300000310080250290006074,683159427972468531541237698835671942129843765764925813457392186316784259298516374
006090100900010562700500408060074083300000049290060000530200070470081005008300010,856492137943718562712536498165974283387125649294863751531249876479681325628357914
130090008027500046400007130010635800004029007000000300060000000900051702073804590,135496278827513946496287135719635824384129657652748319561972483948351762273864591
003504090000000002021970436804300000750012680000050701067000310340006807002040000,673524198498631572521978436814367259759412683236859741967285314345196827182743965
500608000600000030720940105000709004002510306180002070003005001010206908095070040,531628497649157832728943165356789214972514386184362579863495721417236958295871643
000206800014053020063010900050090000700005031000004650607000104300009002500408097,975246813814953726263817945456391278789625431132784659697532184348179562521468397
010208040007035001520600809208000007900001060030040500063900008100006254700000300,316298745897435621524617839248563917975821463631749582463952178189376254752184396
810007500004090700000832060060000140053000020409010630007086009020305000006709004,812467593634591782795832461268953147153674928479218635347186259921345876586729314
090162040080000100027504030005870090010020705308050006000703060601000504040000028,593162847486937152127584639265871493914326785378459216852743961631298574749615328
600091050700030008020800013000020300843005920090100007050608074160040800002079005,638491752715236498924857613571924386843765921296183547359618274167542839482379165
000106408001400030302050007000500001106097500490000200230000609608021350009603080,957136428861472935342859167723564891186297543495318276234785619678921354519643782
000000300987100052032400067008050001040007096250000800005936010160080900704210008,416572389987163452532498167678359241341827596259641873825936714163784925794215638
006010200108050007029843000400007003000960010085200000002300548070100062560008090,356719284148652937729843156491587623237964815685231479912376548874195362563428791
030187050050000007106043090280409000000600380007050001015900208400060900360000740,932187654854296137176543892283419576541672389697358421715934268428765913369821745
020607000160080030003501090600204000009700504050390067830100006400000215007002800,928637451165489732743521698671254389389716524254398167832145976496873215517962843
700600008001000030904003607506200000000005914003987060028001040057430209600020300,735642198261879435984153627596214873872365914413987562328591746157436289649728351
100900007400130065030070280015009300260000704000000058003405000870600042509008600,152986437487132965936574281715849326268351794394267158623415879871693542549728613
008010007001005462600930100000470050905000008140500209034092076000600800520800010,458216397391785462672934185283479651965321748147568239834192576719653824526847913
500800400790006203001020068039008500004075016070300009062090000400052907000104030,526837491798416253341529768139268574284975316675341829862793145413652987957184632
500008006073400000086300210700000053040009680015840000001006709200190035030507002,524918376173462598986375214798621453342759681615843927851236749267194835439587162
009003405100460000240008061000009650070300008605040900402670030030010027500802100,769123485158467392243598761321789654974356218685241973412675839836914527597832146
800000000160200004050006723900305060026400009307019800001003900000040178700850200,872534691163297584459186723918325467526478319347619852281763945635942178794851236
000079062024000000005040370089150040103680207070000008000430000608095030002060109,831579462724316985965842371289157643153684297476923518597431826618295734342768159
007901503050702000002030008000060010439000206800009450003100870904200100706004032,647981523358742691192635748275468319439517286861329457523196874984273165716854932
070000600050106090024503070400000308087002000010380045000920406900000030501600002,179248653853176294624593871495761328387452169216389745738925416962814537541637982
500000700036500409910240530000030000001800094359020016040670002080090150702008000,524389761836517429917246538468931275271865394359724816145673982683492157792158643
703005800080400907120006350830000000500072040002900060070509080000013009064020001,743295816685431927129786354837164295596372148412958763371549682258613479964827531
000000002080090530654001080070506003000008640109200005705804029032000400900130008,397485162281697534654321987478516293523978641169243875715864329832759416946132758
100290803030001070006074009000400160008650000023000905809100020070062000001030487,147296853932581674586374219795423168418659732623718945859147326374862591261935487
080054700000200036200170800020009604051060098000403010103007562500000007006900000,689354721715298436234176859328519674451762398967483215193847562542631987876925143
000305000317800400800090260090706001400000007050420380000001600073650092904080700,629345178317862459845197263298736541436518927751429386582971634173654892964283715
380000006001900407400201590204607030030502010700098000000030050850706001962000008,389475126521963487476281593294617835638542719715398264147839652853726941962154378
083007950000020000150008300000480700060090000490576080570610030900002401604000072,283167954749325618156948327325481796867293145491576283572614839938752461614839572
000304800007090004920600100063240001100003065095000700050008009040762000278100300,516324897837591624924687153763245981182973465495816732651438279349762518278159346
700000530460000809803051020000690083012008670000700400050930000009084001004027050,721869534465273819893451726547692183912348675386715492158936247279584361634127958
029040360070005020380200400800301000046007090000064807005012600900800050410059002,529748361674135928381296475897321546146587293253964817735412689962873154418659732
007100300090063740010590000900450200078000030200000968600070090420600005050310680,867142359592863741314597826936458217178926534245731968681275493423689175759314682
106580009002000804070036000400070002003804050709005010000200600060740103810900070,146582739532197864978436521451679382623814957789325416397251648265748193814963275
100075890000000401800030005078019000360400002010200070520008030409006000037050204,142675893753892461896134725278519346365487912914263578521748639489326157637951284
804001002000000706030490050007300001002050470400860009005900280060730900071040005,854671392129583746736492158597324861682159473413867529345916287268735914971248635
008030004093060800604208700040897560702500000080021003006070980035000010000109000,178935624293764851654218739341897562762543198589621473416372985935486217827159346
350900400604008027000600000000560792007004310020009060430200000590103008078000530,352917486614358927789642153843561792967824315125739864431285679596173248278496531
000002701507600200040580300005090003708003000001050096200830010079125000600004080,986342751537619248142587369465291873798463125321758496254836917879125634613974582
068000074000012009905000800806000030400900020370004108007050940010670002200031560,168395274743812659925746813896127435451983726372564198637258941514679382289431567
030200740500001902600087000109073600005020010800000050004000800000190003798046500,931265748587431962642987135129573684465829317873614259314752896256198473798346521
007016200302090016800500400000024008970060000000000539003000700009008365046170082,497816253352497816861532497135924678978365124624781539283659741719248365546173982
000056230051000700207040000079030605080900000004602810800100064003008590400023080,948756231351289746267341958179834625682915473534672819825197364713468592496523187
082900740604010500050000000007006004000041052206390170701030200800060009095020300,182953746674812593359674821517286934938741652246395178761439285823567419495128367
080000026300048790010030000059672040000001075036000000095700160000804032820109400,584917326362548791917236584159672843248391675736485219495723168671854932823169457
090580060004000070020600300005490000089006200401030007032007001006100090050003804,793581462614329578528674319275498136389716245461235987932847651846152793157963824
040290060080670500102005070230000005004700093609040200501003000070589002300060004,745291368983674521162835479237916845814752693659348217591423786476589132328167954
000005907600001000053900820500746000720008043008350010300270000090000402080014600,812435967679821354453967821531746298726198543948352716364279185195683472287514639
050028016900740200400000003074000005005200809030100070006390500008070024103005900,357928416961743258482516793274869135615237849839154672746392581598671324123485967
083200000900054002004860007602973010801000709400008050000030620009100405015700030,183297546976354182524861397652973814831425769497618253748539621369182475215746938
800000004000003172005746090603200901020060080780100030004890300900005610050010000,837921564496583172215746893643278951521369487789154236164897325972435618358612749
207390016046000000000104720090050007072906054800002300083509100000000040500230080,257398416146725938938164725491853267372916854865472391683549172729681543514237689
040000003060370290907080500050004329019200087000000060003198050621005000800603000,142569873568371294937482516756814329319256487284937165473198652621745938895623741
009007300430018000020400980007003001140500600800042070000390400070600053056000102,689257314435918726721436985597863241142579638863142579218395467974621853356784192
500089300000700001068300570007006052900010004234000000003004600080520090090071203,572189346349765821168342579817436952956218734234957168723894615681523497495671283
530000920006040837208019006040532000103098070090700000301000580000084200002600000,534876921916245837278319456647532198123498675895761342361927584759184263482653719
007060540200803009090010003004052080730004052020000006040300908000095000910020760,387269541251843679496517823164952387739684152825731496542376918678195234913428765
009040078003020610007008090048600000100003502300700000600005304052100069800209001,519346278483927615267518493948652137176493582325781946691875324752134869834269751
008007561613004900050020300380060000100709050025410009092008104000005000406300020,248937561613854972957126348389562417164789253725413689592678134831245796476391825
397020006500830201000500040700000908060400003100679000002360050483002000015008700,397124586546837291821596347754213968269485173138679425972361854483752619615948732
040301800000060340807095200080070000002100904019080605700052090093607010000003020,946321857125768349837495261684579132572136984319284675761852493293647518458913726
700090068063025070005000100046700000082040030100056090000319007010080002308064005,721493568863125479495678123946732851582941736137856294254319687619587342378264915
041030090000200150030570600008019400026008001054700000603900002000000078715300006,541836297867294153239571684378619425926458731154723869683947512492165378715382946
300905607000070020095420000076080001000000064000091730839060405100000200020508003,382915647461873529795426318276384951913257864548691732839162475154739286627548193
100007000040060705002509680000000072200094500061250030810030094630480000005000300,156827943948163725372549681594316872283794516761258439817635294639482157425971368
003204007500090000042816309000480010000300504016000820020000080907005001030940602,893254167561793248742816359359482716278361594416579823624137985987625431135948672
001580000000720805700469000050200107600000390049000026300050702090800003028030014,261583479934721865785469231853296147672145398149378526316954782497812653528637914
020400130003050694800010500450307080000000000680200900160098020502630000090100407,925476138713852694846913572459367281231589746687241953164798325572634819398125467
070600290020091700000020841008400050210067004403580106000058000039000020600004507,871645293324891765956723841768419352215367984493582176147258639539176428682934517
003000004601370020000462901805900047012000806060005000006500090700040182300890700,293158674641379528578462931835916247912734856467285319186527493759643182324891765
907000001600082050080497600001040008570206000003001000010700200042005036000300809,927653481634182957185497623261549378578236194493871562319768245842915736756324819
008702300204080097600350000900200630070905002000010008420036080000549010010000056,158792364234681597697354821941278635873965142562413978425136789786549213319827456
280030000005000039094700000100360400070501000000090028607080090003240607850006001,281639754765814239394752816129368475478521963536497128647183592913245687852976341
201007400050003278008690000500001083100570000962004000004710360096000507000030002,231857496659143278478692135547261983183579624962384751824715369396428517715936842
086307010001500070490020008000008100103050604600700592230894060000000900060001045,586347219321589476497126358952468137173952684648713592235894761814675923769231845
105900806200603400600857020004736102000008000070001053010405000903000608002000007,135924876287613495649857321594736182321598764876241953718465239953172648462389517
090630082004500010000009507803020070020180003009067048430012090600400005012700000,597631482264578319381249567843925671726184953159367248435812796678493125912756834
100000297090100048300740060008402003059080700040060010900000006076900502005038000,164853297597126348382749165718492653659381724243567819931275486876914532425638971
010470690908300000000060030030000006495000208800705100500820400000007001342009500,213478695968352714754961832137284956495136278826795143571823469689547321342619587
006054001300700000054301020007640902060090470000008030231065004009230805800000000,726954381318726549954381627187643952563192478492578136231865794649237815875419263
200060540070005080060097002002000000100700624500809003000130008020000079083006200,219368547374215986865497132732641895198753624546829713957132468621584379483976251
901260040007000000050437009030800502090026001004100690200510003570008100008070060,981265347347981256652437819136849572895726431724153698269514783573698124418372965
005010903100000060700249080069032007080005046200807500803500004000006721610070000,425618973198753462736249185569432817387195246241867539873521694954386721612974358
200560003090820070010009050100050340005076820070000100009312680840000002060007090,287564913593821476614739258126958347435176829978243165759312684841695732362487591
002508010001007380408930702000270060100609435059000000730000500005140020000006090,372568914591427386468931752843275169127689435659314278736892541985143627214756893
000801307060000059403007000042009805070030210001408000026070080309056400000100902,295861347867342159413597628642719835978635214531428796126974583389256471754183962
003009040040607200000150609130095007900480001020000900004000003800062570057008160,613829745549637218782154639136295487975486321428713956264571893891362574357948162
001003000072460050003875400040080390100542008006030005705600009020900064900000210,451293786872461953693875421547186392139542678286739145715624839328917564964358217
700050010040806502020790600807910004000003806300604051005000237003040000019020080,736452918941836572528791643867915324154273896392684751485169237273548169619327485
070000010200000007030609800004060092080020050003540160850400301007200006690038040,478352619269184537135679824514863792786921453923547168852496371347215986691738245
