040070008100080593053000006000840920010500807000026300080062045970000000002053000,649375218127684593853291476536847921214539867798126354381962745975418632462753189
000907060030001007402080005700410690108050040020800030806000000090060453015090280,581927364639541827472683915753412698168359742924876531846235179297168453315794286
095006420000075008000204607001080000007103905040060031004032500800700002063900704,795816423426375198318294657531489276687123945942567831174632589859741362263958714
906008300030000095475100600100609407000520000800000006087004200002060001540830709,916258374238476195475193682153689427764521938829347516687914253392765841541832769
037150400800040002000706005001005290360407800090260000400300000679000180080010507,937152468856943712124786935741835296362497851598261374415378629679524183283619547
003570002008010030790602050400051800030200610000090024000009400042003007107080090,613578942258914736794632158426351879839247615571896324385729461942163587167485293
000804002700090500381000090003900807400120600650007003094316020520040081000200900,965834172742691538381572496213965847478123659659487213894316725526749381137258964
280300006400000009109406030040050900930100080000260004506008010070002005800710203,287391546463587129159426738642853971935174682718269354526938417371642895894715263
620070100000010008007590063900003054503800700016740009300002090090400806800000510,629378145435216978187594263978123654543869721216745389351682497792451836864937512
432000090005040813000906500701090300040300002800261070509470000018020005000800006,432158697695742813187936524721594368946387152853261479569473281318629745274815936
080030070200045006040090001000976020001004500630102700508000000070060034003700280,985631472217845396346297851854976123721384569639152748598423617172568934463719285
386005009700803005000470000000100004109300020020080097030026900052000460807001052,386215749794863215215479683678192534149357826523684197431526978952738461867941352
270040900600900430000215700010300208003500070906020150800467090500000000004000360,278643915651978432349215786715396248423581679986724153832467591567139824194852367
070810300064700010900200005058030160600000839000070002000060000013409086200501700,572816394364795218981243675458932167627154839139678452845367921713429586296581743
900604800037050006000702130002307004076029500190000703401000009000086000850240300,915634872237158946648792135582317694376429518194865723461573289723986451859241367
307000000056080400000609001090051702100030806085040003004062900809300070200000304,317425689956183427428679531693851742142937856785246193534762918869314275271598364
800200164001873000205040000006704390008010050900500072450000008060300207003009610,837295164641873529295641783526784391378912456914536872452167938169358247783429615
650100007300000200004980000008070930030410806967000054000350018400000600015097020,659142387381765249724983561148576932532419876967238154296354718473821695815697423
750000410039040700008000005000120000600795030042000090210800540300600801060007920,756283419139546782428971365973124658681795234542368197217839546394652871865417923
160080070000001050002040300207800000801000630340000200600205089710600400008013005,163582974479361852582749316297836541851924637346157298634275189715698423928413765
079245003000600054100893600800004100320000067000750000940037001080009006702080030,679245813238671954154893672897364125325918467461752398946537281583129746712486539
000040200000509100037000908120060007400038000300701680050804010010200830069070050,981347265642589173537612948128465397476938521395721684253894716714256839869173452
340100009056800701008400020703009008000000050090741630207603500400050000560080270,342175869956832741178496325723569418614328957895741632287613594439257186561984273
802076900070150030000800005007000210000504000190030080930620000014000390700490068,852376941479152836361849725547968213283514679196237584938621457614785392725493168
071006000904070500360429010000301090058200730000000004230045006406000070007803020,871536942924178563365429817742351698658294731193687254239745186486912375517863429
013570400006008502000402003000000601800900000020601395000397004405800020197005000,213579468946138572578462913359724681861953247724681395682397154435816729197245836
605307010000400000200060830000009080013070009540600023000840200401005060080103007,695387412138452976274961835762539184813274659549618723357846291421795368986123547
010200458020090370608000100400000000093054200080070610040700890802036000051020700,719263458524891376638547129467182935193654287285379614346715892872936541951428763
050010680290000004001270090060040000000051207405908030080003901600090570700002000,357419682296835714841276395162347859938651247475928136584763921623194578719582463
004096705372504000000000080000025130906010570200030006080002010503007200009063407,814396725372584961695271384748625139936418572251739846487952613563147298129863457
490080600807010059050007000000096083008300204002470510169000070005000802200040001,491583627827614359356927148514296783678351294932478516169832475745169832283745961
800000000090420500170860030059030460260007010000580009014000073300004800506700902,842375196693421587175869234759132468268947315431586729914258673327694851586713942
450076000290300000001005870009060000800209430300400710500047908020800603000000140,458176392297384561631925874149763285875219436362458719513647928724891653986532147
100000305040008007007305281000709600200000000500082413700890002903070850004001006,182967345345128967697345281431759628268413579579682413756894132913276854824531796
170400060590080300030609800200940080360008109010005070000000006005203090080070041,178432965596187324432659817257941683364728159819365472721894536645213798983576241
900060100005903062102500300090240080030005210004078050758100036040007000300000908,983762145475913862162584397596241783837695214214378659758129436649837521321456978
008500000024700060500690023007249080000301709100005040010000270040008005260430900,638512497924783561571694823357249186482361759196875342813956274749128635265437918
000406908000000010047902300073058000950000200100304006002003090001087402036020050,315476928269835714847912365673258149954761283128394576782543691591687432436129857
900806030600102405017000000001509670800300029040020800708490350000730902005000001,952846137683172495417953268231589674876314529549627813728491356164735982395268741
700003024043805970006100800670002080208060007009030400002900000000300051850007600,785693124143825976926174835674512389238469517519738462362951748497386251851247693
080020900004000613705006004100090030040800790207450000350040008010270006006108020,681324957924587613735916284168792435543861792297453861352649178819275346476138529
200401000090203060870006100010390800000005000402000007600100385307064902008500074,263481759591273468874956123715392846986745231432618597649127385357864912128539674
010002030800700010605309004090005100000063700402870000136200000700104290040050080,914582637823746519675319824397425168581963742462871953136298475758134296249657381
060708000700020980002010004400970030800000276000605001300001847050004100100290053,964758312731426985582319764416972538895143276273685491329561847657834129148297653
920005800000008317000100000802031050367400020090600070504800002000017000208506930,921375846456928317783164295842731659367459128195682473514893762639217584278546931
000910407789000060002500030070004280800073109000056043350020004096000000040009810,635918427789342561412567938573194286864273159921856743358721694196485372247639815
300001060850090310000000509230900000100006054000074280083600007410709036090008400,349521768856497312721863549234985671178236954965174283583642197412759836697318425
500603010900740006030000020790250030020806405004090800000082560080905007100030009,547623918912748356836519724798254631321876495654391872479182563283965147165437289
040000980005107000009280050003046270000500400280901600001608003060053040050000720,147365982825197364639284157513846279796532418284971635471628593962753841358419726
001230090007085462000040800080400021010859006405002070960000100008060030250701000,841236795397185462526947813689473521712859346435612978964328157178564239253791684
900050000073000560400130802000020003607008051810000907060300008090046020005002410,928657134173284569456139872549721683637498251812563947264315798791846325385972416
800001074070020056540000800000080167790004000006052080025190000010003290400060003,862531974971428356543976821254389167798614532136752489325197648617843295489265713
010000800860900042203006009000010950400278306000059028908067400300040000050301007,519724863867935142243186579782613954495278316136459728928567431371842695654391287
620870040007000906000501030400200590560000000019004800035042700041005000280010009,623879145157423986894561237478236591562198374319754862935642718741985623286317459
014305006003000900950728000040607003020000010305009800001500360000100070087004520,214395786873461952956728134148657293729843615365219847491572368532186479687934521
000207009050016080200050060060001000300008074894060300003009050700800200902005401,136287549459316782278954163567431928321598674894762315643129857715843296982675431
809700060670201000005040090083450700010027800000100500300860002008000405940003001,829735164674291358135648297283459716516327849497186523351864972768912435942573681
002510090705042300080060024010020030870004600029003407000000900100836000600050048,342518796765942381981367524416725839873194652529683417258471963194836275637259148
400000500003900720805620094000100000600005312090080060702040081510360040000708000,429871536163954728875623194254136879687495312391287465732549681518362947946718253
430000907506000200020001065010070600000050028007039504609004030050008409080207100,431625987596783241728941365815472693943156728267839514679514832152368479384297156
600000008400200370210890000008309605000080941050000000090004082004506103123070004,639457218485261379217893456748319625362785941951642837596134782874526193123978564
700080030050420090890301204000060580610905700007100903003090857204506000000000000,742689135351427698896351274439762581618935742527148963163294857284576319975813426
409060070750003000080510400500391040008020000064800203000009001075002080102000356,439268175751943862286517439527391648318426597964875213843659721675132984192784356
802040970100007060003000005400100000925300800708006203000030059507408100060920004,852643971149257368673819425436182597925374816718596243284731659597468132361925784
060002007000010504900073180070000093205008600100230800840621000700009000050400302,561842937387916524924573186478165293235798641196234875843621759712359468659487312
190000005806000007000750190043002006001308059500091020020104063080000400600907002,197823645856419237432756198943572816261348759578691324725184963389265471614937582
204100090007300180050869000030000009000504032602900507410070003300000060798005020,284157396967342185153869274531726849879514632642983517416278953325491768798635421
800032500019060800006080072037649000602100350081000007000320090000500140403000600,874932516219765834356481972537649281642178359981253467165324798728596143493817625
007003002060700400024190050400380900038000205001006000002850047803041000900000610,587463192169725483324198756456382971738914265291576834612859347873641529945237618
104080000700601095590723400900000600030804000870560302600000201000096080052030007,164985723723641895598723416945312678236874159871569342689457231317296584452138967
058600000070908230002001500104000078060002000037010904040000769005300040086074150,358627491471958236692431587124593678869742315537816924243185769715369842986274153
900010020407008360080543007004930100302080000070005090800170409600000082050000030,935617824417298365286543917564932178392781546178465293823176459641359782759824631
001907630602008500050040081008031000730490008000005270003020017040000900805600004,481957632672318549359246781528731496736492158194865273963524817247183965815679324
318000020700100039040070600907200050004900000021043080005804090600010503000062800,318496725756128439249375618967281354834957162521643987175834296682719543493562871
000102903800009200600340051280603005001807002039010070006005109000000040070420830,754162983813579264692348751287693415461857392539214678346785129128936547975421836
604908320800017650150000800007030080002000405300060700090005000231704000046103009,674958321829317654153246897417532986962871435385469712798625143231794568546183279
000000613050470092080231000300900701001027040004600950600309007079000500402080000,247598613153476892986231475368954721591827346724613958615349287879162534432785169
902000014060041200003800050400280307700100905000030000007320040089005600020976108,972653814865741293143892756451289367738164925296537481617328549389415672524976138
700620048003900700400081005604007800000060020805210006300045071208300900000000600,759623148183954762462781395624537819931468527875219436396845271218376954547192683
000036200050400090009082310205060907030000680040710000000107400800090050470803120,184936275352471896769582314215368947937245681648719532593127468821694753476853129
570400802200057600000098030930040060000069005012003009300070286000005040480601700,573416892298357614164298537935742168847169325612583479351974286726835941489621753
601005000000710082570009006095000720480030600002080490010400005700290310004600809,621845937943716582578329146395164728487932651162587493819473265756298314234651879
000010908200700004100928000006000085003600402000890710508061009070000040042350060,367514928289736154154928637796142385813675492425893716538461279671289543942357861
930070042002160050068030000090607001000900586310045007100000024023090800000054700,931578642742169358568432179895627431274913586316845297157386924423791865689254713
080790000520000690300601008004050000607003020930400105700804036200006051008002400,486795312521348697379621548814259763657183924932467185795814236243976851168532479
024080600090350800000706190803000060040900030100430205900000548007020000056001007,724189653691352874538746192873215469245968731169437285912673548387524916456891327
010560208480900073600000090002048500070000000009036010300809002004023001008400706,913567248485912673627384195132748569876195324549236817361879452754623981298451736
350097010001020067400003005070002538039010000806504001000070000600001083003800426,352697814981425367467183295174962538539718642826534971248376159695241783713859426
280730590300840200060005000420600001190003750000907000040180370075000029903000006,281736594359841267764295813427658931196423758538917642642189375875364129913572486
200006389067000010100032000050090000080504902710203600004800000900005821000760053,245176389367958214198432567452697138683514972719283645534821796976345821821769453
100005000004092800709840200507034060000000070006950380800460501200003006040701930,128375694364192857759846213587234169932618475416957382873469521291583746645721938
400051092607308050000000006003007005206140300070080209040095000009000573020806010,438651792697328451512974836983267145256149387174583269341795628869412573725836914
000001364005000020000847090640903100003100006070050800304000009708204010120060057,897521364415639728236847591642983175583172946971456832364715289758294613129368457
190003800046027030002490000700002045300041900080030702070000056001900003060085100,197653824846127539532498671719862345325741968684539712978314256251976483463285197
000900300020310086508002004040105700100706490009080020074000150610030000002000000,461958372927314586538672914246195738183726495759483621874269153615837249392541867
010002003630790000000600850807100002062007900000500040400003010280906005150200368,715482693638795124924631857847169532562347981391528746476853219283916475159274368
010900000270000035000723006020078050469010080800300402500060003008004000001050724,316945278274681935985723146123478659469512387857396412542167893798234561631859724
160900085003800420080000000092105300007009004000063050300017009058304001400620007,164932785973851426285476193692145378537289614841763952326517849758394261419628537
000000003304006907018900260007089006050430000009010732200000650900170008480500009,596721483324856917718943265137289546652437891849615732271398654965174328483562179
806010507024050900100604020075002030300006804040001059000020015060840000597000000,836219547724358961159674328975482136312596874648731259483927615261845793597163482
