003207050000031400206000009934100060705000800000560304010006080058900002090042016,143297658589631427276485139934178265765324891821569374412756983658913742397842516
062070030908002001000830005100008046090021300457060000310000060000004829004605700,562179438938542671741836295123758946896421357457963182319287564675314829284695713
100008340054900070300420109060030007079150006200000850008000600030007010000069002,192678345654913278387425169561834927879152436243796851728541693936287514415369782
053602000009700016040051000700390200204007860006028050000840700032000605008000034,153682479829734516647951328785396241294517863316428957561843792432179685978265134
000650400016002007089070030000420000600905102000031080000000040054069320138000905,327658419416392857589174236871426593643985172295731684962513748754869321138247965
800010007037400610000000582050290400973000000006001805009503000260089030001700006,892615347537428619614937582158296473973854261426371895749563128265189734381742956
009000004507400080010962000000020971050017400003604805041305006000000030068070002,639758214527431689814962357486523971952817463173694825241385796795246138368179542
200630501000021067901000040856000030000570000000364002390807006704000008020900100,247639581583421967961785243856192734432578619179364852395817426714256398628943175
060001279070004010009250006300070000408009005010506042600023900700600800045100030,564831279872964513139257486356472198428319765917586342681723954793645821245198637
010009004400008070000320500000000030087450009905006801008000120760013000004285690,216579384453168972879324516641892735387451269925736841598647123762913458134285697
400008710058004906030020005007000050000001400200609007300200100645090208801706039,492568713758314926136927845987432651563871492214659387379285164645193278821746539
000100025900803610000026807037050062602007109001400030070030500106090040304008000,768149325925873614413526897837951462642387159591462738279634581186795243354218976
007040008200009100400867003900700012000000506508214000004600300102080907000903480,357142698286539174419867253943756812721398546568214739894671325132485967675923481
001705300043091056806400000087210000500004908000600042020506007030000401970002030,291765384743891256856423179487219563562374918319658742124536897635987421978142635
001403600204000907800062050010050002607800000495000001103006009900018400080020305,571493628264185937839762154318659742627841593495237861143576289952318476786924315
147030002600001309005280060060009080004300107091057400510400900082005003000600020,147936852628571349935284761763149285854362197291857436516423978482795613379618524
400508700002706001350900200005864000030000876001000900000010030000007520670002084,416528793982736451357941268795864312234195876861273945528419637143687529679352184
908007006004002380500610004000270010001983060750004000812300509400000008076050040,928437156164592387537618924689275413241983765753164892812346579495721638376859241
305020971006700050000190030800300096400050700001004000908000060503670082020801000,385426971196783254274195638852317496469258713731964825918542367543679182627831549
050090018348000700700000000620000051004001073970850040802700000000506409000030620,256497318348615792719382564623974851584261973971853246862749135137526489495138627
620000000008070340100406059270010090000000805005903610001230004903700080060504700,624359178598172346137486259276815493319647825485923617751238964943761582862594731
340690010700050090010030702500024603008100009460000000030006058029000406000872000,342697815786251394915438762591724683278163549463589127137946258829315476654872931
002958010400100000301020680700040290003007500200600708800000007000092004160503009,672958413458136972391724685786345291913287546245619738829461357537892164164573829
790800500806000312201050070030020060400098200000401008560007004000003920002009005,793812546856974312241356879938725461417698253625431798569287134184563927372149685
080070003409080507002501006040007980206000000570040010000026400100930700803004050,685472193419683527732591846341267985296158374578349612957826431124935768863714259
001040903000002060904700008008061050576300100023900400010070009300806720085400001,251648973837192564964735218498261357576384192123957486612573849349816725785429631
078520104003700200500010809302060000105074003060001420681300000000098007000100560,978526134413789256526413879342865791195274683867931425681357942254698317739142568
960000057040080000108935002896502014000098000704000000001700095009040103600000208,963214857542687931178935462896572314315498726724361589481723695259846173637159248
300900850000207010642050300007409000000006700985000601004100208010708930800003004,371964852598237416642851397167489523423516789985372641734195268216748935859623174
040102079000006500820900600100090040760300902003007005601048000050700000970230806,546182379319476528827953614182695743765314982493827165631548297258769431974231856
090604300020090400008001750900430080702500006060712000000100005500078930003060012,197654328325897461648321759951436287732589146864712593289143675516278934473965812
010407680600208004900100500580700016000900342009006070150000090200030008037540000,312457689675298134948163527583724916761985342429316875156872493294631758837549261
000804900400067105020010600759006000031290080000300000005148207002050431090000006,516824973483967125927513648759486312631295784248371569365148297872659431194732856
004003050869004010000061020070000540005780000300200900120000306007690001040018070,214873659869524713753961824672139548495786132381245967128457396537692481946318275
004300508305009010000260000950000000000000267802401003400032090009184002070506380,694317528325849716718265439957623841143958267862471953486732195539184672271596384
009070063003502804000100029000641000920000005700000380075469000064008010800300000,259874163613592874487136529538641792921783645746925381175469238364258917892317456
008000500000900070090721400600040207020105060100030908460080190053607000000090006,718463529342958671596721483635849217829175364174236958467382195953617842281594736
061800000400906038200700009008021670300400851000005003072003506009570400140000000,961832745457916238283754169598321674326497851714685923872143596639578412145269387
000130000105900047308002650060080005700240830004000762003609070549007080010020000,476135928125968347398472651962783415751246839834591762283659174549317286617824593
004130200600080003805709000720000008009060000080040567058000172000451000390200604,974136285612584793835729416726315948549867321183942567458693172267451839391278654
000624708290000030000091504560480010003005079000002400940053200170000050030000607,351624798294578136687391524569487312423165879718932465946753281172846953835219647
060300050500409630040007800800001200600850109107020003070604000408230000090108500,761382954582419637943567821839741265624853179157926483275694318418235796396178542
000032058800060000190405027047500000009008010000007032024900500030010006780006390,476132958852769143193485627347521869269348715518697432624973581935814276781256394
024000000050402038700900206000800170040501009906040002000308910570100600003076080,324687591659412738781935246235869174847521369916743852462358917578194623193276485
005030009042890710870000000080450076000019040200600030001000024450120000006780053,615237489342896715879541362183452976567319248294678531731965824458123697926784153
020140508017200300003780900500000630006008401034050007301907060065000020080004090,629143578817295346453786912578412639296378451134659287341927865965831724782564193
060109030073068200005000000008002509000040000132705060000500690700021080420603710,264159837973468251815237946648312579597846123132795468381574692756921384429683715
009530040860240507000709100000170000025600009400002800080000030046050200701906008,179538642863241597254769183698175324325684719417392865582417936946853271731926458
800043020007000904000176030050200010004007309631805000090300080120000645500060100,865943721317528964942176538759234816284617359631895472496351287123789645578462193
307200090040009035680000001020100860703500000890062000510008204004705006000640309,357216498142879635689453721425197863763584912891362547516938274934725186278641359
702300400600001003050840920000004680300200105590000070807013000000407206010950000,782395461649721853153846927271534689368279145594168372827613594935487216416952738
700230500968050400500040810000605030007800002020100900803000100604007059000400360,741238596968751423532946817489625731157893642326174985893562174614387259275419368
063000021000708090709130006000520040470010230590000108050004000080200503031950007,863495721125768394749132856318527649476819235592643178657384912984271563231956487
009008030007002406064790500002019705006004018810630000090045020003001900200070803,529468137387152496164793582432819765976524318815637249798345621653281974241976853
098005206410200078306800091200100000000004105059730000003506407670001003000900080,798315246415269378326847591264158739837694125159732864983526417672481953541973682
008001007600090080107000345000035609850029010020164700900603000004070800003450091,238541967645397182197286345471835629856729413329164758982613574514972836763458291
800070000040008059019360204030700605500904071008020090050000300400600012200103568,825479136346218759719365284934781625562934871178526493651892347483657912297143568
000000470195008000403256000200795803030800091000003000008019600750000102604020500,862931475195478326473256918241795863536842791987163254328519647759684132614327589
007080310100500042906400508700250800000000050008604009870000000009023000034000760,547982316183567942926431578761259834492318657358674129875146293619723485234895761
070231600800490002300060501050900074720300109060078000000010086405002000001000305,579231648816495732342867591153926874728354169964178253297513486435682917681749325
091200003063015000000900024070006001004030802058000790720004000005097030800520009,491278563263415987587963124972856341614739852358142796729384615145697238836521479
002309050000008709001060008030400000409207010700006520500812006163095000807040000,682379451345128769971564238236451987459287613718936524594812376163795842827643195
908025064204008103001070080003610000840300000106004079007080400000030215600509000,938125764274968153561473982793612548845397621126854379357281496489736215612549837
800009052000086100067250300000970046024000030030004018006538090001000700045060000,813749652592386174467251389158973246624815937739624518276538491381492765945167823
060230705900006030100700400030600079008520000040008501090000300080957204205100006,864231795957486132123795468532614879718529643649378521491862357386957214275143986
047002015000346000008000390800005720600080500100604030001537900020009008500100000,347892615915346287268751394834915726679283541152674839481537962723469158596128473
000036800501080040070090032008570000103000507002004060204759003005002014680000009,429136875531287946876495132968573421143628597752914368214759683395862714687341259
100400039700800060034790500520001070093080025007004000900006002008570603000120940,182465739759813264634792581526931478493687125817254396971346852248579613365128947
750000060083025009104870023000700005060031080000509612009000000207000930030080170,752493861683125749194876523421768395965231487378549612849317256217654938536982174
304970000000005210060308900002040500075006802010800060000210050009007040058030709,324971685897465213561328974682743591475196832913852467746219358239587146158634729
200075001091802006030900000485060030000700069000023400920050047000200000708001905,246375891591842376837916254485169732312784569679523418923658147154297683768431925
007405210290073000600190008023900400709080005040006000510007900008010006006500740,387465219291873654654192378823951467769284135145736892512647983478319526936528741
080000600014006900670213400190040005405760803007900000003080060000000702208590010,582479631314856927679213458196348275425761893837925146743182569951634782268597314
000030809180240000207006050040107095070004680602000300001800970306000000050019402,564731829189245763237986154843167295975324681612598347421853976396472518758619432
506070098307000600200308040000100780000504001030090206604005120070940000820003000,546271398387459612219368547952136784768524931431897256694785123173942865825613479
000370050023004060590800010056003002000009008304710000810905730040200901700040600,468371259123594867597826413956483172271659348384712596812965734645237981739148625
040000907007905430800430061000250700003806050900010308520140000600070000008300240,345621987167985432892437561481253796273896154956714328529148673634572819718369245
003020000086030092090504070900701058305000061060040000542003100000800700807009206,753926814486137592291584673924761358375298461168345927542673189639812745817459236
060000705004082190003005000400090037309748006010056800807910600000000302005804000,168439725574682193293175468486291537359748216712356849827913654941567382635824971
000078090040100002319500060950003000003020005406000180000805604000009017682004300,265378491748196532319542768951483276873621945426957183197835624534269817682714359
400037000005000701060009830308940020500000600029108047052000006000800090700264010,481637952935482761267519834378946125514723689629158347852391476146875293793264518
000900017005700600028006500030001060000630408970045200400090080502000340310028006,643952817195784623728316594834271965251639478976845231467593182582167349319428756
000307490980065000060010200001400368027000054000090070350600800002050000640000031,215387496984265713763914285591472368827136954436598172359641827172853649648729531
680000009900706102004000530058020000107003040420509010000087300200004960060012004,682135479935746182714298536358421697197863245426579813549687321271354968863912754
008000904040500630030012007009800143000360050000047000764050010801900300500000072,158736924247598631936412587679825143412369758385147296764253819821974365593681472
040000750000400000231007008059042030002830904300001060900306020006019580000570100,648123759597468312231957648759642831162835974384791265915386427476219583823574196
002000000800065401700890050500170300001002096326040000040000003037080009160709005,652417938893265471714893652589176324471352896326948517945621783237584169168739245
030610004000800200590400360002900050700081000086300040000120039150049800600000007,237615984461893275598472361312964758745281693986357142874126539153749826629538417
000200709320067500000001000060345000400020398007100600004900230850003010100600087,581234769329867541746591823968345172415726398237189654674918235852473916193652487
120005060809006023000000708004000106062300000000040039070081052050000490406090300,127835964849176523635924718394258176762319845581647239973481652258763491416592387
004120700036090050000007308900000605051270004003046000070935080460000090000800201,584123769736498152219657348947381625651279834823546917172935486468712593395864271
183000906740006800020050040800400003607012000039000205060049702000500190301028000,183274956745936821926851347812495673657312489439687215568149732274563198391728564
064030007900002608100000050000240900008050004002390060010500092080460035073800410,864935127935712648127684359651247983398156274742398561416573892289461735573829416
840010050009506003010270609001007308630000004007420010028905000000030005500004760,846319257279546183315278649451697328632851974987423516728965431164732895593184762
002009017058000400040600350000907620400810709300200000000040008260501900107306005,632459817758123496941678352815937624426815739379264581593742168264581973187396245
000000200031080504940710000006072401405001080000600003500900702280040136700003090,857436219631289574942715368396872451425391687178654923513968742289547136764123895
500023100090070084307080000009058706100000020005006409036540890008701000240000605,584923167692175384317684952429358716163497528875216439736542891958761243241839675
000920300003000007012000864060008439301007580095006200724010600500040090080503000,678924315453681927912375864267158439341297586895436271724819653536742198189563742
001042065530009000000080070245070010070030508009006020460800032800007900000013706,791342865538769241624581379245978613176234598389156427467895132813627954952413786
400620001050073820800905304001004090000761000030000405000280700940030000720100563,473628951159473826862915374281354697594761238637892415315286749946537182728149563
