070085006400009001000724090500300470940001800800060005200000030093207500001840600,379185246428639751165724398516398472942571863837462915284956137693217584751843629
070030008590004023206900100080000906000052070010003400950000804601070030000460005,174236598598714623236985147382147956469852371715693482957321864641578239823469715
301007068900050000070098415008001053120005009640020000000030000807600020000784301,351247968984156732276398415798461253123875649645923187419532876837619524562784391
010046000002700096709310008080054900600800005301000200000030400045207001870090050,518946327432785196769312548287154963694823715351679284126538479945267831873491652
005780060200506043000014900048100000760005200030049080006320010379400008000000507,495783162217596843683214975948172356761835294532649781856327419379451628124968537
300040020000800710059730400780090000921380070043100002830020150600000080004570900,378641529462859713159732468786295341921384675543167892837926154695413287214578936
063800024000000705200739800000104560045300000900002008180020009002607000036005100,763851924819246735254739816328194567645378291971562348187423659592617483436985172
070600080059302007360400090090000600005730410001009023000047002200050841000010500,172695384459382167368471295793124658625738419841569723516847932237956841984213576
006000039020890005708400002043650200600080100000027904000500300507069408180070000,456712839321896745798435612943651287672984153815327964269548371537169428184273596
049000500300450200500030017201980050006200900000106070700500008032094000860007040,649712583317458296528639417271983654486275931953146872794561328132894765865327149
007000020000080506060215000003004012042570090870190003010700000600040809090028030,587436921231987546469215387953864712142573698876192453318759264625341879794628135
000062004035400000670318090009007020006900708480053100000000236512000000000704800,891562374235479681674318592159687423326941758487253169748195236512836947963724815
005904300800060700010000002520079000003501800090408026650003081700040603900280050,275914368849362715316857942528679134463521879197438526654793281782145693931286457
006195304005820901200070000007080003000500410004230860109000006050603009008000745,876195324435826971291374658627481593983567412514239867149758236752643189368912745
003795060420000900007000831009040308800000012035600700051008006900130000060524090,183795264426813975597462831619247358874359612235681749351978426942136587768524193
030020560009080020020000704700500300061340007050001809480009031007264900506010000,134927568679485123825136794748592316961348257253671849482759631317264985596813472
000100096000247005078000230004600003010390620030058000203000901950006087006001400,425183796369247815178569234894612573517394628632758149243875961951426387786931452
080500017006013200090000300501908006030407080000020503060002009004070050009160874,283596417456713298197284365541938726632457981978621543765842139814379652329165874
603081504400005207802000006100076050005000079009038010010407000940010000000602800,673281594491365287852749136124976358385124679769538412218457963946813725537692841
640005090000386050700010008002900485074002030105600900839000007000030009010500620,648725391291386754753419268362971485974852136185643972839264517526137849417598623
002689015005043908700000000100890300000000050068100002040010070801970206903002004,432689715615743928789251643124895367397426851568137492246318579851974236973562184
105300900000000006900084570300002607056000000872500040040109300030460029007030018,165327984784951236923684571319842657456713892872596143248179365531468729697235418
500000039092050001310070800061040025000980703700000600043018002086002340050600000,578461239692853471314279856861347925425986713739125684943718562186592347257634198
007006902050308070194005060840050300000710000060020410000000006002430590508007001,387146952256398174194275863841659327923714685765823419419582736672431598538967241
007010305600000009108057060502063790040028000000905001085004600900000804360001057,427619385653842179198357462512463798749128536836975241285794613971536824364281957
100086020800504067304020000003000472070090001010200580048000103000005000690037048,157386924829514367364729815983651472572498631416273589748962153231845796695137248
350000040007080006020014085570003908000190000400600720210506030090040000780200614,358962147147385296926714385571423968862197453439658721214576839693841572785239614
003010050510040029009207008000100000780030406901065000052400800600000507100098063,823619754517843629469257138236184975785932416941765382352476891698321547174598263
167500092004000781090003000081600000700000950056730400308090640000014000200860007,167548392534926781892173564481659273723481956956732418318297645675314829249865137
500000000240710960003820507980003006072000030006280401060090000100052078000600340,517936284248715963693824517981543726472169835356287491764398152139452678825671349
000140000400980056001030002072000080800610079003000514500009367704000800090850020,259146738437982156681735942172594683845613279963278514518429367724361895396857421
000083204450600080002097500001000900560000307070008052040930800827040603009000000,796583214453621789182497536231754968568219347974368152645932871827145693319876425
060040800809001740040905600104020000070103500090460031005000006003200090006379020,361742859859631742247985613134528967672193584598467231925814376713256498486379125
920100073000500400000070290070005030400600918006030002030010006100704000542309000,925146873387592461614873295271985634453627918896431752739218546168754329542369187
069028000514070803002100079000003500000607040320040960607805000040000150080032000,769328415514976823832154679476293581951687342328541967697815234243769158185432796
000080070304509600017006800600400080005020000090030512746002000800701034030090005,562183479384579621917246853623415987175928346498637512746352198859761234231894765
001653000008000005020400039700002004090360000012900067000090078480205100060070520,971653842348729615625481739736512984894367251512948367253196478487235196169874523
300000410600900052070408009002090035000360780840050000500006041090170000108500603,389625417614937852275418369762894135951362784843751296537286941496173528128549673
024800130800000650691000700005400000706100804009030021307508000000060900000302000,524876139873941652691253748215489367736125894489637521347598216152764983968312475
090701350008000000200085609603000810079400205040000070100937002030040500080050007,496721358358694721217385649623579814879413265541862973165937482732148596984256137
050010467000090010704508002800020093600004700103080000207130805000605300009000006,958213467326497518714568932845721693692354781173986254267139845481675329539842176
073000820048070500000206074500900100420100900800042003005003090012054008000690007,673415829248379516159286374537968142426137985891542763765823491912754638384691257
506010900900025034000703800010930050087060000009407600021008090403076502000000071,536814927978625134142793865614932758387561249259487613721358496493176582865249371
380040000020800090700501026008010050500092070001005604800070940900000300003026701,386249517125867493749531826678314259534692178291785634862173945917458362453926781
090003074504008000320700100050004009046020080100906002009060705030105208200080401,691253874574618923328749156752834619946521387183976542819462735437195268265387491
800200163000004000605900008560702000100080490003046072402605300000000010390008025,849257163231864957675931248564792831127583496983146572412675389758329614396418725
000050000613980000750006201001000032090000470800049065907608040000003000038724010,284157396613982754759436281461875932395261478872349165927618543146593827538724619
060070390200080605000041080001096500435020010009000070070200009090035800346008200,864572391217389645953641782781496523435827916629153478578264139192735864346918257
900000763010708054025004008260035000004900005030400071400810900073600000600020800,948251763316798254725364198267135489184976325539482671452817936873649512691523847
630070820705000600000039100064207050000840000587100900001900430050004007300086009,639571824715428693428639175164297358293845761587163942871952436956314287342786519
401000300265000019000007460050030082003604097009870000007980250080401000032005001,471596328265348719398217465754139682823654197619872534147983256586421973932765841
090002030803500000500004706009060300001870005050000480020900603070103040048020950,794612538863597124512384796289465317431879265657231489125948673976153842348726951
604090030009405800175000000000804570210003000508000062090508024000200607000061980,684192735329475816175386249963824571217653498548917362796538124831249657452761983
000000970008650000010009045020306400096400087050020016500240000067001032100807000,645132978978654123213789645821376459396415287754928316589243761467591832132867594
900050004460970500080061200006087002000305080001004730050008600090010073003200001,917852364462973518385461297536187942749325186821694735154738629298516473673249851
100603028400000970062800105007008541000020003090051000080007000350009700700340082,175693428438512976962874135627938541541726893893451267284167359356289714719345682
004000300069400010100008057400120060000060985750030001035900000941007008000001020,874512396569473812123698457498125763312764985756839241235986174941257638687341529
680700050040892001003000900090100507010203400007400080800300729200080040006004003,689731254745892361123645978492168537518273496367459182854316729231987645976524813
015070830206080500000300060408001200090002000007600054040900600060053070072004309,915476832236189547784325961458731296691542783327698154843917625169253478572864319
070003904503002010000407580002005170007830000469070800000120006080006000010090350,678513924543982617921467583832645179157839462469271835395128746784356291216794358
630000040408052300007010600000041007902705800500830064020470000350000008086000091,635987142418652379297314685863241957942765813571839264129478536354196728786523491
200100370005064800187000096700600904090402001300050020000031700500080009061900050,246198375935764812187325496752613984698472531314859627429531768573286149861947253
000905300405070008098200001600009804083001079040630100030506000701040500209300006,176985342425173968398264751612759834583421679947638125834596217761842593259317486
500061204004003009000004061000007128006050000300908070089000500400020300010470902,598761234164283759732594861945637128876152493321948675289316547457829316613475982
000004090005030710600012005400070900201408030070105040007059800023807006004600000,712584693845936712639712485458273961291468537376195248167359824923847156584621379
000050800004293070060801904007004003820000010403580009000910706906730105050002000,179456832584293671362871954697124583825369417413587269238915746946738125751642398
070050900900073061082400003010068020000000000563001740100296400040080630790500000,371652984954873261682419573419768325827345196563921748138296457245187639796534812
028604009300500670000003001160805030005041800009070020041209086090000500670000002,728614359314592678956783241167825934235941867489376125541239786892467513673158492
010000270006030005708900400500060720009174008040302001000008593405000600900210000,314586279296437185758921436531869724629174358847352961172648593485793612963215847
085100003061000798900200000300001076600005809040070520700800010028300040094056000,485197263261534798973268154352981476617425839849673521736842915528319647194756382
790054006020000103600803070040070080035206001006508200902007008017000400500910300,793154826428769153651823974249371685835296741176548239962437518317685492584912367
307000000000042100920860000605304800430209050100000900000037001580001097003050260,347195628856742139921863475695374812438219756172586943269437581584621397713958264
006300940000027805002001006080902000530040061407056300700000058010074020040800090,176385942394627815852491736681932574539748261427156389763219458918574623245863197
003090021900470500461003008100005360048000790057000000704620100290040080800030000,573896421982471536461253978129785364648312795357964812734628159295147683816539247
003064051910000302080012000030780004059406000000000973890001030027800400000050680,273964851916578342584312796132789564759436128468125973895641237627893415341257689
100003004000690070862010050000040039506100002090008567000080200040005008007420390,179853624354692871862714953728546139536179482491238567915387246243965718687421395
600004008091000007580093000200107906000008315300045080000026400869000200040050001,623714598491582637587693124258137946974268315316945782135826479869471253742359861
006000080900730514050200007045310096702008300001000000000407802080560043009000175,376154289928736514154289637845312796792648351631975428513497862287561943469823175
000300608080005017710060340090043760240006000100000059030908000605200091000070030,954317628386425917712869345598143762247596183163782459431958276675234891829671534
609003020004080531000240700000000105280700603503104090050602000490010000308090007,619573428724986531835241769946328175281759643573164892157632984492817356368495217
090027835030105046004080000050036009000200080060740200306008021100000074907000300,691427835238195746574683192752836419413259687869741253346978521185362974927514368
690040002001007800040012350000050020107000600050386900003078094200609080870000103,695843712321567849748912356936751428187294635452386971563178294214639587879425163
300690007060820000005000420000570001639400200750360800184000000020701658000003009,312694587467825913895137426248579361639418275751362894184956732923741658576283149
020300056000000290000640100100000860900000402006785010370508000509410600401270003,824391756613857294795642138137924865958136472246785319372568941589413627461279583
000020040000500170158600000070080006002903080045000200060390407200010300009064051,397821645426539178158647932973482516612953784845176293561398427284715369739264851
400516080980000016002390700040001002073800000510002060000025070650904003000600094,437516289985247316162398745846751932273869451519432867394125678658974123721683594
904006500000100967010050380206310400003004025000780001000400809790000000050068100,934876512825143967617259384276315498183694725549782631361427859798531246452968173
009604000051090030680503207030700000190005608000460170702100000060340005000000824,379624581251897436684513297436781952197235648825469173742158369968342715513976824
470802009021000307080050006608003704009010030300400890005704010004360500000900002,476832159521649387983157246618593724749218635352476891865724913294361578137985462
406000230030010005000602087000273100057008006900500048605100800000746002271005900,486957231732814695519632487864273159157498326923561748645129873398746512271385964
800010009091800045030706080000001264300009001025080000480020010650000307207560000,862415739791832645534796182978351264346279851125684973483927516659148327217563498
800406000702000104500100079074060500080009002065803000300005091001020058000907230,819476325732598164546132879974261583183759642265843917327685491691324758458917236
000007090810050302097080160075090030000360020600000504401603750050700006020010800,562137498814956372397482165275894631148365927639271584481623759953748216726519843
056000391700801000004900806308506100209307004000020000000000002400010059075048600,856472391793861245124935876348596127219387564567124938631759482482613759975248613
004087006100250000025900701001020937000005082003006400700000300340070509069802000,934187256176254893825963741651428937497315682283796415712549368348671529569832174
003070450500000190007006002620087000090040020700001364400050080230798001105000009,813279456562834197947516832624387915391645728758921364479152683236798541185463279
000003908850640012102005706003401200700800630640700091010090003080270000967000000,476123958859647312132985746593461287721859634648732591214596873385274169967318425
009008401070030850560010020040200007030000190906083040000309000091065002200074680,329658471174932856568417923845291367732546198916783245687329514491865732253174689
700060002504300000600080940103079850005000037000501000007000018208600304090420060,739164582584392671612785943143279856925846137876531429467953218258617394391428765
028601000000085009060900300010300000042070500506000721307009014000003008050460907,928631475473285169165947382719352846842176593536894721387529614694713258251468937
