000300002209016003700080100806004000402000756000005094038059040100400039000260500,561347982289516473743982165856794321492831756317625894638159247125478639974263518
053004200001600408000903006900502180004807020020000009260050000030046070800710300,653184297791625438482973516976532184514897623328461759267358941139246875845719362
698030570700058000210700000080000250002861000006400013000096140530017009000000032,698132574743658921215749368481973256352861497976425813827396145534217689169584732
800003102030004790007600000000150008269040000000070430070002050005980600086530019,854793162632814795197625384743156928269348571518279436971462853325981647486537219
000400100280000073400036502000001060005070910070803205504600009090002000037580004,753428196286195473419736582842951367365274918971863245524617839698342751137589624
105043902600009040000802750070610000004200000290005104302000009008030506050000870,185743962627159348439862751873614295514298637296375184362587419748931526951426873
000090702420106800809700005001500408700040309080032060015003070603000500900070001,156398742427156893839724615391567428762841359584932167215483976673219584948675231
080012004092006580400000003006704000000050937100230000064000000020000158305079206,683512794792346581451987623536794812248651937179238465864125379927463158315879246
007500000400009368060042001000000900020407000504120080905000000801360240000001703,187536492452719368369842571713658924628497135594123687935274816871365249246981753
010006903000452008600009000000000785003600041207085000005730010702901004430000609,514876923379452168628319457196243785853697241247185396965734812782961534431528679
030810070400050096070002800040000000201305064603907200082039000000500901000064005,935816472428753196176492853847621539291385764653947218582139647364578921719264385
007002009060009510300008062001070430005900806070345000840000100010600027090053004,187562349264739518359418762921876435435921876678345291846297153513684927792153684
004001200851230000076000000700809100003605970000000426105004000308906740000000819,934561287851237694276498531762849153413625978589173426195784362328916745647352819
806040730072009060004010000400090002700100600000635900015008090000260018020000307,896542731172389465534716829463897152759124683281635974315478296947263518628951347
008650013500007000900483520706301000000002780005040900010006350003010870490000002,278659413534127698961483527786391245349562781125748936812976354653214879497835162
100060280725400003800007004200670040000005010000903805080000032030080960016090500,143569287725418693869237154258671349394825716671943825987156432532784961416392578
097820060240000003600005900070230050000097208003406001030984500150600800400000076,397821465245769183618345927971238654564197238823456791736984512152673849489512376
090400007870060002016080050052001004004700208000340790001970830600005000309620000,295413687873569142416287953752891364934756218168342795521974836687135429349628571
230000007060700500900105204007063091400070803500980000300000089750010600081020000,235846917164792538978135264827563491496271853513984726342657189759318642681429375
200960000534000010016300807000180240050000090098004006700200380069010500300750004,287961453534872619916345827673189245452637198198524736745296381869413572321758964
040072301836005074070000000700204000005109028003080900010500406080300150902600000,549872361836915274271463589798254613465139728123786945317528496684397152952641837
071000000602310400500070208090000500000081020040753600050000800003006009010005367,471528936682319475539674218197462583365981724248753691956137842723846159814295367
407085030086002000520400901000000397001000004905076800200090078078201400600000500,497185236186932745523467981862514397731829654945376812254693178378251469619748523
090075000108640000200300054600201070030060520009087030060000000907400300503790260,394875612158642793276319854685231479731964528429587136862153947917426385543798261
002103008460027030008000705080006000000080209240095010039000067100630080500010400,792153648465827931318964725981276354653481279247395816839542167174639582526718493
890100050270003406061070000020008090507200040480600320000710805003024100900500000,894162753275983416361475982126348597537291648489657321642719835753824169918536274
020930700040008630508704000009026008060100050200050310700400000385000040010000829,621935784947218635538764291159326478863147952274859316792481563385692147416573829
092380070046005800500200410000090000730008650015000940008106702000057080903000100,192384576346715829587269413864591237739428651215673948458136792621957384973842165
400508260007003400906100050000600020040070100030820604078430090290010800005900001,413598267857263419926147358781654923642379185539821674178436592294715836365982741
270034058608100000090000040000000060500600807007058230023541090006209081700003004,271934658648125973395786142982317465534692817167458239823541796456279381719863524
000831500020070000004090810003050001001409000970100086840000305006002070039605042,697831524128574639354296817463758291281469753975123486842917365516342978739685142
400009050007050498000806302003008040009700105620400700052030006010500900084010037,438279651267351498195846372573168249849723165621495783752934816316587924984612537
002076008560900024008500100100000300004005079030802000300400001697010040800003097,412376958563981724978524136156749382284135679739862415325497861697218543841653297
200004006009100030013002005071860020532000070400000900067900080005701400800520013,258374196649158237713692845971865324532419678486237951167943582325781469894526713
500803100009270060804001500007030008000500430023004090206000057008000001010409002,562843179139275864874691523457936218981527436623184795246318957398752641715469382
000000091000062504350008020017080305020009000840613070006000040480720000100035089,264357891798162534351948726917284365623579418845613972536891247489726153172435689
801000090090034600300500700070200100004879230500013060000007002032001040605040809,851726493297134658346598721973265184164879235528413967489657312732981546615342879
300705046865041000900000002003000029740500100000380600020106903009078050000002704,312795846865241397974863512583617429746529138291384675427156983639478251158932764
070603900430090007500020010057100036000080200980502400100008790008004605003000080,871653942432891567569427318257149836314786259986532471145268793798314625623975184
802060901000000734730000008491058000060930080005400200900140006600007500504002190,842763951156829734739514628491258367267931485385476219923145876618397542574682193
500043100000090470970280000830000060000006005205170000000020701148900302003500094,586743129312695478974281536831452967497836215265179843659324781148967352723518694
000000407906002050034760000045300600008040039007080200000806094001507302020130500,182953467976412853534768921245379618618245739397681245753826194461597382829134576
132006000400009500005000726980001000000720609004053000209045000700100080040030012,132576894476289531895314726987461253351728649624953178219845367763192485548637912
068300000900070200000102604700005009490060008000009321036087950502001040000500703,268354197914678235357192684723815469491263578685749321136487952572931846849526713
948015060050003870030026500027050600000289000100000054000301900500060780293000010,948715362652493871731826549327154698465289137189637254876341925514962783293578416
206090000300005804000100762800000050030010400079002608540000370100507200098060001,286794135317625894954138762821476953635819427479352618542981376163547289798263541
120000000908000750030060000009800601400000570087350204371640080000030060046289000,125793846968412753734568129259874631413926578687351294371645982892137465546289317
560410209004000000103905060000020007090006080610708005701809400400207930030160000,568413279974682513123975864845321697397546182612798345751839426486257931239164758
000000891970203004400000000050079120030004000629310050008005036003046700510700008,362457891971283564485961372854679123137524689629318457748195236293846715516732948
780530002024090003050700008000200160000807009069000050170604000500071240300005080,781536492624198573953742618837259164415867329269413857172684935598371246346925781
000102005800640030706000049000930810010080003508704006004007200060300097290000050,943172685851649732726853149672935814419286573538714926384597261165328497297461358
000785100007000500890340060209000400430060205001030080070906010140800309002400000,624785193317692548895341762269578431438169275751234986573926814146857329982413657
000003190007006003052017040020000080040081629096050400000009008605430002180060700,468523197917846253352917846721694385543781629896352471234179568675438912189265734
007000014010506700200004800040087061306040020001090005462071508905000000070300009,657839214814526793293714856549287361386145927721693485462971538935468172178352649
100050896803000500009016024408001073030500000906002000700490000000008041020037005,142753896863249517579816324458961273237584169916372458781495632395628741624137985
380509004000000600041006309200000003600324001907008500800961005090800700000450200,386579124529143687741286359214795863658324971937618542872961435495832716163457298
400002580000106002060084070906200007503000401020300090015000009302008060708053000,431792586857136942269584173986241357573869421124375698615427839342918765798653214
003200705850090000000070001200486090000019207045000600004003060610020300509008002,193264785857391426462875931271486593386519247945732618724153869618927354539648172
000298006500000004072006018000410070007853020193007000000104002048030009050080030,314298756586371294972546318825419673467853921193627845739164582248735169651982437
901000007065000020730250040040003780002700390000081006000379610003500002080640905,921834567465197823738256149546923781812765394379481256254379618693518472187642935
000040900840002613065009708020300890530200004000010006107500400006000020390007001,713648952849752613265139748621374895538296174974815236187523469456981327392467581
040100200902064000308090005094000308070019602005080100000078030039050047500600901,746135289952864713318792465194526378873419652265387194421978536639251847587643921
902050074058006100006930002000023008000600000375001090190800020080000060060704501,932158674758246139416937852649523718821679345375481296197865423584312967263794581
500760301080002009004090526019000800300010047400003600601549008025600700003800000,592764381186352479734198526219476853368215947457983612671549238825631794943827165
602008509831000060000000070000060902200103000085090640043570000009080107000016053,672438519831759264954621378417865932296143785385297641143572896569384127728916453
502060830780010000900000407010600000003080009004700508007508320050031006020400090,542967831786314952931852467815649273273185649694723518167598324459231786328476195
807400900300620005050079040000000000040703169609050807001840570020000301500106002,867415923394628715152379648783961254245783169619254837931842576426597381578136492
500040930600001000070602008002030007940080350850900062080103040006000000719520080,521748936698351274374692518162435897947286351853917462285163749436879125719524683
001500080020010340036400107690084005207006090000100003040020000059807620000000871,471563982925718346836492157693284715217356498584179263748621539159837624362945871
004800000036200509510400007405901830002005006378002100000508701900000000000163054,724859613836217549519436287465971832192385476378642195643598721951724368287163954
012068370090200100085130009034500001007043000000020060900407800600080094500000230,412968375396275148785134629234596781167843952859721463923457816671382594548619237
600010904008500000020004050400305000090620700003008012971203000530089070084100006,657812934348596127129734658412375869895621743763948512971263485536489271284157396
000100590270800063000309084504008020012700000036000058067000010040960000008540039,483126597279854163651379284594638721812795346736412958967283415345961872128547639
604201008008043702000009100502600090040700300091080450270000014100000583000036000,654271938918543762327869145532614897846795321791382456273958614169427583485136279
100050073080002014047016000760008000200091850009400300350600000006007901900020400,192854673683972514547316298765238149234791856819465327351649782426587931978123465
200700910600054003007003502004008001320600005090025080060300700500062009401070030,235786914619254873847193562754938621328617495196425387962341758573862149481579236
062509700703001520001000680300000060026904000500208413090170000000000305000402098,462589731783641529951327684348715962126934857579268413895173246214896375637452198
036400910900003500200950006089010750000300008000070200012006004057080390004007600,536428917941763582278951436489612753725349168163875249312596874657284391894137625
002000108609010000100594702030002670024065080850009003000800009400703000060040250,542637198679218534183594762931482675724365981856179423217856349495723816368941257
408007501010090006600008043090010020103009405050034700807005030002700000500620080,428367591315492876679158243794516328183279465256834719867945132932781654541623987
860200070000908006004000200000000081900316004057000020070800000592603000001050439,869234175215978346734165298346527981928316754157489623473891562592643817681752439
300048290060000000005900107000080000980107630702006045140009560053001028000630001,371548296869712354425963187536284719984157632712396845147829563653471928298635471
006371080042605900780000000230010508091004200000000340007020000500400029009800136,956371482142685973783942615234716598891534267675298341367129854518463729429857136
390106040502030070080070001160008002000650900004000130630900000201405000008700065,397126548512834679486579321169348752723651984854297136635982417271465893948713265
050007013600583004004000200008201060010300490200956007300102700090000526000000800,859427613621583974734619258978241365516378492243956187385162749197834526462795831
079008500200050300003046001300007089006830400004000205100962000500100796008500004,479318562261759348853246971315427689926835417784691235147962853532184796698573124
300004268270060040104058900000900075980073600000020010430100002005000080002097003,359714268278369541164258937623941875981573624547826319436185792795432186812697453
104900720030600080500028400700002010810000000020050308070240500000060003649013070,184935726932674185567128439795382614813496257426751398378249561251867943649513872
080003420200014908390060000007000050010070003502048001040106700708230060000080095,185793426276514938394862517467321859819675243532948671943156782758239164621487395
605908001800047020030000970260004000500006030091500000000000180327100056040260003,675928341819347625432651978263894517584716239791532864956473182327189456148265793
002090050509087640060203007004308010028000009150460200807040003000001705000070960,782694351539187642461253897974328516628715439153469278897546123246931785315872964
900003027000900004010027830068790000204081000170560400007430015500006000003010092,986143527732958164415627839368794251254381976179562483827439615591276348643815792
080065001002007030300000940907800520000094800030206000750080196041500002200030000,489365271512947638376128945967813524125794863834256719753482196641579382298631457
050701089004060207800500004700096002031000700265470800020050603500009010086000000,652741389314968257897532164748196532931285746265473891129854673573629418486317925
290050600304291050100004000001000436040003700080500092650078003002630908007900000,298357641364291857175864329521789436946123785783546192659478213412635978837912564
200905008940000023006080100053704000000060850701009004302506091000270360070100000,217935648948617523536482179853724916429361857761859234382546791194278365675193482
600000013070100902008205600000074806050300074090008020000000000103720058524060039,642987513375146982918235647231574896856392174497618325789453261163729458524861739
040507000800463010007002903900080021075900064010020307504000000080006250329008000,143597682892463715657812943936784521275931864418625397564279138781346259329158476
700320009080000452040100760050430008003096120002500000000070000610000230007080694,765324819381769452249158763156432978473896125892517346924673581618945237537281694
501060024000003070930020500006010080004350002200470051029040007370800006068200900,581769324642583179937124568756912483814356792293478651129645837375891246468237915
