007080000950010004038205100301907005070000000604800093010029040200000560090643080,167384952952716834438295176381967425579432618624851793816529347243178569795643281
003005000500302610000070020002030904067904100008060500009020450476080030000106008,723615849584392617691478325152837964367954182948261573819723456476589231235146798
085030040240000108300600050097000800000901306800704020702800090400003001000059062,985132647246597138371648259697325814524981376813764925752816493469273581138459762
046001083209003060500400702002000600000029005060507908078040050003080001490170000,746291583289753164531468792952834617817629345364517928178346259623985471495172836
006002000400090201000763900304100000060508027720000300200001500150980040078050030,596412873437895261812763954384127695961538427725649318249371586153986742678254139
100720009000000170049103000200060380070054002908001500500008206016000800003009054,185726439632495178749183625254967381371854962968231547597348216416572893823619754
020096003700002040001703205080064000002900004360010080530800009070500162009040000,825496713793152846641783295987364521152978634364215987536821479478539162219647358
603402085001000002700081906006000508020390704570000010000006049300200000080734600,693472185851963472742581936436127598128395764579648213217856349364219857985734621
069008050170020006400301200750000104000405620820900030300004785698200000000103000,269748351173529846485361279756832194931475628824916537312694785698257413547183962
080260001020070050305100200601043007490510008070000504730006000209008465040000080,987265341124379856365184279651843927492517638873692514738456192219738465546921783
081700002600500040000049006360000080009300754005217060700602009050000000210084370,481736592693521847572849136367495281129368754845217963738652419954173628216984375
000009036800071054020850900006300705209400010708000060400106003010500040000020009,571249836893671254624853971146382795259467318738915462487196523912538647365724189
006004273000810000400007180320000065608200009001709300007950040853000092010680000,186594273732816954495327186329148765678235419541769328267953841853471692914682537
306000000000806401170020008950004100060900030200070084090057600030200045700103002,386741259529836471174529368957384126468912537213675984892457613631298745745163892
050800014001920000749500002000697300387000000000001450630040780005060109100005200,253876914861924573749513862514697328387452691926381457632149785475268139198735246
004905382800070000021060007002047835635001000070000906007200059100004600050000000,764915382893472561521368497912647835635891274478523916347286159189754623256139748
010305096000001700825000004040070060500209100300560080070400020480030501902007030,714325896639841752825796314248173965567289143391564287173458629486932571952617438
300820007500039000864000000170000900005900086000152400009007008610004720002581600,391826547527439861864715239173648952245973186986152473459267318618394725732581694
000642000080700340006035092300000007400009850861050030005076009090004710100000200,913642578582791346746835192359418627427369851861257934235176489698524713174983265
001008702000600030739004050000490003000107090020050016012506000008320001096080304,651938742284675139739214658165492873843167295927853416312546987478329561596781324
200050047710000900809030120083017002402080700500900000600340000005002093000600058,236159847714268935859734126983417562462583719571926384698345271145872693327691458
003250600000000025200094710041030090609000807530720006900008070060001408017040000,193257684476183925285694713741836592629415837538729146954368271362971458817542369
075000020200010090010400307000029080100070402006340150037000900940005018500600000,475963821263817594819452367354129786198576432726348159637281945942735618581694273
060901307800050009070000580400306005006027000900045130002000064080003900051060020,265981347843752619179634582418396275536127498927845136392518764684273951751469823
001000004000750803032000901609500040000082709020043500506008000470130005090070060,851329674964751823732864951689517342345682719127943586516298437478136295293475168
001060040080000203073400910260008057005270009800016000000901460030800590040020008,921763845486159273573482916264398157315274689897516324758931462632847591149625738
200900143405030670700600000301780002090040360008005000070069400050008090064100500,286957143415832679739614825341786952597241368628395714872569431153478296964123587
000970200600040100010003587870060000003005010500002806738200045094000030100007000,385971264627548193419623587872164359963785412541392876738219645294856731156437928
206000091050006208004070030000095470080002103000163059127400000560300020040008000,236584791751936248894271635613895472985742163472163859127459386568317924349628517
200090064100072300086000700002100005090030800308004002040900058500460100071503900,237891564154672389986345721762189435495236817318754692643917258529468173871523946
701000423508009000060700000005940100103080000800360572204006007000030016000500890,791658423538429761462713985625947138173285649849361572284196357957834216316572894
073500620000020390600001400004200103030405070090006008809010200060004700051900000,973548621418627395625391487584279163136485972297136548849713256362854719751962834
300049207080003950005200001070000020600805700159004300001090006860370000200008410,316549287782163954945287631478936125623815749159724368531492876864371592297658413
900405200038001009007060043090503060002070000350602704600000000040100587100208900,916435278438721659527869143794513862862974315351682794689357421243196587175248936
260900870000007109000480020820063010907020000051008003080041590406000700305600002,263915874548237169179486325824563917937124658651798243782341596496852731315679482
100000027040089060006200904009300200400700800830156070000600030085007100720014095,198463527247589361356271984579348216461792853832156479914625738685937142723814695
015200060000500803600039010003600400709008000000040172901002050008300724070860300,315284967297516843684739215123657489749128536856943172931472658568391724472865391
006430000092650310007000080100874600350010072000000900001500004200009150680240000,816437529492658317537192486129874635354916872768325941971583264243769158685241793
400700500010680003580024900000071650000008040705900008800019070062300000309056204,426793581917685423583124967238471659691538742745962138854219376162347895379856214
005070800040920305090000001900560130007380002000001648003007410510609070400200000,235176894741928365896435721984562137167384952352791648623857419518649273479213586
006400500150900004403620900380007060007000092509130000000008000905002780760040030,896471523152983674473625918384297165617854392529136847231768459945312786768549231
050014860870000001030059020080000000060472000401085037000060012009203008600100345,952714863874326591136859724287931456365472189491685237743568912519243678628197345
004031708205007000010942300050010002300080401009604070800200035002093060900000010,694531728235867149718942356457319682326785491189624573841276935572193864963458217
030000001009020685004005203700083000001900020200600304000068900067010500015709400,532896741179324685684175293746283159351947826298651374423568917967412538815739462
908007532720009010004060000300500000012038760087001004001003089000410200650090000,968147532725389416134265978396574821412938765587621394241753689879416253653892147
900000007805060201000059840502400008070020600041307000013092400480070006006100030,924831567835764291167259843592416378378925614641387952713692485489573126256148739
030041907006500030009002816067300040500900002001080600003804000040060500810270009,238641957176598234459732816967325148584916372321487695693854721742169583815273469
300410070048000025050002360020090000009057610700600093070008001600300008015249700,362415879948736125157982364526193487439857612781624593273568941694371258815249736
007340025030000010008009007000080209060100003952600400000013500120705040040020076,697341825235876914418259637371584269864192753952637481786413592129765348543928176
500001000027936000430000800000020108100500090083400700204090650900300072006074001,569841237827936514431752869795623148142587396683419725274198653918365472356274981
020004056040720009316008070400270000005001000709305010802060700000900604090800320,927134856548726139316598472481279563235681947769345218852463791173952684694817325
000400700500900036802001004003002819059760020004010000900850100620003045000000370,396425781541987236872631594763542819159768423284319657937854162628173945415296378
000500700620300040140070008003050080780026501009000206450701000090082007800000194,938564712627318945145279368263157489784926531519843276456791823391482657872635194
040003701003020000806090000700150030002007600015069008697000003050000080201004967,549683721173425896826791354768152439932847615415369278697218543354976182281534967
603004780001006900480073050070000098029050001000280004200090000035000069008100320,693514782751826943482973156574631298829457631316289574267398415135742869948165327
000680530200470008009005002702100060060090173308000094800047000005003401006520900,147682539253479618689315742792134865564298173318756294821947356975863421436521987
010205003400039000000000120130002406007608050025070090200400600809060034060000509,716285943482139765593746128138952476947618352625374891251493687879561234364827519
067003094009046800800100000000050370732004005090080200006500000521070009074069100,167823594259746813843195762418952376732614985695387241986531427521478639374269158
004090600230081400070060015007420860090300000005019200509002041081006030000050000,154793628236581497978264315317425869692378154845619273569832741781946532423157986
062040130004800002508007690100072040025010360000000080070390500000180070430005009,762549138394861752518237694183672945925418367647953281871394526259186473436725819
100960005200000300040005010005308020018002040320001509000400090890020706670080031,183964275259817364746235918465398127918752643327641589531476892894123756672589431
010902740009000003700604050030051062042000500100007308001403000005780000000090627,518932746469578213723614859937851462842369571156247398671423985295786134384195627
000010369800046001500970000190420000006300400470809005600002030000000702340005800,724518369839246571561973248195427683286351497473869125657182934918634752342795816
502904370004700001306000002059000006200530140000098020100070000040802900007406580,512964378894723651376185492759241836268537149431698725185379264643852917927416583
802000010040050620901004700000386000700020096100470250090600045000900300073810900,862793514347158629951264738529386471734521896186479253298637145615942387473815962
048000005009000270300690001027000500003900006010508390000350010850070600602019704,248731965169485273375692481927163548583947126416528397794356812851274639632819754
068030000070050080200006001030247098409300000180605002000904270950071043006000000,568139724371452986294786351635247198429318567187695432813964275952871643746523819
003000410500002809006010072100609730040027500070540000201800650080076100400300090,723968415514732869896415372152689734349127586678543921231894657985276143467351298
030050806000002904709000030008627000650001020100500409800070003461030000002194005,234759816586312974719468532948627351653941728127583469895276143461835297372194685
004100000370802005006050070207030050800900430900008600030000800001700042050061090,524176389379842165186359274217634958865927431943518627732495816691783542458261793
002009008340612000070400310000043006020000830000050709800090025069530000100706000,512379468348612597976485312791843256425967831683251749837194625269538174154726983
820031000504000000390085064000040750060020008150076900008007000042010690030290010,826431579574962381391785264289143756467529138153876942918657423742318695635294817
040970008050000167800200054060820510100000023305409000006004005009130700070002680,641975238952348167837261954764823519198657423325419876216784395589136742473592681
900000204450001089000007100039600001870023005602094700090052607006080000700400003,961835274457261389283947156539678421874123965612594738198352647346789512725416893
590040107600070000000903080008200604900500010241008300400610809700000452039000000,593846127682175943174923586358291674967534218241768395425617839716389452839452761
680030401005600372070005090000210038250007000841000000120000900907080065000023004,689732451415698372372145896796214538253867149841359627124576983937481265568923714
040200859708500000000006300092001000800009043361050070000700016230008004106902500,643217859728593461519486327492371685857629143361854972984735216235168794176942538
080006020650200190000758004240900705760003900103000040509400001000070280002010000,384196527657234198921758364248961735765843912193527846539482671416375289872619453
080504107030069058041000200300087960006200705004000003100705004000010600907003080,689524137732169458541378296315487962896231745274956813168795324453812679927643581
002190860870000003030067450007054030004201970089006200000030020105702006600500000,452193867876425193931867452217954638364281975589376214748639521195742386623518749
970053400040890001600010570090430028024008610000100000038029040205040000000706003,971653482542897361683214579196435728324978615857162934738529146265341897419786253
090000010016400002500607084200050000103200700059741060000020896080300005004090370,498532617716489532532617984267953148143268759859741263375124896981376425624895371
400053006013090250029700004007536001102000300060400080950078000700100940080600000,478253196613894257529761834897536421142987365365412789954378612736125948281649573
060004005050100903800090000007042500006907002400850100040506009030070820702380406,961734285254168973873295614317642598586917342429853167148526739635479821792381456
010082035390400080007000906003090000450600007060010020730801500800560304000027019,614982735395476281287153946173294658452638197968715423739841562821569374546327819
500000720080090130043026000060908010901200070002340650100030060000054800098700000,519483726286597134743126985465978312931265478872341659154839267327654891698712543
805070040200906708093000001408130657007004300500020100180760905000002003000490000,865371249241956738793248561428139657617584392539627184184763925956812473372495816
005301062201780500030050900040000098800060100302008004106020005078500300000490000,985341762261789543734652981647135298859264137312978654196823475478516329523497816
000715004000090080053000209020350001600408903900007040014800000002506070807000020,289715634146293587753684219428359761671428953935167842514872396392546178867931425
030068200004000061000007950506000470903045100000902000097800304801020500000190002,139568247754239861682417953526381479973645128418972635297856314841723596365194782
840000050070096832002057000004031906900060140560000000000712008023000001600009007,846123759175496832392857614284531976937268145561974283459712368723685491618349527
050068000200400000009000703100602439000001008740000005302700090098014060600950100,457368921231497856869125743185672439923541678746839215312786594598214367674953182
001300050278009000050200004000106023800070006104803509030001900005604002680500017,941367258278459631356218794597146823823975146164823579432781965715694382689532417
003009506216300000000200000040007008008020019967001400051400063070056084000890005,483719526216345897795268341142937658538624719967581432851472963379156284624893175
000030526001000009070000804200080000100547000098100607060005900003870405802900030,489731526621458379375296814247689153136547298598123647764315982913872465852964731
900028004005300086023060910089006705000049603000207000000000030407002500052410070,916728354745391286823564917289136745571849623364257198198675432437982561652413879
054030061208600070093000420040020736960740002000850100000971000030000800002005040,754238961218694375693517428845129736961743582327856194486971253539462817172385649
079008310000504802520009006300000700100602008005010900060307240002801050004900000,479268315613574892528139476396485721147692538285713964861357249932841657754926183
800000050005060310020079008042705009300000000007012603001680004450003076090204800,864321957975468312123579468642735189319846725587912643231687594458193276796254831
001040905580079030006500204000800501090630000872050040010403800060000010000092307,721346985584279136936518274643827591195634728872951643217463859369785412458192367
