090800007100094600280610003070030040008500009000700520001328060004005100920001750,496853217137294685285617493572139846618542379349786521751328964864975132923461758
020000705005036010107000040502090100090005084408607200003480060010070900800201003,326148795945736812187952346562894137791325684438617259273489561614573928859261473
800090045500740630030200070089000102400001580000062000260000317001000900070053406,817396245592748631634215879789534162426971583153862794265489317341627958978153426
087039100600002430014007902053060090001000708760021000540006000009010005000800324,287439156695182437314657982453768291921543768768921543542376819839214675176895324
060008170270300406000005009000400000510906702400003698004009000780600005009170300,965248173278391456341765829896427531513986742427513698134859267782634915659172384
049501700000007000006038051300429008080070003201000600904600120070300045010090080,849561732153247869726938451367429518485176293291853674934685127678312945512794386
010700560009080000060002894006400002208503007300800045007360000050010230980000100,812749563439685721765132894596471382248593617371826945127368459654917238983254176
109003800082004900000020506007500040504001682008002007030068090045010000000090730,159673824682154973473829516217586349594731682368942157731268495945317268826495731
048501309070080040009000052930700206010004080050006003000023705700040100306070900,248561379573982641169437852934758216612394587857216493491823765725649138386175924
600500134302710008500806000000600009420008370060029010000001450005060900087300020,678592134392714568514836792851673249429158376763429815236981457145267983987345621
000000300100092060627050180008075031000063700002900000500040020201008006089700504,894617352153892467627354189968475231415263798732981645576149823241538976389726514
090000800600032070400500002100804560027009010006000900200910085713005000008260003,392746851685132479471598632139824567827659314546371928264913785713485296958267143
090400703850370001000120094900200600630080000002035008700010300040000052003864070,291456783854379261367128594918247635635981427472635918789512346146793852523864179
200006009450708030070340100030009085890000006600035010700000260000910807340020000,283156479451798632976342158134269785895471326627835914719584263562913847348627591
074805000000390000000670294000002600300580400510009038100043002080710005069000073,974825316621394587835671294748132659396587421512469738157943862283716945469258173
004200390230060507050041000009038706600900030005000084740085210106000000000012070,864257391231869547957341862419538726682974135375126984743685219126793458598412673
060009000000205078005080209087040160006010405004002030708301000000700903920650004,862479351419235678375186249587943162236817495194562837748391526651724983923658714
008007630700150042200609700000000860009040010801003204000590300420000107036070050,598427631763158942214639785342715869679842513851963274187594326425386197936271458
000010800520970100043602507204000600600300010050890004036040700070000328800500009,769415832528973146143682597294751683687324915351896274936248751475169328812537469
840000100300900200001004085025100000704608020930072600000506090070320800490007003,849265137357981246261734985625193478714658329938472651183546792576329814492817563
090002070300540080100073050070000901482010000900460300235690000000820604004001500,596182473327546189148973256673258941482319765951467328235694817719825634864731592
890005026000000500076310408061093000400200810200740009010009700020084051008020300,893475126142968573576312498761893245439256817285741639614539782327684951958127364
010090705008600200940075061002000000600980000500713006301800490000000007070406013,216398745758641239943275861192564378637982154584713926361857492425139687879426513
900000170000500600160003508380906000700000209009400050830610000020370060000058740,953862174478591632162743598385926417746135289219487356837614925524379861691258743
847302090000907085050010400000076008004020570010000200520069003008034100090500060,847352691162947385359618427235476918984123576716895234521769843678234159493581762
080217600026000000400300000090500320072100000100008095805042910007006040003900806,389217654726485139451369287698574321572193468134628795865742913917836542243951876
002010040037008250000600000000007009004900025800503061063070010280300900401050008,692715843137498256548632197356127489714986325829543761963874512285361974471259638
091500003600040700574089260020003000000607080003010920002160530007090000045002008,291576843638241759574389261826953174419627385753418926982164537367895412145732698
608000500053004627000009000089507060000082400001930072700020000190700083060300045,618273594953814627427659138289547361376182459541936872735428916194765283862391745
070020506430980020508010000000340019041000002200008700087054061650000904300097000,179423586436985127528716493765342819841579632293168745987254361652831974314697258
800004000706050203030107009020006098004000035060098470210000567000905000403070001,891234756746859213532167849327546198984721635165398472219483567678915324453672981
001800092000020800209510730007953086560700100400000003700602000000080051040000960,351874692674329815289516734127953486563748129498261573715692348936487251842135967
014063002000800050070090100400058610036009080500001307060740090908002060043000500,814563972392817456675294138427358619136479285589621347261745893958132764743986521
094000600001040039800000250070800015300020900069703400010097002000500860250406003,794235681521648739836971254472869315385124976169753428618397542943512867257486193
071050008004020900600003012007000036300045020090060857005800001048002093100070600,271956348834127965659483712517298436386745129492361857965834271748612593123579684
004000300580301000600029058703208010090600040860045007910750000400060005007010020,274586391589371264631429758743298516195637842862145937916752483428963175357814629
000508090097040106502070038004056009020090807030000040009007260701230000003064500,346518792897342156512679438174856329625493817938721645459187263761235984283964571
100009700500000802009370040710926000000400108003500070600740200082010930005008006,124859763537164892869372541718926354956437128243581679691743285482615937375298416
802704000000900140006030078200100000930008405400307086305001009080059000710060020,892714653573986142146532978268145397937628415451397286325471869684259731719863524
800643020021000600030700809007090004260300500109205300083009700470001065000000008,895643127721958643634712859357196284268374591149285376583469712472831965916527438
000209008000700040605300009068010070039062500120000380080005201003970405000004030,371249658892756143645381729568413972739862514124597386487635291213978465956124837
006827039200003000005690008300060090040005870601480005097004010000010400100300052,416827539289543761735691248358762194942135876671489325897254613523916487164378952
900004830046057000102600000430500001070040082000078050600100070800030915005020360,957214836346857129182693547438562791579341682261978453693185274824736915715429368
004006130020071000090030058076208000005640079003019005410800000002000867000025090,754986132328571946691432758976258314185643279243719685419867523532194867867325491
140200705780390260002005300059604000070000459000000008820070003006010520090403010,143268795785391264962745381359684172678132459214957638821576943436819527597423816
002003095100070080300590400059000200800106053000800060020060001013040670408907000,742683195195472386386591427659734218874126953231859764927365841513248679468917532
689041005007690140300000000208760050001204900005003470070002080000015600400000209,689341725527698143314527896248769351731254968965183472176932584892415637453876219
702908600006003097000400251090000000037000014060359080809004570000207030004060000,752918643146523897983476251298741365537682914461359782829134576615297438374865129
307209400005304002040010090800456700036001500002700001080000000601003009900075640,367289415195364872248517396819456723736921584452738961584692137671843259923175648
000050090500003046084000200008094007706805034030670801903100000010729000602008700,261457398597283146384961275158394627726815934439672851973146582815729463642538719
708405200090030840600800037300024970800001060000690003000100600510002009040006705,738465291195237846624819537361524978859371462472698153987153624516742389243986715
500000006682070039901005024010890070000004008006030050370208065004007083000160900,547329816682471539931685724415896372723514698896732451379248165164957283258163947
300004200009802067050160080030029050000605790100000006008030000201047500570006049,386794215419852367752163984637429851824615793195378426948531672261947538573286149
007204000560030009080951300800003007070619040002000031003002864490070510006500000,937264185561837429284951376819423657375619248642785931753192864498376512126548793
002000601100609072045000000060104930008300005030590700700482000026050010050006089,972835641183649572645271893567124938498367125231598764719482356826953417354716289
020813046700460050300007000000508600030020091059001080096000007408030005000249100,925813746781462359364957812142598673837624591659371284296185437418736925573249168
100080070029030106504070092070000903030006240900100007008060014010059600002408000,163982475729534186584671392271845963835796241946123857398267514417359628652418739
270000004950000610403080000080407050030190028540063000000576900017030240000200003,271659834958342617463781592189427356736195428542863179324576981617938245895214763
000036000030000152407900008089070304073104009000003200020010090500080060064009801,812536947936748152457921638689275314273164589145893276328617495591482763764359821
078300040904000610600902057200150000357006080000708900036800100000000302100470008,578361249924587613613942857289154736357296481461738925736825194845619372192473568
000060100009025463307800000710056800900070205040900000004000020200003098850001670,425369187189725463367814952712456839936178245548932716694587321271643598853291674
000000105084000706000649000010204050000005003270090008038001007001003900590087020,962738145384152796157649832813274659649815273275396418438921567721563984596487321
000070620600309085005800400001420960008100000030006750520000003049730210300098070,483571629672349185195862437751423968968157342234986751527614893849735216316298574
000090852000081400403600790030900506602008000045007300700130009268540030001002000,176493852529781463483625791837914526612358974945267318754136289268549137391872645
500320100980050000060801407200500000194002700008040003813060500000700304075010020,547326198981457632362891457236578941194632785758149263813264579629785314475913826
600380020080015039057094100730020805040106070005000906000708000009000602013900000,691387524284615739357294168736429815948156273125873946562748391479531682813962457
060008007580020030109705082250603001000900050000080326000004090076000013030010408,362198547587426139149735682258643971613972854794581326821364795476859213935217468
065000020300402000290016800003604150810000609400980003040090000000008510600507302,165839427378452961294716835923674158817325649456981273542193786739268514681547392
000030090074005080201800405050700000703980006049200001000000500020179040106040703,568432197974615382231897465852761934713984256649253871487326519325179648196548723
000700008327500004800092005051000040008031020402000907076204300905008600000079000,519743268327586194864192735651927843798431526432865917176254389945318672283679451
000203900070006005630410200180000000062050040704300150000590307010000604900007082,458273961271986435639415278185649723362751849794328156826594317517832694943167582
720000060850070920049080013407006000010503000900410000002004508380150007006900200,721349865853671924649285713437826159218593476965417382192764538384152697576938241
100308070000900300480700006260080507700001400009530002308204900010860054000005020,196348275527916348483752196261489537735621489849537612358274961912863754674195823
600023405080507200900000600090456020307100800026000009010039000805040070000200304,671923485483567291952814637198456723347192856526378149214739568835641972769285314
030902000007406280014053700008100600000000059503068004700300400045000018600001020,836972541957416283214853796478195632162734859593268174721389465345627918689541327
470000206003000050009032780090600820305000004007801003040916070008700065010005002,471598236823167459659432781194653827385279614267841593542916378938724165716385942
090053007080710549000006010009005080056270001024098060140000370000380204005060090,491853627683712549572946813719635482856274931324198765148529376967381254235467198
403000950000739000802001060001004805060300000700200016210050080004098000005672034,473826951156739248892541763321964875568317492749285316217453689634198527985672134
040030010002008000709206500500900607030085920006403000070000140450007090093010068,845739216362158479719246583584921637137685924926473851678392145451867392293514768
607001005800027090001850006000004000029063080008900312070500209943700000000006031,697341825854627193231859476315284967729163584468975312176538249943712658582496731
023510006000027810050900007800604500007003180004080009001050203092760000400800690,723518946946327815158946327819674532567293184234185769681459273392761458475832691
270000300301060084000500070800000000060724050400813097006450020009000100508000963,275948316391267584684531279817695432963724851452813697136459728729386145548172963
059002706600400018800003005160028047903010000000967050040000809721050300000006020,459182736637495218812673495165328947973514682284967153546231879721859364398746521
310005049090860007020004800780126000530700010000009400000000000146053002000002905,318275649495861327627394851784126593539748216261539478952687134146953782873412965
082010009001000340070006020009047156000800070530900000004030708000280605960005400,482713569691528347375496821829347156146852973537961284254639718713284695968175432
060048200905010308003200001000000570740902100008400006200187009031009450600030000,167348295925716348483295761392861574746952183518473926254187639831629457679534812
170800050004003090039700421090345800006002000000000317208001900000500006507680004,172894653654213798839756421791345862386172549425968317268431975943527186517689234
100000670009061082046500009002080064900104000078020300530006710000807000200000590,123948675759361482846572139312785964965134827478629351534296718691857243287413596
059032000174500020006080010000903700367200004915000600000000803040710005080040170,859132467174596328236487519428963751367251984915874632791625843643718295582349176
003090005004180360067002800005206080746050100010043000000300000200900750051400902,183694275524187369967532841395216487746859123812743596479325618238961754651478932
470210603900857000010030900003080405100600002890300007205000014060040389000070000,478219653936857241512436978623781495157694832894325167285963714761542389349178526
000734000080002001745900060590400302007000000260081000356000900008205004009860710,612734859983652471745918263591476382837529146264381597356147928178295634429863715
000041006501800740060307000000003207030020080008100005700059100426000050109034608,372541896591862743864397512915483267637925481248176935783659124426718359159234678
003200000006054900400710053807005001040802070900600304000096000004580020160000708,513269847786354912429718653837945261641832579952671384278196435394587126165423798
829061000600040308034050000700100085005080609900200000508600720002009030060700504,829361457657942318134857962743196285215483679986275143598634721472519836361728594
203009004060020090805010670910000408000000720030504060000705810040296530607008000,273659184461827395895413672916372458584961723732584961329745816148296537657138249
000030009700649005500007240300070000010000570060200098094060301600100080008005402,846532719721649835539817246385971624912486573467253198294768351653124987178395462
200400000080000046090010700700300180000600524400050003502060910100002008036079002,257436891381795246694218735765324189913687524428951673542863917179542368836179452
004002075017030060300800010130000907600201080000059600096000140800045000070080032,984612375217534869365897214132468957659271483748359621596723148823145796471986532
010653000400700965020080001060508400004300500700012080200097000001000390059206070,917653248438721965526984731362578419184369527795412683243197856671845392859236174
