004850100010030060608000407100769000536200009047500800005000900400671000720080003,374856192219437568658192437182769354536248719947513826865324971493671285721985643
501008236000310804087406100700160002028500000000087960000000001093000040406009507,541978236962315874387426159759163482628594713134287965875642391293751648416839527
500800040004013500326000100800032064000007009000950310003005000090670008600009200,571826943984713526326594187859132764132467859467958312743285691295671438618349275
003100080047302010010047006000000295120904030800000700500010004496050000300060802,253196487647382519918547326764831295125974638839625741582713964496258173371469852
003890000065100200004007510050300096280000105010006400070408000001700360900050702,123895674765143289894267513457312896286974135319586427672438951541729368938651742
410200007007031800963500000802703190090000003700086400200054610000090304006010075,418269537527431869963578241852743196694125783731986452279354618185697324346812975
047318000005600400960000201000830740700594020520000090001000050080407003309200600,247318569815629437963745281196832745738594126524176398471963852682457913359281674
003450080908073200000006401012000006400060857000397040001020000805009600070500023,163452789948173265257986431712845396439261857586397142391624578825739614674518923
008045001000908700600001020001027069003400000080000043340070900075003082009510006,738245691512968734694731528451327869263489157987156243346872915175693482829514376
601080090000061500000407200287004010040095608009100430076000302890500000000270009,651382794724961583938457261287634915143795628569128437476819352892543176315276849
460000520580006901000073800609080050020030018300607200801400032000005400970000060,467891523583246971192573846649182357725934618318657294851469732236715489974328165
732090000040002080005040703400910050020080060009050047310007690000030108807005200,732598416641372589985641723478916352523784961169253847314827695256439178897165234
736000009001000002009083050050002106040006390000570040002040080860001704090720001,736254819581967432429183657958432176247816395613579248172645983865391724394728561
090608003152900070030000410060800002004005800001470090210030000085000004009007526,497618253152943678638752419563891742974325861821476395216534987785269134349187526
005009004200703080106080200050090076000401900810020000600802350900130040007006810,385219764294763581176584293452398176763451928819627435641872359928135647537946812
800036904140050030000049020080004750060900002400020100200700683706080000050300010,825136974149257836673849521382614759561978342497523168214795683736481295958362417
400009057208600004053008260504200090920000730060501000070006000000140008809035001,416329857298657314753418269584273196921864735367591482172986543635142978849735621
000609040016000500050218700080040020072006350900700806790805130500400008300020090,837659241216374589459218763683541927172986354945732816794865132521493678368127495
010759200004000000050203006070306100200590080938020007040900078600001020500800430,816759243324618759759243816475386192261597384938124567142935678683471925597862431
090301500005870300802000607017000090500040701283900000000705004604002035900600800,796321548145876329832459617417568293569243781283917456328795164674182935951634872
006082005000000123070905040082006000537000609040700010958070300004100708000003200,416382975895647123273915846182596437537421689649738512958274361324169758761853294
800060124050003009400200070007800910201040600006029500920080006000754003030000480,873965124152473869469218375547836912291547638386129547924381756618754293735692481
060100020905006000070200008086009034000708905004610700000030216000950800243000007,468175329925386471371294658786529134132748965594613782859437216617952843243861597
060209000700130504380046020405001070170900480030000005000052008200800017006003900,564279831729138564381546729495381276172965483638427195917652348253894617846713952
001007302009060000000004678010830000674051030000000250500608400043005910020900007,461587392789362145352194678215839764674251839938476251597618423843725916126943587
090076000200080409000100050001007002604030000030900100510060048809720000400005796,195476823276583419348192657951647382684231975732958164517369248869724531423815796
000060580070900631012000007806002010000053040094800005060180370007040900089305020,943761582578924631612538497856492713721653849394817265265189374137246958489375126
708403905000076000300090201070000046104702308090850000081000003005021700900300400,728413965519276834346598271872139546154762398693854127281947653435621789967385412
020103065500407381000690070072010003608000059030000600007300410809004700400800002,724183965596427381381695274972516843648732159135948627257369418819254736463871592
070930045300005000000014007087300010406000209210090003001800692800050400640107050,172936845394785126568214937987362514436571289215498763751843692823659471649127358
200603478000700965000094000706300020400009600150280007300400000008000052902160830,291653478834712965567894213786341529423579681159286347315428796648937152972165834
080017040630008000021900500004000006065024709008095210700100980000040300012003067,589217643637458192421936578294371856165824739378695214743162985856749321912583467
902000800000000007041630500800900070000001206037500940600010050450709108009020403,962157834385294617741638592816942375594371286237586941628413759453769128179825463
008009300900304050001720400300206008060090012050800000400010060720608090006540870,548169327972384651631725489319256748867493512254871936483917265725638194196542873
004021000780009400102000360501704203000360097903800040005000071000050806029008000,394621758786539412152487369561794283248365197973812645835246971417953826629178534
900730000040600100210004063002058000830000400704010950309070210000005680028049700,986731542543682197217594863192458376835967421764213958359876214471325689628149735
106230405000040003000907620070500910080072030002103004250004060003700108809005000,196238475725641893438957621374586912981472536562193784257814369643729158819365247
002056070910000800040017003030400059008090204070025006120000600064300002800040100,382956471917234865546817923231468759658793214479125386123579648764381592895642137
068900301020000000050241700084105000002070600001060948043006859700830100000009007,468957321127683594359241786684195273932478615571362948243716859795834162816529437
705030908080507020400100700504000000963240005000600031800060143006710200090080000,725436918681597324439128756514873692963241875278659431857962143346715289192384567
068049050901020000450000080040750000203091060076000041005208017600003002000000530,768149253931825674452637189149756328283491765576382941395268417614573892827914536
000080900067000100000503002504030008070004010008192070820900040406207803051040600,245681937367429185189573462514736298972854316638192574823965741496217853751348629
700008064093000000000301200008200530260007040405100907507003002000492001010605080,721958364693724815854361279178249536269537148435186927547813692386492751912675483
006520004100307009872010006097050400600100308001406700400090217000085000703200000,936528174145367829872914536397852461624179358581436792458693217219785643763241985
004769020000000005900008060030005092215000008006034010701040300080003040500920706,154769823368412975972358164437185692215697438896234517721846359689573241543921786
048009300700001000020430050080006405005018009039040071010680004000703062907020000,548269317793851246126437958281976435475318629639542871312685794854793162967124583
010000680006200000298700500381000060070980030005004170000140023007006904500390000,713459682456218397298763541381572469674981235925634178869145723137826954542397816
600000705050210309300090640000120000280009030009007068004000001061502470020470500,692834715457216389318795642736128954285649137149357268574963821961582473823471596
009340085005020710740810060200003000600780000004006030013000590850004007020061340,169347285385629714742815963298453671631782459574196832413278596856934127927561348
000000072200638050100790000540070813068009000700304600830010504010400760002005100,683541972297638451154792386549276813368159247721384695836917524915423768472865139
806700503302910000940080061701060350000009006000030042000040070100508020025001009,816724593352916487947385261791462358234859716568137942689243175173598624425671839
003068102809000000420010050050340016000700300002100805900800647067530009200009000,573468192819257463426913758758342916691785324342196875935821647167534289284679531
760590000900060540004807020070600403500000086083009100010052378000300900090010065,762594831938261547154837629271685493549123786683749152416952378825376914397418265
800000193090073600026001800401200009060045720000600000580106004270058300009000005,847562193195873642326491857431287569968345721752619438583126974274958316619734285
030060200001908005097140000200000008006809013100050400004200609060073000802005070,438567291621938745597142836253714968746829513189356427374281659965473182812695374
007009806008005420020030019109008030430600507006200000050016004060400090200357100,347129856918765423625834719179548632432691587586273941853916274761482395294357168
300400050070000049200015036592034007806000093000061008000000070084500602051690000,368429751175386249249715836592834167816257493437961528623148975984573612751692384
000074001300020400500800276002390800010400000900567002000108305004009010083006900,826974531371625489549813276462391857715482693938567142297148365654239718183756924
000392010109080750030000004247100096000063000500000041002005060300041085805076000,754392618129684753638517924247158396981463572563729841492835167376941285815276439
080005090002104700507203060200010005090000217300508000000040000600709031154060008,483675192962184753517293864246917385895436217371528649739841526628759431154362978
500473000200010000704020059005190003860000000019500800040609308000700020070030610,591473286286915437734826159425198763867342591319567842142659378653781924978234615
100060029007120058050003600460000807010400090200530000020708410300000000508090006,134865729697124358852973641465219837713486592289537164926758413371642985548391276
040000810130807200205090006000083092004000000600004107950010680007300000002046053,746235819139867245285491376571683492324179568698524137953712684467358921812946753
050800060001009378060031902090006080000004231037050000640003500005740090802000000,953827164421569378768431952294316785586974231137258649649183527315742896872695413
007600098015000400000825100670084050300090021008532006080059004901000300040000670,237641598815973462469825137672184953354796821198532746786359214921467385543218679
630200900704000001009078060020509308050007040000001000008943020000050079106000400,635214987784695231219378564427569318951837642863421795578943126342156879196782453
040000106500080020000196057001250700700004830030070005070008304083005091692000000,947532186516487923328196457861253749759614832234879615175928364483765291692341578
700609051000743600000010009056108070907000003040000820100300000032800540490520306,723689451519743682864215739256138974987452163341976825175364298632891547498527316
600900800080003570593270040206000000071069005000100360800056002004000007000432010,647915823182643579593278146236584791471369285958127364819756432324891657765432918
000903250501000060342060008053000024076104030008007190000806507019030000080710000,867943251591278463342561978153689724976124835428357196234896517719435682685712349
280003140600900002035001080860502004057000090901070006000410807000329060040600050,289763145614958372735241689863592714457136298921874536396415827578329461142687953
000230010405076000000500607360000200009010078078090030694080001100004803020007950,786239415415876392932541687361758249249613578578492136694385721157924863823167954
200904030700000480004180000800070600410600850090003027100350070659002040000406002,285964731761235489934187265823571694417629853596843127142358976659712348378496512
280300010100008769050047300003290004040700206090050170008410500006000000005030087,287369415134528769659147328763291854541783296892654173978416532326875941415932687
080002190073400080940500070017093500506000003090100000800006042009030000250718000,685372194173469285942581376417693528526847913398125467831956742769234851254718639
091080300020095040700200010805006000006070501302409780060008290400600000008031070,591784362623195847784263915875316429946872531312459786167548293439627158258931674
000006079008700002370084100409501000050072600080030001260003050005090430904008007,541326879698715342372984165429561783153872694786439521267143958815297436934658217
040602007500701300600003080002809070709030010000010204301005000070090005060070142,143682957598741326627953481412869573759234618836517294381425769274196835965378142
001348600605200310020100000790406000504000007362009800080030096009072100000001054,971348625645297318823165479798416532514823967362759841187534296459672183236981754
006050002002009060040070300370004098000830450100200600050083904090006107807041030,916358742732419865548672319375164298269837451184295673651783924493526187827941536
010950030006207800720481000007003206050009080231500400040600000800000097005002601,418956732596237814723481965987143256654729183231568479149675328862314597375892641
900130200000060078000402090054007620008009010006000005410500706603010900027800300,975138264342965178861472593154387629238659417796241835419523786683714952527896341
600208910870000004009160080206030005003910008007506402000003200904805076350000000,635248917871359624429167583286734195543912768197586432768493251914825376352671849
903002040000610200051480703002001675000000000584900301408007092600530800010000000,963752148847613259251489763392841675176325984584976321438167592629534817715298436
007006000030014090600930570780290100206100380040800002873400600052070001000000045,927586413538714296614932578785293164296145387341867952873451629452679831169328745
000000500049300071006079030000607105030901068000250004103000406098060200702580000,327816549849325671516479832984637125235941768671258394153792486498163257762584913
700000902082061500050800040128036000600050310000009007005400030816500020003078090,761345982482961573359827641128736459697254318534189267975412836816593724243678195
000050036003048900910207800000001045290070010850460300060080070700503002040000109,428159736573648921916237854637891245294375618851462397162984573789513462345726189
500003900004060503900840070750020000413000052000008031370000194080700620000096000,567213948824967513931845276758321469413679852692458731376582194189734625245196387
107030200004809605050400800091080004860000521400003000230907006005062087006010090,187635249324879615659421873591286734863794521472153968238947156915362487746518392
000000009002847001008025000070300960600500700300602054090080100400001307250700600,547163289962847531138925476875314962624598713319672854793486125486251397251739648
428000000005010039000047050036005007009006010070000083090480005381060700000079021,428953176765218439913647258136825947849736512572194683297481365381562794654379821
000000450018020000006170802000007000920050000040690007309006780201400063080005109,732968451418523976596174832163847295927351648845692317359216784271489563684735129
030621040002090001608400700087005020000000054050316009100260005490007003006009010,739621548542798631618453792387945126961872354254316879173264985495187263826539417
000001007106070208730905040040300516902106000000580400205009000003000709000034180,524861937196473258738925641847392516952146873361587492285719364413658729679234185
013000900004308020260057004021506097700023085000040000090030162000004000856090003,513462978974318526268957314321586497749123685685749231497835162132674859856291743
097600520306901004200800603040050389003090006100082700070530000620700008000004100,897643521356921874214875693742156389583497216169382745471538962625719438938264157
006800000420000030001900507805003609000710800070005013007000425500090000638402700,756831942429576138381924567815243679263719854974685213197368425542197386638452791
027000504050290008908006003004180650000460029730000000180040076070002800503900100,627831594351294768948756213294183657815467329736529481182345976479612835563978142
500700309108040000060123050020300470009410586010670200004500030700000620000090008,542786319138945762967123854826359471379412586415678293284561937791834625653297148
