001070054400600003000904810017530000500000098920407100050018600690000020043200507,261873954489651273375924816817539462534162798926487135752318649698745321143296587
040609500003010800970000604062890010005700000030460007580002306006007040190030080,248679531653214879971358624762895413415723968839461257587142396326987145194536782
000000024298070600005060703400100806967000040030040000009083100610207030700605002,376851924298374615145962783452139876967528341831746259529483167614297538783615492
004067080359020007000000300908001002020400800060030579003100096600500100047080003,214367985359824617876915324938751462725496831461238579583142796692573148147689253
020905036000140009051000000000780940005300021290000800709020600304010000000600087,428975136673148259951236478136782945845369721297451863789523614364817592512694387
078002901000530046030008000300074005009600100405081002040000053800720060200049708,578462931192537846634198527381274695729653184465981372947816253813725469256349718
760028300000001700001309054840000005000500060900043020020160870008002001304705006,765428319493651782281379654847216935132597468956843127529164873678932541314785296
300007024000950600910004008000512000020006570046000090800000032090840760001300040,365187924482953617917264358739512486128496573546738291854679132293841765671325849
045300027000070350090280000600908400900030008020014600800569704007000085300000001,145396827286471359793285146631958472974632518528714693812569734467123985359847261
400000005530008210008904703000207106002360048040000020090800300650790000820015000,467132895539678214218954763985247136172369548346581927794826351651793482823415679
050300040004902306097050000600701800030000421000480709000007213001030090820006000,256318947184972356397654182649721835738569421512483769965847213471235698823196574
700008400026900800010523090059010000100640702600085040000000580047000036503200100,795168423326974815814523697459712368138649752672385941261437589947851236583296174
902054000830109706040030000180200000006403900500700201000000495007080310009502060,972654183835129746641837529183295674726413958594768231268371495457986312319542867
086050004071000532200901000800064900400020807005003000000012000027480006043576009,386257194971648532254931678812764953439125867765893421698312745527489316143576289
002004095000701000830600100360502087098060200500070400000000079150030604400009803,612384795945721368837695142364512987798463251521978436283146579159837624476259813
610000723029000504004700000080005060470301008030092100000503490800600070105040006,618954723729136584354728619981475362472361958536892147267583491843619275195247836
000701003307060020050040608008050064100020000030094807200008100045006030603070502,426781953387965421951342678798153264164827395532694817279538146845216739613479582
940007060008230100600800075000020410086050300003700059015008940309040002070060000,942517863758236194631894275597623418186459327423781659215378946369145782874962531
094100050082090400000072006010200070000563280030000005160020530900017008003900047,694138752782695413351472896516289374479563281238741965167824539945317628823956147
050080031000430069000900420107002000980640500063000140008500097004073608070020000,459286731721435869836917425147352986982641573563798142318564297294173658675829314
026308007400020068001000005000700900050203841608910000030096200002400010790050003,526348197479521368381679425213784956957263841648915732135896274862437519794152683
140096007002800900800000034009508000050030120307462000780350000001004005600021409,143296857572843961896175234269518743458937126317462598784359612921684375635721489
697000008800000342000051700480073006009160000000280057010600080038027001920500400,697342518851796342342851769485973126279165834163284957714639285538427691926518473
706400028040050000090080607003002100070003452500970000804600005100320900900100736,716439528248756391395281647483562179679813452521974863834697215167325984952148736
120490003807600010000030020040800002260057400000009637000000500601304080900512070,125498763837625914496731825749863152263157498518249637372986541651374289984512376
000002008708405100409060703092500004007006300300907506040800600050734090000020080,165372948738495162429168753692513874587246319314987526241859637856734291973621485
000078520804200000006005304910020000007800410080030075560000700700190203003007869,391478526854263197276915384915724638637859412482631975569382741748196253123547869
350012800800940000900050340030608057000000263012000009096401070500000600048500002,354712896861943725927856341439628157785194263612375489296431578573289614148567932
000070800960015400700930010000000653501400000890020170003001002070008069040306080,314672895962815437758934216427189653531467928896523174683791542175248369249356781
000235006090004007003901804001000350605040079870020000928300400700860100006000000,487235916192684537563971824241796358635148279879523641928317465754862193316459782
070000040023001800840060019000890004600047093007000502039084720001070000000302056,176928345923451867845763219312895674658247193497136582539684721261579438784312956
000050036420706800000280410700005060068090000040000120507400380090800001200030709,871954236423716895659283417732145968168392574945678123517469382394827651286531749
090003462510020809000900070023087006400100700006000010001850000087030105960000040,798513462514726839632948571123487956459162783876395214341859627287634195965271348
000007900041000620050040008034896100072005000900001045086302001300010007200589006,823167954741958623659243718534896172172435869968721345486372591395614287217589436
064000100300002500700030600100060408045070030020150000980005002002010704007309060,264597183391682547758431629179263458645978231823154976986745312532816794417329865
017060005305809002000400009060000400500320901102700530700901008201030000080570060,917263845345819672628457319863195427574326981192784536736941258251638794489572163
000960400020000009000435006400010085030070290096200007005000073810020000369041050,753962418624187539981435726472319685538674291196258347245896173817523964369741852
009080043008941000610020007040370800526100000030200500780450019190006000000000372,259687143378941265614523987941375826526198734837264591783452619192736458465819372
400010305000642170208000009600280000502309007080054090035020000000107600069800740,476918325953642178218573469697281534542369817381754296735426981824197653169835742
000090070030140065985030000000903000500000643076002180002004856600570201100800000,461295378237148965985637412814963527529781643376452189792314856648579231153826794
103700009900105007460002500502000470001028000040070130680304020000000800000901005,153746289928135647467892513592613478731428956846579132689354721315267894274981365
005004000907080040036920018600000002040008109008031700700100000053090470024605030,285314697917586243436927518671459382342768159598231764769143825153892476824675931
060000005902300100000078306006010000700640000504000029409507813300020704080100950,863491275972356148145278396236915487798642531514783629429567813351829764687134952
034018005070060200016705000087900010300040706600000082400072008029100500000503400,934218675875469231216735849587926314392841756641357982453672198729184563168593427
030460500210000604007590020090800100720050400043076008001003285000000061600705300,839462517215387694467591823596834172728159436143276958971643285354928761682715349
600000709002861300104000200070308094500000030008904627001702058903006000000005100,685243719792861345134579286276318594549627831318954627461732958953186472827495163
001860072005047008000005300568300021009000005300070086000089040073400160902100000,491863572235947618687215394568394721719628435324571986156789243873452169942136857
020400009080067014600050200300001020062080700009300005840092060010070503507010840,721438659985267314634159278358741926462985731179326485843592167216874593597613842
001000026930050000820690007005320001690004008000000400200018300050940710047002800,571483926936257184824691537485329671693174258712865493269718345358946712147532869
700400380020601900604370020040005003801030002002007690053210007100000000069000540,715492386328651974694378125946825713871936452532147698453219867187564239269783541
680400209005006030009025400002830500410000700007000006090650001050140802300790040,683471259245986137179325468962837514418569723537214986894652371756143892321798645
402300960036500000050704000000010390901005804060008000003076010085009430704800020,472381965836592741159764283548217396921635874367948152293476518685129437714853629
104078000020600007000095800600000004209003081807000903050007600300106000900380020,194278356528631497763495812635819274249763581817542963451927638382156749976384125
000028160000790400507400082030075001940030506000001090008060023029000800710004000,394528167182796435567413982836975241941832576275641398458169723629357814713284659
345700000009140700000063502400026090050400028006000300170008039080009257090000016,345782961269145783718963542437826195951437628826591374172658439684319257593274816
064527003001090000800000679509063100207000040010008020036470000000901560400002000,964527813371896452852314679549263187287159346613748925136475298728931564495682731
109078400054031902000000006720084001000500230900006000040000760080419005003002080,169278453854631972372945816725384691416597238938126547241853769687419325593762184
001400200370028090500070003060000800209380160007501009040009631036700054000040000,691435278374128596528976413163297845259384167487561329742859631836712954915643782
800927000001080400069000205206090100070600893500040000000305900037800062408000017,845927631321586479769431285286793154174652893593148726612375948937814562458269317
850600700002170000006004020070040268000791500534008100180000000200009053405300006,859632741342175689716984325971543268628791534534268197183456972267819453495327816
012078060004095000900360008083001700007006820506200300000004570758009410020000009,312478965864195237975362148283941756197536824546287391639814572758629413421753689
080006050000010008200340790040000080710085300009420506008794100607000030050060209,981276453473519628265348791542631987716985342839427516328794165697152834154863279
107809006640050090000000102070904600502006800003070000700061023930005040014000008,127839456648152397359647182871924635592316874463578219785461923936285741214793568
087001302500000100020803045094080000650700200010059078003000600940260750000040010,487591362539426187126873945794182536658734291312659478873915624941268753265347819
900340007060000302807010000673050940400001080002096050010024600000870005290003400,921345867564987312837612594673258941459731286182496753718524639346879125295163478
705200406300018009000470080078062100040803902900000050013000800020600037000094060,785239416364518729291476385578962143146853972932147658613725894429681537857394261
080091000230408006601053007016000040020705103900040000009006500040900801300010720,487691352235478916691253487716389245824765193953142678179826534542937861368514729
105000903040009081020700050200860000031500004870230600000000569503120000080040010,165482973347659281928713456259864137631597824874231695412378569593126748786945312
050026007370000060004005900900003704005780030060240001030010400400532090102400800,859126347371894265624375918918653724245781639763249581536918472487532196192467853
605000030000025040820600700003910004047003006560800009790002050100040807000380010,675498231319725648824631795283916574947253186561874329798162453132549867456387912
004050700200100030890002400900034506060008023082010907000490000000023608510700000,134859762256147839897362451971234586465978123382615947628491375749523618513786294
100050600003900740080007019800401070702068000000020034501603000904002085000040102,197854623253916748486237519835491276742368951619725834521683497964172385378549162
802004000390001005500870069001380672003000000005602040008020700000019003270400506,862954137397261485514873269941385672623147958785692341138526794456719823279438516
700003400400680190501000607090840000000000856270005000306718200004000080010290003,769153428432687195581429637695841372143972856278365914356718249924536781817294563
720090100601870300805000060063000029900504080400000031208300004000710005100060800,724693158691875342835241967563187429912534786487926531278359614346718295159462873
900036800006074001002590070080001000560000702040000053400003507307080200010920040,974136825856274931132598674283751469561349782749862153428613597397485216615927348
000100000006002850090308026005040087048509100600001002500000000987036400104070609,852167394376492851491358726215643987748529163639781542563914278987236415124875639
000000065700609008902100000030000809406027000000500074000054306280010050040370190,318742965754639218962185743537461829496827531821593674179254386283916457645378192
500007104308000000000010286053700020806040510007100009009000700020590003400802090,562987134318624975974315286153769428896243517247158369689431752721596843435872691
006090020830020070100300500092407100004000086350102000000670304001004008000005790,546791823839526471127348569692487135714953286358162947285679314971234658463815792
800032005020000074930650000000000130004097026516003000008005012062470800000800960,841732695625918374937654281279546138384197526516283749798365412162479853453821967
007680002156000000920140000003008507064000090000070310680007930000520800031006020,347689152156732489928145673213968547764351298895274316682417935479523861531896724
096000001470000520000830900827605010900200480000903050513009200200070604060000000,396752841478196523152834967827645319935217486641983752513469278289571634764328195
068000200900050040700019035020004150030008060000930000300000070007290601086075004,568347219913852746742619835829764153134528967675931428391486572457293681286175394
040000001609501000705000439000725804020000390401800070060930502002068000980400000,248379651639541728715286439396725814827614395451893276164937582572168943983452167
008730106019052047600080020080040005000100290704500300900360500005000000240000071,428739156319652847657481923182943765536178294794526318971364582865217439243895671
078000000000805204000006059050200000900048360062090081100009700006103400304070105,578924613639815274241736859853261947917548362462397581125489736796153428384672195
340000001006409800079120506450701003001060924000030000507300000020006008090008170,345687291216459837879123546452791683731865924968234715587312469124976358693548172
001040000080370400000005690023004061970800042000600030500009320062180007097450000,651948273289376415734215698823594761976831542145627839518769324462183957397452186
010050000203006009687004120000120400708900000060703050034070810900080073000502604,419257386253816749687394125395128467748965231162743958534679812926481573871532694
800060740490000306057010080000607524002008007300004009960850200010079000000200005,823965741491782356657413982189637524542198637376524819964851273215379468738246195
098001450000860300000407000100000040703002809402005670014000006800070200006390005,698231457547869321321457968169783542753642819482915673914528736835176294276394185
001000700030005082002014090805170060070500008006090400000021803004900070160430005,651289734439765182782314596845172369973546218216893457597621843324958671168437925
561900400400023000020010795700005000000040186803000009070009230009700004685200000,561978423497523861328416795716895342952347186843162579174659238239781654685234917
005060000090584070010700403041300960800070000006040012200009006063250800900800107,475163289392584671618792453741325968829671345536948712287419536163257894954836127
006100000290400700400059030003805970084000002900706001005070108100030240020900060,536187429298463715471259836613825974784391652952746381345672198169538247827914563
400000300098000064503074020000608940120030050000501700901240800600000210070083000,412965387798312564563874129357628941129437658846591732931246875684759213275183496
870900500120004078304001900040018007260000010000207093412000000005709002000005630,876932541129654378354871926943518267267493815581267493412386759635749182798125634
023080406060205801109007000708001000000700905654028030000400700006093010201006050,523189476467235891189647523798351642312764985654928137935412768876593214241876359
200400005089207001064509030400802000070001506050003290000108027003060100900000048,231486975589237461764519832496852713372941586158673294645198327823764159917325648
