081030790900501000000040102209004800370002500000760009040009308506008207700025001,481236795927581634653947182269154873374892516815763429142679358596318247738425961
600130004700400020201508306080001460400097050003000108064053007090000030005000802,659132784738469521241578396587321469416897253923645178864253917192784635375916842
600409000020500071000010905208060040050300607370008020000001000460027000739804010,615479832923586471847213965298765143154392687376148529582631794461927358739854216
095030000008000010023056070004900500730010028000062009006003480082004003040190006,495731862678249315123856974264987531739415628851362749916523487582674193347198256
097010058400086020302000600000501300708092040000460009100005030006000091045009702,697213458451786923382954617924571386768392145513468279179625834236847591845139762
036002000490000700000900568002600047040308150010000820100003090005081003067000400,536872914498156732271934568852619347749328156613547829184763295925481673367295481
020079004003000001860040500000020459506018307070900008007601000480350900031204000,125879634743562891869143572318726459596418327274935168957681243482357916631294785
901036502700800010000270060120080340005094000600003900008000790340010200006705008,981436572762859413453271869129687345835194627674523981518362794347918256296745138
439000050706500080000003609002068700500902410108000300601040002070010900050070830,439681257726594183815723649342168795567932418198457326681349572273815964954276831
100040526500002030093076000907108204000009061000050087010430000006080400042007005,178943526564812739293576148937168254485729361621354987819435672756281493342697815
000800000000003256013042000200309015006700800080050430002970000304605081761000090,925867143478193256613542978247389615536714829189256437852971364394625781761438592
070020006680100300050070140490006050300000067002040038000059004107200800009817020,971423586684195372253678149498736251315982467762541938826359714137264895549817623
900053014020809000007420860032040900700010056006005000203006100091000075040008390,968753214124869537357421869532647981789312456416985723273596148891234675645178392
024800010008301007910006080500000700030040096800760002300050409070209300006100508,724895613658321947913476285562918734137542896849763152381657429475289361296134578
071040300204010500500309700856000270000003001040052080380970040000205000027180900,971548326234617598568329714856491273792863451143752689385976142419235867627184935
200061703003000050000098006000050249004079018010000600031020005780000160069400080,248561793693742851157398426876153249324679518915284637431826975782935164569417382
040000050980210730000840900600950018300001000010706200050000649100090002270634080,742369851986215734531847926627953418398421567415786293853172649164598372279634185
700000000003807020021003045689700000040009200370005084560912070010430800900000600,756241398493857126821693745689724531145389267372165984568912473217436859934578612
030080900710005046026030050000704190609100003050020080470006030300509820800002401,534687912718295346926431758283764195649158273157923684472816539361549827895372461
006103800500047090009000064000004020603520000700008105100852900034000000080036207,476193852528647391319285764851374629693521478742968135167852943234719586985436217
001063000890405007000000512003000060200908005405100980100002090067800000320047050,751263849892415637634789512983574261216938475475126983148352796567891324329647158
300704600090000500504106032400003108009580000010062003100807090005200076027000480,382754619691328547574196832456973128239581764718462953163847295845219376927635481
004060723000100900608020004596008302020970000100500006702083100300000680801004005,914865723235147968678329514596418372423976851187532496752683149349251687861794235
507080000240000300000012056000079032008050004309000705800006007096037801100240900,567483219241965378983712456654879132728351694319624785832196547496537821175248963
070010080090000007004005360057160000481903500306008700038004910000087450200300000,673419285592836147814725369957162834481973526326548791738654912169287453245391678
483900016000006004010000050036075080200800300070200490007080200041607039529010000,483952716795136824612748953936475182254891367178263495367589241841627539529314678
500400003809003400001507060400032010008700200060009300013604025600005097002010000,526491783879263451341587962497832516138756249265149378913674825684325197752918634
400009607000480300027010000503206008870000060010300750600002470080000905301095020,438529617165487392927613584593276148874951263216348759659832471782164935341795826
490083001010000700006290050500020006907400002080307000063102094004006820000540600,495783261218654739376291458541829376937465182682317945863172594154936827729548613
200419000087030200500200004010840720753000001000500960960000087008000100000320006,236419578487635219591287634619843725753962841824571963962154387348796152175328496
080000400013009200057231080002010000041020967876050300000400050300700096000060830,289576413613849275457231689932617548541328967876954321168493752324785196795162834
080000000002010000006342907700204105090180030500006400029807001410600800003000569,387569214942718653156342987768234195294185736531976428629857341415693872873421569
910000000802700500000026008001839040407200010095000060730900004054003209060570080,916358427842791536573426198621839745487265913395147862738912654154683279269574381
300520069009034100500700040090000010076300000054018006000060470402007305001009028,347521869629834157518796243893672514176345982254918736985263471462187395731459628
680010300071080490053000007900804060000720050042090083014036002025100040000500100,689417325271385496453269817937854261168723954542691783814936572325178649796542138
075800201008000043340070900007000600090061034001340520060590000023008005000407080,975834261218956743346172958437285619592761834681349527864593172723618495159427386
008020750001306200000074100037650001090000806084902000003001080750090000002700639,468129753571386294329574168237658941195437826684912375943261587756893412812745639
053000840900000027700608503804500000000040100369002000200800400070216030030009065,653721849981354627742698513814567392527943186369182754296835471475216938138479265
300052000410007028508106009860093470070500000009001360052400600000000800001309000,397852146416937528528146739865293471173564982249781365752418693934625817681379254
070090021016203090090080700007026005000400038400850200000100300062030450850900600,378694521516273894294581763987326145625417938431859276749165382162738459853942617
513096070700000080020041000006000109950007804080200750140058036200300000009012000,513896472794523681628741395376485129952137864481269753147958236265374918839612547
010029050000000208806030010200300805003600090970004600080000004649072003500081007,714829356395146278826735419261397845453618792978254631187963524649572183532481967
105040730098500000027080600000308200700200100046005080000050090030007041010609820,165942738398576412427183659951368274783294165246715983872451396639827541514639827
006100902027680040501007308080370690000040103000961000490005010005020000360400207,836154972927683541541297368184372695679548123253961784492735816715826439368419257
010000367600430000020800500780003209502060800000500400900050680004201000030078001,418925367659437128327816594786143259542769813193582476971354682864291735235678941
070000006030820050200045098002913600054600010000200007000008000805300100960071204,578139426439826751216745398782913645354687912691254837127498563845362179963571284
040010058806029071000000000500190026030087400072560090200608930000300000300050104,943716258856429371721835649584193726639287415172564893215648937498371562367952184
900000720208000406056300809070129030605803140000400000300500060010780000009001570,941658723238917456756342819874129635695873142123465987387594261512786394469231578
030802059200730000007040060706900080010005040903681000069000102400000005528007630,634812759295736418187549263756924381812375946943681527369458172471263895528197634
500004090020809004600003700000700000063001800040395210180000607000057102052060400,578624391321879564694513728215786943963241875847395216189432657436957182752168439
060925800970003002105007400000400000507001630310500009032800057004000180800069000,463925871978143562125687493289436715547291638316578249632814957794352186851769324
014007030006029000050000842600010097005372000830000501900046100000100203060280079,214857936386429715759631842642518397195372684837964521923746158478195263561283479
100307000090065800032010064710800500004090070800020090603000005078409130050080420,186347259497265813532918764719836542324591678865724391643172985278459136951683427
200003000950400106007060082041720000035691400790000008000010030008540700060800059,286173945953482176417965382641728593835691427792354618579216834328549761164837259
800200910102005008060070000504030026691008430070004005900600040008010500430050700,857246913142395678369871254584739126691528437273164895915687342728413569436952781
390010708020004000007500031106270080000906000000080024650800910703000860900000053,395612748821734596467598231146275389238946175579381624654823917713459862982167453
840006007000007062100400300008003900250900000360578000000105004790020803084030026,842396517935817462176452389418263975257941638369578241623185794791624853584739126
008250030014090007002317900080006000900000670000425000037102060069080020500700043,798254136314698257652317984283976415945831672176425398837142569469583721521769843
000460090170008502009000000030080629600590710004700300000005038520000401061302007,258467193176938542349251876735184629682593714914726385497615238523879461861342957
200005061080090340000760002690200500003810900174030080000374000001008037000900620,239485761786192345415763892698247513523816974174539286862374159951628437347951628
090065010803007004000014003006009000000600928070000500230040085064120070700903200,497365812813297654652814793126589437345671928978432561239746185564128379781953246
300600080020901700500078401073800002001000598059040360064010000000009075000320900,317654289428931756596278431673895142241763598859142367964517823132489675785326914
460009300300107000508002000007010624006048013090000500010090750002506400700380009,461859372329167845578432196837915624256748913194623587613294758982576431745381269
040700102729001000080004560010006730802300005407900020001063009000582370000000040,546738192729651483183294567915826734862347915437915628271463859694582371358179246
050320098034600007700500160090065070100802006807030502000100320400090000086004000,651327498934618257728549163293465871145872936867931542579186324412793685386254719
002007504010008032605301000030195060701000008200070043000040091890002470000600000,382967514917458632645321789438195267761234958259876143526743891893512476174689325
000000197004068002500030004902150300001804000067000400096002000030047080270010605,683425197714968532529731864942156378351874926867293451496582713135647289278319645
300000008540607900120000036000400080201005000834070025706981003000002109000340057,369214578548637912127598436695423781271865394834179625756981243483752169912346857
002040768046000050000008920507000300091060002000830501068093000410087009230500040,952341768846972153173658924587124396391765482624839571768493215415287639239516847
000080300902060040030159000600930000480007500700002031006390002210400050070001800,167284395952763148834159276621935487483617529795842631546398712218476953379521864
801300004040650002620040000730060080500080640000201903090730000150009700360400820,871392564943658172625147398739564281512983647486271953298736415154829736367415829
050007069030100025021406007000820000010000008704003650005040290306700081090008300,458237169637189425921456837569824713213675948784913652875341296346792581192568374
085204600700030000000060512090050020067009350004102800000905004300087190410300000,185294673726531948943768512891653427267849351534172869678915234352487196419326785
030005008006200000250000190500070080010900047709350000103006204007084003090720001,931645728876219435254837196562471389318962547749358612183596274627184953495723861
001860400000002000200735009050040020967001008004003950030000090018000065005124700,571869432389412576246735819153948627967251348824673951732586194418397265695124783
002607130030009070004100806000004000850010300301200650000000009600800720723905008,982657134136489275574123896267534981859716342341298657418372569695841723723965418
900030100586040700000002094001086900400215000030700000109050870802470005005100060,924537186586941723713862594251386947497215638638794251149653872862479315375128469
006050370070609080080403000210000047009024500005080103403701006800500490000006002,196258374374619285582473619218365947739124568645987123423791856867532491951846732
800690100320078060100020507007001038009407200008260409060000701050030000002500040,874695123325178964196324587247951638639487215518263479963842751451736892782519346
053006100000090007006524800082037410100000276500000000200300090074060051001800640,953786124428193567716524839682937415139458276547612983265341798874269351391875642
060000405092076010003180090000301009000008120045602030700004280910000706300560000,861239475592476318473185692287341569639758124145692837756914283914823756328567941
360490000008700104740000600030600207205031000000802059400010006080009703907008000,361495872598726134742183695839654217275931468614872359453217986186549723927368541
800004026056010304004002001700038900100609007002000030003240100900700405600500080,819354726256817394374962851765438912138629547492175638583246179921783465647591283
000000040320009080784305010605072000210800056003060904107204005000007302090630000,951786243326419587784325619645972138219843756873561924137294865468157392592638471
700000960450900800302040007008090000600230780100400502003560009005003640204800010,781352964456917823392648157528791436649235781137486592813564279975123648264879315
003080060000010908050400320705008090000000106040296087010079004006030052800504600,173982465624315978958467321765148293289753146341296587512679834496831752837524619
201050906300700000040300010604090083009240075000100200038000590900000860507010004,271854936396721458845369712624597183189243675753186249438672591912435867567918324
160040000008000540503007090000090725420001800085006030000509000002030087091860003,169245378278913546543687291316498725427351869985726134834579612652134987791862453
900541086008009105070002003089036200650020040004000001006050908043060500200003070,932541786468379125571682493189436257657128349324795861716254938843967512295813674
040830920208700031000006000600003090005080347007509008900250400010040602500001070,741835926268794531359126784682473195195682347437519268976258413813947652524361879
070600040062018703000032009007100900004507802800900001020300506019000004003050080,371695248962418753485732619237184965194567832856923471728341596519876324643259187
304700206900250800070061300000000059205040600080035100517600003600002401008000007,354798216961253874872461395143826759295147638786935142517684923639572481428319567
500047090048100720007830006002000615600052000890010400700604350010090004000300800,563247198948165723127839546472983615631452987895716432789624351316598274254371869
003000294006908710075000300107003020040000000500120960000081000000200850084690003,813756294426938715975412386197563428642879531538124967759381642361247859284695173
793004500000500610610008040007002000309010800180006970000907064000403108250000003,793164582428539617615278349567892431349715826182346975831957264976423158254681793
809037601067429000305000040700040000910063005050070416002806950000000230008000000,849537621167429583325681749786145392914263875253978416432816957691754238578392164
008900607570030009000051000030490002040007006900620100020100790450003800001580420,318942657574836219692751348136498572245317986987625134823164795459273861761589423
160079020050810004000000810245007100007080030090064000020038706080000950904200000,168479523752813694439625817245397168617582439893164275521938746386741952974256381
970004500000608043008009107342000700001060208000500030206105000590030610804000002,973214586125678943468359127342981765751463298689527431236145879597832614814796352
004090500003600700080203100800000090070014000005800213507000006920500840100062900,614798532253641789789253164861325497372914658495876213547189326926537841138462975
