768000002109008050030000000007205010090800240006001073005307006040010980002694000,768453192129768354534129768487235619391876245256941873915387426643512987872694531
507000001000100263036900000010008040704600052200095000050704600300500100408060920,527836491849157263136942587615278349794613852283495716951724638362589174478361925
010003005002450000070100064200030001051607080930008400346709010100005008080200900,614873295892456137573192864268934751451627389937518426346789512129345678785261943
453000006200005109010702004570100698002806300000090071900430007030080050640007000,453918726267345189819762534574123698192876345386594271925431867731689452648257913
504070010900058023007021040702016000050389007690000000000204906000000350800090400,524973618916458723387621549732516894451389267698742135175234986249867351863195472
000005630607204000003170502429008000000000708801063900700040803006900001040000096,214895637657234189983176542429718365365429718871563924792641853536982471148357296
000012000300408607457000801802005000060090205090030108600300070040001900578600003,986712354321458697457963821832145769164897235795236148619384572243571986578629413
260703000040020108079580060805170039004000006000302010930060207000030500000001040,268713954543629178179584362825176439314958726697342815931465287486237591752891643
070061030529000000060508040802035100004900000000700829000070301300806097000050286,478261935529347618163598742892635174714982563635714829286479351351826497947153286
046037020300100800070040005730050080100072090002600004200800300009005760000029018,846537921325196847971248635734951286168472593592683174217864359489315762653729418
070001095605072803103000400067025040208007100030908000004000200810050074000060030,472381695695472813183596427967125348248637159531948762354719286816253974729864531
700000052000400609300608710004937200020000006875100000010206300690000401400890000,746319852281475639359628714164937285923584176875162943517246398698753421432891567
074031500000000007698027003000005860002080900100060000019058206500400780030210050,274631598351849627698527143943175862762384915185962374419758236526493781837216459
019020400000830002205009106000600009530000048608070050070065900143200000000104023,319526487764831592285749136421658379537912648698473251872365914143297865956184723
200000503600402008087910000000683001030070200005100900120790040043008060506000072,214867593659432718387915624972683451431579286865124937128796345743258169596341872
000900200425600090803005107004010030500800609206000045140039006000260400700000083,671983254425671398893425167984516732537842619216397845148739526359268471762154983
895000040004300905020000601000047306009000010400010790710084000050072008600503020,895761243164328975327459681281947356579236814436815792712684539953172468648593127
300597010600804300097000008980035060030040000702106400029603100801000000000010257,348597612615824379297361548984235761136749825752186493529673184871452936463918257
004203001670000300008400275410700060000050908200006010046080097500040802000031000,954273681672815349138469275419728563763154928285396714346582197591647832827931456
520043070706100000010260008000004700000608053953000080600070021081502000009800430,528943176796185342314267598862354719147698253953721684635479821481532967279816435
010900200700000000000463079000007058506800430340010007800650010657020003090000004,413975286769281345285463179921347658576892431348516927834659712657124893192738564
092008006038000407000395001703000904060120500050400032004580700000010080205607000,192748356538261497647395821723856914469123578851479632914582763376914285285637149
060020140294000030000805000073004960000708020010360005045100009307090000020030856,568923147294671538731845692873254961956718423412369785645182379387596214129437856
040500083500062090012038006006059000403106008001200700000000501020380079700904000,647591283538462197912738456276859314453176928891243765389627541124385679765914832
470002800053100000020807605500030000080200410309008006000006740790500002108000059,476352891853169274921847635542631987687295413319478526235916748794583162168724359
000800930970000000402600000090500080205000010010007024807051006030080241600340050,156874932973125468482693175794512683265438719318967524847251396539786241621349857
002000109000085000093204570301008004970030860050020000460150000008760005710002930,582376149147985623693214578321698754974531862856427391469153287238769415715842936
500109000020004608600000710000002030007458000250700801040080300700095200830607059,578169423123574698694823715486912537317458962259736841945281376761395284832647159
720910035005600009108043000041060002050007840087000503009720000003001098000000261,726918435435672189198543627341865972952137846687294513819726354263451798574389261
008050700104900000060073080000105007025004600000280430207000103009802004050036009,398651742174928356562473981843165297725394618916287435287549163639812574451736829
002000506600500130300904080009030600040000073500816420004308001080020007010705900,472183596698572134351964782829437615146259873537816429764398251985621347213745968
023560074007809106000040902080317000002600015030000040300095060040000080075208000,923561874457829136861743952584317629792684315136952748318495267249176583675238491
090760201040801005000050300109030600000000080500429007050002400018600970600900002,895763241342891765761254398179538624423176589586429137957382416218645973634917852
050100080000004367260009104005010070800035209020000640009700500080026090140008000,754163982918254367263879154495612873876435219321987645639741528587326491142598736
090002030000819700002706004014000009003280006005070180200003450589600002030000067,798452631346819725152736894814365279973281546625974183267193458589647312431528967
604780130000000789000203000900500000035012800701004006120049005000050920070800301,694785132253461789817293564962578413435612897781934256128349675346157928579826341
040013500908004060006000703000285309010900872000000004073050180090708000504060020,742613598938574261156892743467285319315946872829137654273459186691728435584361927
000000615000200800000713000265008009701390000003060054502000900170084306400907080,327849615914256873658713492265478139741395268893162754582631947179584326436927581
801032000095060420040000601000708130534000008000900060002007305008090000006214097,861432759795861423243579681629758134534126978187943562912687345478395216356214897
090050170086400002050036008507900600001603500038070420000000091200801730400020000,394258176786419352152736948547982613921643587638175429873564291265891734419327865
000701500065030980390060024010000048580000709040026000974300001206049000800005000,428791536165234987397568124613957248582413769749826315974382651256149873831675492
005009006248005300000700120800000002016450908300017050639040000020091480000503000,175329846248165397963784125854936712716452938392817654639248571527691483481573269
004005008000300010375009020090067201053400070010200900020070459007002083000810060,164725398982346517375189624498567231253491876716238945821673459647952183539814762
070080205021000034500091670690300002000010700030000450018002006400075000002064890,976483215821756934543291678695347182284519763137628459718932546469875321352164897
056930000410000679700010500804090003000264008160000200080000100032500094000008057,256937481413852679798416532824195763375264918169783245587349126632571894941628357
000080760071305000200106009030400106000020050857009340104002005069008003005700400,593284761671395824248176539932457186416823957857619342184932675769548213325761498
037010000809040003004080650705300809061400700300000460090501070020090001000026500,637215948859647123214983657745362819961458732382179465498531276526794381173826594
600017000700304290030050000019006720006072501800001400965020008400000000002765030,698217345751384296234659817519846723346972581827531469965423178473198652182765934
000170930269800700010000065037650200002000004950003017420090006000040198000008000,845176932269835741713429865137654289682917354954283617428391576376542198591768423
062047500080309010700000402200094080400001070801650904057030069003500000600002100,362147598584329716719865432235794681496281375871653924157438269923516847648972153
048100609200960000070005320000000000800021093530600074603000005709408010420090008,348172659215963487976845321197354862864721593532689174683217945759438216421596738
254093000003000008189060000020000605700500041040106320865007200000004100000209503,254893716673421958189765432321948675796532841548176329865317294932654187417289563
009263080430070000600015007700800054105000920042009036284001000000000210007030005,579263481431978562628415397793826154165347928842159736284591673356784219917632845
002000500000800190560001070006290000800004030010500804053900000078403065400620007,182769543734852196569341278346298751825174639917536824653987412278413965491625387
076084200000001005000390060500000004012700080498200100061030090300807051040020306,976584213283671945154392768537918624612743589498256137761435892329867451845129376
805706030370040020004001800250804090700030510013900080049005300600000007000063002,825796431371548629964321875256814793798632514413957286149275368632489157587163942
081900073564030000000060020037095010010700400600002090003010840005000102090408005,281954673564237981379861524437695218912783456658142397723516849845379162196428735
860200300005040760000907005730002400204006001000000280170000504090180020400053090,867215349915348762342967815731892456284536971659471283178629534593184627426753198
064000000800000547200090300080460003902015060010030709500801002003000000670002914,364587291891623547257194386785469123932715468416238759549871632123946875678352914
000207030806000400210030005950008200070160040004900001108002070700056300003040698,495287136836519427217634985951478263372165849684923751168392574749856312523741698
480620090302080501090300000100009845030000000007008602260005007700462000004100900,485621793372984561691357284126739845538246179947518632263895417719462358854173926
170480060900020000800601930017930005006004790409500003602005001050006280000070400,173489562965723814824651937217938645536214798489567123642895371751346289398172456
009080405652010070100700023375004900000009560090020000503600008800000301040007200,739286415652413879184795623375164982218379564496528137523641798867952341941837256
000406029235000006000008130009500010800702603324000005080100790607009804400805000,178436529235917486946258137769543218851792643324681975583164792617329854492875361
300719002450000000070060801000150640067040080200007019510006703008200500009430060,386719452451328976972564831893152647167943285245687319514896723638271594729435168
040009830005080004100070900007901408006054020200300509300107000408005701050092006,642519837975283614183476952537921468896754123214368579369147285428635791751892346
850003010016050370000070004001090068000245090230001500903000000004862900080700401,857423619416958372392176854541397268768245193239681547923514786174862935685739421
300410900097030600060008250240360005500001000000027804620000070000090030401082006,352416987897235641164978253248369715576841329913527864629153478785694132431782596
901038000003600907080020040002705000430006090500803006000170508006004210809500073,971438652243651987685927341162795834438216795597843126324179568756384219819562473
004700090092805106071030008060000300080059017719400000040397062500601000000020080,854716293392845176671932458265178349483259617719463825148397562527681934936524781
390000750207003800006040001010058900000304000050102076074800010030679020802000590,391286754247513869586947231613758942729364185458192376974825613135679428862431597
104900003070820006008300920000000090300016205600409007790000030005000481041050000,124965873973824156568371924417532698389716245652489317796148532235697481841253769
000001004090000628000790130500008002400603010087040350050910000903402000200080760,365821974791534628842796135536178492429653817187249356658917243973462581214385769
001937200054060000937000800000100003085000100020408570708019050000706300096205004,861937245254861937937524861679152483485673129123498576748319652512746398396285714
070000003305700601900520004084030060020040305109070080060802000750160098002000040,278416953345789621916523874584231769627948315139675482461892537753164298892357146
803009100000050420007300005006000017020003009504002008912007050030500060070284300,853429176169758423247316985386945217721863549594172638912637854438591762675284391
200097068004300070109460025890020000402001500030600082006900040700000100005080036,253197468684352971179468325897523614462871593531649782326915847748236159915784236
200098046064700000900002100000410320005000800139006700870200010001530290000004073,217398546364751982958642137786415329425973861139826754873269415641537298592184673
040100000500608200070004609204050030010092006790010500820907005003005047000360800,648129753539678214172534689284756931315892476796413528821947365963285147457361892
630802070710300024002600005000079100840050006921008003050001030304000007009000862,635842971718395624492617385563279148847153296921468753256781439384926517179534862
805003069001005032020910540000008050000390200700000001400060380180004007900027006,845273169691485732327916548219748653568391274734652891472169385186534927953827416
010500300500009080060420010000900800041007009900230076008040031050600027024350000,417586392532179684869423715276915843341867259985234176698742531153698427724351968
030102087007000900000046020600903751870004360900000000050860400021305890780000000,534192687267538914198746523642983751875214369913657248359861472421375896786429135
200900004001080069070003008908070000050300786063140000016005203500604000000802010,285961374341287569679453128928576431154329786763148952816795243532614897497832615
006010730400052000810307052020170006030024008004800020001093600080600000002005904,256418739473952861819367452528179346637524198194836527741293685985641273362785914
104080500908030072030060400009023008080059010071000020050400690206075001400800003,124987536968534172735261489549123768682759314371648925853412697296375841417896253
067000000900000283020149050080005107005020690610730020034590000000200060000800415,567382941941657283823149756482965137375421698619738524134596872758214369296873415
030524090020000430065900010000617054709042000000000800300070000512030086804000029,137524698928761435465983217283617954759842163641395872396278541512439786874156329
300027416800040000070106000004000091000690807005480302930502080006038050010900700,359827416861349275472156938684273591123695847795481362937512684246738159518964723
305402091620100008700000036090500000010340560070080340000650000002000810804009003,385462791629173458741895236493526187218347569576981342137658924962734815854219673
063807109100520070080000450291050700000000394070600000008030060000480501630109802,563847129149523678782961453291354786856712394374698215418235967927486531635179842
130009840002000005740500210000000060057304080910002300006021409080930007003060050,135279846862143795749586213324798561657314982918652374576821439481935627293467158
806000039200040008050006100700100000302000400004009802009070305603002091170800206,846217539231945678957386124768124953392568417514739862429671385683452791175893246
320007054700600080908030100600080010007050000000013902200000076046102003800905000,321897654754621389968534127632489715197256438485713962219348576546172893873965241
000049627700500049008026000006000010000198300304052700020087030180000400405003906,531849627762531849948726153896374215257198364314652798629487531183965472475213986
900070000870000412004580090400058070003241500006300800009000006260039080050710024,932174658875963412614582397491658273783241569526397841149825736267439185358716924
020003005007021300009860040680702000905004100000300786001408050300000908760050002,126943875847521369539867241683712594975684123412395786291438657354276918768159432
000070051403020890009841000500002710070560000208900060095000074320150900060008300,682379451413625897759841632536482719971563248248917563895236174327154986164798325
000080057003601008209370000000020700310400006076810040900000030008054602625000190,461289357753641928289375461894526713312497586576813249947162835138954672625738194
040900800920003604106200050032190008059000002000408003000070936608014070000050000,345961827927583614186247359432195768859736142761428593514872936698314275273659481
