206058000400000021730060590070009000800340060360810002010070030000430980500000700,296158347485793621731264598174629853852347169369815472918576234627431985543982716
060005408081470000500008729209354000008000100074860000000040390036009007000120605,762935418981472563543618729219354876658297134374861952825746391136589247497123685
701000003056070090008461000049000870060040000270950460030805007000010520002006080,721589643456273198398461752149632875865147239273958461634825917987314526512796384
100735400804100030056000900000023006012004090003800070200506000700090081098400305,129735468874169532356248917487923156512674893963851274231586749745392681698417325
900025000000704081004300070067000008420190050100638200002000834043080609006000010,971825463235764981684319572367452198428197356159638247512976834743581629896243715
900005038007060001520370900092000003850040000070210000000130506400008002001602089,916425738347869251528371964192587643853946127674213895289134576465798312731652489
370806000600000024098050003040069750500002100009010068103095200006004000704000301,372846915615973824498251673841369752567482139239517468183795246926134587754628391
041052093503010040080600007608070350004009000230065100079000860005096002020140000,741852693563917248982634517698271354154389726237465189479523861815796432326148975
000300870410006000806002904080000390601050408203109000304960052050007009000200740,529341876417896235836572914785624391691753428243189567374968152152437689968215743
000300206720010000085002140010820900040960000000754003900500080108030007600090052,491385276726419538385672149517823964843961725269754813932547681158236497674198352
020000430800072091050804600006289040901450007302060000400007800003100059700590000,627915438834672591159834672576289143981453267342761985495327816263148759718596324
600010800701002300023570000090400081534000097800200060005001700000040029000893640,659314872781962354423578916296437581534186297817259463945621738368745129172893645
720040058000000046083090001640037000108504000309002070000256010007080009005100032,726341958591728346483695721642937185178564293359812674934256817217483569865179432
091400306004010250000283014020060809900501070073040001809050060060700000500032000,291475386384916257756283914125367849948521673673849521839154762462798135517632498
061000400008014059000370200900720000003051007000000568180000302507040806004903000,261895473378214659495376281956728134843651927712439568189567342537142896624983715
010008004020506790060090530050080010800020306000904070045030107900700020302800940,519378264423516798768492531257683419894127356136954872645239187981745623372861945
403001050056700000000900602900203000800000271600005004002840903080502407701006800,493621758256738149178954632914273586835469271627185394562847913389512467741396825
508301204090000065170000000230050700006200509000108000004009300010600948380075001,568391274493782165172546893231954786846237519957168432624819357715623948389475621
530081007002500040400603905090002061000190204000307080970000308056030000800004170,539481627612579843487623915395842761768195234241367589974216358156738492823954176
200050060504070900010380002000200800900608350130004700856001090007900400490003000,283459167564172938719386542645237819972618354138594726856741293327965481491823675
050000200708530060009100070080000340004096002501200708600317004000004539020980000,156479283748532961239168475982751346374896152561243798695317824817624539423985617
031200500207005081000609000603070890050008007800020034090001070502000600008460300,931287546267345981485619723623174895154938267879526134396851472542793618718462359
003624000106075000800000070300000106000982040025001900009046513007030400500209000,973624851146875239852193674398457126761982345425361987289746513617538492534219768
920060000050007460000802001060310000000000058100459070308690000209080043540100700,924561837851937462637842591765318924493276158182459376378694215219785643546123789
020000700000960430008030091100000075059008004300704169000320000297100000604805000,923481756571962438468537291146293875759618324382754169815329647297146583634875912
036000045007600180500009703084000050751006409300010200002073006410800000603900000,136728945947635182528149763284397651751286439369514278892473516415862397673951824
000900030805100400014060057003420009709000001001005620040200860050300900600087004,276954138835172496914863257563421789729638541481795623347219865158346972692587314
240800035507100000000000807070305012600042009008600700001070043006509000090008061,249867135587123496163954827974385612615742389328691754851276943436519278792438561
800053000302100008075920000640700805057300109000014062080000070000000396093405000,819653427362147958475928613641792835257386149938514762186239574524871396793465281
750010040408000320100830000000067000030290004000001862096000075502009006307000180,753612948468975321129834657281467593635298714974351862896143275512789436347526189
030145007802000000000800691000250030500070809790008060070001026680400050040903100,936145287812796345457832691168259734523674819794318562379581426681427953245963178
703024005508000000090075231605090020000008100002056793340000009009180004001007060,713624985528319647496875231635791428974238156182456793347562819269183574851947362
000709056760003009000045210910500700082000000530021080056800001329000400000496030,241789356765213849893645217914568723682374195537921684456832971329157468178496532
200000030068070050039824000704950600005007129010000004607310800100080240090605000,271596438468173952539824761724951683385467129916238574647312895153789246892645317
090038500407600300280009060360800000005000049010720005870006003602950084009001020,196438572457612398283579461364895217725163849918724635871246953632957184549381726
000568030670092001000010204500081007900000500204900013040020090308006000760340005,421568739673492851859713264536281947917634528284975613145827396398156472762349185
090300508000061000006800402172900004040750901050002806017000030000407209820035000,791324568284561793536879412172986354648753921953142876417298635365417289829635147
020004970600907805000862010015320400090000050000050607047003000108000240003600008,821534976634917825579862314715326489396478152482159637947283561168795243253641798
078002040300409070900060001005000009107320008602000530000008750006203804010004690,578132946361489275924567381435876129197325468682941537249618753756293814813754692
003702900200051400607000052001060000500300041040200087009508000320409100870030500,453782916298651473617943852731864295582397641946215387169528734325479168874136529
008203400093007006000050170010000050000709600004180009081090007057846902600000034,178263495593417286246958173912634758835729641764185329481392567357846912629571834
200085090560070803013002050300057402140600300020001680007003000600098500900040007,274385196569174823813962754396857412148629375725431689457213968632798541981546237
070000809000020540941008000600900050003800206084700001058001700760054002002600390,275436819836129547941578623627913458193845276584762931358291764769354182412687395
200800360010090007038271005000054080906000743803000002090038004000010200405706100,279845361514693827638271495721354986956182743843967512192538674367419258485726139
050410032003600017000028900908700600700000290000506004036001000020960140801005070,659417832283659417174328965948732651765184293312596784436871529527963148891245376
094050700006002030170000026000007000001490600050030894009640002030800065705100908,294356781586712439173984526948567213321498657657231894819645372432879165765123948
030004108009030057100890000600070000703009081500201003408520060002060300005907040,236754198849136257157892436681375924723649581594281673418523769972468315365917842
000000503005901007207038049008020050020600008700043100590400700843015096000002080,986274513435961827217538649368127954124659378759843162592486731843715296671392485
007005000060120907208409001051003040003706800800200056000300200040001603090840070,917635428564128937238479561651983742423756819879214356185367294742591683396842175
003800410459020700081007020046003200002050081000079050030600900060008040127500000,273865419459321768681947523546183297792456381318279654834612975965738142127594836
700001296891000700050040003009000600000400080317020040230100900060852107000030005,743581296891263754652749813489315672526497381317628549235174968964852137178936425
070000800502190470014207095005062000080000730000400900040300060100820000637050010,973645821562198473814237695395762184486519732721483956248371569159826347637954218
008005967005600402200908010702000000040010300081076250500009000004301096076084030,438125967195637482267948513752893641649512378381476259513769824824351796976284135
002040607000002300930005010001006080040030500506089070007301068058704200000260090,182943657765812349934675812371526984849137526526489173297351468658794231413268795
000008520000000030009502104800007000037400086050100409943706001500901000206005703,461398527725614938389572164894267315137459286652183479943726851578931642216845793
000400003601035020005107800250009006040070030070840901903000080027603045060000002,792468513681935724435127869258319476149576238376842951913254687827693145564781392
087200000000500100019608030160350090028060045700040201090001780000900504302000600,487213956236594178519678432164352897928167345753849261695421783871936524342785619
102000000000014308900605074500002800000009060724003009006540031080000407000031200,142387695657914328938625174569172843813459762724863519276548931381296457495731286
000675090048010030906300502300000680700401000054000109060500020200030807013042000,132675498548219736976384512321957684789461253654823179467598321295136847813742965
000002500130400080706000039510000900380650700000039004050010600900800172040276000,498362517135497286726581439514728963389654721672139854257913648963845172841276395
008096030270000600050000140500200014000008200060034095031400507007010000890023060,148596732273841659956372148589267314314958276762134895631489527427615983895723461
709020000460050080000010403010900500002800640803570900270084090004000761005300000,739428156461753289528619473617942538952831647843576912276184395384295761195367824
000380700050006001001004920062410005100009370080072000306905080070000040420000069,294381756857296431631754928762413895145869372983572614316945287579628143428137569
000600700158000006030921004700132000490080000012000035006007049074060850900305200,249658713158473926637921584765132498493586172812794635526817349374269851981345267
702003090085000140060000008000806002008041300010709050350900006004027000000460907,742183695985672143163594278439856712578241369216739854357918426694327581821465937
103620040050080700080501020476030000008000900930240067000073500520910080009000601,193627845652384719784591326476139258218765934935248167861473592527916483349852671
080956703700000406032700050000025010270001308063000040090032500004009000000608901,481956723759213486632784159948325617275461398163897245896132574314579862527648931
000900056053001400400000378065010200700008001008020604100705940809600000002090003,287943156653871429491256378365419287724368591918527634136785942849632715572194863
102040070060900800900803010004051900000200030300060507020100046001790200407008003,182546379763912854945873612274351968596287431318469527829135746631794285457628193
060500030700098400854600100000810570007005842000240009009000300010730020402000086,961574238723198465854623197246819573197365842385247619679482351518736924432951786
098004607001600000040073090800060010200040530030097200400025008005000100672008403,398154627721689345546273891859362714267841539134597286413725968985436172672918453
900150030316070900507020460709000806030017509620000000060903000408002100000000045,942156738316478952587329461759234816834617529621895374165943287478562193293781645
008020600052930047410050083160000300034087009000002064701000950020104000080070030,378421695652938147419756283167549328234687519895312764741863952523194876986275431
010695020300040801405300000038020900004073006009850107600000370000008500081200094,817695423396742851425381769738126945154973286269854137642519378973468512581237694
006010095480230100002007800040062700001005960050100040070000003009080007813400020,736814295485239176192657834948362751321745968657198342574921683269583417813476529
030614580000003104000205009067009040402070005085000300100030027050000906800021000,739614582528793164641285739367159248412378695985462371194536827253847916876921453
400378510000001060003900700030020000070003004128050970009004050800690200002817400,496378512287541369513962748634729185975183624128456973769234851841695237352817496
013000006900074300580900002060020040200400508007093600009080714102049050030700000,713258496926174385584936172365821947291467538847593621659382714172649853438715269
008005207006009803030070040600400002910067000300020070050600108004500039020013050,498135267576249813231876945687451392912367584345928671753694128164582739829713456
100090420000070891003200000400052000089107006060080070038060004051400038602010007,176598423524376891893241765417652389289137546365984172938765214751429638642813957
401007503630500074027900800000050002900800360008631040050080000000400620140092000,481267593639518274527943816364759182915824367278631945752186439893475621146392758
007302600850000000029010804032640019900750000600000030718400060000291000000007450,147382695856974123329516874532648719981753246674129538718435962465291387293867451
000009051008704006420000008071000360300501009806400020087003500250970000009620040,763289451918754236425316978571892364342561789896437125687143592254978613139625847
105000490030020067960310020672090000300600051090483000080000046000800700000957208,125768493834529167967314825672195384348672951591483672789231546253846719416957238
548006900000008706100200043907305600000900120014007005000070530260001008009480000,548736912392148756176259843927315684835964127614827395481672539263591478759483261
070001004260040350100900080603020000005804193000070208400285700037006500090010040,378651924269748351154932687683129475725864193941573268416285739837496512592317846
080093000002000040510002870000060510908030200006508004060700002897004006401300059,784193625632875941519642873243967518958431267176528394365719482897254136421386759
820060430000024097000109005200400100900006083036250000001070560090000000045301002,829567431513824697467139825278493156954716283136258749381972564792645318645381972
180400009047105602000093004304200000065071003890000060000050400006007080008040796,183426579947185632652793814374269158265871943891534267739658421426917385518342796
204000060080160347630005008047500090009000683000310005050907000428000700000400210,274893561985162347631745928347586192519274683862319475156927834428631759793458216
802000010030000504040306980008007020700045300010900400205003006007800041190760000,872594613936281574541376982458637129729145368613928457285413796367859241194762835
208051706049300005000040080000400132004010070805000000007006900600000053150092060,238951746749368215561247389976485132324619578815723694487536921692174853153892467
081070340450008009700260100010006907070400068200030500008050021000102000003009850,681975342452318679739264185814526937375491268296837514948653721567182493123749856
456030020200460710000090500805000030100700098090204000060000402900021070730000061,456137829289465713317892546875916234124753698693284157561379482948621375732548961
001020780000790001030054206900800005075610000020000463700400600210037008004009500,591326784642798351837154296963842175475613829128975463759481632216537948384269517
000072010008400530900060804067920000540008000200146007821090005405300026000000190,354872619678419532912563874167925483549738261283146957821697345495381726736254198
000300040807652001029070060104027300500081600000000024206000080405039700000800590,651398247847652931329174865164927358532481679978563124296715483485239716713846592
400000001280906005050700806900104720000580000600027004360200500097050100001098040,476835291283916475159742836935164728742589613618327954364271589897453162521698347
500300206402001053300500091000010000170008900038602000000040070810073064005090082,591387246482961753367524891254719638176438925938652417623845179819273564745196382
600320000190508006347000000000000001070981530080005469000059020005200780003607010,658324197192578346347196258539462871476981532281735469714859623965213784823647915
