000920010581000009400006735054208090000703000006000407070300240023050078800000001,367925814581437629492816735754268193918743562236591487175389246623154978849672351
008290400760005100009067003006013085501800000020004930400070020100508074003900000,358291467764385192219467853946713285531829746827654931485176329192538674673942518
000086307080001000657000104103402809000007026004000000075020030800960001410003052,241586397389741265657239184163452879598317426724698513975124638832965741416873952
090460810006005907230700005040806000079530000000000123800297300700000204005001060,597463812486125937231789645342816579179532486658974123864297351713658294925341768
020079001060001400000580730901650000304100200070308000017800509590020063406000007,823479651765231498149586732981652374354197286672348915217863549598724163436915827
008500042090018000010040690046107020200096003000300005053062070061080004900700500,638579142492618357517243698346157829275896413189324765853462971761985234924731586
004305010708000000030097400690500700100002980000046050000100300050268140209050670,964325817728614593531897462692581734145732986873946251486179325357268149219453678
050200600000700013009061004100305408506470090028000300040050970600893100000000002,751234689264789513389561724197325468536478291428916357843152976672893145915647832
003060002090800106070035009800100570040002910009080003060000320014076005730029040,483961752592847136671235489826193574347652918159784263965418327214376895738529641
000000843003961270007000600102354000090280000400070060070002198080400000021600750,916725843843961275257843619162354987795286431438179562674532198589417326321698754
104000709000000286005907000520063000603400020000705100000094000930002407010308605,184236759397541286265987341521863974673419528849725163756194832938652417412378695
420005960000600714008000000906050480800701350003009002050097000639008007004300200,427135968395682714168974523976253481842761359513849672251497836639528147784316295
308000000009200010020074068004058027760109004030006900106000470000800100200430086,378615249649283715521974368914358627765129834832746951186592473453867192297431586
010500000803000090090700234600104870200000509107000006060095308020460001000308702,412539687873642195596781234659124873234876519187953426761295348328467951945318762
306090800405001007000406200700064000000270061900030402240000009007810305803009000,326597814485321697179486253712964538534278961968135472241653789697812345853749126
000057140607021005040300080106008302000290000900600054230000809804000071000506000,392857146687421935541369287156748392473295618928613754235174869864932571719586423
050870410076500802042000530200418000095007080000090023000000009004930000003050671,359872416176543892842169537237418965695327184418695723521786349764931258983254671
180970002060010000003600408040020530300006090097501800008105029700080060005007300,184973652562418973973652418846729531351846297297531846438165729729384165615297384
000001409000700205623009870075300000490000620030048100080234000001500080560010090,857621439914783265623459871175362948498175623236948157789234516341596782562817394
040100080100067902602000005001406007930000006070005298004052000008030050050080301,547129683183567942692843175821496537935278416476315298314752869268931754759684321
839010060000060200050000009901500470085600300000429100007830000100004923200000580,839215764714968235652347819921583476485671392376429158597832641168754923243196587
200001500670000000380700019904008020000004103100520060096082400800409050007600001,249831576671295348385746219964318725752964183138527964596182437813479652427653891
504001600000600098070392400408000003152000907000106000341007200020804300007900005,594781632213645798876392451468279513152438967739156824341567289925814376687923145
002040170500060000040509603090002010780000004300850700000083400003070869056091020,962348175538167942147529683694732518785916234321854796279683451413275869856491327
800017000946500000007000035075206001030790840000301200002800460389050700000020003,853917624946532178127468935475286391231795846698341257512873469389654712764129583
012600507008009002350100000147300080800094600000020030005006020030540100000083970,912638547678459312354172896147365289823794651596821734785916423239547168461283975
800060040003452700060730005602001079051200800940080500700900401020000030019005608,875169243193452786264738195682541379351297864947683512738926451526814937419375628
700369020040002000010000659907038046000000900803040705408650002200000068030207001,785369124649512837312874659957138246164725983823946715498651372271493568536287491
004703806500020370070901000050307009006500400010098023703200614081000000000006930,124753896569824371378961245852347169936512487417698523793285614681439752245176938
050060080000407006207089100802010040036020009100005830690100000003048000008700523,954261387381457296267389154872913645536824719149675832695132478723548961418796523
020008060800050904000900037004007209201060070075030100093072000500310000060405018,329748561817653924456921837634187259281569473975234186193872645548316792762495318
060300280300410509075002300203006070100000020086509004892600003000050710000040008,461395287328417569975862341243186975159734826786529134892671453634958712517243698
083000004100007305700406012907504000005000006064780200208000001000950080000140903,683215794142897365759436812927564138815329476364781259298673541431952687576148923
680002000300410780012009430000240900806100050090007040507360001000000675001800020,684732519359416782712589436175248963846193257293657148527364891438921675961875324
800040650021005480000103270300570008060098704004602005670000930000030000500907010,837249651921765483456183279392574168165398724784612395678451932219836547543927816
080409750005008400002000086047003008100604900060750004019507002070800530306000090,681429753735168429492375186547913268123684975968752314819537642274896531356241897
057006004810030000600700950200003546069010070000200010300480060040000700508090002,957126384814539627623748951281973546469815273735264819392487165146352798578691432
000940007026010839057800210068000003002001000790030452600475000000020008030006090,813942567426517839957863214568294173342751986791638452689475321175329648234186795
004200078090600200020407930801060090500310000270050803007803041600009027010000000,364295178798631254125487936831762495549318762276954813957823641683149527412576389
040078003305004070000020001070300095090012300800700020007005006601800400280030059,149578263325164978768923541472386195596412387813759624937245816651897432284631759
520068004400501070089000060000700500004602010601300800800053002010004003072090000,527968134463521978189437265238719546754682319691345827846153792915274683372896451
078090021900000650000630004502080409030006000014300702051073000000140870300900100,678594321943218657125637984562781439739426518814359762451873296296145873387962145
005020069400001030207800500003089007100400900080762050309000605020040001600030840,815324769496571238237896514563189427172453986984762153349218675728645391651937842
010000700004702050000890030070043086300500009021080570005016008090004060032950040,813465792964732851257891634579143286386527419421689573745316928198274365632958147
800095062076800900100072003000041520009068010001300004300009080640050070000000205,834195762276834951195672843763941528429568317581327694352719486648253179917486235
680320009000004007500100000030200070070001806908640010001090480800700205095003000,687325149319864527524179638136258974472931856958647312761592483843716295295483761
009057860306002017000400020000000050092003008561040700003060590040305100010890002,429157863356982417178436925834679251792513648561248739283761594947325186615894372
754200016000400800098003507001060003600500000870091060903006070042850009000004020,754289316316475892298613547421768953639542781875391264983126475142857639567934128
740800306000970010302000080090000805054009003200480600070010024081350007605004000,749821356568973412312546789196237845854169273237485691973618524481352967625794138
038072010005040600070905000080031260600400007004800059142006530503180000007000090,438672915915348672276915843789531264651429387324867159142796538593184726867253491
000483070079010060100000002400700000002608500056000904093004001800092640020030805,265483179379215468148976352481759236932648517756321984593864721817592643624137895
020710980008000704000085001040506003700900056080400200100042507000003090203607000,326714985518369724497285361942576813731928456685431279169842537874153692253697148
140003000905001008000270900007060029400000356003009004030100802008450000621700005,142983567975641238386275941857364129419827356263519784534196872798452613621738495
040001067003050980090304020000020450030016700800003006009060500705089001410000070,542891367173652984698374125961728453234516798857943216389167542725489631416235879
800007040037840100052060090060000934005002800798100060020005007106280050000900003,819527346637849125452361798261758934345692871798134562923415687176283459584976213
009530680240060700000008100091040008003090506700302004010900020860005307057080000,179534682248169753635728149591647238423891576786352914314976825862415397957283461
090050730010840002607100800006000085000700920034009006042630500850010300003900040,498256731315847692627193854976321485581764923234589176742638519859412367163975248
050010090302800400400095086100380079000071000028000000007530640043000010905006207,856413792392867451471295386164382579539671824728954163217539648643728915985146237
638120500000006200004070090000800000906005420720040160000394010057000009001600842,638129574579436281214578396143862957986715423725943168862394715457281639391657842
000000720000860000857040000006750084040001290081090037504006003903010650020003019,469135728132867945857249361396752184745381296281694537514926873973418652628573419
090103800085700200004020005200805930043600020600092001000080107506009300007001040,792153864185764293364928715271845936943617528658392471439286157516479382827531649
702680004008054291010300000007016080900500600350420700009830000400009000000007065,792681354638754291514392876247916583981573642356428719169835427475269138823147965
900300800058120047000000001071800405000000006060049200004037060680001320590002074,916374852358126947742598631271863495439215786865749213124937568687451329593682174
000091002805700003003008009150009004000040760026070500008002100040056200630400080,764391852895724613213568479157689324389245761426173598578932146941856237632417985
708060004040005300610090820020007090805001407300080150000040060430002080290300701,758263914942815376613794825124537698865921437379486152587149263431672589296358741
050007000306009015200040083720380090001400000009001260504003006800070109010260070,158637942346829715297145683725386491681492357439751268574913826862574139913268574
460000000020008193008750000900600400705200010010504038000020060000006984390801070,469132857527468193138759246983617425745283619612594738874925361251376984396841572
205379060087050000300400001070920050504000002906030000890700020042860013000001084,215379468487156239369482571178924356534617892926538147891743625742865913653291784
430270850000301000907000400200600000600004710001500240008403000070000960129080030,436279851852341697917865423245617389683924715791538246568493172374152968129786534
208005070900830420040670001700060908806100030050009004082300000030010756501040000,218495673967831425345672891724563918896124537153789264682357149439218756571946382
090600307040007150120800009065000040402000903300072510806034000000205080070190000,598641327643927158127853469765319842412586973389472516856734291931265784274198635
007490010300800406100506089060034500824900600000000700290105000008060003570000120,687493215359821476142576389761234598824957631935618742293145867418762953576389124
030056004900000800806009310007102000304070920008400005020030070600005109170080630,731856294942317856856249317597162483364578921218493765429631578683725149175984632
095807300028000000300015040700030205001008000032900600600400970017050008040060013,195847326428693157376215849784136295961528734532974681653481972217359468849762513
100000497007010000280600005000050309046800050300900610094570020520460903038002000,163285497457319286289647135812756349946831752375924618694573821521468973738192564
300005690090074100024100037008030450030906080107020000005007013000840200000000906,371285694596374128824169537968731452432956781157428369245697813619843275783512946
003000000500001004640039870000906020001043095050800703009005300020070010810000562,193487256578261934642539871734956128281743695956812743469125387325678419817394562
095406080107030006000010072003008019002507300460000500809100060350000090040620005,295476183187932456634815972573248619912567348468391527829153764356784291741629835
100900030000060210807205004400700500009020000062801470000086150701590002004000803,126948735945367218837215964418739526579624381362851479293486157781593642654172893
809005472060010090705028010200076080000003600570890000001350700600002040003400520,819635472362714895745928316234576189198243657576891234421359768657182943983467521
084090600103680040005000703070006000500042100008030207040001000300008902690200054,784395621123687549965124783279816435536742198418539267842951376357468912691273854
003040516500200009000018700000624800192050003400000075900000300750100060036970024,283749516517263489649518732375624891192857643468391275921486357754132968836975124
400100025300900700008025006016740800000600054290500100005003001781000403640009002,469187325352964718178325946516742839837691254294538167925473681781256493643819572
040500071080017300000006520073900006005700912010402003051600000609020040000093800,342589671586217394197346528273951486465738912918462753851674239639825147724193865
004001370500640000312000069000030547007865000930002010000000200400590830690080001,864921375579643182312758469286139547147865923935472618758316294421597836693284751
000930500200000001063004087050187060900540002078090300041000200800000090009825006,187936524294758631563214987352187469916543872478692315641379258825461793739825146
050200091007831006408500007000040072026009500000000160100007243002080000060105009,653274891297831456418596327531648972826719534749352168185967243972483615364125789
090023000020650700400001608062009030008000207500000001005012040006047319040068500,697823154821654793453791628762189435918435267534276981375912846286547319149368572
020096800405000170390004005001020940700010300000600002904750020086003051003201000,127596834465382179398174265631825947752419386849637512914758623286943751573261498
006003005087400000390008210450970100200000036008100090001200483000009070032604900,126793845587421369394568217453976128219845736678132594961257483845319672732684951
003042000600803000200000907045000000810420600000901740031075809070600105026009300,193742586657893412284516937745368291819427653362951748431275869978634125526189374
300200000001008260807360090040000080205710634900006570100002000600090807000430120,369254718451978263827361495746523981285719634913846572174682359632195847598437126
050043000001000600076500809020096000060030102809270500100920040307000005040008010,958643721231789654476512839523196478764835192819274563185927346397461285642358917
907504016060000200003091000400060000052003100001050789008210057700809002006030040,987524316164387295523691478479168523852973164631452789348216957715849632296735841
003000092190006504758020060800213050000080403006900100040300005029104008300000700,463751892192836574758429361874213956915687423236945187647398215529174638381562749
007200050580060230040000908400012703106500000093000040005007400020039071060804092,317298654589461237642375918458912763176543829293786145935127486824639571761854392
010003602040005080307406015020700090500080004700090023009030000004200870856000000,915873642642915387387426915423761598591382764768594123279638451134259876856147239
010000804000269100539004006200700060300050901081600070820370050050800200007005340,612537894748269135539184726295718463376452981481693572824371659953846217167925348
420800070570020861096103000000000003050207100380500490000709608069080050040001002,421865379573924861896173245617498523954237186382516497235749618169382754748651932
281900004003004015050063207600700090105008060300040000009005128000030709800020050,281957634763284915954163287648712593175398462392546871439675128526831749817429356
