001900802080037640094500030100620900000019003260840500320000005400201070007050008,731964852582137649694582731173625984845719263269843517326478195458291376917356428
080040006003900721005261030006310940530000000070002008000006059007520000209408060,182743596463985721795261834826317945531894672974652318348176259617529483259438167
005072800800400010329050000100000930030006500000240007050801309040520601080090702,415672893876439215329158476162785934734916528598243167257861349943527681681394752
000050000107300004003026759005090100870032060640007802234001006000845090090000070,962754318157389624483126759325698147871432965649517832234971586716845293598263471
060008300002060094935000700100230008078100002050090403804600000000701000600320051,461978325782563194935412786149236578378145962256897413814659237523781649697324851
504000000003401706079600082000800105081062300900000067300000049240007003005103200,564728931823491756179635482436879125781562394952314867317286549248957613695143278
020916800309804010060500007507000024900008600000300905000730160170000502038060040,724916853359874216861523497587691324943258671612347985495732168176489532238165749
900200047007480006200090308405007000081030009730000100560070020003804000090106004,918263547357481296246795318425917683681532479739648152564379821173824965892156734
000000578006039002720000006002050800000300140093106000140280007067094000250601300,931462578586739412724815936412957863675328149893146725149283657367594281258671394
000004032042800051506000000605709003037160020900000806000087019000630280014050000,198574632342896751576213498685729143437168925921345876263487519759631284814952367
700608000490017060000050304104000800053800000270063010800500423506230701000000900,732648195495317268681952374164795832953821647278463519819576423546239781327184956
900000340507390086046002000008700920000201050703540001895000600600000175000030090,982156347517394286346872519158763924469281753723549861895417632634928175271635498
480500690700091308002070010008203460904806000035000002500084200200009000067000003,481532697756491328392678514178253469924816735635947182519384276243769851867125943
020510003794002080050004006003009058400700300000160200509000060018400900630028100,826517493794632581351894726173249658462785319985163274549371862218456937637928145
290010000000003005003486700480030010070020930000758620004070801005900203700002409,298517346647293185153486792482639517576124938319758624924375861865941273731862459
100008040003060507000509000207080000649000030500200170300070825080090406060015093,156738942923461587874529361217983654649157238538246179391674825785392416462815793
300004000908070503605000490000005860504006900002090001209163705013040020000700008,371954286948672513625381497197235864534816972862497351289163745713548629456729138
304200076900030510008056000096000704003068100020403090042007000000512080700009053,354291876967834512218756349896125734473968125125473698542387961639512487781649253
000000000273809500685000070004200053006504902000006710020097006409600300000012800,941765238273849561685123479794281653136574982852936714528397146419658327367412895
700005000483016500019000208001000046000300000247001900026097003000403080090058170,762985314483216597519734268931572846658349721247861935826197453175423689394658172
050021830030500700600009002800700600200050004190403005500040000076000410020836907,754621839932584761618379542845712693263958174197463285589147326376295418421836957
820430070019000320407109008005000010000062407000700503064370900098056000050090200,826435179519687324437129658675943812183562497942718563264371985398256741751894236
050600000079084160210957003900320700004000080000018250000560420763000001000009000,458631972379284165216957843985326714124795386637418259891563427763842591542179638
050300071007900420006010005025030004000050680019067000308000900000048107400200560,954326871137985426286714395625839714743152689819467253368571942592648137471293568
050402007008090400012006080097001350000005008000240160580600001670304002309700500,953482617768193425412576983297861354146935278835247169584629731671354892329718546
600000100003900008287500900760004023402003600010020780000018470000200091500709000,695482137143967258287531946768194523452873619319625784926318475874256391531749862
027035400100000020690010500070004000085200630046890001008620100010007908000050073,827935416154786329693412587371564892985271634246893751738629145512347968469158273
010000980900217005006803040040070102007560000350008400702001063801006000000730009,213645987984217635576893241648379152127564398359128476792481563831956724465732819
005000402974180050020300000590007600810026003003000090200703108100508700040060900,385679412974182356621354879592437681817926543463815297259743168136598724748261935
307006918800500060402900500085030400020009070006100090001782006000001750003000002,357246918819573264462918537985637421124859673736124895591782346248361759673495182
000970800607004093300100002002000460704500908580036007900850020000010004005002670,421973856657284193398165742132798465764521938589436217946857321273619584815342679
050000001004503602000900870000000407001860200320700050019206703030190004582000906,958672341174583692263914875895321467741865239326749158419256783637198524582437916
090063050085000100001009004000054600200901870018700030743200000009040002006098500,492163758685472193371589264937854621264931875518726439743215986859647312126398547
600000405829060703000091000001080000200940560567003008080030000305002074470000106,613278495829465713754391682941586327238947561567123948186734259395612874472859136
301009000060401005050700120005300060040000708907080000080600457073104209500002003,321569874768421395459738126815347962246915738937286541182693457673154289594872613
500010802400500070060079000087000406100703090050028300040006003203800900690205041,579614832431582679862379154387951426124763598956428317745196283213847965698235741
900600500310000060000078400080430020600005930070210806005002090004053702090160040,948621573317594268256378419589436127621785934473219856735842691164953782892167345
000900080004073002050800107008002361940068000300500900000001820090650700703000004,137925486684173592259846137578492361941368275326517948465731829892654713713289654
070203100006007952109600080061000007900000004050084260007350400800120000230070009,578293146346817952129645783461532897982761534753984261617359428894126375235478619
005060001278010060000003908160300009000020740430905000006230000701000004500071802,395862471278419365614753928162347589859126743437985216986234157721598634543671892
060000030000090410100780002400170009030620085705000000090250600000018043302400958,269541837578392416143786592486175329931624785725839164894253671657918243312467958
005180006093000084000090075150040090040067800208000050000600301400250009076003020,725184936693725184814396275157842693349567812268931457582679341431258769976413528
708000000009075023400201006006480090003507100080309005601000204004906008072040500,728634951169875423435291876516482397943567182287319645691758234354926718872143569
250089010000006000009701300000000450680020703107300006001900268806017004930000005,253489617718236549469751382392678451685124793147395826571943268826517934934862175
090010000602040150080723000005300029974000600060004871006000093000250000728900060,497615382632849157581723946815367429974182635263594871156478293349256718728931564
204100873000500604609070020700000480002610005000308210015090008000830050960000300,254169873173582694689473521731925486842617935596348217315294768427836159968751342
007050900600200105420030000700109506000008004301070080200006398000702000519040002,187654923693287145425931867748129536952368714361475289274516398836792451519843672
003027000007600015800090000900003401300470002026150087708300096000040000010068230,153827649297634815864591723975283461381476952426159387748312596632945178519768234
300900002071085009840000060008006007013070000400102000000300908902001756006250013,365914872271685349849723561528496137613578294497132685154367928932841756786259413
002095034030400005040080960000001700806037042095000006600500120009100080480200600,162795834938416275547382961324651798816937542795824316673548129259163487481279653
960000503004000000800162009009058040780304000035200107002070610600009704040080005,961847523274935861853162479129758346786314952435296187592473618618529734347681295
000790260240500700087000103630004090005060000400203800002006015000000340890310007,153798264246531789987642153638174592725869431419253876372486915561927348894315627
040730200260500800078000390610200000090010045805096070401000008000370501300002069,149738256263549817578621394614257983792813645835496172421965738986374521357182469
000601090140000005365200000200009000804107300037540080070000802002300051090420007,728651493149783265365294718216839574854167329937542186673915842482376951591428637
086507039700204100100090006000006080900400001025900403064070002007158000803000097,486517239739264158152893746341726985978435621625981473564379812297158364813642597
064098000000007010070031402005009080030740609200050300089020030510000700420103800,164298573352467918978531462645319287831742659297856341789625134513984726426173895
058600013600050007200003000012780050790030804064009000900002100023801406000045300,458697213631258947279413568312784659795136824864529731947362185523871496186945372
300260000928004050146500700000100084200097000050600390007015409000700003004030806,375261948928374651146589732769153284283497165451628397637815429892746513514932876
040918000301050700000270800503000902090106070060020003800000000179080450620005001,247918635381654729956273814513847962492136578768529143835461297179382456624795381
004090300260010078390200501087100000500000064010053090900800002020470050050006403,174598326265314978398267541687149235539782164412653897946835712823471659751926483
370049002080070900104605700056000004000090208010380500028001030030050001900002050,375849162682173945194625783856217394743596218219384576528761439437958621961432857
001000000050030826000079403600004201900100050000082007864095000102608790000003040,341826579759431826286579413673954281928167354415382967864795132132648795597213648
300090700000070156470805000610000540009200308280304000705000020900036007030900800,351692784892473156476815239613789542549261378287354691765148923928536417134927865
400089020820050093500076001040000809107000060680010570003402000000035906050800007,471389625826154793539276481345627819197548362682913574763492158218735946954861237
000097658001280390000006000604702005300000004790408210007009003800000140400520700,243197658561284397978356421684712935312965874795438216127849563859673142436521789
000510000078006452600074100080400706000780003290003040024050908001309500300000020,942518367178936452635274189583492716416785293297163845724651938861329574359847621
204050003050428000897010005000840000305006000010300609001000068008004930706009120,264957813153428796897613245679841352385296471412375689941732568528164937736589124
001092004600070000085000010010508006004300900527400080090003800078001625400700190,731892564649175238285634719913528476864317952527469381196253847378941625452786193
000300000190506070005841000200154000800090350049080600021000007730200408000930001,682379145194526873375841926263154789817692354549783612921468537736215498458937261
090400230603700001085010009260009700008007040100030825830040060000005107000802090,791456238623798451485213679264589713358127946179634825837941562942365187516872394
030002070008700000009604025000450900002900180100003706501000000007206043400009860,635192478248735619719684325876451932352967184194823756561348297987216543423579861
200003000961008402074100005030700560007000180890604200003056000080020047400090301,258943716961578432374162895132789564647235189895614273713456928589321647426897351
630001002409700000017204000005080709004500806090006301700000904051003200000890065,638951472429768513517234698165382749374519826892476351786125934951643287243897165
150000380000006004200890005709030000040200706083507000807004092095008610060000047,156472389938156274274893165729631458541289736683547921817364592495728613362915847
320008000000140900001075642050006230809020001000590004100457000043600090765000010,324968157576142983981375642457816239839724561612593874198457326243681795765239418
700000031000502408840009702300801004020000906500240000901400805008903610067050000,792684531613572498845319762376891254124735986589246173931467825458923617267158349
020100004090265000708003006000000360203740100080002005005309010100600089047508000,526187934394265871718493256479851362253746198681932745865329417132674589947518623
053108007600900000002600954470065018000009200100870040380020005005084000060000703,953148627647952831812637954479265318538419276126873549381726495795384162264591783
000800019001042560000067480920005004038700050700216000004500937000030001089000020,462853719871942563593167482926385174138794256745216398614528937257639841389471625
500600204182090700403001500000309001650002070000807690001070005040080060270005843,597638214182594736463721589728369451659142378314857692831476925945283167276915843
406000089008320500002000301700083004010600002000075090380900000050004076904517003,436751289198326547572498361729183654815649732643275198387962415251834976964517823
608500000040000002150370000000200964070080013034910500001098740060002081500000600,698521437743869152152374896815237964976485213234916578321698745469752381587143629
004280090027000000300407010009006201085004670030051800050000000096500024000070180,514283796927165438368497512479836251185924673632751849851342967796518324243679185
960180000350900070407002010000070905715000040000203080800305106006024053000608400,962187534351946278487532619238471965715869342649253781874395126196724853523618497
901600005053920004000800210009000008002003607640500100200097050008000403700410006,921674385853921764476835219319762548582143697647589132264397851198256473735418926
058000400009630710001004609320057000090002000506010003010270850400983020070000006,658791432249638715731524689324857961197362548586419273913276854465983127872145396
008901735720800006000400000001502040260090000300046820095000060400710980070030100,648921735729853416513467298981572643264398571357146829195284367436715982872639154
019000062500090070800643105090004831040000900200017000450260000730008000000300506,319785462564192378872643195697524831145836927283917654451269783736458219928371546
520700480000009017003064900000301690806905700700000020012400005080590030040087000,529713486468259317173864952254371698836925741791648523912436875687592134345187269
000670010001090000040200705005004280082010097607900003008300420926000058530006100,253678914761495832849231765395764281482513697617982543178359426926147358534826179
500800902900014800087002056096000300000420107000053060005100009600030004048070020,534867912962514873187392456296781345853426197471953268725148639619235784348679521
009020000020700483350800001060500178082000000701490060003060009008307045610004200,849123756126759483357846921964532178582671394731498562473265819298317645615984237
001050003080004057604000008030026090000030215400080700108900000020700640700063500,971852463283694157654371928537126894896437215412589736168945372325718649749263581
000100790002048501083700000700390006005004320090065810060923040400006002050000080,546132798972648531183759264728391456615874329394265817867923145431586972259417683
300514870000920600007008050608005390920003005004100700800060943460082000010000080,396514872185927634247638159678245391921873465534196728852761943469382517713459286
000073401508920300007001009742800003350007620090100000000000860603005704024060000,269573481518924376437681259742856913351497628896132547175349862683215794924768135
800030072030080905609500103408200000907650340001000600504007009000000700200401056,815936472732184965649572183468213597927658341351749628584367219196825734273491856
503021000780906040040008230008700064000000301001009020206850017400200600030060500,563421879782936145149578236328715964974682351651349728296853417415297683837164592
600090380010400705009032060020001500504800007370250000008304900900000820460070003,645197382213486795789532461826741539594863217371259648158324976937615824462978153
047000008080002103300690700706510040250000300008069000500000001004700200029304605,647135928985472163312698754796513842251847396438269517573926481864751239129384675
