008059001170208906000160030290005000013000070050380690040097500700802310000000004,638759241174238956529164837296475183813926475457381692341697528765842319982513764
500006001204000000006107450865023009090800006300004500030010708002908300700002915,573246891214589673986137452865723149497851236321694587639415728152978364748362915
000000093090615800082700600801000007007204050000050306003001040700340908060509200,176428593394615872582793614851936427637284159249157386923861745715342968468579231
001009070300200085070860100600005090090300014052000607400107009806400000900058023,281549376364271985579863142643715298798326514152984637425137869836492751917658423
000009050357400080068000002040067000009302167000510300800000016091705200400080530,214879653357426981968153472143967825589342167726518394835294716691735248472681539
057420000000570600020098001003000280005186070790000040400069502000004800906230400,657421398819573624324698751163947285245186973798352146471869532532714869986235417
050100400209030006000052007080097040092005000065803090670049085000200060004008103,357186429219734856846952317183697542792415638465823791671349285538271964924568173
070901400002500708490230160009015300200690070040708000603000200000000806800004051,576981423132546798498237165769415382281693574345728619613859247954172836827364951
000052003470609051090700480002300640000008070500090108104000000308560000760010320,681452793473689251295731486812375649936148572547296138154923867328567914769814325
030028001000000400700493005000014029020000600907056800506007380012060700003900050,634528971259671438781493265368714529125839647947256813596147382812365794473982156
016900030900503040080020050190070000030010508268004000000080073050437096002006400,516948732927563841483721659195872364734619528268354917649285173851437296372196485
600075910000608032400910060010000025960004000085036400700000000002001308000523091,628375914179648532453912867314897625967254183285136479731489256592761348846523791
000300649009257030008000002700800100200600080406075903010030200970080016300040750,527318649649257831138469572793824165251693487486175923815736294974582316362941758
206580700030060080000037405000950200150602000000100073085000901460000020020394008,246581739537469182918237465874953216153672894692148573385726941469815327721394658
500640800820000074009701002900503080040070210100060097005900601060420000300050000,517642839826395174439781562972513486643879215158264397285937641761428953394156728
400200080000000607075308009600001204100030000004705300020094705093002806006870090,469217583318549627275368419637981254152436978984725361821694735793152846546873192
049006000830009200000580070502004701000010692160098430200000003376800000000060140,749126358835479216621583974592634781483715692167298435214957863376841529958362147
040006201030000075008792060017540809005008300000900004000600730360420090502800000,749356281236184975158792463617543829495268317823971654984615732361427598572839146
950003006073004010600020007500000182089200030004071500400980070806040250030056000,958713426273694815641528397567439182189265734324871569415982673896347251732156948
060302790002000064050170300430000002600419003180205000000001007008700450090500680,861342795372958164954176328439687512625419873187235946546891237218763459793524681
003107096000059080780430000007801205050020030000005104461000809900042700200000603,523187496614259387789436512347891265156724938892365174461573829938642751275918643
008060000500040109120530040036000027000005000200009861010708003405200706800400902,348961275567842139129537648936184527781625394254379861612798453495213786873456912
038460000507009001610000030000080403002007500005342090079008050100050062400720800,938461275527839641614275938791586423342197586865342197279618354183954762456723819
030290670090050000004006103028907004000010360403085007007008059500060000140003780,831294675796351842254876193628937514975412368413685927367148259582769431149523786
040280007000501009216004000001906400008070000600000350900002031004830020802057600,549283167783561249216794583351926478428375916697418352975642831164839725832157694
030804702085003100406000900040000020007056001010082005002910074800000300059300060,931864752785293146426571983548139627297456831613782495362918574874625319159347268
000970004500038002010502000829600005007420900000003070070000530145000607062001089,283976154594138762716542893829617345637425918451893276978264531145389627362751489
960810004002006003153027000208904500510002307040700008000000002700160800030005706,967813254482596173153427689278934561519682347346751928695378412724169835831245796
060504900300007640052900700000208500000010094005000003018300007240070051037600200,761584932389127645452963718194238576623715894875496123918352467246879351537641289
802400001054020930073580600001000007900800250000306000049030020500007006206100084,892463571654721938173589642381952467967814253425376819749638125518247396236195784
590000000000000864080270300076054090008003041105900006009300405031005070200416000,593648127712539864684271359376154298928763541145982736869327415431895672257416983
000107063460200000039045180052006790008710005003000000010803270290050600000000040,825197463461238957739645182152386794648719325973524816514863279297451638386972541
008032069005004010000609057000000200300140700947000680012006038400253000060700900,178532469695874312234619857851967243326148795947325681712496538489253176563781924
801000054030000700090265008009042006600070100085001920016900002000300580000407003,861793254532184769794265318179542836623879145485631927316958472947326581258417693
001063090003100400260800035040700002300005860612000009007030651980040700000520008,851463297793152486264879135548796312379215864612384579427938651985641723136527948
590004060200708000400052007001000746700900103003040020029001800300206950080030000,597314268236798415418652397951823746742965183863147529629571834374286951185439672
000050030800370010000000429062000008305067000190005002500609080620001793034000100,216954837849372615753816429462193578385267941197485362571639284628541793934728156
003000210040050076067020900109504600000806005000000437400105008092008000008760300,953687214241953876867421953179534682324876195685219437436195728792348561518762349
800001000147600002006750004430080000005230800000007095900003610500910020003024007,852341769147698532396752184439185276765239841281467395924573618578916423613824957
200401900030080705170060080800030090500008021001290006403000250080604000700329000,258471963634982715179563482827136594596748321341295876463817259982654137715329648
002590000800001450000074090700200160006100035009050072020000380603900007100048600,462593718897621453531874296758239164246187935319456872924765381683912547175348629
009000304500203800620800010062470008001009450050000009000736000247100060010002500,189567324574213896623894715962475138731689452458321679895736241247158963316942587
420560008001007040056103000000000000164080900302600705000902300700350490090018057,427569138931827546856143279579231864164785923382694715645972381718356492293418657
914300000000615000000008072502006097040900060070030801008500000093040025106009008,914372586287615934365498172532186497841957263679234851428563719793841625156729348
200908604003020108019000700007003000402809050500160000050600200000004907081037046,275918634643725198819346725197453862462879351538162479754691283326584917981237546
000000295020080070040005103800010006063809007079000430005201060300706800710400050,638174295521983674947625183854317926263849517179562438485231769392756841716498352
000000503080000092032701040071503004006900000000402078019080065307006200040005130,764829513185634792932751846871563924426978351593412678219387465357146289648295137
003407009060010070804900500430620000700008900001050362092001003500070100000006284,153487629269315478874962531435629817726138945981754362692841753548273196317596284
700000908053014002600738050000302809098000000371040020932000006006097100000500004,714625938853914762629738451465372819298156347371849625932481576546297183187563294
000009080470086030000230507036020000500000706200400091008001002105970043069000800,653719284472586139891234567936127458514893726287465391348651972125978643769342815
058100007406050900000324600703280041190067000000000000080010000030072096019600308,358196427426758913971324685763289541195467832842531769687913254534872196219645378
020605090030740100009000057807060030100500020060001805043080079600092410080000200,728615394536749182419823657857264931194538726362971845243186579675392418981457263
047180300089000026300042000020600100700000083600034079500068040006090031908007500,247186395189753426365942718823679154794521683651834279512368947476295831938417562
700050030050107960800492007006700200009000805010920040032000004170080300008603501,791856432254137968863492157386745219429361875517928643632519784175284396948673521
094670000100004075020030008005060100302457000067902040000500901000080206080301000,594678312138294675726135498945863127312457869867912543273546981451789236689321754
730004502085000146200900003093510070000000200120806004050340800800070900009208001,736184592985723146214965783493512678568437219127896354651349827842671935379258461
140200000080700060205038400060902005001005007093104800900000008008003270054006130,146259783389741562275638491467982315821365947593174826932417658618593274754826139
000004002830090070017300060200005000600000093095681040703508004040700056009010028,956874132832196475417352869274935681681247593395681247723568914148729356569413728
050090006061302040070000538100700005300680090084000003035004180902000700740906000,453897216861352947279461538196743825327685491584129673635274189912538764748916352
500620700078000200603809400095007600001940003030205040000003007006782910004000005,549621738178534296623879451495317682261948573837265149912453867356782914784196325
000200000900400753506098401090083506105040300708006090020000010400050600003719008,341275869982461753576398421294183576165947382738526194827634915419852637653719248
500103800026790000000000070900602010000070540080950360073060100610204050409000003,547123896826795431391486275935642718162378549784951362273569184618234957459817623
009007005760802100003400080040360027075200460900080050000000800100540200490001073,289137645764852139513496782841365927375219468926784351652973814137548296498621573
050040080073050904200908060960480712100070000040206050080090003500000170030867200,659742381873651924214938567965483712128579436347216859782195643596324178431867295
000980050705602000002000619480100030057000028001075000630040800000067204000590001,163984752795612483842753619486129537957436128321875946639241875518367294274598361
709450100006090304000002080007308900030041078100600020920010037000030546050000000,789453162216897354345162789467328915532941678198675423924516837871239546653784291
000490008007300500090500103013700090005002870062010000500260000008007314479080006,356491728187326549294578163813745692945632871762819435531264987628957314479183256
000003160090427000075000004980070005001000040207600803600802300004500086032001059,428953167196427538375186924983274615561398742247615893659842371714539286832761459
009004072050003040007580060500021904070860000920000087000046001304250000208090003,839614572652973148147582369586721934473869215921435687795346821314258796268197453
109000027240009050070068000002040609300100008050890400085072000700600200000350704,169435827248719356573268941812547639394126578657893412485972163731684295926351784
700098000000004307250170000009080000010930862002001045074050600000043080906200030,741398256698524317253176498569482173417935862832761945374859621125643789986217534
560020070008609500020083041070406300600350007040000120100700003009040800250900000,563124978418679532927583641872416359691352487345897126184765293739241865256938714
008030201020060430000507090805000060090000300042100705053040016400056002070908040,768439251529861437314527698835274169197685324642193785953742816481356972276918543
209000080605491700730000046094182000000007004570900300002530001000000208000046530,249673185685491723731825946394182657126357894578964312962538471453719268817246539
009142003600009052017300000300000700050003840406280301000460200004020008801000009,589142673643879152217356984398614725152793846476285391935468217764921538821537469
004035900001042050060700000640900708893004020070000005000000600000198302380007014,724835961931642857568719243645921738893574126172386495217453689456198372389267514
060823007000500408070900060321006500509301040000000800900630250004009000008042703,465823917193567428872914365321486579589371642746295831917638254234759186658142793
002097010137500600600200004589020000001379006003840001000000249058000003070903150,842697315137584692695231874589126437421379586763845921316758249958412763274963158
760450020080000004030009010302005908670000030009028600000701200000080497540900006,761453829985217364234869715312675948678194532459328671896741253123586497547932186
200084100000702080508100490034090006800601007106078009020000300300000060409530708,263984175941752683578163492734295816892641537156378249627819354385427961419536728
075930000000085700914060050100020004006749081000006290053004062020100045080000903,875931426362485719914267358197528634236749581548316297753894162629173845481652973
384100050000050270007000003000618020900007564030590800206309001090000402743800000,384172956169453278527986143475618329918237564632594817256349781891765432743821695
802143600000000210406005009107608003609420570008090040000706000054000000901000082,892143657375869214416275839147658923639421578528397146283716495754982361961534782
160900000080450370457810200590000003000500460008032015070040180030000009902700004,163927548289456371457813296596174823321598467748632915675349182834261759912785634
900106028050000600007420030403005907001800000065300140300070005270008009040901003,934156728152783694687429531423615987791842356865397142319274865276538419548961273
030405060705068002800090037008010000350020086020900000004130790501000020290050408,932475861715368942846291537468513279359724186127986354684132795571849623293657418
070300601081002500040080290850400000002096000407210003090070040000003060603050019,275349681981762534346185297859437126132596478467218953598671342714923865623854719
000537000079000300420600050046180700002009601150040008000460002010003500700010980,681537429579824316423691857946182735832759641157346298395468172218973564764215983
000500008090071000052908700210300605008095010034006020400037906901040050076000001,647523198893471562152968734219384675768295413534716829425137986981642357376859241
090030026600200403000058700000097030019380000240001070038000095405000801060010000,897134526651279483324658719586497132719382654243561978138746295475923861962815347
007009000603000401090200080080000005450780006700410009900042150036000070500090028,847139562623578491195264387381926745459783216762415839978642153236851974514397628
201050803580903010006040009860200000039000704000030108002081570000402391700006000,291657843584923617376148259867214935139865724425739168942381576658472391713596482
180960700047001093000005082000597000096010000375002000000084360620030057401000009,182963745547821693963475182814597236296318574375642918759284361628139457431756829
070000600800024053400856010900300000036107004000080079010500000028030500004000781,275913648861724953493856217987342165536197824142685379619578432728431596354269781
002009600800050010040700008400300700506410802709080001005100903601040005390028007,152839674867254319943761528418392756536417892729685431285176943671943285394528167
002008001519000080003060540705609000000380170006002309421050037900700000050090208,642538791519247683873961542735619824294385176186472359421856937968723415357194268
009800000030050206020071009762080010001000564504003000043100890600900070008230001,459826137137459286826371459762584913381792564594613728243167895615948372978235641
080205003006047108000000920070080069300000000940120500010090670020508000005613400,189265743236947158457831926571384269362759814948126537813492675624578391795613482
572400009000007003400100500020501890800060002716900004098006030005003687000040000,572438169981657243463129578324571896859364712716982354298716435145293687637845921
000300800085200006102009040630010704700904002020030901010070065540608300000090070,496351827385247196172869543639512784751984632824736951918473265547628319263195478
