003910860406030020010000005900503000070000080162470000008009751697004008500002000,723915864456837129819246375984523617375691482162478593248369751697154238531782946
400001000200050089089002034371200600000036020050890000096500300504000007003704001,435981276267453189189672534371245698948136725652897413796518342514329867823764951
002900106950420708038050000000030061000270000080109204000500400490006005001008093,742983156956421738138657942279834561614275389385169274863592417497316825521748693
050400028300082190000001700790650000068000053002340080645000200100760834000100000,951476328374582196286931745793658412468217953512349687645893271129765834837124569
630002500054390107090000008980070003006043012400250000000420305001600740000087000,638712594254398167197564238982176453576843912413259876769421385821635749345987621
080040130400005800051006040042108000100507009000030000200780090078060320906402010,687249135429315867351876942742198653163527489895634271214783596578961324936452718
060010000407600089503009072086040030301000940000350201800000016045027000000800507,968712354427635189513489672286941735351276948794358261872593416645127893139864527
049000005050108700371020600508640302000809000403070000000050100600307400702014806,849763215256198743371425698598641372127839564463572981984256137615387429732914856
004502003000006051018700002200039040000050060063481705002074006730000980059000010,694512873327896451518743692275639148841257369963481725182974536736125984459368217
002451003000700020308092500407520000100067004600000805060038900093000401001006700,972451683546783129318692547487529316135867294629314875764138952893275461251946738
803420000000037090002000850020570081546008930100090200900150060004003010750600008,893425176615837492472961853329574681546218937187396245938152764264783519751649328
540600907080730020000050100690207004400090500370001800007068000000003090201000430,543612987189734625726859143695287314418396572372541869937468251854123796261975438
000658010005000020080300400500040000642005308001960007160080050407100209090070630,724658913315497826986321475579843162642715398831962547163289754457136289298574631
040705000600098057702300100038000041000009030125000090090050862004027000081060500,849715326613298457752346189938572641476189235125634798397451862564827913281963574
504080062001000059082010300007002403000109000090057010308040920060300708040520000,574983162631274859982615374157862493426139587893457216318746925265391748749528631
624009103700080050080200007009005760003100409007024008030460902000518000416000000,624759183791683254385241697249835761853176429167924538538467912972518346416392875
068005030074200109100000280356100840007806000080023900000400000092670300005009701,268915437574238169139764285356197842927846513481523976713452698892671354645389721
060000370500049006000050980000065802010370600000214000072000091150000230930180007,469821375583749126721653984347965812215378649698214753872536491156497238934182567
807006003091003205060405080004002076200040930180000000000700820000014009945200600,857126493491873265362495781534982176276541938189367542613759824728614359945238617
085096000000503000300080074400005008698230700002060900000701039037000105240000680,785496312124573896369182574473915268698234751512867943856721439937648125241359687
860000050050090100000020704000400060320000408901700520609050007087900300035180002,864371259752894136193625784578432961326519478941768523619253847287946315435187692
600710432000090060014002800000050003030609170706230900058000240970046050400008000,689715432327894561514362897891457623235689174746231985158973246972146358463528719
900000007006590000045000103060209480008070035000040700092150060030080500700306810,983412657176593248245768193567239481428671935319845726892157364631984572754326819
400309500650002000200806009000920701018500040704600300005100024306008050090070008,487319562659742813231856479563924781918537246724681395875163924346298157192475638
908204560004070103050060000000000800030029050507100420086000900400716080302008004,918234567624875193753961248249657831831429756567183429186342975495716382372598614
021080005000067042003900006065010004000002970780300000040500180007049020830001059,621483795598167342473925816965718234314652978782394561249536187157849623836271459
230004107471809500060000000000603900800025403006000012000000041002981070500700680,238564197471839526965217834124673958897125463356498712789356241642981375513742689
900071004530000000060204890001003020006809107702400000080930600000507230000006459,928371564534698712167254893841763925356829147792415386485932671619547238273186459
950000001020001490170098005030040208500000360002570000000480930006020070007006510,953264781628751493174398625731649258549812367862573149215487936396125874487936512
010007000093005027200030485005000390080049000072016508000090000400080031600100279,514827963893465127267931485145278396386549712972316548721693854459782631638154279
000007608006500403241008700095621000000000001308405000062000095009810040480000030,953147628876592413241368759795621384624983571318475962162734895539816247487259136
650000300100030009204710000003106908007820561000050020305004806480000700092060050,659482317178635249234719685523146978947823561861957423315274896486591732792368154
035000002000090807902815006100004000600203905000750408094078030003000000001406520,835647192416392857972815346158964273647283915329751468294578631563129784781436529
080001400605908701209060003004803050570000030030720640100040802097000005300006000,783251496645938721219467583964813257572694138831725649156349872497182365328576914
610000590007006030020000008740230060800007100005010409003801002469050080002300700,618423597957186234324975618741239865896547123235618479573861942469752381182394756
401703080800010500007004900100380206005900300780062004050006029004005001200000730,491753682832619547567824913149387256625941378783562194358176429974235861216498735
430002006501870000600400791000050400204008079070903052083000600100000005900060027,437192586591876243628435791319257468254618379876943152783529614162784935945361827
500801030060000098700049010006030000140650002300704009027080045930420001008007600,594861237261375498783249516876932154149658372352714869627183945935426781418597623
080000120000060090074003500053010700700009040200800306320980000609027010010450002,986745123532168497174293568453612789768539241291874356325981674649327815817456932
004500901907408000603700200501002003078031002000650000000070080049000100820090630,284563971917428356653719248561842793478931562392657814136275489749386125825194637
020000309341500600006807000000000106073402000095360027017004000802090001400056082,728641359341529678956837214284975136673412895195368427517284963862793541439156782
002000100058900607307154000000362005690000800000400001201600970080010030506830002,942786153158923647367154289814362795693571824725498361231645978489217536576839412
000090004000001060009273080007069102040582700036000059008000010150048073674000200,715896324823451967469273581587369142941582736236714859398627415152948673674135298
030007000092040010000002705000100079600090008100085032580400090014300060006820403,835617924792548316461932785328164579657293148149785632583476291214359867976821453
260004005007500360009810070080007032000109000641000800170000480800020609506030001,268374915417592368359816274985647132723189546641253897172965483834721659596438721
000060450409017306032900000006300840100500000080020701504000907700006003210080500,871263459459817326632945178926371845147598632385624791564132987798456213213789564
100008304092107000080052100025700040040060005703900800509020010034000070060004580,157698324492137658386452197625783941948261735713945862579826413834519276261374589
800003600207000950090060148003250000700031400009007062500020000000005010610084009,841593627267418953395762148483256791726931485159847362574129836938675214612384579
016904000025000079000010000000060004030702860041030027003020090970800036802007010,316974582425683179798215643287169354539742861641538927153426798974851236862397415
210006094690280050500000700069450000080000000002007410000090300071630580005841002,213576894697284153548319726169458237784123965352967418826795341471632589935841672
000605180820100007000040000000910500060200079700003840017350400005800902003096010,379625184824139657156748293438917526561284379792563841917352468645871932283496715
428300060000005700900000002030400510006007004100590003009043207780200000050010386,428371965361925748975684132837462519596137824142598673619843257783256491254719386
200700006970008041000930870060040709021300050500080200800250094604000005100003680,285714936973628541416935872368542719721369458549187263837256194694871325152493687
501020080080100370927400005896005000003070206000000094000804600102030900700600010,531726489684159372927483165896245731413978256275361894359814627162537948748692513
000853001007000405208004069006089000025310000300700090010060530740020000069400708,694853271137692485258174369476289153925316847381745692812967534743528916569431728
300087040008950000076021090400309650000074300105000070900140007800006102002000069,391687245248953716576421893427319658689574321135268974963142587854796132712835469
008043000371000020000008501025010007600400093009800240700530408010200900060001070,258143769371695824946728531425319687687452193139867245792536418813274956564981372
809073000076010090034600020090062500013400009000005817405098600000700050000001403,859273146276814395134659728798162534513487269642935817425398671381746952967521483
000584000700009046003000100450006090007400208002030005530060021209000507108090600,916584372725319846843672159451826793397451268682937415534768921269143587178295634
926080000084000703030509020000006801070004239000728450091402065700010000060003040,926387514584261793137549628452936871678154239319728456891472365743615982265893147
073009050800003410006080007030600085290100760084500900050007023007820000900046000,173469852829753416546281397731694285295138764684572931458917623367825149912346578
206000791073008000000009006102007309000420500030600047009080104805000670300015080,286534791973168425451279836142857369697423518538691247729386154815942673364715982
050072600000430810000680209030206040900100360710800000001000070580300900042000005,158972634269435817473681259835296741924157368716843592691528473587314926342769185
017000020805009307009150006300504060460300700000902100000031900070280600080000054,617843529845629317239157486391574862462318795758962143526431978974285631183796254
402000053973200100000080000100406390006120004207095008000617400031000000500009720,482761953973254186615983247158476392396128574247395618829617435731542869564839721
030080700920600050401900608000702001807040300050060040065007290149000000002005030,536284719928671453471953628694732581817549362253168947365817294149326875782495136
006548100082061000000070009408602300700300050003090416100700060090000530025000804,976548123382961745541273689418652397769314258253897416134785962897426531625139874
500420000020000030407006980080050029900380005604007810105002000030800647740900000,593428176826179534417536982381654729972381465654297813165742398239815647748963251
004903120090070004150860390000430900000005038007102400010540000600700051800006200,784953126396271584152864397568437912421695738937182465219548673643729851875316249
900860000001502040070100635020048060830205007054900001010300250682007009000000700,945863172361572948278194635129748563836215497754936821417389256682457319593621784
000802090100045000057000600086500703001008409300090260803400001400700500069230007,634872195198645372257913684986524713721368459345197268873456921412789536569231847
206000300500702060009860100020004007400135000081000500003028000070091236600040900,216459378538712469749863125325984617467135892981276543193628754874591236652347981
570000040001705003803921000080090070000064308205003409406080950710000600000400230,579638142621745893843921765384192576197564328265873419436287951712359684958416237
500603009060870025003000010470090002021506000809000640040061057005720980030005004,582613479164879325793452816476198532321546798859237641948361257615724983237985164
800030020600700300401560007512090000000640210000008700080200679703010040095000800,857934126629781354431562987512397468978645213346128795184253679763819542295476831
000600058104208060063050209000804002700009040010005390900003107002100000300070085,297631458154298763863457219639814572725369841418725396986543127572186934341972685
050490060370000000090360107005008020209700004003100659001002500800070003000600948,158497362376281495492365187645938721219756834783124659931842576864579213527613948
904300500170602094000000012500000280006034007003780000400506709060001400002090008,924318576178652394635947812547169283816234957293785641481526739369871425752493168
050030187001040600020790030005008400107520090000100002040000860309006075806003001,954632187731845629628791534295378416167524398483169752542917863319486275876253941
005200060070043005201780000086034900000500347050020001900006000028000130014000809,345291768879643215261785493786134952192568347453927681937816524528479136614352879
307600004420000090000400187800003010009085003600120070140050000036090020700040865,387619254421578396965432187874963512219785643653124978148256739536897421792341865
400390810500020009003054700001903007802100640005600000034508900708000021000060080,427396815586721439913854762641983257892175643375642198234518976768439521159267384
070053042000106059000000700203700481100800360005000000320090000514030900069208010,876953142432176859951482736293765481147829365685314297328591674514637928769248513
000307040096085100007000602380900020005001000600000807003704058054030090100002400,812367945496285173537149682381976524745821369629453817963714258254638791178592436
500109300200046007004302580000090050840000673607000200060803900100700002083005001,576189324238546197914372586321697458849251673657438219762813945195764832483925761
007406002350009000096005001001000408070012060500340200010750000028090503000803079,187436952352179684496285731231567498874912365569348217913754826728691543645823179
620048003000500000079300100014950302000081500960000400050000709708630040002100060,621748953483519627579362184814956372237481596965273418156824739798635241342197865
050001042006290000080064050605007000020039001008540306017020803049010200300000007,953871642476295138281364759635187924724639581198542376517426893849713265362958417
094600305000421000070090020020080060006900100357040002600837001005000689010000040,294678315563421978178395426921783564486952137357146892649837251735214689812569743
700120003050000000089406100100530900402070600000001070010205008073980260000300450,746128593251793846389456127167532984432879615895641372914265738573984261628317459
091008007000063010006000005230017900805000000070254000108020030047601020500089640,391548267752963814486172395234817956815396472679254183168425739947631528523789641
580000030300105284042000900000004096720510000034760000600400350000800001001970020,589642137367195284142387965815234796726519843934768512678421359293856471451973628
050400000031200096600701000027350001008002050060108079490000085016034000802009060,259463718731285496684791532927356841148972653365148279493627185516834927872519364
007050010206008009409000706000310005000509020130027000001802490602140007000005060,387956214216478539459231786928314675764589321135627948571862493692143857843795162
015080703970000418200000069009712600082043000700000040104008090000200050006005007,615984723973526418248137569439712685582643971761859342154378296397261854826495137
000037215600908003705020060002005400987001020004000097003409108090000670050800004,849637215621958743735124869362795481987341526514286397273469158498513672156872934
600520300970008201005410006002000000000140008530986704800060903040000075160703000,618529347974638251325417896482375169796142538531986724857264913243891675169753482
304001900926004005000000700200000534190005008000836000402090301000108057007400260,374581926926374815581962743268719534193245678745836192452697381639128457817453269
000700400400509017009630850640100300807250006390000280060071090038000160000040003,586712439423589617179634852642198375817253946395467281264371598738925164951846723
070460300230008009609200400002007053000651000080000090000003907900102604047080015,875469321234718569619235478462897153793651842581324796126543987958172634347986215
