004108057003020001090050400900004002000080005316072800050630000062000190809007004,624198357573426981198753426985364712247981635316572849451639278762845193839217564
070200340000100050294800700000070800483006001002050960000692100068000000501004003,175269348836147259294835716659471832483926571712358964347692185968513427521784693
000034060010075380800201050000150009650900048000063270907000004041002700205000003,572834961419675382836291457724158639653927148198463275987316524341582796265749813
050703100000000495009600207600280300007035000301907804008040001090800006074010900,452793168736128495819654237645281379987435612321967854568349721193872546274516983
400001000897640000000300500500800061201000009000034702050079800189000040026000030,435921678897645123612387594573892461241756389968134752354279816189563247726418935
004200067100040850085070390020614500050009710603008200002500000090060000070031908,934285167167943852285176394729614583458329716613758249842597631391862475576431928
000030760008094005013008204804005000090070000720100086002400010006082507450603009,249531768678294135513768294864325971391876452725149386982457613136982547457613829
300156000207003090600009010070081503056090074804000000090070080508210007020000406,389156742217843695645729318972481563156392874834567129493675281568214937721938456
800031620130090000006002080070060050500000307309800401007400900604957002080020004,845731629132698745796542183471369258568214397329875461257483916614957832983126574
020436000800010406300590007003700108910080050706003000009045600000002380470000529,127436895895217436364598217543729168912684753786153942239845671651972384478361529
000010040039048020021000908008000705010060030762000001040900800000732090053104000,875219346639548127421673958398421765514867239762395481247956813186732594953184672
600210400040603002000850910000060700007001090105000800408930050090070203072500080,659217438841693572723854916984365721267481395135729864418932657596178243372546189
800030095640080700300002100000100000703900201001350674007645000180009306020000940,812736495649581723375492168468127539753964281291358674937645812184279356526813947
830005009000000030100024500070000002600140300500209014060090871002630005058070060,836715429245986137197324586471853692629147358583269714364592871712638945958471263
600700509008010000300920107004530900100060040060097802700003200019002450032800060,621784539978315624345926187284531976197268345563497812756143298819672453432859761
080020306940000001002740080500008020600300904407010000009200760003900052000875090,785129346946583271312746589531498627628357914497612835159234768873961452264875193
006085791500006002039470000603000010002010340000009508247001060000800009081703000,426385791578196432139472685653248917892517346714639528247951863365824179981763254
040700063009315000000090020090000180000004002030869000408600000063207005215003007,541728963629315478387496521794532186856174392132869754478651239963247815215983647
008000902007043080103020400040070108200005000016900300074030010030001650590402070,468157932927643581153829467345276198289315746716984325674538219832791654591462873
400860050079003000010070240190080020208500360000014700002049105030600070004000098,423861957579423816816975243197386524248597361365214789682749135931658472754132698
029008150300600407600105900700480000003756200001002608800000000056090720097000013,429378156315629487678145932762481395983756241541932678834217569156893724297564813
000005924900800700410000500206080053040703010050420000160030207503004006008109000,687315924935842761412697538276981453849753612351426879164538297593274186728169345
023040016600502400000100070850000000070901620000430790200008000936050087501390004,723849516618572439495163872859726341374981625162435798247618953936254187581397264
007090206300500140900420080014003000002650003090100075006700004080240000051800760,147398256328567149965421387514973628872654913693182475236715894789246531451839762
000700000104006007030251090706000504000309800081004029508010000640080200009035070,965743182124896357837251496796128534452379861381564729578612943643987215219435678
008920003004081702560003100805090004000100000030000251700000600026350000001207809,178926543394581762562743198815692374247135986639874251783419625926358417451267839
401020005670040003500070980700005200040710060009006010000200840080900000305084096,491328675678549123532671984716495238843712569259836417967253841184967352325184796
700809050512000840004000306078003000200060004430097102805010067020000000090670500,763849251512736849984251376178423695259168734436597182845312967627985413391674528
690280700000060109302700850006005038000940000001000060003010090870300002050672004,695281743487563129312794856746125938538946271921837465263418597874359612159672384
076493000003000004000107500080200190905040032000006050001082300004000087720050009,576493821213568974849127563487235196965841732132976458691782345354619287728354619
030206091000000807802905040305002016200001000000740900070400100460300008908600005,734286591659134827812975643345892716297561384186743952573428169461359278928617435
000200106050080007003970040087006409204000001060028030046109502370000000920054080,798243156452681397613975248587316429234597861169428735846139572375862914921754683
030460210210700043008000500063054089000800001047030000000010062005300078720609300,539468217216795843478123596163254789952876431847931625384517962695342178721689354
008376400200004500000010079004100600960702100003000080030040960050007008017908204,598376421271894536346215879784153692965782143123469785832541967459627318617938254
900000005031007806000106320205030409100200000007648100603000008540803900000470200,926384715431527896758196324265731489184259637397648152673912548542863971819475263
000000400014506080369020100021060300000300758050809020980030204002901000037080006,578193462214576983369428175821765349496312758753849621985637214642951837137284596
090000060008213005007008004040709120630420000100050090024065008300970600700000340,293547861468213975517698234845739126639421587172856493924365718381974652756182349
020001940006300570047620000104065007600083090050700000000000203080154060091000008,328571946916348572547629381134965827672483195859712634465897213283154769791236458
040098306050300001206014007095003000000007910803001025009060408007000500302080070,741298356958376241236514897195623784624857913873941625519762438487139562362485179
050000200020800037900301860007094000008032090006705002400060900080010054105047300,853476219621859437974321865217694583548132796396785142432568971789213654165947328
060008009003964010820700030300026005500401900000500007200650300005000400671000028,164238759753964812829715634397826145582471963416593287248657391935182476671349528
005890006320000000800104307047000802000060590500302060780609400003710008001000603,175893246324576189896124357647951832238467591519382764782639415463715928951248673
900170008000003061430002000008650127050080030000004009017208050024006070090500600,962175348785493261431862795348659127259781436176324589617238954524916873893547612
452070600600090030001500280087000060340000009005601700504009000700003128000267000,452378691678192435931546287187934562346725819295681743524819376769453128813267954
000000100000642050768001009080090200107204095400000387010508000902007003003006004,245879136391642758768351429586793241137284695429165387614538972952417863873926514
000060207702083000400090530380059010907400000056000400003000000108230040049007006,835164297792583164461792538384659712917428653256371489623945871178236945549817326
400730920003009004800600710000000000950000108002403560560304009008021006300570040,416738925273159684895642713637815492954267138182493567561384279748921356329576841
007002640001030905042000000000840090610000000900517003430001706020005080750309002,397152648861734925542698137273846591615923874984517263439281756126475389758369412
004050360380600040005080102500019007008005020070800906603070010000402009407000500,214957368389621745765384192546219837938765421172843956693578214851432679427196583
000500290700400000063900008906030750080020061005190403000008000400057000820040016,148563297792481635563972148916834752384725961275196483659218374431657829827349516
400800065009031007100700009741005600003002000500096003894500071005200040600000038,437829165259631487186754329741385692963172854528496713894563271375218946612947538
300090010041608200007500003003020900675300100420801000000002540080460070950070680,368297415541638297297514863813726954675349128429851736736982541182465379954173682
600208093904000260080100050007020000200560940009803000700054080000007025043080601,675248193914735268382196754157429836238561947469873512721654389896317425543982671
008790040905013600270040000009200000750001030601030485080060024000475001006300900,168792543945813672273546198839254716754681239621937485587169324392475861416328957
865700001000090004000120070000300002002059700038060190400906000510000080987004036,865743921271698354394125678659371842142859763738462195423986517516237489987514236
007084000004106730060502804000900020920030070106028003700800109000041002803000500,597384216284196735361572894435917628928635471176428953742853169659741382813269547
530720006001040230760800005000630100008004020400900500070009000300260801800010649,534721986981546237762893415257638194698154723413972568176489352349265871825317649
904360080010004200500092706057000038690750000000840600000020010870901000042070300,924367581716584293583192746457216938698753124231849675369425817875931462142678359
000001005304800000590003620000270003085309072700406000047020506000900000208060017,872691345364852791591743628419275863685319472723486159947128536156937284238564917
000200300706001004812040905008300070000950000190407080000000056421030700057020103,945286317736591824812743965568312479274958631193467582389174256421635798657829143
900007063030006900041005200100004000280030076400280005000900032065040090890060100,928417563537826941641395287153674829289531476476289315714958632365142798892763154
342170006050208009007030400410620050586000032070010000100900040000000968038000705,342179586651248379897536421419623857586794132273815694165987243724351968938462715
030201050695700001400600070020908000500000014063010008701002406080094530009500000,837241659695783241412659873124978365578326914963415728751832496286194537349567182
003026005280930010007500040009001006406080350000047028000000130018470000500002009,143726895285934617697518243829351476476289351351647928762895134918473562534162789
000032610005104008038060000200940073040000500906008002310700009000021007400690250,794832615625174938138569724251946873843217596976358142312785469569421387487693251
403050200000064300270800906301400008059001007040900003900020564002007000580100000,463759281198264375275813946321475698859631427746982153917328564632547819584196732
003180049169004080005003027080076500200000760090050000070530916000201800000640053,723185649169724385845963127381476592254319768697852431472538916536291874918647253
071005230980000507000000006000400090500270103402160000096021070007080000203040801,671895234984632517325714986718453692569278143432169758896321475147586329253947861
810650090500208300069040000020087600600000019400902750703500000004300580200010003,812653497547298361369741825925187634678435219431962758783529146194376582256814973
003000104500076900089401063071240000000000045002690800048160072600508030020000009,763982154514376928289451763871245396936817245452693817348169572697528431125734689
950001006370020000200306008100080490090100007040035080001709020000014300700200604,958471236376528941214396758125687493893142567647935182431769825562814379789253614
708001090400605000030000726050030600601002830087904510090800040004090301210007000,768321495429675183135489726952138674641752839387964512596813247874296351213547968
070500901100063805000000040004080600308190024250700000006009000920030510841007003,473528961192463875685971342714382659368195724259746138536219487927834516841657293
000020840801035090070090060029046087010070300400300050005060000008709200600180400,953627841861435792274891563329546187516978324487312659735264918148759236692183475
000970150001600904032000800800020000750308000006540703094750010600004070380000506,468973152571682934932415867843127695759368421126549783294756318615834279387291546
003004008409037050020600100700000520300982000640300800000840076010060200070059040,163524798489137652527698134798416523351982467642375819235841976914763285876259341
030052008008100700401800030020403096900070051000060400690085200170000904300040070,739652148258134769461897532527413896946278351813569427694785213175326984382941675
078040003090050210004309600000000100900630050016580400320005070000908002407210060,278146593693857214154329687835794126942631758716582439329465871561978342487213965
005000000306750019820014700100003000008490001070006024930028057400501600600000030,715869243346752819829314765194273586268495371573186924931628457487531692652947138
007402100625100003000008000200830709900005064050040200006500080090603001140780500,837462195625197843419358627264831759981275364753946218376514982598623471142789536
300600040000002807200514060800000050070030201059007600460050029010480005030109000,391678542546392817287514963823961754674835291159247638468753129912486375735129486
000403051060708920901006000600950078820000000050000130032060005004200709000804013,278493651365718924941526387613952478827341596459687132732169845184235769596874213
000060407020103850400700030006090700035008020049210600050027000390000201800400060,513862497927143856468759132286394715135678924749215683651927348394586271872431569
000008056610309702007410000003605009420000300086700010030800200090004003800100470,349278156618359742257416938173645829425981367986732514534867291791524683862193475
000695030307000005000040182402000019908060000060019040809270400056080007020103800,281695734347821965695347182472538619918462573563719248839276451156984327724153896
007000039060070850018403002079020065504700000800000490000260701000508000092100003,457682139263971854918453672179824365534796218826315497385269741741538926692147583
820300054000006070694000002030109067400700039050002800170083000006010020900060105,827391654315426978694875312238149567461758239759632841172583496586914723943267185
102070093040001006008500270016304000300800050005069008030080005697030040004920010,152678493743291586968543271816354729379812654425769138231487965697135842584926317
300502000674300005009001308095010270768000000100050040000008500200103680006400709,381562497674389125529741368495816273768234951132957846943678512257193684816425739
009507080083060405000008002060020130001050209970004006400082010056000900038910007,629547381783261495514398762865729134341856279972134856497682513156473928238915647
274590001000008000009076040080000000510600902007019506040001605002740300300800410,274593861631428759859176243986257134513684972427319586748931625162745398395862417
201308000090100063800094500910200087004000000030017405006053040508670200070002001,251368974497125863863794512915246387784539126632817495126953748548671239379482651
060230800105060009000008004004006070320410900700050020000370540508040000907500001,469235817185764239273198654854926173326417985791853426612379548538641792947582361
050903086080027000004000092000560107020078059006100030700000040900601008142080300,257913486689427513314856792893564127421378659576192834768235941935641278142789365
050903010000470000604050037043800700900012300702000009065009200200034058100000960,857963412321478596694251837543896721986712345712345689465189273279634158138527964
083047060002980000000063970009400130160000500040000089590300006700100824010608005,983547261672981453451263978829456137167839542345712689598324716736195824214678395
030020071500700040002090000000908027609500080100040560086007300007030650340810090,834625971591783246762194835453968127629571483178342569986257314217439658345816792
700060520039010004640020307008300042000900651502670900057008100090047008003000000,781463529239715864645829317968351742374982651512674983457238196196547238823196475
040090080000620000130008020502700000800160005004000739007005301080000904061430050,246391587758624193139578426592743618873169245614852739427985361385216974961437852
900053046025000008000670001004728900310090070800100604000009350050304002280010000,971853246625941738438672591564728913312496875897135624146289357759364182283517469
