007210900050408000100007036705000004261000058098000610000030070003006082000594001,687213945359468127124957836735681294261349758498725613516832479943176582872594361
874000006100300002000050090020009804500430020701080500008620401000095003012800060,874912356195368742236754198623579814589431627741286539958623471467195283312847965
800305690500080400072006000081067003005042008000090002026900504000070039130000870,814325697563789421972416385281567943395142768647893152726938514458671239139254876
305900007106008000090700860040000703700003124020000980000850010004007005209061300,385916247176248539492735861941682753768593124523174986637859412814327695259461378
003700860010560700200003004007018500060904000001000039050400082608097310100050090,593742861814569723276183954927318546365924178481675239759431682648297315132856497
000100005030620700052000830000730006108540900400908510580300290014009007306070000,749183625831625749652497831925731486168542973473968512587316294214859367396274158
200901060060003014501000930070130450005706001308090006800402007040005020007060008,234981765769253814581647932672138459495726381318594276853412697946875123127369548
090230000010000000342005108200000759500840010961007804070400000008306002000708695,896231547715684923342975168284163759537849216961527834679452381158396472423718695
008000004670250008010000630400629700809040201060030050000700000596080100002164000,328916574674253918915478632451629783839547261267831459143795826596382147782164395
180400009000050300376000510730010050024009800009308072000026040001840700807095600,185437269492651387376982514738214956624579831519368472953726148261843795847195623
000000600501307040309106500600405370002000008470002000000080930013670280054090001,247958613561327849389146527698415372132769458475832196726581934913674285854293761
005026040071003208080007509690000010004000380007351006002040900710000000300975600,935826147471593268286417539693284715154769382827351496562148973719632854348975621
090008050000203180600709400708600203210000846000010005045300790060400321000070000,392148657574263189681759432758694213219537846436812975145326798967485321823971564
580003200000400153040190700005926470096000308107000005762000000000608030000041900,581763249679482153243195786835926471496517328127834695762359814914678532358241967
003091700506070900010402080009000870750003001024006503670120000400850209800004000,283591746546378912917462385369215874758943621124786593675129438431857269892634157
082007009600400073400590006000008210270050600530001090790010580000040007063200040,382167459659482173417593826946738215271954638538621794794316582125849367863275941
100206300032418000078003000000027096004000007000900251703102900980005600500800704,159276348632418579478593162815327496294651837367984251743162985981745623526839714
008340000001009032006071009700090016904002500020083070800405000107020065042600100,298346751471859632356271849783594216914762583625183974869415327137928465542637198
420306007750800090903150800004012000800970004206005700000068400000200306009000520,428396157751824693963157842374612985815973264296485731132568479587249316649731528
008030006340000090007201008005800020030060140090000053510004002009010370704096500,258439716341678295967251438175843629832965147496127853513784962689512374724396581
700940021036000000000850090003009407610004080002000036040530100005701008890000005,758943621936217854124856793583629417619374582472185936247538169365791248891462375
070098002156300900020004073001406000093017005200000000400280750010500600800000049,374198562156372984928654173581426397693817425247935816469283751712549638835761249
160400002020608035000907080004700003700003009006091200009170004003050026502004100,168435972927618435345927681294786513751243869836591247689172354413859726572364198
004002009000050700067003014050900007006080100032065090120078000300001805008000320,584712639913456782267893514851934267496287153732165498125378946349621875678549321
951000703034000900080403000007900006009105080105082300206000090010700205000048107,951826743634517928782493651827934516369175482145682379276351894418769235593248167
008040000402050309000003800054700968090080070200100005005820103061390750900007000,638941527472658319519273846154732968396485271287169435745826193861394752923517684
700000000008209010902078305300057900054060208000400600000301706080600004001020089,713546892568239417942178365326857941154963278879412653495381726287695134631724589
040000876000080300031500009000230008306740010205609000900004062050001000408956007,542193876769482351831567429174235698396748215285619743913874562657321984428956137
070903000068470300001568004950020070700000203002006008020081007030009460005040090,274913685568472319391568724953824176786195243142736958429681537837259461615347892
060950080301802005007060004020018470050600008006000090200105600040073019079080003,462957381391842765587361924923518476754629138816734592238195647645273819179486253
501004308307010200200070056006100003900050780000490000020009064003560000000208901,561924378387615249249873156756182493914356782832497615128739564493561827675248931
050000100400628000000040098060002374930050000000170060010380920079004036002007005,856739142491628753723541698165892374937456281248173569614385927579214836382967415
040800701016000090083070420000138000000006048300090500024005980501004060079023000,245869731716342895983571426452138679197256348368497512624715983531984267879623154
089030201000008604407200009025003006000010090003750800071000030968004105200081000,689437251352198674417265389825943716746812593193756842571629438968374125234581967
200010064800096705350000010060408500000030421003007600704000200980305000010040097,297513864841296735356784912169428573578639421423157689734961258982375146615842397
002600709078000040403090501000081060007302008500000400020008093300050000046970010,152634789978125346463897521234581967697342158581769432725418693319256874846973215
409000001280030907300080000000009040105000089000275600810500360003400002670120500,469752831281634957357981426736819245125346789948275613812597364593468172674123598
080067390020400061007053002200004800730900024000610000800079600591300070003000500,184267395325498761967153482219734856736985124458612937842579613591346278673821549
006001970320800004074500026800009010000240000690007305050302709000050400901060080,586421973329876154174593826845639217713245698692187345458312769267958431931764582
460027000081604000000090030000580700006070120940001005513002097200006800070030041,469327518381654972725198436132589764856473129947261385513842697294716853678935241
060001084087009030140060520629508000000100078018240000000000650354000007200900301,962351784587429136143867529629578413435196278718243965891734652354612897276985341
402000170000200083070000005100009000200603504560124008008306400050000096091008307,432865179915247683876931245143589762289673514567124938728396451354712896691458327
900760100080050003650300970703001290029400850000000004002004000000873600006920708,934762185287159463651348972743581296129436857568297314872614539495873621316925748
000010052030020690608000470900470003045002000010030860203090000007005080800067109,479816352531724698628953471986471523345682917712539864263198745197345286854267139
603510000080006014200034008300920700490083100006400030072000000000060902901070050,643518297785296314219734568358921746497683125126457839572349681834165972961872453
000809160020005000007046803103064090000030500500720014200000405089100007060000930,354879162628315749917246853173564298842931576596728314231697485489153627765482931
040810200098005007610297050059000340830100076000920000300700804000500061061000003,547816239298345617613297458159678342832154976476923185325761894984532761761489523
070009402009000803413050006105340600906002070000005080007600000000094205340081000,678139452259476813413258796185347629936812574724965381597623148861794235342581967
005030806809150207002000030080500614040071300020060908100009700063000000700420005,415237896839156247672948531387592614946871352521364978154689723263715489798423165
040002068015003400200900070000070032706001500084500900090600000608015003031009040,947152368815763429263948175159874632726391584384526917492637851678415293531289746
000507300078260095090000602402680000300004901000015000006000080037001040240830059,624597318178263495593148672412689537385724961769315824956472183837951246241836759
308510000617009005090630002001000706050300008000264000045800031903050040080700600,328517964617429385594638172431985726256371498879264513745896231963152847182743659
006090000000400150810307902003075609201000000065083047049030006700064020000008500,526891473397426158814357962483275619271649835965183247149532786758964321632718594
001807003500006420004120008700900080003001009060403150040508032009000706207019000,621847593578396421394125678715962384483751269962483157146578932859234716237619845
200050000006000201000300085609500100040091008507400026025830700100040360403709000,234158697856974231791362485689527143342691578517483926925836714178245369463719852
508079000000100000073200945600050103000806402410003080007001000001480020360500007,548379261296145738173268945682954173739816452415723689827631594951487326364592817
902060180000010305036708020000970500803005010400100090007092030000040602060530004,952364187784219365136758429621973548893425716475186293547692831319847652268531974
908300400003069050652000070010075098200800006000920500030080940000013007506400020,978352461143769852652148379314675298295834716867921534731286945429513687586497123
079100200020084100043700065010208500200009007005610000000036041030407920087000600,879165234526384179143792865314278596268549317795613482952836741631457928487921653
097305600608000001210089407320097010060040250000006049070000060002800000150023900,497315628638472591215689437324597816769148253581236749873954162942861375156723984
800000015600000720370009000000002564010704000090050080045001003007093200003265001,829647315654138729371529846738912564516784932492356187245871693167493258983265471
075609000040020030001080670600092000002800150957400800100004520060030000009106400,375649218846721935291385674618592347432867159957413862183974526564238791729156483
300250807065001000040800001084007109009030020002109005008564700070000206100300900,391256847865741392247893561584627139719435628632189475928564713473918256156372984
900650080000004309000180020109020050005860704607030010004002036020700140850000002,972653481518274369463189527189427653235861794647935218794512836326798145851346972
600000589000032000109050400064203010000704850830000006001005304740000020086000700,623147589458932671179658432564283917912764853837519246291875364745396128386421795
004120700569000000007030849006005910920600300800700050150800000000010004008207630,384129765569478123217536849746385912925641378831792456153864297672913584498257631
001600000020010465040235890100070900905000023260008050603100008009020007050043600,591684372328917465746235891134572986985461723267398154673159248419826537852743619
700080006049006700500901200001890040930007020060003500008060091002400350017300000,723584916149236785586971234271895643935647128864123579358762491692418357417359862
040970210703026000890001005970005004000800006200030800400083750060410000001002409,645978213713526948892341675978265134134897526256134897429683751567419382381752469
008046207000007095150080063003210000470000102010095040040050000700000986060309020,398546217624137895157982463583214679479863152216795348942658731735421986861379524
060050140009013008000007600507400039300700061200080050708926000002108400630000000,863259147479613528125847693517462839384795261296381754748926315952138476631574982
260970000003021000980000150006090005790018004540002907020600400000003080010247063,261975348453821796987436152136794825792518634548362917325689471674153289819247563
857100260240900000900006057008001705060350140000420080000000093602040800301860020,857134269246975318913286457428691735769358142135427986584712693692543871371869524
200407000904010302100690000400500800020008970060320051089060510000084009603000007,256437198974815362138692745491576823325148976867329451789263514512784639643951287
703000060500062800890001203009050014160700080050030020070000609004080530000904000,723895461541362897896471253389256714162749385457138926278513649914687532635924178
097306004500820069003000020000791002008003010060000407850049070002000106046072500,297316854514827369683954721435791682728463915169285437851649273972538146346172598
003970002890600507051400600500210060020008970008347010200050001079003000000800004,643975182892631547751482639537219468124568973968347215286754391479123856315896724
070080490000509003820600007302040081100090064900206000784001002000300508605000700,573182496416579823829634157362745981157893264948216375784951632291367548635428719
802560010060000780003004009018090630340700000900010000200306070000005420407809150,892567314564931782173284569718492635346758291925613847251346978689175423437829156
082000140000900005073040002000060700010208056600705093054106907390004000020007580,582673149461982375973541862235469718719238456648715293854126937397854621126397584
004612000010930804067800090701090306900500080400000021080005003000206540002070008,894612735215937864367854192721498356936521487458763921689145273173286549542379618
000003017072060589400000000030908700096400021000056000710042006800005000005070298,968523417372164589451789632234918765596437821187256943719842356823695174645371298
400026095080400132530100700120040500005010026004080009300060080009005647000200000,471326895986457132532198764123649578895713426764582319357964281219835647648271953
700960800005007401090300060009702100004000005870010900503009047060805200021000030,742961853635287491198354762359742186214698375876513924583129647467835219921476538
700306040050080390006240801003050000000800002800709010160020057009400000300071968,781396245254187396936245871413652789697814532825739614168923457579468123342571968
005020007040001390360509800500030009000162000018700640090240500120807000007003480,985324167742681395361579824576438219439162758218795643893246571124857936657913482
070080040065401209000090081054030070280506100900027004320000000001000008000004056,179382645865471239432695781654139872287546193913827564326958417541763928798214356
006000010309702500047030020080960000400018760000500801000007005153040002208600009,826495317319782546547136928781963254495218763632574891964327185153849672278651439
030009601604578039020000740700030004100020060003006900009350080500060007080400120,837249651614578239925613748762935814198724563453186972279351486541862397386497125
190450000003108025004063000000007034000216000580900070006000982970001600032000051,198452367763198425254763819629587134347216598581934276416375982975821643832649751
060000200010069050075200089023097005000030940504800071000002004002754100800003506,469578213218369457375241689123497865786135942594826371951682734632754198847913526
000092150890000000050076002009200300071030608300500410200001030000003047460700900,736892154892154763154376892649218375571439628328567419287941536915683247463725981
000100530780000000560084010006508309000020000004090076030709405970800060100053027,429167538781235694563984712216578349397426851854391276632719485975842163148653927
507810000400003006603070021746000030090000052001030070000000890000065003002781400,527816349419253786683479521746592138398147652251638974165324897874965213932781465
001300487605409003000080009500060002910008000060025700820004530340010006000007290,291356487685479123734281659578163942912748365463925718827694531349512876156837294
000504000019000600708010025900600710000008003006270408001702350060003049205460001,623594187519827634748316925984635712172948563356271498491782356867153249235469871
002000309400985120006040000090013407038007000007290850000004600300500200020600791,852761349473985126916342578295813467638457912147296853789124635361579284524638791
800050200700400610009721000105097080060100092000003540006070003423600005000080904,814956237752438619639721458145297386368145792297863541986574123423619875571382964
006105000900080540300000007409703020000600009780012060000030805070804016200000390,846175932927386541351429687469753128132648759785912463694231875573894216218567394
380000076704200001900070050007950083061003000000048007000400000600180230425000900,382519476754236891916874352247951683861723549593648127138492765679185234425367918
