000206070830190406200370910080000007601009250392000640506010000040802000000704030,159246873837195426264378915485621397671439258392587641526913784743852169918764532
000904000380000405905002106054080000200060807007100504670000032509308600001029000,716954283382716495945832176154287369293465817867193524678541932529378641431629758
670002380901700000080009507048000032009105600100200000006843000250600048000007900,675412389931758426482369517548976132329185674167234895796843251253691748814527963
010084650030075020908006000006000408020000105140093000009010000302060540470350002,217984653634175829958236714796521438823647195145893276569412387382769541471358962
001070205047903600600014090000500002003000700025806003106020400002009106390700008,931678245247953681658214397419537862863192754725846913186325479572489136394761528
008006027002300100400050000007820905830079400096100000524030600000504030300780009,958416327672398154413257896147823965835679412296145783524931678789564231361782549
493100000000000570020006009037094002000080067814060030000052086908003054062700300,493175628186429573725836149637594812259381467814267935341952786978613254562748391
040039002000800013500400600004790020890104005600002800400010037031500000276000080,148639752769825413523471698354798126892164375617352849485216937931587264276943581
810400705009700020040382060600001903037060804090007000520008301073900500006000040,812496735369715428745382169658241973237569814491837652524678391173924586986153247
092304500846020300000000100000040009063102008504860030010200060030005970729008405,192374586846521397357986124281743659963152748574869231415297863638415972729638415
600005009008703002020040010700690300240001508003050170189000207000900840005006000,634125789918763452527849613751698324246371598893452176189534267362917845475286931
900070350030400078400002100096200030001000800700081620007106002180700900060034005,912678354635419278478352196896247531521963847743581629357196482184725963269834715
096400000180700042500081009009005070000006354000230018007010020040573800050900600,796452183183769542524381769319845276278196354465237918937618425642573891851924637
000040200608000500507360008006000049710002300890570006400983050080020071900001004,139845267648217593527369418256138749714692385893574126471983652385426971962751834
780420000003060004510000200070080020902003708000000050320010570040605900008009030,786421395293567814514398267475986123962153748831742659329814576147635982658279431
400000570900032008050060009203104000078006910000058003000090200124700600060005380,436819572917532468852467139293174856578326914641958723385691247124783695769245381
204009007051003940007800005068010000000308490000725030800400200073000610090031004,284159367651273948937846125368914572725368491149725836816497253473582619592631784
105002700070003904000060050200004015010600890503800002608030100000409007097010230,135942786876153924942768351289374615714625893563891472658237149321489567497516238
007001009004005230080200074069070405000080920350004000905603000028400001010000756,237841569194765238586239174869372415741586923352194687975613842628457391413928756
200890000304100600019006007700000052000401030645007080402005800000260901076030040,267893514354172698819546327731689452928451736645327189492715863583264971176938245
951600073000400800200000105030009280080135900007000056076010090000073604015080000,951628473763451829248397165534769281682135947197842356376214598829573614415986732
000793008400000019603084200006040090005320000870506400508000060010002037002008154,251793648487265319693184275326847591145329786879516423538471962914652837762938154
540000030003800169000720800815000900070060020209510003002009005900200640186070000,548196237723854169691723854815342976374968521269517483432689715957231648186475392
003050600097000521100200078460580200020079000005003409000704000801000060076010903,283157694697348521154296378469581237328479156715623489932764815841935762576812943
600290100501000004040007680003800070400065002269000510024300009800706030000002700,638294157571638924942517683153829476487165392269473518724351869895746231316982745
000750904720018060003006000904000050010875030000200700605009008480060001002000045,861753924729418563543926187974631852216875439358294716635149278487562391192387645
201030080004001509000250060060108000408000900009070036070006491090800052300000600,251639784634781529987254163763198245428563917519472836875326491196847352342915678
000000052907600380015070004800002517060390000740810600000940800000500406039006020,684139752927654381315278964893462517561397248742815639256941873178523496439786125
070002500906017003000604009000003800005040902312080000083000120600500007709006480,174392568956817243238654719497263851865741932312985674583479126641528397729136485
015093200304200006000400700500060007071009060008001095009506010060040083400038000,715693248384217956926485731593864127271359864648721395839576412167942583452138679
420350010001000705300680000014270500600030080008000129080000050197000306003906002,429357618861492735375681294914278563652139487738564129286743951197825346543916872
580012090046900010000740003972000060000020085008103900703068104400207030000000600,587312496346985217219746853972854361134629785658173942793568124461297538825431679
006000401430000820000570900003480010750006040020003006067005009082710000009028105,976832451435961827218574963693487512751296348824153796167345289582719634349628175
000700024000682075003094000970408001032060000104300060000050208508001049001007000,685713924419682375723594186976428531832165497154379862347956218568231749291847653
700012490608000070000906030080134050037008200401000000904200560010409008025700340,753812496698345172142976835289134657537698214461527983974283561316459728825761349
800607500700010320136900040500008000000029003069070104342080000050040067008501000,824637591795814326136952748513468279487129653269375184342786915951243867678591432
907003508000000001815064000702601030500790020480000019640209000000087203000000054,967123548324875691815964372792641835531798426486532719643259187159487263278316954
003650000690802401740003502000007090000910607400000108106000305050300080020068004,213654879695872431748193562561487293832915647479236158186749325954321786327568914
007400390000500086800070020230061000680030107015009000001908003000620905052000400,527486391143592786896173524234761859689235147715849632461958273378624915952317468
000006003904120050000350740100600007289000000700490205850070019002004006070008002,517846923934127658628359741145682397289735164763491285856273419392514876471968532
030019540020300900010000780890435020700002100400600009006154000005890360000060070,638719542527348916914526783891435627763982154452671839376154298245897361189263475
000549600300002000090010487900150000067004020080900013710300090400070068002008500,871549632346782159295613487923157846167834925584926713718365294459271368632498571
000070405008090072206005030000080200039501000825407300000034001160000040503800690,391278465458396172276145938714983256639521784825467319987634521162759843543812697
040009001008604092360005000280030005190708240007000000800200709003016500004090038,742389651518674392369125487286431975195768243437952816851243769973816524624597138
000308000290040000800007916500800230640050071080010064000100090013902007050076003,165398742297641385834527916571864239649253871382719564726135498413982657958476123
400900600300240710107305200602010005000003870050420109546100380800000000009067000,428971653395246718167385294682719435914653872753428169546192387871534926239867541
090108062500360800000009000050001380408020006169040007003400590010700000200016040,397158462521364879846279135752691384438527916169843257673482591914735628285916743
000021095004008301200500070068030700002094000100070630071003064050000207006980500,687321495594768321213549876968135742732694158145872639871253964359416287426987513
000509104200000906500631700007260400630100000420070085100300042009080000800005007,786529134213847956594631728957268413638154279421973685175396842349782561862415397
700050096601709800203000400000020000806010203140006500008004007009030650500092010,784253196651749832293681475935428761876915243142376589318564927429137658567892314
320706000517400800600000400000240097800061034000500201090870006005002100430015020,324786915517429863689153472153248697872961534946537281291874356765392148438615729
070000694040615007008000000009003080007050100062080350301064200000108000200070405,175832694943615827628497531519243786837956142462781359391564278754128963286379415
000000240832065001700130006100076000090504800074090020001800409905000070020053608,516789243832465791749132586158276934293514867674398125361827459985641372427953618
057902040009000001002483000040300290020005807036000050195800063000069400800507000,357912648489756321612483579548371296921645837736298154195824763273169485864537912
000701000000080060057006890075010004690000300080904270002438700900005003010069500,826791435439582167157346892275613984694827351381954276562438719948175623713269548
070040006003078049040060508120005007037000820409200050050083900201000000060409010,875942136613578249942361578126835497537694821489217653754183962291756384368429715
500807200603400010082010970908002600001003004700000090050040000326090050004360708,519837246673429815482516973948152637261973584735684192857241369326798451194365728
000002701094083600057006300010000452300070860029050000980400030030105207000600000,863542791194783625257916348718369452345271869629854173981427536436195287572638914
900700658043000072750290000600024005570010403010005080000000004200061090498030006,921743658843156972756298341689324715572819463314675289167982534235461897498537126
000400305000960017080000620005003170200500004307080000060050000920070008400610790,679421385532968417184735629895243176216597834347186952763859241921374568458612793
270008900008301006096070085001480602500003070009000431320947000000050200680000007,273568914458391726196274385731489652542613879869725431325947168917856243684132597
500190400007052000800000350950600048104030000000075090001080070400910206026003001,532198467647352819819764352953621748174839625268475193391286574485917236726543981
300078064007009000005142000010080005409005010502006379290607500073000800600000230,321578964847369152965142783716983425439725618582416379298637541173254896654891237
050000040130000026600840109002005308700310600069400002803190000070000080500006407,958621743134759826627843159412965378785312694369478512843197265276534981591286437
010048705037002000604000890900000010760300004000410907000001020008950003500706081,219648735837592146654173892945267318761389254382415967476831529128954673593726481
000600180030054062200700900100970350803012000700005004609000000510008026020001890,475629183938154762261783945142976358853412679796835214689247531517398426324561897
400020089709800050000073100003085097920006008005200400000649003864010070000000001,436521789719864352258973164643185297927436518185297436571649823864312975392758641
002007800300090450009500071860000300020040000000028105005074600000815002407600098,152467839378291456649583271861759324523146987794328165285974613936815742417632598
004500007080390160000100200027650001390008004860029000008000576006200389030007000,614582937782394165953176248427653891395718624861429753248931576176245389539867412
082000060000704039370500001054000900003040820000100570100009047000623000835010600,482391765561784239379562481654278913713945826298136574126859347947623158835417692
002008530009042001300007084230790005805006000070025140400000020603000900000063007,742618539589342671361957284234791865815436792976825143457189326623574918198263457
009500082470300000080001050032106040100000206000940310804005070001700930750609800,319567482475328169286491753932176548147853296568942317894235671621784935753619824
000090340498060002000051008607009200920004061801003005105000703700186000000700400,516298347498367152372451698657819234923574861841623975165942783734186529289735416
809030070001092500360410000002000800007000230940063051200105380000000000054078690,829536174471892563365417928632751849517984236948263751296145387783629415154378692
420607190091405003008003020300004602800001700009500014050002930000000008600070000,423687195791425863568913427315794682846231759279568314157842936934156278682379541
030000150004260083058009700001670000600400200700590604009004000087000539010080000,936847152174265983258319746841672395695431278723598614369754821487126539512983467
030100867970004000002560400800003201007002005061058009410070036000401700095080000,534129867976834512182567493859643271347912685261758349418275936623491758795386124
600900105003046009702300080820003900100005840030068002950000001007120400080000706,648972135513846279792351684825413967176295843439768512954687321367129458281534796
000003405700980300210000080800000100950800006070645002102490060500002043009307000,698213475745986321213574689826739154954821736371645892132498567587162943469357218
003201000001030058020960041045008000300000875700102009080540600000003090000600702,453281967691734258827965341945378126312496875768152439289547613176823594534619782
080604030970000100041000500690502708000308050400079060000020000502090041700806093,285614937976235184341987526693542718127368459458179362839421675562793841714856293
300560000007800040040000910800000000903672080621008503086301209105006004002000007,319564728267819345548237916874153692953672481621498573786341259195726834432985167
000003094217000000000086500006390080043007905070050020050062030098004006100035709,685273194217549368439186572526391487843627915971458623754962831398714256162835749
090100600007009210000406503001000804380050000000002076032005081004080730005097402,593128647647539218128476593271963854386754129459812376732645981964281735815397462
080407000036208040000900305007840200903010650002006001205070800000600519490000002,589437126136258947724961385617845293943712658852396471265179834378624519491583762
300160002820500760107004009240900300000708000076050084000093600003200417005000020,359167842824539761167824539248916375531748296976352184712493658693285417485671923
007809002005034900400501600500006820100070390029000001680300540900002007030040000,317869452265734918498521673573196824146278395829453761682317549954682137731945286
000020070807310050030900400050001600049670200100000834005040060062059001000280009,694825173827314956531967428258431697349678215176592834985143762462759381713286549
910006003200003180008040000000490060045060072090021500003500048000070305600800729,917286453264953187538147296372495861145368972896721534723519648489672315651834729
020030100507200680630007004000004500090002068840190002003980250700400010001050309,924638175517249683638517924372864591195372468846195732463981257759423816281756349
018004050700000982500760034980000200201059060030170000690003870040000605000021300,318294756764315982529768134985436217271859463436172598692543871143987625857621349
709500000200063008805000610001400090000178060300050002080010400506790081000026070,769581234214963758835247619651432897492178563378659142987315426526794381143826975
800060500200007901060410037300080490009046720050200010793005080010300200540090006,871963542234857961965412837326781495189546723457239618793625184618374259542198376
020876015950004000067905004004090150576040309000003087010620000040001800200007000,423876915951234768867915234384792156576148329192563487718629543649351872235487691
006079380020500007740068500003027905000005068410000700200040000560900140800001009,156279384328514697749368521683427915972135468415896732291743856567982143834651279
000008261004509000030007009460000700093100054508300000007000600920080400180064907,759438261614529378832617549461895723293176854578342196347951682926783415185264937
704620100009050000500043080600900010073480002090016004002038600000000850031000097,784629135319857426526143789645972318173485962298316574952738641467291853831564297
070005006531006900009810700760090430004002005800100209200700608000200140100600003,478925316531476982629813754762598431914362875853147269245731698386259147197684523
400207000005090730036018090048650002010300080007009600002000040050703160900084007,491237856285496731736518294348651972619372485527849613172965348854723169963184527
005080096016003500072501080090004000268700304130000075780340000000900001400016002,345287196816493527972561483597134268268759314134628975781342659623975841459816732
