094060005008090600010400700000800206003209050170300004300108002000005908600000570,294761385738592641516483729945817236863249157172356894359178462427635918681924573
007100020000030608201804900030000401000009080700215069050067002870400005400001030,387196524594732618261854973932678451615349287748215369153967842876423195429581736
009008003750010940000002501080305026013000400000100000020506084830700000006040092,169458273752613948348972561487395126613287459295164837921536784834729615576841392
002060400700900800060453000050700012000080040930010570007200600100009030425100709,512867493743921865869453127658794312271385946934612578397248651186579234425136789
007026050100009003030140900000870005002004600980013000700508460804090030023000100,497326851156789243238145976641872395372954618985613724719538462864291537523467189
000007950320010700000630801000570640060804102970100030007002005652400000001009006,186247953325918764749635821218573649563894172974126538897362415652481397431759286
030000159080020006004090003003008710002400005697100000060504200000716004500030080,236847159985321476174695823453968712812473965697152348769584231328716594541239687
540002006000076001720009500800120040090000350463008000070060890005804230009035100,541382976938576421726419583857123649192647358463958712374261895615894237289735164
084000003600170000790346080000060000901407200200090345070250001009003506028000007,184925673632178954795346182843562719951437268267891345376254891419783526528619437
000201503304000871500040009090002004008617000275094000060000000100050398000038012,986271543324965871517843269691582734438617925275394186863129457142756398759438612
100008302059070000007406590020000600000200048904037100065000000002504803390160700,146958372259371486837426591521849637673215948984637125465783219712594863398162754
020091043054870020100000000906080400500310000002005760060000910030650078070024000,728591643654873129193462587916287435547316892382945761265738914431659278879124356
000640070700001080000008305006080230080905400071260090800030600092170004015004020,538649172724351986169728345956487231283915467471263598847532619392176854615894723
000786200000540090030020000503098010016002800790000420207100085040069370000000601,951786234672543198834921567523498716416372859798615423267134985145869372389257641
000406030090150008700080120009807510020000007140900603062030000510008070008060049,281476935493152768756389124639847512825613497147925683962734851514298376378561249
490000030001007905500400002060203000009080004007006381945020100030501060080300009,498152736621837945573469812864213597319785624257946381945628173732591468186374259
006800005350020610010000047407950030000000008000036290800315002104070000230604900,746891325358427619912563847427958136693142758581736294879315462164279583235684971
082007000900560030340820000028000060009240007005091840060900580007030900200400600,582317496971564238346829715428753169619248357735691842164972583857136924293485671
200004090008501003060007208900052000800000706057030040000000100001460870304908005,213684597798521463465397218946752381832149756157836942689275134521463879374918625
030000720910508000042060080600701052400280100070005300005100809000009000709043006,836914725917528634542367981698731452453286197271495368365172849184659273729843516
000890017560004090078052000800000403003475082205000060106000305000203000304008100,432896517561734298978152634897621453613475982245389761186947325759213846324568179
000600023000070140960001000603090500057200000800017360000039050200050004010408679,741685923538972146962341785623894517157263498894517362486739251279156834315428679
903050072000030000401206500500300000710004080208910060007002930160090007002500408,983451672625739841471286593546378129719624385238915764857142936164893257392567418
713050000090006050050720890100004080079800410002600705024090100000402000307080004,713958246298146357456723891135274689679835412842619735524397168981462573367581924
607540020040090010000007003000700830201000090090056000006008500109020007750103280,637541928548392716912687453465719832271834695893256174326978541189425367754163289
500600071090035000416090800000800704002004006309700210000069000085002400067000305,523648971798135642416297853651823794872914536349756218234569187185372469967481325
000075062106004000050300170000932080038010094702600000010400507300800049065020003,983175462176284935254396178541932786638517294792648351819463527327851649465729813
005800016020000700360010480004581002019204070000000004100350920700000803906720500,495873216821465739367912485674581392519234678283697154148356927752149863936728541
620501004003007000090280006010400020500069080708100960300000795000304010850070300,627591834183647259495283176916438527532769481748125963364812795279354618851976342
000004500008000064260109703080000100079506800030702009005071290910040056000030400,793864521158327964264159783682493175479516832531782649345671298917248356826935417
300060800004100059109000000070005600812000030000243080650009170000078045200030060,325964817764182359189357426473815692812796534596243781658429173931678245247531968
080206090476005300030010500003021000095800000000009483000070046900308170002600000,581236794476985321239417568843721659695843217127569483358172946964358172712694835
004017002200836090050000010480000270020050603003900540900300067870002054000400000,694517832217836495358249716485163279129754683763928541942385167871692354536471928
002107900900000064361500000700300089008000256006450003004012000080000000600094071,842167935957283164361549827715326489438971256296458713574612398189735642623894571
802105060109200304700600000070003208004090100531000090098402001000000629605070400,842135967169287354753649812976513248284796135531824796398462571417358629625971483
060502103200006800001930040803710009090000420750060000007300608082005700600400000,468572193239146875571938246823714569196853427754269381947321658382695714615487932
000103250000006007201890004052040930006080000010759040800500010060000490503007006,684173259935426187271895364752641938496382571318759642829564713167238495543917826
963040000170002005500001394000714080800000057092006000050000028010009006406030071,963548712174392865528671394635714289841923657792856143359167428217489536486235971
002940080005302001070080006098010240360000050004500900009050000430801072200674030,612947385845362791973185426598716243367429158124538967789253614436891572251674839
590086024000020000040570380009800130800040005700903002000602070205090463907001000,593186724678324519142579386429865137831247695756913842384652971215798463967431258
017009326000601900000000850036280004450063070802000030083024000900100502060700010,517849326328651947649372851736285194451963278892417635183524769974136582265798413
003062089000590120001000760600073900010000007082040300000006500927008001005029004,573162489846597123291834765654273918319685247782941356438716592927458631165329874
000006012409000070013009800080063407200081060504970030000205001100030040750800096,875346912429158673613729854981563427237481569564972138346295781198637245752814396
002000831030520700809004600700300519120009000050607000400005980300071240000800067,542796831631528794879134652764382519128459376953617428417265983386971245295843167
000008700130009000004030520300000000005007086270006104041080290000904000760150003,952468731137529468684731529316845972495217386278396154541683297823974615769152843
000450069100300040058019020020004700070005031809060000060000890205080003001206070,732458169196372548458619327523194786674825931819763254367541892245987613981236475
020009508100200400000006007000020105340807090095600003900000300607100250500374800,426739518179285436853416927768923145341857692295641783984562371637198254512374869
903000008400058010000002700200710006040000090007063150710080500009370064086004200,953147628472658913168932745235719486641825397897463152714286539529371864386594271
058300400000020306400590081019006005500710020370804000037002008000000970604070102,258361497791428356463597281819236745546719823372854619937142568125683974684975132
060070020089000530000348000003000600020105709175000080038001092410060007500082001,364579128789216534251348976943827615826135749175694283638751492412963857597482361
046005300700004005005020009490070036008001007000590010800602703009800600053700240,946185372732964185185327469491278536568431927327596814814652793279843651653719248
040080005016002378900010000000790080003600004001003620007400002304200501080005067,742386915516942378938517246625794183893621754471853629157469832364278591289135467
901050080000006004008940502070000000539001006600008203720400390095060001000270400,941352687257186934368947512872634159539721846614598273726415398495863721183279465
907040000000008040402316008500020093070004080801095400120057600006200100305009007,987542316613978245452316978564821793279634581831795462128457639796283154345169827
802304650300200407060090000090000010500120803430850072000600000107080005005040198,812374659359261487764598231298437516576129843431856972983615724147982365625743198
400086090096200010817400050050019600070308000000000740500862003003070902000000085,425186397396257814817493256254719638671348529938625741549862173183574962762931485
015789000260030000700600901030050124000000008872006300050002700024100069600300800,415789236269531487783624951936857124541293678872416395158962743324178569697345812
010060070300210080002508030806409005700000402030000000960020700401000900080901053,518364279349217586672598134826479315795183462134652897963825741451736928287941653
000002540000080907700593100040056002008130600300920005403000000560017300917000080,891672543635481927724593168149756832258134679376928415483269751562817394917345286
003601408070020000006790230800900300402005690060000001007402800200030010381507040,923651478578324169146798235815976324432185697769243581697412853254839716381567942
050000090008017400670400538000052900700680000013094002960000017400301050032000860,254836791398517426671429538846152973729683145513794682965248317487361259132975864
700940080140060000500210003831000600069800745070002000654000007080403001000000920,723945186148367259596218473831754692269831745475692318654129837982473561317586924
080501060060003902907400085001840000529000000600010730104960070070000008003002054,382591467465783912917426385731849526529637841648215739154968273276354198893172654
790003000045069010000800200007006058030005470000180302900702106013000040500040809,792513684845269713361874295127436958638925471459187362984752136213698547576341829
702100080340000600000054007400090710601028905080300002008907050030016009007030100,792163584345789621816254397423695718671428935589371462168947253234516879957832146
300000070002045001009061580900006400005092007086104030070009203000010046028050010,351928674862745391749361582917536428435892167286174935174689253593217846628453719
029000100000000007137098005000007450490302600706005028260010043000800006001073900,829756134654231897137498265382167459495382671716945328268519743973824516541673982
570080030002030109090000004100026070800100002604790000006403500000070840003052901,571984236462537189398261754159326478837145692624798315986413527215679843743852961
070005013006009020102406080210004000000580007090200031000000309458700000369040500,974825613586319724132476985217934856643581297895267431721658349458793162369142578
004700086000025090013080720027609000000004600000130002706300040050800100042000930,294713586678425391513986724427659813831274659965138472786391245359842167142567938
000970045601052300090030080864200070073698000100000000007080039010700400508000020,382976145641852397795134286864215973273698514159347862427581639916723458538469721
200600438600002500390500200080000009500003006706240080007050912050006000401080050,275691438618432597394578261182765349549813726736249185867354912953126874421987653
010900400800270309200450080903000020540003010006849007000080070402500090765000100,617938452854271369239456781973165824548723916126849537391684275482517693765392148
800040000000009061604000070400016000005704002007083510010028009709301040203060008,871645923352879461694132875428516397135794682967283514516428739789351246243967158
506009002012000503000400710008206040003800001690000000700034025900607100024580060,576319482412768593839452716158276349243895671697143258761934825985627134324581967
070280490300051080000409003400978500015300960020005000006004700209000016850100230,671283495394751682582469173463978521715342968928615347136824759249537816857196234
050010028304907000600583400005200009490000100230706000008000600040065070070430980,759614328384927516612583497865241739497358162231796854528179643943865271176432985
080030005206890300007205090014902000000080017020001060503600004041070000070400958,489136725256897341137245896714962583965384217328751469593628174841579632672413958
000095600000206080090003175040370002083000009506020048010840000029601400007900050,138795624754216983692483175941378562283564719576129348315847296829651437467932851
907503001000000580240601000510790208004000007098304060030010006000409702002005430,987543621361972584245681973513796248624158397798324165439217856856439712172865439
002049007000370050400681009300706500800903040007000010500000086060890024910004300,132549867689372451475681239341726598856913742297458613524137986763895124918264375
080070004007001090050360210403500100200036000790000062102090078000800436000045000,381279654627451893954368217463527189218936745795184362142693578579812436836745921
003410672007009480801200000050340806086070000200000190000620049000700510905000203,593418672627539481841267935759341826186972354234856197318625749462793518975184263
010207000000893100205000008400370090030106504006029000507000620003040900800501300,318257469674893152295614738481375296932186574756429813547938621163742985829561347
007204506010900708002000040500680009090001030840507012050048007600700280100300900,387214596415936728962875143521683479796421835843597612259148367634759281178362954
080000620000090007305100090050072001018005060940008300021400700006530082000060904,189754623264893517375126498653972841718345269942618375521489736496537182837261954
300010000054000960091040802807050006040763108000904320960000705000806000020300019,382619574754238961691547832837152496249763158516984327963421785175896243428375619
197200006000018050080009700630070019900100072020004080006801004250300000000465030,197253846462718953583649721638572419945186372721934685376821594254397168819465237
528079000000500700001483060640200310000000000007158900074000092906004050800031004,528679431463512789791483265645297318189346527237158946374865192916724853852931674
090000003020000150004207008005820400047093280300010060079400310030051072001009005,896145723723968154154237698915826437647593281382714569579482316438651972261379845
009006400602070958053400002090000005010030200400810700200009384700081060005304007,879526431642173958153498672397642815518937246426815793261759384734281569985364127
063200100540800009000000820051006037000003904070100500700010006008497002934502000,863279145542831679197645823451986237286753914379124568725318496618497352934562781
300406008000070030050801720070080901804002060903105000041020600000904050702060300,327456198186279435459831726275683941814792563963145872541327689638914257792568314
400000000000079853070618009010520007002300604003006080500001248009005030160002900,498253761621479853375618429816524397952387614743196582537961248289745136164832975
847006001001050900906300420000000000600740280320609007000002009085004030400831760,847296351231458976956317428578123694619745283324689517163572849785964132492831765
000700000205086010007002054100009036094030002000140805010054209800200700640003080,461795328235486917987312654178529436594638172326147895713854269859261743642973581
002007950790000401400800200501036800200010000040059067806020005000600342000305090,682147953793562481415893276571436829269718534348259167836924715957681342124375698
070900020605000004091305080400052960008670100530000002000061000000004738009208400,374986521685127394291345687417852963928673145536419872843761259162594738759238416
040030010021780034650200009870503002005690070000002063000008040009150000300060107,748936215921785634653241789876513492235694871194872563517328946469157328382469157
070000090000013000205009680041200800307050000960071040109020004032060070080004509,673582491894613752215749683541296837327458916968371245159827364432965178786134529
