370000400500049008000620907000000601280500090704008023092084100410090030050067000,379851462526749318148623957935472681281536794764918523692384175417295836853167249
200407009000013060050000780064080200000060037008205140070006050630098020019030000,286457319947813562153629784764381295521964837398275146872146953635798421419532678
890000204000090010501600900320000058104009700050004030608031002000820640070405800,897513264462798315531642987329176458184359726756284139648931572915827643273465891
002000804590002073700698010406000500000301000030070060080037000010905042305140009,162753894598412673743698215476829531859361427231574968984237156617985342325146789
857000020600805039009004000703000050001602900000010400002958006080030001305006270,857391624614825739239764815763489152541672983928513467172958346486237591395146278
705090000600210040041600700900735810028001030000002560000000003012080004097300006,735498621689217345241653798964735812528961437173842569456179283312586974897324156
030400010020005800000670024900180700500039001017200063050000040400023098081000506,738492615624315879195678324943186752562739481817254963359861247476523198281947536
400003800801600000032017000308409067100000520007500009009082450024000090700050016,465293871871645932932817645358429167196378524247561389619782453524136798783954216
000002064450003008000905701087020010020104006106709300030050980500068040004000002,793812564451673298268945731387526419925134876146789325632451987579268143814397652
300007050900100407480630090845000120001090000070000085000826003508001006100400070,312947658956182437487635291845763129231598764679214385794826513528371946163459872
073050009800600002050980410000060104007100020900402360080006007425090830060300500,173254689894613752256987413532869174647135928918472365381546297425791836769328541
000000430450800702702096010028501000905300060000040300200600009071950820000080074,819725436456813792732496518328561947945378261167249385284637159671954823593182674
000900200200050483083060007420001308807009050096005000730006002000710506000480100,174938265269157483583264917425671398817329654396845721731596842948712536652483179
200000035008624901070500060190400500305090800026001040009700300000006102480030090,261879435538624971974513268197468523345297816826351749619782354753946182482135697
000000090100600482043050100560009304020800007001020000607403050005090008032071009,786142593159637482243958176568719324324865917971324865697483251415296738832571649
923508700104907030000000002030890400700060059050103000072049000600000027001002608,923518764164927835587436192236895471718264359459173286872649513645381927391752648
060035000210640700000700920080003697009008005400000100840000000503070401072010038,967235814218649753354781926185423697729168345436597182841356279593872461672914538
468000002003200540200073018904800260000040071000056300305601000002095000780000900,468519732173268549259473618914837265536942871827156394395681427642795183781324956
107352400400107065000000000304070802000500001598020000000005003705086200621040090,167352489482197365953864127314679852276538941598421736849215673735986214621743598
002070061000006090003502004506100008870349000024000900000000070185700300200985006,942873561758416293613592784596127438871349652324658917469231875185764329237985146
001030007400800060059010240107920006004300890080600031005200000090007500210450308,621534987473892165859716243137928456564371892982645731745283619398167524216459378
000060000390048726000905803020006004780400590400209100130000070200750900000031008,812367459395148726647925813921576384786413592453289167134892675268754931579631248
206930470090020080030400206080200007700056903000001540410000050309000600502070009,256938471194627385837415296985243167741856923623791548418369752379582614562174839
730009001408000900502301760024806070001050006000920083000500348000167205009000000,736249851418675932592381764324816579981753426675924183167592348843167295259438617
007200380560900040000081009070004050400006100906750000000030700041060802802010905,197245386568973241324681579273194658485326197916758423659832714741569832832417965
006589000501006802000000300300475100002091030800300709020048070493020501070000006,236589417541736892987214365369475128752891634814362759625148973493627581178953246
008000003500907400046030970270100080010008645004090000001002000900460532003850016,798614253532987461146235978275146389319728645864593127651372894987461532423859716
400750380630100700005009002300005040000070621090608500007024010850300000010860490,421756389639182754785439162376215948548973621192648537967524813854391276213867495
008090036206085000590000010100000650000430207720006300080310700054902000300060400,418297536236185974597643812143729658865431297729856341982314765654972183371568429
003700000040008932050001064004800016010900800060200050702006300030502000590400107,623749581147658932859321764974835216215964873368217459782196345431572698596483127
000000500010028460063710000700952840200006073049000100000680305020000008507030690,872469531915328467463715289731952846258146973649873152194687325326594718587231694
003006850180090600009003042000007006090020080400500237730060421020078000560400700,243716859185294673679853142852347916397621584416589237738965421924178365561432798
000007182750038049060100050000000020132005007940306000000004800470060001013590006,394657182751238649268149753586971324132485967947326518629714835475863291813592476
003008040620970800051200070007400290006000031000052000400060758090300064105080900,973518642624973815851246379587431296246897531319652487432169758798325164165784923
020908470000030201107600058043050010901700620000000509780026000500100900004000003,325918476468537291197642358643259817951783624872461539789326145536174982214895763
500064102890700050041000073000053000010002690005049028007510200900020804008006000,573964182892731456641285973289653741314872695765149328437518269956327814128496537
090062007800900530070000046040870060000290100500001004001020400063400095028300070,394562817816947532275183946142875369637294158589631724951726483763418295428359671
040361000200980006300005810002407005180023407009000000067000900000510030800040502,748361259251984376396275814632497185185623497479158623567832941924516738813749562
407061083000800570150002409300075014900000300060020000720410008009000006005308700,497561283236849571158732469382975614971684325564123897723416958849257136615398742
593204007410068020600000050050300010820006400070801006000170900100000030038400200,593214687417568329682739154956347812821956473374821596265173948149682735738495261
040030500216809004390706200003000070860905020004600051057000080000002160080190300,748231596216859734395746218523418679861975423974623851157364982439582167682197345
823600000000724005070100900140080002000090780005400390906003400000070050037805610,823659147691724835574138926149387562362591784785462391956213478418976253237845619
706830004050900000023005060100020000000080095340670108060300940010000307008741250,796832514451967832823415769189524673672183495345679128267358941514296387938741256
000090170037006004900052806040870390020004608350000010070030200000920000006501000,862493175537186924914752836641875392729314658358269417175638249483927561296541783
100400020705019080908000301009658140000000050000023607003070260560000900001540008,136487529725319486948265371379658142612794853854123697483971265567832914291546738
000000900604950000820006150071508020030009000580200407003010049000004681000697002,357182964614953278829476153971548326432769815586231497263815749795324681148697532
020080406009005301308060072060500010750020000000034800030048020075300900001900740,527183496649275381318469572863597214754821639192634857936748125475312968281956743
720000000008500914005600087004080502070021006060900300090265008000007400106430000,721849653638572914945613287314786592579321846862954371497265138283197465156438729
019700600002086400700030058040602003050000780001050069600498001007001020093500000,819745632532186497764239158948672513256913784371854269625498371487361925193527846
500640080001000030740000200050102000389750006010308740800503000600000018002070409,523641987961287534748935261457162893389754126216398745894513672675429318132876459
034650800000100009900024570056048300090310050008007062010902084080030016072000000,734659821825173649961824573156248397297316458348597162513962784489735216672481935
008020004600000517530007090070030908000060050006109400010400300025978100409002000,798521634642893517531647892174235968983764251256189473817456329325978146469312785
800900003001840205309607000010000900000062041605004830000275000093080500020010460,842951673761843295359627184214738956938562741675194832486275319193486527527319468
070003600005000310090602008043800200000007006082090750028700005950010034100084070,874153629265948317391672548743865291519327486682491753428739165957216834136584972
150200008000070236060904000940630700008002010305090600006700040804010370090008502,157263498489175236263984157942631785678452913315897624536729841824516379791348562
702300600090020030804905100003004716000000008005801200500780020070090504601043900,752318649196427835834965172983254716217639458465871293549786321378192564621543987
074009600600000300530208170802416007050030940000500020301005008000740000267000010,174359682628174359539268174892416537756832941413597826341625798985741263267983415
040000109010605200006079530020050006600804000500003070050700000803420090904030820,745382169319645287286179534428957316637814952591263478152798643863421795974536821
010062800500900000023000014400039070038607100790408500002500000840710020056080003,914362857587941362623875914465139278238657149791428536372596481849713625156284793
047000300100640900005003180580200400700000005003008026010409073000820640600017200,947581362138642957265793184581276439726934815493158726812469573379825641654317298
001060400003700009060023507100906000520000840400008701000032600000005374008010050,871569423253784169964123587187946235529371846436258791795432618612895374348617952
600031480003590002009007006700000000028013600400080315900060700180020000002009054,675231489843596172219847536731654298528913647496782315954368721187425963362179854
060910420500007001000042003305600010700000309002709600059008204008000070140500980,863915427524367891971842563395684712786251349412739658659178234238496175147523986
820106400036000700500400280008092605003701004007604000062800009900205010010007000,829176453436528791571439286148392675653781924297654138762813549984265317315947862
010025000700600003000009845002830090601000052040000710360704200800010000050280460,418325976795648123236179845572831694681497352943562718369754281824916537157283469
005900630003548920780000000501009070070304806060710000200135004046200309000000280,425971638613548927789623145531869472972354816864712593298135764146287359357496281
900048070700200100085307020100600800507090000000400267009085600006100009003000541,921548376734269158685317924142673895567892413398451267419785632256134789873926541
005004020020613090100200047203806000040005078007090530816900000509007084000030001,395784126724613895168259347253876419941325678687491532816942753539167284472538961
000340000002095800601800040084006027073000500000150400900020000830400260025708310,798341652342695871651872943584936127173284596269157438916523784837419265425768319
240000000051002063070905800400000300620050070980340001000020630138760504000800100,249683715851472963376915842415297386623158479987346251794521638138769524562834197
030041000400209007150070980300407060040000002900680500000003120090500608671000030,739841256468259317152376984325497861846135792917682543584763129293514678671928435
002501700000203450000084301070000003031905002009000840050760080480102090027000106,342591768618273459795684321574826913831945672269317845153769284486132597927458136
400100072000084006080700005915407080307050040060203000750600910290000300001830000,436195872572384196189726435915467283327958641864213759753642918298571364641839527
201040003083100070960070502000086001005900300000001247600300009009708000017050486,271645893583192674964873512732486951145927368896531247658314729429768135317259486
709400003000006010046201057235700001000008000907060040050300204004050070002690380,719485623523976418846231957235749861461528739987163542658317294394852176172694385
000860010402000006070302090120059800896700400000100300704005002005970100038004605,359867214482591736671342598123459867896723451547186329714635982265978143938214675
004000015500798006630000002903045000020670000000100870097360100860002040001500209,784236915512798436639451782973845621128673594456129873297364158865912347341587269
360012050007000080800907604003120900059060020040000007600080003902600041000031506,364812759597346182821957634783124965159763428246598317615489273932675841478231596
670300002500709800003204790080025043001000508004016000000003025190600000030008604,679381452542769831813254796786925143921437568354816279468173925195642387237598614
401079060000200704008360020009800000702015030860040009090000340050007201106000950,421579863635281794978364125519836472742915638863742519297158346354697281186423957
062591000904002005310006080006170903000029074090080500040050006050000740700300008,862591437974832615315746289486175923531629874297483561148257396653918742729364158
002007080000041009570860200300050162820004057000000430004010000750009300968300010,412597683683241579579863241347958162826134957195672438234716895751489326968325714
009070080100524006765100000526900070018200049070035000600009010000080063090003402,249376185183524796765198234526941378318267549974835621632459817451782963897613452
206004093080000010305080006050003040098005007000106002001250070060041009004760008,276514893489632715315987426652873941198425367743196582931258674867341259524769138
406007100000500002000030084034090500800000001900652300500048607702000810001029003,426987135378514962159236784234891576865473291917652348593148627742365819681729453
070010603410609000800423000040090857605000030090280160020004000100057020760800009,972518643413679285856423791241396857685741932397285164529164378138957426764832519
300000900160000840800059070000002039047901050002080600010590002090713004058204000,375846921169327845824159376581672439647931258932485617413598762296713584758264193
030048001070000830150000690000102000304060002280900507009803400027006900600010750,936548271472691835158327694765182349394765182281934567519873426827456913643219758
000006000010800790245300800070249000001008207006001580350010000890475610000000420,789126354613854792245397861578249136931568247426731589354612978892475613167983425
000074020900608030073100560306890004002501300590000006100000000700203190085000700,658374921921658437473129568316897254842561379597432816139745682764283195285916743
002415006140000890300000500609040030800506107004200008438000020090070600750001009,982415376145763892367982514679148235823596147514237968438659721291874653756321489
004750063090000827100003000310072049000000500600408001720031054005940006900020030,284759163593164827167283495318572649479316582652498371726831954835947216941625738
200810050089004100050236070060000007000081045904300260508000004002905600340020001,237819456689574132451236879865492317723681945914357268598163724172945683346728591
005030006000900730900602400006180020740090000100307580500000140002710600801049003,275431896614958732983672415356184927748295361129367584537826149492713658861549273
010600708900200003003004002706000500000807000204061090400120380600500104038079060,512693748947285613863714952786942531391857426254361897475126389629538174138479265
208907400000350078000100620015000004302080060006090803009400710700000000540026380,258967431164352978937148625815673294392584167476291853689435712723819546541726389
800075000020600584030104006708020600450000920010903000006010708200800015500097000,864275139127639584935184276798421653453768921612953847346512798279846315581397462
000000008010704032603005904780060020009000506200130840000003007965401000000982100,492316758518794632673825914784569321139248576256137849821653497965471283347982165
060005400403061000500080097038000050000100002190402030054007006300009071607020800,869275413473961285521384697238796154745138962196452738954817326382649571617523849
007000001400250000602700093009032806100800305508040020005070000300400960090610072,987364251413259687652781493749532816126897345538146729265978134371425968894613572
