000045300008102900461080700002000080630090470010057000170069250249001000000700030,927645318358172946461983725792416583635298471814357692173869254249531867586724139
683000900140092006700000015004069000000507004000000253008006007060214380092050400,683175942145892736729643815254369178831527694976481253418936527567214389392758461
600038410080052036900740008870000049020000803000061205790605002035000000000094700,652938417487152936913746528876523149521479863349861275794615382135287694268394751
000500008300007120000801097200006400500308001047010605060000740013902000785003002,179524368358697124624831597231756489596348271847219635962185743413972856785463912
040007890090640200002180050050700140000090602309002000600005001974006008021000003,143257896895643217762189354256738149487591632319462785638925471974316528521874963
000052094206001080700430100001020400983007600000309000002700005067500018105000960,318652794246971583759438126671825439983147652524369871892716345467593218135284967
000564012200000405060300708040600500900003800007482006059716000080000000102009003,798564312231978465465321798843697521926153847517482936359716284684235179172849653
080710006060830095005600000093060082200000901510402000000378000020000460009000713,984715326762834195135629874493167582276583941518492637641378259327951468859246713
028090600060240007907010005040830010500720403200006090000100000350000806690005070,428597631165243987937618245746839512589721463213456798874162359351974826692385174
000089100810640070645002000090010804700300020320854600470005002003000009050700068,237589146819643275645172983596217834784396521321854697478965312163428759952731468
100000004043205009000060250906070048750003090012050307080006001300009800070024006,125397684643285719897461253936172548758643192412958367289536471364719825571824936
030850007904200000068073010050904003100000070892500060300040092700006184010002500,231859647974261358568473219657914823143628975892537461386145792725396184419782536
200090501030048000600510070500080460002009087709100200940000703007000920301006004,278693541135748692694512378513287469462359187789164235946825713857431926321976854
390800002001050094207031005009000076702600800080007050006070020400108000020405130,395846712861752394247931685139584276752693841684217953516379428473128569928465137
500200004074009002809500376300800501001002400000390080002480103703065000000100790,536278914174639852829514376397846521681752439245391687952487163713965248468123795
050480062023701900000060005005037048180940700000006000840500020210090403006200010,751489362623751984498362175965137248182945736374826591849513627217698453536274819
590000007002100863038204000100600000700809025003057018056030490800001002009000000,591386247472195863638274159185623974764819325923457618256738491847961532319542786
064000910307004860000701000108400200200600009790003105000908003000035608003270050,564382917317594862829761534138459276245617389796823145651948723472135698983276451
075004080200800703410090065043002100600700804809006000060079030000203000000510072,375624981296851743418397265743982156621735894859146327162479538587263419934518672
509008400240000080010602070800500249070300610000060000000730000903480051001095300,569178423247953186318642975836517249475329618192864537654731892923486751781295364
005600400709000186200480003000040350000568009010902704800100072600000900130090005,385619427749325186261487593926741358473568219518932764894153672652874931137296845
920704380000095004630000000080030070240000806300210095000053718098021000000000060,925764381817395624634182957589436172241579836376218495462953718798621543153847269
800076021090045030007120000000000002000690804431500007000457060206001008073000109,854376921192845736367129485689714352725693814431582697918457263246931578573268149
010005002704100000000468000009002073056040080000036900608279045005000020107000839,813795462764123598592468317489512673356947281271836954638279145945381726127654839
200070050013050080480061000901007040054080000060200003600014509009000738000300610,296873451713452986485961372921637845354189267867245193638714529149526738572398614
145000020037206090000500003000109805026043007010070000309002701084300006200068040,145937628837216594692584173473129865526843917918675432369452781784391256251768349
000407000605300100901800072320005009068000745004100003002980500050030091700002030,283417956675329184941856372327645819168293745594178623432981567856734291719562438
070020960301080040052430000005908001480000007000567020200000416003091000600070050,874125963361789245952436178725948631486312597139567824297853416543691782618274359
400600070000000681501030002006723400090500120000089307082006000070000059300400800,428691573937245681561837942816723495793564128245189367182956734674318259359472816
030400000001037520670010008000502430487000090000000061004100002910070600320896070,539428716841637529672915348196582437487361295253749861764153982918274653325896174
710089004460301070200004590800000935000036000050400020003600480000025700971000600,715289364469351278238764591846172935192536847357498126523617489684925713971843652
701004200500760000009000800014050000900308005006270090000030108060500470078610023,731894256582763941649125837314956782927348615856271394295437168163582479478619523
100070063800002500050084701000709106570320008400560000720090000080010430090400087,142975863867132594953684721238749156576321948419568372724893615685217439391456287
080000407009057130100024056430075980007018600200300000001002070004090508390006000,582631497649857132173924856436275981957418623218369745861542379724193568395786214
090870504432500007000100360004060000815200000003000498700002905000000180608030042,196873524432596817587124369974368251815249673263715498741682935329457186658931742
005028060160030008072905040300000900980054001050000020000602397006080002040791500,435128769169437258872965143324816975987254631651379824518642397796583412243791586
005604028000025007001900006060500070390806000804012300038000600240000050000279400,975634128683125947421987536162593874397846215854712369738451692249368751516279483
000009603300405092002100500048050001100900300003280050870304900200870000000000760,584729613317465892692138547948653271125947386763281459876314925259876134431592768
054032109000007008000049700380410002600700510007900000010085200890600350003000604,754832169931567428268149735385416972649728513127953846416385297892674351573291684
700201508000000030031708040680003024097040050020000601400007906200400380910500000,749231568862954137531768249685193724197642853324875691458327916276419385913586472
010507009094030200003600518200000000670100900000900357000204100961008040050000803,816527439594831276723649518239475681675183924148962357387294165961358742452716893
900023807067000309300000040872900050009018006500040003001705400080090560600402091,945623817167854329328179645872936154439518276516247983291765438784391562653482791
300008000001070609009420030600002458024003901000506007003160040702004500080050100,375698214241375689869421735637912458524783961198546327953167842712834596486259173
400308000070100005500060290001830900059740063000602070100000300036004082800970140,492358617678129435513467298761835924259741863384692571147286359936514782825973146
000840001010307940890000070005982000940700006002001503003050060000003024260100700,327849651516327948894516372635982417941735286782461593473258169159673824268194735
300417500900502030006003274640000091008000000520086000007038000010050003000079420,382417569974562138156893274643725891798341652521986347467238915219654783835179426
090810000000067250653000000064908035300070100700400080000603408910050360000002097,297815643841367259653249871164928735389576124725431986572693418918754362436182597
104030005050107090000002301920080000070004060000050187690021050800603900300400670,164938725253147896789562341921786534578314269436259187697821453845673912312495678
950004108380700060002100500004059603000480079206000000108903004030070006000502000,957624138381795462642138597874259613513486279296317845128963754435871926769542381
403200600608030200200090074705020840080001520310040009030080000009006080006509100,493257618678134295251698374765923841984761523312845769137482956529316487846579132
320040107067030040900005608000300490070206000005098001004000300010970025800003900,328649157567831249941725638186357492479216583235498761794582316613974825852163974
270030500084002910600014008000100600009700054056089070100400200305000890007003060,271938546584672913693514728732145689819726354456389172168497235345261897927853461
700190500062004000309050080056010002800000763400200001098030000000006304140705690,784193526562874139319652487956317842821549763437268951698431275275986314143725698
407150060009024008003000010030510004005207090920008006060300082008600301000041070,487153269619724538253986417736519824845267193921438756164375982578692341392841675
905003746604008005071000900403500600002007400067100002009806270000700000000450318,985213746634978125271645983413582697892367451567194832159836274348721569726459318
047502000010000097005600430601408003080001200400370600930000061002700000060030805,347592186216843597895617432671428953583961274429375618938254761152786349764139825
608200009001083500750010000900000068047900100000075042006030004209004301370008050,638257419491683527752419683925341768847926135163875942516732894289564371374198256
600003000010200070080710206405036800002905300006007009000090150000684093049000002,627453918913268475584719236495136827872945361136827549768392154251684793349571682
020901407030070001070008605085060049400200300006007080063500000901030208700049000,628951437539674821174328695285163749497285316316497582863512974941736258752849163
900081000708000000304902050400006073190043000006800020000010530050307069670004802,925781346768435291314962758482156973197243685536879124249618537851327469673594812
050010900074203080013450200398605700100000063002000400020700500400000090007008040,256817934974263185813459276398645721145972863762381459629734518481526397537198642
809070046600290507001003020016000053070061004080904700200800000003400190000536000,829175346634298517751643829416782953975361284382954761247819635563427198198536472
000008560400790000380004107000080006260053080900007320104006003620100070005020040,719238564456791832382564197537982416261453789948617325194876253623145978875329641
000508029000400650100006307003000008006092045092105000640070810080653000000001002,367518429928437651154926387513764298876392145492185736645279813281653974739841562
020004806905300210340100009607810003500000070010207090008900502400000000003681007,721594836985376214346128759697815423532469178814237695178943562469752381253681947
607001005090700002005900041006030020400070039010040600203800514901602073050000000,637421985194785362825963741576139428482576139319248657263897514941652873758314296
008905002642000003790000000000130640006509008381070000900002070200001035003756090,138945762642817953795263481529138647476529318381674529954382176267491835813756294
000020504025001809791008000070400200000053001603890000140600005000200003308074060,836927514425361879791548326579416238284753691613892457142639785967285143358174962
001708000080090504300264100740085030002000009006903070900070800500146300620030000,461758923287391564395264187749685231832417659156923478913572846578146392624839715
270800000800020910004390080600002400105070003082604070003000021050000800000410396,279841635836527914514396782697132458145978263382654179463789521951263847728415396
000002408800910060731000009300050000008170052590400007940500301000000070000648200,659732418824915763731864529317259846468173952592486137946527381285391674173648295
005716000402090100700008059001850030600042701090031020500000600008200400000360290,935716842482593167716428359241857936653942781897631524529184673368279415174365298
041002009900030002560800000090003025080700400000564100700010680053200007004006003,341652879978431562562897341496183725185729436237564198729315684653248917814976253
000560980070000000680004072400023609009006017020100048800000530261805000307940000,142567983973218465685394172418723659539486217726159348894672531261835794357941826
005700020094018000300406900403602107607040030050001080000280600501000370000030250,165793824294518763378426915483652197617849532952371486739285641521964378846137259
410690000000000650029037040000009700062000180703004005500000403306270008098001060,415698372837412659629537841154829736962753184783164295571986423346275918298341567
002680900740500000050429307280031090007000001300000402090006205601805003008040060,132687954749513628856429317284731596967254831315968472493176285621895743578342169
203501048504000003010830007090020800300058201001900605000007002460000010007012300,273561948584279163619834527795126834346758291821943675138697452462385719957412386
960000400002400007300852010000610005203094800410000739000301508798006000000020000,965137482182469357347852916879613245253794861416285739624371598798546123531928674
970003000806040205003000807040001009500080600132509000000056000209700001001004368,975823146816947235423615897648371529597482613132569784384156972269738451751294368
800007602020046090007510040079300020013090805600100000700000100035000976080400003,854937612321846597967512348579368421213794865648125739792653184435281976186479253
100085600030000000798001400000004530020030897300107006070049105600708020004050069,142985673536472918798361452967824531421536897385197246273649185659718324814253769
040007031053061280020400600401050003000030420060090500270000069008002005610040800,846527931753961284129483657481256793597138426362794518274815369938672145615349872
500360049970000306080400051649050008000090020850601000003020807010007403000040090,521368749974215386386479251649752138137894625852631974493526817215987463768143592
090470800700095630085001000300008907020003040009720560002500004456300001100009700,693472815741895632285631479364158927527963148819724563972516384456387291138249756
070000104501800967804900500009502000050030809607401000100074208000020035006000040,973265184521843967864917523319582476452736819687491352135674298748129635296358741
070100300809005002432000005020900016700000204000860030008047900090050608360280400,675128349819435762432796185523974816786513294941862537158647923294351678367289451
280000046001840000690201300000027400005900687030604010040000901903050070000030205,287395146351846729694271358816527493425913687739684512542768931963152874178439265
704900100053006200091050008400000020008037605100680034300200071000049006007003590,764928153853176249291354768436591827928437615175682934389265471512749386647813592
001800540047109206000030000870005009000062030200490150039076000120003760050000004,691827543347159286582634971874315629915762438263498157439576812128943765756281394
090010700631020040054000800248306000009001060000507904020009607300050001000800203,892415736631728549754963812248396175579241368163587924425139687387652491916874253
000901730809400012050080000063000970500020084780060301012030000000005040040807006,426951738839476512157382469263148975591723684784569321912634857678295143345817296
000080207501003408090602003200010070070900340084060051005000000400571009768420000,643185297521793468897642513259314876176958342384267951915836724432571689768429135
040013970050040000200906080000600007980000124007081390405097001010530060000002008,648213975359748612271956483134629857986375124527481396465897231812534769793162548
000400360708000405020150008090007120147006090060300800509020030010600700300894000,951478362738962415624153978893547126147286593265319847589721634412635789376894251
080600042046901005900030008004800000005002197300006500008070020009420036470100800,183657942246981375957234618794815263865342197321796584638579421519428736472163859
078053000602080005090001040960008300580024010034000000023600970100030560700902000,478253196612489735395761248961578324587324619234196857823645971149837562756912483
200800041008007009405100306080903200730510900600270004000020000563000010901450070,296835741318647529475192386184963257732514968659278134847321695563789412921456873
310940000068205003400000012005079004940038006670000500000360900000100748297000000,312946857768215493459783612825679134941538276673421589184367925536192748297854361
506002800400500130007640009805401000000370012302005007200716090050000608090000020,536192874429587136187643259875421963964378512312965487248716395751239648693854721
