800063100000000002090107034200040900348950001001380065063000040000000207502078000,824563179137894652695127834256741983348956721971382465763219548489635217512478396
030170200085003074400900300003006015001040000049002700000259080068000009500700103,936174258185623974427985361273896415651347892849512736314259687768431529592768143
005048021007603040003025700834060002002007600000310009500800000261900035070051900,695748321127693548483125796834569172912487653756312489549836217261974835378251964
004800706020040003100709000200580000091026405030001680368050120040010008000000347,954832716627145893183769254276584931891326475435971682368457129749213568512698347
025974006730200059080060100001009500000008000090000637600010024800400700403806900,125974386736281459984563172261739548347658291598142637659317824812495763473826915
000006010000091508208704003407600092000409080500020006093000420702018000056000037,975836214364291578218754963437685192621479385589123746893567421742318659156942837
102600304070300502000580000084020060200000001010006409530971000000405108700000900,152697384876314592493582617984123765265749831317856429538971246629435178741268953
016800000005020096903050040400109075030467002000000080070005060624070100051003009,216894537745321896983756241462189375538467912197532684379215468624978153851643729
200408005400079100800000002060010524000900600082007390091500003000000406740302010,219438765456279138873156942967813524134925687582647391691584273328791456745362819
582070040100008903000605200406700000008040109750080036000362700009000010240007508,582973641167428953934615287496731825328546179751289436815362794679854312243197568
020906030700018020000504700450000670003060590016003000580207009094000180060001004,128976435745318926639524718452189673873462591916753842581247369294635187367891254
046200070080003000009060254075100069024700300600080000300079610000005702061008940,546291873287543196139867254875132469924756381613984527352479618498615732761328945
050628903709000801000700000310006008000085030020043715040030057830090206000401000,154628973769354821283719564315276498497185632628943715946832157831597246572461389
090065070060001403007000260000070009050003120480090600000010058015006002370408900,294365871568721493137849265623174589759683124481592637946217358815936742372458916
809051000036080020000000090000800203021000608607000450100049000508026040002500300,849251736736984125215673894954867213321495678687132459163749582578326941492518367
041000007005120060090000830874600500600900002000504008502301004030006900017408300,341869257785123469296745831874612593653987142129534678562391784438276915917458326
040200965005004700000760020507020000008000001060431070300008600800300450190006002,741283965625194783983765124517829346438657291269431578352948617876312459194576832
005080009002100006600792000308000051100039760000210400040008213903506007080040000,475683129892154376631792584328467951154839762769215438546978213913526847287341695
000094030000600087160802090304001070071000008650709200200010560830025000009007004,785194632492653187163872495324581976971246358658739241247918563836425719519367824
107905008004800003900020104020000070605008400001560009003200007400031900869007020,137945268254816793986723154328194576695378412741562839513289647472631985869457321
000060084070009050920045060090700820005320700087004001306070000010003596800050203,531267984674839152928145367493716825165328749287594631356972418712483596849651273
015240009000050340076008002640090070009015600038000000200086700800409016000503090,315247869982651347476938152641892573729315684538764921294186735853479216167523498
700049103000000000000853070043980002007006050268130040400201035905060000020000809,752649183834712596619853274543987612197426358268135947486291735975368421321574869
060003140008006037000450000609047028070028009001009005410700960000001200503200080,965873142248916537137452896659147328374528619821639475412785963786391254593264781
080600417030000002004072800000005028401090006900300100106004000200013090000920050,582639417739481562614572839367145928451298376928367145196754283275813694843926751
050760008048009700030410006006800340000623090070050200004100020009005104027300500,951762438648539712732418956296871345415623897873954261584197623369285174127346589
200000085000060900840700610910502008000840053530170000060005030100020490793600000,276491385351268974849753612914532768627849153538176249462915837185327496793684521
100005003700004290002601084870460100050007008003200960900000406500700020004809030,148925673765384291392671584879463152256197348413258967987532416531746829624819735
070080000304000056080025310009132400200900100000648005002500039067000000500071080,175386942324719856986425317659132478248957163731648295812564739467893521593271684
040006000093500804800900720070030051000050400000040986060000302210860009500407010,742386195193572864856914723974638251681259437325741986468195372217863549539427618
030006058000003000007180000080007290003010700600209804302000006061020947098045001,239476158816953472457182639184567293923814765675239814342791586561328947798645321
000430090703008600900012800040009000086100500390687002000004008010025034008060005,851436297723598641964712853147259386286143579395687412532974168619825734478361925
000000058005103907902408100700080200040310000601005030300004680010970042260000005,136297458485163927972458163753689214849312576621745839397524681518976342264831795
000570800050904060040062001067080059302000010001407080673010040900050300020009006,236571894158934762749862531467183259382695417591427683673218945914756328825349176
080000530207005000400932600800103004000000107050008000020709003560804019900060420,689417532237685941415932678896173254342596187751248396124759863563824719978361425
021043000804702050000600000010500400009208300230000786740059001183000009000370600,521943867864712953397685124618537492479268315235194786746859231183426579952371648
007500300250760100008034009000100604962005030130080050700302000009001780500040060,497518326253769148618234579875123694962475831134986257786392415349651782521847963
080026504345000006600000810090050060000378002407000308010800700000400095206037400,189726534345189276672543819893254167561378942427691358914865723738412695256937481
040720060090003021005690030670000009000080200300510800862400010017300490004050007,143725968796843521285691734678234159451986273329517846862479315517368492934152687
020007000351200004706080390405000060000608070030009810004560008000070021519030600,928347156351296784746185392485713269192658473637429815274561938863974521519832647
408002001300060502000809700050001043902600000037500608500100020060730809009040050,478352961391467582625819734856971243942683175137524698583196427264735819719248356
030000200200030806070104005600001590008960072304000000400090000080207604001805300,139658247245739816876124935627481593518963472394572168452396781983217654761845329
000007803203568090004021600001003700709000002050000064840010057600042908000005200,516497823273568491984321675421653789769184532358279164842916357635742918197835246
900034870020108050004029300806000930045600201003015000100907560600040790000000008,961534872327168459584729316816472935745693281293815647132987564658241793479356128
000209580903000207085000004004010800030705092001600000042500670100060008076390010,467239581913854267285176934724913856638745192591628743342581679159467328876392415
040310050500680001009025070050000900084060020017004360402700008830000710000230009,748319256523687491169425873356172984984563127217894365492751638835946712671238549
008056000100000039097000002519003004204100900800407200006034008002009046030200705,328956417145872639697341582519623874274185963863497251956734128782519346431268795
156400807080009040000570301040306020000100000709050000902700006800004100065280003,156423897387619245294578361541396728628147539739852614912735486873964152465281973
080649000007005008400200100300076500610000080002500490049300062201008007500090300,183649275927135648456287139394876521615924783872513496749351862231468957568792314
200080609064030507980700012070102060010670053000004800000900000320000405500063700,237581649164239587985746312873152964419678253652394871748925136326817495591463728
000532070700001900086047010204005800009800500300060000045070300060103402102056009,491532678723681945586947213274315896619824537358769124945278361867193452132456789
120046900090005702703008001081000040200004000650010890800051000007690300046300025,125746938498135762763928451381579246279864513654213897832451679517692384946387125
000000001904500200600403500025006080000230006370901000000050807017008024040070190,752869341934517268681423579125746983498235716376981452269154837517398624843672195
080640000003900700149028500000007259010304608850000040270000100000500030506890020,785643912623915784149728563364187259912354678857269341278436195491572836536891427
650000030004903500200070100009021070060000052830600490000168007900700200001005063,658412739714983526293576184549321678167849352832657491325168947986734215471295863
090300760000042010700800000920000000340085906506014003050060200130009004802070500,294351768685742319713896452928637145341285976576914823459168237137529684862473591
070021594100040008060500300042905000090003070007000600000030040023786001016009802,378621594159347268264598317642975183891263475537814629985132746423786951716459832
030108050079030806500000401250804003001000000800610205000709002060043700400500069,634128957179435826582976431256894173791352684843617295318769542965243718427581369
710090500004120006200003070090014050050730142000600830000070003938005004600000900,713496528584127396269583471392814657856739142471652839145978263938265714627341985
005894370000000029078000040500760200180003900604015700810007060032000500000349000,265894371341576829978132645593768214187423956624915738819257463432681597756349182
000800067800410003026300480060104000790003020108052039204500070009007005003060800,431829567857416293926375481362194758795683124148752639214538976689247315573961842
100805400926000050080000673003700260068004000000630094075018000002590730000040002,137865429926473158584129673493781265268954317751632894375218946842596731619347582
006500000020070190003001207080045009600800040007960003200030964800006000100057380,716529438528374196943681257381745629692813745457962813275138964834296571169457382
060820507300009002080000630008060200000500069010394000720006080005470001049001300,164823597357649812982715634598167243473582169216394758721936485635478921849251376
900007003028500107060000509010406800470001000600230010000803400000019620057602900,945167283328594167761328549513476892472981356689235714296853471834719625157642938
070000008003100002601940350000720590904080020060003000030019400400360001087052600,579236148843175962621948357318724596954681723762593814236819475495367281187452639
070860309001094805000000020136002500708130000009050006020003900500401000600500708,472865319361294875985317624136942587758136492249758136824673951597481263613529748
000002030065008027700400908100006000502030010004900850407000005008307000900010042,849672531365198427721453968193586274582734619674921853417269385258347196936815742
700003509069052400010800000480000000002018300053070062000500130020047086004980007,748163529369752418215894673486235791972618345153479862897526134521347986634981257
000090000430000082600280910200405001086000004501070060920053700004000090107000208,812396457439517682675284913293465871786931524541872369928153746364728195157649238
008003020400060100000009760809000000000791003517802000050070602602010097103900804,768153429495267138321489765839645271246791583517832946954378612682514397173926854
500002093020500806003190700080010579900380400716040000060704002000650080400009050,578462193129573846643198725384216579952387461716945238865734912297651384431829657
041075009300080010070000056092000300065009208700010000029706000003258900600300004,241675839356984712978123456892567341165439278734812695529746183413258967687391524
014000900005700002000860030020034001306007000080692007500000020067310090100408065,814253976635749812972861534729534681356187249481692357548976123267315498193428765
750000620009008000100796400020000147506907000040030000000172058380050000000403061,758314629469528713132796485923865147516947832847231596694172358381659274275483961
016000000400005087002731006000400013980100004100350890090007300064029500078600020,716984235439265187852731946625498713983172654147356892291547368364829571578613429
006000058010490003900082600004978300308001060002300041000604100070050092423700000,246137958815496273937582614164978325358241769792365841589624137671853492423719586
094006003506300081000072900000030106300000840010740050807050009040010000200908075,794186523526394781183572964472835196359621847618749352867453219945217638231968475
004700006000028390030500002600000019800007040000251070050813400700090800010400065,284739156567128394139546782675384219821967543493251678956813427742695831318472965
000000600049503010370461000704030900000695070050000081005806002100000090203047058,512789643649523817378461529724138965831695274956274381495816732187352496263947158
008200100796000005050074000003040098070500600040832700300097002965000030100008060,438265179796183425251974386513746298872519643649832751384697512965421837127358964
600090018029007000005003000094000630050004070000831490003020047008106920700000500,637495218129687354485213769894752631351964872276831495963528147548176923712349586
069004501005079302400100080950000007008000600030410800100705209093080060704030000,369824571815679342472153986951368427248597613637412895186745239593281764724936158
900000682020034007761000000400059700007408500003120009058210000600005013040080006,934571682825634197761892345416359728297468531583127469358216974672945813149783256
520090100037000095001600008400309052000010400390800001850067023260040000000502080,528793146637481295941625378416379852785216439392854761854167923263948517179532684
020063004000000903000710580390400006508300240007080010716502000002100735000009000,825963174174258963639714582391427856568391247247685319716532498982146735453879621
010007002900030008006905043539000000040209000208600504060470810020001006100080705,413867952952134678786925143539748261641259387278613594365472819827591436194386725
030050008900060010104290600062000039005000472400100080083004960020003007600870005,236451798958367214174298653862745139315986472497132586783524961529613847641879325
010500043200007060000839007085006900704000205002410000600000008401090370009324000,917562843238147569546839127185276934764983215392415786623751498451698372879324651
004170580206008000000392001302600704000009006508400900700000068100700230005023070,934176582216548397857392641392685714471239856568417923723951468189764235645823179
007020035490500000020007901701369008000002010900800600650000000103004057000030840,817926435496513782325487961741369528568742319932851674654278193183694257279135846
000000603960050700470800050000074108000109230058300070504090000037020001890003046,285947613963251784471836952329574168746189235158362479514698327637425891892713546
630020080500300140700600000352080070000750004004000903100075000080940307060201098,631524789528397146749618235352489671916753824874162953193875462285946317467231598
040009023500710080006000905030624100607008090081000002000080369800057040302090007,148569723593712486276843915935624178627138594481975632754281369869357241312496857
090860001000200030306000025400005093720030100000610840030420760219000000004508000,592863471147259638386147925461785293728934156953612847835421769219376584674598312
000700080108003009040051006001508274430100000007960300580300020900007400062000013,356749182178623549249851736691538274435172698827964351584316927913287465762495813
068200000900007501000309400604008700500920030020045019100070000306800005057604980,468251397932487561715369428694138752571926834823745619189573246346892175257614983
103082094600500108000900000079004012080706350200030000506007401028010030004008070,153682794697543128842971563379854612481726359265139847536297481728415936914368275
000060800304002000700005209205003914089000030006710000020400605847050001001930070,592167843364892157718345269275683914189524736436719528923471685847256391651938472
007024003900081700400000650800702039501000000070419800000000090300206480160093520,687524913935681742412937658846752139591368274273419865728145396359276481164893527
