105024630009007150000600002038002400200536080000070020890041360001000007064800009,175924638629387154483615792538192476247536981916478523892741365351269847764853219
009000602167500000008037010030879045504000200700040803005006304600000980010924000,359418672167592438428637519236879145584361297791245863975186324642753981813924756
000000000050827019006504870000705908040002000020096150068010400304009000210070530,782961345453827619196534872631745928945182763827396154568213497374659281219478536
900050002800300760061008000090430170050006430030701006080140000700000281200900350,973654812824319765561278943692435178157826439438791526385142697749563281216987354
000729006010800059060000740800060400027100003039002580100304802004090300095010000,548729136713846259962531748851963427427185963639472581176354892284697315395218674
050400701040700560000021003075016082001070900080300050026004830390080010000209004,953468721142793568867521493475916382231875946689342157726154839394687215518239674
690800004010003859020470000200038001100060300048500020000007060060300490700950130,693815274417623859825479613256738941179264385348591726932147568561382497784956132
000000400140000530090830200010200700302005060806700001005091008730086000601420090,263159487148672539597834216914268753372915864856743921425391678739586142681427395
001320040008060205050004000700010602060007300092400058907050081000802030306009000,671325849438961275259784163743518692865297314192436758927653481514872936386149527
400070802210380090003506704800250061020000000350049000700400006048600900091000507,465971832217384695983526714879253461124768359356149278732495186548617923691832547
830500076064093508009006402000300000001950007250004003098000040005870061000010200,832541976764293518519786432986327154341958627257164893198632745425879361673415289
480107900609800005570029040230000081006000030000705200100306708000400059302000000,483157962629843175571629843237964581956281437814735296145396728768412359392578614
002008010309004007480510320070020650050000843800100700000930400100056039700400000,562378914319264587487519326974823651251697843836145792625931478148756239793482165
005020007741000206200010900300509080600007000054180060000346000007050001080200439,895624317741893256263715948372569184618437592954182763129346875437958621586271439
004001030020008009160950200036007058000240001009030607570000040092010000040302980,954721836327468519168953274236197458785246391419835627573689142892514763641372985
030000400009250100106079320800600030700010092005042060940007000000901008200860057,532186479479253186186479325821695734764318592395742861948527613657931248213864957
050800001800009324210067000029000080006034500000001796570003208040050000000726100,953842671867519324214367859129675483786934512435281796571493268642158937398726145
050007021207096034301500800040073950072000400930000006605380002010000060000049080,459837621287196534361524897146273958572968413938415276695381742814752369723649185
040010020710900085052000006001345000236800000000007009000600238508700940000109600,649518723713926485852473196971345862236891574485267319197654238568732941324189657
080050040000167030900002007050690010801004003040000825002830509000040060015070400,187359246524167938936482157253698714871524693649713825462831579798245361315976482
600000050010035902009086004064059010000007605800012090040000008201408000305290700,637924851418735962529186374764859213192347685853612497946573128271468539385291746
070020014060857090003600500209080001000004805600005970500300006401008020700012308,875923614164857293923641587259786431317294865648135972582379146431568729796412358
050960002407500003600014080030708091001005070040000308093001004205040600060000037,358967142417582963629314785536728491981435276742196358893671524275843619164259837
603009450090700820000020000800100500006257000039600710200004090080060170057301064,623819457495736821718425639872193546146257983539648712261574398384962175957381264
004002680100000305000503097008060000903074010400800270820105004705900032061000050,534792681197648325682513497278361549953274816416859273829135764745986132361427958
001600030070009801005030290040876002002045000760012000803700106400098750050000400,921687534374529861685431297549876312132945678768312945893754126416298753257163489
206380500039060017100500000003000000060208700908047002040015008000000045010790306,276381594539462817184579263723956481461238759958147632342615978697823145815794326
000000059084067100320801000106020408030094000007105230078000005000000061010349700,761432859584967123329851674156723498832694517497185236978216345243578961615349782
050400090207080600900206041000005860075093004130002000004060052509100300008079000,651437298247981635983256741492715863875693124136842579714368952569124387328579416
680207005300400007000061040040050100570009800920103074009800420100300609008026000,684237915315498267297561348843752196571649832926183574769815423152374689438926751
070006500005007304023908000801090000500060700090015628030080041004200060008004953,179346582685127394423958176861792435542863719397415628736589241954231867218674953
207150000095200003000069042730020604000000081009008700803010027000005000416970050,247153869695284173381769542738521694564397281129648735853416927972835416416972358
200100005007060049864790300001080050700200000005003206000410080500007094008036070,239148765157362849864795321321684957796251438485973216672419583513827694948536172
009000508100006024002503060400280053003004070970100600030000080604720100785040000,369472518157896324842513769416287953523964871978135642231659487694728135785341296
060730400004080079300500800030100060009050100106040530470060000050002048008091700,862739415514286379397514826735128964249653187186947532473865291951372648628491753
600500700000290508400870013021307000709160030000000005080001609005040000306900047,698513724137294568452876913521387496749165832863429175284731659975642381316958247
000764005005200003040000971100579000080000702060400030001002000708103260630000508,319764825875291643246835971123579486984316752567428139451682397798153264632947518
050470020807009003640810050000905710200000690000027004009040530036500008700062100,953476821817259463642813957364985712278134695591627384129748536436591278785362149
702003006050084201003050900600000000429000500030892400067030085010605003000070040,742913856956784231183256974678541329429367518531892467267439185814625793395178642
000003500056080020800019000600000057080021003109040600364000800000070010201850409,417263598956487321823519764642938157785621943139745682364192875598374216271856439
090060073028030400000207010307100009000805004100000050006002500035009806002500091,591468273728931465643257918357124689269875134184693752916382547435719826872546391
690010020005000001400006537008002760042800009000793400310004058060209100807000000,693517824275438691481926537938142765742865319156793482319674258564289173827351946
003800040067000023500000019859007000340001250200060000905034006014508000700200090,193872645467159823582643719859327461346981257271465938925734186614598372738216594
002008471400250080603000509001534007006082003090106000030040600000000095078001200,952368471417259386683417529821534967746982153395176842239745618164823795578691234
000098031000074500060051908083027600005800040170900020030000795040000016027006000,752698431819374562364251978483127659295863147176945823631482795548739216927516384
000000104040370068008001950017004005096080000205609400301006020070050000500928030,653892174149375268728461953817234695496587312235619487381746529972153846564928731
001402890000000305907650100070860201100000000060025740024003086510000003300974000,651432897248791365937658124475869231192347658863125749724513986519286473386974512
020803150500040000003290046006008270308050090000700560400001007102076030090020800,724863159569147382813295746956418273378652491241739568435981627182576934697324815
300670040407000690000908507000050760059004803068201000000000200804306005902400010,395672148487513692621948537243859761159764823768231459536197284814326975972485316
090400000080001650064370280900207001015003800740000020000000046620090500050180030,592468173387921654164375289938257461215643897746819325871532946623794518459186732
802000719001380400060000020008900000745601000090070034613000005050096800400520007,832465719971382456564719328328954671745631982196278534613847295257196843489523167
800002034304000100016900580000506300000100009790084016020030860430050000500078900,859712634374865192216943587142596378683127459795384216927431865438659721561278943
006020740004093012050800003042100000500940680010057094100000005709000830000036070,396521748874693512251874963942168357537942681618357294163789425729415836485236179
000070103821005090004020600472086300050009070900000060100007050080300001095004008,569478123821635497734921685472586319356219874918743562143897256687352941295164738
190876002500090046000300100030000060819002300002009401740000000050100904000063070,194876532583291746267354198435718269819642357672539481748925613356187924921463875
307061000000090008092400630006210409040508007700640320000150000420003900680000500,357861294164392758892475631536217489249538167718649325973156842425783916681924573
800020700000003009516080300040170800300005620279000050052046000007050060000239100,893524716724613589516987342645172893381495627279368451152746938937851264468239175
008062009609700210000403500000036027700000008081500904006009030050670800020010075,538162749649785213217493586495836127762941358381527964876259431153674892924318675
000000901304908620056001070400006050821004007700300490507000003000827000092450080,278645931314978625956231874439786152821594367765312498587169243643827519192453786
004809320000010980006000005600753002080000070500002001002590130710068040030400007,154879326327615984896234715641753892289146573573982461462597138715368249938421657
000013076035000029720000004806000090004070613010500000500029807200038450007604030,498213576635487129721965384876341295954872613312596748543129867269738451187654932
030920051640000700002010806790650000018002040005103008500080000006370009400000320,837926451641835792952417836794658213318792645265143978573289164126374589489561327
209006800075009031080503000600402009047050002000800010013600070960070403000098050,239716845475289631186543297651432789847951362392867514513624978968175423724398156
240000605000016374000009000067005402000070908158000030010840000090107200836090000,241738695589216374673459821967385412324671958158924736712843569495167283836592147
306000007004120000080007005001074030400001982005806100020048603073000400600059000,316985247754123869982467315891274536467531982235896174129748653573612498648359721
004800900710030560000090023056000802008001070200004106030705004682009001507200000,324856917719432568865197423156973842498621375273584196931765284682349751547218639
007100090960000501530080200648092000700000030100705006000920108305078900020006004,287154693964237581531689247648392715752861439193745826476923158315478962829516374
908306000007210000030705029300000001009008576500692800003900057010004080400070062,928346715657219348134785629386457291249138576571692834863921457712564983495873162
003980000000730026805000100008042009067500000010000084090210030031800067004060250,623981745149735826875426193358142679467598312912673584596217438231854967784369251
004006308006370400002000010001937002050800037080150900700005089020010640400090500,174526398896371425532489716641937852259864137387152964713645289925718643468293571
059081000360002074001000000090067300570009020002450008100000030080030650030670940,459781263368592174721346589894267315573819426612453798146925837987134652235678941
000300027900000403400081050180006309007005600200007140000000068803074000510290700,651349827978562413432781956185426379347915682269837145794153268823674591516298734
700300095608070300004050260029006000000007153070480006580009000060801070000030401,712364895658972314934158267329516748846297153175483926581749632463821579297635481
100080945900600010075041060000002408059000036830000700060004023003750000040010000,126387945984625317375941862617532498459178236832469751761894523293756184548213679
003960001000087200000000749106070000574008900208340050020000160081035490450200000,743962581915487236862153749136579824574628913298341657327894165681735492459216378
107340690006070000050260300090000400605490200802000007720008005403520060008910000,187345692236879514954261378391782456675493281842156937729638145413527869568914723
800257003040800760030600090507010600086000301002704500000105000900032000150000048,869257413241893765735641892597318624486529371312764589624185937978432156153976248
007000502000013070468000900046007003290300080000251409800000200009108007075006014,137689542952413678468572931546897123291364785783251469814735296629148357375926814
800009402070052090600000870000173004000400150006098023000000031093601200740200008,835769412174852396629314875952173684387426159416598723268947531593681247741235968
503004700070089040090000316704012500000070903200805000080000690602500407000023001,523164789176389245498257316734912568851476923269835174385741692612598437947623851
092100470080302509040080060006800000900435700000007152403000000000610090500073801,392156478687342519145789263756821934921435786834967152413598627278614395569273841
300006000008209060000017009007090038980050140603400200000000620410000080705360004,391546872578239461264817359147692538982753146653481297839174625416925783725368914
000003050401000280083109406000040009008365107062908000250001030009700004106000500,627483951491576283583129476315247869948365127762918345254691738839752614176834592
009008005160000020000003604842350700000042010007600000680490001070025300200000890,439268175168574923725913684842351769396742518517689432683497251971825346254136897
000500402190207000280063590001305904940070006008000201603004000400018030057600000,376589412195247863284163597761325984942871356538496271613954728429718635857632149
005190403000006290300408006000000000690350007472901800904000050050700301037020060,865192473741536298329478516513287649698354127472961835984613752256749381137825964
098005000500048060630020705061000930000002008057900210100003627009000400400570000,798365142512748369634129785261857934943612578857934216185493627379286451426571893
040201800607049000320070040000704906050080001809062035060000120508300790200800000,945231867687549312321678549132754986456983271879162435763495128518326794294817653
430500620297004001050100007604000700570490000000030580002001000708350460000600032,431579628297864351856123947684215793573498216129736584362941875718352469945687132
008030000060005287700000009082041050900200400010603000406080532020090070005004601,248739165369415287751862349682941753937258416514673928496187532123596874875324691
006010002000754003000003908308002060510039200007100000400806701201500039070000540,736918452982754613145263978398472165514639287627185394453896721261547839879321546
800600930610005080024809050100006007090320400500098020000042006003007500057000018,875614932619235784324879651132456897798321465546798123981542376263187549457963218
000040108008060030714090050070003080900815007005009602526000900100000005030207460,653742198298561734714398256471623589962815347385479612526184973147936825839257461
009056402000081009050740003003092076700060008120004000047000501008900060360000800,879356412634281759251749683483592176795163248126874935947638521518927364362415897
002004000970028500460009010100000097607040300030080020050010009390052480080006705,812564973973128546465379812148235697627941358539687124754813269396752481281496735
946000003800140070002009600100000309039207008584060001005302106060504080000070500,946725813853146972712839645127458369639217458584963721475382196361594287298671534
309000080070810402040200730500904008200105073038060050710006000050000100006500029,329647581675813492841259736567934218294185673138762954712396845953428167486571329
000105064000090030702300980900064100005013706040800000000002403480700002061000005,398175264614298537752346981937564128825913746146827359579682413483751692261439875
000002568036180000040000307014000000008706902009450700075030290021000680000609005,197342568536187429842965317714293856358716942269458731675831294921574683483629175
000160070500000801102070590380000006050094003200008050000059720870230000409006100,948165372537942861162873594384527916751694283296318457613459728875231649429786135
