000071030350000270000000409003916000004005100906400302471068000890003560000720000,249871635358694271167352489523916748784235196916487352471568923892143567635729814
903460057000700001000052690010038960004005100802000300048607000720000040160890000,983461257256789431471352698517238964634975182892146375348627519729513846165894723
008290073400007800021030090300000407080405060000060018690001005070020000040008932,568294173439157826721836594316982457287415369954763218692341785873529641145678932
706000000394200000000457090200906180001000053603008042009002764000100800037040005,756893421394261578128457396245936187981724653673518942519382764462175839837649215
598020001000500670200030800970003060104200095000080200300010720006049000705300004,598627431431598672267134859972453168184276395653981247349815726826749513715362984
050000020276900010400067030800010004001400579009605002067002800100800000302540006,953184627276953418418267935825719364631428579749635182567392841194876253382541796
100905000007160025080020017230009608401006090009500700000004270053000804602030000,124975386397168425586423917235719648471386592869542731918654273753291864642837159
400000000092870401076030205300004507810020063050091004080205000000700302065010700,438152679592876431176439285329684517814527963657391824783245196941768352265913748
300070526002600104810040030400028000605900803901000050070002600000093010090150007,349871526752639184816245739437528961625914873981367452173482695564793218298156347
005010003904080761060903000000005094209060580000470602507030006082100000003004058,825617943934582761761943825376825194249361587158479632597238416482156379613794258
010058009000067408002100060906080700023540001000000040805700326001000980204093005,617458239539267418482139567946381752723546891158972643895714326371625984264893175
096807000010000745402300000007026300900010062205900004080170450300008000000605910,596847231813269745472351896147526389938714562265983174689172453351498627724635918
000009600104600030000721008405000079310000860068207045200410000036800900000590023,782349651194685237653721498425168379317954862968237145279413586536872914841596723
000730000000690250517008900150040002009500600700002038906084000200007019380200070,692735184438691257517428963153846792829573641764912538976184325245367819381259476
005417006120306087040000530000900005256800070700000320000604900803500700014028000,385417296129356487647289531431972865256843179798165324572634918863591742914728653
650420100070001208010069005900650000204800003000093470000076500046100039008300002,653428197479531268812769345937654821264817953185293476321976584546182739798345612
685900030000080070902004000000760500710203900036008100201040000090820406058170090,685917234143582679972634851829761543714253968536498127261349785397825416458176392
670010000090050280080604010406083000800020509320501600001068704500700000000000923,673812495194357286285694317456983172817426539329571648931268754542739861768145923
068003001009700004030025700300008042007140900420060010000201090040030058806900003,768493521259716384134825769391578642687142935425369817573281496942637158816954273
040200701500360084700015690206830040009706800000000005010000020304080000070149030,643298751591367284728415693256831947439756812187924365915673428364582179872149536
605004000003090001008260090042015000100920080000007300500081460300600020701030009,695174238273598641418263795842315976137926584956847312529781463384659127761432859
100006520304109000005000003000610000000090782080302046001807409900520830057000060,198736524324159678765284913472618395613495782589372146231867459946521837857943261
003820016000000950680500400900010600065007042024300000002705801050090230870003090,543829716217634958689571423938412675165987342724356189392745861456198237871263594
080007260912000004000050000300080170005002903004703005096815400000026080450309000,583947261912638754647251398329584176875162943164793825296815437731426589458379612
015029070000800300206041000070004008042003050008010903503092407460500001900000800,815329674794865312236741589379654128142983756658217943583192467467538291921476835
004609031250040000100700009530200060008001900902030580300007640006320700070805002,784659231259143876163782459537298164648571923912436587325917648896324715471865392
082000010706030058409000620060051004008206005000040203050008700020479080001000906,582764319716932458439185627267351894348296175195847263954618732623479581871523946
070012093500000000310008600080700160200006438190000705000000000060573802020609054,678412593549367281312958647483725169257196438196834725835241976964573812721689354
007000360100240005805001490008009600900607503000004018420058000000070039060300000,247895361196243785835761492358129647914687523672534918423958176581476239769312854
006180290700000003210030005400270058050009020000840031008093010097500006000016700,536187294784952163219634875463271958851369427972845631648793512197528346325416789
007304080053006701180500090030200078000005900062071004000690207801000040600002005,297314586453986721186527493534269178718435962962871354345698217821753649679142835
209500070000013900080700600300607058100009720006200040064000003000824000705036010,239568471657413982481792635392647158148359726576281349864175293913824567725936814
502060007800000019010038050680200000700001042403950000000400500004070961209305400,542169837837524619916738254681243795795681342423957186178496523354872961269315478
080047003090050108000106090800000000340520870029300406250070069170000200000400510,581947623697253148432186795815764932346529871729318456254871369173695284968432517
090083016000904827000002000037000094600500000059410032086301045000070008210006900,592783416361954827478162359137628594624539781859417632786391245943275168215846973
009800004120500370050030062000924037008000000092007605070008159000003000465010000,639872514124596378857431962516924837748365291392187645273648159981753426465219783
900200008261500090070036000010009000300170900600085024005400700800000632700002041,953217468261548397478936215514629873382174956697385124125463789849751632736892541
000230070071800009500016080910045300800003000602900100300002706006500290100000045,468239571271854639593716482917645328854123967632978154385492716746581293129367845
300800720040009001208605900000002019021406800500090630400008005079200000806700004,395841726647329581218675943763582419921436857584197632432968175179254368856713294
000530004740090052002070890670400003205007010400851000809000106000010070030206900,918532764746198352352674891671429583285367419493851627829745136564913278137286945
050003078690000004703046090480050030002670000000014006300000985000009201540280060,254193678698725314713846592486952137132678459975314826321467985867539241549281763
702059600900400050001020074000006403800075002103000097009000000516002800007098306,742159638938467251651823974275916483894375162163284597389641725516732849427598316
070010063050008009000907180080604002001070000603200400840035900200000005037009806,978412563154368279362957184785694312421573698693281457846735921219846735537129846
100060008090702006037081090700100600401053200280400530006034075020000900008005004,142369758895742316637581492753128649461953287289476531916234875524817963378695124
000000300100470000650139004807050090000002803021096075706000209004010000538000067,479268351183475926652139784847351692965742813321896475716583249294617538538924167
004063720750000900008091006000007000140250000329800670500040000070609501082000390,914563728756482913238791456865937142147256839329814675591348267473629581682175394
040070009010006005005009048204000000070001436003058000300700814000605207009100600,842573169917846325635219748294367581578921436163458972356792814481635297729184653
004000001093500800200060430010007206720930000800006005400700010030041620980050003,674328951193574862258169437315487296726935184849216375462793518537841629981652743
200090014480006700690300000009510000060870029040600580300000400010087030750020908,235798614481256793697341852879512346563874129142639587328965471916487235754123968
806045007070089603100200900030760420004000501700000008200603090901002700000800040,896345217472189653153276984538761429624938571719524368247613895981452736365897142
010708000325000709408030200003400000960010400100596300006002015530600020790800040,619728534325164789478935261253487196967213458184596372846372915531649827792851643
207051003006870510003000000031690004908000067050430800004000709000002080000319020,287951643496873512513264978731698254948125367652437891124586739369742185875319426
000040600050176030700008009004010095981000002026807040000039570200000004100485300,812943657459176238763528419374612895981354762526897143648239571235761984197485326
653090000800007490090001003500020007204068350000700086010200800000053901306004072,653492718821637495497581623568329147274168359139745286915276834742853961386914572
030064000700050109002100530800370004003090210000006070060028000140009007020000365,531964782786253149492187536819372654673495218254816973367528491145639827928741365
075000004020091600003720000004006180000050703380407506007300910500860000942005000,175683294428591637693724851754236189216958743389417526867342915531869472942175368
500406023090100008000007610000503806602900000039001040008002701307004250100600004,571486923296135478483297615714523896652948137839761542948352761367814259125679384
800400200009087030047002009080040500002809001710300060050030070200150806601200004,865493217129687435347512689986741523532869741714325968458936172273154896691278354
003201005860005900240809000908700134306900700070000002050002480000010203000640070,793261845861435927245879316928756134316924758574183692657392481489517263132648579
000400300030002001201096007500003900108740602600001005047250080060000090002800573,756418329439572861281396457574623918198745632623981745347259186865137294912864573
082000000600040500090103400800050609000020040913067080057800030000204007300009160,482695713631742598795183426824351679576928341913467285257816934169234857348579162
000600204520009000000540039006080120243160090800000007030006010010300805780950006,397618254524739681168542739976485123243167598851293467435876912619324875782951346
010070048000250601004000230900040820203009067748000500100003000436080100000560090,512376948389254671674198235961745823253819467748632519195423786436987152827561394
600000010000903008248070035980500400003090026050107000100000003007406800004025097,639258714571943268248671935986532471713894526452167389125789643397416852864325197
006800003100206400790040010040020900500000107002657030050030742080700000301090050,426819573135276489798543216847321965563984127912657834659138742284765391371492658
900460000607000900010023800000758600560000003800100024304809007702005130000002009,928467315637581942415923876243758691561294783879136524354819267792645138186372459
000760054500309708086010003024000009830042010000000600002504800900031005407900200,293768154541329768786415923624157389839642517175893642312574896968231475457986231
300100697150300800029000030040060108003004000710005400006849005000007900508000702,384152697157396824629478531945263178863714259712985463276849315431527986598631742
087500000100306200302040079090000805400007006005160004060002031571090080800400900,687529143149376258352841679796234815418957326235168794964782531571693482823415967
140073600700805020030200091508020039600000200000780500257100063000040000090000857,142973685769815324835264791578426139614359278923781546257198463386547912491632857
000005860004000070275000900193020006060003180700400000000800001030596002920107500,319275864684319275275684913193728456462953187758461329547832691831596742926147538
300206000400008060059030008010003205700050900090100380000001540082079031064000007,378216459421598763659734128816943275743852916295167384937681542582479631164325897
040001060100800940020706080002300500400080700730590008070409010806070000950100203,548921367167835942329746185682317594495682731731594628273459816816273459954168273
009834020010950000000000305000400702756009800004601039080702000092000670060108004,579834126213956487648217395931485762756329841824671539485762913192543678367198254
000037950007600241800209007100085603900000500048063000705000026034010070000802400,426137958397658241851249367172485693963721584548963712785394126234516879619872435
005086000000307010802050400100003700000010806900645021307204000090000670564900003,715486932649327518832159467126893745453712896978645321387264159291538674564971283
018709060300080000950200801203065000046002130500040007620014300000000090084003500,418759263362481759957236841273165984846972135591348627629514378135827496784693512
090478000300009000002060508800200476000800109156007000720010085001390040064005003,695478321318529764472163598839251476247836159156947832723614985581392647964785213
900410683021000070306000050070320900400000700563007001010008000200500804004900026,957412683821653479346789152178324965492165738563897241615248397239576814784931526
820010904103006020700500800000102549300004087009050602506000400070083050040900001,825317964193846725764529813687132549352694187419758632536271498971483256248965371
900803460504902700800010000635004090000390020001070000020001500080035910007200086,972853461514962738863417259635124897748396125291578643329681574486735912157249386
980130007302605000000000508200500103697300000000002740061000009500070480000908365,985134627372685914416729538248567193697341852153892746861453279539276481724918365
020015400070004603610080905091500002403090001200000500005201074006700030780000000,329615487578924613614387925891576342453892761267143598935261874146758239782439156
028109300400000701006000205200700008300602500014080070009070160030910000570308004,728159346453826791196437285265791438387642519914583672849275163632914857571368924
007000350260509800410006000002103060000800520096040001600700080340000902070010003,987421356263579814415386297752193468134867529896245731629734185341658972578912643
001000093502906740000051800004279000000830000700005084609000050320400917010007600,861742593532986741947351826184279365256834179793615284679123458325468917418597632
006340080002109007501007306008010072000906100050070030014003000690480020700000405,976345281832169547541827396368514972427936158159278634214753869695481723783692415
206400098800013040070090605008309500000540073010000920604070010305000200120008006,236457198859613742471892635748329561962541873513786924684275319395164287127938456
001400070087001602030086005073600908140020006005040700096000000008053104000200590,651432879487591632932786415273615948149827356865349721596174283728953164314268597
904200000870069500000703060500030908740010300008000024302040081050100700000096040,964251837873469512215783469521634978749812356638975124392547681456128793187396245
007001000010029630806050002403700001270480960900000500030960040085010006000003120,327641859514829637896357412453796281271485963968132574132968745785214396649573128
009001860800700003040300592000010030020958400006230750401060000300005081000000970,239541867865792143147386592584617239723958416916234758471869325392475681658123974
630017290004005000000409576008004020907008630010590400320000750800600000009080001,635817294794265813182439576568374129947128635213596487326941758871653942459782361
403180029650040000001030007007300804009600035100590600000052083008907001020000700,473186529652749318891235467567321894289674135134598672716452983348967251925813746
005000709040680103030007084401800200000409006003012900000070800809104002672000030,285341769947685123136927584491863257728459316563712948314276895859134672672598431
061705083200900015084000600006500700350000809000000046038017050009008074010420300,961745283273986415584231697846592731357164829192873546438617952629358174715429368
206030050470000960090006084000200408300750009620410300000820701037090000510000000,286934157475182963193576284759263418341758629628419375964825731837691542512347896
000036409905010030020050000081064200000900074500307680070600805098000020400002016,817236459965418732324759168781564293236981574549327681172693845698145327453872916
000541900029060004008000000230900501000007080840030000002010000700002169560408037,673541928129863754458279316236984571915627483847135692392716845784352169561498237
005600472010430900600027010000700095009000800530004020050060047807900300203500600,385619472712435968694827513426783195179256834538194726951368247867942351243571689
