064090073000104502020030000086415000710200004000008900045800000200000601130740080,864592173397184562521637498986415327713269854452378916645821739278953641139746285
700508009010024500032001060907160002040790080056003000005207100008400950600300400,764538219819624573532971864987165342143792685256843791495287136328416957671359428
007000940100078200963000005408302000570040003090015080080400769050001004000290100,827536941145978236963124875418362597572849613396715482281453769759681324634297158
000046702700100940080075301906000007250089000003007006104000005030460100009030280,391846752765123948482975361916354827257689413843217596124798635538462179679531284
070000000000400509008526430680010300005600902030904670400200001007000060102090805,574839126326471589918526437689712354745683912231954678453268791897145263162397845
005130000096007081200600047080040693030850070024000000003780010001009002700304069,475138926396427581218695347587241693139856274624973158963782415841569732752314869
700006900429050008600403100000701380080020700006005000005300012340000806802640000,731286954429157638658493127294761385583924761176835249965378412347512896812649573
009001300047020690000080001006593084002010035080070000500000406020708010930602057,859461372147325698263987541716593284492816735385274169578139426624758913931642857
050200649409501000370000800008090050520008034007306100004000008010004097600930020,851273649469581273372649815138492756526718934947356182794125368213864597685937421
070069801450007300901003200080000560005602470020000030000080710097400005306200004,273569841458127396961843257789314562135692478624758139542986713897431625316275984
530040700608002001104098600090080530381000009000007102000514007902600000000000364,539146728678352941124798653297481536381265479456937182863514297942673815715829364
002043050057900004180000390000050600010208070430601800000090080090705206670004013,962143758357982164184567392728459631516238479439671825241396587893715246675824913
000600000008045301240090057035081009070000080100076204006827040094000070003950800,357612498968745321241398657435281769672439185189576234516827943894163572723954816
000000006763009200480700015030150802004000000005480109900230750108000490000040008,591824376763519284482763915639157842814392567275486139946238751128675493357941628
064058002705100006000000900500071400070003125906024300020069084603480000000000007,364958712795132846281746953532871469478693125916524378127369584653487291849215637
080070094004000150600210000063508000000009408970400020000050301092080600037100082,381675294724893156659214837463528719215739468978461523846952371192387645537146982
002470000050006780804003100160000530009200000047035010001000450095807063320090070,612478395953126784874953126168749532539281647247635918781362459495817263326594871
007021008032980065000060040510730094040000600090000012000004300000890701879500000,657421938432987165981365247516732894248159673793648512165274389324896751879513426
005007000200410003680009002000640019008050000300098740009102038010000250706300400,135827964297416583684539172572643819948751326361298745459172638813964257726385491
004032010300050806782910000001003060006120470070084059047000300900500042600009000,564832917319457826782916534451793268896125473273684159147268395938571642625349781
950002038300000690080103070800500001502370800090040207040800003000900010010006405,957462138321785694486193572874529361562371849193648257645817923238954716719236485
406090007103200090900701600000006800081970004300008025004300700002005000090480032,456893217173264598928751643249536871581972364367148925814329756732615489695487132
600704080005000200000302596130690070068000900004100052900200008876010400001009305,629754183385961247417382596132695874568427931794138652953246718876513429241879365
706400000052730010030095200014600007000000080805009034000003849600072053190080000,786421395952736418431895276314658927269347581875219634527163849648972153193584762
104380065000000304006070000060900070308002090005030800040005108017040029900206000,124389765759621384836574912461958273378462591295137846642795138517843629983216457
890030000700015040120060708060450100250006003010702806300000000009300275040000019,894237561736815942125964738968453127257186493413792856371529684689341275542678319
060094010005600070409500830310900080080200601000040002700300500506801040000070009,863794215125683974479512836312956487984237651657148392741369528596821743238475169
003020000400800571076009208080403009627050000000068050760010000050600403901004002,813725946492836571576149238185473629627951384349268157764312895258697413931584762
068001300700000290905070010009400075030059000002680100056030700004006008270045003,468291357713568294925374816189423675637159482542687139856932741394716528271845963
745000018000500600160082090650000903007000020020034701910027085000800460304005000,745396218298541637163782594651278943437159826829634751916427385572813469384965172
050008020600900004087400950000091300400007006108530070300010000020005190790826000,954178623613952784287463951572691348439287516168534279345719862826345197791826435
040007103508040027020003060000630200150029080400005709000561300006008000980300041,649287153538146927721953864897634215153729486462815739274561398316498572985372641
300000406002701000078040000061005043830000900004680705020009050007562001900034080,319258476642791538578346129761925843835417962294683715123879654487562391956134287
940003800020008703006950000003049010204730000605802000000000968070590201000201305,947123856521468793836957124783649512214735689695812437152374968378596241469281375
000704380530020000401000906160059430020000607009800050750002000900600102600348000,296714385538926714471583926167259438825431697349867251754192863983675142612348579
010020504070390002940000060500000070080950200094708010360005008000200401009810750,813627594675394182942581367536142879187956243294738615361475928758269431429813756
007000604000721005318000000000072590060004280002803076900500040030016000051040309,527389614649721835318465927483672591765194283192853476976538142234916758851247369
049003006005200090800704005710600004000109000008005720231040060007901300060008500,149853276375216498826794135713682954452179683698435721231547869587961342964328517
700310000680090004300006050107205080900070310008040206001060027850004901000009800,745312698682597134319486752167235489924678315538941276491863527853724961276159843
019082060000090531074050009600000003700069100001003042090520308006000050200410700,519382467862794531374651829628145973743269185951873642497526318186937254235418796
000000010010009307309806002800003006201597000730208005000000030020654008906070200,642735819518429367379816542895143726261597483734268195457982631123654978986371254
005036200003508009040000508180003090900800070007014006016029083020000004030700610,895136247273548169641297538182673495964852371357914826516429783728361954439785612
001609804300010072200473050000000016870050900002304005000000090503706420104802000,751629834349518672268473159435987216876251943912364785627145398583796421194832567
090060810065709030278100000000007100000430095506020708001000204083004009007805000,394562817165789432278143956849657123712438695536921748951376284683214579427895361
609700803040100002700035010006024030000090005350600080000803901002400070080059060,619742853543186792728935416896524137271398645354617289465873921932461578187259364
005607400300005197000400060500001204100500986060780000410000035000198700782000000,895617423346825197271439568538961274127543986964782351419276835653198742782354619
000298070003070402080000065601347090500006000094000300102003800050100047000520001,465298173913675482287431965621347598538916724794852316142763859356189247879524631
000804020600009700174000050086300000510080490700200610907410060240507980000003500,395874126628159734174632859486391275512786493739245618957418362243567981861923547
002306405000075009300080010080001906006430021900000700023000500807690040410500073,792316485148275369365984217284751936576439821931862754623147598857693142419528673
006049007800000305090200400205003008001094600079010000030001006008700120500006839,156349287824167395793258461245673918381594672679812543432981756968735124517426839
800700030093000508250060900720609083401300650000081020100000040509200700060410000,814795236693124578257863914725649183481372659936581427178956342549238761362417895
007000290000806000010402036090507002540900600002034000300051408001680700026003015,687315294234896157915472836198567342543928671762134589379251468451689723826743915
030600100200010604008400075170068000000004358000905000520780400400031090090000027,734652189259817634618493275175368942962174358843925761526789413487231596391546827
007010906006583000400000010105024380760090025008100009209800070003040600080059004,837412956916583742452967813195624387764398125328175469249836571573241698681759234
820000045000000700097065002003001908608900027050000010200003050006700430400689001,821397645564218793397465182743521968618934527952876314279143856186752439435689271
400306098009025070005000130028900005500040307600078001010080000904007000300109260,472316598139825476865794132728931645591642387643578921216483759954267813387159264
078020603501090004034080075000530060020008001040701890007004000600000500003019028,978425613561397284234186975189532467726948351345761892897254136612873549453619728
400090510081600790700320060070040800530270009600500020003010200090000685040008030,426897513381654792759321468972143856538276149614589327863915274197432685245768931
090003604760005200124090000002504000007010000410072809805000002000608513000007908,598123674763485291124796385982564137357819426416372859845931762279648513631257948
061075200003018007008400030030001570470080009050023000200000690600007001004090058,961375284543218967728469135836941572472586319159723846287154693695837421314692758
000092500304601700097040160008375090520908304000000000060000017000030680175004002,681792543354681729297543168418375296526918374739426851863259417942137685175864932
601700002000000080007435009010000008543190000008256040000803050700920060409067300,651789432394612785827435619216374598543198276978256143162843957735921864489567321
030081400627900005400050002250000800900010003000390040086100200005003079700640010,539281467627934185418756932253467891964518723871392546386179254145823679792645318
302800500004005080008603970005008000709050310260007000500906400013020050040000709,372819564694275183158643972435168297789452316261397845527986431913724658846531729
200091004750062000400370860080000603000009015029100407503040100060000309004208500,236891754758462931491375862185724693347689215629153487573946128862517349914238576
010800209027056000304200000600009007050061348740030061000304000082000010060108095,516843279827956134394217856631489527259761348748532961175394682982675413463128795
050002600000080004217000305060005907040300510003709000301078200000093040028600000,854132679936587124217964385162845937749326518583719462391478256675293841428651793
154800090200070000800400136008205000730090580620003041007100605010020400900007300,154836297263971854879452136498215763731694582625783941387149625516328479942567318
007600038904020005010900000600040000025800003003570260002007500061008040730006190,257614938984723615316985724679342851125869473843571269492137586561298347738456192
090040007050800210084706503500001062700000900160024800023080406010209700000030000,391542687657893214284716593548971362732658941169324875923187456415269738876435129
000900002097802400040060708401000570036010000002006039800045020709600001020093060,318974652697852413245361798481239576936517284572486139863145927759628341124793865
900108000007200148005300200006800903000020000104700605008401360671030000020005009,942168537367259148815347296256814973739526481184793625598471362671932854423685719
046080070100700203035040100007804002600050000090603500960002000301970006002510080,246381975189765243735249168517894632623157894894623517968432751351978426472516389
830100062004608100009007430305809000000020900040076005002000007100500690590043080,837194562254638179619257438325819746768425913941376825482961357173582694596743281
600020000000190500153068007200074081080900406009030020300200604008001009004703800,697325148842197563153468297236574981785912436419836725371289654528641379964753812
057680090200400061000000700008040309704250000610970400070060012430020000900005803,357681294289437561146592738528146379794253186613978425875364912431829657962715843
400086100006750000093002070100007492000830000040000305060125008702000000300609054,475986123216753849893412576138567492529834617647291385964125738752348961381679254
470060010800003540000902307900000608000450270050630001005010809329007000010204030,473865912892173546561942387934721658186459273257638491745316829329587164618294735
206103005008000009310005070000040003590062000720809500100008420640730000005000100,276193845458276319319485672861547293594362781723819564137958426642731958985624137
000005430500000702926000080094100007000030015800600300071086900030407150250009004,187295436543861792926743581394158267762934815815672349471586923639427158258319674
003000014020600075807010930209530760080901500000700002008005000000009401164008000,693857214421693875857412936219534768786921543345786192938145627572369481164278359
620300000071008049000005080780200000090067021000400608045910063260703000300000400,628394157571628349934175286786251934493867521152439678845912763269743815317586492
203068047000500060900000300800140072100006008495700000000004206080030501310009080,253968147741523869968471325836145972127396458495782613579814236684237591312659784
001004600095200700400517000007082301900450060060300008218000030000930070030000846,371894625895263714426517983547682391983451267162379458218746539654938172739125846
040070130006003902580200000700005290021009308805630004000000041009560870467000000,942876135176453982583291467734185296621749358895632714358927641219564873467318529
060003810025100034090040700300001000000760480000092651040230060600804002001050009,764923815825176934193548726356481297912765483478392651547239168639814572281657349
050498600060001005340700021080200900004000072097506103013900046000082050000004700,152498637768321495349765821581273964634819572297546183813957246476182359925634718
000020300000401005107005460038000009070860140002703650025017800300009026040000090,854926317263471985197385462638154279579862143412793658925617834381549726746238591
300060005602704001091008000000000940019600020005002063006090800007581036450200700,374169285682754391591328674263815947719643528845972163136497852927581436458236719
590842060048700090020056000700400005000001309860020001000000403004089000216500070,593842167648713592127956834731498625452671389869325741985267413374189256216534978
086090000504001300010500028070000010140680700008012590000048060003005900092370400,386297145524861379917534628279453816145689732638712594751948263463125987892376451
500106000309057000000800002100000007070625310800030940006008493030410280090000050,527146839389257164641893572153984627974625318862731945216578493735419286498362751
401078005900100004050000020002940050003000709504600013800009100070234080036050007,421378965968125374357496821712943658683512749594687213845769132179234586236851497
050370020600108000070500094280006300406000750591800000009000031300720005000040260,958374126642198573173562894287456319436219758591837642729685431364721985815943267
000840000720001080100006403000900501800402060369057200401703900090000027500080300,936845172724391685158276493247968531815432769369157248481723956693514827572689314
006074538090050064070000900300005170027800050001029600005280017068301000000000040,216974538893152764574638921389465172627813459451729683945286317768341295132597846
020098075000356010400100080190070003008000021260003704700502600006000039800904000,621498375987356412453127986194275863378649521265813794719532648546781239832964157
009000430050002098004001007007608304160500000080090052000000803021070906000460500,219786435756342198834951267597628314162534789483197652645219873321875946978463521
900602047038000010040000900600007800001360000000804005007010039000506480862090070,915682347738945216246731958624157893581369724379824165457218639193576482862493571
008205704600701039500000800060509000103470050900020016041000003090003270030062008,318295764624781539579634821462519387183476952957328416241857693896143275735962148
