002965018406000000010008007000001700000200583050630009070040300005190006308706240,732965418486317952519428637923581764164279583857634129671842395245193876398756241
900010047085000360460750000014002000000068000308405090050009874070000630200300015,932816547785294361461753289614932758597168423328475196153629874879541632246387915
850403000700100006006708013200000390010070080084209600009031207000040050020650004,851463729732195846496728513267584391915376482384219675549831267673942158128657934
040000190600078003980045000004063087360007205200000040097026000000000520501309600,745632198612978453983145762154263987368497215279851346497526831836714529521389674
006910850400005302007302060604008000030056700050020090000009680009070400200060510,326917854491685372587342961614798235932156748758423196145239687869571423273864519
050460001708000200041020390006000502090002638000540017280090000000708406304050070,952463781738915264641827395176389542495172638823546917287694153519738426364251879
812005300007090504000023001070042000000300065090800042205600807680500090009001000,812465379367198524954723681576942138428317965193856742245639817681574293739281456
200475300075001000000860010003900806706050009040000102100043900609007201002600080,261475398875391624394862517513924876726158439948736152187243965639587241452619783
037580600000400508200006930060108009002050000341002007094260000000071400570030001,437589612619423578258716934765148329982357146341692857194265783823971465576834291
024000870010290003905003401080960005000000000706035080100006504400700206093040010,324651879817294653965873421281967345539428167746135982172386594458719236693542718
493010805000000060700902000040300900000540012801070506010006008280050000950020174,493617825128435769765982431542361987679548312831279546314796258287154693956823174
000079130090000680410620700060750020045060010700804003930405000000006890250010000,682579134597143682413628759369751428845362917721894563936485271174236895258917346
570002006009000030001340085100605248250091000300807000085010000400060903006000050,573182496849756132621349785197635248258491367364827519785913624412568973936274851
000000320410000507800602000050300901007100040028709600049076080000504006205080030,596417328412893567873652419654328971937165842128749653349276185781534296265981734
410900057700504083009630000205006034900740001008003790800000000050800260000025100,413982657762514983589637412275196834936748521148253796821469375354871269697325148
000040703006020000100800040007402010030706489800039006300050164080900027065100000,928641753746325891153897642697482315532716489814539276379258164481963527265174938
000007300002000781108062040200806107004009836500000020607008410009510603050003000,945187362362495781178362549293846157714259836586731924637928415829514673451673298
000590643100000982004006700008003070200600005305209816702400100000008000603702004,827591643156374982934826751468153279219687435375249816792435168541968327683712594
020601900000000103806000204900000805630705001000240006008107042075830000094002370,423651987759428163816973254947316825632785491581249736368197542275834619194562378
500020400000153007809000000070300069002009040000064218128000005305070080090005620,517928436246153897839647152471382569682519743953764218128496375365271984794835621
100070900096008200008600453002004800037020005450000090023400010700015060009083000,145372986396548271278691453962154837837926145451837692523469718784215369619783524
502300180006087930900600007830002004041000600200075008000003200600908450004050071,572394186416587932983621547835162794741839625269475318158743269627918453394256871
080053700140609008306080900005001042260000000004370690500000007070890236020410080,982153764147629358356784921735961842269548173814372695598236417471895236623417589
010006840340700600009050002207003059004890000006070100020105084890200006005300070,512936847348721695679458312287613459154892763936574128723165984891247536465389271
040000085600080703009067040807200350013740900000006008206005010005010009030409020,741923685652184793389567241867291354513748962924356178296835417475612839138479526
186500740003108600090000002008006000049070050560430170924000000000020560001087009,186592743273148695495763812718256934349871256562439178924615387837924561651387429
400200019870950000103006200080120095006030000000078402650000047001400903900817000,465283719872951364193746258387124695246539871519678432658392147721465983934817526
485701000020000830067000004001890060006050200900023701708960420040000006003002050,485731692129546837367289514271894365836157249954623781718965423542318976693472158
010007050007026480308000010001900006020500740080670900003700102002394060950080000,214837659597126483368459217731948526629513748485672931843765192172394865956281374
700980430000500086250000000100000608483010002000094070060023050030050001041000009,716982435394571286258346917179235648483617592625894173967123854832459761541768329
600000390000018057090062000020007500800090401003246000076001000940030108580400230,618754392234918657795362814429187563867593421153246789376821945942635178581479236
000090408916008000450010003860032150002400837000700006704060300031000200609500000,273695418916348572458217693867932154192456837345781926724169385531874269689523741
400000009720160340000802067050030201004708000306900500000300008039610450175000090,461573829728169345593842167957436281214758936386921574642395718839617452175284693
100042006080090705005007010201300900078060350400800070020931000009056008000000403,197542836682193745345687219261375984978264351453819672824931567739456128516728493
000700400320405709500000103042080060810369005003020970060000500000970800001203004,198732456326415789574698123942587361817369245653124978269841537435976812781253694
002056300070000900100840600053002000900713020004000807020100580080570090096030004,842956371675321948139847652753482169968713425214695837427169583381574296596238714
590003700000548000030010002000020604003600005061900000910080470006007028207450910,598263741172548369634719852759821634823674195461935287915382476346197528287456913
009050041073012000805036700000807050000600200082040093930000016600075900501000480,269758341473912865815436729396827154154693278782541693937284516648175932521369487
027000803000018709600000020806093200072400501300120090000059017001000000534600000,127965843453218769689734125816593274972486531345127698268359417791842356534671982
079058001006030075400200900730400019004026080050170000900840200043000060800500700,379658421216934875485217936732485619194326587658179342967841253543792168821563794
302000700070140050019000000600200100700035004058907200200350610000800043005006890,342598761876142359519763428693284175721635984458917236284359617967821543135476892
030900000502003069074800200480300700203007090000620010005406001100078402007010005,638952147512743869974861253481395726263187594759624318825436971196578432347219685
403700010008492000060008207500047800006520003000000091004310780302000000019080600,423756918178492365965138247531947826896521473247863591654319782382674159719285634
016724090870005000003900560460050300000000172900830040785201000032089004000600000,516724893879365421243918567467152389358496172921837645785241936632589714194673258
460080320713400050902000000000300640000000815500901000850100400006007032020095007,465789321713426958982513764271358649639274815548961273857132496196847532324695187
001080006300100480065000370029000805030702000014500900006009003497203000000405602,941387256372156489865924371729641835538792164614538927256819743497263518183475692
502009073600008500014030060100900600000073040000261035800006014407080000000005902,582619473673428591914537268138954627256873149749261835825396714497182356361745982
006070081091056000000002064500700809100000023308014000640091070053040006000308200,236479581491856732785132964564723819179685423328914657642591378853247196917368245
906040000053070042080910705001002600390008054000430810000709000562000000010020538,976245381153876942284913765841592673397168254625437819438759126562381497719624538
170200080200009300630075040002503060047080009905041003006000701000104250080000090,174236985258419376639875142812593467347682519965741823426958731793164258581327694
260400000009000007070981000000010540580070301010093020720000650403706809000058200,261437985849265137375981462937812546582674391614593728728149653453726819196358274
002905043960000078530080200009000050000047160000193007080034006041000700700620080,812975643964312578537486291179268354328547169456193827285734916641859732793621485
005607138000010470009003500000000625300040000670802003504378006000009804106020090,425697138863215479719483562948731625352946781671852943594378216237169854186524397
060204050507603080108000000000006503005040970039170028001000030070809601400000002,963284157547613289128597364784926513215348976639175428891462735372859641456731892
300508410060000700040960000080041073670000000900000625031005000000827050002300849,329578416568134792147962538285641973673259184914783625831495267496827351752316849
570600890860020300020003170700050001402900060050018740009000020030804600100360005,573641892861729354924583176798456231412937568356218749689175423235894617147362985
700123090598070020030008600600040300100039005082000070005480006070001200400065980,764123598598674123231958647659847312147239865382516479915482736876391254423765981
080000095300007400050832007004009013100085076020600500670300004900201008002900600,287146395316597482459832167564729813193485276728613549671358924945261738832974651
007040000020600349000308560005032090702000000601009804409200073000450001180706000,367945218528617349914328567845132796792864135631579824459281673276453981183796452
300008052905700006102000890050804070000500608640000003027600001006090400890037000,364918752985742316172356894253864179719523648648179523427685931536291487891437265
005036900017280000000000800090300004004097603801020590003409708600500200500800361,485736912917285436362941875796358124254197683831624597123469758678513249549872361
000360900010000020049700008060020450400500019000038670906040001030907005802013004,285361947317894526649752138768129453423576819591438672976245381134987265852613794
609200040450700009078001500907000000000360072002509061530008100000940003806000025,619253748453786219278491536967812354185364972342579861534628197721945683896137425
610008000008400370907005208860092000230000905000010000075604890000300010300050742,613278459528469371947135268864592137231746985759813624175624893492387516386951742
003710200105002070600000040080000009201504300000687400920103056508069000030040020,843716295195432678672958143487321569261594387359687412924173856518269734736845921
600070208890002500000000063200080036007005019000140700043018020700400901050609004,634571298891362547572894163215987436467235819389146752943718625726453981158629374
100000002070900413006700008000350000007042080623070005064010030508094701000608020,195483672872965413346721958481356297957142386623879145264517839538294761719638524
002908750007006008800000406100090000046320900080050310905100020000700060030240109,462938751357416298891572436123897645546321987789654312975163824214789563638245179
040820009600005000028000450092100030530060000000040100000709018083500062107002300,345821679619475283728396451492157836531268947876943125264739518983514762157682394
069080301700009480000070000050037600000500702004260098100940003096058020038002006,269485371713629485845173269952837614681594732374261598127946853496358127538712946
000600700603507901104000000020080056050460300740200108009070500000003820810002007,592614783683527941174398265321789456958461372746235198239876514467153829815942637
506702009900031870080000060490803100031250400000000050020907030750000014800400002,516782349942631875387594261495873126631259487278146953124967538759328614863415792
004050070002109000180020056030008200200910000750004008400085309319700065060000004,694853172572169483183427956936578241248916537751234698427685319319742865865391724
809006704020804000015020036003070001900002640200090085300500000000710962097060000,839156724726834519415927836683475291951382647274691385362549178548713962197268453
640003005000090706107800020008074019025600304700200600000060890090301060400002500,649723185283195746157846923368574219925618374714239658531467892892351467476982531
310600904000080570090200000840030009006004180000900205173006800054007300600020010,318675924462389571597241638845132769926754183731968245173496852254817396689523417
600070250020800049040003008805010000910002030300604000703008510001005026006900073,638479251127856349549123768865317492914582637372694185793268514481735926256941873
089400030005000714002057009008700050306190008100024600000910507000003006094002300,789461235635289714412357869948736152326195478157824693263918547871543926594672381
010083907250600080900010003080204056507060001000007000049700305106000400000801002,614583927253679184978412563381294756597368241462157839849726315126935478735841692
001830620500700000040052000090010400104920308000065700302180047000000586607009010,971834625526791834843652179795318462164927358238465791352186947419273586687549213
007400520049008000023015087290100040000030001000600798400006000030050600108070903,817463529549728136623915487296187345784539261351642798475396812932851674168274953
710008042590704060800000900049023056376000009000000010025010008000065003030009470,713698542592734861864152937149823756376541289258976314425317698987465123631289475
000010029002000350450290008000708600100043080074620000590030760000800510001064003,687315429912487356453296178239758641165943287874621935598132764346879512721564893
009008172600205080000410030742001000030800059800600200900003000007040615021000400,459368172613275984278419536742591368136824759895637241964153827387942615521786493
050610800400090070800003206073004000060500023201070059030005040109002000600740108,352617894416298375897453216573924681964581723281376459738165942149832567625749138
300040950079080100410609000060010400084005000700003026040900371000570080090801002,326147958579382164418659237263718495984265713751493826845926371132574689697831542
000070003200800610470009200040100000006037800007006539000014085590080002103002960,658271493239845617471369258345198726926537841817426539762914385594683172183752964
269704800040630002010900050583000000906000700000268030000005190708040020400300607,269754813845631972317982456583497261926513748174268539632875194798146325451329687
750009040823007000009000200507406890000023604000070100000092060480000001910860050,751289346823647519649351287537416892198523674264978135375192468486735921912864753
030004080001052096009160007050000610002800000080076003007920004096080500540003200,635794182871352496429168357753249618962831745184576923317925864296487531548613279
000201064102360000035809000080690750003000200916070000000034018078100035000005402,897251364142367589635849127284693751753418296916572843529734618478126935361985472
900000205048900006036145009000051020003004700702030580065023900090806000104000300,971368245548972136236145879489751623653284791712639584865423917397816452124597368
010020070007508304000609010090400806004100002006093000100060203040907100530200900,815324679967518324423679518791452836354186792286793451179865243642937185538241967
003090128840005090001003604080902400100004205500700800400600910030270000006009007,653497128842165793791823654387952461169384275524716839475638912938271546216549387
050304008000860039002075160000001402009003600070020053300540070620090000010007080,956314728741862539832975164563781492289453617174629853398546271627198345415237986
740009200031000900000030076902400150005800040300610000600201807098360005007050002,746589231531726984829134576962473158175892643384615729653241897298367415417958362
600000500002093007017200084000730206200504030071009000080460000000018605409305800,638147529542893167917256384854731296296584731371629458185462973723918645469375812
001870050080960400009000120907200000000435000040000586760020803008003090305010004,431872659582961437679354128957286341816435972243197586764529813128643795395718264
043060071000500000900780205406200000000040580002097063800600004290001000605008930,543962871728514396961783245486235719379146582152897463837659124294371658615428937
010706004500380006027419000003040200900800000061020370879100450040570130000000800,318756924594382716627419583783641295952837641461925378879163452246578139135294867
