630000570008003002405028060020079830340001009000000107000400286000930000176050040,632194578718563492495728361521679834347281659869345127953417286284936715176852943
800000049050300600201607000708006320006009801400002060034780090070250103100000005,863125749957348612241697538798516324326479851415832967534781296679254183182963475
004600379000350040260070005800000001500008920090103508000240093710006000040819006,154682379978351642263974815826795431531468927497123568685247193719536284342819756
004080170207600000000200038092450006005060800030009040500700400600003091103802700,364985172287631954951274638792458316415367829836129547529716483678543291143892765
000006030090000100051340200900080000002000018060920540500003080403091070007450002,274516839396872154851349267935184726742635918168927543529763481483291675617458392
002050869709000003305106002091520007000870040000009080000400508607000010400312700,142753869769248153385196472891524637236871945574639281913467528627985314458312796
530784000162030000040000090900065020800100000620008007070006002000050871201090305,539784216162539784748621593917365428854172639623948157375816942496253871281497365
900301705670200000010009380008004030405060100160007200000906004200083650000720010,982341765673258491514679382728194536435862179169537248357916824291483657846725913
170008005908007046005001030053020680000906000400500702840700000010649320000010900,174368295938257146625491837753124689281976453496583712849732561517649328362815974
400000017609051000802700300300080200060205090704910805001000948000003026000590070,453829617679351482812764359395487261168235794724916835531672948987143526246598173
400301000009060085735092006650710090200000048003205000010604700008003100007000050,486351927129467385735892416654718293271936548893245671512684739948573162367129854
705100360020780005906005108130602407000009020000070501500003000403020800608007009,785194362321786945946235178139652487857419623264378591592863714473921856618547239
049080013020049500080300600015700006908005024000000100400020000063900082090061700,749586213326149578581372649215734896978615324634298157457823961163957482892461735
002300090700010800580007036090240000300165000004000510007006320040080105200430970,462358791739614852581927436195243687378165249624879513817596324943782165256431978
108007040300810052070643900010050807047200030000300560001000006980000000052496010,198527643364819752275643981613954827547268139829371564431785296986132475752496318
080530001006000540003900870005102064870450300020090000000007910067820000439600080,782534691916278543543961872395182764871456329624793158258347916167829435439615287
500060047600128090000400260300001750297600100005000300002730010180004000040802905,521369847674128593839475261368241759297653184415987326952736418183594672746812935
070054080034200007810630052002045008080302065001700040920000800000009000700516023,276954381534281697819637452692145738487392165351768249925473816163829574748516923
000843000825700000000000690004000580930500020016230040051000900080016307600407012,169843275825769431347125698274691583938574126516238749751382964482916357693457812
600500031093002600574000002030760905208100760000000004000900000025004016800315070,682597431193482657574631892431768925258149763769253184317926548925874316846315279
056030007400000800807900005900150260710006300002040080008701090600290130200500006,156438927429675813837912645983157264714826359562349781348761592675294138291583476
001900670046301200005000000900048010500000826030076090620090500000817300800002047,381925674746381259295764138962548713574139826138276495627493581459817362813652947
604910080900060013500004007090071008000800974002005360080003000006700020701240000,634917582927568413518324697493671258165832974872495361289153746346789125751246839
001500000230006040907020180800002900000700060740050301320008004080060790009413002,461587239238196547957324186813642975592731468746859321325978614184265793679413852
930004081800370020042000560050100840327060000010059000004210070000500609076800450,935624781861375924742981563659132847327468195418759236594216378283547619176893452
700400105081600700000709032032007480009082006005040300100000070064003201020500640,793428165281635794546719832632157489479382516815946327158264973964873251327591648
001608279000000830820400000600900010013007482000040905040200007005300000276005001,431658279569721834827439156654982713913567482782143965348216597195374628276895341
090080470003104006620300800100467009059000100068005002310602050005008020080090007,591286473873154296624379815132467589759823164468915732317642958945738621286591347
300500860048290000500708030020806900009000082016000050060940070007051490000007103,372514869648293715591768234725836941439175682816429357163942578287351496954687123
300007090190800400406002853200010040009008100805640700004030620030200010600570009,358467291192853476476192853263715948749328165815649732584931627937286514621574389
300710400610090007000008130080007369260400000100035840590073620000000003004000580,352716498618394257947258136485127369263489715179635842591873624826541973734962581
081600040000098003927000850046081900000300400105700020000030060792050080500020701,381675249654298173927413856246581937879362415135749628418937562792156384563824791
803470001000502600060019700001200470047060003390100000070630050200805140904000080,823476591719582634465319728681253479547968213392147865178634952236895147954721386
400010080008000250050006900200590017000000840010370009809003460040060073305702000,423915786698437251751286934286594317937621845514378629879153462142869573365742198
291400700040510300600087000006000013000030854000152009900000028300648500057000000,291463785748519362635287941576894213129736854483152679964375128312648597857921436
005310004087900600060870910570600000000082040600003207000001080931000720004500300,295316874187924653463875912572649138319782546648153297756231489931468725824597361
030002059000600034702000000300809140016750002090200087005400970900008010061003500,638142759159687234742395861327869145816754392594231687285416973973528416461973528
800005203465001700000940000009800000206003400370210050150006009007050630004780002,891675243465321798723948165549867321216593487378214956152436879987152634634789512
000074010419620500008000600247900080000450090600010302060500903050783200100000008,526374819419628537738195624247936185381452796695817342862541973954783261173269458
004000510002068000800500604900003400401820050350007091000200735000010800006090000,674932518512468973893571624927153486461829357358647291149286735235714869786395142
000004000830590204401620000906057020310000800070003009204300086000080795005160030,629734518837591264451628973946857321312946857578213649294375186163482795785169432
602003007010000400900670085308052019001080000700039640040800071056000020000210003,682543197517928436934671285368452719491786352725139648243865971156397824879214563
208106070350000000060493080020970000600020408109000750002300000800000513540007006,298156374354782169761493285425978631637521498189634752912365847876249513543817926
960005000080103070500002034000030060004500710700041902005000290070800000291700080,963475821482163579517982634159237468624598713738641952845316297376829145291754386
090600010080050730602001050060009400305074000019260007270003009000400800803100060,597638214184952736632741958768319425325874691419265387276583149951426873843197562
900034080070050300104002090000370050480200106760000002309600045000189060006000700,952734681678951324134862597291376458483295176765418932319627845547189263826543719
389070500600300200074009060028600703000090000510000480400008150100450070060107004,389276541651384297274519368928645713743891625516732489437968152192453876865127934
000970360010005900600000052006000010031400790940820000080010003005047020300082076,528974361413265987679138452856793214231456798947821635782619543165347829394582176
400900107070020000608005300002039678056040090000012004030004000819007060000000825,423986157571423986698175342142539678356748291987612534235864719819257463764391825
300260005400190080002007104060000090074085600081430020000320861020500000009008700,318264975457193286692857134563712498274985613981436527745329861826571349139648752
050000460002006000037480950003020100000709300800105047508290001120003000006507004,951372468482956713637481952743628195215749386869135247578294631124863579396517824
879005400030200100014600590600010005702900008053400700901070830000004000085000906,879135462536249187214687593698712345742953618153468729921576834367894251485321976
000103090600090324008000100304069000800000402002800007000040706156700800000080053,425173698617598324938426175374269581891357462562814937283945716156732849749681253
700908014005006308030040200100800000908603000020097051271000000090002063003150407,762938514415276398839541276147825639958613742326497851271364985594782163683159427
060320007000050236009800401050000960003407000018900020502001300080700019400080000,165324897847159236239876451754218963923467185618935724572691348386742519491583672
026050000007009100100038069004090507500401980000023010800000020032007854001600700,926154378387269145145738269214896537563471982798523416879345621632917854451682793
090701000700040058300026000063007040850010007204000809010005460000038002502900000,495781326726349158381526974163897245859412637274653819918275463647138592532964781
502700100009020607087003000010049200075000006408002300001094002060058409000160005,542786193139425687687913524316549278275831946498672351851394762763258419924167835
000010060801900500027043080500100007900435600000209403010720900064000820008000031,459817362831962574627543189543186297972435618186279453315728946764391825298654731
060090371020004000030507002090700040708016000002480067300800200154000096009050030,465298371827134659931567482693725148748916523512483967376849215154372896289651734
060000003003020758095400201071590000030087600502060400740102090109030000000008007,267815943413629758895473261671594832934287615582361479748152396129736584356948127
009408000070300002608000001300002600000009740504001008900000070016024850020750094,239418567471365982658297431387542619162839745594671328945183276716924853823756194
000073140600905702300000800004001607895020300007400029920800060010640900050000008,589273146641985732372164895234591687895726314167438529923857461718642953456319278
800056092000000300179300058340060080000800010607405009500080743000603020720009000,834756192265198374179324658341962587952837416687415239596281743418673925723549861
704005203681200000000019000060308100030060004809700506200504609008100007500093400,794685213681237945352419768467358192135962874829741536213574689948126357576893421
005260100000009586001000090020830060067004350090100700059081040400390000800600270,945268137732419586681573492524837961167924358398156724259781643476392815813645279
509000630032706059070030080000000321124800060700060000016009002000501400090074000,549218637832746159671935284968457321124893765753162948416389572387521496295674813
070001000006590007080040026602370540803060200090480010700000002051030964439000080,374621895126598437985743126612379548843165279597482613768914352251837964439256781
050310860410076002003080050120050030000002900005408006900000043086000200301025007,257319864418576392693284751129657438864132975735498126972861543586743219341925687
080076001200010504640509070100600030050003000900087002070000045000002308003865290,385476921297318564641529873128654739754293186936187452872931645569742318413865297
002400050905003600603000007020591008700800009400007001080060105000079032037280400,872416953915723684643958217326591748751842369498637521289364175564179832137285496
102000004000209060630870500007900020040307108805006300500000240080051907091400000,172563894458219763639874512317985426946327158825146379563798241284651937791432685
060104800802060003091032700507400016080900004034005007700050020008000300010096050,365174892872569143491832765527483916186927534934615287749358621658241379213796458
000028300000601070803400902450000080000090700960012500008350204034080000605207001,746928315529631478813475962452763189381594726967812543178356294234189657695247831
400203950096000010500800006010508020900720800300906405608005003000042007057000000,471263958896457312523891746714538629965724831382916475648175293139642587257389164
000040086609002004081700520032008900070003000804650070000109000060000241200500803,723945186659812734481736529132478965576293418894651372348129657965387241217564893
020340001070100580096070000000038260805060710300700090030090400750201009000400020,528346971473129586196875342917538264845962713362714895231697458754281639689453127
650708000008305072002061000060007304420800050070090001900010030300200080045003097,654728913198345672732961548869157324421836759573492861987514236316279485245683197
080391000000057201000000058930070010020100645004680090150920004603000500700400083,285391476469857231371246958936574812827139645514682397158923764643718529792465183
500714090000008705340092068070200309080471006602000010006007050491030000020600800,568714293219368745347592168174256389983471526652983417836127954491835672725649831
504000200600310000097060800062509140900480050000007083000000700080902060710006305,534798216628314579197265834862539147973481652451627983246153798385972461719846325
007800060608003002010095700300006800005040621000700090090008010200451300840930250,937824165658173942412695738329516874785349621164782593593268417276451389841937256
200004600479500010000980020900000300360008005081702900000207531005063400004800007,218374659479526813653981724947615382362498175581732946896247531725163498134859267
800300205290400736700000080031540000006780049000000520000000160007250000640009807,864397215295418736713625984931542678526781349478963521359874162187256493642139857
500908410010000008000403060100000084900300100006750902030805029049000007802670300,567928413314567298298413765173296584925384176486751932731845629649132857852679341
130092600000400080700803105000034900460000210905000003000270400080100029090080760,138592674659417382742863195821734956463958217975621843516279438387146529294385761
000008003080320107400061092230706000005090010600850009704030960001002075908000020,192478653586329147473561892239716584845293716617854239724135968361982475958647321
100050083040700100360902007006075200000080094830004051070360000015800029900000400,127456983549738162368912547496175238751283694832694751274369815615847329983521476
018703005000001300200548000507400002009000000100060090724100089001080620900050403,618793245495621378273548961567419832849372156132865794724136589351984627986257413
020405700970200800000070001806540210000036005300109480260008090005700302030010040,621485739973261854548973621896547213412836975357129486264358197185794362739612548
020089400300000070900054062003000001040590806105038790000107200507000009086040300,621789453354612978978354162893476521742591836165238794439167285517823649286945317
027063014500000020803005907064030000300084001190207306070006005401500000000948000,927863514546791823813425967764139258352684791198257346279316485481572639635948172
030700020001040509000021670040830090800069200096000100060050004082003007407006350,638795421721648539954321678145832796873169245296574183369257814582413967417986352
000100700003520006962000400090007000080040310200610087500030028004905100106780009,458196732713524896962378451391857264687249315245613987579431628824965173136782549
040092100306000580001800047105009203020103408800060000000041370500900000007050009,748592136396714582251836947175489263629173458834265791982641375563927814417358629
807060000030000058001002900500206190100040006082390070040005710705020300020019084,857963241239174658461852937574286193193547826682391475948635712715428369326719584
070010008960200010103704500000930240041000007208000006800650190005093000020007830,572319468964285713183764529756938241341526987298471356837652194415893672629147835
300190046490000051000000002950800430070051608006700000083076020702005800100003004,325198746498627351617534982951862437274351698836749215583476129742915863169283574
090020000701003000000008056800200004010035670032040100006500430080017000005390027,598624713761953248324178956857261394419835672632749185976582431283417569145396827
002070430000002080078150000020503040500000100906008027050230870047080306010006900,162879435495362781378154269721593648584627193936418527659231874247985316813746952
