070021030400007658398060700206048090000700000009300164150000820020005001800000940,675821439412937658398564712236148597541796283789352164153479826924685371867213945
000260031025000800603005040040150068082400000500700900039070080200049700016300005,894267531125934876673815249947152368382496157561783924439571682258649713716328495
003060100008540060906800530600000752210390640407000900000718000050009020000620300,543962187178543269926871534639184752215397648487256913362718495751439826894625371
790020605350000080004160900030042760020070830100809004870000010500006000010904200,791328645356497182284165973938542761425671839167839524879253416542716398613984257
050369800023000609008070010060420030001005270000801006200040000917080004480903050,154369827723158649698274513869427135341695278572831496235746981917582364486913752
040006082903508060670010040300400050050090201001030700009700803062300000800052970,145976382923548167678213549397421658456897231281635794519764823762389415834152976
830200061060301004507000000000107080090000200301408095902003040006010059000054706,834275961269381574517649832625197483498536217371428695952763148746812359183954726
000980400362007000900061005607300059010002800008004160039020017005800002400005300,751983426362547981984261735647318259513692874298754163839426517175839642426175398
060130804405000060810004027080602100070058000920340700000006209100890000003005410,267139854435287961819564327584672193371958642926341785758416239142893576693725418
040000650800013900070425300050160020004090008100000700000280005018004207630750009,341879652825613974976425381759168423264397518183542796497286135518934267632751849
480056300000090000050010809004203060607080040290005007000100702003800504701029000,489756321172398456356412879514273968637981245298645137865134792923867514741529683
007004006200300014081095300020007051510830097009060020006700008340029000750400000,937214586265378914481695372623947851514832697879561423196753248348129765752486139
600045290090600010007002800000020300080001600503090004860004000900103050031800762,618345297294687513357912846146528379789431625523796184865274931972163458431859762
010260400406009700800030000000895610020100000005000370000047081940082000700900004,517268493436519728892734156374895612629173845185426379253647981941382567768951234
081200500900300000027640930150007000000000709030805400672403100400010008005700360,381279546946351827527648931154927683268134759739865412672483195493516278815792364
540000680900051004000062030000008507274000008060003190300000409480900026020170050,542397681936851274718462935193628547274519368865743192357286419481935726629174853
900400000830009200070300540000001000002570908006800031053206800020900607019004002,965427183834159276271368549387691425142573968596842731753216894428935617619784352
602800000050002970040750803013040098000630402200009010091060000806004500000020709,672893145358412976149756823513247698987631452264589317791365284826974531435128769
009040050003001070070350690501860000960002300230070004084009710006080500100007042,819746253653291478472358691541863927967412385238975164384529716726184539195637842
700005209000040760089030001901008402600001003023007015000000087506100900430072000,764815239315249768289736541951368472647521893823497615192654387576183924438972156
700100836600257001000800002810030750004005000006000298500048009902006007130000400,725194836683257941491863572819632754274985613356471298567348129942516387138729465
000230007060000100003064908609100305052048000800000070100000009070602040380570016,498231567267895134513764928649127385752348691831956472126483759975612843384579216
020000405506900070100034609080250001003097800205001000000000006900740080001863007,329678415546912378178534629784256931613497852295381764837129546962745183451863297
020800030970000025001060004000150003840070000307002050104500009093004002000310086,426895137978431625531267894269158743845973261317642958184526379693784512752319486
821700003090000000000839060012680009703000000000025410040901500007060290005043071,821756943396412785574839162412687359753194628689325417248971536137568294965243871
000704100900086002620000083500097000010230008004008050050670004800500319002013700,385724196941386572627951483568497231719235648234168957153679824876542319492813765
005430700000590802301600000000200050400160300076008009032040000540000270087003105,895432761764591832321687594913274658458169327276358419132745986549816273687923145
100067005350100006007900024001050003400000010570306040000000800060402930019580007,194267385352148796687935124921854673436729518578316249743691852865472931219583467
000000000759023010030780200000012006590070000040906705000000834078350002600400100,862149573759623418134785269387512946596874321241936785915267834478351692623498157
004003106072500840810070002057060300000140000189700000000090080048600009060200537,594823176672519843813476952457968321236145798189732465725391684348657219961284537
050600003672140080900702010000060020100000900806275400030018705004000008008390040,451689273672143589983752614345961827127834956896275431239418765714526398568397142
009080067300042050200601004607800020020050000000090406095710000432000108060008930,149385267376942851258671394617834529924156783583297416895713642432569178761428935
001060370600005020429000008780403000000208405302150097090000180103509000070004600,851962374637845921429731568785493216916278435342156897594627183163589742278314659
000043508670010000800560009059600010001200036706900004043000702200070300090008045,912743568675819423834562179359684217481257936726931854543196782268475391197328645
070428000000030500340100970790001200150600008603092700810076030020900805006050000,579428613261739584348165972794381256152647398683592741815276439427913865936854127
024076000030000705000900300300604100805090006200758009100200094076081500480030010,524376981639812745718945362397624158845193276261758439153267894976481523482539617
300560108020703000700890000900620037200010806040000009079000403080000050053108602,394562178821743965765891324918624537237915846546387219179256483682439751453178692
001050974780043052006900008000030007800206003095000060060701480100005000020890100,231658974789143652456972318612539847874216593395487261963721485148365729527894136
003150600001009048780040002000610050320804000064000037500067900008200001000900700,243158679651729348789346512897613254325874196164592837512467983978235461436981725
060070094005002803040019000100000060300208700080000542708051200026703901000900080,263875194915642873847319625172594368354268719689137542798451236426783951531926487
001700090640091800070450002050830701060004000803006500082310000500002070709600043,321768495645291837978453612254839761167524389893176524482317956536942178719685243
803000000410000907095000210100050002340002006000860170268010009000047500700089031,873921465412536987695478213186754392347192856529863174268315749931647528754289631
006002500950000070007403001012560094740300080090207030000000629003019850800000400,136972548954186372287453961312568794745391286698247135571834629423619857869725413
000100874201030060000095200609000000000560937072040005005610090040008100030200006,593126874281437569467895213659783421814562937372941685725614398946378152138259746
800009603007002004009156002000001038301200090050830270010607800094500000200400005,825749613167382954439156782742961538381275496956834271513627849694518327278493165
060004100918600002007050030000072000083000005640890010206703400500040807000061029,365924178918637542427158936159372684783416295642895713296783451531249867874561329
002597013003000297000000600000640080090200005240089030080150700601003040059008060,462597813513864297978312654137645982896231475245789136384156729621973548759428361
400820007003000001010039540702104000004095000060200890007050310005460020800007060,456821937973546281218739546792184653384695172561273894647952318135468729829317465
001250780056800003000006092003028000709001430400070600018000000900600204000903075,391254786256897143874136592163428957729561438485379621518742369937685214642913875
100780500000006090050031204090100003086050700003024008930260870071400005200000300,149782536328546197657931284592178463486359712713624958934265871871493625265817349
040700000200400010050008790004007030960040005075160402090003001080010320003825600,849751263237496518651238794124587936968342175375169482492673851586914327713825649
530006207002090000806057000900630008408001009750040100004802706010470020000503014,539186247172394685846257391921635478468721539753948162394812756615479823287563914
000586040700100200000040910018300000300000600090425080075090020240800769160004030,921586347784139256536742918418367592352918674697425183875693421243851769169274835
604003007000006009500100820307000400001400075000009683890670010005004000700850032,624983157178526349539147826387265491961438275452719683893672514215394768746851932
792000350010092860000700001083200900650008020004009106530014000000560038407800000,792681354315492867846735291183276945659148723274359186538914672921567438467823519
700050010204000059009684003060103720800000001010006905378001000002530000040902006,736259814284317659159684273965143728823795461417826935378461592692538147541972386
200001009009654037500280000093040070405030028100507060000020600000008000008903105,264371859819654237537289416693842571475136928182597364941725683356418792728963145
000030870006002950030970004340017080069400100080600025400185060002000001070309000,924531876716842953538976214345217689269458137187693425493185762852764391671329548
521003000904000061000970005102705030349008056080600000407290000000014209008050010,521463897974582361836971425162745938349128756785639142417296583653814279298357614
004800000000095301920000060701408052056100080400007090810000076207600500009004230,134876925678295341925341867791438652356129784482567193813952476247683519569714238
006508400503900060000300070074009530900002001182000700200806009010740800400000350,796528413543917268821364975674189532935472681182653794257836149319745826468291357
002030010003405000705810960006170008000000090080209504029000807030006040010903200,892637415163495782745812963956174328274358691381269574629541837538726149417983256
960018705300000002000035401000000900495000076080002010016804029040003000002706080,964218735351479862278635491123567948495381276687942513716854329849123657532796184
060748030002000908100390700005004090070060520408030160301000000090150072050406000,569748231732615948184392756615274893973861524428539167341927685896153472257486319
010034027803950060700000009950070080607000402000108000430010058200500600000806940,519634827823957164764281539951472386687395412342168795436719258298543671175826943
107002004004100368000305000201009706040800500950060002000410600608070010002900037,137682954524197368869345271281539746746821593953764182375418629698273415412956837
000200003000004810820305049050901070310080020206000004005870090074650000000000600,749218563563794812821365749458921376317486925296537184635872491174659238982143657
020940057950000840800013600506000000000702001132000008000060482385001090000097000,623948157951276843847513629576189234498732561132654978719365482385421796264897315
002170906000000007030600058700010080900002300006408700005094010360507094080360002,852173946694285137137649258723916485948752361516438729275894613361527894489361572
500040010704200096820003000060020080000004530019705002057000000003006104602908007,596847213734251896821693475465329781278164539319785642157432968983576124642918357
730090406090000000540278000000040615160030040000050028008500700010004059009700231,732195486891463572546278193283947615165832947974651328328519764617324859459786231
900000850014708000060300097406002000083051600000000405091830040000069200070120030,937216854514798362862345197456982713783451629129673485291837546348569271675124938
025100906000400010803000005070028040000500000908000630200060180001074009534009200,425183976769452813813697425376928541142536798958741632297365184681274359534819267
870001000014002300500300780405080027007060013060009004008007200006205000930410506,873951462614872395529346781495183627287564913361729854158637249746295138932418576
602001470300280000591004600106840000430090005000305700900020560000070089018000034,682951473374286951591734628156847392437692815829315746943128567265473189718569234
060005300432008001800090076000040603020800090601200780000403010000950002547610800,769125348432768951815394276978541623324876195651239784296483517183957462547612839
900000800260473010053000402000910267800200900000045003040007601590300000700102005,974521836268473519153689472435918267817236954629745183342857691591364728786192345
050000208900038000006024390300005000001060005490010037000041860017200950820900000,153697248942138576786524391368475129271369485495812637539741862617283954824956713
001200950500030041004000800983400200000870000050006003300004609720069500060150070,831247956592638741674591832983415267246873195157926483315784629728369514469152378
470000300000801005005090206000008602060740019529300400010500800302060057900000000,478625391296831745135497286741958632863742519529316478614579823382164957957283164
000678010004000650009020003300240070050190060060807009003060001920000507081905400,235678914874319652619524783398246175457193268162857349543762891926481537781935426
740001003000070569908020040000509300834007002010000680000000170005048000260300000,746951823321874569958623741672589314834167952519432687483296175195748236267315498
006204008400700001012390040609500700530007420000030080320000095060008000900450100,756214938493786251812395647689542713531867429247139586324671895165928374978453162
200000006090108050780962040810095007003400210000206500950601004000030081004000070,241753896396148752785962143812395467563487219479216538958671324627534981134829675
004000705000804190760200003005090080403708000900100260109520600008003001300900470,894316725532874196761259843615492387423768519987135264149527638278643951356981472
060720413000005000308000970090460150700590008043000602207100800400070029050004000,965728413174935286328641975892463157716592348543817692237159864481376529659284731
020940010600000307018503090896007250040051000000200080001700008004002906037000004,723946815659128347418573692896437251342851769175269483261794538584312976937685124
010970000000001005697005030800500120000320050050708940002480000109006800704093060,315972486428631795697845231843569127971324658256718943562487319139256874784193562
900200050520070100401090600000150037000000900078620000032400500740000860150083704,967241358523876149481395672694158237215734986378629415832467591749512863156983724
000000000965400078080007300200010049070603800000024506320560010400208090097001005,743186952965432178182957364236815749574693821819724536328569417451278693697341285
008000320104670905009340006500830601701090030080200500040000700906000002300514000,678159324134672985259348176592837641761495238483261597845926713916783452327514869
045010069008400030030002701700200500010935600080001092904007008060000320001804000,245713869178496235639582741796248513412935687583671492924367158867159324351824976
800007400431600009009003008908050021040890070060031900217000005000280060000004003,856917432431628759729543618978456321143892576562731984217369845394285167685174293
210070430840020100003800076000307904065000317000095000070900003009082060401000509,216579438847623195593814276128367954965248317734195682672951843359482761481736529
400035002123900508000800006060000000591406307200098000974000100000150040805200003,486735912123964578759812436368571294591426387247398651974683125632157849815249763
003100700042000008180740500020037004300290600600005200500000030000089060409360001,953128746742956318186743529825637194317294685694815273568471932231589467479362851
060850003017009000008430270000600400025080130100590087700008060430120000901006504,264857913317269845598431276879613452625784139143592687752948361436125798981376524
018304070060012400590007030002030907040801600800050000687000250000900001021000043,218394576763512498594687132152436987349871625876259314687143259435928761921765843
907082105004007900060000008100050080052390017000400063306010700009200000580904002,937682145814537926265149378143756289652398417798421563326815794479263851581974632
000000107420075038078006200900134000035090080600002000006048001203000050054301700,569283147421975638378416295982134576135697482647852913796548321213769854854321769
