001000700004050320030200906620007480009400005800060002003680040700901060080032501,261893754974156328538274916625317489319428675847569132193685247752941863486732591
209000000800703001300084670090100060004058093000402080010070820030005709000260405,279516348846723951351984672598137264724658193163492587415379826632845719987261435
000050080604100000070094030700420900030001007029003046300080152900507000068002700,293756481654138279871294635786425913435961827129873546347689152912547368568312794
560078023107020800000040001405000700809600100000093080900002007028015060340900050,564178923197326845283549671435281796879654132612793584956832417728415369341967258
000906005001830700003070028607400030050020079040100002000398000200004100900005067,872946315591832746463571928627489531158623479349157682716398254285764193934215867
009000604563009200000310007600197020850600000000200340045080061100073000280000590,719825634563749218428316957634197825852634179971258346345982761196573482287461593
001070640040030002308602105094000020800790006003500070006000839200100000507480000,921875643645931782378642195794316528852794316163528974416257839289163457537489261
009720000800000371540063000100600509052040000900801063080030096701000400000905028,319728654826594371547163982138672549652349817974851263285437196791286435463915728
078050600004389005002004019000860090083090002019703000200510480030200000506000700,978152634164389275352674819425861397783495162619723548297516483831247956546938721
672090400400057010800400900006203041020005007003001600010380500008009020940700003,672198435439657218851432976596273841124865397783941652217384569368519724945726183
003070402027080063060400800000000940070001005500090681034908020008053000906000010,893176452427589163165432879381265947679841235542397681734918526218653794956724318
690807300004060000785100020900056000200000038017090004501003670800020100003070200,692847351134562897785139426948356712256714938317298564521483679879625143463971285
241006700000070000805002901702008530050930800600004000086009012407200000500400380,241896753963175248875342961792618534154937826638524179386759412417283695529461387
081005790903070605002000000400300500070069014018000002060401030000520080820930007,681245793943178625752693841496312578275869314318754962567481239139527486824936157
507000030000020067090034205460800900310670008005010020000000684046201000873500090,527168439134925867698734215462853971319672548785419326251397684946281753873546192
800950000706000003009020040604230091000604830015007060002000006050400070903071002,841953627726148953539726148684235791297614835315897264472389516158462379963571482
870600400300017009000300001040005103032701068050009700417020050009000020600584000,871692435365417289294358671748265193932741568156839742417923856589176324623584917
700005001031400009200098730162089004050030020800010006980700063004906000007000500,798365241531472689246198735162589374459637128873214956985721463324956817617843592
004900351030008009670500400007100060300080045021009800000400280900067003008001700,284976351135248679679513428857134962396782145421659837713495286942867513568321794
041050002070400690009007500000940000060203070304006800190008020030070005802604310,641859732573421698289367541718945263965283174324716859197538426436172985852694317
260004350000001000903000068090760005100040000370120409402080701010300800007009030,261894357758631924943257168894763215125948673376125489432586791519372846687419532
100004036720008100000705008000800090984301502506200007090000000600107305010063240,158924736729638154463715928271856493984371562536249817395482671642197385817563249
600300150000940060370006208020084005910700000008500320200060090080091000006030074,642378159851942763379156248723684915915723486468519327234867591587491632196235874
001907050000600490407082000030000060600003901089705000002819043003000508000054200,361947852528631497497582136234198765675423981189765324752819643943276518816354279
310900007008200005007004360050378000000009600820001009270050903000400870106003024,312965487468237195597184362659378241741529638823641759274856913935412876186793524
009020170200009006850100000001030804700610059008200300400000020003790045670305000,349526178217489536856173492521937864734618259968254317495861723183792645672345981
000561000086004901003000040869700005050286030004000700070012806000970023901000570,492561387786324951513897642869743215157286439234159768375412896648975123921638574
060000050003870009405010207000200010540000030080901006907003020200047108800609500,768492351123875469495316287679234815541768932382951746957183624236547198814629573
000006450204800000539001007042000090008003100600790008806309520000002301700015060,187936452264857913539241687342168795978523146651794238816379524495682371723415869
502000089000200100137000004080030010004672300250089400409500030000046700000391006,542713689698254173137968524786435912914672358253189467469527831321846795875391246
002030001800070003590400260040080720006509010080020504000362070609001800107000035,762935481814276953593418267945183726276549318381627594458362179639751842127894635
200000849060923100050700000004508003000031720803000060901005270570800094000607000,237156849468923157159784632724568913695431728813279465981345276576812394342697581
784000300000007050000940600003006405005380260600204907100590800020701000036020009,784615392962837154351942678293176485475389261618254937147593826829761543536428719
007005830100409050000006001060000402830090005259107300010300028900060704400001060,647215839182439657395786241761853492834692175259147386516374928923568714478921563
300900016460020300159070080000407800038005001200060097800040000005102000070506402,382954716467821359159673284596417823738295641214368597823749165645132978971586432
260850900040000023000070501000020106500900400108034700007046050390501607000300008,261853974745169823983472561439725186576918432128634795817246359392581647654397218
000005860002070310100084007004000000910700580005836400600400250209010073030200009,397125864482679315156384927864951732913742586725836491671493258249518673538267149
204700008068009004903001050600400000030052090005008700501067020002090036000080140,254736918168529374973841652619473285837652491425918763541367829782194536396285147
009000210087020009500000037740068023000130000600700005300090064260580900051400080,439657218187324659526819437745968123892135746613742895378291564264583971951476382
000010857046020900100300000800040310900000200350080604002760090703095000005431008,239614857546827931178359462827546319964173285351982674412768593783295146695431728
050000200804900070300702085096203000200070130710005406000400000000061098078520600,957138264824956371361742985496213857285674139713895426639487512542361798178529643
280004091030860200509000060000030700327100000140090502004700003610003950050002800,286574391431869275579321468965238714327145689148697532894756123612483957753912846
000000600403200081070504002002008003001750040850403060708390010600072000510806000,285931674493267581176584932942618753361759248857423169728395416634172895519846327
400000519003020607506801000040075020380900000700106940000000301190008200005409070,428763519913524687576891432649375128381942765752186943864257391197638254235419876
005820004704190050030000000100008400002060000986350700340500972200000015009730800,695827134724193658831645297153278469472961583986354721348516972267489315519732846
080001973700600000005900100002006081057800004003400290001300065406027008030004000,684251973719643852325978146942736581157892634863415297271389465496527318538164729
507306002800040900913000040030160008000009105006207300000050607080010000094870020,547396812862741953913528746439165278278439165156287394321954687785612439694873521
500004306860200790700680005000500120409702003020000008204807001010005600030490000,592174386861253794743689215376548129489712563125936478254867931918325647637491852
600004370082305000090078001004080702000061000508000049007100020130920600900003507,651294378782315496493678251314589762279461835568732149847156923135927684926843517
000014035006000040700950810020600780003072506009800300312090000080400000460200170,298714635156328947734956812521639784843172596679845321312597468987461253465283179
009030805480600190037800200702003000003450007600012300000509006801070040500200908,269134875485627193137895264752963481913458627648712359324589716891376542576241938
054091000000006324370820001430200670100650080090007050000040000000703006842005900,254391768981576324376824591435218679127659483698437152763942815519783246842165937
000000270500140003680003090105290700360005000007006408230980060000027000096000810,413869275579142683682753194145298736368475921927316458234981567851627349796534812
002800005060109743000067900020070300007645200094010008040003501058200000001400097,972834165865129743413567982126978354387645219594312678649783521758291436231456897
580200640200054000000010300900007000603900280408030701109360800047009020800075100,581293647236754918794618352915827463673941285428536791159362874347189526862475139
300000160610032050052800094001008400020094800008706000065000940007023005090040071,384579162619432758752861394971258436526394817438716529265187943147923685893645271
532409800104700206000001000000008001360094070000030029605000700400856000028307400,532469817194783256786521934259678341361294578847135629615942783473856192928317465
020050047000001003036000900008912070009003850140860000605040302400080090082009100,921358647874691523536724918358912476269473851147865239695147382413286795782539164
005000701017002086230080000009040008000500400380006070060430015000007609948010200,895364721417952386236781954579243168621578493384196572762439815153827649948615237
000001006040080703780064050809502010200070900307000040002308600601400590000019200,925731486146985723783264159869542317214873965357196842492358671631427598578619234
170005300923400008040900006000801200510004009300026070000130067089700140000000950,176285394923467518845913726467891235512374689398526471254139867689752143731648952
070042000005700060020080590609000003210905040030164070800200016000009830100670024,976542381385791462421386597649827153217935648538164279894253716762419835153678924
103004060450008230070109000600001840820050107000400050008207410500600070090000300,183524769459768231276139584635971842824356197917482653368297415542613978791845326
001087003000000590407000001006004028800013070102560400005900080930805000060031002,591687243683142597427359861356794128849213675172568439215976384934825716768431952
067100080500900002801000705403092500008034600200000007709003240010000006045208000,967125384534987162821346795473692518158734629296851437789563241312479856645218973
500900021000370940080210600060009010003620700047000802430000070700001005802560430,574986321621375948389214657268749513153628794947153862435892176796431285812567439
030002048002390700600508003508070000140005690000004002370089050000610000801200036,935762148482391765617548923528976314143825697769134582376489251254613879891257436
009008053600004000008250700270600504004910360903002000010070009032001080005000140,129768453657134928348259716271683594584917362963542871416875239732491685895326147
203009018700543002006001500008150040600700000040200069010360004520000300009080075,253679418781543692496821537978156243632794851145238769817365924524917386369482175
095014000000009807210060009020048030006200905080957204108006070070400003004000050,895714326463529817217863549529648731746231985381957264158396472672485193934172658
730600050509300080001207004200009603800030070000401000450006900000700062302085040,734698251529314786681257394245879613816532479973461825457126938198743562362985147
002003071060040308005700020400608005003410802000090000010260003059800700080501094,842953671967142358135786429471628935593417862628395147714269583259834716386571294
000050010493100800005387029000600004851000000760928500002070653130006090000200007,278459316493162875615387429329615784851734962764928531942871653137546298586293147
820050901000800054000020060681900300000200416003007000704036002560708103090000005,827654931136879254459321768681945327975283416243167589714536892562798143398412675
200900006800240050901803070009780030010500902503006080087420600040000000600000105,234957816876241359951863274469782531718534962523196487187425693345619728692378145
083000000400900527700016040030000709940002360106008050050030400800670100002809000,583427916461983527729516843235164789948752361176398254657231498894675132312849675
026900507500004900018070026070103890304090002000700000009008204103609000280010300,426981537537264981918375426672143895354896172891752643769538214143629758285417369
081200007054001060003060015008037621000080790090000003270300400010096008000540006,681253947954871362723469815548937621362185794197624583276318459415796238839542176
000009004071230500802000103050018470080000009906000200040001600030690852000370000,365189724471236598892457163253918476784562319916743285549821637137694852628375941
040000375000428900000053002904861000700009800100000650070692130019000207006080000,248916375537428916691753482954861723762539841183274659475692138819345267326187594
300010020000268001900000700602890030050001049409507600000006250070000084135400000,368719425547268391921345768612894537753621849489537612894176253276953184135482976
300100000000007210702600409501720008208060590040800600005000020090003780600481030,359142867486597213712638459561729348278364591943815672835976124194253786627481935
203960051000004007875000900500600000030008400401052308962030700100000090007010602,243967851619584237875321946528643179736198425491752368962835714184276593357419682
809015600600003500030020170300052090000080007520640008060097040100208030000100902,879415623612973584435826179381752496946381257527649318263597841194268735758134962
010208050930001200004300068000080976007409001800050030050073004070600023600920000,716248359938561247524397168345182976267439581891756432152873694479615823683924715
000308060690050020020910705008002600170003004450700039007204800300060400004000100,745328961691457328823916745938542617172693584456781239517234896389165472264879153
900500001070040080062030490005701060000005900708000102150900300600007540003206000,984572631371649285562138497235791864416825973798463152157984326629317548843256719
870006402006000000000501009509080200080429060100003700040290803093700540000300001,875936412916842357432571689569187234387429165124653798641295873293718546758364921
001007000943000006600003045700000230500004901206038000302906500180045073000000820,851467392943512786627893145714659238538724961296138457372986514189245673465371829
038409700205800000090016020800037600016008009000050400970160008002090350040002070,138429765265873194497516823854937612716248539329651487973165248682794351541382976
003806000210070000070400529029085304840000000000900105730000406050610090000304210,593826741214579638678431529129785364845163972367942185731298456452617893986354217
064002390000001002807503106000020004019047000300009078075010000032604050080900600,164782395593461782827593146758326914219847563346159278675218439932674851481935627
000003576730600020001590800050034900007102048018060003000005700806400090029000001,984213576735648129261597834652834917397152648418769253143985762876421395529376481
680290000005010700002400106043060080520008903019000047030150204000309050007000069,681297435495613728372485196743961582526748913819532647938156274264379851157824369
703010600002648050040000020050109000006070030000002789309006800100053040500900270,783215694912648357645397128857139462296874531431562789379426815128753946564981273
080007200043659078001008009500060903700024600109000004000370061000806042050400000,985147236243659178671238459524761983738924615169583724492375861317896542856412397
008700403920500070000064020000005067105620008409087500007000030200890006530401000,658712493924538671713964825382145967175629348469387512897256134241893756536471289
817003009000840007030000065003005400460000020098200003009026010570008600086971300,817653249652849137934712865723195486465387921198264573349526718571438692286971354
009025080004001620030900100076200008905014007012050040600000005800040372500039400,169425783754381629238967154476293518985614237312758946643172895891546372527839461
920068000300070050004001209080039061000040702509100300600280007001500830007003400,925468173318972654764351289482739561136845792579126348653284917241597836897613425
