004037000850401600730860005009108024400009700083000050100000270500200008000740090,964537812852491637731862945679158324415329786283674159146985273597213468328746591
040050200000496005009001068370005000005270800098040010001030046007968050020700903,643857291812496375759321468374185629165279834298643517981532746437968152526714983
000004050057100020402000800720305060305860009800702001010530740600008300009406000,183624957957183624462957813721395468345861279896742531218539746674218395539476182
080200005060004920203060007050030800000910300049000060597002000400000056001308704,984273615765184923213569487152436879876915342349827561597642138438791256621358794
005036000020504007607000095010000048850000003900420060042009100000003084700600020,495736812128594637637182495216357948854961273973428561342879156569213784781645329
090006054030400892750802600900003078040051020600900000081030000400020103027004060,298316754136475892754892631915263478843751926672948315581639247469527183327184569
302056901000820700045000000900600000070090450500210800106080070000403200093000060,382756941619824735745931682938645127271398456564217893126589374857463219493172568
004270806100300002050006090290403150861007300040000009008749030005080000000002601,934275816186394572752816493297463158861957324543128769618749235325681947479532681
030006800020510007009800360003045010500980002600702049008070204100000000972000006,735496821826513497419827365293645718547981632681732549368179254154268973972354186
360041000800090107002600054010200800023000091609700500000070086040108700500036009,367541928854392167192687354415269873723854691689713542231975486946128735578436219
070000589600032004800090200480367000900050310060009000100004790050620030240000001,372146589695832174814795263481367925927458316563219847136584792759621438248973651
300000020691300058008067009200090005060000070080052104910030500070140803040900060,357819426691324758428567319234791685165483972789652134916238547572146893843975261
013709050076004281500000000300000000200060409184000500005290806490007102000308070,813729654976534281542186397369415728257863419184972563735291846498657132621348975
000027039000430650208060000006370200590800100017000060081502040603004900900000087,465127839179438652238965714846371295592846173317259468781592346653784921924613587
000006471904180000060030080050009860830700049700010005002500000500004216070900034,385296471924187653167435982251349867836752149749618325412563798593874216678921534
003060050002908007090301040906507403070090108000820000500600031709004002100070600,413762859652948317897351246986517423275493168341826975524689731769134582138275694
005290067800041900004360210107809004090600500008050370062017030530000000009000046,315298467826741953974365218157839624293674581648152379462917835531486792789523146
000008510008764000379000000002050000000020463803400700407300250500009680200140309,624938517158764932379512846742653198915827463863491725497386251531279684286145379
060500104730009050005780000816000327050000000400000089000240091100670008023090040,968532174731469852245781963816954327359827416472316589587243691194675238623198745
406170908070503100005006270009000031803200406040900700360021000208045000007800000,436172958972583164185496273729654831853217496641938725364721589298345617517869342
300984700090000000200570106000460000020005003680130900402810070031009800000347005,316984752597621438248573196973468521124795683685132947452816379731259864869347215
062003509100200400080094000000040006053900280024050701300007062000500190716800300,462783519139265478587194623871342956653971284924658731395417862248536197716829345
960000007001500480008200090005073004604800020000020130500010940129604000700305008,962148357371569482458237691215973864634851729897426135583712946129684573746395218
060500002519060004708001300000004090401602005097380000043050600006407180000800009,364578912519263874728941356635714298481692735297385461843159627956427183172836549
030000460900800002175206300010002030203900004600407800006700280048000015700350009,832195467964873152175246398417582936283961574659437821596714283348629715721358649
200010000073409002001300089002701050000008014800056900060872003490060001008000570,289617345573489162641325789932741658756938214814256937165872493497563821328194576
500040006064800510000900803010020030079680120050007900700000004040012380203005070,538241796964873512127956843816529437379684125452137968791368254645712389283495671
700004906590307020002080000010908607046000539030040000600073008009050014008201300,783124956594367821162589473215938647846712539937645182651473298329856714478291365
086100300300000240000070050000802590012065804007093006040207900095040000701050060,586124379379586241124379658463812597912765834857493126648237915295641783731958462
063402010805100009070300000190050800380260007000003604517900302000020508000007040,963482715845176239271395486196754823384269157752813694517948362439621578628537941
002006950600204000009150000070008304800070060510963008700600403031720009008001500,142836957657294831389157246276518394893472165514963728725689413431725689968341572
269005000870300104030090560000007000700200408502461300008004021601800007090000030,269145783875326194134798562943587216716239458582461379358974621621853947497612835
100950800028007060000100030760340900309782000045000000480260007006090340053000012,137956824528437169694128735762345981319782456845619273481263597276591348953874612
840691005632047080000000000000005712009030006000812900920480001063200040070006003,847691325632547189591328467384965712219734856756812934925483671163279548478156293
300968000090200634210047005075600010008030007001005906500010000762000080000400203,354968172897251634216347895975624318628139547431785926543812769762593481189476253
006004030080039245050008601010063478603000000009700100060005000701040302000020080,926514837187639245354278691512963478673481529849752163268395714791846352435127986
500090008406300700090607300030000420005201080008059007810500000020048013000700006,573194268486325791192687354931876425745231689268459137814563972627948513359712846
067038000900260010000001074003040980800000540520700000010650000400070391230900005,167438259945267813382591674673145982891326547524789136719653428456872391238914765
008030570000700090040021060005400800820090600000350027050000004200076013091803200,918634572632785491547921368175462839823197645469358127356219784284576913791843256
850143060004200780060000003000300000102790050040806090700009410410000600009008270,857143962394265781261987543976351824182794356543826197725639418418572639639418275
406120300090000070002489560008300050140000002620005900000070600000850190307604000,456127389891536274732489561978312456145968732623745918589271643264853197317694825
503008019120090060070005040800209001060070030405300020702840500000710003086002000,543628719128497365679135842837269451261574938495381627712843596954716283386952174
008703000105029006470050830094062000007395004000000501000000020600017049003280150,268743915135829476479651832594162783817395264326478591751934628682517349943286157
000015006370060029009000480007042900030000705650090008105004000080300107020850000,248915376371468529569237481817542963932186745654793218195674832486329157723851694
630580020041007009005094000360008005004020006080030290000109580700002104050600070,639581427841267359275394618362918745914725836587436291426179583793852164158643972
300090216004000070025006380002351400617004000050007000006040150780003002000068009,378495216164832975925176384892351467617984523453627891236749158789513642541268739
102608073700040100058300002230100005006009010009830000407005600001020900690700048,142698573763542189958371462234167895876259314519834726427985631381426957695713248
958006000006200048023017000000000604070952801080700590000400010200071003007638200,958346127716295348423817965592183674674952831381764592835429716269571483147638259
070430500608021040003006000540609002230007004006000170080004709100000060000982350,972438516658721943413596287547619832231857694896243175385164729129375468764982351
300400070801006000520070900000740103008500020006392400100250607090000048040609050,369415872871926534524873916952748163438561729716392485183254697695137248247689351
090406003203910007845000000004300700070082500600040001402500806100007902080600030,791456283263918457845273619514369728379182564628745391432591876156837942987624135
840000010100050987507100002400070623000008004035200700902630000010009305060041000,843792516126453987597186432481975623279368154635214798952637841714829365368541279
710000602200700005050308740006901200030000054021430900000060030000800009074205010,713549682248716395659328741486951273937682154521437968892164537165873429374295816
600002400000085207790001000005400821460050700000903005200070058000834060103000900,658792413314685297792341586935467821461258739827913645246179358579834162183526974
801070300060230500400009070000065890107000000006800203200006080050002004904300601,821574369769231548435689172342165897187923456596847213213496785658712934974358621
903000008008061090070000045700000002500890060641350900020019370160008200000504000,913475628458261793276983145789146532532897461641352987825619374164738259397524816
800510700057020001900400308680003009020000600000072034040030090309800520501006000,836519742457328961912467358684153279723984615195672834248735196369841527571296483
280070040300800701009400530008043000740006050013020009001500600090008000500090802,285371946364859721179462538958143267742986153613725489821537694496218375537694812
900000002002004106053000040400902001000630750086000000510060087067053009000400020,941386572872594136653721948435972861129638754786145293514269387267853419398417625
200710006800004910007030048470000050030021600605080093004650300080000025010040000,249718536853264917167935248471396852938521674625487193794652381386179425512843769
600000030390586000271004000040300085108000060000070902700043020060090704050810690,685721439394586271271934856947362185128459367536178942719643528863295714452817693
005003491009568300200000000400057000001004006008230007010872030760090014053600009,685723491149568372237419568426157983371984256598236147914872635762395814853641729
009300045006040813000210000100806020030590107405000090570100602003070400020000080,719368245256947813348215976197836524832594167465721398574189632983672451621453789
008000030900670021560309040140000890000007005072805000307502009080704603400000100,728451936934678521561329748145236897893147265672895314317562489289714653456983172
054200008009007041800056030070003200020098005601000000906032807000900400130070650,354219768269387541817456932578143296423698175691725384946532817785961423132874659
010200040070900008200085703000306090840010006302007050400050210005039000087601004,618273945573964128294185763751346892849512376362897451436758219125439687987621534
025090170100006304009007200030970510060308000002610040800004009000030482070050000,625493178187526394349187265438972516561348927792615843813264759956731482274859631
000003020308040075025096400000000507564700301903000260016904000007052080000080104,641573829398241675725896413182369547564728391973415268816934752437152986259687134
003075089200800030090400716450200000000001300001509602028010900000060405304000078,643175289217896534895423716456237891982641357731589642528714963179368425364952178
000046090560908700003000002804600070006250100100703000010007053702100908490800600,287346591561928734943571862824619375376254189159783426618497253732165948495832617
004039000690400000007100200000050038080000192329040670002678300073200004150000000,214539786698427513537186249761952438485763192329841675942678351873215964156394827
010403600040680090509002300038520009001000028070000000003060140090704002026001003,812493657347685291569172384638527419951346728274918536783269145195734862426851973
030060570780004000010908064970050102042300680008002009300000090000710200650400803,439261578786534921215978364973856142142397685568142739321685497894713256657429813
000006489500007620020090007005001002000060831039008500067802040001003000048509300,713256489594187623826394157685431792472965831139728564367812945951643278248579316
029603000710040306080050020930000510608700004100200098003010700504000000060470800,429683175715942386386157429932864517658791234147235698893516742574328961261479853
010083000090706300008000950420070000079804065000300071003528040005400130002009006,517983624294756318638241957421675893379814265856392471163528749985467132742139586
375001080600000010900762400230604900508003200000900070000800306060049100010200548,375491682624358719981762435237684951598173264146925873452817396863549127719236548
006045070271060000008000309307080600090300108012004050000059810000706020500020400,936845271271963584458217369347581692695372148812694753723459816184736925569128437
029050300750000096008004000006580012890007400030100007002030700040605008013900240,129856374754312896368794521476583912891267453235149687582431769947625138613978245
004789100008004209300600005000005496000370000051040080490800020605002030780160000,524789163168534279379621845837215496946378512251946387493857621615492738782163954
000049080420030000903785201039000004002100078007000600050000003000096500801300067,715249386428631759963785241639578124542163978187924635256417893374896512891352467
000040720026903004071005000900607080250030100000200045000700850045008296603000001,539146728826973514471825639914657382258439167367281945192764853745318296683592471
090007042800100000547008030008600570020090000300805010450900100170026008009704003,691357842832149765547268931918632574725491386364875219456983127173526498289714653
010000020000870309057602000000006900983007060720050130600080012002105780000034500,819543627264871359357692841541326978983417265726958134635789412492165783178234596
070638004000000000134007006260080010001700250903400070000260040429001300780500900,572638194698154732134927586267385419841796253953412678315269847429871365786543921
003400060504001000701300005000092004806070009120800030050600923000005800000249701,293457168564981372781326495375192684846573219129864537457618923912735846638249751
040000078805230900100079030080060507460100020953000001002306094000001860000097000,349615278875234916126879435281963547467158329953742681512386794794521863638497152
004500000230007080809260100700093608000600239060040000500000000010409700008051024,174538962236917485859264173725193648481675239963842517547326891312489756698751324
000060000004700309003502180280004006370601250050090000060830090100009020048000730,817963542524718369693542187281354976379681254456297813762835491135479628948126735
100000053000080640508070209000100460691200000030005700265008000300400100700039008,176924853923581647548376219857193462691247385432865791265718934389452176714639528
090000060200004908300750021500020173002000000069870002004005300800010059070608014,491382765257164938386759421548926173732541896169873542614295387823417659975638214
090000000000583109700400620040109005100000906030240708082700000405860007603005400,391627854264583179758491623846179235127358946539246718982734561415862397673915482
000081903060000100087034520000009030905200708014070000041057002023098040000060350,452681973369725184187934526276819435935246718814573269641357892523198647798462351
000004080051870003009012704307080009165200030000700502800000090094103200200050046,732594681451876923689312754327685419165249837948731562816427395594163278273958146
900600203020000168100070000000315000368042700050007900003500800002009045740080009,984651273527493168136278594279315486368942751451867932693524817812739645745186329
900108000045007061100520073000000000030705408007036005804000009050801320006009700,973168542245397861168524973591482637632715498487936215824673159759841326316259784
490010000000007120060390050500040037009000001641070500230680070700034086000002400,497215368853467129162398754528149637379526841641873592234681975715934286986752413
860005003090030070003809460030000000618070240059621000700008090000462030000100805,862745913194236578573819462237984156618573249459621387721358694985462731346197825
090730010520000000008405700004000630700800592600010800140673020000109006903280007,496738215527961483318425769284597631731846592659312874145673928872159346963284157
070920300000006010810000509000042070409008036006050008530010007164700020200003400,675921384943586712812437569381642975459178236726359148538214697164795823297863451
