090080500010093702500007040600001020308000004200875006037200090005060003804100005,793482561416593782582617349659341827378926154241875936137254698925768413864139275
900304087006012504050078000045001090701209000000000063300007019000080256004000008,912354687876912534453678921645831792731269845289745163368527419197483256524196378
700400816060120000500070003012030000007860390008009045080957004049080060000300002,723495816864123759591678423912534678457862391638719245286957134349281567175346982
400950001200040950070082030085006090000300140020001700000709500000230074036010080,463957821218643957579182436185476392697325148324891765842769513951238674736514289
609300804008002005200010069050000300001030040020678090080140072000706000504090018,619357824748962135235814769957421386861539247423678591386145972192786453574293618
270050004163009005000600010410800360020000790008002400600084079007000080900035100,279158634163479825854623917415897362326541798798362451631284579547916283982735146
090007180700301040004600200080009050010028900500170300072000095000754000803060400,695247183728391546134685279286439751317528964549176328472813695961754832853962417
030600040015703209800042001000004800900106005627000030060020000079800050240090087,732619548415783269896542371153274896984136725627958134568427913379861452241395687
200000000040001306930870150700900413000058009460013020070200500010630004308000207,251396748847521396936874152785962413123458679469713825674289531512637984398145267
005008301001279080009010042007325060004000007260100000072000004800004500040030109,725468391431279685689513742197325468354986217268147953972651834813794526546832179
080000520300504001100980037090040350000800000270610000038706090950100604600009280,784361529329574861165982437891247356546893712273615948438726195952138674617459283
587400000600900401900000073010580000020360090000002607003090500850701906160030042,587413269632978451941256873716589324428367195395142687273694518854721936169835742
060204870008950042001000000602008305000010009043600080000007190709003024500820006,965234871378951642421786953692478315857312469143695287236547198789163524514829736
039560100500400000072030409090005302000906071840010600003120500780000060000078003,439567128518492736672831459196785342325946871847213695963124587781359264254678913
009006030032040810178000006006080005820039000014020790000250470547003900000000601,459816237632547819178392546796481325825739164314625798961258473547163982283974651
010260803803007020090400051000906304050000690000174000704090008065008070300000102,517269843843517926692483751278956314451832697936174285724691538165328479389745162
078000054310065002002000900960084000000050310085027600200890000400001890001046070,678932154319465782542718936963184527724659318185327649257893461436271895891546273
750902000000060017081043506000500090500087301063001040095000600000320009134000800,756912483342865917981743526417536298529487361863291745295178634678324159134659872
500000071200596800000200069073000100060348000940060005008710003030005000001400792,596834271217596834384271569873952146165348927942167385428719653739625418651483792
657010900900000004002008075090500800806200030000300406014006350000704062205090008,657412983938675214142938675493561827876249531521387496714826359389754162265193748
400080650329000000006007901001030084050000270000650000030025107260100000070904820,417389652329516748586247931691732584853491276742658319934825167268173495175964823
704090620900000107030068450180040970000350000009001002305200040000004093012007006,754193628968425137231768459183642975627359814549871362395286741876514293412937586
032107800050006009000200400870000040013900002200603071098050600407000200001408093,932147865754836129186295437879521346613974582245683971398752614467319258521468793
510600000000500034207009010000090870075400160809050400003780600000000002480213950,514632798698571234237849516142396875375428169869157423923785641751964382486213957
000400003780009162391700050000067200200050890805000004900005340010902700468300000,652418973784539162391726458149867235236154897875293614927685341513942786468371529
080100095000800700360520400703005064150040070009280500001090200200001380094700000,482173695915864723367529418723915864158346972649287531531698247276451389894732156
510673000920001000070050308000024039490000500000018006000082040046700021100030957,518673294923841765674259318867524139491367582235918476759182643346795821182436957
006309058000068700004170020001000070700030804040052903035800000020503081069400002,276349158513268749984175326391684275752931864648752913135826497427593681869417532
704160000510000007000008003020513080040000100600780039009300860005002090002607304,734165928518239647296478513927513486843926175651784239479351862365842791182697354
009200300400070092086030015843002507010050009002600000750094006000001000020786403,179265384435178692286439715843912567617853249592647831758394126364521978921786453
100000790280147000005098000000050006028004150903800020000006013870300900300200504,146523798289147635735698241417952386628734159953861427592476813874315962361289574
093100020080030007001059064000200740600001502000083090004600000100027058870090630,493176825586432917721859364918265743637941582245783196354618279169327458872594631
000004501056023700810900006007340090002000608004061305070859200600700003290000010,729684531456123789813975426567348192132597648984261375371859264648712953295436817
000700001037020000010589340803205000079000406000000005004076090095103082086900700,958734261437621958612589347843265179579318426261497835124876593795143682386952714
000000370009147000506003100083500040400002010050790020010086002340000500902400008,124658379839147256576923184283561947497832615651794823715386492348279561962415738
009008700004062001057040038020930000501024060600500890000607240470010500082000100,169358724834762951257149638728936415591824367643571892915687243476213589382495176
008000000020096710107035090060124500030007940050080602005003000000400120904070058,698741235523896714147235896769124583832567941451389672285913467376458129914672358
005840070381900000070023060003100802090005610047000009000000400002318000009760230,625841973381976524974523168563197842298435617147682359736259481452318796819764235
000040001006970003200605087403000006700530010190807020007006000020080430359001600,978243561516978243234615987483192756762534819195867324847356192621789435359421678
000100090000004100047050032028790000001800069060003850002400700079020306453080000,386172594295364178147958632528796413731845269964213857612439785879521346453687921
006320090019705032000800750060100380087000001052003609201009007000000504040608000,576324198819765432423891756964172385387956241152483679231549867698237514745618923
800100045000700601203064000790600000050020060430008102570003980001405300009000004,867139245945782631213564798792641853158327469436958172574213986681495327329876514
800960003900000762000002050001380000030005209000001004063024801007193500020800400,852967143914538762376412958241389675738645219695271384563724891487193526129856437
069025000000000146708001000600043829300700400085090030004050903020008700507060001,169425378253879146748631592671543829392786415485192637814257963926318754537964281
050900104201600090007003008030096500920050370006004081300007060000410007049000800,653978124281645793497123658138796542924851376576234981312587469865419237749362815
000860000530000000120470306000008247009000510070210003607050080000006705400009021,794863152536921874128475396361598247249637518875214963617352489982146735453789621
050009040010086300000302008045060180000204009207090005000018020029400000301000760,853179246412586397796342518945763182138254679267891435574618923629437851381925764
702068000009003280400000370057920400140500908003000000000490105010670030025001004,732168549569743281481259376857926413146537928293814657378492165914675832625381794
040000005090370400102056390008090756900287000301000000000030060050940200200600978,743829615596371482182456397428193756965287143371564829819732564657948231234615978
800000013040907500006000980079020306650034290001500400500800620002001007380260040,895642713143987562726315984479128356658734291231596478514873629962451837387269145
900200003874030250000050076030005708600082010001640390209700400300010000065008009,956271843874936251123854976432195768697382514581647392219763485348519627765428139
000857900030046570010000000001530200600070001240090730002000300009012006084300005,426857913938146572517923684871534269693278451245691738162485397359712846784369125
040603010095800000210009700400902306730008250050107800100205069008004520000000003,847623915395871642216549738481952376739468251652137894173285469968314527524796183
301004700082007006000300500500409028006510000800020410400600030030001009060870250,351964782982157346674382591517439628246518973893726415428695137735241869169873254
000005200917200506040800010800009005100704030236080400005068049090350800760000000,683915274917243586542876913874639125159724638236581497325168749491357862768492351
091326500060905004700040300030000001086030029004702008003401062000800170509000040,491326587368975214725148396237689451186534729954712638873451962642893175519267843
306208040000000007005619002208094000760002090000100508014500600000080004520700301,396278145182435967475619832258394716761852493943167528814523679637981254529746381
103968500007003609000754000946000700800095003200100040000000000714680020580020010,123968574457213689698754132946832751871495263235176948362541897714689325589327416
000000680019040000704035020400000978005010063200709500500400010006023007803900406,352197684619248735784635129461352978975814263238769541597486312146523897823971456
170002300206904080048000900000060430007030059000805100090100820860700540010350007,179582364236914785548673912951267438687431259324895176795146823863729541412358697
400900050005001806003020007090480072010006508300075400008600391007850020640000000,471968253925731846863524917596483172714296538382175469258647391137859624649312785
020000530164500097003204080005009020001070603000400000900007050708032001410608000,829761534164583297573294186645319728291875643387426915936147852758932461412658379
203506014100000280007004600050870400708000039060901000409020000800609100030745000,293586714146397285587214693952873461718462539364951872479128356825639147631745928
203580001000000740406090802009063000600205090800017520740100003002400050198300000,273584961981632745456791832529863417617245398834917526745129683362478159198356274
005219403701000006430005090010740052360001089007060000800000207000080060050390004,685219473791834526432675198918743652364521789527968341849156237173482965256397814
000704000030020080180900602004002009070000825905036001200008700008060130640190000,562784913439621587187953642814572369376419825925836471251348796798265134643197258
071020800400300009009086541040007005050900310203001080710054006000070000860000027,571429863486315279329786541148237695657948312293561784712854936934672158865193427
000708040500026807100000209090004002007090003200500600010039050760201004430050008,926718345543926817178345269391864572657192483284573691812439756765281934439657128
750008030000100460009050002482063001106040087000900020001006000043090506805002703,754628139328179465619354872482763951196245387537981624971536248243897516865412793
109000408060100000750068009902000056000530100015240090800013700403002000020087604,139725468268194573754368219942871356687539142315246897896413725473652981521987634
703198000940700030068000020500470100690000002000320495089000000300040007271600050,723198546945762831168534729532479168694815372817326495489257613356941287271683954
900056008807031020046000370300000092000285000460070001008010654034098000000502800,923756148857431926146829375385164792719285463462973581298317654534698217671542839
007800040010907200900003086040509000020008974000006310830601520005000030070205408,367852149418967253952143786143579862526318974789426315834691527295784631671235498
954002610000500804200130009308000700070090450600270030060800007029000300437020006,954782613713569824286134579398451762172396458645278931561843297829617345437925186
048092005931070020070000600052006700100000043000108000007000498010729300560083000,648392175931675824275814639452936781186257943793148562327561498814729356569483217
500816309036000100000090002602030080090600504040709601000504070803002005070080010,527816349936247158184395762652431987791628534348759621219564873863172495475983216
000040010008300006650000903000005080960470200003062041806201004300780000100690570,239546817718329456654817923427135689961478235583962741876251394395784162142693578
670000050005080019300402706094300200100007500003005008000000043001290870800060001,678139452245786319319452786594318267186927534723645198952871643461293875837564921
060000205203070180001030004070106000048009050305000029500407093100980060480003007,764891235293574186851632974972156348648329751315748629526417893137985462489263517
009000103000002040054681002097008000600100439001460500502000000000073906060050017,829745163716392845354681792497538621685127439231469578572916384148273956963854217
200009007000028540384001000000070904541300020020000060730100009000580630605040002,256439187179628543384751296863275914541396728927814365738162459492587631615943872
010605700050082300009070020200407600063010000004000890090023160007004905038100040,312645789756982314849371526281497653963518472574236891495723168127864935638159247
000607830020810000000040591070000120810070900035008040080304070600900010200050604,154697832329815467768243591476539128812476953935128746581364279647982315293751684
000802300004500600209003840700050201530418007096000000000170500850630020060000190,675842319384591672219763845748956231532418967196327458923174586851639724467285193
015094003000700060680003000030021070074060130860050009308200900900005406000870052,715694823493782561682513794539421678274968135861357249358246917927135486146879352
780000450000051090030600010008200347200009000100764008000092080049030200506470100,781923456462851793935647812698215347274389561153764928317592684849136275526478139
050200600910006007000901830007080043390050001001004006680403092400700000002800050,753248619918536427246971835567182943394657281821394576685413792439725168172869354
408000000062003901000200043090620300010037690070040050307500800500060102006908005,438791526762453981951286743894625317215837694673149258347512869589364172126978435
060400502425300080038010000600809000700230001040075900201604007000000450090780016,167498532425367189938512674613849725759236841842175963281654397376921458594783216
008000902004080160090037050100400705020000040000259803001006300040023070580700096,718645932354982167692137458139468725825371649467259813271596384946823571583714296
860050090040270030000190020080000001406700005901034760703600850500000200020019400,862453197149276538375198624287965341436721985951834762713642859594387216628519473
320100009854003002000005600680040070091007850400280003007900086000730100500006400,326178549854693712719425638683549271291367854475281963147952386968734125532816497
065013008400000302730080000009107060040050000810024709000790003006800100952060080,265413978498576312731289546529137864647958231813624759184795623376842195952361487
020580000400900070050063109610708000200305800000090415736000080000004000090802603,921587346463921578857463129615748932249315867378296415736159284582634791194872653
200800610409000280000050000008105004023400007007009860030020100806003970950060030,275894613469317285381652749698175324123486597547239861734928156816543972952761438
000009000326071004014386007090000800080050102500000743050803000209000010700904060,875249631326571984914386527197432856483657192562198743651823479249765318738914265
076080500020960108400003020009700810040206050752001400305000600960000000000048030,176482593523967148498513726639754812841296357752831469385129674964375281217648935
105870000009502007600000090300010029004020510080030706502403000047000300910000068,125879634439562187678341295356714829794628513281935746562483971847196352913257468
280170000403000009005890700050001647000008105940500002700300064010429000020086030,289173456473652819165894723852931647637248195941567382798315264316429578524786931
402007030300490860000100050900040000060000718028050900005000002873600001010300486,482567139351492867796183254937841625564239718128756943645918372873624591219375486
