050700000920063480080000560090026001307105009000300640800004010072000000506007208,654782193921563487783491562495826371367145829218379645839254716172638954546917238
094600705600734000200008100009005320430200800108000009507400082000010000000809560,894621735651734298273958146769185324435296817128347659517463982986512473342879561
805701060004080000310040020090006003000020501070400980006005014001007300730800002,825731469964582137317649825598176243643928571172453986286395714451267398739814652
005802000090000034230600051070003000010080026000570940720006410400100390380097000,145832679698715234237649851974263185513984726862571943729356418456128397381497562
002600000410507020800003591040020060065900017100300800000800409080100076709005003,952618734413597628876243591348721965265984317197356842631872459584139276729465183
020837010000000500763400900030021005941000087057000006000249001106000040070063800,529837614814692573763415928638721495941356287257984136385249761196578342472163859
080000002019052780000030450002089503060200100937060000000507824421006300000000009,584671932319452786276938451142789563865243197937165248693517824421896375758324619
100000470006300980952000610083471000009200000507806000800027050060005108000104009,138569472476312985952748613283471596619253847547896231891627354764935128325184769
700006020008000500009457006900802050130040800025639040407090130000500068000001009,753186924648923517219457386974812653136745892825639741467298135391574268582361479
802601409100000007060042500480050000035800706970200800320019040000005390004086000,852671439149538267763942581486157923235894716971263854328719645617425398594386172
700002603050190007002040050085910040030000012096704800600050071001408000320600080,714582693853196427962347158285913746437865912196724835648259371571438269329671584
590000004008000700400100052053009000006037910020640308000702490100053800200901060,592376184618524739437198652753819246846237915921645378385762491169453827274981563
080210000300006800702340010060070490017000008934025601190000054400090203000780000,689217345341956827752348916865173492217469538934825671198632754476591283523784169
090004005867000003000006810040098000320705009080360000250410600009200401003057200,192834765867521943534976812745198326326745189981362574258419637679283451413657298
005000471000510020203907080080000300040070516301002040008460007760300000100025009,895236471476518923213947685687154392942873516351692748528469137769381254134725869
040801070600040300080260000509000130012003090070500640031004509004196020700002008,945831276627945381183267954569428137412673895378519642231784569854196723796352418
902701800000290060700400300040000509109620708000850010600170040027036900008000005,932761854584293167761485392846317529159624738273859416695178243427536981318942675
030009008050006204604107000370050010002000600008400093100600807005283000049010020,237549168951836274684127539376958412492371685518462793123694857765283941849715326
015709004006100907000080030104500070200406003070908020400300580002061000009050306,315729864826143957947685231194532678258476193673918425461397582532861749789254316
800060350070302040201090000600010893107009000043250007409001200000500079000000468,894167352576382941231495786652714893187639524943258617469871235328546179715923468
300800010271006500580003609700030900060700108009040026807000351610050000003004200,396875412271496583584213679728631945465729138139548726847962351612357894953184267
000068000070403250013090007068100004400500823000000070140800905900001060327050040,254768319879413256613295487768132594491576823532984671146827935985341762327659148
700640020000000907030001804006500300290310405001700680003008000020409501605000200,789645123164823957532971864476582319298316475351794682913258746827469531645137298
840507390960803040000000017009400600035002000002076100500609000008000002700031084,841527396967813245253964817179458623635192478482376159524689731318745962796231584
035000000040010726200090803701802605400009300000640010002981500069500102000000087,635728491948315726217496853791832645426159378583647219372981564869574132154263987
028040030600500127900036008007002384050014906030000200009800005014760000200091000,528147639643589127971236548197652384852314976436978251769823415314765892285491763
001000026007630805000002307604050701053190200900004000080370000006210000070060508,341587926297631845865942317624853791753196284918724653489375162536218479172469538
300020009450900080070400602507000016013805000920003000801067900000190807000002045,368721459452936781179458632587249316613875294924613578841567923235194867796382145
354600080001320009200000470009010300702005006103089040008000600600043807000500902,354697281871324569296851473549716328782435196163289745938172654625943817417568932
218040009904065008300000700002009805041007200000280004005600010690020003080070060,218743659974165328356892741762419835841357296539286174425638917697521483183974562
090410706502308904000007000800906000040003080056040002680100057010000403007002190,398415726572368914164297835823976541741523689956841372689134257215789463437652198
002000941809402000500003007000000020004307890203865000957010060000600010600738400,372586941819472536546193287785941623164327895293865174957214368438659712621738459
000000860300900072906002450400021008007680301190704000010845900050010200830000006,271453869345968172986172453463521798527689341198734625612845937759316284834297516
000000500810604009329010000000708106064509020700140003400000070978003004030060805,647392581815674239329815467593728146164539728782146953456981372978253614231467895
007068049040003000198005006010057080054900070030000020062300100500200390000040008,327168549645793812198425736219657483854932671736814925462389157581276394973541268
906450008003070100001000769000540003000107500280960010350800002010000684090020050,976451238823679145541238769167542893439187526285963417354816972712395684698724351
001000070006097520030062000500083200079004600020900304807026049100840005000051060,291538476486197523735462981514683297379214658628975314857326149162849735943751862
000960800720000600003000001600004080500302009084095017870020953036070020250001040,145967832728153694963248571692714385517382469384695217871426953436579128259831746
400000000760100300001040859070200605306409001000080037948010060500000003000792040,485923176769158324231647859874231695356479281192586437948315762527864913613792548
060507010240090036010000708070041053500000960008900200102860040700015020093400000,869537412247198536315624798976241853521783964438956271152869347784315629693472185
010078000009000000065412008004050080082000573070090401090084065000000304307001092,413978256829635147765412938134257689982146573576893421291384765658729314347561892
400705306200093007010000050104306290000010000053079040000400009680002100702980003,498725316265193487317648952174356298926814735853279641531467829689532174742981563
070090360000010005900520100060005000300840009504300078041006020030280010600009700,175498362423617895986523147268975431317842659594361278841756923739284516652139784
000090003900600420067100008501009600070301902000400000039000057010083040826570010,142895763958637421367142598581729634674351982293468175439216857715983246826574319
300006052900000070078090360056100004100009200000072005025040080009503600704801000,341786952962315478578294361256138794187459236493672815625947183819523647734861529
697000300000000005300806120820015400700060000001039760180090200000300940004507030,697152384218943675345876129826715493739468512451239768183694257572381946964527831
486000000000057000300000269900310057003008600001742008100065072852900000090000004,486239715219657843375481269928316457743598621561742398134865972852974136697123584
001800357000600290430070001370190460850004070000050000040025700098060002100000940,261849357587613294439572681372198465856234179914756823643925718798461532125387946
509800740042000060000007300400900010800063209007501006200039057195020000300108000,539816742742395861618247395463972518851463279927581436284639157195724683376158924
000900000007020108010000430040160070509830000600009845028400067000002301003507090,385941726497326158216758439842165973579834612631279845928413567754692381163587294
000700204540608070031090065400009003060073089100825000009000006050002090807040300,986751234542638971731294865478169523265473189193825647329587416654312798817946352
048705100000008002107030000000200087054001900970003060060390008400052096201800040,648725139539418672127936854316249587854671923972583461765394218483152796291867345
209008704063504020000010035004061093080092160000000000500000270030700809400086001,259638714163574928847219635724861593385492167916357482598143276631725849472986351
061800007000091050009760240050030826002078004000500903403920000700005000090340100,261854397374291658589763241157439826932678514648512973413926785726185439895347162
010004765020038490700000000300005218005070000002190006970051003004200007050360080,813924765526738491749516832397645218165872349482193576978451623634289157251367984
050200000038050209000013600070006403809020001000400952500602008702500000160970000,451269837638754219927813645275196483849325761316487952594632178782541396163978524
640008500008900007900700402001060820472300900850400000000030100030095060160004209,647218593528943617913756482391567824472381956856429371789632145234195768165874239
520034007090080030004069810000010500000403690930002070200500080015607002700008006,528134967691785234374269815487916523152473698936852471263541789815697342749328156
016070300000940107307500028000000785802400000950300006140608000065090003003210600,416872359528943167397561428634129785872456931951387246149638572265794813783215694
051000360900246580080000200090730002000500710006000000000300050103090407075602800,251987364937246581684153279598731642342569718716428935829374156163895427475612893
300060000000504100200001695900300010070206004804100200160070030090080050703002840,315769428689524173247831695926348517571296384834157269168475932492683751753912846
870001302000600509951400060004853000060009207000000000005000906030010024498706050,876591342342678519951432768724853691563149287189267435215384976637915824498726153
075300200000470009803016045007050060160900030000002804050030100004708600006090007,475389216621475389893216745247853961168947532539162874752634198914728653386591427
506003700000600518040000006080900030957004001300850200603010000492006000800279040,526183794739642518148795326281967435957324861364851279673418952492536187815279643
078050001230900406149080503000005640784200000050300010000076020001004900000830005,678453291235917486149682573312795648784261359956348712593176824861524937427839165
901070000000009070020453009003600052050004890007008063870016000046900027200300500,961872345534169278728453619483691752652734891197528463875216934346985127219347586
100308690000706000408000100000095010534002006000000074800021000079600350650000042,127348695395716428468259137786495213534172986912863574843521769279684351651937842
457010600100580040030007000209000004060803200870000509000061320920700000086450010,457319682192586743638247195219675834564893271873124569745961328921738456386452917
700000403100060920506002801040000006802900100010438700300094000080270050000105007,728519463134867925596342871943721586872956134615438792357694218481273659269185347
000047100702030009003610058000000073009860210051003906008005607067021500240000000,586947132712538469493612758624159873379864215851273946138495627967321584245786391
200301040014008790986700000040280060008457310700000200570060002000009471003000800,257391648314628795986745123149283567628457319735916284571864932862539471493172856
705000008803020400049310000071063900050000870308004020902150000000080006000600017,725946138813725469649318752271863945456291873398574621962157384137482596584639217
100860032390010604087020000008003000020000500403795001001002009036400058005000410,154869732392517684687324195518243967729186543463795821841652379936471258275938416
108050790020003154000400200005000030090618000607040900801702000009060007030089602,148256793926873154573491268415927836392618475687345921861732549259164387734589612
300000042400008109096007000120400900700002050805000603010083070600090310002016804,381659742457328169296147538123465987769832451845971623914583276678294315532716894
059700806000040030080020700010958000700000015300002640006017400001203000502480390,459731826267845139183629754614958273728364915395172648936517482841293567572486391
600070400030026107000400820504098000009014060870360005900005000200030001008001609,682179453435826197197453826564798312329514768871362945913685274246937581758241639
007568001203190045800004907090200080500000200000700056004810003001005078300406000,947568321263197845815324967196253784578641239432789156754812693621935478389476512
000567340708309500000010200450180020061004003080670050003205006010000070906040800,192567348748329561635418297457183629261954783389672154873295416514836972926741835
100000800067005900490203706204000003050408000070906050023650009608007004000010007,132769845867145932495283716284571693956438271371926458723654189618397524549812367
803000000020040658050010700910402500600050809000000071500208460006030090204107300,863725914127943658459816723918472536672351849345689271531298467786534192294167385
006040100000270094008530200107029000320000001054307600492000008010400060080000037,276948153531276894948531276167829345329654781854317629492763518713485962685192437
800730051109000003007204600050008040400076108000090300000603802906180000004052710,862739451149865273537214689651328947493576128278491365715643892926187534384952716
000657000700020016000901004060040005094082000310009072421000080800000539950800000,149657328735428916682931754267143895594782163318569472421395687876214539953876241
005190000000000013004052700620840900000000064030206800760900005082301070001007026,875193642296478513314652798627845931158739264439216857763924185582361479941587326
800605207010003650007000080709004000000290500000780003030142060064000108500300092,893615247412873659657429381729534816386291574145786923938142765264957138571368492
203050000040210060000708000070900080005802310130074002910600834000100006850007900,283456179749213568561798243672931485495862317138574692917625834324189756856347921
507096030000000000300142000069003150403200768801507004000008907006000500200034800,547896231612375489398142675769483152453219768821567394134658927986721543275934816
008150000407000080090300726520001300074630000000278000001040260000560003080002905,268157439437926581195384726526491378874635192319278654951843267742569813683712945
070620000000079005050800900490107600006003041037004000000000152542000309981300060,379625814618479235254831976495187623826593741137264598763948152542716389981352467
006280000030000050000076014041020900570913000600007080082400003900000147050039006,416285739237194658895376214341628975578913462629547381782461593963852147154739826
052060007600402300000790008380001050010200079097804601001007020009003000024680500,952368147678412395143795268386971452415236879297854631831547926569123784724689513
020007590000034010810600400001700000506013029007902850940000600000000073600805002,324187596769534218815629437291758364586413729437962851942371685158246973673895142
000000406800597000021030080030001700412076500708300020005408103003000090240900070,397182456864597312521634987639251748412876539758349621975428163183765294246913875
090000816000709500304080700600100000030000075127400063060200480900031000000605020,795324816286719534314586792659173248438962175127458963563297481942831657871645329
003400900006802073917000400040006590005200080060100000001007030034905602080310000,823471965456892173917563428248736591175249386369158247591627834734985612682314759
120080309006000000090460052709000040600107025080003900800509100401300008030810570,124785369576932481398461752719258643643197825285643917867529134451376298932814576
000702005800300000000058316093100004000000972604005080306901708009006050180074000,431762895865319427927458316293187564518643972674295183356921748749836251182574639
009508140300000870006024000700005389050040000128300600000100900082090400600007035,279538146345961872816724593764215389953846721128379654437152968582693417691487235
013806500000200160800015020035070904907050000002001350000007000059008032060400090,213846579574239168896715423135672984987354216642981357328597641459168732761423895
