240006078100040000000207005834010506090000302006890100607000009000305020000689004,243156978175948263968237415834712596791564382526893147657421839489375621312689754
200500090000004051508900420300180700060000010029060083070800900032750000400030605,246518397793624851518973426354182769867395214129467583675841932932756148481239675
900080003400106005030004068027003090600457010040200000079600080260000030100098720,916785243482136975735924168527813694693457812841269357379642581268571439154398726
080423709040700018600000200057140003209005004400069000000000050096010837308000406,185423769942756318673981245857142693269375184431869572724638951596214837318597426
500001037000500090108072000643000800700230050290010000007840600006007304820006501,569481237472563198138972465643759812781234956295618743317845629956127384824396571
000000008610207530000400710900060027304010000705008009070006850040130900159002000,437651298618297534592483716981564327324719685765328149273946851846135972159872463
020050000601090007970008002000074203080000904000031680700500008035712006490006050,328457169651293847974168532569874213183625974247931685716549328835712496492386751
810039006007004020050000390600300250900281000700000800208070041004100063000605700,812539476397864125456712398681397254945281637723456819268973541574128963139645782
002049805600000020000500071020000036103004500067008900015700204000235700008000000,732149865651873429489562371824957136193624587567318942315786294946235718278491653
608004327250600000009103008001760240702040059000058016000000030890000005347000000,618594327253687491479123568581769243762341859934258716125876934896432175347915682
080000006000051904005400700002697580009210067050080020000976002703500000964003000,481739256276851934395462718142697583839215467657384129518976342723548691964123875
004910083029058007500630002007201009680500000003040015042000096006800000170000420,764912583329458167518637942457281639681593274293746815842175396936824751175369428
300920865004070000950000001008041050090000036206000180080300970400006000579000020,317924865864175392952863741738641259195287436246539187681352974423796518579418623
503072008001960075040080000084030060260100000070000149030097000600000200918045700,593472618821963475746581923184739562269154387375826149432697851657318294918245736
090017004084000210050406070500194060600050020000300809042900035103800000070020108,396217584784539216251486973528194367639758421417362859842971635163845792975623148
506008000000016039018700000069020400105430006200007050080000100000200097030954020,596348712427516839318792564869125473175439286243867951982673145654281397731954628
008902600301540700250070000090004023710280500000060800005390080623015040000006001,478932615361548792259671438896754123714283569532169874145397286623815947987426351
001780600006009000403050071090600003000001802057840060060300504315097080000002000,921784635576139428483256971198625743634971852257843169762318594315497286849562317
010900763000108004074020000000010470000602059950000180600801200497000000008064035,812945763369178524574326891283519476741682359956437182635891247497253618128764935
301702609045080007290006080923064000004003800100050004576900200800000930000000015,381742659645389127297516483923864571754193862168257394576931248812475936439628715
500200049016000200090783000000004350002856400007090601800500060020430800370000900,583261749716945238294783516968174352132856497457392681849527163621439875375618924
010003507000420000006780002008000240009030010000618000800306704307050090902007150,214963587783425961596781432138579246679234815425618379851396724347152698962847153
000008403640000091520000700010504807070023000405600900000012060302050000981030504,197268453648375291523941786216594837879123645435687912754812369362459178981736524
074090010106007050000023000000200480040008073097301005030900040602000100000750208,374695812126487359985123764563279481241568973897341625738912546652834197419756238
500030000060001490700480010000709006003260840020800500497050302010020007300000180,541936728268571493739482615185749236973265841624813579497158362816324957352697184
807010042060900100005080370000048910023006080100000506089503000000060405602000037,897315642364927158215684379576248913923156784148739526489573261731862495652491837
061007000000801035905000002600403009000000200570280060020045073039010800000900004,361527498247891635985364712612473589893156247574289361128645973439712856756938124
000019540070603100095200007000000092031802000004530806006000083300074060042006071,263719548478653129195248637857461392631892754924537816716925483389174265542386971
000409830000725900210360000063000704004970010901000620080032000007000006000180450,756419832348725961219368547863251794524976318971843625485632179137594286692187453
300508290004060050870000301007905800031000070900000042060207009002004510040380600,316578294294163758875429361427915836631842975958736142163257489782694513549381627
004002908017090050600800430005001007300060000070024005000700890002030060096050010,534612978817493256629875431265981347348567129971324685153746892782139564496258713
503104000007900800004006015145200030028061040000000009700000086000005093609872000,563184972217953864894726315145297638928361547376548129751439286482615793639872451
009080201035017009400203060080050040020700003160000008340000916000006300790040050,679584231235617489418293765983152647524768193167439528342875916851926374796341852
250380070000020064079004000081709000400030906003000015805201003300098400006000021,254386179138927564679514238581769342427135986963842715845271693312698457796453821
400208009080000007097600500500030000016004020008001904300017000920400035005000460,453278619682195347197643582549832176716954823238761954364517298921486735875329461
700001560053020800200068007000906001409300780000845000036007040041090200002100350,798431562653729814214568937385976421469312785127845693836257149541693278972184356
800090030020010906030006754005208000003004620017659000091700300000000008070302409,856497231724513986139826754645238197983174625217659843491785362362941578578362419
503008020410060980020009500070280604100047000000106300060025007700000005009304008,593418726417562983628739541975283614136947852842156379361825497784691235259374168
090071300000005026408002007001000009067080040300009682000304501004100060032507008,296871354713945826458632917821456739967283145345719682689324571574198263132567498
097050400610008009050001032045010086009807050006300900003020061800000000020906740,397652418612438579458791632745219386239867154186345927973524861864173295521986743
001603402700000005406028001009006020500002807030100904607091000080000009012580030,891653472723419685456728391179846523564932817238175964647391258385267149912584736
320470006008003002065000400000000987806059200041200000107034000200091050050708093,329475816418963572765812439532146987876359241941287365197534628283691754654728193
000850009050013084067020000006109308004070000002000100020400003090007005001568700,413856279259713684867924531576149328184372956932685147725491863698237415341568792
100006504000104093000027060084700309520030800309008000040500002217400080003900006,132896574768154293495327168684715329521639847379248651946581732217463985853972416
000130006000072040027800300080010075005620100340500800004000007508040290610780050,859134726163972548427865319286413975795628134341597862934251687578346291612789453
001460900690050008840002030300000691020000007500040080070309150900610200403075000,731468925692753418845192736384527691129836547567941382276389154958614273413275869
305008000000240007000001940520400600700010003483059020100796800000000500092083100,345978216916245387278361945521437698769812453483659721154796832837124569692583174
000004200650098701800063095010800900040009023207015064180007000005400070003006008,739154286654298731821763495316842957548679123297315864182537649965481372473926518
500349000030002050008706100900500400006008300204060907000074500041080079060000002,517349268639812754428756193983527416176498325254163987892674531341285679765931842
050040160000030004107908003090002000605409000002176008760800200203005001000700890,358247169926531784147968523891352647675489312432176958769814235283695471514723896
086409020520000709007010003000000590403005670090806300070203480050090000004607000,386479125521368749947512863862731594413925678795846312179253486658194237234687951
000800002409051067080907405700003000003082601864000090020070308090104700500360000,175846932439251867286937415712693584953482671864715293621579348398124756547368129
800000100094700230500280006000600005100905420003008079910000080002106047075030000,827369154694751238531284796749623815168975423253418679916547382382196547475832961
030968001002005009005070600073004000100000068890030500000020014740150920060700030,437968251682315479915472683573684192124597368896231547359826714748153926261749835
629000700003020004400695000090700008008001003100306250010070080586400300000500940,629834715853127694471695832395742168268951473147386259914273586586419327732568941
400768023987020600300000400003010060074003005250400008000009500609805010001200070,415768923987324651362951487893512764174683295256497138728139546649875312531246879
005200084060408007208000530004030900800709060950060120070006050103042006090071000,715293684369458217248617539624135978831729465957864123472986351183542796596371842
009060030300000504715900062800102000402506009000003057004020300076040900020708010,249865731368217594715934862857192643432576189691483257184629375576341928923758416
040051000086270000050063902300000008070185000005090610009700805000649030062000001,243951786986274153157863942391426578674185329825397614439712865518649237762538491
080030600079020040300098170005000900100004008032670005900001230024085000700000506,281437659579126843346598172465813927197254368832679415958761234624385791713942586
080730291000002360004000080075000108009470500300160002410009003000000600060580027,586734291791852364234916785675293148129478536348165972417629853852347619963581427
150084000042790000308056200800060050500008001036071094000000309020040076701002080,157284963642793518398156247814369752579428631236571894485617329923845176761932485
503000200006040581020970060007050030000680900609200017200001408100003056000590000,543816279976342581821975364487159632312687945659234817235761498198423756764598123
003000509000000060800750310047300080680090000029506004200030700400005601090821035,173268549952143867864759312547312986681497253329586174215634798438975621796821435
060030100502070840083000009005602080070104900009000605000501000300069420201043006,964238157512976843783415269135692784876154932429387615647521398358769421291843576
900000208050010603408007000007980010500230960000050000200160090104300000863405700,916543278752819643438627159327986415581234967649751832275168394194372586863495721
685090000700001400490080563000000826900045007032000004007038000006020009800650012,685493271723561498491782563574319826968245137132876954217938645356124789849657312
000003090000690580087010004400360102502000700139500006090008070006027003010050900,645783291321694587987215364478369152562841739139572846294138675856927413713456928
300080002000006705407125800609408070503209001000010400100040097000300020208000360,365784912821936745497125836619458273543279681782613459136842597954367128278591364
102900080030007050046080007060300500000078001891504020009005610700042039003001400,172956384938427156546183297267319548354278961891564723489735612715642839623891475
006001000901050800000400003500940000002008700030702650760025040809300201020809036,376281495941653827285497163517946382692538714438712659763125948859364271124879536
500306040090800000800270160105630798000004002702080300010000073908010000203900000,521396847697841235834275169145632798389754612762189354416528973978413526253967481
400760230026900750080021000091002307608050040047000080002805000300046010010009500,459768231126934758783521694591482367638157942247693185962815473375246819814379526
006850000090040260400309081003900008062037009140008500000200403000176052000000970,716852394398741265425369781573914628862537149149628537687295413934176852251483976
750039000092400500600050087300007104810006090064203000200980310530061002001000000,758639421192478536643152987325897164817546293964213758276984315539761842481325679
002050008470060900090020410300400205209000080006800703501370004900240030030005100,612954378473168952895723416387416295249537681156892743521379864968241537734685129
000080060039004000080563900260098057400100020018030006001025700002300018070009040,725981364639274581184563972263498157497156823518732496841625739952347618376819245
900703050012000060040060028006080109001240380000500006005908000000670004023001807,968723451512894763347165928256387149791246385834519276475938612189672534623451897
008390050010504203600708000050006048079100000040002709304000076002409015000080300,428391657917564283635728491253976148879143562146852739384215976762439815591687324
600054000009107080175000040040039210020000060907008500090500403013040006000760800,682354179439127685175896342548639217321475968967218534796581423813942756254763891
001070000060003470840060300090000051000150200400982003178040920036020580200006000,321478695569213478847569312792634851683157249415982763178345926936721584254896137
501609004020000930300800005094100600208070051060004007070460012800003000056208070,581639724627541938349827165794152683238976451165384297973465812812793546456218379
065037090030000107000608400010009084070000900903450006300040050200010708047860020,465137892839524167721698435612379584574286913983451276398742651256913748147865329
450060080007301000000050002091608030006092000008040095630700400804000700020085001,452967183987321546163854972591678234346592817278143695635719428814236759729485361
062001049008009107040307000870603020000074036000800050910400072036090000000120500,762581349358249167149367285874653921521974836693812754915438672236795418487126593
025006009010078000060910400000004013180650790054030200700009800040500020000020630,825346179419278356367915482276894513183652794954731268732169845641583927598427631
000672015800000000000001034008020050540100370069740200031900020250807090006053000,493672815815439762627581934178326459542198376369745281731964528254817693986253147
306009080070048031002050400000806010500730048603000900107005300009000006050200007,346129785975648231812357469724896513591732648683514972167985324239471856458263197
150009080480000306006000900700460030590030020002015700840000053000100800601807290,153679482489521376276384915718462539594738621362915748847296153925143867631857294
080005006203008570070910000026001090300740250000000608569000020041080003000004710,984275136213468579675913482426851397398746251157329648569137824741582963832694715
009208100500910074041070000400000650950086300078030021000367409000050000800400032,739248165586913274241675893413729658952186347678534921125367489394852716867491532
010900075860000000092038014500710360006050002000003041058061020004009003020070900,413926875865147239792538614549712368136854792287693541958361427674289153321475986
080410500402050039600907820007385000000060090800204010000006007009503200015070060,983412576472658139651937824197385642524761398836294715348126957769543281215879463
000200405040007900309100620560000090080034000200000706800023071005060003470001000,718296435642357918359148627561872394987634152234915786896423571125769843473581269
087034000600097000309000260024009000003062701500410003060000810018700304000050009,287634195651297438349185267124379586893562741576418923765943812918726354432851679
570060204034010860000904005965008100000200080100030907701000053008072090090006000,579863214234517869816924375965748132347291586182635947721489653658372491493156728
500074019000006003008900006130000407700005000090800501409020068260090300073051024,526374819917586243348912756135269487784135692692847531459723168261498375873651924
100000650060012000803000004390006075000008200012904300030059800700200506004380009,147893652965412783823765914398126475476538291512974368231659847789241536654387129
702030000006000015040090300005007046904025730803069002200008501057002480010000060,782531694396274815541896327125387946964125738873469152239648571657912483418753269
000008070304650000108072300000007650050891004213500900900000028000014006627000000,562138479374659812198472365489327651756891234213546987941763528835214796627985143
