080200004000008530001640009900000407070035600860104000400096802023500000500000700,386259174249718536751643289935862417174935628862174395417396852623587941598421763
030008900908000007710054002003017506600290030570000014807001600000309840054060000,435728961928136457716954382283417596641295738579683214897541623162379845354862179
000600300800072106001300805035000000090406200004010708089250010007009040520003900,952681374843572196671394825135728469798436251264915738489257613317869542526143987
010000745502300009700080100604890300109504072080000060320106008900007406000900030,813629745542371689796485123674892351139564872285713964327146598958237416461958237
030629070001530090040800000675000400002010036800200950000007089900300601050408720,538629174761534298249871365675983412492715836813246957324167589987352641156498723
072140050600978000403000010000895001840700300006001002000324008050600200300087069,972143856615978423483256917237895641841762395596431782169324578758619234324587169
050820094001500000200640070940000306000060480000710002098002000605008103370100820,753821694461597238289643571947285316512369487836714952198432765625978143374156829
007603800002040300060920000058010970004000200039704061400005600500071023800409700,147653892982147356365928147658312974714596238239784561471235689596871423823469715
070090304063700001542008000400307509035920600000060007129800060000040803000016090,871692354963754281542138976416387529735921648298465137129873465657249813384516792
400782000081009000000006305009120000060073008200045970000060400700800029135004060,453782196681359742927416385379128654564973218218645973892567431746831529135294867
000067080009203460010400023600050902501809040007004000045000008900180650200900701,432567189859213467716498523684351972521879346397624815145736298973182654268945731
040002351000084207602000000010090040400013708097065002105000004700856900300007006,948672351531984267672531489213798645456213798897465132165329874724856913389147526
903000000860740020024050000010080360007006504002900008090010005500273610030600807,973862451865741923124359786419587362387126594652934178796418235548273619231695847
590001004010608370307400900800320150060009002200000040000203587708010060000500000,596731824412698375387452916874326159165849732239175648941263587758914263623587491
039701060500030408200980703010064300080000002007803000406200009700400100020096500,839741265571632498264985713912564387385179642647823951456217839793458126128396574
006000450100006382300580710600000000040970100590024830000130900835007000007008040,786312459159746382324589716673851294248973165591624837462135978835497621917268543
005009306000000020807000004140005200000061908003007650030702890010590007500048030,425179386361854729897236514146985273752361948983427651634712895218593467579648132
650000000020406001107020030040500362000608900701030804070009140005200090083000700,654713289328496571197825436849571362532648917761932854276359148415287693983164725
090001023108040005043970600900087050000000700000500346050010000070300890806702000,597861423168243975243975618934687152625134789781529346359418267472356891816792534
940000700000005062612870400000028350350000000100009087006500013001040800280630009,945216738873495162612873495769128354358764921124359687496587213531942876287631549
000080104046005003070600905507904300109000000032060080910802040604700000020030501,395287164246195873871643925587924316169378452432561789913852647654719238728436591
000000098700046000532108007004000020000007063680054100009720500256900010010000030,461572398798346251532198647174639825925817463683254179349721586256983714817465932
007001034350080006608407000080309020029700010430000900005000090040206500160800703,297651834354982176618437259786319425529764318431528967875143692943276581162895743
030006200057340601890000050600100004024690700008072005005008002160034090009700500,431856279257349681896217453673185924524693718918472365745968132162534897389721546
005138600000020090760005030106400073070010846000000000208700509491080002050200004,945138627813627495762945138186459273579312846324876951238764519491583762657291384
000060720076405080100000603003620010092000007050084090400510030305902041908000000,539861724276435189184297653743629518892153467651784392427518936365972841918346275
080270006700504300900080004840015002000038710005006090060300007510007820004090000,483279156721564389956183274847915632692438715135726498268351947519647823374892561
070000000310056402800194005000000804601400020290003570040500090008600300537008100,475382619319756482862194735753219864681475923294863571146537298928641357537928146
000000807600032900054090010208100005037540006000009430023750080100000000085026300,392415867671832954854697213248163795937548126516279438423751689169384572785926341
000317050200060190403500860900170002005003008640920070090480000306700400000000586,869317254257864193413592867938175642725643918641928375592486731386751429174239586
010000302007004590280039060006005009800470200500081070020100403109003006070050080,915768342367214598284539167746325819891476235532981674628197453159843726473652981
200090480800045361006017500309006002601500090008079040904020830050000000002300010,215693487897245361436817529379486152641532798528179643964721835153968274782354916
000906050061800093507400200080703906100000004040165000038007100000609082002000075,823976451461852793597431268285743916176298534349165827638527149754619382912384675
000409507030000000027103960100507002008940601000080340013700020260000009800064050,681429537935876214427153968146537892358942671792681345513798426264315789879264153
050783004300005007280904000765092000000006000908410003000000246106070059032000800,651783924394125687287964135765392418413856792928417563879531246146278359532649871
012000060005070902004003010409067030000050070060100084900004008070390056308520100,712945863835671942694283715429867531183452679567139284956714328271398456348526197
006108007040003600307600400050000900803090020001206078100700206084005091600020035,926148357548973612317652489752814963863597124491236578135789246284365791679421835
004038091850000600000512000002703100007080350090001040900000780503076004040190206,274638591851947623639512478482753169167489352395261847916324785523876914748195236
060203017000060009705090080010480000500000206402500000104007003003840700908031024,869253417241768359735194682316482975587319246492576138154927863623845791978631524
891000003003010470500603020100057302004208700050000806300840050600900100070002000,891724563263519478547683921186457392934268715752391846319846257628975134475132689
005002400901030760070000085000286100050007290000050043800000001009073600726409000,385762419941538762672194385493286157158347296267951843834625971519873624726419538
001829700060000000804000301578000019100000023930560000680700000000250960007130458,351829746769413285824675391578342619146987523932561874685794132413258967297136458
700950240000008009010000700009210385100040000020503060408070002000035006073000190,786951243354728619912364758649217385135846927827593461468179532291435876573682194
527000014100020600000800009005037402800500061400006007008062003030470500690001070,527693814189724635346815729965137482872549361413286957758962143231478596694351278
200700098056200003007050640900003070030090004060180020500008001003005000180304206,241736598856249713397851642912463875738592164465187329574628931623915487189374256
600800500450036090027410000086200400000080730090050021004000013005029007360100080,631892574458736192927415368186273459542981736793654821274568913815329647369147285
100236540004000600380000090705040000901007080032900060050000000400023701007408036,179236548524189673386574192765842319941367285832915467653791824498623751217458936
305009006900500074080600050600000580170200009090401002400082010061030047702000300,345879126916523874287614953624397581173258469598461732439782615861935247752146398
580060300002580760090302010230000040400701639107000005000200001641800900005000800,584167392312589764796342518239658147458721639167934285873296451641875923925413876
905600080008000100010047002002000600000900013700453900546080000080000309000702045,925631487478295136613847592392178654854926713761453928546389271287514369139762845
003000200250940700197006500084305001009720030000000460060093070502001680001000004,843157296256948713197236548784365921619724835325819467468593172532471689971682354
200000104070063950800701003018500360060090500000320000003410080050800010400007209,236985174174263958895741623918574362362198547547326891623419785759832416481657239
002100000950800060130007200800500703063000950710049006090200040400010007008056092,682135479957824361134697285849562713263781954715349826591273648426918537378456192
013940700800300604029700010006020150001450007070090408000000003504068000098100020,613945782857312694429786315346827159981453267275691438162579843534268971798134526
200000008650301002703060004010780400920500030504000970000806003400005000069020100,241957368658341792793268514316789425927514836584632971175896243432175689869423157
005046709092058013030020008001000007067004950800103040400090030070010000008005602,185346729692758413734921568241569387367284951859173246426897135573612894918435672
407000039050000082000072100000315007000090405180400060009043600706800004208700350,427186539651934782893572146964315827372698415185427963519243678736851294248769351
400701002053080000070020450901800060080000904600305807009004508012000003007532600,496751382253489176178623459931847265785216934624395817369174528512968743847532691
500020096903004007000038450080000010096140500704000203850013020100097840060000000,548721396923564187671938452285376914396142578714859263857413629132697845469285731
500010640002730080908006350470590100086403000205000700000000000309024006000008519,537819642642735981918246357473592168186473295295681734861957423359124876724368519
050000400780500030026009008000000001007080023104067000300670092609320870008104056,953812467781546239426739518862953741597481623134267985345678192619325874278194356
018003007403008210009600500030590060001800900050046020000061090200070480074000300,518923647463758219729614538832597164641832975957146823385461792296375481174289356
006700004058100370340280600000691000003040001000008452070900240900050083001006000,196735824258164379347289615524691738783542961619378452875913246962457183431826597
907080001140602000000005090020030706016400950500908042730000000000700360008010405,967384521145692837382175694429531786816427953573968142734856219251749368698213475
007834000015000006002006390090200870700150004041000935000060020053008600000090058,967834512315972486482516397596243871738159264241687935879465123153728649624391758
090430007020000053064708900207010040005000309000006810073065100040080000100009068,591432687728691453364758921287913546615824379439576812873265194946187235152349768
504100020070000090900082600000030004400016309080470061600340070100500002003809500,564193827872654193931782645216938754457216389389475261625341978198567432743829516
000020907700080000263190400630200000009000510080540063000870302001400090050036100,518624937794385621263197485635218749429763518187549263946871352371452896852936174
010070403000501200200000090040630107030200060098000000053046709400350008107000504,916872453384591276275463891542639187731284965698715342853146729429357618167928534
000308900060040000003200740005009230200401650800030004070093006041000090029600015,754318962162947583983256741415769238237481659896532174578193426641825397329674815
010020370020489006006003040094510000300000008082704065000000001001846097207300500,418625379723489156956173842694518723375962418182734965849257631531846297267391584
003150400810209030027000690005090718000400000206370005750048020000003070090006100,963157482814269537527834691435692718179485263286371945751948326642513879398726154
009002300030000451700604080070090100005083000900215007360807009000000040218500060,489152376632978451751634982873496125125783694946215837364827519597361248218549763
050002400083070509000040031006109040000508900025030016001004600700900000200006183,157392468483671529692845731876129345314568972925437816531284697768913254249756183
090082100804170000560004070742900000030040965006801020000003210005000008270000409,397582146824176593561394872742965381138247965956831724689453217415729638273618459
007602503400050890000040006563100080900200701000809030030000670050093200801400000,197682543426351897385947126563174982948235761712869435239518674654793218871426359
003601020000090076071002059029340000800009030060800402014030560000200018050067000,593671824482593176671482359129346785845729631367815492214938567736254918958167243
079831000008200100020004060010080003004000580065073400090020704040096021001500390,679831245458269137123754968912485673734612589865973412396128754547396821281547396
090400021018030504700008060003007059060004007800125400080760300230900040107000002,395476821618239574742518963423687159561394287879125436984762315236951748157843692
800396070005000804209400000087000506060802001302000407090037100000650040000014362,841396275635721894279485613987143526564872931312569487496237158123658749758914362
080090060400000070025004031908050020006730000051060304000605000069100805070089200,187593462493216578625874931938451627246738159751962384812645793369127845574389216
050010070908250600200709300000028100730600045009004260001487000064000000800000039,453816972978253614216749358645328197732691845189574263391487526564932781827165439
084630070030420010000907080001000608205000000600042390010860000000010902407005000,584631279739428516126957483341579628295386147678142395912863754853714962467295831
907005008008000107460002500082006900300700014700090000010080705500040080003019020,937165248258934167461872539182456973395728614746391852614283795529647381873519426
030980400006000000200700513600201980043070200009050007300100008704006105005040062,531982476476513829298764513657231984843679251129458637362195748784326195915847362
300007005020060740040301069000040570408102000930806200060000900580000637170090082,396487125821569743745321869612943578458172396937856214264738951589214637173695482
748090006200000000369400005000610090070000024500302100000008409401005030003207680,748593216215786943369421875832614597176859324594372168627138459481965732953247681
043700800000900000000010365120340900060000108854000720210007600008056010070009030,643725891581963274792814365127348956369572148854691723215437689938256417476189532
090280731100045060060003500250019008804300009000070240040900003000000610018027000,495286731183745962762193584256419378874362159931578246647951823529834617318627495
008510006002900047130070080400001900050006002709280000000845060081320000005007093,978514326562938147134672589426751938853496712719283654397845261681329475245167893
800009002050106094090070150040090803103700200600310070065400080004807000000020306,871549632352186794496273158547692813183754269629318475265431987934867521718925346
080497060430086002700000000500000000078530600903012804000600920001009570350001080,182497365435186792796325148514968237278534619963712854847653921621849573359271486
610008090002300000480702006300051900067400815040000003000806034700290068050004070,613548792572369481489712356328651947967423815145987623291876534734295168856134279
030020940000001702260005008054182000906070050108000003090008000005040107003906204,831627945549831762267495318354182679926374851178569423492718536685243197713956284
800050004003004090900170080000032500070400106006000928030065010002780403517900002,861359274753824691924176385189632547275498136346517928438265719692781453517943862
900170002031050900006900400100205700003800065000040829704030010698702030000004600,945176382231458976876923451189265743423897165567341829754639218698712534312584697
000400080070609500050080103901000708364000051500930400018045070000070000040300206,192453687873619524456782193921564738364827951587931462618245379239176845745398216
009000008205460000000289070600700050000012704820040030090030506060070200510008390,479351628285467913136289475641793852953812764827546139792134586368975241514628397
509600800067200190000054000020700019040380000701000600800003007005049230000176040,539617824467238195182954376328765419946381752751492683814523967675849231293176548
503070008000650072004001900400502001185007600030089000068000090000348700001200030,523974168819653472674821953497562381185437629236189547368715294952348716741296835
