500060094300800700470200510037510029900006457000002006008100000000090600104050083,582761394319845762476239518637514829921386457845972136768123945253498671194657283
061050040004003802520097300000070061900030000085000200200764530003001097650089000,361258749794613852528497316432875961976132485185946273219764538843521697657389124
000028000002000107406350000067013040010400072003805001790042080805009760030000009,159728436382964157476351928967213845518496372243875691791642583825139764634587219
070006000001570800248010000005403920000001064090602103712900030980200605300000070,579826341631574892248319756165483927823791564497652183712965438984237615356148279
500907030020800000006020508107000090040006070080043002960038005050000041003205600,518967234324851967796324518137582496245196873689743152961438725852679341473215689
007010000406200030003507601700690800002401000000028504204030087900100400350804090,527316948416289735893547621745693812682451379139728564264935187978162453351874296
980000006560080020000501009200700053096305080003098700035910008070600104042073000,984237516561489327327561849218746953796325481453198762635914278879652134142873695
502009100000800000070004026007500040483001052001006390300100065604003708000900004,542679183136825479879314526967532841483791652251486397328147965694253718715968234
500600097306002001080490005840060000000380260010900030001020000709800400200070956,524618397396752841187493625843265179975381264612947538461529783759836412238174956
107002900500600000403009082000040006008701594650000003000200007012870050090504030,187432965529687341463159782971345826238761594654928173845293617312876459796514238
400021800007400050500090003260805070003000100000074080806230004300007090095600702,439521867627483951518796423264815379783962145951374286876239514342157698195648732
000253840060009000500640900016070430700802000902006081001520007030700000409000500,197253846364189275528647913816975432743812659952436781681524397235798164479361528
000001042087060000610050090920700030001300005050020860400900320302007001008600407,539871642287469513614253798926785134841396275753124869475918326362547981198632457
010600024400038000072000093200460750037050000560000012600075030000800940029001008,315697824496238175872514693281463759937152486564789312648975231153826947729341568
437010600900060073001000029000039016200504000098070500050800304760005208040390000,437912685925468173681753429574239816216584937398671542159827364763145298842396751
000029460090800170300706500920083006400000305080501002702000000500060891000140030,157329468296854173348716529925483716471692385683571942712938654534267891869145237
940200007000048010835000006070003105000470060163000002000002089006100230080950670,941236857627548913835719426478623195259471368163895742714362589596187234382954671
068203900000960270010005000430870090500421300000000106080007005004000010902050608,768213954345968271219745863431876592596421387827539146183697425654382719972154638
407900000090000032000586700700803000030010500846070000010000059008060041209001380,487932165695147832123586794751893426932614578846275913314728659578369241269451387
800002097020309000000016050500700032200000918183020006900108705006005084300060000,831542697625379841497816253569781432274653918183924576942138765716295384358467129
000008209200760000006403001500190040300000900080200517090050800027004000005001630,734518269218769453956423781562197348371845926489236517193652874627384195845971632
205148063030060007090705800046002070007080036009500001000620090000003010150090040,275148963438269157691735824846312579517984236329576481784621395962453718153897642
419050008000000405700032000085000020300906041004700860027008910030000600006019350,419657238263891475758432196685143729372986541194725863527368914931574682846219357
000831006035020970004000280008496005300700400020580710240060000001007000690058004,972831546835624971164975283718496325359712468426583719243169857581347692697258134
002650040340082050100009807000470006050100230486020000000037100790000560003890000,872651349349782651165349827231475986957168234486923715624537198798214563513896472
010420008008001700602000409009105030060030001000067850020083047007290300085000600,713429568498651723652378419879145236564832971231967854926583147147296385385714692
020061080050020700003900406040600032009300510070008000480250063200074900001800000,924761385658423791713985426145697832869342517372518649487259163236174958591836274
060950001304602098000081070500200009070000430039008160450006000002007800706410200,867954321314672598925381674541263789678195432239748165453826917192537846786419253
070900420008514009000000600350000700001420030006708001040209007500380090602000053,175963428268514379439872615354691782781425936926738541843259167517386294692147853
900008460046030700075000108037902010400080620000015004008203500120700000090060037,912578463846139752375426198637942815451387629289615374768293541123754986594861237
009050034400908007857000000000780060206041008900300010760420009002000001500103720,619257834423918657857634192145789263236541978978362415761425389392876541584193726
010040050803000069400930008002105070094078000600000200106004800039007006000000523,917846352823751469465932718382165974594278631671493285156324897239587146748619523
005006102064019000900280043080034900000000080706002500410900026508073009003000050,835746192264319875971285643182534967359167284746892531417958326528673419693421758
050004009600008004070900106002030007106050090090200430700300000015062700240700608,351674289629518374874923156482139567136457892597286431768341925915862743243795618
040619020070030090800027304001408703000000000000050961008390106064005000200700038,543619827172834695896527314921468753635971482487253961758392146364185279219746538
071026085020410060390075001007000000500004302030908400200100809054000007008002600,471326985825419763396875241647231598589764312132958476263147859954683127718592634
240750800003020007059060000807300450026000010090004708060140000100600009532008001,241759836683421597759863124817396452426587913395214768968142375174635289532978641
002000900003180607167000520020000000501006380000490206070510403800003070006704009,482657931953182647167349528624831795591276384738495216279518463845963172316724859
701000000654002080000754010002906300307010200080000950003480006908500000100279040,721698435654132789839754612512946378397815264486327951273481596948563127165279843
500070081000012050380500020070006000804003600092040100200037508060000970000095004,526379481947812356381564729173956842854123697692748135219437568465281973738695214
900250001003700080002006904000400097086001030405307200064000050170090600500014028,947258361613749582852136974321465897786921435495387216264873159178592643539614728
100270046000008700309640000025100080007590300900064002080000200006005104704309050,158273946462958713379641825625137489847592361931864572583416297296785134714329658
000900047100060005040030200500408000092003810010020063200870050600000108007095306,325981647178264935946537281563418792792653814814729563231876459659342178487195326
180009000720600390600150700000500809064002000507008030010045082002000600950300170,183279465725684391649153728231567849864932517597418236316745982472891653958326174
500089700030002096070460205040010900900070030602300504004000100705800060160027080,526189743431752896879463215347615928958274631612398574284936157795841362163527489
500300090012700800000009205400953702107400300005000006609020540080000037704106900,576382194912745863843619275468953712127468359395271486639827541281594637754136928
904000700003250908010000600460720050350104800000038070080900000100070230709610004,924386715673251948815497623468729351357164892291538476582943167146875239739612584
000240365500096017014000080050009000302007604709000001100068240006520009037000800,978241365523896417614375982451639728382157694769482531195768243846523179237914856
200760040010905600300001809000090018000304572030000400070240980056070200004080001,295768143418935627367421859542697318689314572731852496173246985856179234924583761
730001086910602045002000010320400050800050169000070300040007030607300500050096002,735941286918632745462785913321469857874253169596178324249517638687324591153896472
062000040150080700000041009023014056500307004008600200030700025009065080070000091,962573148154986732387241569723814956596327814418659273631798425249165387875432691
609300250530029001080000004010070038000901065700046000301205006400780900098000000,649318257537429681182657394916572438824931765753846129371295846465783912298164573
200306009040000080000415007010040052056000090002507308901620000708009023000803000,275386149143792586689415237317948652856231794492567318931624875768159423524873961
213700000009000040065831000040020618000470500926005700678900020002000903300050160,213794856789562341465831279547329618831476592926185734678913425152647983394258167
000590870004000560560400030010083000200700490090001308620037900008620000047100200,132596874874312569569478132415983627283765491796241358621837945958624713347159286
600070405170003020320489000508000013010006502940300600000020006000954700007001090,689172435174563829325489167568247913713896542942315678491728356236954781857631294
600042803007500046002090100009820500430100000100900068500000031090017600804006902,651742893987531246342698157769823514438165729125974368576289431293417685814356972
003080009910007006000105040301070000800209005027060014046300802200008500050006070,473682159915437286682195347391574628864219735527863914746351892239748561158926473
002306150017092040400007009003080700025000008140020006001008304000500060080619002,892346157517892643436157289963481725725963418148725936651278394279534861384619572
009084006205900000007030104000547003300001285061800000090100430000070060800062007,139784526245916378687235194928547613374691285561823749796158432452379861813462957
504000720073204008000030600000060030400010502002583091200601089080900070190048000,514896723673254918829137645951462837438719562762583491245671389386925174197348256
000070008000039710105002009020601005030084907406000002050000400380060020704305006,943176258268539714175842639827691345531284967496753182652918473389467521714325896
000905043000008009030140680600070000350004000201080095160050900020600070540027301,782965143416738259935142687694571832358294716271386495167453928823619574549827361
030205006010740800007006050800030900059078020106502400400000503003100009020009147,934285716615743892287916354842631975359478621176592438491827563763154289528369147
007150000309004120000038060403060970000200000068001240204000710010007485800009000,687152394359674128142938567423865971791243856568791243234586719916327485875419632
049001050007060209003085100900000030020703008000419007016800003700000040038000562,849271356157364289263985174971628435624753918385419627516842793792536841438197562
901020037407805000060010590006008200540900000003000140009300052800056003000140060,951624837437895621268713594196438275542971386783562149619387452874256913325149768
001500000803040020090800573100000200070603901042007806900080700006000005200960410,721539684853746129694812573169458237578623941342197856915384762486271395237965418
800090140000300000007052803014005600008019020002478090073000006500020407100060035,835796142621384759497152863914235678758619324362478591273541986586923417149867235
000000035359008200000700046100080000865100304023590000980070100046001509001260007,674912835359648271218753946197384652865127394423596718982475163746831529531269487
017500900000070406360048015008006200050980000000307640040000007195000003200801090,417563982582179436369248715738416259654982371921357648843695127195724863276831594
028000000007609420060304001300000510590406370804007900000051890000200050701908000,428175639137689425965324781376892514592416378814537962243751896689243157751968243
080005009037408005100709000200051070005920600098043000601000300020070054003000802,486215739937468215152739486264851973315927648798643521641582397829376154573194862
906007080002860053070002004234000906600034270005001008000010300060570001380090000,956347182142869753873152694234785916618934275795621438527418369469573821381296547
008400057230690040000107600051000830400020006000503090790060200005070001600804070,168432957237695148549187623951746832473928516826513794794361285385279461612854379
001962080070003009040100600009021000036050000005080971200614500003007104800000796,351962487678543219942178653789421365136759842425386971297614538563897124814235796
000040569250030804000900100805000001401509307370604000000200080908307006100068200,713842569259136874684975132895723641461589327372614958546291783928357416137468295
000634080900000500083590070041000000070018900005460002400100850650007000002809406,527634189964781523183592674241975368376218945895463712439126857658347291712859436
010002300006058010097400506600090200000065040031007080079100000008029450200080071,415672398326958714897413526654891237782365149931247685579134862168729453243586971
403050000600183000007020056060840020020706001045000809500002400809000017010900030,493657182652183974187429356961845723328796541745231869576312498839564217214978635
008291006320400009106507000003905871500026030004000500750000203000100090049070080,478291356325468719196537428263945871517826934984713562751689243832154697649372185
974601500600009000005007260060502001087000300000000042309070608000400135150208700,974621583632859417815347269463582971287914356591763842349175628728496135156238794
100409050200005300087623000900107400046050039000060008800000040005086200030002701,163479852294815367587623914958137426746258139321964578872391645415786293639542781
000500090000000605090647081041000250700010803006908040900380012005176000300090400,683521794174839625592647381841763259759412863236958147967384512425176938318295476
090000400600105000213008069030704800408069050000020700900540001001006075806000203,795632418684195327213478569132754896478369152569821734927543681341286975856917243
000200001050060400700080962904600007010040500280300090003725000409800020008001706,896274351352169478741583962934658217617942583285317694163725849479836125528491736
084010609030006271706005000602300500000107400801042006390250008005009304000000700,284713659539486271716925843642398517953167482871542936397254168165879324428631795
107009204900307005062008000000000062050030197001900003000510030340806700208400000,137659284984327615562148379493781562856234197721965843679512438345896721218473956
002007004100064000380000570025706048400902637000010050040293000076800002009000001,652387914197564823384129576925736148418952637763418259841293765576841392239675481
006500038008010570070240000600090400002300150300007086800036040009001002765080009,146579238298613574573248691617895423982364157354127986821936745439751862765482319
030807506620010700000005040073080600904100070260709153506000800007320000000008910,431897526625413789789265341173582694954136278268749153516974832897321465342658917
050006780607089000024170500901200870003840060200030105000000004700004920008650000,359426781617589432824173596941265873573841269286937145132798654765314928498652317
080764005401500690300120078000090240520040760009076003760000100890003000000080000,982764315471538692356129478637895241528341769149276853763952184894613527215487936
078900560500080030006017280400008100300020075097300000000600700109004006005002809,278943561514286937936517284452768193381429675697351428843695712129874356765132849
210403509007900030000000861020500000005070900048206007030854000600390000070010048,216483579857961432493725861721549683365178924948236157132854796684397215579612348
970008600800140300001209000300602094040300180105000007700406012050000040002890005,974538621826147359531269478387612594249375186165984237793456812658721943412893765
103065020076001000940020001001004300054700086020030090060500900008200037000618054,183465729276981543945327861691854372354792186827136495462573918518249637739618254
009000304207059601680000000105306020090005000300847005001070060076003900000100840,519628374237459681684731259145396728798215436362847195821974563476583912953162847
000060308870500000100000250057004009304008000600215000001000023060970810740380600,425169378876523941139847256257634189314798562698215437981456723563972814742381695
000003750006010000800205904560300090721000800300008075203650400014800060000907230,192483756456719328837265914568374192721596843349128675273651489914832567685947231
