074000600680035009950000270200007050000400061100908304030500010000819400708002000,374291685682735149951684273243167958895423761167958324439576812526819437718342596
000010905000643000080500047401038020079200080520060034090071600600005002740020001,234817965957643218186592347461738529379254186528169734892471653613985472745326891
072010035840000000006309007500080002300007604020500910798030500014200003000100706,972816435843752169156349287569481372381927654427563918798634521614275893235198746
090002407004710020060080031021000900980040000700605002000430010000060308005109004,198352467354716829267984531521873946986241753743695182679438215412567398835129674
000708940104050000008092106007064002530001090200500800070800010360070009900300520,623718945194653278758492136817964352536281794249537861475829613362175489981346527
000030040180004600700508090030060009617000050025741008400690500000012070269800001,592136847183974625746528193834265719617389254925741368471693582358412976269857431
290030050076800400004000028650010090000070200003006870042001039300457000810900600,298134756576892413134765928657218394481379265923546871742681539369457182815923647
204006000030850700700900086000010049800020103103508200062041500070260300005000070,284176935639854721751932486527613849896427153143598267362741598978265314415389672
008002074700001000012000350435007061200000900000508230500730086079400000600015020,368952174754381692912674358435297861287163945196548237521739486879426513643815729
038109000400003021705008060370600000002040500009081043050910004003002600600500978,238169457496753821715428369374695182182347596569281743857916234943872615621534978
056010009800260070300405201900108007031700500080000400095003026163090080000040000,256317849814269375379485261942158637631724598587936412495873126163592784728641953
052003400900700060601480900380006050004100070020950003430500006706002890000007001,852693417943721568671485932389276154564138279127954683438519726716342895295867341
060090310320000000795600040279003680400100052016008070000240005000067130008000009,864592317321784596795631248279453681483176952516928473137249865952867134648315729
100040000005306000008592007582000040706084090003170600001708304060000812000030005,139847256275316489648592137582963741716284593493175628951728364367459812824631975
075060300200840000103002690000001549000237000618000000400570002590000860081900030,875169324269843751143752698327681549954237186618495273436578912592314867781926435
000005308006001920208600004081000700400097150050304006000970400609000002713208005,194725368536481927278639514381562749462897153957314286825976431649153872713248695
005004208000900045031000000100023070508600020002570094000000600780092003900460710,695714238827936145431285967149823576578649321362571894214357689786192453953468712
107400006049207000800030005002000800605013090300009071400300100701008602050096407,137485926549267318826931745912754863675813294384629571468372159791548632253196487
700000108008020000040500300003092700610030000007605409900407520025001007800000916,792346158538129674146578392453892761619734285287615439961487523325961847874253916
400200060000497028070005300060370010001000070034082900800010007020609501905000034,498231765653497128172865349569374812281956473734182956846513297327649581915728634
600800005200007010008290063060048500005601089900000100143000027002000000570009048,637814295259367814418295763361948572725631489984752136143586927892473651576129348
600040301070000080809002500400890020005061400030250007003580900021007006506009043,652948371374615289819372564467893125295761438138254697743586912921437856586129743
007204900609005438805090102030617090900000001084000050000403006761820000000000200,317284965629175438845396172532617894976548321184932657298453716761829543453761289
600030004002008160410057020080320905104000000500900746900210008030700090060000531,679132854352498167418657329786324915194576283523981746945213678831765492267849531
000500001157009000394087600630400105408000060000300804200005700081060209060240030,826534971157629483394187652632478195418952367975316824243895716581763249769241538
120060709904050180078000040760300000000140000050700861012090007500802003390074000,125468739934257186678931542761385924289146375453729861812693457547812693396574218
050410370380007900004028060010096800070000010200570400800002709000004605906000032,652419378381657924794328561413296857579843216268571493835162749127934685946785132
205400031009070806030008000800900407674300050051600000300105040000790302162000900,285469731419573826736218594823951467674382159951647283397125648548796312162834975
870301009004000031060007800020900006009508300405000090100260007500034610240070580,872351469954682731361497825728943156619528374435716298183265947597834612246179583
008207900360010008027300000053000206800460501010008000090801375030005040002740009,148257963365914728927386154453179286879462531216538497694821375731695842582743619
080400010600000073034507900005380600009104500720009080190020306000800720000046001,987463215651298473234517968415382697869174532723659184198725346546831729372946851
000200050902041080040053700208360000760409000004000203106082009009607830070000001,387296154952741386641853792218365947763429518594178263136582479429617835875934621
810500003000026900096807024001970080000412307004000005069008000200300000408250071,812594763743126958596837124321975486685412397974683215169748532257361849438259671
009000800070304601350002090080500102060008000903760005700900008210850030600010540,149675823872394651356182794487539162561428379923761485735946218214857936698213547
904500600000020170008903020697000050000081906300000040709034560060005700400100308,924517683536428179178963425697342851245781936381659247719834562863295714452176398
780050004056000002034006070900000800400037100002401065320089001001500003000100790,789352614156748932234916578913265847465837129872491365327689451691574283548123796
701000050090016004062000300610059820000070090500802060008703000004290000300045007,731924658895316274462587319617459823283671495549832761958763142174298536326145987
500300700073010080008200090000800070910600042002004105005460300400905027706080009,529348761673519284148276593354821976917653842862794135295467318481935627736182459
010095006705002048430010090658070002003026070270000800001004057900000600080900301,812495736795632148436718295658379412143826579279541863361284957927153684584967321
009400500050023108327000690760800000040019056013045000008001200000070030000506947,189467523654923178327158694765832419842719356913645782478391265596274831231586947
756020000100069025002701830390000010008000602000075004000200000460013000017800950,756328149183469725942751836394682517578134692621975384835297461469513278217846953
009001000803056000007280005405039720710004006000160008390700502000000014500040370,659471283823956147147283695465839721718524936932167458394718562276395814581642379
890000020000060401134080007000051009400006750907030062000029508380410070025300000,896147325572963481134582697263751849418296753957834162741629538389415276625378914
000061002087040906000300070802006050000900030510007408020005140040020007690100805,954761382387542916261389574832416759476958231519237468728695143145823697693174825
690207504000034800000100092500060008060845030071000040058009067200003009019620000,693287514125934876487156392534761928962845731871392645358419267246573189719628453
809100320572030006600040090400361800007900000000205010000400289003027000010008050,849156327572839146631742598495361872127984635368275914756413289983527461214698753
400603020000080305902105400000048600007950034501000079300010708809402010060000000,458693127716284395932175486293748651687951234541326879324519768879462513165837942
060013490000002073080400500000076010692000300040000080003050002408700160150800009,267513498514982673389467521835276914692148357741395286973651842428739165156824739
302000501004057000100000096030020004010640750070509208900804105860030900000065300,382496571694157823157382496539728614218643759476519238923874165865231947741965382
000052090708301000400700501005000620002600009900804103200030005096000300030060478,613452897758391246429786531185973624342615789967824153274138965896547312531269478
520008006000090000000160403100007300082040760090630050001700098700402100835000204,524378916613294587978165423156827349382549761497631852241753698769482135835916274
001090057427006009000000600902605300300428010100009000000000280640003500030580740,861392457427856139593147628982615374376428915154739862715964283648273591239581746
050200001006307000048060200370000500090150006085094000000502090034070810060080320,753248961926317458148965273371826549492153786685794132817532694234679815569481327
700002508300506001050800930900000700005904210004003080640070320008020000010045006,791432568382596471456817932963281754875964213124753689649178325538629147217345896
802000000070154000500000671690420005000080034100975020003000082200096050407800300,812769543376154298549238671698423715725681934134975826963547182281396457457812369
000800000690024005810760003060095010300600572020000008000300051007040609402010037,274853196693124785815769243768295314349681572521437968986372451137548629452916837
900000040008030601600482700000540000205100007080076390509010860730009104010004003,923761548478935621651482739397548216265193487184276395549317862736829154812654973
900048307052000000000175600030600901108409070007050000400982030081000020600003540,916248357752396814843175692534627981168439275297851463475982136381564729629713548
004107000801005200026800050360004807082000513090000600073080004000090020500060130,954127386831645279726839451365214897482976513197358642273581964618493725549762138
209008107810032000050900400035800000100007060400010903004100050903050802000096004,249568137817432596356971428635829741198347265472615983724183659963754812581296374
025070090800360040004105803091620005503800000080000000402580706007200030060001400,325478691819362547674195823791624385543817269286953174432589716157246938968731452
000790250036001000907008000000803640005000709048650100200480960010307000604002370,481796253536241897927538416192873645365124789748659132273485961819367524654912378
807204030620705809940080000009417520000300060504006000230000107018900400000002006,857294631621735849943681275369417528182359764574826913236548197718963452495172386
000080240049052080600000103064530020000490705370000006013060900700200000058700064,537681249149352687682974153964537821821496735375128496413865972796243518258719364
650009027700680530008000000103007090000000604820005100530408000260530900009200001,654319827712684539398752416143867295975123684826945173531498762267531948489276351
000080300610205940804900070050012060007000014002607003730860002500003091080409000,975184326613275948824936175458312769367598214192647583739861452546723891281459637
030000800104300076000690005500010024020500001809700600086050400042803000700029300,635271849194385276278694135563918724427536981819742653386157492942863517751429368
300008190001600000250700604970003002000845003400000010600009745809200060030010800,364528197791634258258791634975163482126845973483972516612389745849257361537416829
300400700060200094790000020005021089400006100200984306001050000000007805006398001,352469718168273594794815623635721489489536172217984356841652937923147865576398241
703200605405039108020086000304805006190004000000010702006400207000007050830100000,783241695465739128921586374374825916192674583658913742516498237249367851837152469
103005600080000025009000004005001800040096700000803069702080903604302080001070040,173425698486937125529168374965741832348296751217853469752684913694312587831579246
050060000016324009080001070000930802005800691004002003100070020009083400307200010,952768134716324589483591276671935842235847691894612753168479325529183467347256918
213006059004000300860070100000491007530080000000007260008700000026013800901250040,213846759794125386865379124682491537537682491149537268358764912426913875971258643
097008002080104600000007030006900103005021048002000750120030400000000069030580200,497368512283154697561297834846975123375621948912843756129736485758412369634589271
070083000000000100160700049031075060004600925002004030806500410300900200040000508,479183652523469187168752349931275864784631925652894731896527413315948276247316598
009050608400392000157008300504700000000260010010080903280900065736410020000000007,329157648468392751157648392594731286873269514612584973281973465736415829945826137
000025100060900008000410030035690410746300002290050800300160200007008000409003005,973825146164937528582416739835692417746381952291754863358169274627548391419273685
900004200073200400010030065006003004080072190200409006025080701100500380047000000,958164237673295418412738965796813524584672193231459876325986741169547382847321659
500900608070000024960007530051004860790600105000310002020100000000039000640802007,532941678178563924964287531251794863793628145486315792325176489817439256649852317
000000070050029100008713950000200004405800003610050097000006030800970060790435080,169548372357629148248713956983267514475891623612354897524186739831972465796435281
507060134000090002800105007104700008000300640309020000000200050001903870406018003,597862134613497582842135967164759328725381649389624715938276451251943876476518293
000030108410000926682000050090500000200041790000207064007060013106800500039074000,975632148413758926682419357794586231268341795351297864827965413146823579539174682
090700050401300086003508002028000100106032400000096007004000210000985030600040008,892764351451329786763518942928457163176832495345196827584673219217985634639241578
160030040043085001590006007080001490004502078000060200809000000010700023320040650,168937542743285961592416387285371496634592178971864235859623714416759823327148659
054007802100509700360010000730090508600034090000200070000020460019086300040000105,954367812128549736367812954732691548685734291491258673873125469519486327246973185
051207609060504170000000003008050000040806900270009010509403006300072008620080040,451237689863594172792168453938751264145826937276349815589413726314672598627985341
351000900009800004020700010672001003008000751000904800090260008400003605030450000,351642987769815234824739516672581493948326751513974862195267348487193625236458179
002600093100070000006304070093081500000402008420590060081050740000009310540000600,872615493134978256956324871693781524715462938428593167381256749267849315549137682
020008503050170860604000001068700900000020710009035000030009000001300042570604080,127468593953172864684593271268741935345926718719835426436289157891357642572614389
300060085094700610007000003920030070800105900400009530006010800050402007730008041,312964785594783612687521493925836174873145926461279538246317859158492367739658241
108002500004960007600500200000000743030109002500670008000200301006054000020301000,178432596254968137693517284961825743837149652542673918485296371316754829729381465
403610870000308001280540000800103900075000000016025040000076000054900002009800103,493612875567398421281547639842163957375489216916725348138276594654931782729854163
053700809400600020907805041700004280100060000030900056600010030000080405012037000,253741869481693527967825341796154283125368974834972156648519732379286415512437698
100003000004690080509002701070316040200070038000089510350000002068907000000405000,186753924724691385539842761875316249291574638643289517357168492468927153912435876
390007001005049083080200740030500100571000200902004030600072900040800076800003050,394687521725149683186235749438526197571398264962714835653472918249851376817963452
406007010300050002001908056002005400605010800800460093070003280000820109090000004,456237918389156742721948356932785461645319827817462593174693285563824179298571634
080000000509804000200506930010300002008000076370902150800600017031070400004000260,183729645569834721247516938415367892928451376376982154892643517631275489754198263
000001000542000080908030406203800010160540007070600059000700900600029003400000125,736481592542976381918235476253897614169542837874613259321754968685129743497368125
850106030012005900030204800001038006000010740548000000600000009700609405004703002,857196234412385967936274851271438596369512748548967123625841379783629415194753682
162300900570062003000004050087503001001820090030000060000000042906000185708100000,162358974574962813893714256687593421451826397239471568315689742946237185728145639
