090007205000194000300008710070530090046002000000700060010020483809000500052600071,198367245725194638364258719271536894946812357583749162617925483839471526452683971
086000070102008030000061059040005000008070203069420081074900600300100098000507004,986354172152798436437261859243815967518679243769423581874932615325146798691587324
001027004900860310024950000080430050709000008500000631200003967057080200000006000,861327594975864312324951876186432759739615428542798631218543967657189243493276185
540010709000400302002803010020705600700290150906000004170380906400000007038060500,543612789817459362692873415321745698784296153956138274175384926469521837238967541
000030000900207610410008030507080320000001006600304908708400000002500090090016750,276135489983247615415968237547689321839721546621354978758492163162573894394816752
004032950506400000070980001867050090000200176000000003005006840030004002200817000,184632957596471328372985461867153294953248176421769583715326849638594712249817635
020590107006400290078001300000000084003060000040759002100080006480100500057203009,324598167516437298978621345765312984293864751841759632132985476489176523657243819
600004350380000012010005900100829000057030280000700604024970060000043000090100805,679214358385697412412385976146829537957436281238751694524978163861543729793162845
072609080800015940500700000901000000000000563003408002080300716269100008007004050,172649385836215947594783621921536874748921563653478192485392716269157438317864259
602010000070500090001784030900000104008095000247000008019008340300160000050003207,682319475473526891591784632935872164168495723247631958719258346324167589856943217
006380001002060409000900700000850004073000650510006930850030200207408000390270010,946387521732561489185924763629853174473192658518746932851639247267418395394275816
075090004600008000820510063007240080500300020000006057060900200004027106008403900,375692814641738592829514763137245689586379421492186357763951248954827136218463975
500060480700090001900802007007200060360500800008410900002040310630007000040608002,523761489786394251914852637497283165361579824258416973872945316639127548145638792
008376054000000600000485010030001080050007920290040007170060000020804503403000096,918376254547129638362485719736291485854637921291548367175963842629814573483752196
080000000006780104305094007820900000000140600901002083049200018008050076070003500,487321965296785134315694827824936751753148692961572483549267318138459276672813549
305200007000001003960080000200409510084006000503078006040010960009600201000052780,315264897428791653967385142276439518184526379593178426742813965859647231631952784
000030861401506000300087500600010053809004006000090020150370004924800010703000000,275439861481526739396187542642718953839254176517693428158372694924865317763941285
003050000600000140005108900300680700091075200200409500070046029409000600030027008,913254876682793145745168932354682791891375264267419583178546329429831657536927418
020003904805010000300600000090050037070200180000904006007000600003405720061820093,726583914845719362319642875692158437574236189138974256257391648983465721461827593
203000900000603408060040205600308500070150000008092010020500803901000007034807090,243785961195623478867941235619378524472156389358492716726519843981234657534867192
000147090005830000080005700700482601640000008300009500090060004002500170816300200,263147895975836412184925763759482631641753928328619547597261384432598176816374259
008030906367008000040700500000091200002580040610320005405200080009605702100000003,258134976367958124941762538583491267792586341614327895475213689839645712126879453
800460090930080500006020170450000032090002601001090050060800000005630724300051000,817465293932187546546923178458716932793542681621398457269874315185639724374251869
003000540015900080020004070784060009000010705000030028007500016140800000052076300,973681542415927683628354971784265139239418765561739428397542816146893257852176394
802900056600000000007024190040358060000700810930000074070801200083002040506093000,812937456694185327357624198741358962265749813938216574479861235183572649526493781
400500620010708390005620000008069100240000007900030050070010209306070080080300400,437591628612748395895623714758269143243185967961437852574816239326974581189352476
000000031209400800000570900610307009708090560090020004007810320086042000150006070,475289631239461857861573942614357289728194563593628714947815326386742195152936478
009001003105000024047090600700500040826000750000706301030240500600018000008305000,269451873185673924347892615713589246826134759594726381931247568652918437478365192
004028900050670000102009005206310000000800630007050040070000168010083002900004053,734528916859671324162439875246317589591842637387956241473295168615783492928164753
026005000000002901180003720000010070700209103003860004402900080637040200090000035,926175348374682951185493726569314872748259163213867594452931687637548219891726435
000430060206000000001900720000700950500010632460009807030000580010095000007120049,795432168286571493341986725128763954579814632463259817932647581814395276657128349
008063070000000820051200009074820003502104000600079000016080090030005041920400060,248963175369751824751248639174826953592134786683579412416382597837695241925417368
003050804074100023001000960040680100500720000308000470000090608020001750905406030,693257814874169523251348967742683195519724386368915472137592648426831759985476231
007060050010030004009708300801605090700800260052009003080500006040207509900040010,327164958518932674469758321831625497794813265652479183283591746146287539975346812
604020190030900020010800006071005802000079040502601030800007000056040907400160003,684723195735916428219854376971435862368279541542681739823597614156342987497168253
609001700701029054000000001907008200050000830080576000008207306160904000200030090,629451783731829654845763921917348265456192837382576419598217346163984572274635198
650032490002090007900804502008600030006315200000000600037180005000007100040900800,651732498482591367973864512528649731796315284314278659237186945869457123145923876
239600800800000040000108270100230400907004500000070086005060920602700050004905001,239647815871352649546198273158236497967814532423579186715463928692781354384925761
640203000080000670051480090900007580400520013000360200200051800035790060070000900,649273158382915674751486392923147586468529713517368249294651837835792461176834925
600900050001472960000050872000193620000005090830060400002000000905304000360000741,627938154581472963493651872754193628216845397839267415142786539975314286368529741
030670002050090170009841000620103000004000280700000050300200008910507400560000730,431675892856392174279841365625183947194756283783924651347269518918537426562418739
600009003000605000931070200000006750807090004004210030409068000020300049100040576,675129483248635197931874265392486751817593624564217938459768312726351849183942576
006080530200910600007002004403206001810370000079100025004600807508004093000050040,196487532245913678387562914453296781812375469679148325924631857568724193731859246
400256003800410700900007010004720050030000006501000409005093200006100080270580600,417256893853419762962837514694721358738945126521368479185693247346172985279584631
002000100810304500760800090004601800590400007080090360050007000000020601400980035,342759186819364572765812493234671859596438217187295364653147928978523641421986735
090081403307560000000000000600090001400700530280004709060043107950002300000108020,596281473347569812128437695673895241419726538285314769862943157951672384734158926
500096008210080073068020040070819005600405920030267000004003850000000000023100490,547396218219584673368721549472819365681435927935267184194673852856942731723158496
106090040040000203200005100008074010509100067000260308900630000750000000060000784,176392845845716293293845176638574912529183467417269358984637521751428639362951784
420000970010050028030090004350201080000003060962000700000504001001080530008037600,425318976719456328836792154357261489184973265962845713673524891241689537598137642
061040530370609000020080600700905804480000000000070215000013090900502300006000400,861247539374659128529381647712935864485126973693874215258413796947562381136798452
010058709900200400340670200060045008001060900200300060000004000005037004079800015,612458739957213486348679251763945128581762943294381567136594872825137694479826315
900020730600400001000796085050200300080015074300000092820970100017032000000680040,945128736678453921132796485754269318289315674361847592826974153417532869593681247
500001702208005030400060009000270981003506204007040063014300008006920400780000000,569831742278495136431762859645273981193586274827149563914357628356928417782614395
200014080004790502076300000000050600700043900901080450083900010420000300005002067,239514786814796532576328149342159678758643921961287453683975214427861395195432867
870090010304006005900020470000050008190200060042108300000003006700041059006070800,875394612324716985961825473637459128198237564542168397219583746783641259456972831
500300607080000901009875020802007014456001070003900002070090035000080100240650000,524319687387426951169875423892567314456231879713948562678194235935782146241653798
090023008008005201605107009032800170057004600900000000080290504061400030000700020,194623758378945261625187349432869175857314692916572483783296514261458937549731826
000070005071603080408090200080540000600002000902001308237000016000086070050000043,329478165571623489468195237783549621615832794942761358237954816194386572856217943
452000000000000306010789020600004005900006031078032009001007460034200800200900050,452613978789425316316789524623194785945876231178532649891357462534261897267948153
080260300040070801601003009030004607200000100765089000900007048027350000016000050,589261374342975861671843529138524697294736185765189432953617248427358916816492753
070400000000056840800000106020304001601709030340000280050670003039001020100890005,576418392213956847894237156925384761681729534347165289458672913739541628162893475
420006090803000760010058000078000000060409070300020510509340600000072300000900184,427136895853294761916758432278513946165489273394627518589341627641872359732965184
300000860004170003562004900700305010000090405000680000807420036609000020010008509,371952864984176253562834971798345612136297485425681397857429136649513728213768549
070080900560010008010409305840000002000071004600300800000092010305000020004007509,473285961569713248218469375847956132932871654651324897786592413395148726124637589
680000004010070390000064200307500002168000000004019060020893005009040780000701003,682935174415278396973164258397586412168427539254319867721893645539642781846751923
000005709070360040304080002020906003080501600190040007240000015050238000607000908,862415739579362841314789562425976183783521694196843257248697315951238476637154928
007000000020600001980300726305004000690208405000071090402803060750000809030050010,167429358523687941984315726375964182691238475248571693412893567756142839839756214
203900007000600098070034065050001002000200600904000030602510070100308000038762040,263985417415627398879134265356471982781293654924856731642519873197348526538762149
000602180020031705000500003300010046902405000076890020090000037143080000650004009,539672184824931765761548293385217946912465378476893521298156437143789652657324819
003408000090720050520003007970000028800109006005006740600002071080005290014800300,763458912498721653521963487976534128842179536135286749659342871387615294214897365
002300000930010080104008070000004100600582900090006257801090005043027001070600004,782349516936715482154268379325974168617582943498136257861493725543827691279651834
090360041027010000000049508036700094700830000001000060160400700004005920005080003,598367241427518639613249578236751894749836152851924367162493785384175926975682413
004906000700500208263070900005312000900054700006000041030007816600001005009000320,854926173791543268263178954475312689918654732326789541532497816687231495149865327
246000050170090800905230001700520300090000460308079000000302098001007500600100040,246781953173695824985234671714526389592813467368479215457362198821947536639158742
390040000705030068100905020408067010020000705009300840010020050907100300004680090,392846571745231968186975423438567219621498735579312846813729654967154382254683197
506001098008060400210000300050300070001098000043700206000950001020600004400030857,536421798798563412214879365852346179671298543943715286387954621125687934469132857
000300070006007904091400200200809140000076000008140503027000000603000081049058006,482391675536287914791465238265839147314576892978142563827613459653924781149758326
009080010830200064260090370000500030974000000580601400600008740007100205050023001,749386512835217964261495378126549837974832156583671429612958743397164285458723691
000500243104902600600080001210600080700391004050007090902004005380700060000030000,897516243134972658625483971219645387768391524453827196972164835381759462546238719
305800079070035200000000056900028605016009007002010030020900800403060000607000041,365842179179635284248197356934728615816359427752416938521974863483561792697283541
020179005075060018400300000010080000200600807009704036007200009600035400804000260,328179645975462318461358792716583924243691857589724136137246589692835471854917263
200000000001240705094080060007000006940700052310509400060430007708001020020006130,273695841681243795594187263857324916946718352312569478169432587738951624425876139
050760090730980005602400010000000030300240007807010900006370004000000800941650002,158762493734981625692435718465897231319246587827513946286379154573124869941658372
008290150400008000500300709083010620041800003000906000025043000700500006030020840,368297154479158362512364789983415627641872593257936418825643971794581236136729845
730649050040100207500000000100060000020300090098027004004000018216008900085706003,732649851849153267561872349153964782427381596698527134374295618216438975985716423
000071900307090000040065002200036015001400008059080304090020080075000000803000561,562871943317294856948365172284936715731452698659187324196523487475618239823749561
350009000001720089000010407000200104902470005060000000108500906005604230430090078,357849612641725389289316457573268194912473865864951723128537946795684231436192578
070034906000006070001200008709000540500803060002007019046018300950000000030700250,875134926423986175691275438789621543514893762362457819246518397957342681138769254
907065001830000007004000320402800500075640010006903200003000840600207090010004006,927365481831429657564718329492871563375642918186953274753196842648237195219584736
043065210067030400500800003000006105108970300029000040700051080400300020000020706,843765219267139458591842673374286195158974362629513847732651984486397521915428736
013090000600300702090205400701920800080006009900000041008570000032010500000804106,213497658654381792897265413741923865385146279926758341168572934432619587579834126
000400187090030000600500902080003070306008501152900040508020010004000800920007004,235469187891732465647581932489153276376248591152976348568324719714695823923817654
000007006025000093301500040069708000010029608053100079400000120007800000090045080,948237516625481793371596842269758431714329658853164279486973125537812964192645387
160000407300008000025370018070985006810020045006400090080500209000000070092046300,168259437347168952925374618473985126819623745256417893784531269631892574592746381
207000009064072500008001740309100004000350000020008065700069130903007020000480000,237845619164972583598631742359126874876354291421798365745269138983517426612483957
809000027200040600065002100500803400120075030000020500010000003006900018370084006,849561327231748695765392184597813462124675839683429571918256743456937218372184956
050000003098000604400210800805003190070465230020000700000194000639070080200800570,752648913198357624463219857845723196971465238326981745587194362639572481214836579
000000005083450010102306089060004957938010004074002000000023706090700028000160000,649281375783459612152376489261834957938517264574692831815923746396745128427168593
023500004500100870000096000000803001400009026096004700130047290042080603080020050,923578164564132879871496532257863941418759326396214785135647298742985613689321457
010504060089600207250800003090000130000065008507009040000070001320000700804230090,713524869489613257256897413698742135142365978537189642965478321321956784874231596
