045130000090000007020065308083002000100004560000790800450076030009800600007010402,845137296396428157721965348983652714172384569564791823458276931219843675637519482
020006000834070056076200103095120700000600801002040000400795000010003940300000080,921536478834971256576284193695128734743659821182347569468795312217863945359412687
000840070170030089340690210025180367000900000030000048480300100000020096002705000,259841673176532489348697215925184367864973521731256948487369152513428796692715834
790380000501760900000040180000020005900457310006000700040978060635000009000005201,794381652581762934263549187317826495928457316456193728142978563635214879879635241
020060080350102069047000500100083940080600002000715030800470000200309017005001006,921567384358142769647938521176283945583694172492715638819476253264359817735821496
600000031007080049040705200500009086001002000390060120400300000005900814126007005,658294731217683549943715268572139486861472953394568127489351672735926814126847395
206030000090106000350490180180000003900523000020000475030087009040060210800900050,216738594498156732357492186185674923974523861623819475531287649749365218862941357
709000100401307082200400600004029008006700051103060407908600000000074035000501900,789256143461397582235418679574129368896743251123865497958632714612974835347581926
508900402410050000006200083300420905000030007007060100904000050065740200800001700,538976412412358679796214583381427965649135827257869134974682351165743298823591746
059401302307905004008000007200090003080006400100340800040002608000010509576000000,659471382327985164418263957264598713783126495195347826941752638832614579576839241
000070083073060190410095000600030000054200907900400021002083050090001860000500004,569172483273864195418395276621937548854216937937458621142683759395741862786529314
000960701050014802370500040000320070400000900208079065019000380020008014600035000,842963751956714832371582649195326478467851923238479165519247386723698514684135297
000009027083260405012050000020004090830700600005391078400108002000076030001500900,564819327983267415712453869127684593839725641645391278496138752258976134371542986
070100000008200094290630700007040910000075043600002008436000050700000021005098300,574189236368257194291634785857346912912875643643912578436721859789563421125498367
804060005935000700060320900010000047400032508358700061097048000002000000000500810,824967135935481726761325984219856347476132598358794261197248653582613479643579812
530006020847020050060070104009000000020030507100685090000000280016800903703900010,531496728847321659962578134359247861628139547174685392495713286216854973783962415
060930020001050008320000607400003062000148030500700009900000000230480071074609500,865937124741256398329814657417593862692148735583762419958371246236485971174629583
270800000800930500001005007602040105019203070400059030040070300000500680900084002,275816943864937521391425867632748195519263478487159236148672359723591684956384712
800020001003006509057409000604002030079080016030095704042700053000000100008003062,896527341423816579157439628684172935579384216231695784942761853365248197718953462
900320000050008074860075002315000080000900620000014057040180003700200016096007000,974321865253698174861475932315762489487953621629814357542186793738249516196537248
200100050007800904340000070400900003000045600026780010000008006031500800050090721,269174358517832964348659172475961283183245697926783415792418536631527849854396721
900080030041002067870040900004003720009006510000010046005908600382007005000030201,926785134541392867873641952164853729239476518758219346415928673382167495697534281
670000025000009800200000710810300004000005900037620001502048003003700408040150600,679481325351279846284536719815397264426815937937624581562948173193762458748153692
000502004200310086570800000015408007009000400806059203030004905000160300000070061,168592734294317586573846129315428697729631458846759213631284975987165342452973861
074060805000017320200400079905000006000109400840300000050004063109080002030670050,374962815596817324281435679915748236623159487847326591758294163169583742432671958
709005000060004003010806205100003467000000080930607001200370104500200600048000090,729135846865724913413896275182953467657412389934687521296378154571249638348561792
040709006860004019012050003050800241000060700200005090029000060503140000684030000,345719826867324519912658473756893241498261735231475698129587364573146982684932157
040109502902005006008406000700050000060704003430008910000602080207090604093000105,346189572912375846578426391721953468869714253435268917154632789287591634693847125
000700510280003000509060400057010002000640300634087009420000000003000061060908270,346792518281453796579861423857319642912645387634287159428176935793524861165938274
002480570301600000070090020010000604509800000040507083007001008080026105090300200,962483571351672849874195326718239654539864712246517983627951438483726195195348267
320007800000005009008136070150000040463080001000600090002000150034201000006790084,325947816671825439948136572159372648463589721287614395792468153834251967516793284
008001503039000240721005008100900000050000820093067000000070300002608405040309017,468291573539786241721435968184952736657143829293867154916574382372618495845329617
000000490730405006100870005508002700010360000094000802006019030020000000870023004,685231497732495186149876325568942713217368549394157862456719238923584671871623954
218603070690020040003005001000400900520008030730009620060051002000800010840070305,218643579695127843473985261186432957529768134734519628967351482352894716841276395
320706080009500700004020010700382400205601000080000009900004073050100060600207004,321746985869513742574928316796382451245691837183475629912864573457139268638257194
300010490008090600540003000200736000070020500091008003160200304002004078800150200,326815497718492635549673812285736941473921586691548723167289354952364178834157269
078006020000041500300720004100005403047260100809000006005074000000300809260108040,478536921692841537351729684126985473547263198839417256985674312714352869263198745
007004060350000200006258070080100043020070009001000650970005480803600100100042900,217934568358761294496258371589126743624573819731489652972315486843697125165842937
001000304063010509000807062040080701000061208000920000029000406056093000708500000,271659384863412579594837162642385791935761248187924635329178456456293817718546923
060840200001095870009100503103054090000060120000907048070000000305020700428006050,567843219231695874849172563183254697794368125652917348976581432315429786428736951
000800012607000083003092500004900170060050000289001430400003768300400000150206090,945837612627145983813692547534928176761354829289761435492513768376489251158276394
083460000500902007400800000107006034800000025090300010009170860056040009710003002,983467251561932487472851396127586934834719625695324718249175863356248179718693542
827030004005700010100005060008000090300009501609804007030020049000603200042017008,827136954465792813193485762258371496374269581619854327736528149981643275542917638
301400670009026501800000030003201090000005040500780000907164003006090008152000900,321458679749326581865917432673241895298635147514789326987164253436592718152873964
060290080403080509080001067900450023257800040000600900008023000075000002090004630,761295384423786519589341267916457823257839146834612975648923751375168492192574638
800001000039020056005000702104050008006009520907300601200034870000608004700010903,872561439439827156615493782124756398386149527957382641261934875593678214748215963
801023074000607250070000000520000309009080001103050040050094006497160002000708000,861523974934617258275849163526471389749386521183952647358294716497165832612738495
804002051030708020096300000008473000005001094107000802600050900000620507009000016,874962351531748629296315478928473165365281794147596832682157943413629587759834216
200708640040092070100054032000030096025000700008109000800507009309800020050060401,293718645546392178187654932471235896925486713638179254814527369369841527752963481
070500020041600080900003007002090504007200000600850031408720900015034060000100005,873519426541672389926483157182396574357241698694857231468725913715934862239168745
004050260080602090090010700273090100001400008040063500000030809310540070057206400,734958261185672394692314785273895146561427938849163527426731859318549672957286413
300100700000706040908000003050014906004008200200693074005040020020050160037802000,346189752512736849978425613753214986694578231281693574865941327429357168137862495
056040200030600090000050083009700000060014325000068040302001407090002108107080050,956843271831627594274159683429735816768914325513268749382591467695472138147386952
007200500608407001400090082906800003000100800035002106043000000100060007700081309,397218564628457931451693782916875423274136895835942176543729618189364257762581349
035010000090800306000004920607152400010000805000006000769300008008200040004060539,235619784491827356876534921687152493912473865543986172769345218358291647124768539
010306090750800000004070506060009042902700810000540700830907020000028103001430000,218356497756894231394271586567189342942763815183542769835917624479628153621435978
000006000050790600102005709096007501073021008840350000409000020000070305000082160,987216453354798612162435789296847531573621948841359276419563827628174395735982164
003040020006800357975200010080050604204760000500900030709008100000600249000301800,813547926426819357975236418387152694294763581561984732759428163138675249642391875
005037980860509700000000002650020000201000604900008003410003000000460007020970805,145237986862549731739186452653724198281395674974618523417853269598462317326971845
480000900050104067600053001000091073200000509063800020008600010100027450024000300,481762935359184267672953841845291673217436589963875124538649712196327458724518396
190030050045009230800600701702400000006800015080003970300072006070000140500080300,197238654645719238823645791752491863936827415481563972314972586278356149569184327
401007020000000680069020005010090054800460302200031709675004000000503400040280001,481657923532149687769328145316792854897465312254831769675914238128573496943286571
900400106050006300403172900027008600000309084000000035006031020008700090170205400,982453176751896342463172958327548619615329784894617235546931827238764591179285463
730002600001340920000800050400000070080430201059018000804000509095206307006090000,738952614561347928942861753413629875687435291259718436824173569195286347376594182
904200800001900025005037060000800002846050701000071630060008103050019004007540000,934265817671984325285137469713896542846352791592471638469728153358619274127543986
500023041300410005080000200000060500958000420004002097609708030002006700010039800,597823641326417985481695273273964518958371426164582397649758132832146759715239864
000020050800073090709005104506001403090040006002000080035680029060957000004300008,643129857851473692729865134586291473397548216412736985135684729268957341974312568
800003172005000000070004083017800006030605090094302000080020031102000750000096048,846953172325781964971264583517849326238615497694372815489527631162438759753196248
000000003570204000081003076050020190204608007030059000960105038008000420000700900,629871543573264819481593276856327194294618357137459682962145738718936425345782961
050000903002000010809020004005031000041709000000605780006408502200070000070100349,457816923362954817819327654785231496641789235923645781136498572294573168578162349
600047000001600000080000390027013004009508007300200500830005901105006082042700000,693847125251639748784152396527913864419568237368274519836425971175396482942781653
510090020004300050960840700000470000098006300107509400070060281800002609009030000,513697824784321956962845713256473198498216375137589462375964281841752639629138547
094000021100603580500900070007490050900007308000302060700100230203000006605008004,394875621172643589568921473837496152926517348451382967789164235243759816615238794
307058000000002860600040103180905000030100970002000004000007420000086005940030000,317658249459312867628749153184975632536124978792863514863597421271486395945231786
081032700005040003700001629804360100090054300020900060030000407000805000670020050,981632745265749813743581629854367192196254378327918564532196487419875236678423951
070020041400010806803650000040003700000092050508000012000060900009807004732041600,976328541425719836813654297241583769367192458598476312184265973659837124732941685
004000700000350210508900006007002089000067403410508000302010960905000000860020034,134286795796354218528971346657432189289167453413598672342815967975643821861729534
290000076006380200000900805004005003005106082071000040703510000080004900050270601,298451376516387294347962815824795163935146782671823549763519428182634957459278631
006000007080900410000015093053801700704390080100004602001060004039007200400503000,916438527385972416247615893653821749724396185198754632871269354539147268462583971
325080009000300040008162070700005602009000001080420500041890003030007000006010900,325784169167359248498162375714935682259678431683421597541896723932547816876213954
089600001107039400004000060000017680020300017000564003000070958395080700040000002,289645371167839425534721869953217684426398517871564293612473958395182746748956132
910200607000900253006040080580030071042100500700085960000800010090070000308060004,913258647874916253256743189589632471642197538731485962467829315195374826328561794
700200000009037186608019002020150340000060900001040208040005090800300701300070650,714286539259437186638519472926158347483762915571943268147625893865394721392871654
002800000010047020500091730090080300000006051040300906760420800000700240800503090,472835169319647528586291734695184372238976451147352986763429815951768243824513697
729803001010060730000500000203005006084000190000406028068004500050902800130000007,729843651815269734346571289293185476684327195571496328968734512457912863132658947
304000009500600800206058001007005002000801043490370600700020008061703050005040300,384217569519634827276958431137465982652891743498372615743526198961783254825149376
100070054000060020002148300005000090400310600703200100370056009020809046090700008,136972854847563921952148367215687493489315672763294185378456219521839746694721538
306004007780000009014050000001270400500803290000510300403900080070080010090060502,326194857785632149914758623831279465567843291249516378453921786672385914198467532
752008040030021000640009800400632008310080050006100000000000601800007390070590002,752368149938421567641759823495632718317984256286175934529843671864217395173596482
072000000504800203180009040390024001000007506200100000030010809010005370008600015,972346158564871293183259647396524781841937526257168934435712869619485372728693415
004000005120070800908200347400500000003807690006140080601002003050000070230906400,374698125125374869968215347482569731513827694796143582641782953859431276237956418
500000048034200090920068001010600705740380900005002030000000470480009102006100500,561937248834251697927468351318694725742385916695712834159826473483579162276143589
470100008006039100035200700700004009020500000500870030900452800001006247800310060,479165328286739154135248796713624589628593471594871632967452813351986247842317965
387000002000009060001080040040507000060020730000100908203090085059012603870400010,387641592524379861691285347948537126165928734732164958213796485459812673876453219
001090706030080094000503201300240800900300650008060000100700302070029040540100000,851492736237681594496573281365247819924318657718965423189754362673829145542136978
060570000000060802245009001008006040070380209109000300037000100000050986900124005,861572493793461852245839671328916547674385219159247368537698124412753986986124735
400000070507240800600000902004500023700983005001000600030056104900010008006892300,429638571517249836683175942894561723762983415351427689238756194975314268146892357
080410000670002501000703920500000280406090000310040050204370095009000700051800006,982415367673982541145763928597136284426598173318247659264371895839654712751829436
000000908007254000106700400050017030240930500000000006901083002075020083080000140,524361978897254361136798425659817234248936517713542896961483752475129683382675149
093070005100000000027160804400023000260900040001500089000407050038002090900031607,893274165146385972527169834489723516265918743371546289612497358738652491954831627
