300100080869070004040006059090000510070620000200401906006000305000340700750200001,325194687869572134147836259694783512571629843238451976486917325912345768753268491
080020643004100500905007020000860070073000051100003200000059402509080010307406000,781925643264138597935647128452861379673294851198573264816759432549382716327416985
003004108201000405060250009000043000740080050800900601080630970500400086000072000,953764128271398465468251739612543897749186253835927641184635972527419386396872514
600008001024700030500320090100040279000002840800570000090017300006090080075403006,637958421924761538581324697153846279769132845842579163498617352316295784275483916
060402000100705029027030105073000000004600908600801004082090500900180037040000806,569412783138765429427938165873549612214673958695821374782396541956184237341257896
000940010081200006003070502007000009650300208300004070800761050014020030900050800,265948713781235496493176582147582369659317248328694175832761954514829637976453821
372080490008002005400090000056000071000630900007805000021076840000000623080904007,372581496198462735465793182856249371214637958937815264521376849749158623683924517
630040900020503170000890050801000005097400060402601090500020308000700040109058006,635147982928563174714892653861279435397485261452631897576924318283716549149358726
103000002600090410020850076405070600076904850800200003310007000000020000709510080,183746592657392418924851376435178629276934851891265743312487965548629137769513284
042708000601003000050200908090020040300450176075001300200800409800900031000060200,942718653681593724753246918196327845328459176475681392217835469864972531539164287
280000300700264100015000070060000500900003407024050089003015902108009060000700030,286571394739264158415938276867492513951683427324157689673815942148329765592746831
900080200137000000004076035002508307473000000000009640300000109051024060200060700,965483271137295486824176935692548317473612598518739642346857129751924863289361754
050026800980000007032050410000300040627001008005872060068040079100009230000200000,451726893986134527732958416819365742627491358345872961268543179174689235593217684
830500017400000000000090638690805000710006803003410002006270300000000074905100080,839562417467381529251794638692835741714926853583417962146278395328659174975143286
040209107000600904008075060069020740200930000530008000600150009097004508020000030,346289157752613984918475362869521743274936815531748296683152479197364528425897631
005900104000030000100470000006080430090500061071020090508000740730014802000700009,385962174947831625162475983256189437893547261471326598518293746739614852624758319
520009180000760300070018004950000403602000000010832900290600501080093070704500009,526349187841765392379218654958176423632954718417832965293687541185493276764521839
906005020380002750001040063450069032002050800000071006105300000268000004040980000,976135428384692751521748963457869132612453879839271546195324687268517394743986215
000370401050000300081095067205800040900260000000004000043007620092040180160930070,629378451457621398381495267235819746974263815816754932543187629792546183168932574
030000908000500040901007000008000063603100400009005807040018020002430050716009300,534621978287593146961847532158974263673182495429365817345718629892436751716259384
700301005002690000090850604010702530000000078208009140600000000000040901529000087,764321895852694713193857624416782539935416278278539146641978352387245961529163487
006007901094210560000005038850400200602801300039006070703904000020060005000000140,586347921394218567271695438857439216642871359139526874713954682428163795965782143
140800005000007000298001760560000802000700003003480091086032910051000300070090046,147869235635247189298351764564913872819726453723485691486532917951674328372198546
005120070490080200780004005510800740004307906900000031300060510000903000006540080,635129478491785263782634195513896742824317956967452831349268517158973624276541389
004050300780600902000821060000703090875100003060000200096008007310500406200040080,624957318781634952539821764142763895875192643963485271496218537318579426257346189
400001000736050200002679830009004065800030000000502700500090408007100520610080900,498321657736458291152679834279814365865937142341562789523796418987143526614285973
007010069503007008100509200001004000020800073809026045000605780400092001030000000,287413569593267418146589237351974826624851973879326145912635784468792351735148692
300071000090203107050680200000000582400050001270060093809000006004027300031400800,342571968698243157157689234916734582483952671275168493829315746564827319731496825
096005800704309016080700003000007920002168400053000008610020750200000000007904100,396215847724389516581746293468537921972168435153492678619823754245671389837954162
200004036003805090009070002040000050087200063020089100100750600074013800090002007,258194736763825491419376582941637258587241963326589174132758649674913825895462317
000020461020050700030168092800901003004380910000000075100200000760000050983007600,598723461621459738437168592856971243274385916319642875145296387762834159983517624
000508073006900540020070198007005201068203000900000060000010809014860705030000400,491528673786931542523476198347695281168243957952187364675314829214869735839752416
070094000801207450000500000020300107096080030030140600002610003903005201004000780,275894316861237459349561872428356197196782534537149628752618943983475261614923785
060413020507802000401050900000020000090005276780900000803060000000040051006209340,968413527537892164421657983615724839394185276782936415843561792279348651156279348
190070040020005603380006001001000507730900068004002300000413000500600700040080092,196378245427195683385246971961834527732951468854762319279413856518629734643587192
302100790040000603065002081000270900008005030209010070800460000094058010753000004,382146795147589623965732481516273948478695132239814576821467359694358217753921864
800560090002000186700014002006003907000790841000000020300007400091000005540920060,813562794452379186769814532186243957235796841974185623328657419691438275547921368
000080900730500000200009761047020005000003840650100290508070600010802004900000320,461287953739561482285439761847926135192753846653148297528374619316892574974615328
903710600406000010720009840060900500805003090200500031000006704178200000000830050,983714625456382917721659843364921578815473296297568431532196784178245369649837152
698070200007018040400000090300007460006290500001005702000300008805069100079041005,698473251527918346413526897352187469786294513941635782164352978835769124279841635
062301050071090800090470300027500190003700204800000006000004907014030000000926008,462381759371695842598472361627548193153769284849213576286154937914837625735926418
080350007002000004039000650015009762006080030094027180608700000000041000047002593,481356927562978314739214658815439762276185439394627185658793241923541876147862593
740000230603740001000908000407005069300160702000209305000000006050423000078500090,749651238683742951512938674427385169395164782861279345134897526956423817278516493
190078500406900000020001700700000300060730140500104000089060010300080620040502090,193278564476953281825641739714896352962735148538124976289367415351489627647512893
010063095000400000706900080100092067030005400082000031800000000201030970059820046,418263795593478612726951384145392867637185429982746531874619253261534978359827146
070346008000080040900200700318075200060000005450908007830004100040010059006020034,571346928623789541984251763318475296769132485452968317835694172247813659196527834
400360820005007006037000405003200009008053001240600000090802700100490058000071900,419365827825947136637128495753214689968753241241689573596832714172496358384571962
500800702029030065160020040070300208000962400950000001000580100830610500000007009,543896712729134865168725943476351298381962457952478631294583176837619524615247389
000294600530607020009000100760908430003070000000400280470031960010800705205006000,187294653534617829629385174762958431843172596951463287478531962316829745295746318
107200095500000801000000420090804600000050004031067002006085000740003100800019703,167248395524396871983571426295834617678152934431967582316785249749623158852419763
003240007095108060460005000000000109000007028014600070000000830052904010608030500,183246957295178463467395281726853149539417628814629375971562834352984716648731592
756000408340007000001050006200000001090802040600931720802003500500060107007100930,756329418348617259921458376273546891195872643684931725812793564539264187467185932
300910580200430060007002400000100296620700000080090350700008031005000900104600870,346917582218435769957862413573184296629753148481296357792548631865371924134629875
090005017570090030002083400024018060000650000050004182006027008040000900387000005,493265817578491236162783459724918563831652794659374182916527348245836971387149625
070410085630705402001000000700800003200649000095003104006500790000062501400080030,972416385638795412541328679764851923213649857895273164126534798387962541459187236
409000107803006020600105000700000485090003000105007209000600351000908600004520070,459382167813796524627145893736219485298453716145867239982674351571938642364521978
006720300980010004034005000102068000600039708000000040409080520820050003003000096,516724389987613254234895167172468935645239718398571642469387521821956473753142896
000634710702001003000009084096140000510082000003700200905000300060020045004063970,859634712742851693631279584296145837517382469483796251975418326368927145124563978
000700503310900640000042001007030850080025090620009100000684300530000000400000079,894761523312958647756342981947136852183425796625879134279684315531297468468513279
600580090000002045007031008200009017004000000500678030006800004010090820043017009,632584791189762345457931268268349517374125986591678432926853174715496823843217659
900076003608002050040050100800903402310200000060500078003010987097804036000000000,951476823638192754742358169875963412314287695269541378423615987197824536586739241
000003841900760500823001000000470030450000697031000002142080705000600000689200300,567923841914768523823541976296475138458132697731896452142389765375614289689257314
001000007000806400940050310502080706300900000000070239425100000608792050010003060,851439627273816495946257318592381746367924581184675239425168973638792154719543862
053070006460250700000904002918000200020100403007080095080040050700000009105320800,253871946469253718871964532918435267526197483347682195682749351734518629195326874
600895000831040500900006024005108069000500403100000700304079150786000030000200000,642895371831742596957316824475138269298567413163924785324679158786451932519283647
503020100900708400200600893000041702069000000000507038842000050005073001000204600,583429176916738425274615893358941762769382514421567938842196357695873241137254689
001750092409610500060003008740002003100060005806490000070240059003000100200500780,381754692429618537567923418745182963192367845836495271678241359953876124214539786
001006025000730060805900400070408350000002107180500009600080034352100000090007600,731846925924735861865921473279418356543692187186573249617289534352164798498357612
007000009840000630015090070700301200038020050690050010080900100401006020020703805,267134589849275631315698472754361298138429756692857314583942167471586923926713845
640030020300060107009508000100000004850301709067205030900120005004900000078054900,641739528385462197729518346193876254852341769467295831936127485514983672278654913
700300089048000510120750000506401003007802000010000690053109070000000402600003001,765314289348926517129758364586491723937862145412537698253149876891675432674283951
070058092008410000010027840930700601000300070002160300340000260007500000580039400,473658192298413756615927843934785621861392574752164389349871265127546938586239417
208050630000009801310070000500000980076200040000040002829004070034700510700608009,298451637467329851315876294542167983976283145183945762829514376634792518751638429
002000400000500387007030016030060008100093670400801050805020034600040009200709800,312687495964512387587934216739265148158493672426871953895126734671348529243759861
006100000290050087000480065140809020620003740003000000009000251850060300017040096,586197432294356187731482965145879623628513749973624518469738251852961374317245896
009000000017040029400703060806020900005600270070510040052008704300005000000930108,639251487517846329428793561846327915195684273273519846952168734381475692764932158
100080023000090400854007000060015840700023519009008600003000974080402300001060050,196584723237196485854237196362915847748623519519748632623851974985472361471369258
000905730040036010300071608031602005908000041020080000010000450070090000002708900,186925734247836519395471628731642895968357241524189376819263457673594182452718963
000309000410200980003800640030008100002500400006070005605094037020600010390050800,268349751417265983953817642539428176172536498846971325685194237724683519391752864
200040007080000690900815040050900002400561300060073400819300000325007806000020000,231649587584732691976815243753984162492561378168273459819356724325497816647128935
601000043030200790429000001080065000006709080002301600004007000708590300100840520,671958243835214796429673851987465132316729485542381679254137968768592314193846527
700000024208090300006035010050000180000140002003000076002401790090800000001067053,735618924218794365946235817654372189879146532123589476362451798597823641481967253
040987016860050000000100240003078920079206003000040067128000000500090470000600301,342987516861452739957163248613578924479216853285349167128734695536891472794625381
000702041506004200000080009083040060061008095904000007005030008090126070410090300,839752641576914283142683759783549162261378495954261837625437918398126574417895326
605100480002003060790800000800005609100070342026000070003097000040060095007000100,635129487482753961791846253874235619159678342326914578513497826248361795967582134
875001094030000026604080001002905000000008100960034070090000500001750002300400608,875621394139547826624389751712965483543278169968134275296813547481756932357492618
032500901080039000070400006000010275004006090000320008025100700600002009001648030,432567981186239457579481326368914275254876193917325648825193764643752819791648532
007020809420800000006370050700500003048000025900014070180690700009003006503702040,357426819421859367896371254712568493648937125935214678184695732279143586563782941
080003500004250010000097002300806700020000304097005060230009001879100005041730800,982613547764258913153497682315846729628971354497325168236589471879164235541732896
000000004103870009097502006750001063089620700000090040204300007000004100365900080,526139874143876529897542316752481963489623751631795248214358697978264135365917482
060093000470000609018002350090146000500000846000300070102905700000020080340807005,265793418473581629918462357897146532531279846624358971182935764759624183346817295
030000079400069008820050000080001634600078090102000050000705010304200000950480062,536842179417369528829157346785921634643578291192634857268795413374216985951483762
087520000020000856060109004005040030008007090000600205100894500000012900004300072,487526319921473856563189724215948637638257491749631285172894563356712948894365172
005001306096000002470000085040100009027853400608400000839007050050040073000200100,285791346396584712471362985543176829927853461618429537839617254152948673764235198
040300025920057000000400800390010047200600510600079200080004050000006093030720406,847361925921857364563492871395218647278643519614579238786934152452186793139725486
300002010040503682006780904000000070400106050503900408000075006090040120007010003,389462715741593682256781934962854371478136259513927468134275896695348127827619543
510200630070006800600970004204150009803007005000020400300490010185000900007003062,519284637472536891638971254264158379893647125751329486326495718185762943947813562
000800160203000050000000008308071000050902004079006810007059020510047609046010300,794825163283164957165793248328471596651982734479536812837659421512347689946218375
070239000061400200009070050040106980800005030900703006000000840007000520004517603,578239164361458279429671358743126985816945732952783416195362847637894521284517693
060204000700000009890010346030006980000752001420900060008000054900080100305000700,163294875754863219892517346537146982689752431421938567218379654976485123345621798
