020000053514080060000901408700035906300064800805000200050006001039020007400073000,928647153514382769673951428742835916391264875865719234257496381139528647486173592
100000096750004300062007050210800000080069013300020070040075028900100000000008461,134582796759614382862937154217853649485769213396421875641375928928146537573298461
000000849300816000250470003900600180105000700067380050730000200012060408040905000,671532849394816527258479613923657184185294736467381952739148265512763498846925371
590040007718500420000200010203019080000000000067004300040072100020030509100658003,592146837718593426634287915253719684481365792967824351345972168826431579179658243
090805030203910008000020070618000020302160590040000000004300081050079003706200040,197845632263917458485623179618594327372168594549732816924356781851479263736281945
500010004300076000000230956408000200792050300000000179800407000060309510070000002,526918734349576821187234956418793265792651348635842179851427693264389517973165482
810000900009704600670003200000500407701020000083009000000060530200140060590002704,814256973329714658675893241962531487751428396483679125148967532237145869596382714
902050007570890061000000050003065840456002000210070030009006100180004026020700304,932651487574893261861247953793165842456382719218479635349526178187934526625718394
060740008090200560438006000704308001000000600050000807900037200305109000201054709,562741398197283564438596172724368951819475623653912847946837215375129486281654739
040700001000609030095000827418500070000802000060030109200108060300054000009060705,843725691721689534695341827418596372937812456562437189254178963376954218189263745
500840026049000370601002900874603000900000000000051700106308052020060000050094001,537849126249516378681732945874623519915487263362951784196378452423165897758294631
490802003700005600008410000030090000605200170020600030001380050500000407809067020,496872513712935648358416792134798265685243179927651834271384956563129487849567321
005002007810060000046300809080006000700008920300751040100020500003900280409100306,935842167817569432246317859584296713761438925392751648178623594653974281429185376
580090003092607004000200860001000627004009000870306000200000030403500000700108052,586491273392687514147253869931845627624719385875326941258974136413562798769138452
300070040000301000001095820060900700900020430430080106546010008008050200000700069,359872641824361957671495823165934782987126435432587196546219378798653214213748569
048070002003060050090103000010089074700030005950006800000800030270041960000050241,648975312123468759597123486312589674786234195954716823461892537275341968839657241
698205400100600007025000080049160000300008050016003900080540003007030064000907010,698275431134689527725314689549162378372498156816753942281546793957831264463927815
700000050061040000038025640409780023200030001070500090040001076603008009000300280,724693158561847932938125647419786523285439761376512894842951376653278419197364285
000730400040001006006400509001054300002000001600209847950000080017002905203080070,529736418348591726176428539781654392492873651635219847954167283817342965263985174
300005002007600001080010090000092040005708000068341007006920005170000300030004968,391485672257639481684217593713592846425768139968341257846923715179856324532174968
020080460100500098003040502430902007000100000010760230005000100200003604689000000,527389461164527398893641572436952817752138946918764235345276189271893654689415723
003046012002009500950700840300007090700800603015200004080061000006425370000000005,873546912462189537951732846348657291729814653615293784587361429196425378234978165
004000000063740059210086000000068042092300760000100005007600004538002001000090327,754239816863741259219586473375968142192354768486127935927613584538472691641895327
400800300002040069390501207050000086040170005169200000000005702901080030005924000,476892351512743869398561247257439186843176925169258473684315792921687534735924618
003020009090000825008060030005083100400502700070600090206009051507014000800300000,753428619694137825128965437965783142481592763372641598246879351537214986819356274
804700035609000200270150060026000403300040001000098500501807000030010078090030002,814762935659483217273159864926571483385246791147398526561827349432915678798634152
000809060031046280200000400000000028009512000406900007142370500007650000000000034,754829361931746285268135479513467928879512643426983157142378596397654812685291734
001950078090100006240070300000003061600007000704800950030001007400020080089065430,361954278897132546245678319958243761613597824724816953532481697476329185189765432
091700402000008007060452010005124903006005001040000780050396000400000320070000590,891763452524918637367452819785124963936875241142639785258396174419587326673241598
070296000001000809036040000250000381000305090000809074590080106300067000040001250,875296413421753869936148725259674381784315692163829574597482136312567948648931257
000024580070900000100050006700008001051040008049007060003061070500030042628000019,936124587275986134184753926762398451351642798849517263493261875517839642628475319
080104500702060040050090000200350008008406300010002700063047890970005620000030001,689124537732568149451793286247351968598476312316982754163247895974815623825639471
000800003706000405020009160000516040405070000079300020040000010810423600092180700,951864273786231495324759168238516947465972381179348526543697812817423659692185734
520080090603701000080040106050903470700020081002060050100408000000079305004052009,521386794643791528987245136856913472739524681412867953195438267268179345374652819
693014000080530000000007002400300509036048070900060000000006027007090058010802094,693214785782539416154687932478321569536948271921765843849156327267493158315872694
100050039840600020009307000025000608600725040090000070010200306037000081060801490,176452839843619725259387164725943618681725943394168572918274356437596281562831497
038000105005086039020400076047960001900800750001004000000710400010030002306500900,638297145475186239129453876847965321963821754251374698592718463714639582386542917
000284300500007426090000001007603950008010604600040007070052000102300070356900800,761284395583197426294536781417623958928715634635849217879452163142368579356971842
400006508690000000028070000002000037050003490100708000046109003089045160210080005,471936528695812374328574619962451837857263491134798256546129783789345162213687945
008490030000061070010000040600307000195020700000800054070083091049000025530000800,768495132453261978912738546684357219195624783327819654276583491849176325531942867
208730004090080670500000020020000045300060000704509103006418200100000080007300506,268731954493285671571946328629173845315864792784529163956418237132657489847392516
017060000082050040904008000000200801653800207000905000700000010100693002290140506,517469328382751649964328175479236851653814297821975463736582914145693782298147536
032708016000005800800460590180000250000003041040020060425017000000600000907204030,532798416694135872871462593183946257256873941749521368425317689318659724967284135
000700500409020000053104009015000023006509780070208006000040605038000070042360001,261793548489625317753184269815476923326519784974238156197842635638951472542367891
070892050150403000400710006602000070080030094000500008001280930090006807045000100,376892451158463729429715386612948573587631294934527618761284935293156847845379162
080500040700129000300004026000601030240730800090000005007002001109080500056007094,982563147764129358315874926578691432241735869693248715437952681129486573856317294
000000007540873000020004900050169003870000094301000206003400020700090060410657080,138926547549873612627514938254169873876235194391748256963481725785392461412657389
080900160600002709009300058050060012100040800072800930004008307907005000003400020,285974163631582749749316258358769412196243875472851936514628397927135684863497521
100020830500803906700009400008005013040600090002030607009007080000400002417006300,196724835524813976783569421678945213341672598952138647269357184835491762417286359
006300007500000023010058490403800609700005000092160030030609004248000000009012050,926341587584796123317258496453827619761935842892164735135689274248573961679412358
003100065000782009004000000700050036001900080598034200806003401000298003050000720,273149865165782349984365172742851936631927584598634217826573491417298653359416728
093006450040320000008590010007100306050400070809070020700930602002008005100060708,293816457541327869678594213427159386356482971819673524785931642962748135134265798
050040003109003020820700005760025000201000900030086004076850400000009030008000760,657248193149563827823791645764925381281437956935186274376852419412679538598314762
004700100200000048350810260009003000700689020580200304000060005000407000010390680,894726153261935748357814269129543876743689521586271394972168435638457912415392687
040300960023605010005410008000560400061007003007030090800090007092001580716000200,148372965923685714675419328239568471461927853587134692854296137392741586716853249
000648500050000060098200071800010204030700900100052030502980007004501620070003080,721648593453197862698235471867319254235764918149852736512986347384571629976423185
309705140000009068740020000800010900006000020010650300180000030090041607030092405,369785142521439768748126593873214956456973821912658374184567239295341687637892415
245800006390000400060100093010907000008002531406005800002600180050030060000071002,245893716391726458867154293513987624978462531426315879732649185154238967689571342
008074096504903002000580070900400700100306004050020009036010800700200000019005320,328174596574963182691582473962451738187396254453827619236719845745238961819645327
004900038078010009200300100500780400002006300080009201730560040006200000401003070,164925738378614529295378164513782496942156387687439251739561842856247913421893675
000600090009810000500090203460700500050040830070902016290300165100000008003070040,834625791729813654516497283461738529952146837378952416297384165145269378683571942
820000000093005600760080425900102004500000008017049200100096870006504310070000000,825461937493725681761983425938152764542637198617849253154396872286574319379218546
004009050030000070005320104002080300870050910010030006290004005658070090001600000,724169853136548279985327164562981347873456912419732586297814635658273491341695728
065400008300000906200000170020058000506090000030067024052800309040005810901706002,165479238378512946294683175427358691516294783839167524752841369643925817981736452
060840050709050004080736200001600400005007000320000906200005600973001080000200139,162849753739152864584736291891623475645917328327584916218395647973461582456278139
507000030000018904840250060100020070060000093002630508050107020790000040034069100,517496832326718954849253761183925476465871293972634518658147329791382645234569187
401580700050030080602000003200104039098200001007003600000010002906000050500760148,431582796759631284682947513265174839398256471147893625874315962916428357523769148
800030002090504000003000600200003578075690100001000400002100830100280047950007006,814936752697524381523871694269413578475698123381752469742169835136285947958347216
010968000605070801020000700107053008054000009000409200400005006000020014830604002,713968425645372891928541763197253648254786139386419257472135986569827314831694572
906000051103004072000600800700000045500180030092070000800040907205900360040230010,986723451153894672427651893718369245564182739392475186831546927275918364649237518
001084903002510060870020000503400070067250004100007805300960040005000200046000130,651784923432519768879326451583491672967258314124637895318962547795143286246875139
005090820701600035240000000003006280000400609097208400100004007000751060508300000,365197824781642935249583716453976281812435679697218453136824597924751368578369142
080070940050804602600030070000046003060010709920500000740150006210700800000009500,382671945157894632694235178571946283468312759923587461749158326215763894836429517
000000408030076000509030060003050090670010043042000001000002609780091020200068705,167925438438176952529834167813457296675219843942683571351742689786591324294368715
003050401580006009010780300230070004056020900400001036007300010600000800040002590,763259481584136729912784365239678154156423978478591236897345612625917843341862597
300900071002703498004160200090080006500300000108004750400620000700009510030005002,385942671612753498974168235293587146547316829168294753459621387726839514831475962
800075001600000200000400093570021004090600080003040720308700060450008009060052010,839275641641983257725416893576821934294637185183549726318794562452168379967352418
028001009940050000700008230600034001090562400830900500001700006005009020000040370,528371649943256817716498235652834791197562483834917562481723956375689124269145378
250967000068000010794803000580020000006050307400601090000072038007004100120000504,251967483368245719794813256583729641916458327472631895645172938837594162129386574
005049018600300004010650720000592000001070800042003060038000057070010309400200000,325749618687321594914658723863592471591476832742183965138964257276815349459237186
000000082000647090035080400960075300100004905070320106000010700040200030810090004,497531682281647593635982417964175328123864975578329146352418769749256831816793254
073009201010007006420800005000002867004301000009050040005008902830200000600170350,573469281918527436426813795351942867764381529289756143145638972837295614692174358
201000009080530007450089600000001063004027910005340200043600001600000800802470300,231764589986532147457189632728951463364827915195346278543698721679213854812475396
709000008002000060010934007000089050095670000007010403123005080000240105080000079,759126348342857961618934527231489756495673812867512493123795684976248135584361279
020040308305000009480060070031700090006081025000406803070100050008005604090020000,127549368365817249489263571831752496946381725752496813674138952218975634593624187
000008100400071005001900002905000010030200970008090064204000300013460890670805000,367528149492371685851946732945687213136254978728193564284719356513462897679835421
400380001070010009809200060120000607605000000030540020040790500592001704060003080,456389271273615849819274365124938657685127493937546128348792516592861734761453982
740906108008300002090001700000104600905002007060005000510603089082000000600050340,743926158158347962296581734827134695935862417461795823514673289382419576679258341
050080379900040006103000500006007012500890047007206005430700200089001060201000000,654182379978345126123679584396457812512893647847216935435768291789521463261934758
003050000080004650602090087045300190106000000009207004000030200217680300000570019,473856921981724653652193487745368192126945738839217564598431276217689345364572819
930700005006310080400500720060000201004009000050820067000204006017005000008670539,932748615576312984481596723863457291724169358159823467395284176617935842248671539
040678200000009050001200037000004000068790410007500060500030072600050089003182000,345678291726319854891245637159864723268793415437521968584936172612457389973182546
080701003930000700067040080003825096408030000000009001006307205100068049000200070,284751963931682754567943182713825496498136527625479831846397215172568349359214678
108600050009000002006954803720003401690420000380506007043000029000080700000001305,138672954459138672276954813725893461691427538384516297843765129512389746967241385
750001002090000310006908704000082605000007000238010000023060507080040960109070040,754631892892754316316928754971482635645397128238516479423169587587243961169875243
060009000049807020200050400004001307070520680100003090680000045501068030002970100,765249813349817526218356479824691357973524681156783294687132945591468732432975168
950006008080020003001308670500001000000490701100207590400000387070560020000804060,953746218786129453241358679597631842628495731134287596465912387879563124312874965
000001000402000010008953400536004000080020075000600100003007821001402506090060300,369241758452876913718953462536714289184329675927685134643597821871432596295168347
000089506200010047049200000405300701000060080090701264018097000024005000000000638,731489526286513947549276813465328791172964385893751264318697452624835179957142638
059003000000940005200086079000032704340005008000007060810000502495000610020100093,159273486678941235234586179961832754347615928582497361813769542495328617726154893
