395000000000004000140075820200800703060007000503100604800042056607090308009080001,395218467782964135146375829214856793968437512573129684831742956627591348459683271
000900500018750006400006703720300000960201000005069000070004915002030800100500200,637942581218753496459816723721385649964271358385469172873624915592137864146598237
000907043000010700025000008006048000051060920030005007080320500003406010267080000,618957243349812765725634198976248351851763924432195687184329576593476812267581439
095104800080000360020070001270000000000460008006053940300009210760320409000008005,695134872187592364423876591274981653539467128816253947358749216761325489942618735
005018000009020006610040235370100860820007090090000040000900053100004700060352008,235618974749523186618749235374195862826437591591286347482971653153864729967352418
000572001020004800403000760002000035507039006009680000104007020086000010000810093,698572341721364859453198762862741935547239186319685274134957628986423517275816493
480062039090000010060380470200010050006008203000035006051600094709000000040057800,487162539392574618165389472238416957516798243974235186851623794729841365643957821
400090000070830410836000200009400072000500063025009000007010050090246100080307009,451692738972835416836174295619483572748521963325769841267918354593246187184357629
200070108000403270060080045001690000000801403400207510030160980509000004020009700,243576198895413276167982345351694827972851463486237519734165982519728634628349751
940086210000040300308500700700030000006004850500100006009061000005700049602009187,947386215251947368368512794784635921196274853523198476479861532815723649632459187
000010000006073081205009730082001400000768029030450600000024150093000004001500007,378615942946273581215849736682391475154768329739452618867924153593187264421536897
005410000037000809280030000700000001600800054000259008106540900029000460003706020,965418732437625819281937546758364291692871354314259678176542983529183467843796125
000083452104050300003029007050001063000507009372000000000060100407800000905000026,796183452124756398583429617859241763641537289372698541238965174467812935915374826
100002700070000043609700005000320409308600000210850000000030900006540270005916800,153462798872195643649783125567321489398674512214859367481237956936548271725916834
200000901007032080000640000802760000600005020130900400400300507010084060906201300,264857931597132684381649752842763195679415823135928476428396517713584269956271348
000308500020700060907000120003080001089006050040951800001670403000002600058140009,416328597825719364937564128563287941189436752742951836291675483374892615658143279
040008591850004300000000600080107005203900104600000070001053780007000002020040013,746328591859614327132579648984167235273985164615432879491253786367891452528746913
800005701050406000104090060020070000041502003603080009400200050207608304090700600,869325741752416938134897265528973416941562873673184529486239157217658394395741682
000000810800309504576080002700000000003100650001826090984003700020504003000600020,349752816812369574576481932768935241293147658451826397984213765627594183135678429
084700020000308005003050690020060804005402007901005000270901003000020160059000040,584796321692318475713254698327169854865432917941875236276941583438527169159683742
740000060009702508100050030010004000006310054053208900082000000000906742900100006,745831269369742518128659437817594623296317854453268971682473195531986742974125386
164093800003261000000700000006309000087000051020050403098004200010905070400002608,164593827873261549259748136546319782387426951921857463798634215612985374435172698
983002000000300950760041200800060540090000802026000013400580000037000000200407001,983652174142378956765941238871263549394715862526894713419586327637129485258437691
002900317000002580450800002508003000010760003000004091001350620067080000090200400,682945317179632584453871962528193746914768253736524891841357629267489135395216478
040907000150020900002038006800003014000496305500080607601000020090100430003079000,346917852158624973972538146869753214217496385534281697681345729795162438423879561
080091630506700008009605001000540007194000002720000800000038040670900020302106500,287491635516723498439685271863542917194867352725319864951238746678954123342176589
001050060080203000040097001900020783700000406500084029030860095802300017000902000,371458962689213574245697831914526783728139456563784129437861295892345617156972348
300610050400009168000542000060800090720160004008037005070000309800000047914000200,397618452452379168681542973563824791729165834148937625275486319836291547914753286
831009000400005089000000200010060800025740003009021640000850020906400070070300015,831279564462135789597684231714963852625748193389521647143857926956412378278396415
000900756009000103002375000280507300061040900500063008076800400000610507840000002,438921756759486123612375894284597361361248975597163248176852439923614587845739612
004008000910400007700963200002506800408030901307009020000080002030705040000021056,624178539913452687785963214192546873458237961367819425571684392236795148849321756
000000632250400009907001000005700800320800060801006045000950000103020084064003020,418579632256438179937261458645712893329845761871396245782954316193627584564183927
100090750380040060000056040800410070064800902030672400019000800500087000000003021,146298753385741269297356148852419376764835912931672485619524837523187694478963521
817240006000000100004630008003006200590007010020590000700100589005400030630080027,817249356369758142254631978473816295596327814128594763742163589985472631631985427
006204800120005706007080905903810000004063000000709002809001030340000500002600401,596274813128395746437186925973812654284563179615749382869451237341927568752638491
007003008006520000000908004002000001083016079010037200058000100400000537369001040,247163958896524713135978624672495381583216479914837265758342196421689537369751842
070000000048302500010700938002000005730060000609847010160500302500001487000039000,375986124948312576216754938482193765731265849659847213164578392593621487827439651
004987000000040029050006000029000001305701400016825000870400603600009080000100204,234987516168543729957216348729634851385791462416825937871452693642379185593168274
008005200000300670000071003050200904307090080082400060100060895006532700400900000,738645219514329678269871453651287934347196582982453167123764895896532741475918326
057040100080002609092006580040000000706001200000067304900073010001200903074500806,657948132183752649492136587849325761736491258215867394928673415561284973374519826
610050090030040008085203060870000420900000801004106005000319700007500603200807010,612758394739641258485293167871935426956472831324186975568319742197524683243867519
100000080008001052043060700096000020000000401510702063035100098020040036900800500,159237684678491352243568719796314825382659471514782963435176298827945136961823547
580002901003000048016300050800030269007000300060085400700860000100094500009701000,584672931273519648916348752851437269497126385362985417725863194138294576649751823
004000060072940500500081090001005308300190640860070002040300107000760050009002030,984537261172946583536281794491625378327198645865473912648359127213764859759812436
070812000015000070020000049109005080200080967047036200030700004006150000000609350,974812536615394872328567149169275483253481967847936215531728694496153728782649351
000700096401000003000230800500049700020560041600070308703020080009600005005410670,832751496471896523956234817518349762327568941694172358763925184149687235285413679
007090068000620010000508300009703002030080400621009070406100005580000240070000039,217394568358627914964518327849763152735281496621459873496132785583976241172845639
000504008080060420000190060900307041050002800007009530801000204290000000463080170,736524918189763425542198763928357641354612897617849532871936254295471386463285179
710903200300750090060002380090070000402005630005004800900200040040680510180007060,718963254324758196569412387891376425472895631635124879956231748247689513183547962
500403002002800760804071900070506400006000271109004003005000800628050000000309020,597463182312895764864271935273516498456938271189724653935642817628157349741389526
000027014780400000015830002000908603120000700930060005069050380040600200000073060,693527814782491536415836972574918623126345798938762145269154387347689251851273469
370000020060300700901007000040900005000820040180500630004003081500090274810705009,378459126465312798921687453247936815653821947189574632794263581536198274812745369
003607059090000800750840000410030070000000900802006100006723001530980240100005000,283617459694352817751849362419238675365174928872596134946723581537981246128465793
025047830608020097400003000200018654007630080000050009014005003000006000980000021,125947836638521497479863215293718654547639182861452379714285963352196748986374521
016500004008010739000002001050048010600209007040001200093000600407820005080094002,916537824528416739374982561752348916631259487849761253293175648467823195185694372
000090501104800006082700300900035000050026008310007400601000052030002790000048060,763294581194853276582761349928435617457126938316987425641379852835612794279548163
407030092251700008080000060600009000002005080070301056900064100008200000540900003,467138592251796438389542761635489217192675384874321956923864175718253649546917823
800190240302005001009020070001400590000870006090061803460200000000017004038006750,876193245342785961519624378681432597253879416794561823467258139925317684138946752
008040097004370100090150203000004705903000006070200380086000050020710004001095600,138642597254379168697158243862934715913587426475261389786423951529716834341895672
000000509409073200821000060006304008010209057000800900000580004560001090700406300,637128549459673281821945763976354128318269457245817936193582674564731892782496315
070050840680009703000003026000000050004382000029016000300005072150900408960200100,273651849685429713491873526836794251514382697729516384348165972152937468967248135
000007040080056001200310600002968403050000076800040000013500720090200004407090018,361827945789456231245319687172968453954132876836745192613584729598271364427693518
007009005003406708004210000000300010102590006060000592080700631000000400570040209,627839145913456728854217963795362814142598376368174592489725631236981457571643289
210030670400000050093600800000426000800003401500000267040000300080952000007080109,215839674468217953793645812179426538826573491534198267942761385381952746657384129
008073000500040023004210060009050307420900005000630080300008150906300000817060009,268573491591846723734219568689152347423987615175634982342798156956321874817465239
004098000579100002006500004000605400845000900003000021000040739090026015018007000,134298657579164382286573194921635478845712963763489521652841739497326815318957246
042015708080000340700060091000200000360900100008070409597803000620050803000000002,942315768186792345753468291479231586365984127218576439597823614624159873831647952
021400000000025070700000086900107003000006950503800001407009500006080032802030400,621478395389625174745913286964157823218346957573892641437269518196584732852731469
000160000409700100650000302587030090230905010000086000103008607002000005890000400,378162549429753168651849372587431296236975814914286753143598627762314985895627431
706408530000000800300090001007801009120005400008020076900104005504032000003060720,796418532241356897385297641637841259129675483458923176972184365564732918813569724
000100082640000900050000370092030600000472000003006107100709000805000030007280540,379165482648327915251948376792831654516472893483596127134759268825614739967283541
470900000006020150052600347040380600067009002805001700000042006700000580098003001,471935268386724159952618347249387615167459832835261794513842976724196583698573421
089140000320080107400000000840900061700020050965030200050803710000000002003206904,589147623326589147417362895842975361731628459965431278254893716698714532173256984
208043700050000401700809020400650900302007000600000018100438600006900032007201090,218543769953726481764819325481652973392187546675394218129438657846975132537261894
620504000800100000300070901960802107004010030100007605000060053409005700050400280,621594378897123564345678921963852147574916832182347695218769453439285716756431289
107900032020007509000608004030001400004730060095200018940005700200000856003800900,187954632426317589359628174632581497814739265795246318948165723271493856563872941
180005000053060090000320004010600009200017650305040708600902030709080142008000007,182495376453768291976321584817653429294817653365249718641972835739586142528134967
000003802039040007201090005906705203380000600704100000050000908000308010170260000,547613892839542167261897435916785243385924671724136589653471928492358716178269354
001000040003069750865001002000074300400000810107082009090300006320058000008026090,971235648243869751865741932689174325452693817137582469594317286326958174718426593
300050002941007650060008100000305200000400093007610000089000001600020070705001364,378156942941237658562948137894375216156482793237619485489763521613524879725891364
000798400506000007000460120000003006005140080190580270480007930030204050200000601,312798465546321897978465123824973516765142389193586274481657932639214758257839641
000010005790052300010600200500107009400000008280309006020006904006904710030800000,642713895798452361315698247563187429479265138281349576127536984856924713934871652
000046250520000006090070184040300600905700408360500009100023500030000090702680001,871946253524831976693275184247398615915762438368514729189423567436157892752689341
037009605000470003008050204006100030100600802325800007504018000090700500260043090,437289615652471983918356274786125439149637852325894167574918326893762541261543798
500960082070008400900104000000070000827490030004010690018000073030205000405030060,541967382672358419983124756169573824827496135354812697218649573736285941495731268
000206090004000608890407052060004003082005709010370060700100380001052004900000001,153286497274591638896437152567924813382615749419378265725149386631852974948763521
107004000030000005080070600040103006001600270300200090068030020500720009200950184,127564938639812745485379612742193856891645273356287491968431527514728369273956184
250800601000007048040630002602400050030050000400108309003070020008501490960000005,257849631396217548841635972682493157139756284475128369513974826728561493964382715
400060032602000407080032500000508013040071900001309006709000050800006090204010000,495867132632195487187432569926548713348671925571329846769284351813756294254913678
100000300080020000060901582008070004095100730070405009007003140509004806000206900,152648397983527461764931582218379654495162738376485219627893145539714826841256973
800000901092840060731200050000007004048605700000100290003002640076050030100030809,864573921592841367731269458619327584248695713357184296983712645476958132125436879
000706400109058300400090070030000906000601580087000031000004020860005790040207008,358726419179458362426193875531872946294631587687549231715984623862315794943267158
190000634070100008302540000400080000200690100060054780000000069800703500500028003,195872634674139258382546917457281396238697145961354782723415869849763521516928473
040300700030050060081260400900682050007090004003000012000541008000009000075020103,649318725732954861581267439914682357257193684863475912396541278128739546475826193
003064007768000090100900000290305006000006210004180570029500001307000004500700380,953864127768213495142957638291375846875496213634182579429538761387621954516749382
005010900020703860001490030040826000030900278000005040700004082462500009013060000,375618924924753861681492735147826593536941278298375146759134682462587319813269457
700000400010002030064350910100007200630480000870020605300000802000869000000001794,753916428918742536264358917145697283632485179879123645391574862427869351586231794
008906401193000005700502300302700500060050080000104203007480000900000700504070016,258936471193847625746512398312768549469253187875194263637481952981625734524379816
960800003407000010021500000058320100090740056000000700000009040604003870080010605,965871423437962518821534967758326194192748356346195782573689241614253879289417635
070005041006309008509000007860040005400920030300080010908001604010030250700604000,273865941146379528589412367862143795451927836397586412938251674614738259725694183
