000709080134500090800120506000000050002001903603080070020050300490003067001807400,256739184134568792879124536917342658582671943643985271728456319495213867361897425
549100300020560790000800000004910002670080004100020870280000560007003140050690030,549172386328564791716839425834917652672385914195426873283741569967253148451698237
090000610104068079807200540000070020503104000000005800702053100600000300080049052,295437618134568279867291543918376425523184967476925831742853196659712384381649752
210080370090000005800307260004015000007930048600002000150040800008100792309600010,216584379793261485845397261934815627527936148681472953152749836468153792379628514
030920080150040070007001403004100600500302004800670201000005860010030009070098002,436927185152843976987561423724159638561382794893674251349215867218736549675498312
150200000009075806600300007000000010790604200003087405008091030021056040904020000,157268394439175826682349157846532719795614283213987465578491632321756948964823571
004009003000800125078500600069020408400006500020013070782604000050002804300000090,514269783693847125278531649169725438437986512825413976782694351951372864346158297
005017260020300008400006703080095410610240090000008307160000000502084000309570000,835417269726359148491826753283795416617243895954168327168932574572684931349571682
102700800369508000400090062000602058005409106017000000080041320000006004090300005,152764893369528471478193562943612758825479136617835249586941327731256984294387615
006209150000078023900300604000000590421030007050006001030700200008060040140500080,376249158514678923982351674863417592421935867759826431635784219298163745147592386
002000970070125000314006080001900206000040700500800130009470005020010340036009000,652384971978125463314796582841937256263541798597862134189473625725618349436259817
080405060009000800360019020090006230102708500000900041070680000005030904400001073,281475369549362817367819425794156238132748596856923741973684152615237984428591673
000600702405300610302790040600082000037500090849000000090005083100400005004000160,918654732475328619362791548651982374237546891849173256796215483183467925524839167
016000058000570020320084100200008060050100030030009804100000700400906205080043009,716392458948571326325684197297438561854167932631259874169825743473916285582743619
060745300503020040080000092050000130000980000109037860801650900204190007000203010,962745381513829746487316592758462139346981275129537864871654923234198657695273418
040009103305460070290050600620100485000740000000080920400936000910000806503000000,746829153385461279291357648627193485859742361134685927478936512912574836563218794
405003007906500043100027005003610704007300680080090500760009000000840102040200090,425963817976581243138427965593618724217354689684792531762139458359846172841275396
907006103830000700065000080400258910600400000000007302000004800008100230024090057,947586123831942765265371489473258916612439578589617342356724891798165234124893657
040105302080070001020000006201960508000001000396800100008023670509000043000096000,647185392983672451125349786271964538854231967396857124418523679569718243732496815
830500706600090104000200030008030001092700000700869040000140397005003008001080260,839514726627398154154276839568432971492751683713869542286145397975623418341987265
000002034000096080107040205000079062000300519208600400009107300010080040056900700,985712634342596187167843295531479862674328519298651473429167358713285946856934721
500008007970500604010090020003602009000140008000087215008006070697400001040005030,534268197972531684816794523183652749725149368469387215358916472697423851241875936
700904103003000280120000407000451006000080074950006300005063000408102000060700092,786924153543617289129538467837451926612389574954276318295863741478192635361745892
050007340301802000090310026000100008903008007104090650706030200048500090000201700,852967341361842579497315826675124938923658417184793652716439285248576193539281764
600500900701008003008632040010090004005003070902080306100020000003406207040059010,634571982721948563598632741316795824485263179972184356169827435853416297247359618
090070048800609030002038000000310250006020107005400600208000460700184000530900070,693271548851649732472538916987316254346825197125497683218753469769184325534962871
100500026008000500350001907807305400060200001002004080003006004070080200594070300,149537826728649513356821947817365492465298731932714685283956174671483259594172368
070001008400700090001030260050409600900500014002863700068100023300020005095000070,679251348423786591581934267857419632936572814142863759768195423314627985295348176
030070010500620800206491000007034020050860300040007900804005007000000183900002006,439578612571623849286491735697134528152869374348257961864315297725946183913782456
740016080000400003001823040070002300000008061906000500009100007217960005050030904,743516289862479153591823746174652398325798461986341572439185627217964835658237914
800000150006025740790000208102400603080003000400070010060010590003502000001007082,824739156316825749795641238152498673687153924439276815268314597973582461541967382
039020005870040026200010703300500048000001000042360900408037060690200050000009010,139726485875943126264815793317592648986471532542368971458137269691284357723659814
004630801700082300068900005481060000020001608900570400100004020050090030009003007,294635871715482369368917245481269753527341698936578412173854926852796134649123587
365008002080405900047602030000700420600009001010000000800093000152040070003020618,365978142281435967947612835539781426624359781718264593876193254152846379493527618
057004810000001300100500090501900760803640900020703080006350009000062500000400072,957234816462891357138576294541928763873645921629713485286357149794162538315489672
000300807000061020051902003203150980604000700890400360020000095046090000180004000,962345817438761529751982643273156984614839752895427361327618495546293178189574236
060870300901062004000900050800020710304000006070089025407605000250000009080031000,562874391931562874748913652895426713324157986176389425417695238253748169689231547
000010030085609000370025600020706091530200008000900400002108003090074000460000510,946817235285639174371425689824756391539241768617983452752168943193574826468392517
010000060900402008023890000600900805250004370009005006400070000000601090070230401,814357962965412738723896154647923815258164379139785246491578623382641597576239481
000976205008000060005000347720001009304000000090500426037180000000093000510402800,143976285278354961965218347726841539354629718891537426437185692682793154519462873
807001630000000904150000000070800003406000090089524006030052000000073821610408007,897241635263785914154936782571869243426317598389524176738152469945673821612498357
100074200006000000003801540005090007300502010420003608001060009732008000600135080,158674293246359871973821546815496327367582914429713658581267439732948165694135782
400073100060208000000000289040000703050002006971050408000089530630420000807100000,482973165569218374713564289246891753358742916971356428124689537635427891897135642
000040050837200004064003108006490075208001000090300006701600900900028001000050430,129846753837215694564973128316492875278561349495387216751634982943728561682159437
005600000270590814193000000780000090900860302000410005019032400020000070030004601,845671239276593814193248567784325196951867342362419785619732458428156973537984621
945200080607030000010406700700005100408109050000000032086900003200600009050801004,945217386627538491813496725792365148438129657561784932186942573274653819359871264
500020000723090000091300086000800005600002019040016070200075308009003040060284700,586421937723698154491357286137849625658732419942516873214975368879163542365284791
020038060000100589004700300705069040003001005940073120470082000006000000380005490,521938764637124589894756312715269843263841975948573126479382651156497238382615497
800106000040580060020000087037000005600407928200050030490003000502809100071260040,853176294749582361126394587937628415615437928284951736498713652562849173371265849
030000094070180230205004600910600027008750010000000408506000000140020300009517006,831265794674189235295374681913648527468752913752931468586493172147826359329517846
006050702002008500830000004300140067019007050040063800500490000000600321700802900,196354782472918536835726194358149267619287453247563819523491678984675321761832945
000756000350400200064009100408300002000800093001627805013080060097002004800500000,182756439359418276764239158478395612625841793931627845213984567597162384846573921
020004659697000004004002180982700000050106200400009005001000070009487002000030806,128374659697518324534692187982753461753146298416829735841265973369487512275931846
206900000008057400030040010012706080003020000009180560000009140054010807080005036,246931758198657423735248619512796384863524971479183562327869145654312897981475236
002900570000040300956000008000800050645010000807003120300120090020408006108560400,432986571781245369956371248213894657645712983897653124364127895529438716178569432
009003608003817500047000002000570809001020060400600320000400001120058003050090700,519243678263817594847965132632574819781329465495681327978436251126758943354192786
006820900000003001800160205054206070000341080100009000047000300521004008390750400,416825937275493861839167245954286173762341589183579624647918352521634798398752416
020090003806000500907348000000064370000050020010800604580009400100087950040200160,421596783836721549957348216298164375674953821315872694582619437163487952749235168
090410800005326040030008010002040500950600030701090206000005700104200300000760098,296417853815326947437958612362841579958672431741593286689135724174289365523764198
706000010000800403000159000020507809004000060670020000007903250508610370240080100,786234915915876423432159687321567849854391762679428531167943258598612374243785196
600580000201700030300006547080970600400031700000000090040000051037104060800052009,674583912251749836398216547183975624429631785765428193942867351537194268816352479
590378000003900084270001000000010659006003001400700020000590006080002040051406093,594378162163925784278641935837214659926853471415769328342597816689132547751486293
906004051000300640000005002240063800010020700803750004004070069001800023005109000,976284351152397648438615972247963815519428736863751294384572169791846523625139487
302006500008400100090070043020001080001045009635008200460800000500020901017053008,342186597758439126196572843924361785871245639635798214469817352583624971217953468
086700010050000687210030050400600700090208000000090326700004109000000005530910402,986745213354129687217836954421653798693278541875491326762584139149362875538917462
008915070700600010050082003090064051830500090600030847000007420140350000906020000,368915274729643518451782963297864351834571692615239847583197426142356789976428135
570860040280000150000400009620370004001050803000090000060049528950016000702000090,579861342284937156316425789625378914491652873837194265163749528958216437742583691
810920030240700501003000970700600100580001096000042003096087400070030020100590000,817925634249763581653418972732659148584371296961842753396287415475136829128594367
560008001000360200082409030020591080309000540070240060000000800150607000004100357,563728491941365278782419635426591783319876542875243169237954816158637924694182357
010604003803000500692000010060000030009750000530920804000380062100040050028001709,715694283843172596692835417267418935489753621531926874954387162176249358328561749
400000370023009608800020940060007180901005020048000003007230050000090001300561094,419856372523479618876123945265347189931685427748912563197234856654798231382561794
910830000847002009000900005598003042036008100200650000054006093760010000000020700,915837426847562319623941875598173642436298157271654938154786293762319584389425761
743000001080032607900000005200870000010005903304600050006300710500028040000901082,743596821185432697962187435259873164618245973374619258826354719591728346437961582
050070206409000000010002050071040960800500000043601020006059130030018040090320007,358174296429865371617932854571243968862597413943681725786459132235718649194326587
060000070000001028091040300157008600000200037006509401045300800078060000203090060,562983174734651928891742356157438692489216537326579481645327819978165243213894765
010400087903080000208570001000016345000708062060000000096004200400100059501203400,615432987973681524248579631827916345359748162164325798796854213432167859581293476
000107050807090304000300062040060908260003100500400037028070000305012400006005080,632147859857296314914358762743561928269783145581429637128674593395812476476935281
900010802080007030600050000005003700100600200003980460810040005509201007002060049,954316872281497536637852914465123798198674253723985461816749325549231687372568149
907200301462003080000000050070860500000900004100000928820036100600021007030500040,957248361462153789318697452279864513583912674146375928824736195695421837731589246
074130500012900870609005400095001040300020189000700000020308750040000600100060020,874132596512946873639875412295681347367524189481793265926318754748259631153467928
003200008070100364405007010010708000008000906000094020050802007901000600006030542,193246758872159364465387219619728435248513976537694821354862197921475683786931542
018060720070100005539002080084000001620004300007600900000500000003409072005078634,418965723276183495539742186984357261621894357357621948742536819863419572195278634
001090360050002000800047010604080592300106008570000006403008000100034029080200070,241895367756312984839647215614783592392156748578429136423978651167534829985261473
030000005410200380208600090021006000005040807809103000000701643090005020673800100,936418275417259386258637491721586934365942817849173562582791643194365728673824159
030500008100020490869710003000800670047690080300002100050007230090006000004280005,432569718175328496869714523921835674547691382386472159658947231293156847714283965
260000500008040307050698001000270400103000009709081020400003106801700000092005030,264137598918542367357698241586279413123456879749381625475923186831764952692815734
000000004403050010071000380700000600020490500095032008600710020048503009300029406,582371964463958217971246385734185692826497531195632748659714823248563179317829456
094000600001090030670002400020100067900785100080040090002403005006000210500800070,394578621251694738678312459425139867963785142187246593712463985836957214549821376
100090320057030046200600007304200810900740030010050000708010009060008570029006400,146597328857132946293684157374269815985741632612853794738415269461928573529376481
400300090810000036007040100005079800003005007200008049104063002390102070006000050,462381795819527436537946128645279813983415267271638549154763982398152674726894351
018007000900503060670020805300200400094600000085090310001050072000340600000900130,518467293942583761673129845367215489194638527285794316431856972729341658856972134
013209607000085030040000000500008706009020010100730405050400370076000002008300109,813249657697185234245673981534918726769524813182736495951462378376891542428357169
000048700002670901000000050800510064051000009960730080400003000090800012075200036,516948723382675941749321658837519264251486379964732185428163597693857412175294836
064098030010200054700103000080007100900614003002000007529700046000850002003060019,264598731318276954795143628486327195957614283132985467529731846641859372873462519
070000081500300670401020090000810002240603050300900407090006000106500809720100340,973465281582391674461728593657814932249673158318952467894236715136547829725189346
004030800100078039060000405300902004020007961000040700700153000200090108090826007,974635812152478639863219475317962584425387961689541723748153296236794158591826347
704008150901530400020000000300600007005100090090084230600000078203006001480009506,734268159961537482528941763342695817875123694196784235619452378253876941487319526
082300600900000071060509240205001000004230105800700360000004000306002400700090008,482317659953426871167589243235961784674238195819745362528174936396852417741693528
058000402900100075706200000000900087300058060092010040014702008007009300000860020,158376492923184675746295831465923187371458269892617543614732958287549316539861724
108030070090000000023054608000307006400000720000908154000016305540200019800400200,158639472694782531723154698215347986489561723367928154972816345546273819831495267
