023000800005000706800240000402093010008050000590461000000000638200087095100905470,623579841945318726871246359462893517318752964597461283759124638234687195186935472
900074800860300000402100050579800010000560300003009020040001678000600031300750290,951274863867395142432186957579823416124567389683419725245931678798642531316758294
000508006000400170349060000070015030000200900908006204002809001615003020007000045,721538496586492173349167582274915638163284957958376214432859761615743829897621345
030092408007600002009070150780130000010009060000004705604200007000405900520080030,136592478857641392249378156785136249412759863963824715694213587378465921521987634
046050310003090006010200800700803029100070580000042600090165007302900000050007040,946758312283491756517236894765813429124679583839542671498165237372984165651327948
020600150780400090010957400008000326009300800006085000400102030300090761000070009,924638157785421693613957482548719326279346815136285974497162538352894761861573249
000080004207900300960003102040000200300002065500071008813460500006090040059300670,135286794287914356964753182648539217371842965592671438813467529726195843459328671
090056002850209603004810000746000001005400900000008700000060290570300008201007305,193756482857249613624813579746592831385471926912638754438165297579324168261987345
008000600100582003402030071890300002060205000000070950304001000020046100007900508,938417625176582493452639871895364712761295384243178956384751269529846137617923548
030000600850902001104300207000003714073508000900040080096100030000057000002000406,239471658857962341164385297685293714473518962921746583796124835348657129512839476
000107305001090820806004070950402008027035406000900000300700041042006000019000250,294187365571693824836254179953462718127835496468971532385729641742516983619348257
301070609500038000004902080005461078900007152000000300003000000708049005429800060,381574629592638417674912583235461978946387152817295346153726894768149235429853761
000800007400150920100006043002900030807045600900700001030020400780000005051080069,326894157478153926195276843562918734817345692943762581639521478784639215251487369
300860504450002000800050019000003200002006078140090000000300805683100900507040002,379861524451932786826754319765483291932516478148297653214379865683125947597648132
000504062030070000004020715300000006520800009817050000680030090700109830090002001,178594362235671948964328715349217586526843179817956423681435297752169834493782651
300075801010630709804000006008059432000010000002006090650302000709004200020100500,396475821215638749874921356168759432947213685532846197651382974789564213423197568
000030060218700940040000507109503700000060001073804002050008000900002430400190026,795431268218756943346289517169523784824967351573814692652348179981672435437195826
006040003095103080200078600001000800650019004030206709002000140400380057010027000,186942573795163482243578691921734865657819324834256719372695148469381257518427936
800765020000009007403000000005020908000400600681900030006000013930670240100280060,819765324562349187473812596345126978297438651681957432726594813938671245154283769
800005017740923005063800000000000000900107830608000472104098000000050160200310590,892465317741923685563871249437286951925147836618539472154698723389752164276314598
003709000050080042020600030307008004090000650084001009600000705000392001201570800,413729586756183942928645137367958214192437658584261379639814725875392461241576893
090000280800903105471000000900207506007090804630580001503020009210600700000040060,395461287826973145471852693948217536157396824632584971563728419214639758789145362
301008402600500790000426001006301040408000300090070020070002000100600085004180900,351798462642513798987426531726351849418269357593874126875932614139647285264185973
006200701000746900025009030049000050100005000608000204003170008010030670280504090,496253781831746925725819436349621857172485369658397214963172548514938672287564193
000400680019060700805200040054819006000003200008000095001050007087030029000600134,723495681419368752865271943254819376976543218138726495341952867687134529592687134
070010065008006072500080093002600530015700000900031008091803000240090607807004000,479312865138956472526487193782649531315728946964531728691873254243195687857264319
300601000070890005420005010008100000060020084007030629910700502000000070056209048,385641297671892435429375816298164753563927184147538629914783562832456971756219348
098020030020000900700501600300089510100060007087052004005930040406000180800400053,598627431621843975743591628364789512152364897987152364215938746436275189879416253
900020070050090136108600040001304820730002400004160005000800009286500003500070000,963421578452798136178635942691354827735982461824167395347816259286549713519273684
010900400000050092032000075096087000520093010400006000000079604008120007370048020,715932468864751392932864175196587243527493816483216759251379684648125937379648521
050094008901720000046005090103000607705400010000060002000370206809000030000501004,357694128981723465246815793123958647765432819498167352514379286879246531632581974
601407890070500406005630000000001023046000009080960507003100050000792010809004000,631427895278519436495638271957841623346275189182963547723186954564792318819354762
000001000094005026671040003480000700000002050025090348918020000002036010030700094,253861479894375126671249583489153762367482951125697348918524637742936815536718294
060500002000008950100037004040002007080060520300901000850003076012075340709000800,468519732273648951195237684546382197981764523327951468854193276612875349739426815
730020600010000040400705890000008302053064001009500000502000030641800700000192004,738429615915386247426715893164978352853264971279531486592647138641853729387192564
000200004700061003005003270007430900306090085480500000978054006001000800620100309,893275614742861593165943278257438961316792485489516732978354126531629847624187359
732000008009030005100960000010820070380000040607050003040100600000002180890670024,732514968469238715158967432914823576385796241627451893243189657576342189891675324
300080107620000804007601900083960201000000675005014090400207006500100003000030480,359482167621379854847651932783965241914823675265714398438297516596148723172536489
070814009000000000502679008406005081030060050100047300010030070005002903080750400,673814529891523647542679138426395781937168254158247396214936875765482913389751462
900004001070000820031250060007020450000308000068700019400009000500083207086010500,952864731674931825831257964397126458145398672268745319423579186519683247786412593
006002980109008305500070401003400096600005203047030100020059070000020800004360000,436512987179648325582973461253481796618795243947236158321859674765124839894367512
500093000070100200023500800000010700060070513800005049200800007190002064004036020,581293476679184235423567891345619782962478513817325649236841957198752364754936128
003004060106009304708200000800005417070600000090040080000057103205090040400821950,953174862126589374748263591862935417574618239391742685689457123215396748437821956
291000070003006048000790050018040000602300501500600300020509036800031700004207000,291854673753126948486793152318945267642378591579612384127589436865431729934267815
104008000020760018030290005506000020002005164008003009600300080700010900051079400,164538297925764318837291645596147823372985164418623579649352781783416952251879436
097005203108240060000639070000400009400080317003050000052100600010374500009020080,697815243138247965524639178271463859465982317983751426752198634816374592349526781
002050310800600509704000002130028007506700028000904030068170050020005000000030401,692857314813642579754391862139528647546713928287964135468179253321485796975236481
980007056000002143000510007160040700009000480002701030506800900700054002023009060,981437256657982143234516897165348729379265481842791635516823974798654312423179568
002080671000500943901300000080204300000067084010005209500003100009700000408020006,352489671876512943941376825685294317293167584714835269527643198169758432438921756
004030008000001607509004020007025100360400200800070009700090010038002504125608000,614237958283951647579864321497325186361489275852176439746593812938712564125648793
040207008600930010702005400060090300035008060401000072000560001070042030090100826,349217658658934217712685493267491385935728164481356972823569741176842539594173826
629000015000400600073000809005001000008270304000360090092014006730009058180007000,629783415851492673473156829365941287918275364247368591592814736734629158186537942
030401000600080000000002579090050380400906001017000020900304610078200035004500200,735491862629785143841632579296157384483926751517843926952374618178269435364518297
200000470630070080009600201000800350081054000407006098590721040000090062008003005,215389476634172589879645231962817354381954627457236198596721843143598762728463915
009040807000031000036578009003000420010090065028360090470600280085007006900100000,159246837847931652236578149693715428714892365528364791471659283385427916962183574
100053020002000084780060190008749002340020800067000050900406005050002360000031007,194853726632197584785264193518749632349625871267318459973486215451972368826531947
920000408000090037000501020640700002030004600007800509702600010308157000064030000,921376458586492137473581926649715382835924671217863549752649813398157264164238795
040030000001800603026009750800040301690100200035670000200050190000004807480200006,748536912951827643326419758872945361694183275135672489263758194519364827487291536
002300008071040060500098700019004200043600005600020010908070300064002087000051004,492367158871245963536198742719584236243619875685723419958476321164932587327851694
900602100002470008060100000540006210070003000800000059007090042320700800000805760,938652174152479638764138925543986217279513486816247359687391542325764891491825763
800006005002070090600300008053029800149605700000000400370000002021830046060091000,817946235532178694694352178753429861149685723286713459378564912921837546465291387
208700001010400503700960200500030008060547000097002340089000416052000900001006000,248753691916428573735961284524139768863547129197682345389275416652814937471396852
004837091000026005706000040900100070503080410070960002120040053000000804600095000,254837691819426735736519248982154376563782419471963582127648953395271864648395127
027050860030700102005003004000380000640910700208040005470000609081060000090008231,927154863834796152165823974759382416643915728218647395472531689381269547596478231
000027903060004105087300040200590000500000710000730008006000090150802030043150026,415627983362984175987315642271598364538246719694731258826473591159862437743159826
087406900090000650204100308021500080400010007000800200900007040306000025075060109,587436912193728654264195378621579483438612597759843261912357846346981725875264139
000806501020001490600205037070003942098070600010064000080000070359400000004020109,937846521825731496641295837576183942498572613213964785182659374359417268764328159
007001000001390078300605940680007005030900060002400800200800010090043002054010630,947281356561394278328675941689137425435928167712456893273869514196543782854712639
000900000000061705100200803030805006004009108200040070063070004049080052520300600,475938261382461795196257843937815426654729138218643579863572914749186352521394687
290856001600700820000001000015002040300480200070003090040600075006300009180004360,294856731651739824738241956815972643369485217472163598943628175526317489187594362
000003610403087000805200400940500002050030780000106009230040050008760104000090800,729453618413687295865219473941578362652934781387126549236841957598762134174395826
302000097089060020160093504021007000600825010700600300093540000200081406000000008,342158697589764123167293584921437865634825719758619342893546271275981436416372958
001870904080004003002901500800300025540006001006019300605020070090003452700000800,351872964987654213462931587819347625543286791276519348635428179198763452724195836
700080002001000439406005108067801000090047006080200050200950340000000020070003601,739184562851672439426395178567831294392547816184269753218956347643718925975423681
060000831203860000000407000025910047708000000031045206300050000090000615014200900,467592831253861794189437562625918347748623159931745286376159428892374615514286973
000030007243080090800145002000009050605200140170000028004600900320001800010357060,561932487243786591897145632432819756685273149179564328754628913326491875918357264
905000003000600920107038050003005800800260049054000067002074600700520100080301004,965412783438657921127938456693745812871263549254189367312874695749526138586391274
000790005250018007704003010167050040309470000020081060000002380600000902930000056,816794235253618497794523618167259843389476521425381769571962384648135972932847156
501090004630740052080300000108900075007005430300620001000200107906000000024018093,571892364639741852482356719168934275297185436345627981853269147916473528724518693
400800030001207600000150072060009300710604080048005020090008050036000901500030007,472896135351247698689153472265789314713624589948315726197468253836572941524931867
807000400042108060000005730020861500009000070560040310001590600900007003600300104,857936421342178965196425738723861549419253876568749312231594687984617253675382194
046000900100900207020835000000003001058200300700460008005090000602310490004700106,546127983183946257927835614269583741458271369731469528315694872672318495894752136
650900074708100200000030900014600003029840050000052000080700000405280090231005006,653928174798164235142537968514679823329841657867352419986713542475286391231495786
000002000041960005250100093580004076070030008006005009300070002400010850897500040,639852714741963285258147693583294176974631528126785439315478962462319857897526341
000907650086001300009082047010046070200000500073810009690000400050309020001570080,142937658786451392539682147915246873268793514473815269697128435854369721321574986
020080103400935000079600000700001005048000069630700020000048050010029046200300000,526487193481935672379612584792861435148253769635794821963148257817529346254376918
901000000023980470000410050270100600008070032004600790060005210800203009450090008,941357826523986471786412953275139684698574132134628795369845217817263549452791368
900102004000063080002045600010026090854000000000000753040009500007030806100800027,965182374471963285382745619713526498854397162629418753248679531597231846136854927
090500608360040051700090200040007520009800030170209400230006000000485000608120700,491532678362748951785691243846317529529864137173259486234976815917485362658123794
090000750016070008200059046080360400300005100700204030000731000040000600009800072,493628751516473298278159346981367425324985167765214839652731984847592613139846572
100400059002900307570010800091820000260000905000607400800000003004502608730004502,183476259642958317579213864491825736267341985358697421825769143914532678736184592
700100000809270004026050700200930450010000080038006900085090230000080509300740100,743169825859273614126854793267938451914527386538416972485691237671382549392745168
030109400000000057006708200002060090304900810078305000007401008240000009180030560,735129486821643957496758231512864793364972815978315642657491328243586179189237564
005000020804907100010084300600309002070050980000200756000040008901630040007000500,795163824834927165216584379658379412172456983349218756523741698981635247467892531
040000000700900530009016200314008007060500010008760940006409300020000091003025708,642357189781942536539816274314298657967534812258761943176489325825673491493125768
008629004104008070002100590500002300001400000080507609040090017060800003009030402,758629134194358276632174598576982341921463785483517629345296817267841953819735462
208600507040032000360107094007201048000863709000004020002090800090000015654000000,218649537749532186365187294937251648421863759586974321172495863893726415654318972
020759040640020850000006190170900000360100200000503004700010608008000030400230005,821759346649321857537846192174982563365174289982563714793415628258697431416238975
400050726000093050810020003069230004500104060307000008020005490758006000000710000,493851726276493851815627943169238574582174369347569218621385497758946132934712685
017000500098320600002150807080760002900034000200000413004980005060000390000500074,317648529598327641642159837483761952951234786276895413724983165165472398839516274
