037040000100906003005080001001079200040050068320000070002035680068100042400000905,237541896184926753695783421851679234749352168326814579912435687568197342473268915
004900801050000070708420600600047290009508300800030405020350000900000030010002706,364975821152683974798421653635147298249568317871239465427356189986714532513892746
064307800009500430870002006000001092300708000091400000080053710400060000120000903,564317829219586437873942156748631592352798641691425378986253714437169285125874963
002340000005010670100000504420000005000900038060057190050692000704080010030070809,672345981945218673183769524429831765517926438368457192851692347794583216236174859
000000907430500002025060000806002390092800706001600204900078030000040500610309000,168423957439587162725961843846712395592834716371695284954278631283146579617359428
400306751000250600003080409060000302004009005910702006500041080306900000028000000,482396751791254638653187429867415392234869175915732846579641283346928517128573964
091600304060070000300018000070893020604001008000006051010930070280000009007502060,791625384468379215352418697175893426624751938839246751516934872283167549947582163
060000080483900102007402350100765400040200000506308009000009001820010003030800790,265173984483956172917482356192765438348291567576348219754639821829517643631824795
007230000800040010050007960010070580605020409000069230000480603209000008403001005,197236854826945317354817962912374586635128479748569231571482693269753148483691725
020030800001004500000780049900500730842300090003120006654902070038060001000000000,429635817781294563365781249916548732842376195573129486654912378238467951197853624
108795020670008300000163000000800400095030070820000130000000500003009216002407000,138795624679248351254163798317852469495631872826974135981326547743589216562417983
006430007035700021700108000000005010869003704200900068013607200004000000970020430,186432597435796821792158643347865912869213754251974368513647289624389175978521436
210040007403900580500206010000008064050079120000360900900000703008004000104520006,219845637463917582587236419792158364356479128841362975925681743638794251174523896
200000003087010090001702604056003009030070420000908000028650030900304760600180500,264895173387416295591732684756243819839571426142968357428657931915324768673189542
007090048602000907504000300000070036800500120060148000730200510400009080050061002,317695248682413957594827361145972836879536124263148795736284519421759683958361472
650000900010006052070830040800000209000048605027060030004052800169007000000900703,653421987418796352972835146846573219391248675527169438734652891169387524285914763
097034060601007000000205700020040010380000009070096580840600003003010900002850007,297134865651987234438265791529748316386521479174396582845679123763412958912853647
003048000200100000009050007070800694590070010040260030800730069001000402400901500,753648921284197356619352847372815694596473218148269735825734169931586472467921583
003620090610309080087005000200000003050897010090200040700004205460530071000010000,543628197612379584987145326278461953354897612196253748731984265469532871825716439
500908000430001908000004260000000170006240005398000006010070003020095840007680000,561928734432761958789354261254836179176249385398517426815472693623195847947683512
401700050280015900007400206030900007060038090014200005009020580600007040005103002,491762358286315974357489216538941627762538491914276835179624583623857149845193762
000002000708003025600940300900350008402060007056007100000490000010085693507200010,139572486748613925625948371971354268482169537356827149863491752214785693597236814
000500000040001763000008902098006400500002370107850000306270809059003001080600000,923567184845921763671348952298736415564192378137854296316275849759483621482619537
500030200780104900039600050650700001000809340000010007000006080901240006800500072,546937218782154963139682754654723891217869345398415627425376189971248536863591472
001000300980000050000906002040059736030700080052860001307000824400070109006020000,261547398984132657573986412148259736639714285752863941317695824425378169896421573
001842030040007800000630059500000001203500060089010024702309000005170080000000006,951842637346957812827631459574268391213594768689713524762389145495176283138425976
048100000600045020200000907001890670300002000000750081054080009760039005009001402,948127356673945128215368947521894673387612594496753281154286739762439815839571462
009030160641090080002000700076008042000010005030240600008020510900400300500601000,759832164641597283382164759176358942294716835835249671468923517917485326523671498
002001800000583060030270000086004091290000000314605007051830006907040050000002104,572461839149583762638279415786324591295718643314695287451837926927146358863952174
007120030300040056006905780059700002000008004010203098460000910005080000932050000,587126439391847256246935781859714362623598174714263598468372915175489623932651847
040057000002009030309801007005040280120000074800076900403500001090000800001032600,648357192712469538359821467975143286126985374834276915463598721297614853581732649
004100700020430000370052409090700382062000005800015000400000230030649008658000070,584196723926437851371852469195764382762983145843215697419578236237649518658321974
020400001003050600090786400049200003000010050510860000000007804708500009030020015,826439571473152698195786432649275183387914256512863947251397864768541329934628715
601400300080007015502809004907080100060000020020504087000000500050093601704200039,671425398489637215532819764947382156865971423123564987396148572258793641714256839
020639500050010098001004007600041070005007409003800020490000800072450003000026001,827639514354712698961584237689241375215367489743895126496173852172458963538926741
090400000000900865503620000800010200370009004605208079061070000008000432904050007,196485723427931865583627941849713256372569184615248379261374598758196432934852617
948100705506800302000007004090050630001030500600000098709002400005401000380600020,948123765576849312132567984497258631821936547653714298719382456265491873384675129
096010832000020100003790040069000710400500008002100560070300006030067450001204090,796415832845623179123798645569842713417536928382179564974351286238967451651284397
800000034004000570300690008106000900080010002030275001040500290900107080250340000,892751634614832579375694128126483957587916342439275861741568293963127485258349716
000174000205008070400900008700209060030000200800603100908701305004030806052000004,683174952295368471417925638741289563536417289829653147968741325174532896352896714
000000240090547030016009080003074608640800392500200400008000010001730000700096005,375681249892547136416329587123974658647815392589263471968452713251738964734196825
001706000058000020000530490900000063000810000207040905045960130036002080700001500,491726358358194627672538491914275863563819274287643915845967132136452789729381546
039024086408630900100500200000040003700300502001087060003810040006900700210000090,539724186428631957167598234692145873784369512351287469973812645846953721215476398
300001090610000750080059001073802960100070002860504030400000800020007600050900023,345781296619243758287659341573812964194376582862594137436125879928437615751968423
060030405904060000280007001010005080027000504003140009000800060340902100500010207,761238495934561872285497631419725386627389514853146729172854963346972158598613247
000856090100070008054000307040000005000169024072000030008920600009304010025007040,237856491196473258854291367641732985583169724972548136418925673769384512325617849
083002107000008046590600000007260804000093060420001500060000073002039000058700490,683942157271358946594617328937265814815493762426871539169584273742139685358726491
000020601600701530023000080005037200781050040400000009004609020090800100518003004,857324691649781532123596487965437218781952346432168759374619825296845173518273964
200608740307200610008000050400020000010507300009804106630900000080002509050001207,295618743347259618168743952473126895816597324529834176632975481781462539954381267
190004500600500000000070083502000010000097006063008402050029700700030940480010200,198364527637582194245971683572643819814297356963158472351429768726835941489716235
003100690840500071009026000502034060018000400600700800300040780005308002900002005,253187694846593271179426538592834167718269453634751829321945786465378912987612345
070030004650200008000015709008040615502000000006098403030650900027300000800004071,179836254654279138283415769398742615542163897716598423431657982927381546865924371
260590100080000907704380000007400010300006005050130672000700040940060050001002008,263597184185624937794381526627459813318276495459138672836715249942863751571942368
060300090008005207405089003070900400006470080980000012030840025010603070000050001,761324598398165247425789163273918456156472389984536712637841925512693874849257631
300000014960300200020804003703540090200009007001060008507200809000010050042007060,378625914964371285125894673783542196256189437491763528517236849639418752842957361
084006102002900037050030600900450008030021040600000700210708009000300000000040810,384576192162984537759132684921457368837621945645893721213768459498315276576249813
050970060002050300040000805000084000801520000005036720003600179020300506107000430,358971264612458397749263815236784951871529643495136728583642179924317586167895432
000500290407016080003009006100080904006020310050040070080307001200050060719000005,861534297497216583523879146172683954946725318358941672685397421234158769719462835
020100370910080500006003010390708602200004789000060000070840250004059000000306001,428195376913687524756423918395718642261534789847962135679841253134259867582376491
000010540020005600690340270546020100031900050980070004200009030060180400007600010,873216549124795683695348271546823197731964852982571364218459736369187425457632918
030150060000480102007009008800702403000000050376090000710040200009030006624005010,238157964965483172147629538851762493492318657376594821713946285589231746624875319
400209006005070920600300080900000470000036510012800090003758000190000030804000067,471289356385674921629315784936521478748936512512847693263758149197462835854193267
068500300091600540000007006005020630307804020004090108000006702402059000000003010,768542391291638547543917286985721634317864925624395178139486752472159863856273419
086040090170602004002050700043000001001006930900000052300029600800001370605004108,586147293179632584432958716743295861251486937968713452317829645824561379695374128
008001490020390050160500008050410600074902000000065080900046027210007000003000001,538671492427398156169524738852413679674982513391765284985146327216837945743259861
000040038290730000000506072020000581009275300064100007870001000415009000000450806,657942138291738645348516972723694581189275364564183297876321459415869723932457816
140720006086403200000005090579001008000000403010200700008600500400008300620100007,145729836986413275237865194579341628862597413314286759798632541451978362623154987
060003047000045002108070000493102080005000920000760005250008109709000304016000050,562913847937845612148276593493152786675384921821769435254638179789521364316497258
006307040100002708009600102050800000020094007870000504410000680500023000300468050,286317945135942768749685132954871326623594817871236594412759683568123479397468251
010040000608090003300002750000980000053076104002501090000008906205000040804120300,517843269628795413349612758176984532953276184482531697731458926295367841864129375
090620050100049028036000900500703810700000000009100002840002501360005000002060047,498627153175349628236518974524793816713286495689154732847932561361475289952861347
070008300020500109103207600602005001900000540000981006014000002007063008500740000,479618325826534179153297684632475891981326547745981236314859762297163458568742913
083152000604008700010000008500409100400010607090600020072805400905206030030000000,783152946654398712219764358567429183428513697391687524172835469945276831836941275
900150000000000106060204308207593000001060940008020070300087065720300000059000400,983156724472839156165274398247593681531768942698421573314987265726345819859612437
030002097086390004000800650070000405000200389900401002000000071240156000098000000,431562897586397124729814653872639415614275389953481762365948271247156938198723546
490003020003070050501080007210006030009807046700050900080610200035090008600400010,497563821823179654561284397218946735359827146746351982984615273135792468672438519
900201060065900000407050280040008023103007000090300004324010600600500940080006010,938271465265984731417653289746198523153427896892365174324819657671532948589746312
097006002030085740000000010002040050019003206300700001040070003600500980800120500,597416832136285749284397615762941358419853276358762491945678123621534987873129564
008500040607010000004007268000060090000034800059002670702050001040200950160009003,938526147627418539514397268481765392276934815359182674792653481843271956165849723
008345100017000005200600980020804017805102090900070006000930000760000050034008200,698345172417289635253617984326894517875162493941573826582936741769421358134758269
400056030003290008820074091900060070601400802052000000090003000006120300108900700,419856237763291548825374691984562173671439852352718964297683415546127389138945726
049005007005370016000062800300080090060053704028900105010000200570104000000630040,649815327285379416137462859354781692961253784728946135416598273573124968892637541
008100020000003507036020091080009000203400670074301000501800004040056908067000200,458197326129643587736528491685279143213485679974361852591832764342756918867914235
090054008300801509400073002000002100089030460500000027000010070001065304007200900,192654738376821549458973612764582193289137465513496827845319276921765384637248951
008902740004015260010060005000304800053020000249000100007680003300700010081050900,568932741734815269912467385176394852853126497249578136497681523325749618681253974
670540090002010800305802006000027005000900340401050000503000700790000184080600002,678543291942716853315892476839427615257961348461358927523184769796235184184679532
020960030395010400060070028000300781637091000400052000000000002849600307000400560,728964135395218476164573928952346781637891254481752693576139842849625317213487569
609002304000403150400085700830000001000078060000690408002100000080207000041006590,659712384278463159413985726836524971194378265527691438362159847985247613741836592
050007000004390126000041090000760200403500601070000983800000500031204000096050037,159627348784395126362841795918763254423589671675412983847936512531274869296158437
007490008000010020095006000500028094070060010300000200800007600006083109124050300,617492538483715926295836471561328794972564813348971265839147652756283149124659387
003000067200605810500078200060104000308006400000030920001092080090481700040700005,483219567279645813516378249967124358328956471154837926731592684695481732842763195
050000076714003800820500100080030050400000093095102004000070902600824007100006300,953218476714693825826547139287439651461785293395162784548371962639824517172956348
600800072090007301054002890031900000007001265008405000000000004006210003300690710,613849572892567341754132896531926487947381265268475139189753624476218953325694718
504300900310092007000000320008400030950007001061903702890064000000085100047000650,524378916316592847789641325278416539953827461461953782895164273632785194147239658
070053806020006041600400009000740000010062500350900002062000000007080400905071280,479153826523896741681427359296745138718362594354918672862534917137289465945671283
807010006000803140020060300000000030470190080650007209090480027005006090081500000,837214956569873142124965378912658734473192685658347219396481527245736891781529463
307410005054070030820000600003097000000003260590048010080000500200009381006001920,367412895954876132821935647613297458478153269592648713189324576245769381736581924
300000620058000701201076003109020008432007100000690400006409300073200000500080009,397148625658932741241576983169324578432857196785691432826419357973265814514783269
060000857083100009002050030000301420006080000930460070005830000479200005000005692,164923857583174269792658134857391426246587913931462578625839741479216385318745692
000609500700000002140020063080400750020050009060193000210008040000530207308040905,832619574756384192149725863983462751421857639567193428215978346694531287378246915
