003091067000054900021800030608900420230100008040000093090003080000070005016480000,453291867867354912921867534678935421239146758145728693794513286382679145516482379
539006070010400805080001290000039002106078400890000500007005040040200908000010006,539826174712493865684751293475139682126578439893642517267985341341267958958314726
020034090009070150800090003060410307700650001000200040670000800530008619490001200,126534798349876152857192463265419387784653921913287546671925834532748619498361275
009700650000030019080000304100005200502378040004006700096403520815092000400800006,349781652657234819281569374178945263562378941934126785796413528815692437423857196
041000007020640300009203050700060430095301086800050000203470160054000208060900000,341598627528647391679213854712869435495321786836754912283475169954136278167982543
025000000600900470010803502080350007400100060000700923100000009300040608057010200,925471386638925471714863592289356147473192865561784923146238759392547618857619234
820901503100400200093005007306700051000004900250018040080000070507600000001200309,824971563175436298693825417346792851718564932259318746982143675537689124461257389
050060038043210050160007002790003085002490010000086200530009400401350000800000070,257964138943218756168537942794123685682495317315786294536879421471352869829641573
300000100480500070069820030500060090643000200097401080000005007004900502701008069,375694128482513976169827435518362794643789251297451683926135847834976512751248369
010500060609047003500800204000783609000010300270000040020090010794000500351600080,412539768689247153537861294145783629968412375273956841826395417794128536351674982
800106005430700060000093100040002300200800659507000008006050491000620800309007000,892146735431785962675293184948562317213874659567931248726358491154629873389417526
009700853060000000107900000008052900300006420010030067580010004000608100000390206,429761853863524719157983642678452931395176428214839567586217394932648175741395286
000800090050040300700259840503000010208560007010000064300026070096700100002408003,624813795859647321731259846563974218248561937917382564385126479496735182172498653
300074002000109700084000309048605000000000590069307280006020035050001800870040060,391874652625139748784256319248695173137482596569317284916728435453961827872543961
080040002031576900045801030700050000020004090000093716500080300008100070073002504,687349152231576948945821637719658423326714895854293716592487361468135279173962584
809210005005076000010090360501600900900040720000038040000052008730000004006004197,869213475325476819417895362541627983983541726672938541194752638738169254256384197
080004000100300475605079002096020008004705000300010600200807046038600500000032109,783254961129386475645179832596423718814765293372918654251897346938641527467532189
000070300102600009400283050200809001003000520768150004697020000800004063004500800,586971342132645789479283156245839671913467528768152934697328415851794263324516897
083001950050408000100000600090504100608020090020930704730000000000690502200005813,483261957956478231172359648397584126648127395521936784735812469814693572269745813
800006703200400060910300005002538100060020089070600004005907600003250400049000000,854196723237485961916372845492538176561724389378619254125947638683251497749863512
000902800509060000700003014310580640060000079402030500008120030041000250050706000,134972865589461723726853914317589642865214379492637581978125436641398257253746198
530040708008702600090010004004005079006000031050108400700000965201096000000437000,532649718418752693697813254124365879876924531359178426743281965281596347965437182
480900506005200703320000080100708302059060070000500000010040060860371400070029008,481937526695284713327156984146798352259463871738512649913845267862371495574629138
027060005300008000080500134000014050009070402032009006061780903000002000705901060,127463895354198627986527134678214359519376482432859716261785943893642571745931268
000007005084610090900300801570002000100009004406780300010040620092100003703050008,261897435384615792957324861579432186138569274426781359815943627692178543743256918
001800060062090087370004009500060891000050040204001700000100030185030000003970205,951827463462593187378614529537462891816759342294381756729145638185236974643978215
000002640860010050009000003004000071500000809290307000006738204008920706030104090,315892647867413952429576183684259371573641829291387465956738214148925736732164598
000200804500000106801037090069000040170060003008491020700104050000059700920306000,697215834532948176841637295269783541174562983358491627786124359413859762925376418
009000720070600000243850100090060800500409030821005006050030400406020073000010098,689143725175692384243857169394261857567489231821375946958736412416928573732514698
700800641000050000240007009300048010009500830006091052000010420070039008600702300,795823641861954273243167589357248916129576834486391752938615427572439168614782395
104000209086400100007260300000000908010083000002006040300150407000398506920000000,134875269286439175597261384673524918419783652852916743368152497741398526925647831
050100009069007300100036040000804065700000831005200700400020000201509007008340900,354182679869457312127936548913874265742695831685213794496728153231569487578341926
309000000000030256001402080007008430402100000500603709090020674000000800805700310,329586147784931256651472983967258431432197568518643729193825674276314895845769312
000508107007090000081030029020145090005080700060002300900003805034609000016020040,249568137357291486681734529723145698495386712168972354972413865834659271516827943
000943260005180304000006870170630009504020010000500000980005003020090700603012040,718943265265187394349256871172634589534829617896571432987465123421398756653712948
002600095310097480000005070006704003900010800240000500460300001070100640800050009,782641395315297486694835172156784923937512864248963517469378251573129648821456739
005640030030720605070010020790001000604070800028360790040000000800004301002890056,285649137931728645476513928793481562654972813128365794547136289869254371312897456
140000502000409086003570000008106004520040100090280030207900000805300019030060700,149638572752419386683572941378196254526743198491285637217954863865327419934861725
050080934090070010004002600702015000500000300036209008001034570960800040400106002,257681934698473215314592687782315469549768321136249758821934576965827143473156892
400608017000040890002000005904001063800090701507200940740350000008006050130020600,459638217371542896682917435924781563863495721517263948746359182298176354135824679
408005971690000000001308002904007005700602800003051200040080309006700100250400000,438265971692174538571398462924837615715642893863951247147586329386729154259413786
860504000001000900040000020000058100096720004350400700500009086400801037000300209,862594371731682945945137628274958163196723854358416792513279486429861537687345219
000005100430080007600100092004610000005002380869007001000400209973020500000503760,298765143431289657657134892324618975715942386869357421586471239973826514142593768
309600010000058000600400590072100060930040000080306002540001903000270001061000408,359627814714958236628413597472185369936742185185396742547861923893274651261539478
800010604637000901090005820000020000073584090105709000000670002048000503020408000,852917634637842951491365827984126375273584196165739248519673482748291563326458719
001400060700006508000029000000080154205300870060017000093000607004005213007800040,931458762742136598856729431379682154215394876468517329593241687684975213127863945
213500048600030000405000001000061720040370100100028090809003007020000065700046930,213597648687134259495682371538961724942375186176428593869253417324719865751846932
002003080043007150650800000900610820010004700006002904400020001005070000387590600,792153486843267159651849237974615823218934765536782914469328571125476398387591642
500030867008901034204700005301209000400108500090060000000024300080500600702000108,519432867678951234234786915351249786426178593897365421165824379983517642742693158
300600070007009486000200903080000002092710305015900060000000504001350720078140000,359684271127539486864271953783465192692718345415923867236897514941356728578142639
076008590208100740030060001690050082005000000000720604000902030000030100089004075,176248593258193746934567821697451382425386917813729654561972438742835169389614275
342007600000032004070601500764000030001050900030008000050080179200010080086904002,342597618615832794978641523764129835821453967539768241453286179297315486186974352
100020000058000190904800037007600914000350806062040000200108075000760000089035400,173529648658473192924816537537682914491357826862941753246198375315764289789235461
800000400050630002723010005168500090007090824000000001304007059900080230002009700,896725413451638972723914685168542397537196824249873561384267159975481236612359748
105000600080030010007000984000008060900107002408060007604083109003205400750094200,145879623289436715367521984572948361936157842418362597624783159893215476751694238
100402000006075900009000078900300400703000050020064100670000502304000601010980003,187492365236875914459631278961358427743219856825764139678143592394527681512986743
603010020250000094090800605000387050000040079804001002002063007100090080400200506,643519728258736194791824635926387451315642879874951362582163947167495283439278516
901070806060490000302501000000002670130806004500900300408000001200080507009100403,941273856765498132382561749894312675137856924526947318458739261213684597679125483
003200005000900824050107090098005607400008100160720030000430200710060083004000501,943286715671953824852147396298315647437698152165724938586431279719562483324879561
002046305410307900008000000006080090940050701050104020000009002030071006571200400,792846315415327968368915247126783594943652781857194623684539172239471856571268439
605397010700081400000040095400060200030178060001005070520000000980004123000036900,645397812792581436318642795457963281239178564861425379523819647986754123174236958
005630074300000001090018560140970000072040930500002000020100706004305082000026000,215639874386457291497218563148973625672541938539862417923184756764395182851726349
000004020001680974700501000015000700400002358086009002070200591904000006060300800,638974125521683974749521683215438769497162358386759412873246591954817236162395847
080004200005690000703000086000015300900700420061000800806030500400900070590002040,689374215125698734743521986274815369958763421361249857816437592432956178597182643
007085010600090005008720090470600020001500000803000407004900176025001003090304200,937485612642193785518726394479638521261547839853219467384952176725861943196374258
390000050700024000002703604000010309050080020400270800006000910831690002200030780,394168257765924138182753694628415379957386421413279865576842913831697542249531786
093000006001037004200006390000080005050001700680204900025100040134600270000800030,793428156561937824248516397312789465459361782687254913825173649134695278976842531
420060700700503410006080030080701000009000083041290005000900500057006821160000049,423169758798523416516487932685731294279654183341298675834912567957346821162875349
030600008100004003750000901900040260862570300000001079580020000000050100274080090,439615728128794653756832941917348265862579314345261879581926437693457182274183596
200000100004896070003041069089600300300009086107500400002000007750008000000035901,296357148514896273873241569489672315325419786167583492932164857751928634648735921
000005801070004900186020003030046000542170060000590208003009000004080107097060502,429635871375814926186927453938246715542178369761593248213759684654382197897461532
106003509004169280000000000009001408570900100601208003000000072003040900082007060,126783549354169287897425631239671458578934126641258793415396872763842915982517364
000003000205104380180002960050080002070010495004027000030608520607940010090000006,749863251265194387183752964356489172872316495914527638431678529627945813598231746
010004060008510920200080300080300100007060005420709000003090500100270006640130890,315924768768513924294687351586342179937861245421759683873496512159278436642135897
700300040580401000609750100000008500930600702405107003206000401071090000000800020,712389645583461279649752138127938564938645712465127893296573481871294356354816927
250040009040003160106708305805001700000260403000009000400500037309617020002000008,253146879748953162196728345825431796917265483634879251461582937389617524572394618
106830090200005001000004380700000040025100600304906500080000200900061054053070006,146832795238795461597614382769523148825147639314986527681459273972361854453278916
000100083060702050075300090001603200520080006400059070703900410000000020980004300,249165783368792154175348692891673245527481936436259871753926418614837529982514367
502000400098000030040610085031400208970300006200100590050009700003006009800700064,562983417198574632347612985631495278975328146284167593456839721713246859829751364
000308200160250000007904000950800406013000005684072001000003164400000080800006039,549368217168257943327914658952831476713649825684572391295783164436195782871426539
000302058007900010801004200600050003080001027000043860058720600010060905709000400,946312758527986314831574296692857143384691527175243869458729631213468975769135482
000803596073409010005026000037060082008000105010702000080000903000217060420900000,142873596673459218895126347937561482268394175514782639781645923359217864426938751
400500200013000009080020037300708601900240070068050000070102405004600800605900003,497513286213867549586429137342798651951246378768351924879132465134675892625984713
009060000130002045400108200007500080300680902000900061270300800000010090915070304,729465138138792645456138279697521483341687952582943761274359816863214597915876324
000007060068090045209030801901205000004010200070008030345006008100080420006700090,413857962768192345259634871931275684684319257572468139345926718197583426826741593
065000009340700000700285004901453000030000800502016000004002370090000026003004105,265341789348769512719285634981453267436927851572816943654192378197538426823674195
003081900000040020082005003610703500245000070030090010700002650060017800000800490,473281965156349728982675143619723584245168379837594216798432651564917832321856497
004060001000900023006780095005100000049320000020004057050807930103050074608000000,934562781587941623216783495365178249749325168821694357452817936193256874678439512
210904000060300084005020700850790063001403070603001000300050908096200507000100040,218974356769315284435826791854792163921463875673581429342657918196248537587139642
010006039003250001824010050000060420200308100590004700000700086109045000037090000,715486239963257841824913657371569428246378195598124763452731986189645372637892514
020090300001600050500008020006030000490800000000500816059006074080002000307154980,628795341941623758573418629816237495495861237732549816259386174184972563367154982
981500200530490600200100000005000803003040070070206405004008107698001002010000360,981567234537492681246183759465719823123845976879236415354628197698371542712954368
109000005030009604407038000008462050000070200000001069000004020350010087700380410,129647835835129674467538192978462351516973248243851769681794523354216987792385416
092000000805930000340807006100000803000013270000400059006052410020004637400708000,792645381865931742341827596154279863689513274237486159976352418528194637413768925
508076003200003060000400591009205046060080000702009010106300200000017034084900005,598176423241593867637428591819235746463781952752649318176354289925817634384962175
503002009804009020900600807000071000019406380300000005000024600085910070002000153,573182469864739521921645837258371946719456382346298715137524698685913274492867153
100020090020009461000800007240760000508003004309010520014000608900000003603507010,137624895825379461496851237241765389568293174379418526714932658952186743683547912
024006007000420809030081000700090600006108050590300000061500390000002074007830206,824956137175423869639781425718295643346178952592364781261547398983612574457839216
090500001000008753070210800001026900000000287408093015100049000503000000007105062,896537421214968753375214896751826934639451287428793615162349578583672149947185362
020001086803000590600078001007065943069080025000020000030210000058403700400000000,725931486813642597694578231287165943369784125541329678936217854158493762472856319
