004502000360800500050070490706000020500007069900035800000010008630049201200300070,194562783367894512852173496746981325583427169921635847475216938638749251219358674
503020000060000008002057910090780500200104300376005004084000006100006090005400820,513928647769341258842657913491783562258164379376295184984512736127836495635479821
860320005029005100000040023001084700590030040080600000002050030700200506003809400,864321975329765184175948623231584769596137248487692351912456837748213596653879412
000103700095002860006000100009657004000000295401300000080070020704290030500001008,248163759195742863376985142829657314637814295451329687983576421714298536562431978
000520093090608270075000000004002800658100000001053704010490308402700600300001000,846527193193648275275319486734962851658174932921853764517496328482735619369281547
007000000910020064050098010001000030690103008402080005000005342084900070000670059,247561983918327564356498217871259436695143728432786195769815342584932671123674859
090030500500000081708604002063190040402000008070000260300010000005200604001985300,294831576536729481718654932863192745452367198179548263327416859985273614641985327
120090056806000030935720018040670000200039100007004005093400000600010007080350062,124893756876145239935726418549671823268539174317284695793462581652918347481357962
000030819008250000600007040300010290020300001705090006080009020176400005490068003,257634819948251367631987542364715298829346751715892436583179624176423985492568173
900013000000700802648095300100400500000068031205000076519000700007000068030902050,972813645351746892648295317163427589794568231285139476519684723427351968836972154
000800590900410000460000003070020000200305706386700009005160040007980620040003010,721836594953417862468259173579628431214395786386741259895162347137984625642573918
100960020086030045027018000004007210610050004000001083503000700000300008079420060,135964827986732145427518639354897216618253974792641583543186792261379458879425361
068000341200607000095080000000000500029008004040953000137090060006305092000704180,768529341214637958395481276873246519529178634641953827137892465486315792952764183
040900600005071000308040501000510040007060305502700008170008920804009006006020013,741985632265371489398246571689513247417862395532794168173658924824139756956427813
000200003803010540095800720702040090040680035030000006006102080070060900000590017,417259863823716549695834721762345198149687235538921476956172384371468952284593617
030057001608490020702800500803075090120000704090640000085000902400903680000010000,934257861658491327712836549843175296126389754597642138385764912471923685269518473
070015000608020040100400569700300100806070020002009650009100304030000080507004900,974615832658923741123487569745362198896571423312849657269158374431796285587234916
016008000900006002800350070308020509005001040290400000030100007002070850400060931,716248395953716482824359176348627519675891243291435768539184627162973854487562931
507800060620074008001230075100007500080020001300009420090000600706950003403060100,537891264629574318841236975162347589984625731375189426298413657716952843453768192
000001040015030060908020000320806014000000520060710390100370000007005401436090070,673581942215439867948627153329856714781943526564712398152374689897265431436198275
010005007028300506006270009900004200000009370004080060005900010047050002603100480,319465827728391546456278139971634258862519374534782961285946713147853692693127485
002400091040300605678000020001000274000961050850002006090010007300570040400038000,532486791149327685678195423961853274724961358853742916295614837386579142417238569
100084020200300801750600040004508360003249007520000000060007080000460510090010700,139784625246395871758621943914578362683249157527136498361957284872463519495812736
000080200295107030800305074430060009000500000600790310060010098380600025071800600,743986251295147836816325974437261589129538467658794312562413798384679125971852643
020010409839060500070000820004003070002940100010005680100700065057690200000038000,625817439839462517471359826564183972782946153913275684198724365357691248246538791
040030001080026000301700800100040320970000400000905678023001006060502040405008090,642839751587126934391754862158647329976283415234915678723491586869572143415368297
000006904730008000500900180900020800026040009073100065005030701040200000180097030,218356974739418652564972183951623847826745319473189265695834721347261598182597436
000076300060009024100580090002705000089300001000000456700003040410900865958000000,295476318867139524134582697642715983589364271371298456726853149413927865958641732
925170003000005600008000090100080250060730009002001004030018006070520400400300908,925176843347895612618243795193684257564732189782951364239418576876529431451367928
037002009500019040009853000605000020200000487080307601320401000051000270008060004,837642519562719348149853762675184923213596487984327651326471895451938276798265134
060000004000200913700053280000040805400109070209780400013928000050034009004007600,362891754548276913791453286176342895485169372239785461613928547857634129924517638
710400008009063054006007030090300406008005200002890070160020000080900140030008500,713459628829163754456287931591372486378645219642891375167524893285936147934718562
024003000000090000015062003700800005008940021040056800030100406069075180000020709,924713568376598214815462973792831645658947321143256897237189456469375182581624739
090670802054903600600401300700000480015000290200160005147050000008009003003208000,391675842854923617672481359736592481415837296289164735147356928528749163963218574
810690750500083000004020010250030400030008090090700601070041009002000060349005080,813694752527183946964527813251936478736418295498752631675841329182379564349265187
020016070709003800300500020004250000850071946003000012400090601607000004090804050,528916473719423865346587129164259738852371946973648512435792681687135294291864357
700300068208051093006700405001000600300004050072005019504010200903020007000008040,795342168248651793136789425851293674369174852472865319584917236913426587627538941
470920030810000000006700508030000086000530010201040090000002169050073002604009700,475928631812365974396714528537291486948536217261847395783452169159673842624189753
000700840610400072800009000927100030305000064106805000730004015000290400000013026,253761849619458372874329651927146538385972164146835297732684915561297483498513726
740008600153000000002403090001304700060020108200100045905000002800700300020096870,749258613153679284682413597591384726467925138238167945975831462816742359324596871
005302000170040500039705008060000000002000340080271900004020060608094207500008100,845312679176849523239765418961453782752986341483271956394127865618594237527638194
920007180430000020706003009000050600610002050008030904000040201040790000890100067,925467183431589726786213549379854612614972358258631974567348291142796835893125467
000000098010074200658001000061290004009047300700060009500002680000000070020615043,472356198913874265658921437361298754289547316745163829594732681136489572827615943
700000094004080653650020000000230980025064037001008000040006708970100040030007020,783615294214789653659423871467231985825964137391578462542396718978152346136847529
090065002400002093607000008058000070930704000002190000200306050070009106301040020,893465712415872693627931548158623974936754281742198365289316457574289136361547829
071400309920008000000320700068040051005001080040090600006002104000560070087003260,871456329923178546654329718368247951795631482142895637536782194219564873487913265
056030401000040970800002500005000030080673050209000680070001000190005302004098006,956837421312546978847912563765289134481673259239154687673421895198765342524398716
300870004089300500005210600620040000000000069007001080060050310400020090850703000,316875924289364571745219638628947153134582769597631482962458317473126895851793246
040001900032054067017060200008200659520600004100480003090030001006009080300070000,645721938832954167917368245478213659523697814169485723294836571756149382381572496
040053000100840003900600200000006900005310087872405001001027050067000094000100002,748253619126849573953671248314786925695312487872495361431927856267538194589164732
690003150200008603040750008800090000070601002304200500510000870089042000000070091,698423157257918643143756928821594736975631482364287519512369874789142365436875291
000480000080005730210009608061370409890601000407000020600027500059060041003900000,375486912986215734214739658561372489892641375437598126648127593759863241123954867
900074500003108000070200306280605090710800000005000201001702035030090860047500020,926374518453168972178259346284615793719823654365947281691782435532491867847536129
500024930700061080030000201208710506009000800010409000100590700053000008480630000,561824937792361485834975261248713596379256814615489372126598743953147628487632159
600090010712000890039470006083005001200006480500000700060200073090080000400309560,654892317712563894839471256983745621271936485546128739168254973395687142427319568
000940006470001300208003000001000059860007100053012800000439260000076010030000480,315948726476251398298763541721384659864597132953612874187439265542876913639125487
300080200004570030000046100000000090470210600860000572900003010085600004720450809,357189246614572938298346157532768491479215683861934572946823715185697324723451869
278100300650407908000600001002706000304015700080090050040308000006000405003020809,278159346651437928439682571592746183364815792187293654945368217826971435713524869
306017000009865001700000028630051000008032190000000540047603000201009804050000207,386217459429865371715394628634951782578432196192786543847623915261579834953148267
076080039130067000400200500000074003500100008690000200028500790000030400050891006,276485139135967842489213567812674953543129678697358214328546791961732485754891326
000179600206000000000008043700501000100900768840030020003706580050014000001020039,384179652296453817517268943762581394135942768849637125423796581958314276671825439
602040080000007003910600000040306210001090005790020040000708930500002107370460008,632549781458217693917683452845376219261894375793125846126758934584932167379461528
040805900093070051500000720600204070080069100420000605000046000000720830106300094,742815963893672451561493728615284379387569142429137685238946517954721836176358294
006008400700249610900350000501007090023065000000821000300000570040000830008600004,236718459785249613914356782561437298823965147479821365392184576647592831158673924
000010609010034085702000000300058900206000040580009370000960800940700030063140200,438517629619234785752896413371458962296371548584629371127963854945782136863145297
080010050167900400053726900709208160206004000000000003001532007804001000000000609,982413756167985432453726981739258164216374598548169273691532847874691325325847619
081700260009002000003009415000480000030006871020350006807005023100670500004100090,581734269649512738273869415916487352435296871728351946867945123192673584354128697
103279000500104009070006040050000017860030092200018500080900306700000004002003950,143279685526184739978356241354692817861537492297418563485921376739865124612743958
000005097100480020063020100030160700852003000001098004900600870020079050004200300,248315697197486523563927148439162785852743916671598234915634872326879451784251369
170000000000280300000309057406000500905108042020500001007094083080705690004030200,173456829549287316862319457416972538935168742728543961257694183381725694694831275
004905000005000926080013700103028047840001035000070000651700082000000360209400000,724965813315847926986213754193528647847691235562374198651739482478152369239486571
007000050908001420000047103809052006073406500600300090005004901062830700000600002,417283659938561427526947183849152376273496518651378294385724961162839745794615832
000000807010406030028700600903001000000800400006090005700610209002004380680930001,469123857517486932328759614953241768271865493846397125735618249192574386684932571
005037006004100082012460500090005007000002930803076040006084090030000020070000108,985237416764159382312468579291345867647812935853976241126584793538791624479623158
006209048070015002300700006600000473034100000980000050700920680800073090105406000,516239748478615932329748516651892473234157869987364251743921685862573194195486327
080103060000902503007046000008050740046010005930760810009400000150000209020800007,582173964461982573397546128218359746746218395935764812879425631154637289623891457
103654009090000007000008100804590030002706018600003920000180000325000000001300645,173654289598231467246978153814592736932746518657813924469185372325467891781329645
000012605014000320000460080001075003038900000020830790075000001002059070843000006,389712645614598327257463189491275863738946512526831794975684231162359478843127956
000200000610704009800630510000060245070045003009001600005002084130000702004080060,597218436613754829842639517381967245276845193459321678965172384138496752724583961
009500760800693000504002000000000008200174009306005070010980050020000017680201304,139548762872693145564712983741369528258174639396825471413987256925436817687251394
082009003009004015304010000418030900000090781070020064000802000090570020600001570,182759643769384215354216897418637952236495781975128364547862139891573426623941578
607805041092001800050640000089503000700400050340096000001060034020900610003000207,637825941492371865158649723289513476716482359345796182971268534524937618863154297
680710093050060710020038000470090580000006009510200060301040005890100074002000800,684715293953462718127938456476391582238576149519284367361847925895123674742659831
180030047600010050020400009700008405031620000009700003040000720073104006006209800,185932647694817352327456189762398415431625978859741263948563721273184596516279834
090008721000406500253070000007000490400190062800200005016003008002000346000500900,694358721781426539253971684127685493435197862869234175916743258572819346348562917
060040050805901034730060000000620045402708010093000800018003260209150000000007000,961342758825971634734865129187629345452738916693514872518493267279156483346287591
600950140500003067020400080109600800050048079000070003014002006030001490700580200,683957142541823967927416385179635824352148679468279513814392756235761498796584231
000069502020307096001800000300650800006200040040001700002016070053090010087002050,734169582528347196961825437379654821816273945245981763492516378653798214187432659
070000090300060840002019300053700600001000028800001750025608004000095000006032170,678243591319567842542819367253784619791356428864921753125678934437195286986432175
003080100270100080005267400790040002620053009000008060800076004940005036010090000,463589127279134685185267493798641352621753849534928761852376914947815236316492578
000009070900708105160320480300004008001000647200680510800030000094050206030002090,458169372923748165167325489376514928581293647249687513812936754794851236635472891
800204700700005048069001050300050107620080030001607092005020000004900600070000321,853294716712365948469871253398452167627189534541637892135726489284913675976548321
002310806007004002605008090080007004004900120320050900900061008006000031040702050,492315876837694512615278493589127364764983125321456987973561248256849731148732659
070960103600000080052043900000504020000700304803601000760008041000207560091000007,478962153639175482152843976917534628526789314843621795765398241384217569291456837
090702060000030581403050000900070010102890043006200008070100090560084020001000805,895712364627439581413658279984573612152896743736241958378125496569384127241967835
002003000000790830010526070400017200080000940609300057056402001001070005900008604,792843516564791832318526479435917268187265943629384157856432791241679385973158624
000008397006000201000310080009080600002400000158029400045700002090001060670032950,514268397386975241927314586439187625762453819158629473845796132293541768671832954
103009760002007400900000038620080007090060100340205090705000600000300045010058200,153849762862537419974126538621984357598763124347215896735492681286371945419658273
302050600008000007100046029500020000970300040000605803000002510860090400420710030,392157684648239157157846329583924761976381245214675893739462518861593472425718936
000003204092000007850740060007060420020900010300105780700089006049500000106030000,671893254492651837853742961917368425528974613364125789735289146249516378186437592
