004002015010859004060001000503000000120000070009087503200400058480200031300790600,934672815712859364865341297573924186128536479649187523296413758487265931351798642
300050000840019003002400070200090000403007560000006982001600024007080130500002608,379258416846719253152463879268591347493827561715346982981635724627984135534172698
900046000020905061800070020004050100030000607005190842002008090508402700417000003,951246378723985461846371925284657139139824657675193842362718594598432716417569283
200506008096802000084030009730010056050403001000600280029008105100070030070000904,217596348396842517584731629738219456652483791941657283429368175165974832873125964
690083250002500178007041000049052800780106000000400309310000046500000032000007000,691783254432569178857241693149352867783196425265478319318925746576814932924637581
600201500000900807900070100524800060080630000103009705070002004305008091000043600,637281549412956837958374126524817963789635412163429785876192354345768291291543678
001025600506000009092340000000509730070080190400000200800753010005610400030004068,381925647546871329792346851218569734673482195459137286864753912925618473137294568
006200900000006015021500708005094000400321000089000043050630000034080097090007026,576218934843976215921543768315894672467321859289765143752639481634182597198457326
002009000005180700040003180201000405030700690709601030570064200104030906080500000,812479563395186724647253189261398475438725691759641832573964218124837956986512347
009051300006009052020004907300006270470080600095000084031500000060970030800010420,789251346146739852523864917318496275472185693695327184931542768264978531857613429
030000000704008630206000051908010004050906100603025080000090070801034000049260008,135672849794158632286349751928713564457986123613425987362891475871534296549267318
270060350800720000096030010000080000649100800000005074003002409004057230080009067,271964358835721946496538712527486193649173825318295674753612489964857231182349567
490000007080040602000730001700502904905800000100600370003005200010009068260400500,491256837387941652652738491736512984945873126128694375873165249514329768269487513
072089005306005240000040800060093080090002050700601000053027006940008310001000070,472389165386715249519246837265493781194872653738651924853127496947568312621934578
001009004570300060006020380009000006107000250000142003050060170020705840000298000,381679524572384961496521387239857416147936258865142793958463172623715849714298635
640280003305000048090040000020500006000039800100760030000000100701390580950601070,647285913315976248892143657423518796576439821189762435234857169761394582958621374
034000597080000000791030000000080062000105409903040805062409001105600040800007200,234861597586792314791534628457983162628175439913246875362459781175628943849317256
090600800060029030400000005009204073510800006240705100700008410021000050800030907,395647821168529734472381695689214573517893246243765189736958412921476358854132967
803070900400002008061000002050000060000890050987004100010067400500930207209105300,823576941495312678761489532154723869632891754987654123318267495546938217279145386
000070200400200930300506000076000580100009007200100640090608000814905003050013004,589374216467281935321596478976432581145869327238157649793648152814925763652713894
050810907360000002008002000030100205210350080000006400001004500007090603040587000,452813967369475812178962354736148295214359786895726431921634578587291643643587129
009000513005810200600400709001000006400026037030005900093740028007008400000690000,849267513375819264612453789921374856458926137736185942593741628267538491184692375
051089000000004012806070000700500400093400000000200639070900023015006070420030108,251389746937654812846172395762593481193468257584217639678941523315826974429735168
070100000010050290090304607205700300300200106060008004037006050100009038008420701,673192845814657293592384617245761389389245176761938524437816952126579438958423761
400160008180040052072350001090000487007800003050020060009016705063009000004203090,435162978186947352972358641291635487647891523358724169829416735763589214514273896
007806000320000690001093500008910730410507009500008024006050201000400000090702083,957846312324175698681293547268914735413527869579638124846359271732481956195762483
008014720520070300016020009000008960001500800060090074075200100600000043040903050,938614725524879316716325489257438961491567832863192574375246198689751243142983657
000800060592004000600010075058120003241709008900000007000462010003907040009050002,317895264592674831684213975758126493241739658936548127875462319123987546469351782
900000070083000204700150960000490703000500010876000005410020800530670009029031000,965248371183769254742153968251496783394587612876312495417925836538674129629831547
305078002000000063076041000940160500800000097650002031400003080010080070008504900,395678142184259763276341859943167528821435697657892431469713285512986374738524916
900000120045093006801000000314008500000000070069521300020067004050800960008435000,936784125245193786871256439314678592582349671769521348123967854457812963698435217
010000003004007802620809054100003200900500708306400000000040007005072960093601000,819254673534167892627839154158793246942516738376428519261945387485372961793681425
020800901900000056006300204040050000308090500700601420501006030004087019060203700,423865971987124356156379284642758193318492567795631428571946832234587619869213745
630090700207501008000000064105008070000102583070000410802400036090035000400609200,631894725247561398589723164125348679964172583378956412852417936796235841413689257
097008640846700000250900100001050000005000204030670089064000005000206390000830060,197528643846713952253964178981452736675389214432671589364197825518246397729835461
004698000203050970100030600400080061780200004050100203000500009610020000000374050,574698312263451978198732645432985761781263594956147283347516829615829437829374156
070402000800710530021050000006000145083600009000029060002000010500370906900001807,375482691849716532621953784296837145183645279457129368762598413518374926934261857
430000007060980200080075009200800035005009100000600400001004670900216508004700020,439162857567983214182475369296841735745329186318657492821594673973216548654738921
100804005500100649902003008009200070004000062000057000075008200206040103830009000,167894325583172649942563718319286574754931862628457931475318296296745183831629457
007060020300100080085307060056009000702000406048020510094805007000004001500670008,417968325369152784285347169156439872732581496948726513694815237873294651521673948
080000070460019300200560009058004000300050006007290001504000020010300908000027530,981432675465719382273568419158674293329851746647293851534986127712345968896127534
901308000050079000080000006024007650500610048000000312200080904073095000006140075,941368527652479183387521496124837659539612748768954312215786934473295861896143275
056009003201000008300027060000804051073090800008050609020075100090000047100906000,756489213241563978389127465962834751573691824418752639824375196695218347137946582
036908400021004007004020080200051600000007812000630059009000238000070004540306070,736918425821564397954723186297851643365497812418632759679145238183279564542386971
005304008807009610236000090008025000904007005010806030401072000020500700000080140,195364278847259613236718594378425961964137825512896437481972356623541789759683142
000001283008406070010000006560070004000905100037820900870040350640030009050200040,496751283328496571715382496569173824284965137137824965871649352642538719953217648
005030706620004005043100009001607420000000050390000608007361000032509000500028104,915832746628974315743156289851697423276483951394215678487361592132549867569728134
070690230201000409400301080920075000500203107060048500059000006000780004308000000,875694231231857469496321785923175648584263197167948523759432816612789354348516972
007520080609700000030060140090340020058200000000087069042009705001000038560001400,417523986689714253235968147796345821158296374324187569842639715971452638563871492
807530900200700006003009040010020380000160009504000200000074020039600105760301800,847536912291748536653219748916425387328167459574893261185974623439682175762351894
009430200056000009210005807005306004900000600804720031000540078000900000348010060,789431256456872319213695847125386794937154682864729531692543178571968423348217965
271008003006000100500600009180700265007040000320500001460920800000057300038104002,271498653896375124543612789184739265657241938329586471465923817912857346738164592
025010006940805031708000200200008000891000405037960000000503040000790012609000800,325417986946825731718639254264158397891372465537964128172583649483796512659241873
501600300082010090003894002000302870008070159050000060017008035206740001000900600,591627348482513796673894512169352874328476159754189263917268435236745981845931627
002700900000054016600030700009028040050001087106500000700013008090062305403800020,512786934937254816648139752379628541254391687186547293725913468891462375463875129
030000795002015000006800400920400063800203100000750004060000001470390800005006920,138624795742915638596837412927481563854263179613759284269578341471392856385146927
316009400004800002050071000008943600030000050700060920000025198000104706003090000,316259487974836512852471369528943671639712854741568923467325198295184736183697245
040003600300810020870906410060200800009000750100637000000080960020070085905401300,541723698396814527872956413467295831239148756158637249713582964624379185985461372
082060700500008092300900001008074000097021006050800030000005603100600020060080040,982163754516748392374952861638574219497321586251896437829415673145637928763289145
800140690093680007005000000030017802400820500700906040960034085050090120007000000,872145693193682457645379218539417862416823579728956341961234785354798126287561934
603005027180000060007013490270046039009020000000870005008900602000000074345007000,693485127184792563527613498271546839859321746436879215718934652962158374345267981
030021004000400167000050090500106070009005203700042800005087040807000900021069000,936721584258493167174658392582136479649875213713942856395287641867314925421569738
008000900501000003034805710807040302000008090050967400302009008760100205000300640,628713954571496823934825716897541362416238597253967481342659178769184235185372649
080640300260005400000023507140060002800930070000100905037400010501090080400200600,785649321263715498914823567149567832852934176376182945637458219521396784498271653
900640000740000020050809130206900450014003006000007800003008001000050090580210007,931642785748135629652879134276981453814523976395467812423798561167354298589216347
070140020060008009094065870300006901019380006200000007000451000720090560040000030,873149625562738419194265873387526941419387256256914387638451792721893564945672138
070023409006087000300005000200000065580062004093800701041000570000008100805090203,178623459456987312329415687214379865587162934693854721941236578732548196865791243
803200900100075603025049001010430060050000472007008100090103205000000000004960800,873216954149875623625349781912437568358691472467528139796183245281754396534962817
000040007800000200530001080000057031610000090309600820002006040900078560150000300,261843957894765213537291486428957631615382794379614825782536149943178562156429378
402503008000807020050900004800030700521400000093258600067000090980002060004000107,472563918319847526658921374846139752521476839793258641167384295985712463234695187
000605800040010700609407100900300640000150000573004008006082530702900406310000090,137695824245813769689427153921378645864159372573264918496782531752931486318546297
250000078170300040003009620900007050031960400487100000000805002000006810320040900,259614378176328549843579621962487153531962487487153296614895732795236814328741965
050080290000009037170000400800260009300700506005090042080003100240510080001004705,653487291428159637179632458814265379392748516765391842586973124247516983931824765
003104086940005010700060000800600700090200341012700500020090104000000035500813090,253174986946385217781962453835641729697258341412739568328596174169427835574813692
090052803300107096000080000004000302001060970050038000045000000120500067960401000,497652813382147596516389724674915382831264975259738641745826139128593467963471258
026004790705900008001008000008006350000800400042150007604700020000039061350020800,826314795735962148491578236178246359563897412942153687614785923287439561359621874
580076003004000086270001500010009070090200041045800900007164020003702000900030060,589476213134925786276381594312649875798253641645817932857164329463792158921538467
809100407020050901000470020501907038000600100940080500600014000307000009485006300,839162457724853961156479823561947238278635194943281576692314785317528649485796312
070408130005000080023700400600030704040602050700800001098017602000540019060000000,976428135415963287823751496689135724341672958752894361598317642237546819164289573
003080490000106520007240806204790000000003050080004100106008200900315060870000009,623587491498136527517249836254791683761823954389654172136978245942315768875462319
980702100304890000000600095060300070098000043020015000001920080040078012000030600,986752134354891726217643895465389271198267543723415968531926487649578312872134659
100005020060408000900020403037050060208100500000702039650970004040006051801004900,174395628362418795985627413437859162298163547516742839653971284749286351821534976
050100006006702310300084009082300600400001020000090008720000905901003000000006730,254139876896752314317684259182345697479861523635297148723418965961573482548926731
609000000000100539000402100300008005420030860500601470006509004803016000002370010,619853742284167539735492186361748295427935861598621473176589324843216957952374618
000000908002609010603870045000045306050000027100230084740002000206010050910308000,571423968482659713693871245827145396354986127169237584748592631236714859915368472
200006051001340907030020400000093070516008200070500840783000000094700080002060009,247986351861345927935127468428693175516478293379512846783259614694731582152864739
090400237030908500501006800087031065900060403002000080806150000100700049270000000,698415237734928516521376894487231965915867423362594781846159372153782649279643158
908000600300200090006407000000310472025708300000000068847009005060030080003001240,978153624354286791216497853689315472425768319731942568847629135162534987593871246
000001408290378000150040000000000065006210093380900000921800006040005300000460702,763591428294378651158642937419783265576214893382956174921837546647125389835469712
490350002038000090150608007940002075700010040200003008006084100020000050500079060,497351682638427591152698437941862375783915246265743918376584129829136754514279863
080009020000153000491800000608000000000702065050014092900060030705090480002307100,583479621276153948491826573628935714149782365357614892914568237735291486862347159
600900070003000105200083004087004291100008040050009800004501603030070000008046052,641925378893467125275183964387654291169238547452719836724591683536872419918346752
007000006013907004504100300700065190080231600000400250130608720200003000000500009,827354916613927584594186372742865193985231647361479258139648725258793461476512839
307605900200000000000107064902300150080002007600870090009506800004008210100040509,347685921216439785895127364972364158481952637653871492729516843534798216168243579
050020040900080006030749810800200090004300527605190400010006052300900700080000103,758621349941583276236749815873254691194368527625197438417836952362915784589472163
000910002900048710640003500007690000030025001080030954102050830000700000708000429,875916342923548716641273598517694283439825671286137954162459837394782165758361429
705026090008500340310090000060040008100007205007205060203000074000180003650004900,745326891928571346316498527562943718194867235837215469283659174479182653651734982
912003700540080020003004100100006498000215600307000000074050900800700240030601050,912563784546187329783924165125376498498215673367498512674852931851739246239641857
001008026025310704080004009040070060160005237500900000730460000006093008000200010,491758326625319784387624159843172965169845237572936841738461592216593478954287613
065800140000900806240001003709030000800000432000506001501098700087204009300600050,965823147173945826248761593719432685856179432432586971521398764687254319394617258
