401000080307200106280009700009005410000896500028400000060070030103608250000950000,491567382357284196286319745639725418714896523528431967965172834173648259842953671
900040800035009740067580100698003510000000270100456000009200038510900000200070000,921347865835169742467582193698723514354891276172456389749215638516938427283674951
005810036600040780830970002006580000470000209103000400000090100200607005300001074,745812936692345781831976542926584317478163259153729468567498123214637895389251674
027080090000051600560200004000507063800900402036000100900070000005306987000802030,127684395349751628568239714492517863851963472736428159983175246215346987674892531
180500000020094006006000705500160097009002034302008000030405100200000073004310509,183576942725894316496231785548163297619752834372948651937425168251689473864317529
089130020610000053000060904000700630001029070042056008090200007007005080035410000,589134726614972853273568914958741632361829475742356198196283547427695381835417269
040820070000090364906007050030708200009200610108000000470003500300000489002065100,543826971287591364916347852634718295759234618128659743471983526365172489892465137
093000000002810040700000631000096105500070000004302080081045270070900003000200518,193764852652813947748529631837496125526178394914352786381645279275981463469237518
080730000074006090601020580002015009013600802900000076306050010000008040005090603,589731264274586391631924587762815439413679852958243176396452718127368945845197623
040007030601480002000056470163800200092000085800901000500069300400010007900300056,245197638671483592389256471163875249792634185854921763528769314436518927917342856
071000002560080039003075000290407016804009050000520003100060428000000000307001090,471396582562184739983275164295437816834619257716528943159763428648952371327841695
100380905060009000507400800030000502004506079009070010080030600001640030023018000,142387965368259147597461823736194582814526379259873416485732691971645238623918754
000040006530000000604800370000089730320070010910420800070200003009500140800016059,782341596531967428694852371456189732328675914917423865175294683269538147843716259
104008700730000040069000300500100073080270006000534020301020095000060004920050810,154398762738612549269745381592186473483279156617534928341827695875961234926453817
004605980000000407000080310908300004510009026007020000705901008609030700100840050,374615982851293467296784315928356174513479826467128593745961238689532741132847659
570390000000005092030084000080002007940178500100000406400950001050003040200406708,572391864814765392639284175385642917946178523127539486468957231751823649293416758
200070001600302500093500004500004027010030809089206040900600000304000702007480050,245978631671342598893561274536894127412735869789216345958627413364159782127483956
607200004030000820010005000250006000401038007003100006005810030120400900080672400,697281354534967821812345769258796143461538297973124586745819632126453978389672415
001098450800060200065100007250009003010307600000040810004005130009280000570400000,321798456847563291965124387256819743418357629793642815684975132139286574572431968
080005000010002064006070502000940007072060931053200040009000003640380700035001800,284635179517892364396174582168943257472568931953217648829756413641389725735421896
000700003400008160005200490506103800780050040010900750000000912190026008300500000,961745283472398165835261497546173829789652341213984756654837912197426538328519674
006501004900060050013807090062009031300004700807000602040250817025070900000016000,286591374974362158513847296462789531351624789897135642649253817125478963738916425
080000570975020000301006000020008130004060790006573002050901600009200418008040003,682319574975824361341756289527498136834162795196573842453981627769235418218647953
000003590009002000300015806067000005400800010120097304000070103042060000810059602,281643597659782431374915826967134285435826719128597364596278143742361958813459672
051020600700400000098036400040208560003500002800061709002904080300000105600800070,451729638736485921298136457147298563963547812825361749572914386384672195619853274
810000300007006040050120670000500490700380210002079005060000000529400700400005083,816947352237856149954123678683512497795384216142679835368791524529438761471265983
007900000000080150390204087004560730058000000206000400020430001070600594100098200,587916342462387159391254687914562738758143926236879415629435871873621594145798263
000900800005736290004012050030400507000067039610000080049020010200590300860100000,326945871185736294794812653932481567458267139617359482549623718271598346863174925
010040029025067004304009010009002003060700100708005006053400000000320870806090400,617843529925167384384259617149682753562734198738915246253478961491326875876591432
720030080016050009050407020000000905080962043004100000200010008600043057370000016,729631584416258739853497621162384975587962143934175862245716398691843257378529416
308020170067080040020009005000040030680300051409052060540060720000810300090004006,358426179967581243124739685715648932682397451439152867541963728276815394893274516
004005009013840600260001580001030050040002060800960073076090800920000001400057200,784625319513849627269371584691738452347512968852964173176293845925486731438157296
094080070002060904800700500000002706960004003015003008008537600040900237000000010,694285371752361984831749562483192756967854123215673498128537649546918237379426815
000740250000000008600801340057004036006089002328005090002007010104032607000090000,839746251241953768675821349957214836416389572328675194582467913194532687763198425
010008002057900030300065407090000003400709800860400010230051900100804520006000000,914378652657942138382165497791586243423719865865423719238651974179834526546297381
006420500500000423080059007002003009700045080903070140300061000470800060010700200,136427598597186423284359617842613759761945382953278146329561874475832961618794235
400000600087002010030007952600030040500090300021700890005300026719800004000045700,452913678987652413136487952698531247574298361321764895845379126719826534263145789
700000962064120307005000080290000000040038001016705400002051006100003005003840709,731584962864129357925367184298416573547238691316795428472951836189673245653842719
083000000060090027001065008408200036000074009600001050100007084020040970900503000,783412695564398127291765348418259736352674819679831452136927584825146973947583261
000100503203098004041020090060410078000002000009050310100630700000080940580070602,978146523253798164641523897365419278817362459429857316192634785736285941584971632
050006400702000000061502079040000208009170003600048100086000012000903005570601080,358796421792814536461532879147369258829175643635248197986457312214983765573621984
009870000832100006014025039300008000000530021021900000060400570108006003905000604,659873142832149756714625839397218465486537921521964387263491578148756293975382614
002009456000010039060304100004002007300900002005070890017800300540007200086100000,132789456458216739769354128894532617371968542625471893917825364543697281286143975
403050009057094080000300002200068900910003005084000071600005047000002000598700060,423856719157294386869317452275168934916473825384529671632985147741632598598741263
602050731000017800090020004000038029000106087045000000037400918500080006900300040,682954731453617892791823654176538429329146587845792163237465918514289376968371245
000057301030000790900280000008064000021390040605020900004100083800640170070500062,486957321532416798917283654398764215721395846645821937264179583853642179179538462
070031040050809010006000302008100004530002800240000973009400600004265007010097008,872631549453829716196754382968173254537942861241586973729418635384265197615397428
902000000070159400006870003000200500030018049097300201009036080080004070053700602,912463857378159426546872913164297538235618749897345261729536184681924375453781692
306001009000200560001084000700002006008317004093000120504003700000408310009700048,326571489847239561951684273715942836268317954493856127584163792672498315139725648
060000009400702100301806054207340060010000503006508700048905000000060080000100397,562413879489752136371896254257341968814679523936528741748935612193267485625184397
300067025016000408905040003000004001092700060800319007007050132020030006000800500,348167925216593478975248613753624891192785364864319257487956132529431786631872549
000000461060000085082005090610090004037800000009023870053600100800310900400702000,975238461364971285182465793618597324237846519549123876753689142826314957491752638
070201086408090500160008000040000100006300002020706904700080053003000298005960000,579241386438697521162538749347829165956314872821756934794182653613475298285963417
006275000030060980012030600084027000000000360900100807320014009507083010000000400,896275143735461982412839675684327591271598364953146827328614759547983216169752438
030000050000140008008007236200010604600892000053700000970000060426580310000200905,739628451562143798148957236297315684614892573853764129975431862426589317381276945
002000007406075080780020039030589600005630200000001000008004013910000700070092054,352918467496375182781426539237589641145637298869241375528764913914853726673192854
800706401000090007600003000308005010000000089065107302000231904002000050073409600,859726431231594867647813295328945716714362589965187342586231974492678153173459628
062709304000005980050042000307000060800093710095601003401020000003500408000008026,162789354734165982958342671317854269846293715295671843481926537623517498579438126
000000093209107500054200010800000002001965300300020641102030876080400000970006000,718654293239187564654293718867341952421965387395728641142539876586472139973816425
054900086600800700700021000040070000328090500507400639200005100000010347000708002,154937286692854713783621495946573821328196574517482639279345168865219347431768952
005760009109030060460502010001080500500209608023604700080100002900003040704000800,235761489179438265468592317691387524547219638823654791386145972952873146714926853
000000695308400072020017000502780400070905031000046000406500083700103050000890000,147238695368459172925617348532781469674925831891346527416572983789163254253894716
000060000039048500000901408201600000005007040680203907906085701400000020800309600,748562193139748562562931478271694385395817246684253917926485731453176829817329654
009005040501020893083006002000072500607009100340680000800107900702400006100050080,279835641561724893483916752918372564627549138345681279834167925752498316196253487
902403000050008000000070890304200670000009083170056400030012500406000910507000036,982463751751928364643175892394281675265749183178356429839612547426537918517894236
000207605586000010000000349072006000900024500300901007040050078090400020021098003,439217685586349712217865349172536894968724531354981267643152978895473126721698453
000900010908003040065004000510000074000002008030067502600039000307500260040780001,473925816928613745165874923512398674796452138834167592651239487387541269249786351
000010004000648910090370620400002000803901060009006357007000000006800035021590080,638219574752648913194375628465732891873951462219486357587163249946827135321594786
200450010009802050040000906500108070020005430307000005600040701018900003003700690,236459817179862354845317926564138279921675438387294165692543781718926543453781692
408070600053690100600100402030200900709450018025000000000005090001380004080000076,418572639253694187697138452834217965769453218125869743346725891971386524582941376
053810006470005003000042090100206000060000908508090104201000000680509700090030480,953817246472965813816342597149286375367154928528793164231478659684529731795631482
100000650400573090080060000603705204000206700002310008250000100907800503008902000,139428657426573891785169342693785214841296735572314968254637189967841523318952476
700029400080400600000801030400080020801000006307610050043970280010002905002000060,736529418185437692294861537469785123851293746327614859543976281618342975972158364
038000006109006052600430008000500004403010070200007001060751900370090020500382000,738125496149876352625439718917563284453218679286947531862751943371694825594382167
000309050029080000400017600600005017000900023094020008708000000053602000041003706,876349152129586374435217689682435917517968423394721568768194235953672841241853796
307000600061090450452000007030548100908007000000310020000005004604830000009260018,397452681861793452452186937236548179918627543745319826183975264624831795579264318
645000800000002009012630700007503000006079400123860000000105097300040020850000601,645791832738452169912638754497513286586279413123864975264185397371946528859327641
700016080000209005260304090009050100682000300150000406000493800306800004000107002,794516283813279645265384791439652178682741359157938426521493867376825914948167532
605090001020400000003200058000907020408600700370005940100700002006080190750003600,645398271827451369913276458561947823498632715372815946184769532236584197759123684
002104890058600730700005400010060940000907010026800000005036200049010060080020070,362174895458692731791385426517263948834957612926841357175436289249718563683529174
506007080140000020002095013010900506395020041074081000800670009000800200060000430,536217984149368725782495613218943576395726841674581392823674159451839267967152438
000080603408237010001900000650720000000840009000003750203000090500401020709060081,925184673468237915371956842654729138137845269892613754213578496586491327749362581
800507200003000000607892050002310560004070098360900100086000047900024030005000601,849537216523461789617892453792318564154276398368945172286153947971624835435789621
003874051010600000500910460400067025007050038300000900092500076000000800601083002,963874251214635789578912463489367125127459638356128947892541376735296814641783592
020601037000092041060000800406908020003000790700040100500010408100326009009580000,824651937357892641961437852416978325283165794795243186532719468148326579679584213
005300602400000008006051070003908000120407000700006039300082907900140580604700300,815374692437269158296851473563928714129437865748516239351682947972143586684795321
000209803003050000050460972600030405012080000900701000320000040008004691040570308,764219853293857164851463972687932415412685739935741286326198547578324691149576328
408027010060003007300001840805090600600100402007800059200700005530000000016034200,458627913961483527372951846845392671693175482127846359284769135539218764716534298
080100020702900050001070000850040670300600200004530100600805090970360500040020008,486153927732986451591472836859241673317698245264537189623815794978364512145729368
000078050002003064930600021694005000800040073010000000301020907050480000067090580,146278359572913864938654721694735218825149673713862495381526947259487136467391582
205063000094070000073000501980007004401600059000400302006130940000000803000205017,215963478894571236673824591982357164431682759567419382726138945159746823348295617
200000700000960053890003026300001687068074005050000102000026001910300000047050000,236845719471962853895713426324591687168274395759638142583426971912387564647159238
746030001205160400000000097030205040801040000020908700900006800107500062000380500,746839251295167483318452697639275148871643925524918736953726814187594362462381579
700300001060459020350080040000060000023001790400700038001900264009010003870004050,794326581168459327352187946987563412623841795415792638531978264249615873876234159
009600820000005400060720030026049005075860000108003206003050900050301002700480100,539614827287935461461728539326149785975862314148573296613257948854391672792486153
000015940200300000008009050800000010004200503003761084070400190600070000900183706,736815942259347861418629357827534619164298573593761284372456198681972435945183726
091703400608014300500800600089050000006020005020380090007000014000100706034009082,291763458678514329543892671789451263316927845425386197867235914952148736134679582
050007280010059460720068010264830700030001050000790000003020605070000004100006930,456317289318259467729468513264835791937641852581792346893124675675983124142576938
003602010100305900009400007000003620400960700950080000070850460240000000000104305,783692514124375986569418237817543629432961758956287143371859462245736891698124375
005001003900600020278000040500140780090800105020073060300007000042056000600000419,465721893913684527278395641536149782794862135821573964389417256142956378657238419
