009054030840260500002078001007000004000390100068012000100006207093001640050049008,679154832841263579532978461317685924425397186968412753184536297793821645256749318
200013700036500090010640020060050870001002560400708039070900040908400600005071000,294813756836527491517649328369154872781392564452768139173986245928435617645271983
204700080090004710060839005900020040003068090580007002010680200840000631000005009,254716983398254716167839425976321548423568197581497362719683254845972631632145879
390070020000890706000016040470000002002037015850000409500002600008000031149005000,396574128214893756785216943471958362962437815853621479537182694628749531149365287
700329800054060002009000700000000509005916040020047083060103000100200006470098025,716329854854761932239485761647832519385916247921547683562173498198254376473698125
006000000000203410207045800700028003603700940095400021500010000001507060409080070,146879532958263417237145896714928653623751948895436721572614389381597264469382175
400630000100000953050200740004000005020018030603700480000963000700084210589070000,497635821162847953358291746874326195925418637613759482241963578736584219589172364
090100403041508070000009860000431000702000006050070009805700010204003500060804037,698127453341568972527349861986431725712985346453276189835792614274613598169854237
304085000780000000000203670400006095020000100000190706010050040605400031800302009,364785912782961453159243678471826395926537184538194726213659847695478231847312569
002700063053600170160090008870001300301050020009074006000000001004039200090062500,482715963953648172167293458876921345341856729529374816235487691614539287798162534
080400200096005100005300087310008490009000753000060010200000000050870009007541620,183497265796285134425316987312758496869124753574963812248639571651872349937541628
018900300040800050093104020200570089900010430050000206406300097000006500030008040,718925364642837951593164728264573189987612435351489276426351897879246513135798642
006805000080210053023009610008000041010600900490000720000700532039008000004100070,146835297987216453523479618678952341312647985495381726861794532739528164254163879
000020087053900006400300000100004000309060710007801609000043205700200108006170940,691425387853917426472386591165794832389562714247831659918643275734259168526178943
061089070007000842032405000010800000700900380048056021005320000000000005920040016,461289573597163842832475169219834657756912384348756921675321498184697235923548716
103045000200600005000008730405700063096501000300020080068900004700000920040360001,173245698289673415654198732425789163896531247317426589568912374731854926942367851
800040000052300601100700003209000050007208000040075260704090580030064010015800090,873641925452389671196752843289436157567218439341975268724193586938564712615827394
001260075800001490000509020006950300403010000012800067060400000100790042070030908,391264875825371496647589123786952314453617289912843567569428731138795642274136958
400050270006003000903010504000500028040600710080207039600089100751004080092060000,418956273526473891973812564367591428249638715185247639634789152751324986892165347
400019000000030800500408062041082053020701000978000006000603000062040005739000010,486219537297536841513478962641982753325761489978354126154693278862147395739825614
306070000400068937090054000020403005001080060740006280800105009030800600502000140,386971524415268937297354816628413795951782463743596281864125379139847652572639148
050010000930006750082000090000084002070103604004500010609057800027840900500200030,756918243931426758482735196193684572275193684864572319649357821327841965518269437
000000068560970030038014000020043007904005320007006801605000009002800750170020004,749352168561978432238614975826143597914785326357296841685437219492861753173529684
000002709008400600610800030027009008009300105050080200900050006430001050085603017,543162789798435621612897534327519468869324175154786293971258346436971852285643917
500907800006024900290008430700030096050201048000879000003006057040000010102500600,534917862816324975297658431728435196359261748461879523983146257645782319172593684
700300060500070910090108503310029800408650007050000206200000700804930001060400020,781395462543276918692148573316729845428653197957814236239561784874932651165487329
045107900006040030280009075072000000904006307000200890000780601100635000500004280,345127968796548132281369475872493516914856327653271894439782651128635749567914283
035010900100740630200800700600009845050270093003000060091008000000400020304067000,735612984189745632246893751672139845458276193913584267591328476867451329324967518
300020900480050030260008400007905083000400615012600000004800001050009376700031040,375124968489756132261398457647915283893472615512683794934867521158249376726531849
080006020006000500003107094004030250509600870000701003020470009010300080000902060,481596327796243518253187694174839256539624871862751943625478139917365482348912765
875000090300058072600400030240060708007100000030090024008305000001002900400000156,875236491314958672692471835249563718587124369136897524968315247751642983423789156
500026007019500063027081904004000000000673002130054006400030001256000009000200800,543926187819547263627381954764192538985673412132854796498735621256418379371269845
060040019004090206001305070009007450802010000100006380400500720005039600003000090,368742519574198236921365874639827451852413967147956382496581723715239648283674195
210805004069000003800070290000200010097003800105004076000031048506000000340060025,213895764769142583854376291638257419497613852125984376972531648586429137341768925
200791400080052300109000000000000047806500903000834010000405000051003206092080070,235791468784652391169348752513269847846517923927834615678425139451973286392186574
702300006800600209004085013000049370085000000400500060001900000067023008930070402,712394586853617249694285713126849375385761924479532861241958637567423198938176452
020500006300080100008061740705600200010304009600700038007900052090000001504003800,421537986376489125958261743735698214812354679649712538187946352293875461564123897
003820060410070350500004007080000100030000009179500084007038005006002710000046028,793825461418679352562314897285497136634281579179563284927138645846952713351746928
690800051030009028204010000860400700002060005001732006753090800000000093000140060,697824351135679428284315679869451732372968145541732986753296814416587293928143567
300408090807009021040610005020800000700004600015062900006001078009503000084200310,351428796867359421942617835623895147798134652415762983236941578179583264584276319
050402793000006001480900200601709050000200049030015070007150030308000000069007800,156482793792536481483971265621749358875263149934815672247158936318694527569327814
600029000000050081590478030004500398067300004000000206280004059740016020003000000,638129745472653981591478632124567398867392514359841276286734159745916823913285467
800000401007080060002519000400190005000070009056032700109700234300600507025000080,893267451517384962642519873478196325231875649956432718169758234384621597725943186
000003857070829004400000010520900603980601020003540900306000508000170000240050006,692413857175829364438765219521987643984631725763542981316294578859176432247358196
820700000005040720301000900100090500540807060069203008000020000000601247086900035,824739651695148723371562984138496572542817369769253418417325896953681247286974135
000000810071640003356020090200003000007400952008010060705200000000050201940860730,429375816871649523356128497264593178137486952598712364715234689683957241942861735
240098060800007090007030100008900003010002700620050040000805904003104008005070216,241598367836217495597436182758941623314682759629753841172865934963124578485379216
670000100801200054050097803000085400508402010039670000002046000700010608000000509,673854192891263754254197863127985436568432917439671285982546371745319628316728549
021007960003058700000000403600501000450090038009040000105780040380904006700000021,821437965943658712576129483638571294457296138219843657165782349382914576794365821
010420009080600300605007180708162005040800002091005030000970000002000493053000608,317428569489651327625397184738162945546839712291745836864973251172586493953214678
080407600030020570400000002050000730020308010006000050870104000510096800904700300,285417693631829574497563182158642739729358416346971258872134965513296847964785321
700500092609800004150062007530409010002700043000086000800007235040030070001000000,783514692629873154154962387538429716962751843417386529896147235245638971371295468
900000005007009800038102007400000600001070092052038400810304000093050260005090010,964783125127549836538162947479215683381476592652938471816324759793851264245697318
005600702000030510807009000000386001042000063000102900008090020020500497706400300,935614782264837519817259634579386241142975863683142975458793126321568497796421358
008060940005800000100470605020009030670500800001730004006310000840900100000040527,738265941465891372192473685524189736673524819981736254256317498847952163319648527
000270090700001600006500043047000008100930000380704050500893004620050800003060170,438276591759341682216589743947625318165938427382714956571893264624157839893462175
960007083000003401050180060002000190080000007070238000094020570005040002030860004,961457283728693451453182769342576198586914327179238645894321576615749832237865914
900700241004650070807000000000061980200900504500040063390008100000205409001000007,965783241124659378837124695743561982286937514519842763392478156678215439451396827
903870006604009510700000000040590780030004050250000000000702041500041638000060200,913875426684239517725416893146593782837624159259187364368752941572941638491368275
806004720000900051092807300043100200700026100050780060030000070400300608100050090,816534729374962851592817346643195287789426135251783964938641572425379618167258493
210075900893200005000600080600040200029000001050309078000068000700000340405130009,216875934893214765547693182678541293329786451154329678932468517781952346465137829
290501400000070130050460700605000002002600970300014068084000001006100093500090000,297531486468972135153468729645789312812653974379214568984327651726145893531896247
080400020507800046000093001273000050060000490000178000000304005026750003800012970,381467529597821346642593781273946158168235497954178632719384265426759813835612974
000109000300050098004380201610520040047000003002470160205600900073200005090010700,728149356361752498954386271619523847847961523532478169285637914173294685496815732
000308090901000030002600840060004070315020460800950001000000000520080007604215080,456378192981542736732691845269134578315827469847956321198763254523489617674215983
100500260389000007005070000040030021500702036700006908000003090008250010610840005,174598263389621547265374189846935721591782436723416958457163892938257614612849375
000200806030000079740650000501003090600070254400008700097040065052000083000100000,915237846236814579748659312571423698683971254429568731897342165152796483364185927
006000128000690300503004000640001297907502000830000400078029060000803019100057000,496735128721698345583214976645381297917542683832976451378129564254863719169457832
940030178000002005300070060400928000870006400005010300080000540030200006091560020,942635178167842935358179264413928657879356412625417389286793541534281796791564823
400008002081630405795100080010000270600750003000009600003024100960000804002070000,436598712281637495795142386519463278628751943374289651853924167967315824142876539
197024000008006095000003000400017000820000300701250006004801602006790001503040780,197524863348176295652983174469317528825469317731258946974831652286795431513642789
090085307000012508060300004180720900006050000400006000742060010509800002000090075,291485367374612598865379124183724956926158743457936281742563819519847632638291475
017904680050706009300000001900000078046008500000402030002000000008150007100603090,217934685854716329369285741923561478746398512581472936692847153438159267175623894
802100003000600580007048002000001730908004006013290004504030091090086070000500020,862175943149623587357948162425861739978354216613297854584732691291486375736519428
097004201158070306040050000000035070506009008000280009000300790400608105019040000,397864251158972346642153987981435672526719438734286519865321794473698125219547863
000003000057060900009004128280050064506010002093007800048092635310700000002000000,124983576857261943639574128281359764576418392493627851748192635315746289962835417
000690300045830106001000080379100065002400010080000207000052073050704000890000002,728691354945837126631245789379128465562473918184569237416952873253784691897316542
020195400310070200500300078098007020605000034002008900003049050000600000706051080,827195463314876295569324178198437526675912834432568917283749651951683742746251389
000309700006480003150600090020090507080007100009000600310020408007004000092018005,248359716976481253153672894621893547584267139739145682315926478867534921492718365
098010007170000350600420000003100086000630010900702405006050920480900000050008074,298513647174896352635427891523149786847635219961782435716354928482971563359268174
040080000001003009279040006038207000905010000417800050500420080062590013000036900,346982571851673249279145836638257194925314768417869352593421687762598413184736925
080000070703004105200309860300000006009060780001825403064051000107400200950000000,486512379793684125215379864328947516549163782671825493864251937137496258952738641
000900026090710045012005000607301094940600300031000080520087003800096000000450200,758934126396712845412865739687321594945678312231549687524187963873296451169453278
000400081001900670708005902000360407009108005062004000904007000803006010050090203,296473581531982674748615932185369427479128365362754198914237856823546719657891243
070030006500490301008002040051000800009700600000021074030540092090000700106800030,974138256562497381318652947751364829249785613683921574837546192495213768126879435
000000080200005749007296500050061070800027903603040000040000850020004006700839210,591473682236185749487296531952361478814527963673948125349612857128754396765839214
620083004507000019004070000436501097000090020009807500900000140075000230100602008,621983754587264319394175682436521897758396421219847563962738145875419236143652978
006007020080150703405030090040061570900208000103090000004800300500020600620070048,316987425289154763475632891842361579957248136163795284794816352538429617621573948
450906038001050602670000409800240000340709000200800706000000025000314900090008010,452976138981453672673182459867241593345769281219835746134697825528314967796528314
000001403009027600800540710900100002100063000703000095240008000050600080008004571,576891423419327658832546719984175362125963847763482195241758936357619284698234571
070010040031000920000304706200180300100073805600050000049501007005900200800600409,976812543431765928528394716257186394194273865683459172349521687765948231812637459
037120000690003200500600008900051072070060305000070410000807500108900640023000009,837125964694783251512694738946351872271468395385279416469817523158932647723546189
009007008000695000760080014000000040407060380300051207004910000600800025071003460,239147658148695732765382914912738546457269381386451297524916873693874125871523469
300080026709050400000906000470103500012090070600200840800520100025041300000807009,351784926769352418284916735478163592512498673693275841837529164925641387146837259
170286005008103600032040090004000080010600720000520103500010008900400300063007004,179286435458193672632745891324971586815634729796528143547319268981462357263857914
980037040600104700010800235000480560306000004000072019830000000024050000700209180,982537641653124798417896235291483567376915824548672319839761452124358976765249183
928400500001006784000053000005960003007000820030704001006028040010000067042030090,928471536351296784674853912185962473467315829239784651796128345813549267542637198
060001709000408052004720000200670030045002008130005400093500006008003100501009070,862351749317498652954726813289674531745132968136985427493517286678243195521869374
090080100206070905070605004600900812800026003400010070000003746080000030503100090,395482167246371985178695324657934812819726453432518679921853746784269531563147298
000170000063090200050004680040050020107009004530800007000000090820060510070302840,298176435463598271751234689649753128187629354532841967316485792824967513975312846
