806070029100300847040509061073290006901000702000000030305020080290154000000006000,836471529159362847742589361573298416981643752624715938365927184298154673417836295
109003840008010006070000302500200080904160070302800405743080020050047090006000000,129653847438712956675498312567234189984165273312879465743986521251347698896521734
070080500380601900020700014010000000034005609908024000000092760006000025700830400,471289536385641972629753814517968243234175689968324157143592768896417325752836491
096400000800260943003005700050081090000000300300070281000004056102000007074600820,796438512815267943423195768257381694681942375349576281938724156162859437574613829
001800900000200847400009050154000000390007260007583000003170000070904036200050094,761845923539261847482739651154692378398417265627583419943176582875924136216358794
600000579807031020042600100104008060000042000050103907030090080006000452700085000,613824579897531624542679138174958263369742815258163947435296781986317452721485396
000001000106980700082000904003090150240007003009805062607000030000060548050023009,974251386136984725582376914863492157245617893719835462697548231321769548458123679
070000030003178400090620080000004678050289004300000005685900001120000090400510002,871495236263178459594623187912354678756289314348761925685932741127846593439517862
520064700078100200030080609000040070805900100960520004100702008000005310093400002,529364781678159243431287659312846975845973126967521834156732498284695317793418562
050300041890020000107006000003080650009100300760000204020700080001050907405208030,652379841894521763137846592213487659549162378768935214926713485381654927475298136
800000100102600574070900063045001007000460950000208006009100000730005040206000318,863574192192683574574912863645391287328467951917258436489136725731825649256749318
820000000003260000960035170130400600000001503708000009405002900070980206600010048,827149365513267894964835172139458627246791583758326419485672931371984256692513748
070560000860000000100370240420630500300200010006087009042000038000009075750140900,273564891864912753195378246429631587387295614516487329942756138631829475758143962
070208090010050300006900400040000010023046075001570000400090020500601008092834700,374268591819457362256913487745382619923146875681579234468795123537621948192834756
010509040790010800080302006003708209000060014905200600208000403400053008600000070,316589742792416835584372196163748259827965314945231687258197463471653928639824571
010090000270048910504000206040300750000017003800500120301002090050006070069081000,618295347273648915594173286146329758925817463837564129381752694452936871769481532
700490100002501003604000007020700980430000002000002016090080605007003041805060030,753496128982571463614328597126735984438619752579842316391284675267953841845167239
023708000004103825009060000000200307040085160612004009080541900070000016900000050,123758694764193825859462731598216347347985162612374589286541973475839216931627458
008032540340100000070040008600480093030005820010600000100000600500060479020879000,968732541345198267271546938652487193734915826819623754197354682583261479426879315
090837205043100000070000016000045700100900000005003829009370400006002500320069008,691837245243156987578294316982645731137928654465713829859371462716482593324569178
060759000500004008000268100900070201040300060106080405070020004403000000215007980,861759342527134698394268157958476231742315869136982475679823514483591726215647983
090400800512000340000000601040560028700020000030708109003084070450031200609205000,396417852512896347874352691941563728768129534235748169123684975457931286689275413
079060000020015030000200605010840060300172908008003400960001500050900742400080000,579368214624715839183294675215849367346172958798653421967421583851936742432587196
001245600300000100047060208006308017004050030080020009730000000009780054025006000,891245673362879145547163298256398417974651832183427569738514926619782354425936781
600030009050000840102700356890600704701080030000100200547810060060005000008340002,674538129359261847182794356895623714721489635436157298547812963263975481918346572
609012040503000007000403080008020000020690150070308600000209070701064003002000509,689712345543986217217453986968125734324697158175348692856239471791564823432871569
000062941400053000761080000802900306003500000090000820940007250010034080036000007,385762941429153768761489532852941376673528194194376825948617253517234689236895417
108700000020610040067902830004000968039000100000850070001000280400076350095204006,148735692923618547567942831754321968839467125216859473671593284482176359395284716
730400560401090000000800109328600000105000003007050200000270900600310070500960410,739421568481596327256837149328649751145782693967153284814275936692314875573968412
800470120926010080000000509067590004140700805000040603001003702453000000000860000,835479126926315487714682539367598214142736895598241673681953742453127968279864351
800200795000050004601000230040007052090140306300900080200086500000390010760000003,834261795927853164651479238148637952592148376376925481213786549485392617769514823
082504600003060002069370410400005069005001300071090840010000700000608200034100050,782514693143869572569372418428735169695481327371296845216953784957648231834127956
910600702003080004240500030850090010400800609020300070000210307176004800000005040,915643782763182594248579136857496213431827659629351478594218367176934825382765941
510020406300700020008490050040950800021600590007000034096073200000001780000500300,519328476364715928278496153643957812821634597957182634196873245435261789782549361
060400000017605090000009003980000200001008034205001709050043007030050010804027006,369482175417635892528719643983574261671298534245361789156843927732956418894127356
007803560000004039000215004350120008069050700080360040008000420100780000690001300,417893562825674139936215874354127698269458713781369245578936421143782956692541387
905046028800000071063020000270080900000610500046003000130007006002005080400008139,915746328824359671763821495271584963389612547546973812138497256692135784457268139
015070800600000700004290030209008604008003050060149300800000570071000006302800400,915374862623581749784296135239758614148623957567149328896412573471935286352867491
020100000560048079008030040010020080070905324000067050209073010001400005007090006,724159863563248179198736542915324687876915324342867951259673418631482795487591236
400007009006084230013062500072090006004000800050600001065078010907010450000030608,428357169596184237713962584172895346634721895859643721365478912987216453241539678
005070340009250071680030090072800000000040850030100006491007002008500400000620089,125976348349258671687431295572863914916742853834195726491387562268519437753624189
806009100005820000320705004910600070000008430700002501060300020500091800090004007,876439152145826793329715684914653278652178439783942561461387925537291846298564317
701609008008700293300000100056140700000000021040098060083924000000075000902310000,721639548468751293395482176256143789839567421147298365583924617614875932972316854
920040000008700160604083020809106300730029000000000540000005700006030010001807035,927641853358792164614583927849156372735429681162378549483215796576934218291867435
209030008000000605603104009408000327015700904000009000007402080000056700540003006,279635418184297635653184279498561327315728964726349851967412583831956742542873196
001608200704002030090017508100000009065030800208500304406000970000200000050403610,531648297784952136692317548143826759965734821278591364426185973317269485859473612
308600000040050098020000740006700102950008603731000400010395200200807005009001000,398674521647152398125983746486739152952418673731526489814395267263847915579261834
000064200019000067080130000790206031120005480000000000030008050600079820002341079,375964218419852367286137945794286531123795486568413792937628154641579823852341679
085047203600010900000000058030009085100028400400560000000050020370900046042730001,985647213623815974714293658236479185157328469498561732869154327371982546542736891
000970020400060300030104080026000450001308009780005000970586001604009003800000005,168973524495862317237154986326791458541328769789645132973586241654219873812437695
400570000619030000050009410520017806000800007300020540040050082700600030060180009,432571968619438275857269413524317896196845327378926541941753682785692134263184759
760050000850730920000000100094002085308400760000100009030060002006019004507208003,762951438851734926943826157194672385328495761675183249439567812286319574517248693
006204010000500080208017509002000900430070000809000635091003008700608100500002046,956284317317569482248317569162835974435976821879421635691743258724658193583192746
618004000790300260500000009009420650050700080080910074003070000020160497000800013,618294735794351268532687149379428651451736982286915374143579826825163497967842513
000900040800076320005001807204090010003800009006003200000720450090304600701508000,327985146819476325465231897284697513153842769976153284638729451592314678741568932
100090720703208000002000943060004000500607084001035200900000407000059000428010560,154396728793248651682571943267184395539627184841935276915862437376459812428713569
001000000040009208805300074002000000090807051003046090479200063050001800100764029,921478635347659218865312974712593486694827351583146792479285163256931847138764529
084300609075000240920500080036090015009008000010070034400086070007201560200000001,184327659675819243923564187736492815549138726812675934451986372397241568268753491
048005030106009240027300908700920083080010000050000097000000612004078000003150000,948265731136789245527341968761924583389517426452836197875493612214678359693152874
940003500056080002200706100001420000060000000700060839430002005500009763009100048,947213586156984372283756194391428657865397421724561839438672915512849763679135248
000790060007008140090030008016470230502800400000500010005012604073005020600900003,158794362367258149294136758816479235532861497749523816985312674473685921621947583
201083000500907204300650090100800003000574900009000760002100680005000002406209107,291483576568917234374652891157896423623574918849321765732145689915768342486239157
100400705580090200030208016900801000004006500020905034800710000069000470070030000,192463785586197243437258916953841627714326598628975134845719362369582471271634859
104007920006400005083000601001930870070500000062008400900602080407009003020010500,154367928296481735783295641541936872879524316362178459935642187417859263628713594
900000105000740000406935000000060230085000900700020004070800061320007400090300870,937286145852741693416935728149568237285473916763129584574892361328617459691354872
000005802702860003003400091005010000409600020070059160040100705800903000200070048,164395872792861453583427691625714389419638527378259164946182735857943216231576948
050000006041902730397000400700086200914000000800003105060845320000279040000300000,258734916641952738397618452735186294914527863826493175169845327583279641472361589
640010890100300002070002000980006300050078209407001005200089407000650000009047061,642715893198364752573892146981526374356478219427931685265189437714653928839247561
300506800540090030700804009003200005000081000000009617600020091079100052401000360,392516874548792136716834529163247985957681243284359617635428791879163452421975368
002800300907050004310002085700120060009005800000604503000001940800073002060580100,452817396987356214316942785735128469649735821128694573573261948891473652264589137
006709000570000004019026003008100040040608209035070010020900001000810070100004530,386749125572381694419526783268195347741638259935472816823957461654813972197264538
008432090000680170040000300013800950982010460000007000200160000407009280000700035,178432596329685174546971328713846952982513467654297813235168749467359281891724635
000300006105600200390070050620004591053002800008000004840790630700020080000106009,274358916185649273396271458627834591453912867918567324841795632769423185532186749
480001730060907008023600000300072090004390000910800500000200367500410200006080040,489521736165937428723648951358172694674395812912864573841259367537416289296783145
900301057073052040000008000000060830405900100609020500024800090006030001890470006,968341257173652948542798613217564839435987162689123574324816795756239481891475326
280000050400570039090008701050000600000043080006120307520080010000009064019300200,287931456461572839395468721153897642972643185846125397524786913738219564619354278
000096020084700500009040381700610030005480012060309008301570004000000000400120079,513896427284731596679245381748612935935487612162359748391578264827964153456123879
000401026601300009080902500213009050400105070097028000700206800040000001056000003,975481326621357489384962517213749658468135972597628134739216845842593761156874293
000600900059080400830009005002103506560024107000050008040070602290001730001300000,427635981159287463836419275782193546563824197914756328345978612298561734671342859
390080400040005000002010037080260051000000006900741000630000820500900070470802309,395687412147325698862419537784263951213598746956741283639174825528936174471852369
500902104000084000006007080010200508005000900300018070080000609100060302029045007,578932164231684795946157283714296538865473921392518476483721659157869342629345817
050600000000091046007820009035000600040300028080074501000009410300718005206030090,159647382823591746467823159935182674741356928682974531578269413394718265216435897
000218050710000008024006003083000029002307604000490800500009070031050900009031006,396218457715943268824576193483165729952387614167492835548629371631754982279831546
004003080609054701120000005500009020006720008037800049040060102900070000801000063,754193286689254731123687495518439627496725318237816549345968172962371854871542963
600000100097008000050640080023050700840002501000409300039070000500180049160500203,684925137297318456351647982923851764846732591715469328439276815572183649168594273
109600840048001602000007030004080570620000009305000010500170003090025000070496000,139652847748931652256847931914283576627514389385769214562178493491325768873496125
600000001530006708027010050054309000006500809000680070080000200079003604003904000,648735921531296748927418356854379162716542839392681475485167293279853614163924587
800002014020030700605001008002004090709025041050680300018000607500047020003050000,837562914921438765645971238382714596769325841154689372418293657596847123273156489
900010030006009501370060002003007048520100090000820005017300006000570800290004300,952718634486239571371465982163957248528146793749823165817392456634571829295684317
020803406000000015407000000590001060060400302080700940008005009009320007173609020,925813476836947215417562893594231768761498352382756941248175639659324187173689524
000403709917000400800000050624005007000329500300060081006197020281000000050000063,562483719917652438843971652624815397178329546395764281436197825281536974759248163
002070409003528001160040000000000800740086090200100304600009753070060080015000900,582671439493528671167943528936254817741386295258197364624819753379465182815732946
069230007070100043800090050180020704000063500000007039040900610920000008507008002,469235187275186943831794256183529764794863521652417839348972615926351478517648392
400000560875900210602000008008064900300209047001730000504600700060510090000073002,413827569875946213692351478728164935356289147941735826534692781267518394189473652
073040800010938000500000040200501608000007120050360090091004070030020006006800519,973245861614938257582716943247591638369487125158362794891654372735129486426873519
009500000532094080810060004070902310100040200006007050000030020280100060395800007,649581732532794681817263594478952316153648279926317458761439825284175963395826147
005802600701030200000000095510009004080400739007680002000378000400090100630510080,395842671761935248824167395513729864286451739947683512159378426478296153632514987
210070408005040120000003600000005890720430010000012043402000960530600007900080000,216579438375846129894123675143765892729438516658912743482357961531694287967281354
000610097700900608050004003073040010084300200506200800030008509002090040010067000,328615497741932658659784123273846915184359276596271834437128569862593741915467382
106200008053107004270080106400000700000629000060500823700000500090040031030850000,146295378853167294279483156425318769387629415961574823714936582598742631632851947
