030047006806130740090008105050700320180060000004209000000000050265004900040090801,531947286826135749497628135659781324182463597374259618918376452265814973743592861
091040000040600803005208010000082540708030600014000020000790005350024079009301006,891543762247619853635278914963182547728435691514967328182796435356824179479351286
000005702007009080040360105103000240700690030080100000500940600300072509210030008,931485762657219384842367195193758246725694831486123957578941623364872519219536478
080607400406083501020009800208400900091056000004000073602000005000000300009728004,985617432476283591123549867238471956791356248564892173612934785847165329359728614
000806000000020007506109380308700014900003050200060790005001408017500009090040025,732856941189324567546179382368795214974213856251468793625931478417582639893647125
050002071094800003206003000870000040020970050003020690180007004400310025000005700,358692471794851263216743589879536142621974358543128697185267934467319825932485716
900030580070010002005090700820004300009500060406780901200070005083100000100002046,912637584378415692645298713821964357739521468456783921264879135583146279197352846
049012080320005001050060700467000000005000003200800904100230860008950007070040300,749312586326785491851469732467593128985124673213876954194237865638951247572648319
120040800005030070090006000040001209300690704001500000430002060006080540089007132,123745896865239471794816325648371259352698714971524683437152968216983547589467132
501600900009030400030007021600850000000100035870324000040080009906000287007002510,521648973769231458438597621613859742294176835875324196142785369956413287387962514
003000006650400702040089005300807500160002073082050000000014069000020410070390000,813275946659431782247689135394867521165942873782153694528714369936528417471396258
080000016060400920903102000090206400300000502100003870000900148508007003000304650,482759316761438925953162784895276431374891562126543879637925148548617293219384657
000604000070801000003050062005009300000716080200380794650000408892400001100000027,528634179976821543413957862785249316349716285261385794657192438892473651134568927
700090000020005090650837004100700008503001460074500013800260530010000009406000800,741692385328415796659837124162743958583921467974586213897264531215378649436159872
086910503005000097400030080003600052500124600000070800609000470210008005000367900,786912543325846197491735286143689752578124639962573814639251478217498365854367921
006800900080500023900037508070003400010000035204906007420060000007480090500100806,356821974781594623942637518875213469619748235234956187428369751167485392593172846
000050092070040000590210040006500270030920006100300000400806001600090305820070400,364758192271649538598213647946581273735924816182367954459836721617492385823175469
000206000029010007430050200681090030070400501000003089002307106060005800300080450,718236945529814367436759218681592734973468521245173689852347196164925873397681452
000092086007058340090700210003070000042080600650001003060040090074200100008305460,435192786217658349896734215183576924742983651659421873361847592574269138928315467
000700136700036008090400000500042000240000807100509300803000062604008501005107000,482795136751236948396481275537842619249613857168579324813954762674328591925167483
908750400000200370010460008090074003001006000036001785040800020203000501075090000,928753416564218379317469258892574163751386942436921785149835627283647591675192834
060005000009300070700010543002000381007090020050402600003051900090780054180046000,364875219519324876728619543942567381637198425851432697473251968296783154185946732
023900000507380400900700010000400209208010700306009005000020506070835040410600008,123946857567381492984752613751468239298513764346279185839124576672835941415697328
300500900000008074600210003048006200290100045530720010400000760005000001029300058,381547926952638174674219583148956237297183645536724819413895762865472391729361458
700090064009008070060510000003806000502700090400003208208000750010074309030100006,751392864329468175864517932193826547582741693476953218248639751615274389937185426
100005080070640301382000045027010003009830704000009052000470000053206000841900006,164325987975648321382197645627514893519832764438769152296471538753286419841953276
040020100500007020730000405800709641007008900010400003006095000200306097350800006,648523179591647328732981465823759641467138952915462783176295834284316597359874216
004580300510002400206070009007100034040069000000203016080000092762800000091004075,974586321518932467236471589627158934143769258859243716485317692762895143391624875
100030047000201803048600005003400760609580000070090002280950004014700300500060020,192835647765241893348679215853412769629587431471396582286953174914728356537164928
004080259500000031009270000005000000007014000012068590076001020000890007400320680,764183259528649731139275846645932178987514362312768594876451923253896417491327685
170650000250908607008004000003000048020307506000029300900401760400082910300000005,179653824254918637638274159793165248821347596546829371985431762467582913312796485
260009500708010003094050006402700000083060021000900830106084007000203060500070400,261349578758612943394857216412738659983465721675921834126584397847293165539176482
000002065801050900400000307070200081025090040100670090280007000630080150000306400,793142865861753924452968317976234581325891746148675293284517639637489152519326478
000605390130900800700048010056002030980504000307090400000001045610800200092000600,248615397135927864769348512456782139981534726327196458873261945614859273592473681
002100000590040810000008004700000900021003006460790502014502607608400000050307100,842135769597246813136978254785624931921853476463791582314582697678419325259367148
000006108205900000076124003500040006030018072009000800098630450052000607300070000,943756128215983764876124593587249316634518972129367845798632451452891637361475289
014920000600001070203050098901208006000005301000070400450760003080043000067000502,814927635695381274273654198941238756726495381538176429459762813182543967367819542
086000300413002000000000019200097504805003000070506201030021490007400065600008000,986175342413962758752384619261897534845213976379546281538621497127439865694758123
005010006608300170304009000702804360800050000000100002000602700403070085120003049,275418936698325174314769528752894361831256497946137852589642713463971285127583649
000001506780030000301000080090003874600457102000000000200065300140800900065090207,924781536786539421351246789592613874638457192417928653279165348143872965865394217
509001400006003790040000003000680001027900006300004950090016080405000160070850230,539761428816243795742598613954682371127935846368174952293416587485327169671859234
007000024200690000060004390095806002300905000080021030002000510050070000140308006,917583624234697851568214397795836142321945768486721935872469513653172489149358276
030810920890600710004000003005400086208007090000009470680105000007230600500740000,736814925892653714154972863975421386248367591361589472683195247417238659529746138
030170800000069031040002006000800090008543700062010005086001300490038250700290000,639175824827469531145382976574826193918543762362917485286751349491638257753294618
480050293000080160070300004306000001520400000000903045090160470250009000000730800,481657293935284167672391584346578921529416738718923645893165472257849316164732859
630090010080004000700025806400003080090480007023000605000600500009710004170500930,635897412982164753714325896467253189591486327823971645248639571359718264176542938
000508036105940000020700090094006300500000002200800750900100040010030270000675008,479528136165943827823761594794256381581397462236814759957182643618439275342675918
100000200030080460009205000407002503083006010500097006024500300706100904000708020,178634259235981467649275138467812593983456712512397846824569371756123984391748625
006059012002006400900300870040560030010004068700080205380720090405003080000140000,876459312132876459954312876248567931519234768763981245381725694425693187697148523
001060002200700809089400070504302007070510903160004500007000100000090205306150000,731869452245731869689425371594382617872516943163974528957243186418697235326158794
021060309400900107760050048003014000980000005000700023670083004508002700010500000,821467359435928167769351248253814976987236415146795823672183594598642731314579682
700000132003920004006000780080304057050000000040006203000870095500209601109605400,795468132813927564426153789682314957351792846947586213264871395538249671179635428
023000610008000059400006803560103497700500000090200006009324100000750002040001308,923875614618432759457916823562183497784569231391247586879324165136758942245691378
003127004082090005601000003590040006000350070020709000040000600709064021108500309,953127864482693715671485293597248136814356972326719458245931687739864521168572349
006001403540003800010070090680230500201800000000904000057009046003160057009000302,976581423542693871318472695684237519291856734735914268857329146423168957169745382
003602015604500000700010890050200030070049100290057008800100700000080300102034009,983672415614598273725413896458261937376849152291357648839125764547986321162734589
090250080608004001400000506200905010010007030070610904320490700006000000001708025,197256483658374291432189576264935817519847632873612954325491768786523149941768325
000100963506089400040023070960400030017002850800500007204006000308047190090000000,782154963536789412149623578965478231417362859823591647274916385358247196691835724
000067010000000405005240063030100002400000376097008500843020600001400200700095080,324567918679813425185249763536174892418952376297638541843721659951486237762395184
030500001006002590007490030400008720058100060900700005070006904200803106081000300,839567241146382597527491638413658729758129463962734815375216984294873156681945372
003006004405000903960002100009450028034020000010830706208700051000080690700904000,183596274425178963967342185679451328834627519512839746298763451341285697756914832
000061050504007001000302807007090304450016200600200010396000070010840090000000032,278461953534987621961352847127598364453716289689234715396125478712843596845679132
000800750000059031060201009207305900000010400904060013709003586105004000300007020,491836752872459631563271849217345968638912475954768213749123586125684397386597124
000820000340006075908700003500001009006094700001002350200450008003060900400107026,675823491342916875918745263524371689836594712791682354267459138153268947489137526
614009000305800090000056700009200000706035402130000080020708604000000031541020008,614379825375842196298156743459281367786935412132467589923718654867594231541623978
020570160460902070080030040004100003600020009100405080750000200000009030009018607,923574168461982375587631942894167523675823419132495786758346291216759834349218657
800300009090006014047082500010765300008400900502008060629030000001050070300214000,856341729293576814147982536914765382768423951532198467629837145481659273375214698
500004897900203000100080400000008075007490302060520008205100000084750031090030600,523614897948273516176985423412368975857491362369527148235146789684759231791832654
603500420500000079009034008475208000000010000002060987200043006010800000090701530,683579421541682379729134658475298163968317245132465987257943816314856792896721534
308602100002048007640300000806000024000900700900207853000703008403801006001050090,358672149192548637647319285876135924235984761914267853569723418423891576781456392
805039102300000407060020090576090003000005000004081720000008900002040086001057030,845739162329816457167524398576492813218375649934681725453268971792143586681957234
038901000206870504000000100004060008803700020521430009670009005005040030000080602,438951276216873594957624183794162358863795421521438769672319845185246937349587612
000003040850070010000205906200000760709800000130006004007600001003014207408920053,972163548856479312341285976284351769769842135135796824527638491693514287418927653
950062800040700003010080657209003074170000020000005009400000060068109730000820010,957362841846751293312984657289613574175498326634275189421537968568149732793826415
900000540500631200080040007247006300005300480600900020000000100010267005703080064,961728543574631298382549617247816359195372486638954721856493172419267835723185964
400050107001080600760000320500049010300600870298003000600900000040008502037510040,483256197921387654765491328576849213314625879298173465652934781149768532837512946
010790000863400700500060040005008007920000401100070365000200690708059013006304000,412795836863421759579863142635148927927536481184972365351287694748659213296314578
260708000801050060050100004700802509000307602402000130040000000003294008007003091,264738915871459263359126874736812549195347682482965137948571326613294758527683491
403081005070905401020700000000003980504000003000168007900470300061009200008000650,493681725876925431125734896617543982584297163239168547952476318361859274748312659
004030800000600094090170002003017005070405036120003400500090080610002007387000010,754239861231658794896174352463817925978425136125963478542791683619382547387546219
091068004056470000403050200009100008028000450070032006000519380000000600000720001,791268534256473819483951267369145728128697453574832196647519382912384675835726941
800450061400902500062080000090610070000308050201000040000075026004009700150000930,879453261413962587562781394395614872746328159281597643938175426624839715157246938
900523000004006015008017600096034002700000000005200806100600073032001940500090001,961523487274986315358417629896134752723865194415279836189642573632751948547398261
500640207000205038360100900091008006400702095000064120000070000108530040657000000,589643217714295638362187954291358476436712895875964123943871562128536749657429381
000000070031520490004060205792300500800004061000900000000000740080005036409701802,528149673631527498974863215792316584853274961146958327315682749287495136469731852
260309400059002080803460010004070005090000000387006004010004092005100073600050800,261389457459712386873465219124873965596241738387596124718634592945128673632957841
000800000702190054090032010000050000600908071400007836065020043034060907910000020,341875269782196354596432718178653492623948571459217836865729143234561987917384625
800000000014300005500794003079008350000000420600030010100507002086400000000010679,837651294914382765562794183279148356351976428648235917193567842786429531425813679
000200340950067008820100000170090000000600057580004019090318000030000200600502700,761289345953467128824153976176895432349621857582734619297318564435976281618542793
014008000600050800000073049009200150080306070020017068300900702502001000806000310,914628537637459821258173649769284153185396274423517968341965782572831496896742315
800000240300102000009064003246005008080009700901203005600000501030076084008390007,815937246364152879729864153246715398583649712971283465697428531132576984458391627
900800021020006050000037490800605100540089007200000300007040608400000032080193000,936854721724916853158237496873625149541389267269471385397542618415768932682193574
040035276006071000903040100600090820300460907480000503000000750092780030001006008,148935276256871349973642185617593824325468917489127563864319752592784631731256498
000059780085010039600704001020060000490005023018403000903207600070100500200000004,142359786785612439639784251327961845496875123518423967953247618874136592261598374
503100020070000090016800003200357000005940070090200600700003408100005700620008059,543169827872534196916872543261357984385946271497281635759623418138495762624718359
002016040800000906090057000000079005001000020076402800003004600450300210207090084,732916548815243976694857132328179465941685723576432891183724659459368217267591384
000800205300060704904020610560290000001500907070034008007000839042000000000678000,716843295325961784984725613568297341431586927279134568657412839842359176193678452
000700000002419067047082910054000200000160084000090030005030001830507000600840350,916753428382419567547682913154378296293165784768294135425936871831527649679841352
000004006970250000310006050150007680002310000008900240500000428020870005060000039,285194376976253814314786952159427683642318597738965241597631428423879165861542739
120000390030250600060007000006420085500060020400710900007130050390080070008906104,125648397739251648864397512916423785573869421482715963647132859391584276258976134
