050374060309080000071000082500000100608203040034709000003000004240500709910060030,852374961369182475471695382527846193698213547134759826783921654246538719915467238
003802000900700100028000300080900043015068020400070006059010000806050470200307900,173892654964735182528146397687921543315468729492573816759614238836259471241387965
028000001001000736640005900000030002000098450050627080403860005010700000005049170,328976541591482736647315928789534612236198457154627389473861295912753864865249173
504000000070304901003069080020705800380000020160200097800090506042008300000107040,594871632678324951213569784429715863387946125165283497831492576742658319956137248
064000100970006048500800309301050000600420050090037000408005701100002506000009400,864293175973516248512874369341958627687421953295637814428365791139742586756189432
280000091104026007030004000000907000800403629053010080009700050460001000710500203,286375491194826537537194862642987315871453629953612784329748156465231978718569243
940030156100465000000200080007609800000570040600080039083720500070014000010900003,942837156138465927765291384327649815891573642654182739483726591579314268216958473
040725000830090700000100500600000005582030090710060040070008032200001009009046010,146725983835694721927183564694812375582437196713569248471958632268371459359246817
093200000105900078700060020080040069060500300030000204000050001000076450402091700,693287145125934678748165923281743569964528317537619284376452891819376452452891736
000405070605079020008000300409261530003900060120080040012000080300006054000720900,291435876635879421748612395479261538853947162126583749912354687387196254564728913
030020050004003009126050400500001092700000006462098000000304001090007630001000587,937426158854173269126859473583641792719235846462798315675384921298517634341962587
800100390300000275095000004700040000903086000104907002020009760401068009000350800,847125396316894275295673184762541938953286417184937652528419763431768529679352841
510000730832070640000002001300198000060000090070630520004509010003207800690000054,519486732832971645746352981325198476468725193971634528284569317153247869697813254
009600700010004090760300028008050000200000670003190005005007003907200861080040200,539628714812574396764319528498756132251483679673192485125867943947235861386941257
020056740053100600870940000000000050100608200649002030007300160504710008000005090,921856743453127689876943512782431956135698274649572831297384165564719328318265497
000050100800670002792080003004020080960300040005007001406001050070002300308965024,643259178851673492792184563134526987967318245285497631426731859579842316318965724
045900002000050103310028074006400900507000008000013027200000086008062350090070000,745931862862754193319628574126487935537296418984513627251349786478162359693875241
000006040104700002073005010802000073060040581000907000005000090007510420090302008,928136745154798632673425819842651973769243581531987264215864397387519426496372158
020008400340001050001900602000020905050317000207000080006075003700403090580690047,625738419349261758871954632134826975958317264267549381496175823712483596583692147
006090010010002403400503000000024007503000020001008609200730008067801500089060704,836497215915682473472513986698124357543976821721358649254739168367841592189265734
901008000050200007860030210005100402280450091100706050040000679300040500070800030,921578346453261987867934215735189462286453791194726853548312679319647528672895134
100090050080407900200000106006023084570108020840609005450700203069800070000030000,134296857685417932297385146916523784573148629842679315458761293369852471721934568
400803000000060300708009056802041930000070060176008025000012009504000070600730508,461853792295167384738429156852641937943275861176398425387512649514986273629734518
002015870700600900031000002085027400009040035070900206054200090100089060300070008,962415873748632951531798642685327419219846735473951286854263197127589364396174528
681007040040000503007902006009158030400300089020000600208409000056070000300060107,681537942942681573537942816769158234415326789823794651278419365156273498394865127
108000000067000304000730900023400096000020000805109720009050080076001230000902500,138594672967218354452736918723485196691327845845169723219653487576841239384972561
080000607000010030207004105500080029019060480032009006070200000091050800000370054,183925647954617238267834195546183729719562483832749516475298361391456872628371954
850070230000600107120008054370001006042903000000560400001709040580000902000032060,856174239439625187127398654375241896642983715918567423261759348583416972794832561
700453000080090005060021490002005603000000000008974100090010080047200560301600020,729453816184796235563821497972185643415362978638974152296517384847239561351648729
039048605150700800700260003000000532008504090070091006010950040800003000097600001,239148675156739824784265913941876532368524197572391486613957248825413769497682351
008000050105320700092100030000050964001067800900400000300009008209070601600840005,438796152165324789792185436873251964541967823926438517354619278289573641617842395
623410900000000005004786000000052000159800400007900803402503706010060390000070008,623415987871329645594786231348652179159837462267941853482593716715268394936174528
300020700000100504406000803520060001000005300079400006134900007007008090908046002,385624719792183564416579823523867941641295378879431256134952687267318495958746132
108000702920003105000004300000000003061980000047015600009738006050046080200000007,138659742924873165675124398592467813361982574847315629419738256753246981286591437
020508046900207300060030107700000091001740800032000605000090080640005000150003209,327518946914267358865934127786352491591746832432189675273691584649825713158473269
004000200098000054600007189020304000000905043030680900507043800100050002000019760,314598276798162354652437189926374518871925643435681927567243891189756432243819765
070800000500004120801093650009780004286100000400030090900020000000000560020465039,672851943593674128841293657359786214286149375417532896965327481734918562128465739
009703080710650400080100200060000040234007108900200670000030005570002006100500890,649723581712658439385149267867315942234967158951284673496831725578492316123576894
002001040053007028080400600010600900700004800060790013500009006070802030020100094,692581347453967128187423659814635972739214865265798413541379286976842531328156794
100006003097100040004005906020000809001380004065709100300900005700508260086204000,158496723697123548234875916423651879971382654865749132312967485749538261586214397
073000006600049080950031000042070600090000032186005400000203017000060500710890200,473582196621749385958631724342978651597416832186325479864253917239167548715894263
601084003000006048040020950205700004410000060000039001080205609006000730057010000,691584273572396148843127956235761894419852367768439521384275619126948735957613482
000094010008320060005000709053070102100000900400802350800005000007200803020906040,736594218918327465245168739653479182182653974479812356894735621567241893321986547
605080000020701090800500760004000007007918045090005300200000004038004072001020650,675389421423761598819542763584236917367918245192475386256197834938654172741823659
006908370052600008000030024200006480001000063400713009900250030000041500870000000,146928375352674918789135624237596481591482763468713259914257836623841597875369142
570100080800090270004700010900400701630000000008006302240900800705804026003000905,579142683861395274324768519952483761637219458418576392246951837795834126183627945
065900701100058000000470026000102903009360045007000010701049002620005804080030000,465923781172658439398471526546182973819367245237594618751849362623715894984236157
020034050006102000903000070004700235600459008071800000180000000200510094300000860,728934156456172983913685472894761235632459718571823649189346527267518394345297861
063298001007000004020004800080000015530070046900030200079150080004902060000600530,463298751897315624125764893786429315532871946941536278679153482354982167218647539
700800200000004781040010096690078030500001000028945000200060510037500040000023970,713896254962354781845712396691278435574631829328945167289467513137589642456123978
040092058050001307700004620030009060604507000028000095005013004009640031000000200,346792158952861347781354629537189462694527813128436795865213974279648531413975286
005270000400080790000643018890300006012904003000857000701000600920000040043001205,185279364436185792279643518897312456512964873364857921751428639928536147643791285
000715390000000056370096402460000001200300800900407500102500080790002030040080900,624715398819234756375896412463958271257361849981427563132579684798642135546183927
000038950017900200000500046940082307600409080070060002401050000052600000800010073,264738951517946238389521746945182367623479185178365492431857629752693814896214573
350600100000058024009170000007003462200900000130700580700260800005080013046000007,352694178671358924489172356597813462268945731134726589713269845925487613846531297
017009030300506400900080210006200758830074000002600900061300000240005000080047609,617429835328516497954783216496231758835974162172658943761392584249865371583147629
090400108530060020800092060000500300024807006008039017702003800000020059010604070,296475138537168924841392765179546382324817596658239417762953841483721659915684273
007063000016009080039040500800300075060500009090780420000020104108670200052000000,587163942416259387239847516821394675764512839395786421673928154148675293952431768
080300040670180000200046190008005007000630004006918230105000080009560400000000023,981352746674189352253746198318425967592637814746918235135274689829563471467891523
200000009150809070000030608010024953390000000007080001940501300060008042000600700,286417539153869274479235618618724953394156827527983461942571386765398142831642795
008265070004000920075040001380507200490800010060400009009001306100003050700020008,918265473634178925275349681381597264492836517567412839829751346146983752753624198
002004009000039410070001500050013706060020090800050000300680050926000300010007042,132574869685239417479861523254913786763428195891756234347682951926145378518397642
600030010004006005180090700500042000047800300026509041090708060002000084001620507,659237418274186935183495726518342679947861352326579841495718263762953184831624597
300050901050009460070260008560008390047020000820910006004007010010300870000002053,386754921152839467479261538561478392947623185823915746634587219215396874798142653
201904075400600902050008000600100307002000000900070640700015080020060009038200410,261934875487651932359728164645189327872346591913572648796415283124863759538297416
009064050700108003215030000000890000106705009080000240350020017000001090000600580,839264751764158923215937468543892176126745839987316245358429617672581394491673582
680001200030025600000403050701900000040600098060357000050000010409080030012070406,685791243134825679297463851721948365543612798968357124856234917479186532312579486
360800700709130682001000500000069003910048070435020000602090310040000028000007050,364852791759134682821976534278569143916348275435721869682495317547613928193287456
007300824043000090500200000002009041080000602000607008729801060001004030036750100,167395824243178596598246713672589341985413672314627958729831465851964237436752189
008639001020000080009800034105902640073008059000400800200010000034000070790305000,548639721327541986619827534185972643473168259962453817256714398834296175791385462
084095010090100574000006020003709600410002095007000030609013040040950000300000008,784295316296138574135476829523749681418362795967581432659813247842957163371624958
600008005090000702520001469087020013000000200000149006000403501100756090803000040,674298135391564782528371469487625913916837254235149876769483521142756398853912647
050801047007050300102003600003600405900000002048290006570060010800049000039502080,356821947487956321192473658213687495965134872748295136574368219821749563639512784
005000493289400106000067000070504010010030059020180600000000084100605700300290000,765812493289453176431967825976524318814736259523189647652371984198645732347298561
450003760036700002092800040004050200020600510300098000900007004081000650000160039,458923761136745982792816345674351298829674513315298476963587124281439657547162839
206030091003000840010700006405009068020005030001040000190600027070401005004280000,246538791753916842819724356435179268927865134681342579198653427372491685564287913
000000900021850003503704060002000800900106000140000032380060007007091400006207095,874632951621859743593714268762543819938126574145978632389465127257391486416287395
020800107400030020070160980004205003700091006039006500065000200100509000200070400,926854137481937625573162984614285793752391846839746512365418279147529368298673451
004100078065020040030900500106207000080536027000080059970004006000600480043002000,294165378865723941731948562156297834489536127327481659978354216512679483643812795
006070843000910000258040700430100009000802000007460010703096000125000036800000504,916275843374918265258643791432157689691832457587469312743596128125784936869321574
005961032000508000000000940203050710400600000008070094851300000079010328020709600,745961832932548167186237945293854716417692583568173294851326479679415328324789651
040500030000010400926000000000007005003020976590060210050700064100092087308600000,841579632735216498926843751612937845483125976597468213259781364164392587378654129
400532000039070060508006004000090710200700008001004906806003492000000801310800050,467532189139478265528916374684295713293761548751384926876153492945627831312849657
902040007050900000100008600073006804680070013000000200001702000704609031800405009,962541387358967142147328695273196854685274913419853276591732468724689531836415729
001084009090300020008000164009426370600709018500000400003002600050900002087015000,761284539495361827328597164819426375634759218572138496943872651156943782287615943
003401958001000600420000010075800003904500000080200074809700000000105760600034025,763421958591378642428659317275846193934517286186293574859762431342185769617934825
000020310083051047042060805005240700006008530030096001000179004950000000000400028,579824316683951247142367895815243769496718532237596481328179654954682173761435928
090100080700032506508000710059070001062080040007061900000046030020009870400500100,296157483714832596538694712859473621162985347347261958981746235625319874473528169
700000025000130000948002007400075030000610700500900801800206000067050904009048500,713489625625137498948562317491875236382614759576923841854296173267351984139748562
500020670000009801020104930304800007000096008709043050010002060640000500238067000,591328674473659821826174935364815297152796348789243156915482763647931582238567419
120009500630270008070006300708005230060090001003107806240000000900430610000002705,124389567635274198879516324718645239562893471493127856246751983957438612381962745
050900070400007150206130400000023007008714960000800300600050280090000006531002040,153948672489267153276135498964523817328714965715896324647359281892471536531682749
902640830001000200800003005300015004070900000004200580780050062206470300000060019,952647831431598276867123945328715694675984123194236587789351462216479358543862719
010690000003407901670002005096083000700906302040020050560010408000000107002304000,415698273823457961679132845296583714751946382348721659567219438934865127182374596
012800040000023000080700069070006580600007901340090002005000008094305100020014750,512869347967423815483751269279136584658247931341598672135672498794385126826914753
500902300308000050967000014030700000200030190075006480000105726010008005004029000,541962378328417659967853214439781562286534197175296483893145726612378945754629831
060120070405000800000500903028000041039006780750000020006030000040850130010967400,863129574495673812271584963628795341139246785754318629586431297947852136312967458
070094800090005600000100002901000006005080100240900503700060000008243700630800054,172694835893725641456138972981357426365482197247916583724569318518243769639871254
109004503045070020006203900030019080000600107804000600200705040070006058908030001,129864573345971826786253914637519482592648137814327695261785349473196258958432761
000000658481600090750000030100070405008010060300059200003091027000064900900203000,239147658481635792756928134192376485578412369364859271643591827825764913917283546
