605300100920084007000000020000006805300090000470502610009400003280179004760000080,645327198921684357837915426192746835356891742478532619519468273283179564764253981
200001009000080600508024730802000056000070043013900070140000000009105800007302015,264731589731589624598624731872413956956278143413956278145867392329145867687392415
150800400000397008700000029010079300006020500802003740008004013500200000040931060,159862437624397158783145629415679382376428591892513746968754213531286974247931865
003400900006000075070620001890270400000913006002005000040001732067080019305090080,123457968486139275579628341891276453754913826632845197948561732267384519315792684
120070800005003009809010064380600020000439500000000046560080000200041087040300102,126974835475863219839215764384657921612439578957128346561782493293541687748396152
000050008006703250004001007980006040140009030507080000005128000730900012000600009,379452168816793254254861397983216745142579836567384921695128473738945612421637589
006790001030600000009100405495003070070020049003000006901304020020080504850007600,546798231132645987789132465495863172678521349213479856961354728327986514854217693
590000000807300009006092400000060150070001002620709840000537010014000000903006028,592674381847315269136892475489263157375481692621759843268537914714928536953146728
000008053050260090020304061201740005300100800407000000040095072000600004879000010,614978253753261498928354761281749635395126847467583129146895372532617984879432516
010600309000530274740800000690100000000070090852000001300450102006009840180306050,215647389968531274743892516697183425431275698852964731379458162526719843184326957
000004603004070008261503000006090030500108904030726080000301070800000125907050000,798214653354679218261583497186495732572138964439726581625341879843967125917852346
900135000203900710000002000050093000070650800402800060090580036308000401001040907,987135642243968715615472398856293174179654823432817569794581236368729451521346987
000106050010470038936020100020000000609004500580607420000008040004900807850300009,748136952215479638936825174421583796679214583583697421192768345364952817857341269
050000000091026738608901005006107040000000000012450069504210800073000200809004000,257843916491526738638971425386197542945362187712458369564219873173685294829734651
000650001250007000007030009806000005000980030401065902703204106600310490000000800,348659271259147368167832549896423715572981634431765982783294156625318497914576823
920703060010004200000601803300208001746300900000060050005146000007092500801000009,928753164613984275574621893359278641746315982182469357295146738437892516861537429
050080903700001065040300802029530000807600309004008700308004591100000040060700000,251486973783921465946375812629537184817642359534198726378264591192853647465719238
600004000007031400080600923201000789809500046000000002402309057560047108000006030,635924871927831465184675923251463789879512346346798512412389657563247198798156234
009048007200610490007050002090030060460002030008760001305080000000005843010009050,659248317283617495147953682792831564461592738538764921325486179976125843814379256
078000000009010080640073100806300204000056030400000009027085400301200950060009700,178962345239514687645873192856391274792456831413728569927685413381247956564139728
800003500007920143009701020000010080052080090700046300004600005380000062210075004,821463579567928143439751628643519287152387496798246351974632815385194762216875934
010006000700910056025740000004000208030670004960008305800300001107090020040250090,419586732783912456625743189574139268238675914961428375892367541157894623346251897
970000001020034706008000500004065908109470000050208030600007080000500012340900607,973652841521834796468719523234165978189473265756298134615327489897546312342981657
000701094091000200020308056007000003500002840400960015039850060005006007800400030,658721394391645278724398156917584623563172849482963715239857461145236987876419532
750080000002531900001006023806040309400200001097000800510703600300000075008009004,753982416642531987981476523826147359435298761197365842514723698369814275278659134
800310072000900003060807500150004306708003940000020080034071600602005001070000090,895316472417952863263847519159784326728163945346529187934271658682495731571638294
075006030009807200000000004006104500000720100004009873050680400030050028610400009,875246931349817265261395784786134592593728146124569873952683417437951628618472359
280790001600102007000080034078005102000040090009003570090050308000600000546020000,283794651654132987917586234378965142165247893429813576792451368831679425546328719
300106879000200000400000060010802034008003607090050200050060000070590410801407500,325146879167289345489735162516872934248913657793654281954361728672598413831427596
200000705000005003009410082008500030002860017900030060530280900801907006600001400,213698745486725193759413682168574239342869517975132864534286971821947356697351428
807034000005010729026000000070400006000029300900006180500007200360901840084000501,897234615435618729126795438271483956658129374943576182519847263362951847784362591
500300024026081000379000000700090003801507000050610802100062057040009368000004090,518376924426981735379245186762498513831527649954613872193862457247159368685734291
000201056008400000270030009053040900090100800007090035100007060700308100006500302,349281756568479213271635489853746921692153847417892635134927568725368194986514372
507000000200086001130540000620000090004030100000259030010000940708002500005710608,587921364249386751136547289623174895954638172871259436312865947768492513495713628
000400703103605020092080400006907034080500000009023061008000375000756000010200049,865492713143675928792381456256917834381564297479823561628149375934756182517238649
006030009800207001100000800201760405060004000900085000027903640010000090003658700,746831259859247361132596874281769435365124987974385126527913648618472593493658712
050910302008000000409620051001004709800070600007300005102040000360009020070005068,756918342218453976439627851521864739893572614647391285182746593365189427974235168
100000000506120300900080057003096400040208000000040625010400570020003016708510230,174935862586127349932684157253796481641258793897341625319462578425873916768519234
308600000400001572010097000050000400003004196009230807200170049900800030000560201,378625914496381572512497368657918423823754196149236857285173649961842735734569281
017320609006070003420005080280090700004000000070100506530600900008019300091008270,817324659956871423423965187285496731164753892379182546532647918748219365691538274
060089042700300098000005100007020000059401060042060089000850000085700624304002010,563189742721346598498275136637928451859431267142567389216854973985713624374692815
000001800100009027502060039000014750750000006064900380600807400319050000008030200,937521864186349527542768139893614752751283946264975381625897413319452678478136295
100000069078001540004009300600005097029640080050072000007020000580030001310508600,135284769978361542264759318643815297729643185851972436497126853586437921312598674
007590400340000020080402605056300000000028709200000001030107206000054070109036080,627593418345861927981472635756319842413628759298745361534187296862954173179236584
020034070805190006010008902030000805000840010000007020003006790190200500607005003,926534178875192436314768952739621845562849317481357629253486791198273564647915283
500107900001040050000302860824090000010060087006000003200005006009200540670008300,562187934381649752497352861824793615913564287756821493248935176139276548675418329
059000008807000006100037000030420970900016200000050013060140050008670000012903400,359261748827594136146837592631428975975316284284759613763142859498675321512983467
502003900480070100010000620009160530367080000120004070030005280000900004000826005,572613948486279153913458627849167532367582491125394876631745289258931764794826315
000000760000215400340800209680400000070003190004092506810040602007020010905007003,258934761796215438341876259689451327572683194134792586813549672467328915925167843
003600504840007090000008160020100670000950010490200300260800001079302800030041000,713629584846517293952438167325184679687953412491276358264895731179362845538741926
418000050950060203602007000080350407090100600003070102000000800000701004046038509,418923756957864213632517948281356497794182635563479182379645821825791364146238579
000006007009003054600950080504060003072300190100080070906514000030000201080700500,358426917219873654647951382594167823872345196163289475926514738735698241481732569
000009032094310000001075046039154028070000000000027650000000074056042390010800000,765489132294316587381275946639154728572638419148927653923561874856742391417893265
406032105170000000030500600000020400000315090980007053647108020500000800300940070,496732185175684932832591647753829416264315798981467253647158329519273864328946571
028037600100000007036952000000600004004879060900503100380000420040006719000010008,428137695195468237736952841853621974214879563967543182381795426542386719679214358
004500070050007108602013490200006000800754060010090007400008002030061950900030006,184529673359647128672813495247186539893754261516392847465978312738261954921435786
000502300004080700530960012003010970000428001608300005900000020800000596006240007,189572364264183759537964812423615978795428631618397245971856423842731596356249187
000304025602700900030020680006000098340005000900040750570002040180090360000083001,897364125612758934435129687756231498348975216921846753573612849184597362269483571
980710004000000082700004500309020406500106000021070009410800070007900600800300025,982715364154639782763284591379528416548196237621473859415862973237951648896347125
360020080001904520950700006000006894078405000100030000026310740007200300800000059,364521987781964523952783416235176894678495132149832675526319748497258361813647259
000090600080700200030005074100600090206407010540012003001800507024001080009374000,417293658985746231632185974173658492296437815548912763361829547724561389859374126
400700060600380150015020304809103005026000000001050790053240009000690001900000408,438715962692384157715926384879163245526479813341852796153248679284697531967531428
080406900200097080000850017005003074640020309730010000500301700002600040904000806,187436925256197483493852617825963174641728359739514268568341792372689541914275836
020546009471030000659007008007090010003002706000800034000000060506010900080709023,328546179471938652659127348247693815813452796965871234792385461536214987184769523
007024609080601000000053070009500840750010002034002091090060005862090710000008030,317824659985671423246953178129536847758419362634782591493167285862395714571248936
103089000400002016070000300006500704214700005085030090000204800901000572060050100,123689457458372916679145328396521784214798635785436291537214869941863572862957143
805026490009401005030700000900800752010064009002005000061030020090000013000107084,875326491629481375134759268946813752517264839382975146461538927798642513253197684
920008010004000006000200090580100002200090573037400009006307000100620007000040805,923568714814739256765214398589173642241896573637452189456387921198625437372941865
400200503051094000700000690010726000000405100002039008000003020067800040308600701,489267513651394287723518694814726935936485172572139468145973826267851349398642751
700108090360000000058300400240009751000470209100006300600900034089200106070005080,724158693361794825958362417246839751835471269197526348612987534589243176473615982
800050200032708000005901000104030080250000601003090507090506020000813094007040006,861354279932768415745921368174635982259487631683192547498576123526813794317249856
478006050020000719091023800015407360060009000000300504800504000206000001007000980,478196253623845719591723846915487362364259178782361594839514627256978431147632985
910400356750021084060003000038070000000109240000060001607908500000750000490000002,912487356753621984864593127138274695576139248249865731627948513381752469495316872
900000063006401000500037040000300800060059200017020095800700100074060302050008409,941582763736491528582637941295376814468159237317824695829743156174965382653218479
070025006500003702040601300000090431708000000900162000890400207000500060105030890,371825946586943712249671385652798431718354629934162578893416257427589163165237894
100607005804010000020903680000030090097008100500706030003804206600520900041000700,139687425864215379725943681486132597397458162512796834953874216678521943241369758
000050070050793601041008090000004020238600000006105703000047800100900402980300500,369451278852793641741268395517834926238679154496125783623547819175986432984312567
000478000046309005300060020860000000905000740000501903031040500280003106570200080,152478639746329815398165427863794251915632748427581963631847592284953176579216384
036000402058007090000300070041603700200054800600700050800075013025010900900000068,736591482458267391192348675541683729279154836683729154864975213325816947917432568
060017090240030510009020000800040750050980020006001003380000005012075940400002070,563417892248639517179528634831246759754983126926751483387194265612375948495862371
019000005020510804700000390000700500830001702040002036580034000000080960302067000,419378625623519874758426391261743589835691742947852136586934217174285963392167458
046020590950300001103000080000000349072096000010500600200064050800100027001078000,746821593958347261123659784685712349372496815419583672237964158864135927591278436
200065009500100760098400030800057900360800200150000048000206104010090005720004000,271365489534189762698472531842657913369841257157923648985236174416798325723514896
000054200106790853000030001009570400001000078302000960503600100007028004900000080,738154296146792853295836741869573412451269378372481965583647129617928534924315687
100200059003000400089500600607000803000001275800039000090065700400310020760904008,146278359573196482289543617617452893934681275825739164392865741458317926761924538
020847003910030006030600508501006700400590000060021900080350200006000049007002010,625847193918235476734619528591486732472593681863721954189354267256178349347962815
070062009800403010046010030027000340000630200109080076200790000058000100003800054,371562489892473615546918732627159348485637291139284576214795863958346127763821954
015204809000703060600000025000000906870010050439000000090075401163000080004300000,315264879982753164647198325521837946876419253439526718298675431163942587754381692
309008040100460005500102006950000300003680270007091060080050000090023410004700000,369578142172469835548132796956247381413685279827391564781954623695823417234716958
049070038000182005100000670600200309705400210002609000013805004000003900570040000,249576138367182495158394672681257349795438216432619587913825764824763951576941823
563700200000000057018004360000009045000320000870010603305600780240001000006500090,563798214924163857718254369632879145451326978879415623395642781247981536186537492
050000174092000056400003200005720810079800400100690002800050000063080000007210903,358962174792148356416573298635724819279831465184695732821359647963487521547216983
000009580390020000027140060400805900800012407601700030000003694986007000003000005,164379582398526741527148369472835916839612457651794238715283694986457123243961875
009603050040700089506010200820000905030000860000041027010037000008009030007020140,279683451143752689586914273824376915731295864965841327612437598458169732397528146
510003007600057090040000200080001300305080900200064058000400079876030040029000160,512943687638257491947618235784591326365782914291364758153426879876139542429875163
000100032050762809400050000800000000029340005063295001904006300006037024008009700,697184532351762849482953167845671293129348675763295481974526318516837924238419756
000603402001005000006280010600000703038009040094072086800000350020007109013450000,589613472241795638376284915652148793738569241194372586867921354425837169913456827
000961000605020370082000040067290400100005037093008050040076290309080500000000001,734961825615824379982357146567293418128645937493718652841576293379182564256439781
400009002061204508000300000620080007508040000974000061050000230109630000007890004,485169372361274598792358146623981457518746923974523861856417239149632785237895614
905042800040608001081005400060000570000867010020900003702300900090016300350070004,975142836243698751681735492169423578534867219827951643712384965498516327356279184
