000700150761009003430200008009000405007012000850906702090008501016003097200000030,982734156761859243435261978129387465647512389853946712394678521516423897278195634
007090620010000805000821070008207300040030100900105004400780030009006000602300547,837594621214673895596821473168247359745938162923165784451782936379456218682319547
002501470403908000080060000057000980060007002341000005000102090019070240000803506,692531478473928651185764329257316984968457132341289765536142897819675243724893516
030460580086090021004107900100070060062000740800300005050008010003205009070009200,931462587786593421524187936195874362362951748847326195259738614613245879478619253
305180009207030600001402000050096070680040205003000010900003040020600790000025008,365187429247539681891462357152396874689741235473258916916873542528614793734925168
070830005000092807409006100900300006061400580804000200200000000310008709000267004,172834965653192847489756132925381476761429583834675291247913658316548729598267314
020087400600420005800016070300790010007000906040002350500608701080000030496300020,123587469679423185854916273365794812217835946948162357532648791781259634496371528
000407030040030108603021750508210000169080070000500600700940800912000400005063020,851497236247635198693821754578216349169384572324579681736942815912758463485163927
100035000026009000708120003861007042005340910000200080090000001000706000403080507,149635278326879154758124693861597342275348916934261785697453821582716439413982567
080570000001038095007006003206083004400000010759020000004000608960050002000010037,382579461641238795597146823216983574438765219759421386174392658963857142825614937
410300720056084000009160000000000500300007010000023409062090003090600045007001908,418359726256784391739162854924816537385947612671523489862495173193678245547231968
700906820024080060900320070003007100509000000072810590008004050300600000600250913,735946821124785369986321475863597142519462738472813596298134657351679284647258913
091402005050008070720600300004900087015060900200830500000090730000200000083540600,391472865456318279728659314634925187815764923279831546542196738967283451183547692
300100000090050821020000703100064070900300400003980065005407906000520040870010000,387192654496753821521846793158264379962375418743981265215437986639528147874619532
105830027007090801040012003003050269701000500600400000000500370090200400002308006,165834927237695841948712653483157269721986534659423718814569372396271485572348196
600400050921600070000203908000070000004000201002901030703000014549080300006030580,638497152921658473457213968195372846374865291862941735783529614549186327216734589
240600000003059408000070000480000000009400207560321000738060100001003829000005600,245638791173259468896174532482597316319486257567321984738962145651743829924815673
600048900920010070107200530305001860004070319000600007086300000000407002490006000,653748921928513476147269538375921864264875319819634257786392145531487692492156783
007600000800010047200090010685007003000003409003280006160409050098000200070820300,417658932859312647236794815685947123721563489943281576162439758398175264574826391
070000041012600850000074300000890500001203060084000090720010003048050609906007010,673528941412639857859174326267891534591243768384765192725916483148352679936487215
800000001137008650002047300009071000380090072000600430901030260040750900650000800,894563721137928654562147398429371586386495172715682439971834265248756913653219847
780009030301850240090000000500020601904080050020730000603500007000200105000046980,782419536361857249495362718538924671974681352126735894613598427849273165257146983
002900406506007093000000080609140000400030060087050300750026008000470200304005001,872913456546287193193564782639148527415732869287659314751326948968471235324895671
190076034000000809000025007204000380700010000800050046003087100980041260060203000,192876534675134829348925617254769381736418952819352746423687195987541263561293478
001000072000100906708940500300710804000030620605204001400005030126008040530070000,951863472243157986768942513392716854814539627675284391487625139126398745539471268
506001020000300000070080450003100800080500790000029013200050007100408069790002530,546791328812345976379286451923167845681534792457829613264953187135478269798612534
000070069974001000280000500010035204008100000005064090040000053039402806701003000,153278469974651328286349517617935284498127635325864791842796153539412876761583942
105700090000900086000040700309087002806400910004106005900000253402000000087031060,125768394743912586698345721319587642856423917274196835961874253432659178587231469
010029003000007054490800070001000006800300490630592001000070008007150630500046200,715429863328617954496835172951784326872361495634592781169273548247158639583946217
002004000008052490900107020305008006060090030079061040500800001030500700004026050,652934178718652493943187625325478916461295837879361542597843261236519784184726359
090050043000106005030900100003067010050008006407501032500073200040000098080200700,198752643274136985635984127823467519951328476467591832519873264742615398386249751
000970860096080014008003005030400102812000090950700380705600200000000049140530000,521974863396285714478163925637498152812356497954721386785649231263817549149532678
009070000006009320580010070001600200700051430000082059600403008092060000437500010,249375861176849325583216974951634287728951436364782159615423798892167543437598612
089000030000403028060097105620508004950002607703010000100056080205081009000200000,489125736517463928362897145621578394958342617743619852174956283235781469896234571
650000020000306800104000070700058609003100002020900014097004001310005400082690050,658479123279316845134582976741258639963147582825963714597834261316725498482691357
008020007090500031470008000047096080060300790003010065006003204010700956250000000,138629547692574831475138629547296183861345792923817465786953214314782956259461378
089040301000058000602701900806000000007090020054600130000070050013502640290003800,589246371371958462642731985826315794137894526954627138468179253713582649295463817
563080090407090100009200004000301700008006005210050609300700800640500002002009301,563184297427695183189273564956341728738926415214857639395712846641538972872469351
040306098000000105761009200000020006280054903930000010007800009020470000318002500,542316798893247165761589234174923856286154973935768412457831629629475381318692547
010860000803400201700009000970003600030170520000045008000098042004500300201000960,519862473863457291742319856975283614438176529126945738357698142694521387281734965
083100020090000805001940760120500070067003040405061200010470690978300000000020030,683157924794632815251948763129584376867293541435761289312475698978316452546829137
900004007028500000000006512700650804050000300081730960040200098132090000000070040,915324687628517439374986512793651824256849371481732965547263198132498756869175243
500690200280000601000007000970280054004000000000300026005834900010500068042001370,531698247287453691496127583973286154624715839158349726765834912319572468842961375
100050230209600807830090450470208100090000070510000608040006503006004020000781900,164857239259643817837192456473268195698415372512379648741926583986534721325781964
006070040019050803540600000208000450000000700670915008400080030052701009901206000,826173945719452863543698217298367451135824796674915328467589132352741689981236574
030002000908100006605407209009020300700604182840730000001000420004005068300009007,437962851928153746615487239169528374753694182842731695591876423274315968386249517
700403020004090080680100300200010050009300608050047010408260900510700042030000007,791483526324596781685172394267918453149325678853647219478261935516739842932854167
090608103062000005000279048970000000081000402003100800024037006650940007700020510,497658123862314795315279648976482351581793462243165879124537986658941237739826514
009210850620900071100003040070030420040080010005620008090006000780000003200450090,439217856628945371157863942876531429342789615915624738591376284784192563263458197
600000102007082000093170000001908430500010600000453020002600087470000500018035040,685394172147582369293176854721968435534217698869453721352641987476829513918735246
000600170090301200506004800058900000140003702003100065000200403924005600700090000,382659174497381256516724839658972341149563782273148965865217493924835617731496528
100900503080670000004000180005040060209005817600129300037000905000032040006508000,162984573583671492794253186315847269249365817678129354837416925951732648426598731
000041007007529840040000090100300000562004000090005678309002010010070005004068920,925841367637529841841637592178396254562784139493215678389452716216973485754168923
507108200000006300106400080009204058080010000610305749050639010820500070000000030,537198264248756391196423587379264158485917623612385749754639812823541976961872435
405002300030057006000109040060540280702000000003000691800070910000200400200815060,415682379938457126627139845169543287782961534543728691856374912371296458294815763
009008754600200010034000000400310090005007630060020800020170405070049026500060000,219638754657294318834751269482316597195487632763925841926173485378549126541862973
000120006306000400524080010008000370700510904090600002003040601050270800801003007,987124536316759428524386719168492375732518964495637182273845691659271843841963257
000860700090100560054000802003000240802907156170004000007300900506009038200081000,321865794798142563654793812963518247842937156175624389487356921516279438239481675
800790003005004600179620080000080420460001800003002750234007000500900002007000145,846795213325814697179623584751389426462571839983462751234157968518946372697238145
007504003200190500908000040001306070500000430704920006300718000402000017006002809,617584293243197568958263741821346975569871432734925186395718624482659317176432859
803020079100600400049001208000005706302009000080040030900210805700086002010403000,863524179127698453549371268491835726372169584685742931936217845754986312218453697
030070080010000540506080009008012060400000002100064300080206005290008130003940700,932475681817629543546183279378512964465397812129864357781236495294758136653941728
002010089708304020065009000000040305370800006251007008810003402000060190000500067,432716589798354621165289734689142375374895216251637948816973452527468193943521867
005007000490350100020080035100908046040000708007610290000560020073040900016000800,365127489498356172721489635132978546649235718857614293984561327573842961216793854
090060020500800607001243000054000030260030890000507001700600018832100900000050004,498765123523819647671243589154986732267431895389527461745692318832174956916358274
007210980980070500003000006020090010010326098004750003500160040068000007470800020,657213984981674532243589176326498715715326498894751263532167849168942357479835621
090074006070538002030962018800000100401700000007209500600050073080400200003600045,298174356176538492534962718859346127421785639367219584642851973785493261913627845
030000000000052006600000190008040507200600009004317080390001740040073200015800060,531796824489152376627438195168249537273685419954317682392561748846973251715824963
490020100007900050105068030030000700710000093209080410560000000800610270000432008,496523187387941652125768934638194725714256893259387416562879341843615279971432568
080390002070401080001205300300000607020050400004076009012000806806040590049010000,485397162273461985961285374398124657627953418154876239712539846836742591549618723
800630400160000059002000800007009000630570081004820300000001534750400900000002076,895637412163248759472195863287319645639574281514826397926781534751463928348952176
530000000640080720079201005008009070300010208000007160200063800096400052000100940,532796481641385729879241635418629573367514298925837164254963817196478352783152946
050020306000019000017830940068070000020004001900300462000705080340900200005000190,859427316634519728217836945468172539523694871971358462192745683346981257785263194
020891005090000004301007800789006102062180300000004000045000070030675021000030090,624891735897563214351247869789356142462189357513724986245918673938675421176432598
200053007070260950063700410048000560759000804100000000010097000400008000982510030,291453687874261953563789412348972561759136824126845379615397248437628195982514736
004072631093001070000058000000000040709000026600419300802004000001060800036500209,584972631293641578167358492318726945749835126625419387852194763971263854436587219
000809005200471809806000040650020700140090000003100024020000001008003670907510003,471869235235471869896235147659324718142798356783156924324687591518943672967512483
091420006640050097230006100820090000100805009004700003000100500000080064500203800,791428356648351297235976148823694715176835429954712683487169532312587964569243871
100000340207310600900070800310000000859060012006005000080002459002046103070500008,168259347247318695935674821314927586859463712726185934681732459592846173473591268
010500700700000298806030400004002601000073000980051007090214500047000820035900000,419528736753146298826739415374892651561473982982651347698214573147365829235987164
004800590900000102020106000006000019040020030579040080008205670350000000100970804,614832597983754162725196348236587419841629735579341286498215673357468921162973854
300074000260000713009000008805160040013090250006000009148200070002007634000059000,381674592264985713579321468895162347413798256726543189148236975952817634637459821
041009070500000006806000120000050098000040703273060001482300500060200309700810040,341629875527481936896537124614753298958142763273968451482396517165274389739815642
060018020070050034200490050500000700003006095709020800014003200300800046057009001,465318927978652134231497658586934712123786495749125863814563279392871546657249381
800040070100503400000020581630008720000005004908000305094001032006090000370602008,859146273127583496463729581635418729712935864948267315594871632286394157371652948
246013070510000026000007500351040000060700080700902013630100950000008230409000008,246513879517489326893267541351846792962731485784952613638124957175698234429375168
906008040030000200004157000029400030078095000600701020500960000803000074090003501,956328147731649258284157693129486735378295416645731829517964382863512974492873561
900005030051070400420010900600200003718004090005000680080069240092300100000080070,976425831851973426423816957649258713718634592235791684387169245592347168164582379
400700000690010300500089027731002900000401000009005806068000001105008640020030070,482753169697214385513689427731862954856491732249375816368547291175928643924136578
020700060060010050004280107001069782300007006000824030003000820015490000798000405,129745368867913254534286197451369782382157946976824531643571829215498673798632415
000008796301009002000070005020067010500002004789500000002190347050000620100406800,245318796371659482698274135423967518516832974789541263862195347954783621137426859
010045690000007408300000001040002060061300802708000000002600500009010370830050019,217845693695137428384926751943582167561379842728461935172693584459218376836754219
002000508600074200041803000050940861900060400000100070098700105000000036030215900,372691548689574213541823697253947861917368452864152379498736125125489736736215984
100280050074501600502300709030004900007003045009060102061000080000009364800070200,196287453374591628582346719238154976617923845459768132961432587725819364843675291
600730050090800030100906020274000006300640080080501007700005400409200860035009100,628734951597812634143956728274398516351647289986521347762185493419273865835469172
080002040010570060500340970600209000400003009008010300000006090030900415740180002,387692541914578263562341978673259184451863729298714356125436897836927415749185632
850200000130007290007000083010900750020046001400800009700300060506001078300009405,859263147134587296267194583618932754925746831473815629741358962596421378382679415
720001090000806100000470005030020501910008040042050760593000008006010970400600002,728531496354896127169472835637924581915768243842153769593247618286315974471689352
000000900804501207067800001500060000001007039030200640000195408000302000012004570,153726984894531267267849351548963712621457839739218645376195428485372196912684573
000010209060009430702640050804100070050002300310050008600390002540000080070085100,435718269168529437792643851824136975956872314317954628681397542549261783273485196
