087030402603080000901625000006002507490000008035891000259700000000000100100964030,587139462623487951941625783816342597492576318735891624259713846364258179178964235
070000008900003240316000000000741905000050601020006000045900000702600490030820107,274569318958173246316482579863741925497258631521396784145937862782615493639824157
800004600010207500003610098000500069062001400004000700390008027051900040700100003,825394671619287534473615298187542369962731485534869712396458127251973846748126953
780005090020816000300000150013090020072680004000000600009400080000521400150900370,781345296925816743346279158613794825572683914498152637269437581837521469154968372
000070060903002870040190003107000305300080014020000080409238006012740900005900000,251873469963452871748196523187624395396587214524319687479238156612745938835961742
800001320390207010002500400009086040000700500071400080004010206700302800508000009,847961325395247618162538497259186743483729561671453982934815276716392854528674139
003400950700005260040079000010804030009130006064050080532700000000090001081600740,123486957798315264645279813217864539859132476364957182532741698476598321981623745
020300861070084000090000054300020006207018009140600000000195003006002070005040120,524379861671584392893261754358927416267418539149653287782195643416832975935746128
002040075840000600009372100250800000300091000008700030600900058000063209014005007,132648975847159623569372184251834796376591842498726531623917458785463219914285367
000000805307050020906002000400600018010009307000805940040360000000007200078400609,124736895387954126956182473492673518815249367763815942249368751631597284578421639
003400708040090010205871900000020060036908500401300070108009040050700006600015300,913462758847593612265871934589127463736948521421356879178639245352784196694215387
580009000000350018600007039050603290030800470210040086024010007109006050000702000,583169724792354618641287539458673291936821475217945386324518967179436852865792143
300090000086002090094600031641800005007450029000300108000010704700903060025708000,372194856186532497594687231641829375837451629259376148963215784718943562425768913
032008051904601008870054002060040020420805073000930000180000064700000900000016000,632798451954621738871354692368147529429865173517932846183579264746283915295416387
091408000050670340000035002020180400006000900870369000740000008003702006010093050,391428675258671349467935812925187463136254987874369521749516238583742196612893754
604000000800010057007000810005704300000008200900502460063200080008650130190087000,614875923829413657357926814285764391436198275971532468563241789748659132192387546
050006207810000004006029800000000000180300079420970580500107302040080960230050010,954816237812735694376429851697548123185362479423971586568197342741283965239654718
005070006410300000790246008200107800600090305070008090062004009050809040008000710,825971436416385927793246158239157864681492375574638291362714589157829643948563712
060043000500080900098200107106079500070000203400005000200500009083001702004060308,761943825542187936398256147126379584875614293439825671217538469683491752954762318
008097500040000020000650001793100082000008096804000000100026305207580049006030000,318297564645813927972654831793165482521348796864972153189426375237581649456739218
740000000021006903800230740000043000608520100074809052000001070009700600380050209,743918526521476983896235741952143867638527194174869352265391478419782635387654219
000001090004200036830406520002000005690010700040738000560007140001050008370060900,256381497914275836837496521782649315693512784145738269569827143421953678378164952
500000090003002000090810400480590070007001659060003800048200705100600030302070000,524367198813942567796815423481596372237481659965723841648239715179658234352174986
005090038004100000203000067086050019940080500010020803001004300000078021600200090,165792438874136952293845167386457219942381576517629843721964385439578621658213794
308020090047600000000043005000090107014802000060004083095070614183009700000250900,358127496947685321621943875832596147714832569569714283295378614183469752476251938
004001056002304701009760800000080320070046000001000074503900000608075100400010082,734891256862354791159762843946187325375246918281539674513928467628475139497613582
074800000310000000090502001050607009002004630700001048000026805038070200001000760,274813956315769482896542371453687129182954637769231548947326815638175294521498763
068003902900000001005107030051004000030000890607002400006089207040050000009070360,168543972973628541425197638851964723234715896697832415316489257742356189589271364
008000000067041050200760104900004038500630000002100409001325047800000200000987006,148592673367841952259763184916274538584639721732158469691325847873416295425987316
400200160830070000009004053700302009016980400020060070600130007005009280090705040,457293168831576924269814753784352619516987432923461875642138597375649281198725346
800004360052000018000070090570431000081205400020000000900008137013500600000900205,897154362452369718136872594579431826681295473324786951945628137213547689768913245
290070300000020681015008000507064108309000006004035700806007400040003070002050009,298176354473529681615348927527964138389712546164835792856297413941683275732451869
804009076000700904100050300403207600000000038250100400007030120080491005906002000,824319576635728914179654382493287651761945238258163497547836129382491765916572843
040090000802504001000300060073106082008070000050002340007000508900610200104800079,546791823832564791719328465473156982298473156651982347367249518985617234124835679
002304050000020009483000000010098420700006031208050607090400500000070913005082060,972364158561827349483519276316798425759246831248153697697431582824675913135982764
308000009400007580501460000907300210000020806060500043000000650010872900230009070,378215469426937581591468327947386215153724896862591743789143652615872934234659178
072300000300000057604009100409653000008090040100840203000002010010780604065100078,572318469391426857684579132429653781738291546156847293847962315913785624265134978
200510340003090000050030602070248050010000084060700020004073005001400069985006000,296517348843692571157834692379248156512369784468751923624973815731485269985126437
306000080000500410049031002068390007050106000200084050030658020420000006000072009,316247985872569413549831762168395247754126398293784651937658124425913876681472539
037086020010940008600002035002000007053100089409000000000058100020070604574020090,937586421215943768648712935162895347753164289489237516396458172821379654574621893
009040871005060940120800003470008520000000016000091300890207004602084005000000030,369542871785163942124879653471638529938725416256491387893257164612384795547916238
380060079004050002070029010200400807050712064030000050008690000015008003900040006,382164579194857632576329418261435897859712364437986251748693125615278943923541786
400050630300809000210760004700030050004070028039400001580010906000580170007004002,498152637376849215215763894721638459654971328839425761583217946942586173167394582
097531080510700090800026000008100703020450800409000020003805001065070000700300406,297531684516748392834926517658192743321457869479683125943865271165274938782319456
600200170084073005502009000900000508010000040300507062420800300700030009009056020,693285174184673295572149836967324518215968743348517962426891357751432689839756421
008009004910070032560300910030958200005001080100060700020503070007040000050820106,378219564914675832562384917736958241245731689189462753621593478897146325453827196
070062508030090076900800300024689000006700010000005004300010605250000107007408002,471362598832591476965874321124689753586743219793125864349217685258936147617458932
050000004031902000028740530700860102309010000060500700800005216004009057000020800,657138924431952678928746531745863192389217465162594783893475216214689357576321849
000027018080300005006000090090450006203009700010030840074600002000005137001908500,439527618182396475756184293897451326243869751615732849574613982968245137321978564
007004052802000960039000800000300000040067100080100297010079600200050038506002410,167984352852713964439526871721398546945267183683145297318479625294651738576832419
040895300030001060007260900720000859408050006000600201900320005500400070162007000,641895327239741568857263914726134859418952736395678241974326185583419672162587493
000082750310090800000506400800000062050278009039040070000000015608005030020439000,964382751315794826782516493847953162156278349239641578493867215678125934521439687
001030065230507400059002700060000009020800100100420000600703050407060081085090002,741938265236517498859642713564371829923856147178429536612783954497265381385194672
006020080025001394090307010047009005000002906000580040009740053103005000008600200,316924587725861394894357612647139825581472936932586741269748153173295468458613279
500024006000105800276038000010270600930006040020050108800000074053000080004002301,581724936349165827276938415418279653935816742627453198862391574153647289794582361
009400006700009800260010370430070001000080030075906080840600005013040090607800020,389427156751369842264518379438275961926184537175936284842693715513742698697851423
008231004072800003010009005190000057200605010000400900064070830300560021000980006,958231674472856193613749285196328457247695318835417962564172839389564721721983546
270060010000450903000080004120000709009318600648090500016000027400005300030070008,274963815861452973395781264123546789759318642648297531516839427487125396932674158
090317200740800000300002560604501070000000059000083100003000086280000900100750002,596317248742865391318942567624591873831274659975683124453129786287436915169758432
060900800902700300040008051800031295005020640030006007007009016050070400018604020,561943872982715364743268951876431295195827643234596187427389516659172438318654729
107204009800035640003007200302900860058700001600000700400810006000300150090050002,167284539829135647543697218372941865958763421614528793435812976286379154791456382
700090000000481003104230060800000050050800601006023047025070089301000000479100025,738695214562481793194237568843716952257849631916523847625374189381952476479168325
960000704002006359000500021700008930006070000400210870070051008609003040200400100,965132784142786359837594621721648935586379412493215876374951268619823547258467193
060008007410003058200170300080029071304000009700460000802000000009040603005807024,963258147417693258258174396586329471324781569791465832842936715179542683635817924
040080000003206809100003507002900700900001603586002014005040002060708090007030400,649587231753216849128493567312964758974851623586372914835649172461728395297135486
070004002008170905006080000190250004280706010007000030045800106000003020000469800,571694382438172965926385741193258674284736519657941238345827196869513427712469853
879500020000000805300010060001070902742039000060005100635401290200003400007060080,879546321126397845354218769581674932742139658963825174635481297298753416417962583
002000018030052009004007300700003160000010705500094002306005080010460950890200007,672349518138652479954187326789523164423816795561794832346975281217468953895231647
080072001300500680002013900043000060029406510050790000800900107070000000000100354,985672431317549682462813975143258769729436518658791243834965127571324896296187354
092000005600304000000050120006900780570410900400280006010803690007000301043700000,392178465651324879784659123126935784578416932439287516215843697867592341943761258
000070286690803000100540007000000005950000820002004961040061030000002010860900740,435179286697823154128546397316298475954617823782354961249761538573482619861935742
048600090001950378050002400000000060064800905510720003000139200070040000290007180,348671592621954378957382416832495761764813925519726843486139257175248639293567184
000079430001600020807000006000000900010852000540010072000300005608040310903580760,265179438491638527837425196382764951719852643546913872174396285658247319923581764
070589200800000703960400010053100002200047601000090040108006007090012000006700080,371589264845621793962473815453168972289347651617295348138956427794812536526734189
905004700400710008010080043008053900000000027039206054050020100007100286600908000,985364712463712598712589643278453961546891327139276854854627139397145286621938475
030008009500100260000000701017080640420006105608004097080040000009027000042905003,231678459574139268896452731917583642423796185658214397785341926369827514142965873
005908604003000018920600500100500070000024809002703000604300005030019006001005780,715938624463257918928641537149586372376124859852793461684372195537819246291465783
008000692402050030706900540001000000040798000020003069000080001307021050509630800,158374692492856137736912548971265483643798215825143769264589371387421956519637824
009040603008000029002500700001208400500760000600094102093410800800000047075036000,759142683148673529362589714931258476524761938687394152293417865816925347475836291
006000209023060005198400000002010006000070400000836507000052800069700302004008060,576183249423967185198425673782514936635279418941836527317652894869741352254398761
018300400032006080950002106000000591000003000465800000390500600007068002200401750,618395427732146985954782136823674591179253864465819273391527648547968312286431759
051040900028030050000000074007800100094106200000070390500062408802709003010005000,751648932428937651936521874267893145394156287185274396579362418842719563613485729
000940301000200560017000024000003042609005730800070009024060800503010000001300275,256947381498231567317658924175893642649125738832476159724569813583712496961384275
000040806020100390304960710001206580205001040700000000000007052470008960096300100,159743826627185394384962715941236587235871649768459231813697452472518963596324178
008700056040900200200016000020408600010093802607000030700500403450002098090300001,938724156146935287275816349329478615514693872687251934761589423453162798892347561
004700010065080203390006004512000090000023800038100600000491050050060400709302000,824735916165984273397216584512648397976523841438179625683491752251867439749352168
093000070700408900010000625040901300805720006000035008207000410150092000060000082,593216874726458931418379625642981357835724196971635248287563419154892763369147582
300075010008200596600091020400029007900180000035700000012350400040008300000460058,329675814178234596654891723481529637967183245235746981812357469546918372793462158
400106070970800501605009204046000102009007000850030000001005409000604350080023600,428156973973842561615379284746598132139267845852431796361785429297614358584923617
140020000287300000300000049900007820050692000000030100028015604006070050003408710,149526387287349561365781249934157826851692473672834195728915634416273958593468712
905006824070020001064001300000000000007310590840097000031040007002870050006002009,915736824378425961264981375159268743627314598843597612531649287492873156786152439
061200500000097800907000003010504036049076080032000005850000000000803742200619000,461238597325197864987465123718524936549376281632981475853742619196853742274619358
037960020900200140008004603074005000001702089329000004080030072000108000600400510,437961825956283147218574693874395261561742389329816754185639472742158936693427518
000090072003007100150200608621409000045006030000850000300000840064070020910520003,486195372293687154157243698621439587845716239739852416372961845564378921918524763
700000802010004060008027590300070950080002706504360000020000010059408000100030609,796153842215984367438627591362871954981542736574369128823796415659418273147235689
007308004230000009809000650000109000500070320000065807308040076104027900070000100,657398214231456789849712653782139465596874321413265897328941576164527938975683142
906074000000000357010028600000006032090007804250010090021400000300100405085009061,936574128842691357517328649178946532693257814254813796721465983369182475485739261
700006100030050620820400009300000050600820301090170008050300046001960200000004900,745296183139758624826431579318649752674825391592173468957312846481967235263584917
006034700805000402300900051010800326000001000782060000960340008200100500037020900,126534789895716432374982651419857326653291847782463195961345278248179563537628914
900008000000059320010700004003002060004301780680900050450800900060415070020000001,937248615846159327215736894173582469594361782682974153451827936369415278728693541
