710000023068000500003940010000012007020504108500300600087065900940008000630401700,719856423468123579253947816894612357326574198571389642187265934945738261632491785
709600004040000650021905008100560380200008400075300060980000203030710000400002097,759683124348271659621945738194567382263198475875324961987456213532719846416832597
002070009100008000087001453029040000003900741000065082900000300056820070041053000,432576819195438267687291453829147536563982741714365982978614325356829174241753698
031000800495070600708092000006009307000050024170080900600100403302006050000705006,231564879495871632768392541526419387983657124174283965657128493312946758849735216
768020005005000000930610070092060004480930007000008106020070401001302000003050069,768423915215789643934615872192567384486931527357248196529876431641392758873154269
321000060900503007405600280003800504506390010097000020000070802680000409000040650,321784965968523147475619283213867594546392718897451326154976832682135479739248651
006800003105006002002000017000600724300120900400500060010907805809030000070050140,746812593135796482982345617591683724367124958428579361214967835859431276673258149
700230950021700030040106000000000020080305107007090603019000800400020005830401070,768234951521789436943156782394617528682345197157892643219573864476928315835461279
048000001000007050100950602090021030007600000205074000062005004730012090900030087,548263971629147853173958642496521738317689425285374169862795314734812596951436287
008009040570600200000070001100805020060000103809340060200080095753900608001030070,318259746574618239692473851137865924465792183829341567246187395753924618981536472
100008057090362400086010009300000000045200108610090070000400300200506090764030800,123948657597362481486715239378651942945273168612894573859427316231586794764139825
000000082090450100063809700305010074600340000002006009000001068040570010800030500,754163982298457136163829745385912674679345821412786359537291468946578213821634597
300408000510020600904600037780002003003000240000059108001080050456000009000007012,367498521518723694924615837785142963193876245642359178271984356456231789839567412
000030270600701030074296000025040001003000600100905800049360000006400025001807900,918534276652781439374296518825643791493178652167925843549362187786419325231857964
010679003002004006730250080804000000000300050000517900300006190200700004905080260,418679523592834716736251489854962371179348652623517948387426195261795834945183267
306102007007005010021030900004390705850020000000000689900053002070000406003471008,396142857487965213521837964614398725859726341732514689948653172175289436263471598
207500000050047080806320070900080006062000050001200304100090408004001709090630210,217568943359147682846329571973485126462913857581276394135792468624851739798634215
000930010400000509000002087300017000805040630600008094902084060106500870030120000,287935416463871529519462387394617258875249631621358794952784163146593872738126945
020706300905820000400000001070602030090070100082094507318060409000105280006000003,821746395935821674467953821574612938693578142182394567318267459749135286256489713
000020000600071005300806720000940000704080309035002608509000460060507201008100050,857429136642371895391856724186943572724685319935712648519238467463597281278164953
000400685000007100910600002820003006407950000003008200705010039209800501046030700,372491685658327194914685372821743956467952813593168247785216439239874561146539728
600050784003000000059170000270035000060020390034060805000806500100000270400200160,612359784743682951859174632278935416561428397934761825327816549196543278485297163
904017600007906840000000000070002105180400236030000090210000350000028007000360910,954817623327956841861243579479632185185479236632581794216794358593128467748365912
178000000200007064400320000000806020004050003936001008005400390090068107000970050,178694235253187964469325781517836429824759613936241578785412396392568147641973852
700003059060090400840062000000304001190070030002008006005820100008000004030100270,721483659563791482849562317687354921194276835352918746475829163218637594936145278
010045002006900010048300070030708500071602800029000030000000104005083007090504600,917845362356927418248316975634798521571632849829451736783269154465183297192574683
050020000006004107100305620007500390094000008020080700800630042003000501400907030,759126483236894157148375629687512394594763218321489765875631942963248571412957836
070043000015000860200860005020078910190000480004900052360200000807009100040050600,678543291415792863239861745523478916196325487784916352361284579857639124942157638
080000064000908050356024098420806007630240010000100000100300600009005072040097500,982531764714968253356724198421856937637249815598173426175382649869415372243697581
905067001000050346402300790004100020300090070070008500800530602010004800090010050,935467281781952346462381795654173928328695174179248563847539612516724839293816457
080020007700006090002300600100040823027090000050180060090710400301400080600005901,586921347734856192912374658169547823827693514453182769295718436371469285648235971
409007600300000491680003070000600029010870503905104000024050300100080000090700062,459217638372568491681493275748635129216879543935124786824956317167382954593741862
407801900063000020800069005070000100100245078680000030000410056000050207520036009,457821963963574821812369745275683194139245678684197532798412356346958217521736489
060007500100000002050408070009001080046790030000030045270080016304602000008503700,463127598187359462952468173539241687846795231721836945275984316314672859698513724
900400001052607830040005079500800460006301000000050008029070500615002700870004000,967438251152697834348215679531829467786341925294756318429173586615982743873564192
000031050040800000300462100060003790908000003203005800010024507080690004700000026,826731459147859632395462178461283795958176243273945861619324587582697314734518926
600007000208000140370504090900001608004300700015000000086009002490002013102708500,649217385258963147371584296923471658864395721715826934586139472497652813132748569
000609005080210400600050700072400509050708000006090030100000000520340018340087002,234679185785213496691854723872431569953768241416592837168925374527346918349187652
003400180004023079170000200900701800000500034002006910029084060060070300038600005,293457186684123579175968243946731852817592634352846917529384761461275398738619425
802070300060800000950063010000080200040601009170405030326090450094000002000700060,812574396463819725957263814635987241248631579179425638326198457794356182581742963
004030560150004070078000902062890000080070439000105000000267000609051008023000005,294738561156924873378516942462893157581672439937145286815267394649351728723489615
057000090012036000400100500003705600090800370064200900100340000200001008380907460,657482193912536847438179526823795614591864372764213985176348259249651738385927461
501009600020000009800462500300057000040630120006000087700803904400070001200001050,531789642624315879879462513382157496947638125156294387715823964498576231263941758
070905060020000089000600437039002100500100040104708003005003070800010002306040000,473985261621374589958621437739462158582139746164758923215893674847516392396247815
003060041800040700090502300005280017100005090002007003020470506064803000780900004,253768941816349725497512368935284617178635492642197853329471586564823179781956234
605000704014090000090300560402603000001907205000001480080060010009805007300709002,635128794714596328298374561452683179861947235973251486587462913129835647346719852
030700800005006020007809105014000902096035700000201000709040060841060300053070010,132754896985316427467829135314687952296435781578291643729143568841562379653978214
090000025400000000602490030000030002983005067070019040008520096509003000000067081,891376425437852619652491738146738952983245167275619843718524396569183274324967581
790005104003640209000000750000300060008000400251008900040900817907201005080030002,796825134513647289824193756479312568638579421251468973342956817967281345185734692
000002500600940038082010070007000680965000010140039000003470090700201400004095100,379862541651947238482513976237154689965728314148639725513476892796281453824395167
007008005004060210586003040090310004050040769008000000019000500600001082003270090,127498635934567218586123947792316854351842769468759321219684573675931482843275196
004700025290005701003009800700010040008070093120063008050091600080004317060200000,814736925296845731573129864735918246648572193129463578457391682982654317361287459
570000008600109000930600002200000540000568001103047009020016804009050030804720100,571432968642189753938675412286391547497568321153247689325916874719854236864723195
070000100010902000008530040089046705000193004160000030206010470900800060040057309,572468193413972856698531247389246715725193684164785932256319478937824561841657329
106907080730040600005000100009004053002190400060008070020070504081603002900000006,146927385738541629295386147819764253372195468564238971623879514481653792957412836
703500008805302109000004000506207900030058407000030020907001500010600290204800000,723519648845362179691784352586247931132958467479136825967421583318675294254893716
003500406004020350080460100702830000950001000008009612400300500025100870000070094,293517486164928357587463129712836945956241738348759612479382561625194873831675294
006085000405037102090000800000400700020070305703256000900002087304500090060010004,236185479485937162197624853518493726629871345743256918951342687374568291862719534
050092100000800002700340080064703008010000603270000059026007030500019004080006025,358692147641875392792341586964753218815924673273168459426587931537219864189436725
030020004500008001207600900106700000900000005058900463400560380000270000001083027,839127654564398271217654938146735892923846715758912463472561389385279146691483527
000006081010097300400000700690020015003070009524001000306000420070400906002508007,739246581215897364468153792697324815183675249524981673356719428871432956942568137
058070100700020004301009650090004000006081700004900328215060000900302460000500080,458673192769125834321849657892734516536281749174956328215468973987312465643597281
090103406500080702100040008710000030040092000203500000000057900008600524006204080,897123456534986712162745398719468235645392871283571649421857963378619524956234187
700038260000700050040010390900602040080570100204000005030006004012800900009150870,795438261123769458648215397951682743386574129274391685837926514512847936469153872
001057000060203004908060753007002860000500039400091000000600205204010080083400097,341957628765283914928164753597342861812576439436891572179638245254719386683425197
086020190000084520530000080078305900004900706100060400920000000005790300301006000,486523197719684523532179684678345912254918736193267458927431865865792341341856279
001563009070800600000094023620305004400009008008100500050007090804900200030020401,241563789973812645586794123627385914415279368398146572152437896864951237739628451
023000107406000000089000650007003520000200904015900080704021390002035400600008000,523869147476512839189374652947183526368257914215946783754621398892735461631498275
401000950700103200008090043009200706007409010600080005500000834300016000082050000,431628957795143268268597143149235786857469312623781495516972834374816529982354671
021003004030092050700800000600100090094000380082070605070600000509080001800405039,921563874438792156765841923657138492194256387382974615273619548549387261816425739
832100000040700008600030450150427900000009703209080000084002510010050090000300064,832145679541796238697238451153427986468519723279683145384962517716854392925371864
107092000054000000930005400040801032002900070789006050800100203000007061600048500,167492385254683719938715426546871932312954678789236154875169243493527861621348597
000000024600759008039012000501076000970004160080000030008560000152003009400921080,715638924624759318839412756541376892973284165286195437398567241152843679467921583
130070024079601030000900006308000069010008007900103400000000500081047000560380270,136875924479621835825934716348752169612498357957163482793216548281547693564389271
408000000030078640297600051002000096050000173700036400004082000905701080100009002,468195237531278649297643851342817596856924173719536428674382915925761384183459762
640020000805003010000906200000189400032500060001000007090200700106005003000010640,649821375825743916713956284567189432932574168481632597394268751176495823258317649
014580760603001900020039000070090502045800000800270030052100004000000016090004807,914582763683741925527639148371496582245813679869275431752168394438957216196324857
406032000083940007000001840200700000001028000050000069090400170310000450005086302,476832915183945627529671843234769581961528734857314269692453178318297456745186392
100029500630080001042000790006803004000090000070601020028305076005000930000042010,187429563639587241542136798296873154351294687874651329928315476415768932763942815
207061008405700190006040030040020050190053007700009210300804020069200073000006000,237961548485732196916548732648127359192453867753689214371894625869215473524376981
012000300050008600900270040020067908680500014403090000000050200060130070507000093,812946357754318629936275841125467938689523714473891562391754286268139475547682193
000015003708000004036200790400001680800970100020003000000080206109600047052430000,294715863718396524536248791473521689865974132921863475347189256189652347652437918
781500430209070060000000008504307802013060000920400006000000005130902070600714000,781526439249873561356149728564397812813265947927481356472638195138952674695714283
201003000050002030030806400000040072005069000376010005790031000162004057000000809,281473596654192738937856421819345672425769183376218945798531264162984357543627819
970500030008000004062910070000090350000805147200703080580300006400100090030062500,974586231158237964362914875847691352693825147215743689581379426426158793739462518
500800132031750490000900000006000801803060700040201006070004000360000980920030507,597846132631752498482913675256379841813465729749281356178594263365127984924638517
060000500035001097009702300100523040050006001000090780080000002403060078610400900,761938524235641897849752316178523649954876231326194785587319462493265178612487953
084003007260007500057040980090300002610250090000180406003705000900020060040900008,184593627269817534357642981495376812618254793732189456823765149971428365546931278
403060009700045100000029430000050610310004500900003042508200900230000057007018000,453861279729345186186729435874952613312674598965183742548237961231496857697518324
000050098807240030003009600050030040000000102100084960020715400980003000700900016,264351798897246531513879624659132847438697152172584963326715489981463275745928316
601007028804900000020030500000004680010250309003170002000710060580020094006005007,631547928854962713729831546275394681418256379963178452342719865587623194196485237
970602000065900007400000100084000900003050614200079003100320080020810760008500030,971632548865941327432785196584163972793258614216479853157326489329814765648597231
701008200040100003600030070004060008023700409000083500050020000490006801170950026,731648295245197683689532174514269738823715469967483512356821947492376851178954326
690301700014002060300050100200470050070900002009603010067009200080200009050080043,695341728714892365328756194231478956876915432549623817467539281183264579952187643
500000027108000609049010030700160000090850200024973805000506000063000900050039401,536498127178325649249617538785162394391854276624973815912546783463781952857239461
140008009360040800005900200800160590004027030200503080000000015090206740607000000,142658379369742851785931264873164592954827136216593487428379615591286743637415928
280510700047026091000300008020000640059080023003100000000000976501070400060408005,286519734347826591915347268128935647659784123473162859834251976591673482762498315
005100304031206090000074000093080601700500000802040007360010800007900405050027900,675198324431256798928374156593782641746531289812649537369415872287963415154827963
350200870700010000006009030000001086083900012204300500800730061009600700500008040,351264879798513624426879135975421386683957412214386597842735961139642758567198243
070040305009003006380092400005380067001009003400160020010000950700020000020806014,172648395549713286386592471295384167861279543437165829618437952754921638923856714
