200005768500096031140803050017000000400020003923007000080400600050702009704060800,239145768578296431146873952817534296465928173923617584382459617651782349794361825
608000004024009701070620000006305480400160900905007003003500000090081070700030820,658713294324859761179624538216395487437168952985247613863572149592481376741936825
580000070020004150001000006814300500900001307002069800040075090106200400009080013,583612974627934158491758236814327569965841327732569841348175692176293485259486713
005006030040090800008317002093800047010000000000502600002709100150040703670020098,725486931341295876968317452593861247216974385487532619832759164159648723674123598
000500000903710026800020410000000008001040790205967000009003204107008500040650009,412586937953714826876329415794231658631845792285967341569173284127498563348652179
090060002230500170007308050001200840020000000403906005940807000002015000015000638,594761382238549176167328954651273849829154763473986215946837521382615497715492638
007210085008500000200960400600000038094000506075320000410030000032070960000100350,947213685168547293253968417621459738394781526875326149419635872532874961786192354
000040590506000078007030102001200005409356020300014080100070003005098060924000000,213847596546921378897635142671289435489356721352714689168472953735198264924563817
006200040000009200950610008074080060210400007090031500100500300300847019860020070,736258941481379256952614738574982163213465897698731524147596382325847619869123475
002000500470000108080079000840203001005006809306508040210400007009007310000060205,962184573473652198581379426847293651125746839396518742218435967659827314734961285
208000075050490000630020001000800030012004000500070946009702000047105600800046310,298613475751498263634527891476859132912364758583271946169732584347185629825946317
300000000051097400462800000100780009035000702098630005040003018007204060900560000,379426851851397426462851397124785639635149782798632145246973518587214963913568274
028090034590000100600700002040008619800300007009015400003400020160530008007082000,728196534594823176631754892345278619816349257279615483983461725162537948457982361
100308060007050001409000020010706800000000210780000049604037002300109006050804900,125398764867452391439671528912746835546983217783215649694537182378129456251864973
060900003000040025021065004908070500000008060004321078790800300506037140000000200,465982713879143625321765894918476532237598461654321978792814356586237149143659287
001000097000006008745030000000810005014020030020594001039080256002400700057000910,681245397293176548745938162976813425514627839328594671439781256162459783857362914
900000040037105600008097203060002105000060300075084000000050039020010706604700820,916823547237145698548697213463972185892561374175384962781256439329418756654739821
030000507700005002009630140100200750673004080050083000086310000205008030000090024,834921567761845392529637148148269753673154289952783416486312975295478631317596824
901200500500009706003480000069301020030000009010050470056073040804600000020000108,981267534542139786673485291769341825435728619218956473156873942894612357327594168
200850390180070002000030470010020005046901030007600000700360910039200806800000700,274856391183479562695132478918723645546981237327645189752368914439217856861594723
300070800800900215260400390980204050000051000006700000010009046702085900030100020,391572864874936215265418397987264153423851679156793482518329746742685931639147528
203050079009000164700600500056300080800004012030790000040820000601070050978140000,263451879589237164714689523456312987897564312132798645345826791621973458978145236
790360210002004080063000000000030007000029460805700000900802040510000030007100695,798365214152974386463281579629438157371529468845716923936852741514697832287143695
008000906750086004020007051003001700510908400002450000001600000460002090090805062,138524976759186234624397851943261785516978423872453619281639547465712398397845162
350008407104003600000010028010200000200000593006804070060500901000060080590307060,352698417184723659679415328715239846248176593936854172867542931423961785591387264
057030120800000000013904580020500806070063002409007300100402030005008040004370609,957836124842715963613924587321549876578163492469287315196452738735698241284371659
703160090856000040001052000090300017002007800080900054600001070504003021000400306,723164598856739142941852763495328617162547839387916254638291475574683921219475386
500107040060500001200004090030280600400010500009400230002000008907060053800975400,598127346364598721271634895735289614426713589189456237652341978947862153813975462
300500000008100479071008306502000067040600508106300900700840000090025804004003020,369574281258136479471298356532489167947612538186357942725841693693725814814963725
070905300003007010000040902041030600008700053000654800300000006156000209492008005,274915368963287514815346972541832697628791453739654821387529146156473289492168735
006230590000147800300906024040010003085002060090500708000000900751090000002080341,416238597529147836378956124647819253185372469293564718834621975751493682962785341
700230900601000005520900047002078010309040600076300024000027103048100000000096000,784235961691784235523961847452678319319542678876319524965427183248153796137896452
069301400000800010740020300020060000003157060000008975008496000050000109400503087,869371452235849716741625398527964831983157264614238975178496523356782149492513687
002300015050070940400000060000906702800025106003100090009052000700840000620701308,972364815156278943438519267541936782897425136263187594389652471715843629624791358
000009710630020000950470002004790050065000470003050806400860200000000540078203600,842639715637521984951478362284796153165382479793154826419865237326917548578243691
400010890053090076007023100600002900000004305205300007009070501000800402806100000,462517893153498276987623154634752918718964325295381647349276581571839462826145739
000089600051000827040001905670050003300207001002940080780400000020076040005000309,237589614951634827846721935674158293398267451512943786783495162129376548465812379
006019430084357001020000009700020500005800670040060010207930040010500097003608000,576219438984357261321486759769123584135894672842765913257931846618542397493678125
000030200040809005167002300400060000006204091895073000000001760080400000739058040,958736214243819675167542389412965837376284591895173426524391768681427953739658142
700861000006200800010034050190300006054080730207016900501400070000000040083079200,725861493346295817819734652198347526654982731237516984561428379972653148483179265
320000871700403095060080000400010000002590018005706024000350200030601700900002040,324965871781423695569187432493218567672594318815736924147359286238641759956872143
050026004001400700023080000000705000800000392194000060006804205037900806000503001,759326184681459723423187659362795418875641392194238567916874235537912846248563971
150000380003500400000604700039000008500000003006200590600750100420068050070409002,154927386763581429982634715239145678517896243846273591698752134421368957375419862
003200070700508094000040216807160000090830020040070100300009068654000000920053040,413296875762518394589347216837162459195834627246975183371429568654781932928653741
040261000000050900136000400701400025203009008084100007900700206060080000000510730,549261873872354961136897452791438625253679148684125397915743286367982514428516739
018205000390010025200000000720400003000701864000059100007030410460000500003860007,618275349394618725275943681721486953539721864846359172987532416462197538153864297
600500280208079000015004600920403007000000905000008010080307020406010000030060091,697531284248679153315284679921453867873126945564798312189347526456912738732865491
420030100500900000003460092000193060807050900030006004012080430000700020054001870,429537186586912347173468592245193768867254913931876254712689435398745621654321879
701300200000800513020600070907400001000905604006038020203040709000090060150700040,781354296694827513325619478937462851812975634546138927263541789478293165159786342
002050109670000028000600043100400000904030805005980001400820006050097300893004200,342758169671349528589612743138475692964231875725986431417823956256197384893564217
021000400080073009030150007094605713000308006002000540010702390906000002000080050,721896435485273169639154287894625713157348926362917548518762394946531872273489651
003009000900004080806702054005400678200010000307600109520870040001005000080000062,473589216952164783816732954195423678268917435347658129529876341631245897784391562
060709010000060703003001450807400002420050009019608000000802037900040025008070000,564739218182564793793281456857493162426157389319628574645812937971346825238975641
000096040380500062000000780094030001576240300108000074002050900600310000000002007,721896543389574162465123789294738651576241398138965274812457936647319825953682417
006710350040000000080305900000970000701060203030501068069000041005080602800430070,296718354543692187187345926628973415751864293934521768369257841475189632812436579
320100000000098560000540107094300080160050042070006900007021009850074630009600000,325167894741298563986543127594312786168759342273486915637821459852974631419635278
000160000327000050090500200073089000800006304004050002700940800002000410015700639,548162793327894156691573248273489561859216374164357982736941825982635417415728639
000400005087000000000106920730200008020510430490000071009830054600002003510609080,962473815187925346354186927731294568826517439495368271279831654648752193513649782
001730000062008040054006001040900620235001008000000000906002075000050180000173460,891734256362518947754296831147985623235461798689327514916842375473659182528173469
050000000000700091130086700080400030476805200900000500007502186062301054040090002,759124863628753491134986725285419637476835219913267548397542186862371954541698372
509700862060400070107000350701020000024850903390006005002000091800600200000013040,549731862263485179187962354751329486624857913398146725432578691815694237976213548
460100900001006078207008100013590260050401090000060003000720400005000082709300050,468173925591246378237958146813597264652431897974862513186725439345619782729384651
009250300805300207070040000600002010530400708000510090020006930007000001910830400,149257386865391247273648159694782513531469728782513694428176935357924861916835472
067201800900006235380000700048600002070002309000700061020040000009000108830509040,567231894914876235382954716148693572675412389293785461726148953459367128831529647
002000005600058001010246097090037154001000000470020860360001920058600400700300000,942713685637958241815246397296837154581469732473125869364571928158692473729384516
090800051041097008003500070950402100208603005030008760017000030600100800000004209,792846351541397628863521974956472183278613495134958762417289536629135847385764219
820006905090040670041000023070903050000410008050007000060080004500072190203000500,827136945395248671641759823178963452932415768456827319769581234584372196213694587
000086130750304000100070006040095200321000004005000780004009615083200400000600020,492586137756314892138972546847195263321768954965423781274839615683251479519647328
090008002000907350006130000403200719670005038002000400000764081010500070009003004,397658142128947356546132897453286719671495238982371465235764981814529673769813524
090004205000719860408000300604920081380600002001000500700000000260080400010045097,196834275532719864478562319654923781387651942921478536745396128269187453813245697
040029180200600040006080035000060000007908403105400960069500000702013000004200857,543729186281635749976184235498361572627958413135472968869547321752813694314296857
001509000600800020209700014010090072080106400306040000930605080107000000000030067,841529736673814529259763814415398672782156493396247158934675281167982345528431967
090507308100006009045900027310600090000052006057800200908400000000020000024718000,296547318173286459845931627312674895489152736657893241938465172761329584524718963
390200008050700006600091050200059630080000009005302071001080400000070082036500100,394265718152738946678491253217859634483617529965342871721983465549176382836524197
050060001000900075208700409902080630030000587400000100520300000004500708060491000,759864321643912875218753469972185634136249587485637192521378946394526718867491253
097400820350080004000001009018723500500060000276008010080000900960250030003040760,697435821351982674842671359418723596539164287276598413785316942964257138123849765
050710003390065000007000008130000820080031060709640000064007009000000250518903400,852714693391865742647392518136579824485231967729648135264157389973486251518923476
850090020016800003007002401302700069081040205000030000420080190000659040603000070,854193627216874953937562481342715869781946235569238714425387196178659342693421578
670108000030206050000003400500000049842050007097000100001030902058002370700089006,675148293134296758289573461516327849842951637397864125461735982958612374723489516
900018002320000010604570030001256000000001820009000400030400706807009003500023080,975318642328694517614572938481256379763941825259837461132485796847169253596723184
040601000378904002601080000900210076000008050005063904403009800000000407007502013,549621738378954162621387549984215376736498251215763984463179825152836497897542613
090005080603007005800030209045700006070003410210089300000208001532001070001000004,194625783623897145857134269345712896978563412216489357469278531532941678781356924
200400000490800300301000007050049200004560003980107600006082501500000062010003970,278436159495871326361295487657349218124568793983127645746982531539714862812653974
015070040948200700200100030000025064400003509067800001009067100034500000000082006,315978642948236715276154938193725864482613579567849321829467153634591287751382496
050480901300006002020090004039507000271004509600000020010800067007003410003050000,756482931394176852128395674839527146271634589645918723512849367987263415463751298
509300047000071509034600000000032908070800420102900006300706080865010000000504100,519328647628471539734659812456132978973865421182947356341796285865213794297584163
400001806078206150050390020009803710065000032007050004090000260020700300100004009,432571896978246153651398427249863715865417932317952684794135268526789341183624579
000095610007000000509106308350000076900020430018007090040850009600049200000301080,834295617167483925529176348352914876976528431418637592743852169681749253295361784
000040870106000009000907051034095207000300006092006010410803025825070003009000000,953641872176258439248937651634195287781324596592786314417863925825479163369512748
000058620004700080900406100052094000800020743030100200005060900001003008607200501,173958624564712389928436157752394816819625743436187295345861972291573468687249531
002100046500308700170026809010003000089000052740000908050060084060007100900080603,832179546596348721174526839215893467689714352743652918357961284468237195921485673
008900400630007900500012800870290000016573000002400001004380160000000590007006042,728935416631847925549612873875291634416573289392468751254389167163724598987156342
800609047001200006500800010000150008000020673946003000600000839390400025052000100,823619547471235986569847312237156498185924673946783251614572839398461725752398164
000172008891003000000000064905061020020430500760009800680010709304500000500706003,456172938891643275237985164945861327128437596763259841682314759374598612519726483
050073001003080050016900200570010900060004317900600840390000004007052000000000682,859273461423186759716945238574318926268594317931627845392861574687452193145739682
003007040200046850000390010900050060740830920005000107470609038001005000060080400,183527649297146853654398712918752364746831925325964187472619538831475296569283471
028400030600001000009000724032060000704032680000807050193050200000000009075608400,528479136647321895319586724832165947754932681961847352193754268486213579275698413
030200640840000001000000350051008700900060200400130860020917000007040009108356000,735291648846573921219684357651428793983765214472139865324917586567842139198356472
090500170000060002740803000860000000100006943400250000056108390000009701001430820,693542178518967432742813569867394215125786943439251687256178394384629751971435826
000004067879300000140802509000900015000036720002000086400000102203050000090017400,325194867879365241146872539764928315981536724532741986457683192213459678698217453
