094037000503840200008601000309010004600000008200004957000502109470000065010080730,194237586563849271728651493359718624647925318281364957836572149472193865915486732
008010264039002100000704008000860090020500703074900510600000000100090850597030020,758319264439682175261754938315867492926541783874923516682175349143296857597438621
007000053000510670940006000020004086390780002004020007163090000000205400002138009,617842953238519674945376218721954386396781542584623197163497825879265431452138769
000004010600000053054308002098000060720800001010670300000021000500703924003090078,937254816682917453154368792398145267726839541415672389879421635561783924243596178
009700002026019074040000000005086010007502603000030420302061000890000000071843009,189754362526319874743628591235486917417592683968137425352961748894275136671843259
403800000180009040590607001059060000000430107700200500270080430006070200801903006,463812975187359642592647381359761824628435197714298563275186439936574218841923756
107000052980006400003920000056070820000204610000030700401000080870001209000045370,167483952982516437543927168356179824798254613214638795431792586875361249629845371
170000006006209870040005300860100907050038041009064000025090000003500120000007408,172483596536219874948675312864152937257938641319764285425891763783546129691327458
200060430040705000071002800020000978790010000056003240000501003908040006000826100,285169437349785612671432859123654978794218365856973241462591783918347526537826194
001080260025300900000060054093006001070500680002170300400710009030000100900038520,741985263625347918389261754593826471174593682862174395456712839238659147917438526
090002005301600470000708600005100049908006007100045380507803160400270000000000003,796412835381659472254738691635187249948326517172945386527893164463271958819564723
050060000000400709600203400809000500062870904300650012120080000003004091400037080,954768123238415769671293458819342576562871934347659812125986347783524691496137285
300052480015080009600004703050020800700010024080307600570000000200008396039401000,397652481415783269628194753154926837763815924982347615576239148241578396839461572
030201007604009500000860204007003095400080000003500718090000002012750009800010600,538241967624379581971865234187623495459187326263594718796438152312756849845912673
004600300010390000098007605040570060200000089500000704805203010030001200006800070,754682391612395847398417625943578162267134589581926734875243916439761258126859473
048029506002570008900001000100400070060800092079003060057040000086000107400000253,748329516612574938935681724123496875564817392879253461357142689286935147491768253
000084200002605310781900005500000004017820600000040981025000000004003097800006530,653184279942675318781932465598361724417829653236547981325798146164253897879416532
005000600097004085821690700000002054010003002009547306006010200000050098470300000,345871629697234185821695743763182954514963872289547316956418237132756498478329561
108050209600030701079004000500060008021040060700218004300690010002000800050800903,138756249645932781279184635594367128821549367763218594387695412912473856456821973
070091305095800100026000780817000502000030490004015000000306007000509860203000000,478691325395872146126453789817964532652738491934215678589346217741529863263187954
600000013540801700000407090406708302010050600020000089050200060003085207002690800,687529413549831726231467598496718352318952674725346189854273961963185247172694835
300890000100407029500000007090640300001000005604003098000060180700352064002980000,327895416186437529549126837295648371831279645674513298953764182718352964462981753
004030019020100000360000470010960500080050397002047160600500000090710804038002700,874635219529174683361829475713968542486251397952347168647583921295716834138492756
364008009000006001008420070097604000500012037002800906000000210700549008403000005,364178529275396481918425673897634152546912837132857946659783214721549368483261795
000805306040009000105370000700001090968400070003080640002150400059034001000600087,297845316346219758185376924724561893968423175513987642672158439859734261431692587
170300900000400520302096010047030806060500000208070140000000209680105037000004050,174352968896417523352896714547231896961548372238679145415763289689125437723984651
030054080000000479007010200001942805009000714500003060200680000150000300084025006,932754681815236479467819253671942835329568714548173962293681547156497328784325196
300120000000864350090007040705001038200090700030600010042003680071402000080750000,354129876127864359896537142765241938218395764439678215542913687671482593983756421
240500010090860035000100000560030049000250763008090000800007056006004180301000290,243579618197862435685143972562731849419258763738496521824917356956324187371685294
609500043000000010080320507054072008002403090107800006000900682090167000300050000,679581243523746819481329567954672138862413795137895426715934682298167354346258971
580001064700600250400090701605010092010400000809036070300005009020700018006040300,582371964791684253463592781635817492217459836849236175378125649924763518156948327
010000504004092008000310690240000160097050083000608007003406059800700200009100300,912867534364592718785314692248973165697251483531648927173426859856739241429185376
001062405060047390000900001349008260800070050005003100603820700020451000000000009,791362485568147392432985671349518267816274953275693148653829714927451836184736529
009007006080094000020610930006009523903080000000160700402000050730040680100725000,349257816681394275527618934816479523973582461254163798492836157735941682168725349
020005019095470006730060080070000020000058304608000007900300050102600000004002801,426835719895471236731269485573946128219758364648123597987314652152687943364592871
084715000620000010000203940050029000809001060072850003045000009001000280000637004,984715326623948715517263948456329871839471562172856493745182639361594287298637154
092300807050080160630040005714036090000750008300209000000500031870000600000091004,192365847457982163638147925714836592269754318385219476946578231871423659523691784
453078020120005074000000600040001380809507400700300006060040058000123000207000100,453678921126935874978412635645291387839567412712384596361749258584123769297856143
002004900500900071008531000070092630063050007140000082000670020900800005480000360,612784953534926871798531246875192634263458197149367582351679428926843715487215369
005009060010000008674020050000048500000300710003790004040072836081006409020000000,835419267912657348674823951167248593498365712253791684549172836781536429326984175
005600004000023009287010030002706000759008000130240900014000050008401203600800700,395687124461523879287914536842796315759138462136245987914372658578461293623859741
500060402013047000006500930007098200080002093400000501009600070700310065100804000,578963412913247658246581937357198246681452793492736581839625174724319865165874329
090208304003006500208100670041037028000800000070095000630004001020700003905001060,796258314413976582258143679541637928369812745872495136637584291124769853985321467
000830900400005760180700023000690000502001090070008304910060400008014035060002000,257836941493125768186749523841693257532471896679258314915367482728914635364582179
000060017000209500410307980080902630059040000007508100068000050043100070090480002,935864217876219543412357986184972635359641728627538194268793451543126879791485362
080560000090008024000000061050100008302000910600402007075201039460070000100083400,281564793796318524534729861957136248342857916618492357875241639463975182129683475
070003080400500702021960000097014008008300061046000030630720004504000200000038050,975243186463581792821967345397614528258379461146852937639725814584196273712438659
080100420000607038400009056014098700090500813300000000076802005001030009240070000,689153427125647938437289156514398762792564813368721594976812345851436279243975681
900013080300008076040200000089056001002700000560090030000030104450900028018000500,975613482321548976846279315789356241132784659564192837297835164453961728618427593
650000009087410000203007008100805306700000020068009040000040012539200700020000605,654382179987416253213957468142875396795634821368129547876543912539261784421798635
100042803000610900057803006010200000020759080040060097065030001800000540000900060,196542873384617952257893416719284635623759184548361297965438721832176549471925368
000102050013400806926005010001540098600030500700098300008900600005007200400800079,847162953513479826926385417231546798689731542754298361178924635395617284462853179
300200001070000980492007006030060810009005403065840000500409600086021070200000030,358296741671534982492187356734962815829715463165843297513479628986321574247658139
007000000580490302000163800725000009906800004000051000842700090100630070000009015,367528941581497362294163857725346189916872534438951726842715693159634278673289415
000635907700000000060008004012970056005081030804000001030006105000000098900412600,421635987783149562569728314312974856675281439894563721237896145146357298958412673
800060000900705806030400900002001030000900507719600000045000020007080160680120405,874269351921735846536418972452871639368942517719653284145396728297584163683127495
800000204003070500010326800650002780000005002407980010301500000702040309900008006,876159234293874561514326897659412783138765942427983615361597428782641359945238176
008401000740090080200003900500000400030200071020007030802500090014300052900860107,398421765741695283265783914587136429439258671126947538872514396614379852953862147
400500609003070000208300410040053700000740302076901008800010206560008000000095100,417582639693174825258369417942853761185746392376921548839417256561238974724695183
086700020000500003045001009600003050700850401098142000900060840007090105032000007,186739524279584613345621789614973258723856491598142376951367842467298135832415967
008006350910080000000007200009540082600070040052000130100600794290100000806003500,728416359913285476564937218379541682681372945452869137135628794297154863846793521
090000150006082090420300000053006000900710000000049870805031900040060001000007628,398674152576182394421395786753826419984713265612549873865231947247968531139457628
630540020921000700000100080100093450007806030009002001854900060000000800700200093,638547129921368745475129386162793458547816932389452671854931267293675814716284593
340967000507030000010800200200008739000103046000090080090000617103500008028400090,342967851587231964916854273251648739879123546634795182495382617163579428728416395
306900000005702300000003928000104050009030700010290006800007490503008002740060105,326981547985742361174653928638174259259836714417295836861527493593418672742369185
007004000203000804000095602000400200410006305809003010008700100046801003300602590,657284931293167854184395672735418269412976385869523417528739146946851723371642598
002080000073129004104300007030000076290500000001968050000004025050800109009710043,962487531573129684184356297835241976296573418741968352318694725457832169629715843
507000040109580006030014009806905003210006080000040027360008000005002304000073001,527369148149587236638214579876925413214736985953841627361458792785192364492673851
700001504380000027420809006900100030006325098000086100503400001090002000800060470,769231584381654927425879316958147632146325798237986145573498261694712853812563479
050020300987003201001400600000090000023000084000872100304008560008937002000500007,456721398987653241231489675815394726723165984649872153374218569568937412192546837
086007430704000210100080000200051006000904700003760901090845000050000380400602079,986217435734596218125483697279351846861924753543768921397845162652179384418632579
008379020000400809006000100057820004100007000903004076030000500020568003004001082,418379625275416839396285147657823914142697358983154276839742561721568493564931782
200987031060001820009000504000670090030000250100003407084032005390400060002160008,245987631763541829819326574428675193937814256156293487684732915391458762572169348
060010700293600140000000063700009020000020009005840070600170058810050200070408900,468315792293687145157294863781569324346721589925843671639172458814956237572438916
000628001090400050300051074200006007800073090560010403006090005002000180043100002,475628931691437258328951674239546817814273596567819423186792345752364189943185762
605702008810600000090080103009247001082009504006000300040000730700130045000500002,635712498814693257297485163359247681182369574476851329541928736728136945963574812
000103004001950080080004020370500040042000105000008006008020600610007003025060070,297183564461952387583674921376519842842736195159248736738425619614897253925361478
604000210030008500700203900000850000095607000062010040300090002507400006006030178,684975213239148567751263984173854629495627831862319745318796452527481396946532178
060007023500490000031600000007940060000005072306001908400700180619500000080020045,964817523572493816831652794257948361198365472346271958425736189619584237783129645
059024600840690000701030000000000056010089204070100000005060002000800300023005910,359724681842691537761538429938247156516389274274156893185963742497812365623475918
200500809004003070081700306037010050402000000960082100058600012300090400000050760,273561849694823571581749326837916254412375698965482137758634912326197485149258763
080040019001008307320000540294037800650209001000000700940003076500910000800024000,785342619461598327329671548294137865657289431138465792942853176573916284816724953
000109080200360090500000306040000210030605040809700005002008709006214000358070004,763159482284367591591482376645893217137625948829741635412538769976214853358976124
701302400000065080030004019300800190060003500400970062015400927007009005800020040,781392456924165783536784219372856194169243578458971362615438927247619835893527641
830000120020867009060000005300000504008904000096203780009082403100490260005700000,837549126521867349964321875312678594758914632496253781679182453183495267245736918
800704009014020700000390006470601800300800600090045001080000013205000000006057002,863714259914526738527398146472631895351879624698245371789462513245183967136957482
700000092001090050030087004600409000100700506002350018006502400049060021080000030,764135892821694357935287164658419273193728546472356918316572489549863721287941635
507090640800401093004306520200538009000900006001024307000000800450000000620080130,537892641862451793194376528276538419345917286981624357713249865458163972629785134
900007310006800002700010050010003028604050900030400670401300009070009503000268040,948527316156834792723916854517693428684752931239481675461375289872149563395268147
008170060400800200090003004200006840300045009001900350070030690002008700015290000,528174963463859271197623584259316847386745129741982356874531692932468715615297438
210089060040002830009000107703000040000860050100004702006750003570010006800400200,217389564645172839389645127753921648492867351168534792926758413574213986831496275
076000980090008043000012600000056004302090000050403701007000800020300070564007200,176534982295678143483912657719856324342791568658423791937245816821369475564187239
009830607000520080004090500800749050600003401703000000267000109001000800900410032,529834617376521984184697523812749356695283471743165298267358149431972865958416732
000000300070050040524609800090068020308007150007910460100306000705204080080100900,816742395973851246524639817491568723368427159257913468149386572735294681682175934
304067000000953060700200005009081000403700010570040026920005007000008002640100930,354867291812953764796214385269581473483726519571349826928635147137498652645172938
308649000000005301092070800473010080020000679006000000000580042057100000801003006,318649527764825391592371864473916285125438679986752413639587142257164938841293756
031000084004800007000002630007036019006200000543090700700320801000005900089041560,631957284254863197978412635827536419196274358543198726765329841412685973389741562
307064000090007063005800009008470620050009100120005087003090001200006508400012070,317964852892157463645823719938471625756289134124635987563798241271346598489512376
906020000050103400241600009010080000005402730080906002063040980800700504570000010,936524871758193426241678359412387695695412738387956142163245987829731564574869213
902605070000032901600807400870000000009300000060100852580943000000080604001020003,942615378758432961613897425875264139129358746364179852586943217237581694491726583
