020080000067000098903006574510078060038500000700000020004863100050900002000010439,425789316167354298983126574512478963638592741749631825294863157351947682876215439
008005040306704290002308100090100005000506970070000024200400007000080010185602030,918265743356714298742398156694127385823546971571839624239451867467983512185672439
097000020001004800600200570004603000800051003060070080150008700709520300203100460,497835126521764839638219574914683257872951643365472981156348792749526318283197465
006209015104006000500800020907504280010037006000000390068000000790003004250010760,386279415124356978579841623937564281812937546645182397468795132791623854253418769
040070306035000000802051490900803062006007810300020009057604000000090284000100070,149278356735469128862351497974813562526947813381526749257684931613795284498132675
002001306080000900900730400300070020190840005056903000704050060600184790000600001,572491386483265917961738452348576129197842635256913874714359268625184793839627541
500600800001930070600000012004010000080002050200867300730100084009008500100049026,547621893821934675693785412974513268386492157215867349732156984469278531158349726
084001020930600000600090030013908200065300870000520010000050000052070104090040067,584731926937682451621495738713968245265314879849527613476159382352876194198243567
200350000706200900590000048002400000080000016060187400071903020930705600000014003,248359167716248935593671248152436879487592316369187452871963524934725681625814793
209004005050130708781000000000590076010600040008010000900082060004760003063900250,239874615456139728781256394342598176517623849698417532975382461124765983863941257
730026805000000906060309000008103500540000001090800247600900000081750004027084003,739426815412578936865319472278143569546297381193865247654931728381752694927684153
703018200100506380000002006004600009506070010900054028305001070800020004070090830,763918245129546387458732196214683759586279413937154628345861972891327564672495831
480070560503100002060430008700019050030000104009360020905008000012700009006090780,481972563593186472267435918724819356638527194159364827975648231812753649346291785
027140900040900378608350001050030007000069000834002500560000002000001009200070410,327148965145926378698357241956834127712569834834712596561493782473281659289675413
070901308308500000109080704005019000040006507810050030000600000056340900700028060,574961328328574196169283754635719842942836517817452639481695273256347981793128465
060000500307605010801900020090010600085007040002068030034702000500000780100450390,269841573347625819851973426793214658685397241412568937934782165526139784178456392
041030607906002015005008930070023400500800000003079006400201008380600009000000750,841935627936742815725168934678523491594816273213479586457291368382657149169384752
040010506870002090030005074068009003300000140050700000010083020706040008900206005,249317586875462391631895274468129753397658142152734869514983627726541938983276415
376200050010040890000500023009027040280100000130006000820709300090805760003400500,376298451512643897948571623659327148287154936134986275825769314491835762763412589
309108207560320000000000000620400108105030704700200030008049500007500961000000042,349168257561327489872954316623475198195836724784291635218649573437582961956713842
072004003003010680040580790080030076100700500000609018200040000407190035095000020,872964153953217684641583792589431276136728549724659318218345967467192835395876421
901500006800904000037060090406308020000001430200005007008009341050200760370000800,941537286862914573537862194416378925795621438283495617628759341154283769379146852
059002080100000300764800020030049500010050807200706000000004709401090006090310000,359472681128965374764831925837149562916253847245786193583624719471598236692317458
023000900040702015007080000670000000001469008008010023300004589580300006009200400,823145967946732815157986342675823194231469758498517623312674589584391276769258431
070005340003290000100007080098400710000950060036002008050600904067034500001000070,679185342483296157125347689298463715714958263536712498852671934967834521341529876
308006400170028000500100302001470020006003109087009040040090750800000206090560000,328956417174328965569147382931475628456283179287619543643892751815734296792561834
005000260008740010019000807000050000600109032030200479000904006002016300800007095,375891264268745913419632857927453681684179532531268479153984726792516348846327195
006480000075002040000000603308600007064100520020947000982003060000800100010006350,136489275875362941249751683398625417764138529521947836982513764653874192417296358
002070010308009040704050820070800500649030000000041030250100003030726000000090160,592478316368219745714653829173862594649537281825941637256184973931726458487395162
075092000109038004304600000001009580000060070060801209800020100003004620540070003,675492318129538764384617952231749586958263471467851239896325147713984625542176893
957030046010500000300001070006904300005007028000250790160020800078000405003060000,957832146614579283382641579726984351495317628831256794169425837278193465543768912
000004316080300000004097005070201009503700000600008400002073950109060807005100032,957824316286315794314697285478231569593746128621958473862473951139562847745189632
300078029984000700000046000609000084000002003730100560010069000802405001000020035,361578429984213756257946318629357184145682973738194562513869247872435691496721835
000160020100079800059004006800050260030000058007002001704630910200700005000098340,478163529126579834359824176841957263932416758567382491784635912293741685615298347
091060000325008400070500081003205900480030200000017000500300760700084059000702840,891463527325178496674529381163245978487936215259817634548391762732684159916752843
052074000009050700408230000000605830200090007031002405700040006090800100804061509,152974368369158724478236951947615832285493617631782495713549286596827143824361579
608000027070000594000039000050000102080050036930160800007805060004920010010004003,698541327173286594245739681456398172781452936932167845327815469564923718819674253
056003902700600040090015800301042680060007000405800003008900025002360407900000100,156483972783629541294715836371542689869137254425896713648971325512368497937254168
208100000947030000650009740024800300000000860010072059000460280700050600003008015,238147596947635128651289743524896371379514862816372459195463287782951634463728915
073090008006010029040083160030070502012608043005004000000001005000042790968030000,173296458586417329249583167634179582712658943895324671427961835351842796968735214
060200090001600800870134000900486200300009107025010040490700000006000510002003084,563278491241695873879134652917486235384529167625317948498751326736842519152963784
024060900730108006500709080200036001018000300000000240107004090086902100040050030,824563917739148526561729483295436871418297365673815249157384692386972154942651738
000003060000807290084200005001000000920075006478900010012704009000051003760090084,297513468536847291184269375651428937923175846478936512312784659849651723765392184
002000689460300000005700000900105007006000403503042000027060800309080740008950301,732514689461398572895726134984135267216879453573642918127463895359281746648957321
000010002435900000001360045006005900720100004800003060504087030310009080007000026,678514392435972618291368745146825973723196854859743261564287139312659487987431526
670508900500073800002040000900004180060300020030050706450100000087029004001000670,673518942549273861812946357925764183768391425134852796456187239387629514291435678
006003070010020005040090602004800020000005003975010060700038940000156800300079001,296583174817624395543791682134867529682945713975312468751238946429156837368479251
002907400000038010617000000079000200180200065000143080001000509090026000403500078,832917456945638712617452893379865241184279365256143987761384529598726134423591678
000000000584700900009200780820900430103004005407018000370000046000506020060001507,732189654584763912619245783826957431193624875457318269375892146941576328268431597
205600010016500040000002080809270000504000320000800609400735200001009007032006405,285647913316598742947312586869273154574961328123854679498735261651429837732186495
002090460001706050590840120903060510200001900070050806010000000000008703450032000,732195468841726359596843127983467512265381974174259836318674295629518743457932681
005076240040085067300400100700204053206830900008001000004703508001000006000090020,185376249942185367367429185719264853256837914438951672624713598891542736573698421
060005092970043060400008500390874000004020006050000008701300080020000307030960210,863715492975243861412698573396874125184529736257136948741352689629481357538967214
020001903000750006100304000500000094009068010010000208060473005205010300078009400,724681953893752146156394782582137694439268517617945238961473825245816379378529461
010820060000000200604900030001290000590708400073040006700600359000000080002503107,317824965859367214624951738481296573596738421273145896748612359135479682962583147
045100200200000190070008040107360005030050000008290370029400706003900050600030081,345179268286543197971628543197364825432857619568291374829415736713986452654732981
090400801100900076000301405200103680806005000073002100420000308080276009059000000,592467831134958276768321495245193687816745923973682154427519368381276549659834712
076080009500100840002350007010040600007200090423506000308000004050820030060010570,176482359539167842842359167915748623687231495423596781398675214751824936264913578
290640703810900002040007000006801050700000800500302046000409080008006100300105209,295648713817953462643217598426891357739564821581372946172439685958726134364185279
005034000000680123000970000002000090040021070081507006006000504007803010010046039,825134967974685123163972458752468391649321875381597246236719584497853612518246739
009046107215000400040320085006780000528039046000000050063070000800000000090652031,389546127215897463647321985436785219528139746971264358163478592852913674794652831
290008306100067095005400000000002600057000204000530008060074182080900040301020007,294158376138267495675493821813742659957681234426539718569374182782916543341825967
000009040005162007900304510400906000070205300623010800000000090007500236031008005,712859643345162987986374512458936721179285364623417859564723198897541236231698475
000600205900018060087000001040765002063002400005300090000020304008100000701590800,314679285952418763687253941849765132163982457275341698596827314428136579731594826
258000300190002680070003190000089040300720900020640500800000701017508020640030000,258916374193472685476853192561389247384725916729641538835294761917568423642137859
001040680095001007706023000000006039000014260200700004004809152850060090900030000,321947685495681327786523941148256739579314268263798514634879152857162493912435876
300060580041000009756000000039001006000852007207600104000047300460290008103080090,392764581841325679756918243539471826614852937287639154928147365465293718173586492
100000957000060040005900002503800201907050800010230060040096100008014700700308000,136482957279165348485973612563849271927651834814237569342796185698514723751328496
200070609040500038091000200008100050609405700530280410800003060002800007050716004,285371649746592138391648275428167953619435782537289416874923561162854397953716824
000000076200003801760900300300164000001790620050020004402580190089400005005200030,513842976294673851768951342327164589841795623956328714432586197189437265675219438
609800050580002701040350200900000006010007020006034890702400500030060940000013008,629871354583942761147356289974528136318697425256134897762489513831765942495213678
287040950003097004100000000098001020002005401401000786700009000000030060000268530,287146953563897214149352678698471325372685491451923786736519842825734169914268537
809703060400000031057016000000000002003051470786900000004290000105860900900034250,819723564462589731357416829541378692293651478786942315634295187125867943978134256
704560010059800004010030900090070205005003600480002100003006700270000008008410003,734569812659821374812734956396178245125943687487652139543286791271395468968417523
568730009002000540097100008803906200005071800014002030000453900000090650000007002,568734129132869547497125368873946215625371894914582736286453971741298653359617482
900010075020800000000625903500009006072083400001070050800400000704000610050030809,968314275325897164147625983583149726672583491491276358819462537734958612256731849
000040100302001679080207000600480003409015060000000210008039040007000580510020300,795643128342851679186297435671482953429315867853976214268539741937164582514728396
000580049529000730000000106080070000943060500700002014095037600100846000300000072,617583249529614738834729156281475963943168527756392814495237681172846395368951472
000958730023001005009207140060003954015700000000024070090060000180005000000400328,641958732723641895859237146267183954415796283938524671394862517182375469576419328
002430706940100530060002080826009100104025009700040000000003850053006000001700900,512438796948167532367592481826379145134825679795641328679213854453986217281754963
087030900209708005014090000030000518601004020070003006000405360950026004000080001,587631942269748135314592687432967518691854723875213496128475369953126874746389251
890053040006102007702040108000006905000805031900000060607030000040971020500000400,891753642456182397732649158173426985264895731985317264627534819348971526519268473
109400000000090600780100005000007050460009018000240306010035200640012080800900037,159476823234598671786123945391687452462359718578241396917835264643712589825964137
020060071380900040470003800058002003007300490100000260690204100003890500000015006,529468371381957642476123859958642713267381495134579268695234187713896524842715936
000408036705090004008200510400080070306009200020015900983074060001003095060000000,192458736735196824648237519459382671316749258827615943983574162271863495564921387
046002080710034020900507100300400000007050060064901005009805704005016000280000003,546192387718634529923587146352468971197253468864971235639825714475316892281749653
080000901060003520007800000204000080000690407056004090010358700900701605300040002,483265971169473528527819364294537186831692457756184293612358749948721635375946812
940760300203008009000200040060001030090040610070000802008620105506080070000053400,941765328253418769687239541862571934395842617174396852438627195516984273729153486
500900273000250001008004009045700920600040000037001050070100000001837005309060018,564918273793256481218374569145783926682549137937621854876195342421837695359462718
019500302075020000803000010008079004000150096060804700007000460000903105041060028,619587342475321689823496517158679234734152896962834751597218463286943175341765928
000150800500009030642700000008046900000000010957003002260007401019400067300080050,793154826581269734642738195128546973436972518957813642265397481819425367374681259
600000000070150040200800630509607020000002901010340080300400008054090760908031052,645923817873156249291874635589617324436582971712349586327465198154298763968731452
000070085060203090105000070000004859300008107007021600420917000980300060500062004,249176385768253491135489276612734859354698127897521643426917538981345762573862914
000008340015000060400670009904300017700860020260100004006020578090040001307000000,679218345815439762432675189984352617751864923263197854146923578598746231327581496
003000678860003000005040010980204500050007060076018420007630082100052000090000304,413925678869173245725846913981264537254397861376518429547639182138452796692781354
098006004000200805560001097017000040000073000805960003400082900902010300003607050,298756134731249865564831297317528649649173528825964713456382971972415386183697452
300000020265409070170008003000001000600003807094570600050197002081000060003050409,348715926265439178179268543537681294612943857894572631456197382981324765723856419
500006100060008020280040790309170000028009403004000075400900051000301000096020080,547296138963718524281543796359174862728659413614832975432987651875361249196425387
000032098100000304002490100800500060700081030049000070004009506360070019080025000,457132698198756324632498157813547962726981435549263871274319586365874219981625743
750000380000036970000270001010500036602008040090003700008050120400069000100402000,756941382241836975389275461817594236632718549594623718968357124423169857175482693
