205730809000051000000240710800003500000102063041900007003000000106000904904008026,215736849497851632638249715862473591759182463341965287523694178186327954974518326
000210900308005002602340010000004003900860000870539060167000580050901400000007000,745216938318795642692348715526174893934862157871539264167423589253981476489657321
008700040700000920300659000002000600065830170930004005040213800100900000000085390,698721543751348926324659718812597634465832179937164285549213867183976452276485391
000003701005000000600751094001967000060000027080000940900304205820590400300100080,498623751175849362632751894241967538569438127783215946916384275827596413354172689
028900000000004607940305000006000301000206809850030040009000712312080000760000500,628971435135824697947365128296458371473216859851739246589643712312587964764192583
080002500402890007600050001005073400720480003030100068307609020200010090006000000,183762549452891637679354281865973412721486953934125768317649825248517396596238174
040009302000800005000240970469001500305000068120070000007500013080920000030010206,746159382912837645853246971469381527375492168128675439297564813681923754534718296
000058062007000050060149300004380006030200007809070510096010204040002000075830090,913758462487623159562149378754381926631295847829476513396517284148962735275834691
009053080400860900070400300010006000050080032800300014007020059005074060690001007,269753481431862975578419326713246598954187632826395714347628159185974263692531847
240000905001060872700003014603027001008000500000340060514800006020956008000000200,246781935931465872785293614693527481478619523152348769514872396327956148869134257
901000680048000000050034907600920000087016320300500001000105700072000045095208030,931752684748691253256834917614923578587416329329587461863145792172369845495278136
415070308000030047000060509500600801863400000020903004300058900079002100000000020,415279368986531247237864519594627831863415792721983654342158976679342185158796423
000037005052080970009002100003460008087010642090000050078150004016004030300020809,861937425452681973739542186123465798587319642694278351978153264216894537345726819
801004200200300040500016000007000810006805409090030006000020073043060105012700980,831594267269387541574216398357649812126875439498132756985421673743968125612753984
702004060000002800054310000000090510080450607073001004010730050960200008040068090,792584361631972845854316279426897513189453627573621984218739456967245138345168792
370006005600700980204010000000290001089000056040001370803040020005367090017850600,378926415651734982294518763736295841189473256542681379863149527425367198917852634
491003760307020040000000509045007180000610000082050007700100400260809010008032900,491583762357926841826741539645297183973618254182354697739165428264879315518432976
000059470050060030198000002030904050005001248002700100003007610600040000247300900,326859471754162839198473562831924756975631248462785193583297614619548327247316985
008000010060470009572609003600380500001040800030005960300700640904001000700500002,498253716163478259572619483649387521251946837837125964315792648924861375786534192
460300800030091000000428010500800002608000071073904600140006093007000205020703000,461375829832691547759428316514867932698532471273914658145286793387149265926753184
070080610050107300038006004091850003000060020005004070680400200024000051000093806,472389615956147382138526794791852463843761529265934178689415237324678951517293846
382000000070050400605907001000000800500003046014006039728035000001600023030740100,382461975179358462645927381263594817597813246814276539728135694451689723936742158
000430570608010002000800690900675000100003040300140250021000007003760800070029304,219436578658917432734852691942675183185293746367148259521384967493761825876529314
200065090030800040501290070690000700000046100003780002054007000360014850100300006,287465391936871245541293678695132784728546139413789562854627913362914857179358426
620150307087000600000600094405008162700003000800040503000000810300960020091024000,624159387987432651153687294435798162762513948819246573246375819378961425591824736
706200050000910027000053800090087043830000060001004000200601098003420001065000200,716248359358916427429753816692587143834192765571364982247631598983425671165879234
100974500958006070030080001007300965006210000480000003009020000600050280003600704,162974538958136472734582691217348965396215847485769123549827316671453289823691754
796008200200610309010000080420500807300040001071300040950700002000094050080200400,796438215248615379513972684429561837365847921871329546954783162632194758187256493
003000096040830500057000100000146002000090804090700065625004000370605208100370000,813257496946831527257469183538146972762593814491728365625984731379615248184372659
301094200007000650020100004050708910000431800006000007890050003600003780002019000,361594278947382651528176394453768912279431865186925437894657123615243789732819546
049001206060000785082030000100002470003080900900050018005700060800403500000096041,549871236361249785782635194158962473673184952924357618415728369896413527237596841
000079302020500400790600001100007540830004906500010003380920000004003080070401000,458179362621538497793642851162397548837254916549816723386925174914763285275481639
280006095401090700050300020900000300040008160008473250000827000004100006190045030,283716495461592783759384621975261348342958167618473259536827914824139576197645832
062300090900000014040508070051027063006004700000053980007400050400815000038060002,762341598985276314143598276851927463396184725274653981617432859429815637538769142
009054003004006780007802000000607104060020070702039508041900000035000601000043902,689754213124396785357812496593687124468521379712439568241965837935278641876143952
108006020007030105500048600003009050040850900010600708000091000029704030670000002,198576324467932185532148679783419256246857913915623748354291867829764531671385492
500603100304070080020009500406800210700090630090301007060000002280040095000705000,579683124314572986628419573436857219751294638892361457165938742287146395943725861
013000005087000392000040760050910400006800157008064009030090008065003000204705000,613279845487651392529348761352917486946832157178564239731496528865123974294785613
007500040964002000350860107030048200405000060800905300610007030000000920000109800,187593642964712583352864197731648259495321768826975314619287435578436921243159876
096804100000090053070520600100400070702003510060002800004005090280160300350000701,596834127821697453473521689138456972742983516965712834614375298287169345359248761
150024090047003010009708020000307200820000003500960041604009750000450000900001086,158624397247593618369718524491387265826145973573962841614839752782456139935271486
000003150200600470300784006186050209700000010000290600010009065045008300070060040,467923158298615473351784926186457239729836514534291687812349765645178392973562841
006004803000210060700003501020807900010030008059160070200905430904700005008000602,196574823345218769782693541423857916617439258859162374261985437934726185578341692
020390510006408930070005000130070840008040600002509070450730008000060301001000090,824397516516428937973615482135276849798143625642589173459731268287964351361852794
890020107643005089000008530520060070009700300000041002300950000002000046974010050,895423167643175289217698534521369478469782315738541692386954721152837946974216853
000907805205000100007080603008040500420001070030609002670108904004000030103520000,346917825285463197917285643768342519429851376531679482672138954854796231193524768
001060000900005302703048000406000050098003400100750006000086027200510004040200908,851362749964175382723948165476891253598623471132754896319486527287519634645237918
003100000000090802658040000010008060005007400329060100700000090940076530001320740,293185674174693852658742319417238965865917423329564187736451298942876531581329746
002801409070630000680400050006007300849000105057010820400300007000000900123059008,532871469974635281681492753216587394849263175357914826498326517765148932123759648
930050100006937050007028000015004608000600071408000592820540000070000320300700049,932456187186937254547128963715294638293685471468371592829543716674819325351762849
040578200060000008000310000407005603003020081090607020500000000019004006270000915,341578269765942138982316457427185693653429781198637524536791842819254376274863915
096000008501700260000801000360005700200000509009320004000134800005900040010502370,796253418581749263423861957368495721247618539159327684672134895835976142914582376
320000000001903476090485001018700050600050047000001920003040800900600010057200300,324176589581923476796485231218794653639852147475361928163547892942638715857219364
009210003600000029001300057400060080073080601080102005390540000007000008002730900,759214863634857129821396457415963782273485691986172345398541276147629538562738914
000001080100025600069370400407010360000504070008060900070000203206090015830400000,723641589184925637569378421457819362692534178318267954975186243246793815831452796
000801203080000074503002109018200500000600420700095300070043006130700800056910000,947861253281359674563472189618234597395687421724195368872543916139726845456918732
206000049030000700070832005064190000908400607007200050040705000000008026850019003,286571349135964782479832165564197238928453617317286954643725891791348526852619473
340580109096007000100200030000000023008000456025900800009840000500020784600371200,342586179896137542157294638761458923938712456425963817279845361513629784684371295
001008207425000080908060004040003690290500000803700000500037100300002748060100002,631948257425371986978265314147823695296514873853796421582437169319652748764189532
090000834025401009080970000600038000000004587010290000072300001054016200003005090,791652834325481769486973125647538912239164587518297346872349651954816273163725498
320019000810000007607000095070008246004020071001500030750930008006002000000460950,325719684819645327647283195573198246984326571261574839752931468496852713138467952
503000800090700046007018200000540601060100020070002930020400000809206500401089700,513624897298735146647918253982543671365197428174862935726451389839276514451389762
002000860875020030096054007740300002060009100050080090930040600001905408000107000,412793865875621934396854217749316582268579143153482796937248651621935478584167329
009750000460008001028030065080200730003100050000009402050070008001594007640002000,319756284465928371728431965184265739293147856576389412952673148831594627647812593
400070080002600300000020461019000008050008796070405200500040009038206070600310000,463571982192684357785923461319762548254138796876495213521847639938256174647319825
030029001061800009000010527040000250025980060800030004010040900783500000000076032,537429681261857349498613527349761258125984763876235194612348975783592416954176832
050600100006002083104059007009300761007005800360020000081000000040597000200004390,852673149796412583134859627529348761417965832368721954981236475643597218275184396
000000905574080620000170380710900003068002009020500740100800002003610500947003000,831426975574389621692175384715948263468732159329561748156897432283614597947253816
900807400300015600780002930810200503603090701002040000405000008060050000097601000,956837412324915687781462935819276543643598721572143896435729168168354279297681354
008070094020085001006900530600100002053000009900006817000009126090308040704050000,518673294329485671476912538687194352153827469942536817835749126291368745764251983
080400005003109740470320008309000000025010006000567090010000609006254301200000850,982476135653189742471325968369842517725913486148567293514738629896254371237691854
807052100000800096010400005301704002600300700908006000700030000020500089003109640,867952134435871296219463875351784962642395718978216453794638521126547389583129647
700836000500100004692000000800020359000070060004360081070005908103007026000080140,741836295538192674692754813867421359319578462254369781476215938183947526925683147
009670000540000708600100020000009003030460000800020910082004605060730890100050207,329678154541293768678145329216589473937461582854327916782914635465732891193856247
070020036600400000032508000000000050840007009207950310003006905090800401008201070,574129836681473592932568147319682754845317269267954318123746985796835421458291673
501093204030050080000000007000001020205840000070600100003507600400002003869100700,581793264732456981946218537698371425215849376374625198123587649457962813869134752
000002003003600409470009810150300670080071540200000000000408260600010000894005100,968142753513687429472539816159324678386971542247856391731498265625713984894265137
700000200062971000090380605000500342050460080001003007006024900905800014307000800,738645291562971438194382675679518342253467189481293567816724953925836714347159826
005042100004100980190506003720060094000018076058000020040809002000403000970050000,385942167264137985197586243721365894439218576658794321543879612816423759972651438
000620010003009487154000000305000070870040021000306004010003290092580036000700005,789624513263159487154837962345218679876945321921376854517463298492581736638792145
600001000400300028100258900030000040000673050896020000708590210001700005020034086,682941537459367128173258964537819642214673859896425371748596213361782495925134786
200000589500034160000009200050608004907300010030105906300006002804020070600010390,243761589589234167716859243152698734967342815438175926371986452894523671625417398
810000030035002960907040500000580020020604091073001000004105000000003104200079086,812956437435712968967348512149587623528634791673291845384165279796823154251479386
900080506500900472010002000020000180104006305090370000200735900683004000000068040,932487516568913472417652839326549187174826395895371624241735968683294751759168243
000007400060805029049200007016400090002000030873510600000002000730080005900036184,258397416167845329349261857516423798492678531873519642684152973731984265925736184
390200006000030150064907008050802064600500720007000000010480500930100000205009380,391258476872634159564917238153872964689541723427396815716483592938125647245769381
003070051542600000709000306000700802270004000600031900008302107000850003400096020,863479251542613789719528346394765812271984635685231974958342167126857493437196528
030010790057830200400002000070006300090450010806300009000000071740600003028901504,632514798157839246489762135574196382293458617816327459965243871741685923328971564
010005020007802040060004070000950000041008305903000602806400701500006000024037800,418675923397812546265394178682953417741268395953741682836429751579186234124537869
065800000208000940001039600029500000310020008800016070000003457506090003070102800,965841732238765941741239685629578314317924568854316279192683457586497123473152896
010009407003600050405000002030715600860000000040306279000500003900001520002407086,618259437723648951495173862239715648867924315541386279184562793976831524352497186
000917600009000210300086000890030170740002305500400008020008400470100050000350090,254917683689543217317286549892635174741892365536471928925768431473129856168354792
200070108010080603090300400030560902970000500000032001400210007008054000700006050,243675198517489623896321475134567982972148536685932741459213867368754219721896354
006000020704300005030049081160050000500084200007003018042006097009008004600007030,916875423784321965235649781168752349593184276427963518842536197379218654651497832
005020009300090840820760000006400980400053010510000300000689037600001500004007201,145328679367195842829764153736412985492853716518976324251689437673241598984537261
872003010000005000001000076003509004400672900056130008040000081080400530207800600,872963415364715892591248376723589164418672953956134728645397281189426537237851649
040000580760005003100209006039100050058000740000086029300600207017020060800410900,943761582762845193185239476239174658658392741471586329394658217517923864826417935
000176024003020900001000865900700000042900080308014050207600000100430006090502710,859176324463825971721349865916758432542963187378214659237691548185437296694582713
604080105300609040008050003702000430006005890900700002401027600009003020800040001,694382175315679248278451963752198436146235897983764512431527689569813724827946351
300080902000107046500002000087040300001000007020605800000406790068009405209058031,316584972892137546574962183687241359451893267923675814135426798768319425249758631
