031006500600090070080041030410780000003012009800350600069000001740008902020000743,231876594654293178987541236416789325573612489892354617369427851745138962128965743
907600300010000000028003709546807001000400690170002500003020008085001003060900420,957684312314279856628153749546897231832415697179362584493526178285741963761938425
000040000700030609692500041005002917361000084200008000030970105054806003000100060,513649872748231659692587341485362917361795284279418536836974125154826793927153468
090702600060490102008000705000580400009000001730261000003105806100030507420006009,391752684567498132248613795612589473859347261734261958973125846186934527425876319
790000800026050300030914702000093001080600250603070040400502000061037009008060000,794326815126758394835914762542893671987641253613275948479582136261437589358169427
004005000600300018057002009080020093260500100900640050710009400300700280020001060,834915726692374518157862349485127693263598174971643852716289435349756281528431967
452100700081090460900200080600500020003807000040030500090760301068003004005020090,452186739781395462936274185617549823523817946849632517294768351168953274375421698
090170650408002900075009000000047060800005210200680003000098500034700000600000742,392174658468352971175869324913247865846935217257681493721498536534726189689513742
040003296010407003020090000890000020560009001004205780003806002600050300080100507,748513296916427853325698174897341625562789431134265789453876912671952348289134567
020350800090408030600090007380920000007800001900004005006003102250010400140007603,724356819591478236638192547385921764467835921912764385876543192253619478149287653
020045073005007102003080060580010900000020000000609028030100057690803004001400080,126945873845367192973281465582714936369528741714639528438192657697853214251476389
070059610508006020400300009030807200009130070047020031010048560200000000900001004,372459618598716423461382759135897246629134875847625931713948562284563197956271384
002018300006309200050006709000600090000780630304102850009045008700000000125000004,972518346416379285853426719287653491591784632364192857639245178748961523125837964
600070008015600327004003900000527010800304065203060000009000480500100002160400039,632975148915648327784213956496527813871394265253861794329756481548139672167482539
800630702094000053000900600000020010910076040705009008007400006500000020062500809,851634792694287153273951684346825917918376245725149368187492536539768421462513879
700038025004002300000100690008497500402000000070506180900000046005380000281070000,716938425594762318823145697168497532452813769379526184937251846645389271281674953
007804610503001000800060900320000580000009400071006002046700200980402003000050109,297834615563971824814265937329147586658329471471586392146793258985412763732658149
619004000005670080800005930020087401000042050000100270502006008300400095007300640,619834527235679184874215936923587461761942853458163279542796318386421795197358642
600000003009450100080379060100600300007000204940020008402098000370201009800004501,654812973739456182281379465128645397567983214943127658412598736375261849896734521
180047905930000010006050200500090002000000078074603000200860039413900000600400120,182347965935286714746159283561798342329514678874623591257861439413972856698435127
245001080076000509080370600000409030027050001000607200009030002130082005050000840,245961387376248519981375624518429736627853491493617258869534172134782965752196843
271006000000000918005043700710009003090800040020430501300560829000720405800000000,271986354436275918985143762714659283593812647628437591347561829169728435852394176
006098200000700048040000603010036590209500000800010007002009156037004000005281030,376498215521763948948125673714836592269547381853912467482379156137654829695281734
000407000100029037560080400806010000470000250021090840003006010000803920708000500,932467185184529637567381492856214379479638251321795846243956718615873924798142563
900405700004203006620010080050300602007950100060007900070092003400008010100600809,983465721714283596625719384859341672247956138361827945578192463496538217132674859
001200000080095062000304009017800000092001053405700800000030605304000927020406080,941267538783195462256384179617853294892641753435729816178932645364518927529476381
050030810080900004106070030200706080007040009310085000090004500500320060000060102,954632817783951624126478935245796381867143259319285746692814573571329468438567192
001806003002945000460000007000059706080603900000002014009100230107020600500300008,951876423372945861468231597213459786784613952695782314849167235137528649526394178
030010758014500000006320004091407820000000107080250690053800000902000001700060230,239614758814579362576328914691437825325986147487251693153892476962743581748165239
401800020902000610080002079004060207000059061130070005800006054000103800249700000,461897523972534618385612479594361287728459361136278945813926754657143892249785136
067009850005010402034650071040570080010300009080002100359400600000000700600800230,167249853895713462234658971942571386716384529583962147359427618428136795671895234
002600700710803005480090000030001508608200170200005604100970006000030409560012030,392654781716823945485197362934761528658249173271385694143978256827536419569412837
087000063530090800200700915004205070009007106100060080600104050000530402020008000,987451263531692847246783915864215379359847126172369584693124758718536492425978631
040090086203000907100600045350002008807000000000910070908705460004000832002043000,745291386263584917189637245351472698897356124426918573938725461574169832612843759
600039500001002000080500634019360008200407005040100370005000786000704910020080000,674839521351642897982571634719365248238497165546128379495213786863754912127986453
003160750706000100204090008000720480580030000040009263000900302000080007905074010,893162754756348129214597638369721485582436971147859263678915342421683597935274816
380900160670050024000000850100000000004068309003270600500324000002107090810095400,385942167671853924249716853168439275724568319953271648596324781432187596817695432
906100457080000010200000009003408600070501900100720800007004023058006004400930700,936182457785349216241657389523498671874561932169723845697814523358276194412935768
100205080000900204036700009068000590000040306000500020001020000803409607570031800,194265783785913264236784159468372591952148376317596428641827935823459617579631842
480030000020500080736001904300050609800400205107000000004100003000006590010209806,485937162921564387736821954342758619869413275157692438694185723278346591513279846
030080700800720049401006500526040080100200030000095000014000200780600190009003067,932584716865721349471936528526347981197268435348195672614879253783652194259413867
580002000001500270003604095300009104800375000060040008002080017706003409090000360,589732641641598273273614895327869154814375926965241738432986517756123489198457362
090040010400800006852001093004067032020000100000003508510400700003095080006720000,697342815431859276852671493184567932325984167769213548518436729273195684946728351
300761004800000600007403020009020078706500000040300560020007001190004052000200090,352761984814952637967483125539126478786549213241378569625897341198634752473215896
000500600901060308805300002003084900408006007600902001000000070200070546034010029,372598614941267358865341792123784965498156237657932481586429173219873546734615829
400030600000520401817040000000100005736908002541002007000700030608000950002496000,425831679963527481817649523289174365736958142541362897194785236678213954352496718
000100500903005001400020089020900030050083064081070000036040200000030700000608095,862194573973865421415327689624951837759283164381476952536749218198532746247618395
013600009054800030006007801000030500000720600325106040908070000001400002000509780,813652479754891236296347851167934528489725613325186947948273165571468392632519784
030700000408500002100000980074095008090200050020384070015060000000420390200003107,932718546468539712157642983674195238893276451521384679315967824786421395249853167
007002046042100350803900100600070090008634000405000800020703609000009501050010027,517382946942167358863945172631578294298634715475291863124753689786429531359816427
005206000180003076900040032300709608004010023020300100003000019700600804048051000,435276981182593476976148532351729648694815723827364195563487219719632854248951367
100000459420090068005600001006000000704001025200037800000310090097408300051072000,168723459423195768975684231586249173734861925219537846842316597697458312351972684
080003500650001074300600100102000430500060000008710002400280093070009000890450060,781943526659821374324675189162598437547362918938714652415286793276139845893457261
350000010000130600060240098005072041200800000180056900007980050006004702018007030,359768214842139675761245398695372841274891563183456927427983156936514782518627439
005006000037500169021008004900210030080000400006000790040020008100390002760804903,495136287837542169621978354974215836583769421216483795349621578158397642762854913
008000000730010094060040280000700003059086070102903000003090840800200010546170009,428569731735812694961347285684721953359486172172953468213695847897234516546178329
501003607040001082970000530007600000000000014409200800680024705002039400000056003,521983647346571982978462531217648359865397214439215876683124795152739468794856123
100090080080075930020000500006700005009081006701204003400600000000023401007058260,175392684684175932923846517846739125239581746751264893492617358568923471317458269
700450010605017043020000080200506800103000002080001970000300500000078090006090327,738452619695817243421963785279546831163789452584231976917324568352678194846195327
024073086309040050810206009000781500005000730090030002000067000280000000470005901,524973186369148257817256349632781594145692738798534612951467823286319475473825961
300001820090000605050490700006005090080020031207030080009007000060102004041600052,374561829198273645652498713436815297985726431217934586529347168863152974741689352
300160405100047003089002006020073064000250010805000900060000801594000700010324000,372168495156947283489532176921873564647259318835416927263795841594681732718324659
004207300270050000810003000000905082080376940406010050301000590020000007009630408,964287315273159864815463279137945682582376941496812753341728596628594137759631428
400901006006024051000730820980100002500000693070000105010307000895000040300040008,428951736736824951159736824983165472541278693672493185214387569895612347367549218
400010590000020070007900406600000043090057010070403209130540000000389020052600800,483716592569824371217935486625198743394257618871463259138542967746389125952671834
000000607075300000602510090920400100031050780000930406008140903090080042050200000,319824657875369214642517398926478135431652789587931426268145973193786542754293861
070093002420800010500000430800610300900004028060005740100200509004067100050039000,671493852423856917589721436847612395915374628362985741136248579294567183758139264
369010800020480007000000032093001720006809450004760009010028000400000500007950013,369217845521483967748695132893541726276839451154762389915328674432176598687954213
070025900308000004000900018700419050603000070000006482904580030100000000056074200,471825963398167524265943718782419356643258179519736482924581637137692845856374291
200000800008501000301074060809000600040300070120058090600700250700430000903006410,275963841468521739391874562839147625546392178127658394684719253712435986953286417
870200300405706002903000040604800109001060050000050208009142500008900003500003071,876294315415736892923518647654827139281369754397451268739142586168975423542683971
502008400603010029000006007430000500109200000006794008005170900000080013820340600,572938461643517829918426357437861592189253746256794138365172984794685213821349675
053407200900083060814000050005930120000070390060000805002000000078061040400290007,653417289927583461814629753785936124241875396369142875192754638578361942436298517
890400050006000700020053100019060000400701000500830240070006083030280009140005070,891472356356918724724653198219564837483721965567839241972146583635287419148395672
100009006405000820903806010008900000070010032209460780500000400006385091002070003,187259346465731829923846517358927164674518932219463785531692478746385291892174653
400870510009000008013945020000090352300700000086001700730200086051006070000000040,462873519579162438813945627147698352395724861286531794734259186951486273628317945
013000050020016000600400930006002097000074500340850000004980020709000008032500610,413798256925316874678425931586132497291674583347859162164983725759261348832547619
009600075706002001450810090120400050000070900007538040002300600904000083000760004,219643875786952431453817296128496357345271968697538142572384619964125783831769524
057401300094206000010090720001003209009060008580004003006500000020007185800030002,257481396394276851618395724761853249439762518582914673146528937923647185875139462
300098000059001200047003060000035106108207030060000820902076058010000079006400000,321698745659741283847523961274835196198267534563914827932176458415382679786459312
010900400700800250059060080048300905093004060600000000307009048060720003005010007,812935476736841259459267381248376915593184762671592834327659148164728593985413627
052080700000006001060190400093007805800042300040900060005400603708000100004053002,152384796489726531367195428293617845876542319541938267925471683738269154614853972
090068051501000048403200000002040600900030075074010890608503100020906730000000000,297468351561397248483251967852749613916832475374615892648573129125986734739124586
900823000504900078002504006090016040206350910700000800870040009400007100050200030,967823451534961278182574396398716542246358917715492863873145629429637185651289734
520703068008010900709600000650409000802570006001002300003006014070080000490000050,524793168368215947719648532657439281832571496941862375283956714175384629496127853
050007040207040091100209000030060000940803070000500080076090003803010064001002857,359187642287346591164259738738961425945823176612574389576498213823715964491632857
000000001094502030700069000003007045500190806106040000050071904000300200602080700,265738491894512637731469582983627145547193826126845379358271964479356218612984753
000120450490800600100060003000900027080005000903640080000030042527001000060087509,736129458492853671158764293645918327281375964973642185819536742527491836364287519
006000904008207000053069002500002407000100060902056100610000570075030809080400021,726513984198247356453869712561382497837194265942756138614928573275631849389475621
000760000008910050063020800209006107850007900030800004000400090600109045020005308,592768431478913652163524879249356187851247963736891524315482796687139245924675318
009000217000000008120350906000400090052708160010020003700016009304800000060900075,539684217647192358128357946873461592952738164416529783785216439394875621261943875
005028600000017000007000095910003780030240060000001004020005800600300259800000347,145928673396517428287436195914653782738249561562871934423795816671384259859162347
009470050000600201306080009078032064240100907000000000417500000030090516060008702,129473658784659231356281479578932164243165987691847325417526893832794516965318742
200150003490200070038060090700040001020000308500093620070901500006004800050300019,267159483495238176138467295783642951629715348541893627372981564916574832854326719
000700062690000000030000408502097003109062007003010000706025084000106095080073010,458731962697248531231659478562897143149362857873514629716925384324186795985473216
002008000007910058309064200600290083000057419001000000070800030020006040054300107,512738694467912358389564271645291783238657419791483526176845932923176845854329167
890003206000060007170900000600017408003005100400800003000704050260100804305620090,894573216532461987176982345659317428783245169421896573918734652267159834345628791
026004900170003258050100000402001680500698000000000379809402001000000000003070546,326584917174963258958127463492731685537698124681245379869452731745316892213879546
204000900090170003700008016503090000060803000029010045007030062086009000340006007,214365978698172453735948216573294681461853729829617345957431862186729534342586197
003005200760040300200003975400790000109000086000518020030460090001050003048209100,893175264765942318214683975482796531159324786376518429537461892921857643648239157
