800109500070005009100480000060040083085030600700020405603790100200006047090800002,826179534374265819159483276962541783485937621731628495643792158218356947597814362
039070160200300047008100500000540700071028009050090008020905600400000030890010070,539874162216359847748162593982543716371628459654791328127935684465287931893416275
027500081009026005000803200670904000401002060005010700000005007082090400560080039,327549681849126375156873294678934512431752968295618743913465827782391456564287139
590802000000367000002901400030500090847003006006010072060004207104020600705000008,593842761418367925672951483231576894847293516956418372369184257184725639725639148
700000409040712000250030000005070360480500700000400058090060840003201605100009007,731685429649712583258934176925178364486593712317426958592367841873241695164859237
900340017086500003074000960090600340200801050003000702030090200001400008500702000,952346817186579423374218965895627341247831659613954782438195276721463598569782134
040018930050000208002900007700006090905004306003500001000720003801609700006305040,647218935359467218182953467728136594915874326463592871594721683831649752276385149
200050007060138025001004003009500600780046001100302090005000000004870509803290010,238659147467138925591724863349517682782946351156382794915463278624871539873295416
000401090708060000200300850000804020305000701902003065100607040450200019009000302,536481297798562134214379856671854923345926781982713465123697548457238619869145372
003020000000086027407100608500439000300000902800670150750900000001850304004000870,683724519195386427427195638512439786376518942849672153758943261261857394934261875
908300100500060243002571600300748000007010405090003008010600500029080070040002090,968324157571869243432571689356748912287916435194253768813697524629485371745132896
080000090004810200509000407030128004006507320800460900070000600052300710001004005,283745196764819253519632487937128564146597328825463971378951642452386719691274835
380260070000080130000904005000000706091800000020375810050000000860009420470013000,385261974946587132217934685538192746791846253624375819159428367863759421472613598
093000600208407100000306008700010590904050003100000280050170400040900000800260007,493581672268497135571326948726813594984652713135749286352178469647935821819264357
039000816008000520200000003003090458090078000020541300180069000005102607000007940,439725816678913524251684793713296458594378162826541379187469235945132687362857941
016720900820600100054000030940050000000000468030017090007080005003000840000269071,316725984829643157754198236942856713571932468638417592197384625263571849485269371
000079006408000000000080235500000010897050004301926500070095000602403087900200103,235179846468532791719684235526748319897351624341926578173895462652413987984267153
017809600630004000040010029590000300020098100000023050001700006408005070070680035,217859643639274518845316729594167382723598164186423957351742896468935271972681435
401250890059060030000830100003908701270000060000006402590710000060004073080000504,431257896859461237726839145643928751278145369915376482594713628162584973387692514
001000023305000090090520071000080002086000000034009760079230400040810005850906010,761498523325761894498523671917684352586372149234159768179235486642817935853946217
104008090067502000002090070098005037600300000700004219010400003000830054305007068,134768592967542381582193476498215637621379845753684219819456723276831954345927168
008000050097410006300602009700890000004000801000103920502004000010070035680900072,168739254297415386345682719721896543934527861856143927572364198419278635683951472
004000980300851000702906003900200760000000549400007000008370010601025000003108420,154732986369851274782946153935284761827613549416597832248379615671425398593168427
005700603109000000702168009301870400540006200028030700000000000006094085000081360,485729613169543872732168549391872456547916238628435791813657924276394185954281367
000010568086075200000000090920080000104700030007006000210064750403009600050200014,792413568386975241541628397925381476164792835837546129219864753473159682658237914
040071630000806050570092000003050264000010300900000078067400080030000906209035010,842571639391846752576392841713958264628714395954263178167429583435187926289635417
830009007007000005090140006009000004685300020014520030200000800000413070450870109,836259417147638295592147386329781654685394721714526938271965843968413572453872169
405002900070060001006500708910003000030680200802900410050714000203000007090005860,485172936379468521126539748917243685534681279862957413658714392243896157791325864
700208045000050906005034070309400002000803050050670480208000000030790610970001030,791268345843157926625934871389415762467823159152679483218346597534792618976581234
050002104007051000930408200180070360000890000270305009064000003790000500300600872,658732194427951638931468257189274365543896721276315489864527913792183546315649872
400670092020001006070403008050040000000008120096307040810900030300000950005100607,481675392523891476679423518158249763734568129296317845817956234362784951945132687
800070430075009020300100080003702904009680000010405073067940001000300600000001240,891276435475839126326154789583712964749683512612495873267948351154327698938561247
091000840000000001200050600020090000009830760604001093800613020007209508010000400,591367842476928351238154679723496185159832764684571293845613927367249518912785436
000941700016020040500006020080039000600108200791400503840000900030200806200050071,328941765916725348574386129482539617653178294791462583845617932137294856269853471
100005086020470000009801500030009100001200768000050940056703010008000430240008050,174395286825476391369821574437689125591234768682157943956743812718562439243918657
601800500800000974059203086080167040005904007020008000094001302000000000070635010,641879523832516974759243186983167245165924837427358691594781362316492758278635419
940010050080200003205604910100407002509063070003000000000786000002100407096002830,947318256681295743235674918168457392529863174473921685314786529852139467796542831
000010600409005020010302080005004200090060035730098410000000800506087003340120007,253819674489675321617342589165734298894261735732598416971453862526987143348126957
640800010000094003870000005030500007210040600000276090090005870050062004401038020,643857912125694783879123465936581247217349658584276391392415876758962134461738529
400060030310000082057108400800204006002050741005006000078025094000090003690007000,489562137316749582257138469831274956962853741745916328178325694524691873693487215
000700300329014000016080050081007400400900027500600809007860000004095082200003510,845726391329514678716389254981237465463958127572641839157862943634195782298473516
005078000409100020060500380236001005000020000070090061050400893090200076703060400,325978614489136527167542389236781945941625738578394261652417893894253176713869452
000001090403602750710940002234005060086030410500000000050094820009170000300006000,862751394493682751715943682234815967986237415571469238157394826629178543348526179
209057000503040609800002100008020005060900240302418070030004000001009083700000501,219657834573841629846392157498726315167935248352418976935184762621579483784263591
400507002698000100000061430170200060005006073000000900030015804026970005001080000,413597682698423157257861439174239568985146273362758941739615824826974315541382796
190050000208603004073800500000900008010020040800060791624070053000000000935004060,196457382258613974473892516567941238319728645842365791624179853781536429935284167
000040073490100000002300601050030000700068304001900068900084050086000092210009007,165842973493176285872395641658431729729568314341927568937284156586713492214659837
407100650020064008005000000090200060000090213008730000601027390980040070042053000,437182659129564738865379421394215867576498213218736945651827394983641572742953186
720300008405609001009701400200000010006092840583000600900060050300004020000150700,721345968435689271869721435294836517176592843583417692917268354358974126642153789
003052060010007508700609400005083109020900000004000653840070000102500970030100006,493852761216347598758619432675483129321965847984721653849276315162538974537194286
010000940800200736506940020000490508000031064270506100098000000000003010450620000,712368945849215736536947821163492578985731264274586193398174652627853419451629387
100600307820000091000907500060040020004082709005000400640009250700354000083001000,159628347827435691436917582968743125314582769275196438641879253792354816583261974
062750030000000960504900000076000150000031084001002000100003507840000006003207010,962758431718324965534916278376489152295631784481572693129863547847195326653247819
008009034300000002079004605090208010045106070200070008000480906006597300053010000,528769134364851792179324685697248513845136279231975468712483956486597321953612847
001065007700000953900008001042000060090470080508019230800020070007006400360100502,431965827786241953925738641142853769693472185578619234819524376257396418364187592
500860020009307016830004000000083700050690081940000000260000045100700932004100070,571869324429357816836214597612483759753692481948571263267938145185746932394125678
507403080920080050060000420090000035180002046006701000800010000003090804201065073,517423689924186357368579421792648135185932746436751298879314562653297814241865973
180003000040050070560010980403020001890000520006107800000240059020706000700900360,189673245342859176567412983473528691891364527256197834638241759925736418714985362
600000080003400710800030045342800090015009600000072300000980070507006009420050001,674521983253498716891637245342865197715349628968172354136984572587216439429753861
300106209920000084650008030280600041009020700167300005003010800040007000700050090,378146259921735684654298137285679341439521768167384925593412876842967513716853492
010290008350070600200000490970014085060030900005700001006005109008300020042001007,614293758359478612287156493973614285861532974425789361736825149198347526542961837
006009008200576003475000200927400100050090030300850000040001762000030840010720009,136249578289576413475318296927463185854192637361857924543981762792635841618724359
500040036207509000084021900000007048000350709609000520010905400800100000002460870,591748236267539184384621957135297648428356719679814523713985462846172395952463871
900806700000341060500090038080105040027003009410000800830020107700600054000007200,943856721278341965561792438389175642627483519415269873836524197792618354154937286
700462000084007000020013500005080001460000920908000003000670190500100604076020085,751462839384597216629813547235789461467351928918246753843675192592138674176924385
700468300090301082400000000000082730065004020000690500002000100803050064600007809,721468395596371482438925617149582736365714928287693541952846173873159264614237859
500908060004020000923140080060010007400267053000504900809000032012650008300800000,571938264684725319923146785265319847498267153137584926859471632712653498346892571
809500000074060090003029170000251064050080200900000003200030000301046005680700041,829517436174368592563429178738251964456983217912674853247135689391846725685792341
065300000400000285108090000006004720070050030030201096089100070000980003017002048,765328419493716285128495367956834721271659834834271596589143672642987153317562948
000065400600800700082009000040500301010604080709010000100702030024080005805031096,937265418651843729482179653248597361513624987769318542196752834324986175875431296
006008070190000024004090600030724005000500006807310090905060000402050183700200000,526438971198675324374192658639724815241589736857316492915863247462957183783241569
300000070645070920090105400000597104064000800900086000050042036080030500007009200,318924675645378921792165483823597164564213897971486352159842736286731549437659218
308152070001300024950006000860210005000004003000905007009000040500080010100630908,348152679671398524952746831867213495295874163413965287789521346536489712124637958
206300809009702010000000730008104900300060045040070106095080000603910007020406500,276341859839752614154698732568124973317869245942573186495287361683915427721436598
780032460036500009000704080590400020200070043000800197040108000003056000029000800,781932465436581279952764381597413628218679543364825197645198732873256914129347856
703200064006300108080040200961000700050094800000070006010037902504080003200105000,793218564426359178185746239961823745357694821842571396618437952574982613239165487
040201000780690000009000503000700950500030026060840700000002304600010007210904080,346251879785693142129487563431726958578139426962845731897562314654318297213974685
020003610070091020800540009080000003309807061006900270708200400490056000605000300,924783615573691824861542739287165943349827561156934278738219456492356187615478392
004000968028450007060009050200000036750020180389001000000002000070180504403760000,534217968928456317167839452241598736756324189389671245815942673672183594493765821
080794060401003008003000590020810040060042000100500907200060080730008051050009400,582794163491653278673281594925817346367942815148536927214365789739428651856179432
800470000000001573002900010600704930090020408150000002000012000067030045009500206,831475629946281573572963814628754931793126458154398762485612397267839145319547286
600010000037008906010000053021580009006009042050700030000003760470600020805420001,649315287537248916218976453321584679786139542954762138192853764473691825865427391
080000370460790200005020048390000064020047001001506009750214000019300082000060000,982451376463798215175623948397182564526947831841536729758214693619375482234869157
900500030005007800804062079007093015046800002100050007000040260368000900020018003,972584136615937824834162579287493615546871392193256487751349268368725941429618753
000014000001005947703800000500006083009000060064021750300602005006090002097400800,925714638681235947743869521572946183139587264864321759318672495456198372297453816
004056000802000096600280100007400005000890302030005700900700860401020007700100504,314956278852371496679284153197432685546897312238615749925743861461528937783169524
004700003890050100710400000305000060080102074040690080006003019200000000900584026,564718293892356147713429658325847961689132574147695382456273819278961435931584726
000509000806704003000160275703040826560000900024001300007002000091000040040307601,172539468856724193439168275713945826568273914924681357687412539391856742245397681
005000800070920030348700000600072400001005082087314090000430006500080071093001000,925143867176928534348756129659872413431695782287314695812437956564289371793561248
090500200007038060650004000500006340000007001180040079829010000000200014030670050,394561287217938465658724193572196348943857621186342579829415736765283914431679852
070403050602080390000190640000206400031000000000000789510008060704905008020030100,179463852642587391385192647897256413431879526256341789513728964764915238928634175
003260081089000600002801340700300004004620500050000070910000408260790030005000027,543269781189473652672851349726315894894627513351948276917532468268794135435186927
000400025000917603000023800400000019800070560070164002904008000620340000005000071,793486125258917643146523897462835719831279564579164382914758236627341958385692471
270085093008600105300079800001903020650020047402060900003010080000000650894000700,276185493948632175315479862781943526659821347432567918563714289127398654894256731
000605000000042710850000900301970008275300060086000100060420050490508230000107004,714695382639842715852713946341976528275381469986254173163429857497568231528137694
000190305003504210600000090920700080051400079800310040000632400072800000000005800,248197365793564218615283794924756183351428679867319542189632457572841936436975821
009200043700080621410056000094020005080509010003000706200060000000002400076010380,869271543735984621412356978194627835687539214523148796248763159351892467976415382
900470000050080100076503029100900047000020830007640900365000080080002004004001060,912476358453289176876513429128935647649127835537648912365794281781362594294851763
000506040630410290810320007082000000900008063006071500058003004020090170709000005,297586341635417298814329657582634719971258463346971582158763924423895176769142835
700003000596017003001800020200000046600095072800400309000602910100984500074300000,728543691596217483431869725259738146643195872817426359385672914162984537974351268
