702400160004000300050076200900017608008500001203090470031800090000053006800720040,782435169164289357359176284945317628678542931213698475531864792427953816896721543
080500100000013054400000902070020640020070385603090000000007200931400006250900008,382549167796213854415768932578321649129674385643895721864157293931482576257936418
809600042000003000315000006006849070037050060402000019000270001648001000020906035,879615342264793158315428796156849273937152864482367519593274681648531927721986435
013070042040025816000009005927800000600010200800400030002030060070006004180950000,513678942749325816268149375927863451634517289851492637492731568375286194186954723
084053009600020108203900006000080070760001092509300040000406500800190060050070003,184653729695724138273918456341289675768541392529367841912436587837195264456872913
800006100007340008563200040908630500050702030020050470000000790600510000014820060,842976153197345628563281947978634512451792836326158479285463791639517284714829365
710090800006075300049020000602007014000800700430500090090003082000406001103080050,715394826826175349349628175682937514951842763437561298594713682278456931163289457
030208004000006700860057320950800010201000630000000007500310900400900280002004071,735298164129436758864157329957863412281749635643521897578312946416975283392684571
000900086261530700300004000082050000010497250050001034020063100900040007070800060,547912386261538749398674512482356971613497258759281634824763195936145827175829463
000030020400005109003008746105200000000097800208003650020060005847000900056704003,769431528482675139513928746175286394634597812298143657321869475847352961956714283
650200810090500003030081960020804700006070040001003000800000000904027506200090137,657239814198546273432781965329864751586172349741953628873615492914327586265498137
005002036006805102030040900982560000004023060500001700000604000001070503028000014,815792436496835172237146958982567341174923865563481729359614287641278593728359614
679040800000600073001000900090120400006830095020070600003005000005200014140903028,679341852452698173831752946598126437716834295324579681283415769965287314147963528
030004560000792000910003020004051300760000900095030800001079204500806000072010008,237184569456792183918563427824951376763248915195637842681379254549826731372415698
000140960000008025005000713010060000400002036070903800200001007700080590960407082,327145968196738425845629713513864279489572136672913854258391647734286591961457382
600000200940180000287003509010064070800000925003900004400020300000071600050006097,631795248945182736287643519519264873864317925723958164476529381398471652152836497
050400006000021073072000984045703100300690020098000050900500042030068000700010800,853479216469821573172356984245783169317695428698142357981537642534268791726914835
300602000090070510804010300600000803507080006080590420460130070001050008002004900,315642789296378514874915362649721853527483196183596427468139275931257648752864931
046010300500079008901002070000048035000060924002003000010090600807520100034007009,746815392523679418981432576169248735358761924472953861215394687897526143634187259
050600700000140308040700052200000690513090000096004803029007000007530180000008204,358629741972145368641783952284371695513896427796254813829417536467532189135968274
700300050459000600802006014100080900060709240070603000001008007000030468000054320,716342859459871632832596714123485976568719243974623185341268597295137468687954321
743800026000020907006005010005003002020680130071400080000104790430000000080209000,743891526518326947296745813865913472924687135371452689652134798439578261187269354
300047650000600200970010003600900002500004060091000080047509100100028300005170008,312847659458693217976215843684951732523784961791362584847539126169428375235176498
384060001050009070000500203647008000500200080900357000200890037076000058003000410,384762591152439876769581243647918325531246789928357164215894637476123958893675412
804007000000030506060200098000020801005076043100408020070900300093001065020500019,854697132912834576367215498746329851285176943139458627571962384493781265628543719
080030069600107300002000100007400080801000902304096500910700005050063270000508400,185234769649157328732689154597421683861375942324896517916742835458963271273518496
060307005590010027040090030620000700004805019000000002370108060000200050908403000,261387495593614827847592136625941783734825619189736542372158964416279358958463271
050080002269004103010000000000700050032090008007401900003900015800306720400057069,754183692269574183318269547946738251132695478587421936673942815895316724421857369
002904300000871000859000007630048020007300004200600850500002060001006970040510000,172954386463871592859263147635148729987325614214697853598732461321486975746519238
030000584200873000910000000000054030000000076860001000350060802700902401409005300,637219584245873619918546723172654938594328176863791245351467892786932451429185367
005690008030057190000102570060200857078034062000000300200041009600028000907000040,715693428832457196496182573364219857178534962529876314253741689641928735987365241
080070645020009003300850100139000000060430000800060017004006050000002986050097002,981273645425619873376854129139728564567431298842965317294386751713542986658197432
000962104040070006095013700020000610700300008008140009060007435009000027003850000,387962154142578396695413782924785613716329548538146279861297435459631827273854961
007000408050903062200045003030061020510800070000007096900500601084209000070034000,397126458451983762268745913739461825516892374842357196923578641684219537175634289
160200008002700390053060100604090000090100500007082030000014000020309410000005987,169243758482751396753968142634597821298136574517482639975814263826379415341625987
100473000098160000000080760002904085530010020040200070216005900900000050007308200,165473892798162543324589761672934185539817624841256379216745938983621457457398216
060070108907300000030050706300000005001800402700215600080130000540089020000006049,465972138917368254832451796328647915651893472794215683289134567546789321173526849
001200030008070600265040009600010820470085013000090005100026054390000080000408700,741269538938571642265843179659314827472685913813792465187926354394157286526438791
100800765900004030007260009250010090008006470004903002503040010600008000000701380,142839765965174238837265149256417893398526471714983652583642917671398524429751386
030490060070001020010030895020005004045600187000900600364000000008206019000087500,532498761879561423416732895627815934945623187183974652364159278758246319291387546
916005030500200680002100007000421005030800094071009000000530208800000049024070060,916785432547293681382146957698421375235867194471359826769534218853612749124978563
070090208100050090008003760700802049462100000000000300090070852080000030234600001,375496218126758493948213765753862149462139587819547326691374852587921634234685971
089501000600070008400002000057096000140008902200003670000010200070400386930007054,789561423623974518415832769357296841146758932298143675864315297571429386932687154
000605870002000030804010509308061000507039600010000450000290018090740200006003007,931625874752984136864317529348561792527439681619872453475296318193748265286153947
006400092080073000103590070000051020007004906000700418900000030041002605200680000,576418392489273561123596874694851723817324956352769418968145237741932685235687149
003105007025006080060070430056000002807062090090030501000803906000457008004000000,943185627725346189168279435356914872817562394492738561571823946639457218284691753
900820000300601070074053006100002508046000003023004901700090010002405090080170050,961827435358641279274953186197362548846519723523784961735298614612435897489176352
100680009002075830059430007070000100260190500000040028300050002091008370005009600,137682459642975831859431267574823196268197543913546728386754912491268375725319684
020040056009150000070003809700036240096080005480072000831200004950000002000000170,128749356369158427574623819715936248296481735483572961831267594957314682642895173
080400027000082300020009050009058400000004816600021090006030074270010003501000069,185463927967582341423179658719658432352794816648321795896235174274916583531847269
041002000000050040520034079634010050007000820008706000060009003800021000090583001,741962538389157642526834179634218957917345826258796314165479283873621495492583761
400020500000030078020006034016089000540000003009000760058670000000900617090203040,473821596961435278825796134716389452542167983389542761158674329234958617697213845
000914007700000502046700800900403080107025090080006200003500000059600704008030601,825914367791368542346752819962473185137825496584196273613547928259681734478239651
603000501009450380008000074050019206200007009081300400000090020300104700075020008,643278591719456382528931674457819236236547819981362457864795123392184765175623948
004060080901008700050340090800006305002070041005420000010000009400032007700619008,274961583931258764658347192847196325362875941195423876516784239489532617723619458
500000073008000046190003850020085039000407010056009200030140098200000000005906007,562894173378251946194763852421685739983427615756319284637142598249578361815936427
400700091100350060008000300640580000080009010901030502004620037000000009506107024,453768291129354768768912345642581973385279416971436582894625137217843659536197824
702009080068700050009004703005090010600001002000352097007200801850060004300040900,732519486468723159519684723275496318693871542184352697947235861851967234326148975
000104000270008046510070200720040600060002080409053010902000500008001079040900803,896124357273598146514376298721849635365712984489653712932487561658231479147965823
009000030100059260065078009030000974008426000000000000280003100003792040700860500,829614735147359268365278419632185974978426351451937682286543197513792846794861523
230046050104000009069015280901000300520009048000070061000204073090780000087600000,238946157154827639769315284971468325526139748843572961615294873492783516387651492
750040800060000094010702030040230060100007000238100500000305920009870001300901006,753649812862513794914782635547238169196457283238196547471365928629874351385921476
000063007086400010040005200000714009059020081003000406070030008005607090021089300,592163847386472915147895263268714539459326781713958426974231658835647192621589374
830070010000905042400001760008300000090040307071002050500700689906000204000200031,832476915167935842459821763248357196695148327371692458523714689916583274784269531
005901006910070300070000890008047000192008030000100605350002900040600020806405070,285931746914876352673254891568347219192568437437129685351782964749613528826495173
013400700506090002000760010031009056092140007804000200000070038085006004400003900,213458769576391842948762513731289456692145387854637291129574638385926174467813925
008050200040008100005600007280000400019804000067009035054906008301400709090300020,978153246642798153135642987283567491519834672467219835754926318321485769896371524
037050680000001000046709050000040706050032940009008300003010490620507001018420000,137254689895361274246789153382945716751632948469178325573816492624597831918423567
000000075760903020502018600087046000900000564050190300603000008014000090000230100,139624875768953421542718639387546912921387564456192387693471258214865793875239146
501000003037410089460087000005100007003020560100009048904008100600930000000500702,581692473237415689469387215845163927793824561126759348954278136672931854318546792
040000090716905030000300507023407010000030260809001000900500006000603084607020009,345782691716945832298316547523467918471839265869251473934578126152693784687124359
049003508100006379800250000030900015010042906900700000780001240054600800200800000,649173528125486379873259164432968715517342986968715432786591243354627891291834657
600027005000590406140036002000105370430000601070080000906000100052700904700200080,693427815827591436145836792269145378438972651571683249986354127352718964714269583
016500040004800209800190000200016007008040000047009035790000008000030192301020700,916572843574863219823194576259316487638745921147289635792451368485637192361928754
600890050718020064053000000001600700000059032034000090085063020020004009060780510,642897351718325964953146278291638745876459132534271896185963427327514689469782513
007050002531008940006900300010842090000106280400090030908300071000200000305004800,897453612531628947246971358613842795759136284482597136928365471174289563365714829
300000056800027000201306090004010009009008720502600130063052018070903400000100500,347891256896527341251346897734215689619438725582679134463752918175983462928164573
090400005004009713000002600702600900600320074500008000060801090210050007007046830,196437285824569713375182649732614958689325174541798326463871592218953467957246831
006980025350000901000054800000009430703620010089000670010290000500007000600003284,476981325358762941921354867265179438743628519189435672814296753532847196697513284
890000250003027006010830070006300900009708514180000060000006802750049030204100000,897614253543927186612835479476351928329768514185492367931576842758249631264183795
006200840000073090350000000530000007090008260002045100704900008000520600610800920,176259843248173596359486712531692487497318265862745139724961358983524671615837924
012000006750000103409503008001608320007000600840700009600924000000050700903801005,312487956758269143469513278591648327237195684846732519675924831184356792923871465
003000001500029680800015074005002400040938020089600007000780300026000009310006045,493867251571429683862315974635172498147938526289654137954781362726543819318296745
000062075500030210098000060047000801080690300300001040960010004020000080000973500,431862975576439218298157463647325891182694357359781642965218734723546189814973526
230500049040802600000000013605090000100000780024071006080004100002063070009207405,237516849941832657568749213675498321193625784824371596786954132452163978319287465
007309015030600804920100003173000020000008000205060300008000970000950406640020500,867349215531672894924185763173594628496238157285761349358416972712953486649827531
830609501000020400007040080002400609500001000400850700060002943200083000015060270,834679521651328497927145386182437659576291834493856712768512943249783165315964278
004300050206079000810000006000060900109520034020030107000190403407052810000400072,794316258256879341813245796348761925179528634625934187582197463437652819961483572
310050890008170000000000304054087200060010043207004001096500020000002005520849070,312456897948173652675928314154387269869215743237694581796531428481762935523849176
008600002520901006000004807000020930060310000710800605200000400100037050049500008,498673512527981346631254897854726931962315784713849625275198463186437259349562178
670002051003080000900010406002540008160000902040000370087003004050097000300004260,674932851513486729928715436732549618165378942849621375287163594456297183391854267
070004090081000300500080726100000809420003067000875040603010405040307002000059080,276534198981726354534981726157642839428193567369875241693218475845367912712459683
700060004802000000695200030000053097009000003500701860020800070308074029460009010,713965284842317956695248731286453197179682543534791862921836475358174629467529318
001000400340208005005093170020001060170380009003609008000850020960000040000047036,291765483347218695685493172829571364176384259453629718734856921968132547512947836
302005008604900130090010074006070801080060000051200097008304000120800050907006002,312745968674982135895613274236579841789461523451238697568324719123897456947156382
000020000070905831603000040300402900098010006000608050105800302286001700900040500,819324675472965831653187249361452987598713426724698153145879362286531794937246518
020130790003200008070965010097800500102000006500004309001500400000680002060073080,625138794913247658478965213397826541142359876586714329831592467754681932269473185
090000002140076080085000403000400710000200504003917608009623000700081000026009300,397854162142376985685192473268435719971268534453917628519623847734581296826749351
002005040000069530860042001500700000947601008603000210000000900100538600230400070,392175846714869532865342791521783469947621358683954217456217983179538624238496175
027013006008605400000700050059070803400008000000256700100000092200800500040930160,527413986918625437364789251659174823472398615831256749186547392293861574745932168
