003090608000057000070682090500100460002930700800006309020800000641020000090004105,253491678986357214174682593539178462462935781817246359725813946641529837398764125
090500700004092000601800053000659400075100080900730200000001576008003004010960020,893516742754392861621847953182659437375124689946738215239481576568273194417965328
534080020090007001100290005059006172260000400008040530076500000801300000040170069,534681927692457381187293645459836172263715498718942536976524813821369754345178269
007050004008702100526013000042060007000500000700080093960000730010306809000041205,197658324438792156526413978342169587689537412751284693964825731215376849873941265
200000000000340050690570201000820710010903004008004600004206130806050007520000809,245691378187342956693578241469825713712963584358714692974286135836159427521437869
600003709008020000547680000900070036102308900050200040039500020005004100000000078,621453789398721465547689312984175236162348957753296841839517624275864193416932578
008070040205800100010900300600190000000243050932705080040000020003016079086300500,398671245265834197417952368654198732871243956932765481149587623523416879786329514
002054790030100640089200100040790085000000000600030207010073004704001806800005000,162354798537189642489267153241796385378512469695438217916873524754921836823645971
008000091104007060060000507200000089000090400450608310027510000000039008030824600,578463291194257863362981547216345789783192456459678312827516934645739128931824675
009008026040000371000070000067401008930000005005920100050100094812040000000586700,579318426648295371123674589267451938931867245485923167756132894812749653394586712
830000700100004905000005063008090070267801400590600100040000092003200800002703651,835926714126374985479185263318492576267851439594637128741568392653219847982743651
400006053005701900680000700500000260002015000910670040009200500008930012030007008,497826153325741986681593724574389261862415379913672845149268537758934612236157498
007093000800001304004000076209000015410080200080020037300900058052007900000504603,167493582825671394934258176279346815413785269586129437341962758652837941798514623
030480002000000509004701060000060080907002000568900031109340005800017003056000014,635489172781623549294751368423165987917832456568974231179346825842517693356298714
001900073050000860200408910040090020006087004120305000504020700960000280030076000,681952473459713862273468915745691328396287154128345697514829736967534281832176549
065120000100070500000089030080090060340005007607000102000240009023060780018300040,865123974139476528274589631581792463342615897697834152756248319423961785918357246
706890100500067000090502030031000000200008570000046800050000094049375080100920006,726893145513467928498512637831759462264138579975246813352681794649375281187924356
000840750300001080050032009004600000105079340920000016000050001092000407780003090,219846753376591284458732169834615972165279348927384516643957821592168437781423695
003582009005301080401007002049800105000030000027000090700005064902400801050960300,673582419295341786481697532349826175516739248827154693738215964962473851154968327
090000810000500260070420000100200640800090050450060102504081370080300000003652009,295736814348519267671428935139275648862194753457863192524981376986347521713652489
080000059290760000060108700431800060720000305000900012005020806048070090000306041,187243659294765138563198724431852967729614385856937412315429876648571293972386541
160070005708100304000002060070000048024800601300054900003520000907040200050009083,162473895798165324435982167679231548524897631381654972843526719917348256256719483
050632000030010007204790060800070010490008035500109000106320540000000002907000180,758632491639814257214795368862573914491268735573149826186327549345981672927456183
083001206010079000405008030009000672050000000002806004104900300060030800900645700,783451296216379458495268137849513672651724983372896514124987365567132849938645721
300700042000000509619004380700253000054006100803000006090060000206080071107390800,385719642472638519619524387761253498954876123823941756598167234236485971147392865
000040080058760100140030009003081000500900602207004000060000940031500207072006038,729145386358769124146832759693281475584973612217654893865327941431598267972416538
400107520000000000038049010700650490015280300020000001070300000091008670502096080,469137528157862934238549716783651492915284367624973851876315249391428675542796183
200045007000920010060070503040230060070009308058000091400006879590700004830100000,213645987785923416964871523149238765672519348358467291421356879596782134837194652
500200090021900000007318005006000007070045803385000201090700500100060082040020010,534276198821954376967318425416832957279145863385697241692781534153469782748523619
790800006000000090405100032370061000002307510900000007046080901200700050800045620,793852146128634795465179832374561289682397514951428367546283971239716458817945623
100000080207900000060050402980001050000036070400200031009004703032710000050028609,195642387247983165368157492983471256521836974476295831819564723632719548754328619
045006207700081053090000400030059020804700060000160000001048605062030040003005700,145396287726481953398572416637859124814723569259164378971248635562937841483615792
671050020800007093020640010762300840003060002050800900010200000008405700000019004,671953428845127693329648517762391845983564172154872936417286359298435761536719284
207030095000007004085900100060040370090020001040853020300691502650200800004000009,217438695936517284485962137562149378893726451741853926378691542659274813124385769
400008097001300480000092006805007300900650740300201600004005010070000002023160800,436518297291376485758492136865947321912653748347281659684725913179834562523169874
074005002600409801100002030009150780080000004000307260800000300930200507021600040,374815692652439871198762435269154783783926154415387269847591326936248517521673948
057200003000519020060004000020096700478000009300400210080050036000003900900071504,157268493843519627269734851521396748478125369396487215784952136615843972932671584
710050000002308000008209301326100500509000087100940602000000824000064900000530700,713456298962318475458279361326187549549623187187945632635791824271864953894532716
000065900000083040015900706096052008872000000034070010060209000080040001007610420,748165932629783145315924786196452378872391564534876219461239857283547691957618423
000800000060002904739506000370904051001005207902000030240170680008000000590060300,124897563865312974739546128376924851481635297952781436243179685618253749597468312
001800009627003040308100000069200074040905300000008020000009760070050103503087000,451876239627593841398124657869231574742965318135748926284319765976452183513687492
108060093090000050502700008000805000300010400670039020009684500407320000006000210,148562793793148652562793148924875361385216479671439825219684537457321986836957214
900310000740005200035020006600200070400960305070083014020050009007000180800600043,982316457746895231135724896653241978418967325279583614324158769567439182891672543
008700005030600002060003410300020070001004369896000500042507098089100000100090200,218749635437615982965283417354926871721854369896371524642537198589162743173498256
370000050006405310002008000500000730081600009000091804005802900018300602020946000,374169258896425317152738496569284731481673529237591864645812973918357642723946185
803690070000000396400000201000050864960002050001740030010207009040005000002930708,823691475175428396496573281237159864964382157581746932318267549749815623652934718
096704030230080504000000009502800910003200000480071020040100800600009007007520063,896754231231986574754312689572843916163295748489671325345167892628439157917528463
083007012064290570000010009020064300005020007040500090008670100001900080650003004,983457612164298573572316849829764351315829467746531298498672135231945786657183924
670015000301060270008400000950040060004700030280906007000521084090070053000008000,679215348341869275528437691957143862164782539283956417736521984892674153415398726
007016200310000400049502100006003040025070086000601900904087002800000003070009050,587416239312798465649532178796823541125974386438651927954387612861245793273169854
000008002430090560010346007307400008050000010169070030070580020200000473600002900,796158342438297561512346897327419658854623719169875234973584126285961473641732985
400007009078501600025980000001750000090600002030094085060105040800000310003072090,416327859978541623325986471281753964594618732637294185769135248852469317143872596
407200000016004005903008401000160030030502070009780502072050960004890053000000100,487215396216934785953678421725169834831542679649783512372451968164897253598326147
000800200467003009000075130720054000008006305000130090095060420104000870002400003,351849267467213589289675134723954618918726345546138792895367421134592876672481953
070006200510200360900050018600040000002103009000785030001608057804070000350009100,473816295518297364926354718635942871782163549149785632291638457864571923357429186
000060000620300004918540300000600439500097108004280057080021060030800090700000802,347169285625378914918542376872615439563497128194283657489721563236854791751936842
085003070200006090001700523809371600004060705000400000500900204600005830700028000,485293176237516498961784523859371642324869715176452389518937264692145837743628951
408000090750020004206053700000307060600100843009080050802000001070806300510004900,438761592751928634296453718185347269627195843349682157862539471974816325513274986
750002000800090560004001209023500807080030604600070001540000080006100030000607010,759362148812794563364851279423516897187239654695478321541923786976185432238647915
000040130006500209000021078040075901200800300570000060400019083085637000902400000,829746135716583249354921678648375921291864357573192864467219583185637492932458716
100890540005006007870000032504080013000600000089703600690100470030065200000209008,123897546945326187876541932564982713317654829289713654692138475738465291451279368
870060010000800045095001030002340170000186002004205000200007004300900860916030000,873564219621893745495721638582349176739186452164275983258617394347952861916438527
008509073300002000054000001600100000023807009409000680006300010070086500000040902,268519473391472856754638291687194325523867149419253687946325718172986534835741962
008070002320906000005200890510063000000050640000802007780040105600300900040710308,968571432324986751175234896517463289892157643436892517783649125651328974249715368
004261070235000000070008900053040007700030198020106005000900040400020300398700650,984261573235497816671358924153849267746532198829176435562983741417625389398714652
130600040400079010500000280080502003090060804602903570000000007013004090960308000,138625749426879315579431286781542963395167824642983571854296137213754698967318452
000400900326090400005021008000900010078000640160004070900106280803200500052073000,781435926326798451495621738234967815578312649169584372947156283813249567652873194
006250400100004902008097630703020004002701000000809001207003000840006009030000058,396258417175364982428197635713625894982741563564839271257983146841576329639412758
003490010100070400069082050506004087000801900010000002035700004040029308207306000,723495816158673429469182753596234187372861945814957632935718264641529378287346591
003008400270000089000790015300961002006020003500003100900206000480500290050100700,193658427275314689864792315348961572716825943529473168937246851481537296652189734
004008002007500010501620034405009300080005600609700005100203000900080270073006108,364198752827534916591627834415869327782345691639712485148273569956481273273956148
602000051900045000008701024200000630000007089137090040590610003000002800003570016,642983751971245368358761924289154637465327189137896542594618273716432895823579416
400006000080000706062039050800720001021045608000000930070002015009504800104600290,415276389983451726762839154896723541321945678547168932678392415239514867154687293
730008000041000520008460000006900300920700001014082760000020006180007045502040190,739258614641379528258461973876914352925736481314582769497125836183697245562843197
200004008600097000095630100703540000009800603800010520014700089500000300008320004,237154968681297435495638172723546891159872643846913527314765289572489316968321754
009705360000014078080020005027003040400500093096400200030006120800000000005931600,149785362652314978783629415527193846418562793396478251934856127861247539275931684
000010709004600850900500200091000000072840605006002407000986002200003040060074180,625418739734629851918537264491765328372841695856392417143986572287153946569274183
000900000013426800007000052000000700000054038040100960300801020850290004906007100,482975316513426897697318452235689741169754238748132965374861529851293674926547183
048700000603500182120030900000406000091000805750000003200009650300100074004807010,948712536673594182125638947832456791491273865756981423217349658389165274564827319
305297800068300002001000750000001276000050090904800300002600004417082000680030500,345297861768315942291468753853941276126753498974826315532679184417582639689134527
014030805007090000260005400190007560030049002000568030850000001049280006000000970,914736825587492613263815497198327564635149782472568139856973241749281356321654978
390047800000093057000500020610800940040060005020000010700632180461000030800700500,395247861286193457174586329617825943948361275523479618759632184461958732832714596
090000070000301008804020693050400800307058000009060020000840012106037005270009004,593684271762391458814725693651472839327958146489163527935846712146237985278519364
850460102740050830003270900000120604060304090580000000136009020000006451070000000,859463172742951836613278945397125684261384597584697213136549728928736451475812369
054700200301040060000912000700039000100250046080001059039000601800000025040027800,954763218321845967678912534765439182193258746482671359239584671817396425546127893
006700801209048030005000072430096200002001683081000040700504000008017050100920000,346752891279148536815369472437896215592471683681235947763584129928617354154923768
000001046900800000070045900360400721200010600090070038030050400106920085802300070,523791846914836257678245913365489721287513694491672538739158462146927385852364179
084607000700003500510240300000000600900310025060890401005000009871004003409020170,384657912792183564516249387153472698948316725267895431625731849871964253439528176
091800007007305892000040060004060009019738000530002100002670004068000020070009500,391826457647315892825947361784561239219738645536492178152673984968154723473289516
030200000001003047508640200170300008000052009020874605700090803604500700089000000,437215986261983547598647231175369428846152379923874615752491863614538792389726154
000920576000007210090050300080030060650000708700001920470600090009508040003240100,318924576546387219297156384982735461651492738734861925475613892129578643863249157
850090040142058070060020300000203000904600103030079860021004750007000619006000000,853796241142358976769421385618243597974685123235179864321964758487532619596817432
090074001080105409007020560360000180701500093000002006104630000800700030005040800,596874321283165479417923568362497185741586293958312746174638952829751634635249817
000500078920086031006300000082040900000017050004032007170064090000000184300090006,431529678927486531856371249782645913693817452514932867178264395269753184345198726
024900300800007201059301840010608050002000000046053007000005703008100060000472000,124986375863547291759321846317698452582714639946253187491865723278139564635472918
030250000910004003008300670420807305306000140005000009000549008091600500700000020,637258491912764853548391672429817365386925147175436289263549718891672534754183926
060070200109500030000148650790060043806004700003210008070000592204780000001000000,465973281189526437327148659792865143816394725543217968678431592254789316931652874
000501890308000001040600000495007006070360000001980704503400167000010052204000000,726541893358279641149638275495127386872364519631985724583492167967813452214756938
007500003800004601000832900203009006050370200480001070510000000006000408320047019,947516823832794651165832947273459186651378294489261375514983762796125438328647519
305209700280000049001087000600940030000700500452610000010050406000004073890300001,345269718287531649961487325678945132139728564452613987713852496526194873894376251
