100875020902000000000020305630740200809030010070100609500600870000290064080000103,143875926952364781768921345631749258829536417475182639594613872317298564286457193
409003070100290000030067001000800290080600540007320006306104000020000405510080300,469513872175298634832467951653841297281679543947325186396154728728936415514782369
600470800007021005010803709000302904004000600900160030300548000100900502078006000,653479821897621345412853769761382954234795618985164237329548176146937582578216493
005000607020410308083500090007301500200097004016000002800040769000780200001069003,145938627729416358683572491497321586258697134316854972832145769964783215571269843
006400050019300060708002004800040100030006270005923000600085023097600000500001047,326479851419358762758162394862547139934816275175923486641785923297634518583291647
040100270006390000050700304790510020080002450002086100905000008000009600003200010,348165279276394581159728364794513826681972453532486197925631748417859632863247915
008741500000000000001503207070024069104800000860970030010300000629000005300052004,238741596756289143941563287573124869194836752862975431415397628629418375387652914
040037600701002090003500400820190700030006050400780209009014003050600804000008062,548937621761842395293561487825193746937426158416785239689214573352679814174358962
108407000062000003597060000900700048000049020050200100640001080000805460003670502,138497256462518973597362814921753648386149725754286139645921387279835461813674592
700002684010096070043500000002608003100050260805000097090803510006074030000020000,759312684218496375643587921972648153134759268865231497497863512526174839381925746
600401000052000801001000730096050000870090624200000003007300080480620900120048005,638471259752936841941582736396254178875193624214867593567319482483625917129748365
641200008070030250003000090432008000000502703080091060200907100009005007810600045,641259378978136254523874691432768519196542783785391462254987136369415827817623945
613400080050067030000010400764089000020000061800005007300500200970043000000206098,613452789458967132297318456764189523529734861831625947386591274972843615145276398
500034200030070004001065080240007100096000070100028065002009810009302007080050300,567834291938271654421965783245697138896513472173428965352749816619382547784156329
004090006060710309030000427001000930045029080070050002000006100398002500500048000,754293816862714359139685427281467935645329781973851642427536198398172564516948273
400703000802590006001000700360004801000200009090006074900080153005010602040620080,459763218872591436631842795367954821514278369298136574926487153785319642143625987
200367000300050006010809045009001024000270008630000750580092000004780090000600407,245367819398154276716829345879531624451276938632948751587492163164783592923615487
910640030530000009068530070000000521104007600200080900000300214800705000029006008,917642835532871469468539172783964521194257683256183947675398214841725396329416758
750100002000203050006040930270500001030000784900680000590002310800009005041700060,753196842489273156126845937278534691635921784914687523597462318862319475341758269
000162007500080103009700080000000840076009025008300901203000009041603200065010000,834162597527984163619735482392571846176849325458326971283457619741693258965218734
900100764376000500000020800609008000400090030050637010000049007081005900204801050,928153764376984521145726893639418275417592638852637419563249187781365942294871356
600009704104080030700200500007500301008640000253000900000008100090320060040010873,685139724124785639739264518467592381918643257253871946376458192891327465542916873
005920000600400705480370009810504000030008906002000010753000800100002300090060107,375926481629481735481375629816594273537218946942637518753149862168752394294863157
000004900004080627000250018019006050320000100700038009037400000150090060906507082,281674935594381627673259418419726853328945176765138249837462591152893764946517382
100030040069501700020600500080000005030070094907000801674305080002900000300108620,158732946469581732723694518286419375531876294947253861674325189812967453395148627
809000370007960401000002005015008903070206500300090024000014006103080000058300009,869451372527963481431872695215748963974236518386195724792514836143689257658327149
704020060003009010520360070200000590610042300000801000050000708486050009000904002,794125863863479215521368974248736591619542387375891426952613748486257139137984652
000701305000090010206503009005049000001300076960000204009400180350000407084027060,498761325537294618216583749725649831841352976963178254679435182352816497184927563
000008100804000096002305070958100002010400300060027001300080600700092405040010087,576948123834271596192365874958136742217459368463827951325784619781692435649513287
000000035708069000040205090006407200109050307003000000600080051210004800090010460,962148735758369124341275698586437219129856347473921586634782951215694873897513462
015079300090460000700000082000000430400207601009008507670000800052601009080035000,215879364893462175746513982527196438438257691169348527671924853352681749984735216
400005200200401007000807360002030080870100950531000602610000079095004000004680000,467395218283461597159827364942536781876142953531978642618253479395714826724689135
004870006090605480000009532070010060903007201240050003017308000000000000608720049,534872196192635487786149532875213964963487251241956873417398625329564718658721349
000509730600040005019000000027600548065000070004080100030007016400930080086210003,248569731673142895519378624127693548865421379394785162932857416451936287786214953
305700089001905004020080037064300290800056400100000000070010800000623070059040061,345762189781935624926184537564371298897256413132498756673519842418623975259847361
024009050750400081890073000540107000100962000002000016000700260000038490067005000,624819753753426981891573642546187329138962574972354816389741265215638497467295138
000700408006000001750080003502410000300509000017300902200036840049000100801070620,123795468986243571754681293592417386368529714417368952275136849649852137831974625
053041890009006400700000031012009500800020007060003020000092008508010600324500700,253741896189236475746985231412679583835124967967853124671492358598317642324568719
000000703005200400024109080600920540009040006080005030700806050030000890590001207,961584723875263419324179685613927548259348176487615932742896351136752894598431267
000153070401000036009600002800760014002045700006900053097000840000280300005091000,628153479471829536539674182853762914912345768746918253297536841164287395385491627
000005904081030002050029630000002006460000850190300000007604080630051709000700001,326875914981436572754129638873542196462917853195368427217694385638251749549783261
010005070080037260009610000906400500000090012054002800090800604002000003308704120,613245978485937261279618345926481537837596412154372896791823654542169783368754129
004180900906000370710003008009520080030060004208000190005472006000908200007300450,354187962986245371712693548479521683531869724268734195195472836643958217827316459
010068000700204100308705060500390710000076092020000430040029000200800000080100905,412968357756234189398715264564392718831476592927581436145629873279853641683147925
050900420014067003300010090600003080201700005800490600060805002009000530070020104,756938421914267853382514796647153289291786345835492617163845972429671538578329164
002013059600052000038009000009000072050020016000004890003780104200300060140006580,472813659691452738538679241319568472854927316726134895963785124285341967147296583
200003560000089710160000308000701085000024100310060907709250000080090000542006800,298173564453689712167542398926731485875924136314865927739258641681497253542316879
800003200090000340103008097650900730040030061078200004012600000907005000400801570,864793215795162348123458697651984732249537861378216954512679483987345126436821579
017950006040600030200000005069403870000800090030070200050107040800040100490380620,317952486945618732286734915569423871724861593138579264652197348873246159491385627
502140006003065492000800010000300900040000065601009078970630020080020150100087000,592143786813765492467892513258376941749218365631459278975631824386924157124587639
061800970000500100780030040406010000097000830005093024002047060000302000100080750,561824973324579186789631245436218597297465831815793624952147368678352419143986752
000010603000450280780009000006003700070060051905020840600100005057000420003280100,549812673361457289782639514816543792274968351935721846628174935157396428493285167
005610380730080000004000562370092600001007208060050034000109000000520070809030040,295614387736285419184973562378492651541367298962851734657149823413528976829736145
040020610798600500210050007000008904071004830003005060000000003600790000850043720,345827619798631542216459387562318974971264835483975261127586493634792158859143726
090070031002800579000140006040058600130000000906030720309000804700604090800002050,698275431412863579573149286247958613135726948986431725329517864751684392864392157
040001036896000502000059000067000800514003000000720100603908040021304780070000000,745281936896437512132659478267145893514893627389726154653978241921364785478512369
060074103008000002910600050487060005300000200000050008032500807094003000506402010,265974183748135692913628754487261935359847261621359478132596847894713526576482319
051060900800070005720008104400950037108007050000200400690000080004326001007005003,351462978846179325729538164462951837138647259975283416693714582584326791217895643
005008007130060480402700300001204706750910002000000000820407030600809000004006290,965348127137562489482791365391284756756913842248675913829457631613829574574136298
013800400009500106200790005700009001060000050054206009000607308137004002020000900,513862497879543126246791835782359641961478253354216789495627318137984562628135974
200050070164008000800304009000087100030060054050401927016000090900700306040002500,293156478164978235875324619429587163731269854658431927516843792982715346347692581
800070200010530700540800091006000080300090070090410002089020640600107005000640003,863971254912534768547862391426753189351298476798416532189325647634187925275649813
100006050000001432005980000002700901580604000740090000806200090000040308930000105,173426859698571432425983617362758941589614273741392586816235794257149368934867125
000201056050080972094060100070002040401509000508603000083400509600007800000130067,837291456156384972294765183379812645461579328528643791783426519612957834945138267
010860000002000360047009800706100004500092601030054008090308470000020050361007002,913865247852471369647239815726183594584792631139654728295318476478926153361547982
078020160010060053000901800000004070306000092400050380742800000009405010005030006,978523164214768953563941827821394675356187492497652381742816539639475218185239746
090400703160020000008530000000008009250064300300000410000050100470800092021600538,592481763163729845748536921614378259259164387387295416836952174475813692921647538
235900006000034005000100900100000020608005007070346080010080000400560009509701403,235978146891634275764152938153897624648215397972346581316489752427563819589721463
000005063012700900090008040030900206820010005005800400100070000904002507007400839,748295163312746958596138742431957286829614375675823491183579624964382517257461839
070090136000570000890004000900032061027600050038000700000800000401003500003065492,574298136312576948896314275945732861127689354638451729259847613461923587783165492
570000390003060001100009275006005020020000730907040068000490800840002000051036040,578124396293567481164389275386975124425618739917243568632491857849752613751836942
003081020109005040040093000008300070760009014000060009200700058500010600400028197,673481925129675843845293761918342576762859314354167289291736458587914632436528197
300801002005060790200074008002750003801400600093000000000080500500906130170020084,367891452485263791219574368642759813851432679793618245934187526528946137176325984
002007608800100090096300240410060005003050700060902300509010006040070000280004059,352497618874126593196385247418763925923851764765942381539218476641579832287634159
000002480810050060006090275704080000093060000005300124008010000060700039057940008,579632481812457963346891275724185396193264857685379124938516742461728539257943618
070428000602170050000000009004007960280000000001500403100205706960703108800090300,579428631632179854418356279354817962286934517791562483143285796965743128827691345
000030104504801709200075000000020830180500000060000045007609013009007006820103507,678932154534861729291475368945726831183594672762318945457689213319257486826143597
200001004039006107015800029007340506060500002008002000752010300090008000300090701,276951834839426157415873629127349586963587412548162973752614398691738245384295761
009300106680070034040050009030408000004000010051060007905040200027006080060103095,579384126682971534143652879736418952294735618851269347915847263327596481468123795
300602058109700020000480070005020000007941200600008403010000009063007100040053086,374612958189735624256489371495326817837941265621578493718264539563897142942153786
050000900000208170700340002401006008095010020673090000309024801100005004000080730,258167943934258176716349582421576398895413627673892415369724851187935264542681739
021009000400508602007600390702900040000005009005741060800300501300020000019806070,621439857493578612587612394762983145148265739935741268876394521354127986219856473
816400003000000010400503009003001008590070200000249007108020705300004006709000820,816492573935867412427513689273651948594378261681249357148926735352784196769135824
100093000085004030070600510000400872007015090960020100003008640408006005250000307,142593768685174239379682514531469872827315496964827153793258641418736925256941387
003407008096032700400060005305206000080040902010700060200350004004008500700900310,523417698896532741471869235345296187687143952912785463269351874134678529758924316
200000700000010038045007060008100600061200905009640070052060803080395040700800090,213486759697512438845937162378159624461273985529648371952764813186395247734821596
140000002005000907003526000700090405210300008800207060000830014490000300082610070,148973652625481937973526841736198425214365798859247163567839214491752386382614579
090250070004030021000706008000070035250900400306014000600098700030100042540000900,893251674764839521125746398489672135251983467376514289612498753937165842548327916
000306000891007004007000800008041200300058100504700906000205070049000000065890302,452386791891527634637419825978641253326958147514732986183265479249173568765894312
300109058041005090600080002005070030290003506070206089000600003700041020080000701,327169458841325697659784312165978234298413576473256189512697843736841925984532761
000185000078003600500000049007410020360270950020506080630800401009304700002090000,496185273278943615513762849857419326361278954924536187635827491189354762742691538
000060400000035297802007030789000300004002850050906001007010600060093020501000004,375269418146835297892147536789451362614372859253986741927514683468793125531628974
520040300009800007607000000004501930000086100062309008010002093008064050700130600,521647389349815267687293415874521936953486172162379548416752893238964751795138624
002009857060030900400078000307041090005000060800903002090702045000010070001500306,132469857768135924459278631327641598915827463846953712693782145584316279271594386
040630100068200004903500607000309008007000400100050206080040035405810902000020000,542637189768291354913584627624379518857162493139458276281946735475813962396725841
003000081070060000901420000340071005600005879090000000000090037850200914400007620,263759481574168392981423756348971265612345879795682143126894537857236914439517628
001300002060000050300050084820004903090086040100700600930025016085040007400900000,541398762268471359379652184826514973793286541154739628937825416685143297412967835
000100309000070040043086500030600108800004962900510000020090600508000007706001823,675142389189375246243986571437629158851734962962518734324897615518263497796451823
651080000080059004309000200800210030000964001004000070000006500037045980060000712,651482397782359164349671258896217435573964821124538679918726543237145986465893712
091800050800000004000025030050780420700056081009031006604070200070600000038902010,391864752825397164467125839156789423743256981289431576614573298972618345538942617
