000006903087900004056080007700493800290007031004000600100600020000542090508030000,412756983387921564956384217761493852295867431834215679149678325673542198528139746
460003080500090004000706003800154009307200100050000860002900010030007200901080530,469523781573891624218746953826154379397268145154379862782935416635417298941682537
070009000030085960500012470602007010804030050390400200100978023000500890006000500,278649135431785962569312478652897314814236759397451286145978623723564891986123547
003600007070091200690000408060075030814030059000800620509080076030004100001307000,123648597478591263695723418962475831814236759357819624549182376736954182281367945
700500300030020067090080010200001039800000604060040520905310480042007090100002006,721569348538124967496783215254671839819235674367948521975316482642857193183492756
030009000080100036600000200200805910409607800057020003700290081000004095106003004,532469178984172536671358249263845917419637852857921463745296381328714695196583724
200905300001800067080004001009032056600070000318000400000051090070009280054000600,267915348491823567583764921749132856625478139318596472832651794176349285954287613
100040078029007000000500630708300541610900007002004000051082000400605089000730100,165243978329867415847591632798326541614958327532174896951482763473615289286739154
076008034024100009000060870090070100000502007280003600540300000008600952901000048,176958234824137569359264871495876123613592487287413695542389716738641952961725348
014930570000086030000000801071409000030207054095060000027000340009700062006801005,814932576752186439963574821271459683638217954495368217127695348589743162346821795
005910070820300005701002400000000160002004503100078000608020090430605701000490008,345916872826347915791852436584239167972164583163578249658721394439685721217493658
087020001009007830600010500000865010003001200050000094020006050400359008190004067,587623941219547836634918572942865713763491285851732694328176459476359128195284367
060000392180070004004530700009001006070908045600420000005600080002100060030080920,567814392183279654924536718249351876371968245658427139715692483892143567436785921
349000007057806029000000030060953800200040000038200100700610050682700004004002090,349521687157836429826479531461953872275148963938267145793614258682795314514382796
000002008400000193197000000001006004950030207602409050006050402000087010385010600,563192748428765193197348526871526934954831267632479851716953482249687315385214679
800300020000006931050010067090000010072080004306904500040003700200508000089207600,861379425724856931953412867498735216572681394316924578645193782237568149189247653
050380640007064150900005020009807000070500031018030000480000206000041700003900500,152389647837264159946175328329817465674592831518436972481753296295641783763928514
030780005092000031704002680001070200400900057005001060000405000020100390007008006,136789425892654731754312689961573248483926157275841963619435872528167394347298516
050408020210093500800007900005360801700805006030002009063000042104700000900004108,359418627217693584846257913425369871791845236638172459563981742184726395972534168
900207300800010000147003060000850004400039806002006970006000402010920080030001750,965287341823614597147593268679852134451739826382146975596378412714925683238461759
075001600300080040190320000423000900600000580050007231200009760030510008009604000,875941623362785149194326857423158976617293584958467231241839765736512498589674312
080004035000005179370200080028691050030080900006000004600048300009503000040070012,981764235264835179375219486428691753537482961196357824652148397719523648843976512
040900502810005430000060010920600003070490860500070000005200098687300001001000047,746931582819725436352864719924658173173492865568173924435217698687349251291586347
305000002070002830209104067000600300904000018608009000040056020002308159000700000,315867942476592831289134567127685394954273618638419275841956723762348159593721486
030800000042091003050070960078400020100680009000003508200035100009010800700900402,937846215642591783851372964378459621125687349496123578284735196569214837713968452
005007003030900001780350000200091000607030904004070052000685700809200460020000010,965127843432968571781354296258491637617532984394876152143685729879213465526749318
000850000700600190120300006080406050070090200692005010003900004459007080060000032,946851327738642195125379846381426759574193268692785413213968574459237681867514932
370800050000007068049000003005360870600401905203000000000010206732004000008090040,376842159521937468849156723415369872687421935293578614954713286732684591168295347
120000003000080560800930074060750008000060490402000100009073600008009032705400000,127645983394287561856931274961754328583162497472398156219873645648519732735426819
030400900056080021701000000000093850003000060912005400800300000160070080009240005,238451976456987321791632548647193852583724169912865437825316794164579283379248615
020007049030410020709800305207048006000700500800163400001200860000035107600000000,128357649536419728749826315217548936364792581895163472951274863482635197673981254
500004000701000524092000030850210070020068910000730006003070850000302097600580040,538124769761893524492657138856219473327468915914735286243976851185342697679581342
690203700580700010000080043000540600010020030807000092005039000100000009940056080,694213758583794216271685943329548671416927835857361492765839124138472569942156387
079000050001003209020060080450100900000040170607508320000031006900804500002009430,879412653561783249324965781453127968298346175617598324745231896936874512182659437
090080100100350049000070320005000006860001030020800070930020415700900800501406002,293684157178352649654179328315247986867591234429863571936728415742915863581436792
100400027720150084380009000003690001018007090000000450206380000090000500400020610,165438927729156384384279165543692871618547293972813456256381749891764532437925618
970100080001270006008030100029064007000815009080000403002000040300092560046750300,973146285451278936268539174129364857734815629685927413592683741317492568846751392
060009751005304800209000300401093000030070002090218006100080275006500140800007000,364829751715364829289751364421693587638475912597218436143986275976532148852147693
306010080200908040000050706000000030710082900504700000832074010950800003060001025,396417582275968341148253796689145237713682954524739168832574619951826473467391825
780209301006700400020860009103050700000906184040002050090004800050081000300500000,785249361936715428421863579163458792572936184849172653697324815254681937318597246
157200900040007001920034600090041008000800204003006005002083070000670010069000382,157268943346597821928134657295341768671859234483726195512983476834672519769415382
910020000006180037074603000080200079002040006000000210030065091100700024495810000,913527648526184937874693152381256479752941386649378215237465891168739524495812763
081006503402000008090708600600510802008030104037000060500002000020805307070140009,781496523462351798395728641649517832258639174137284965513972486924865317876143259
008006010600094870450102000560030280709000006043609000270000030900040001000573004,398756412612394875457182693561437289729815346843629157274961538935248761186573924
000001005059000306306020470002407580090060040001000600460780090000300000183540200,874631925259874316316925478632497581598163742741258639465782193927316854183549267
900006501007500024000180300065030290080074006000000000890005000754002010100908730,938426571617593824542187369465831297389274156271659483893715642754362918126948735
903010004040000720807005010000089000000400280005063900039007500100600302250308160,963712854541836729827945613712589436396471285485263971639127548178654392254398167
500090400070000038204163000000950010007020600390004750600800200000012960100470300,513798426976245138284163597462957813857321649391684752645839271738512964129476385
078100000004003006030057010480001350900640007005090200001874620300900508042000091,278169435154283976639457812486721359923645187715398264591874623367912548842536791
000031600264700009009040085870000052000200800010570306580096010903020000000003040,758931624264785139139642785876319452395264871412578396587496213943127568621853947
056200070000060081040508030720040053500100006000803017038007000004000029000419000,856231974392764581147598632721946853583172496469853217938627145614385729275419368
004000090790280053056700802000009020130006000800050407008600300470010005020300918,284563791791284653356791842547839126132476589869152437918625374473918265625347918
001503000907600048600000700730240009002050600068001507204000090080009415010380006,841573962957612348623498751735246189192857634468931527274165893386729415519384276
700500300103420080006007905900700802000003096504002003800030060002600514017040000,729586341153429687486317925931764852278153496564892173845231769392678514617945238
040930065000000007001406803230078010600001390100005076000000450473020000028060009,842937165365812947791456823239678514657241398184395276916783452473529681528164739
090184503100070280004060009089003070407056000030200400306000095010040000200908100,792184563163579284854362719589413672427856931631297458346721895918645327275938146
170000500004070800006320190010800604000001030000563702780412009300600000040000085,172986543934175826856324197213897654567241938498563712785412369329658471641739285
360091570000500002001430008000000200400016095008754000790000380050000000206003401,362891574849567132571432968615389247437216895928754613794125386153648729286973451
600020030020015090079003506038700001006400700900006400703090018090004000500308002,685927134324615897179843526438759261256431789917286453743592618892164375561378942
078003000009710043006005092093200050054307010000060900130408600000000504800070021,478923165529716843316845792793281456654397218281564937132458679967132584845679321
002400087700010509069003000080001250000760008000250043310000900500340020904007600,152496387743812569869573412487931256235764198691258743318625974576349821924187635
090000000008700130125090406900007820400580300003001605009450000876032001000006082,397614258648725139125893476951367824462589317783241695219458763876932541534176982
204500803960000070007000001190030246002681000700009500000364000040200100005197080,214576893963812475587943621198735246452681739736429518871364952349258167625197384
030002090007006418508407002020800043000759000100040600900010050802000036400300087,634182795297536418518497362729861543346759821185243679973618254852974136461325987
300250000089003070016080004608907001090030206400008500070005600004100902000040013,347251869289463175516789324658927431791534286423618597172395648834176952965842713
800730500702006400401200009000040005000090070205803601008000030394007206006005008,869734512752916483431258769987641325613592874245873691528469137394187256176325948
007908000004003010000050602362007085005042109090000007000800300123069004500004701,617928543254673918938451672362197485875342169491586237749815326123769854586234791
290080000003000074000506010050100620306904080087003005000342009014700000600090507,291487356563219874748536912459178623326954781187623495875342169914765238632891547
050010040278300000061280300009105080087400005000960702005003800000027901390000006,953716248278354169461289357629175483187432695534968712715693824846527931392841576
030695000100040800627100090040001080860402070203000500000009704590760010082000300,438695127159247836627138495945371682861452973273986541316829754594763218782514369
840000610500890000000012705700080300010005008006304020237900050400028107000600490,842753619571896243693412785725189364314265978986374521237941856469528137158637492
040005001806200000030087490000700056057120003003400700081003005004060029060000180,742395861896214537135687492418739256657128943923456718281943675574861329369572184
100000046260087030000000005005360100903200800000091020390000400047803610080709052,158932746264587931739614285425368197913275864876491523392156478547823619681749352
060200800300105490500036001070050238002007060000900500080010370130460900945080000,761294853328175496594836721479651238852347169613928547286519374137462985945783612
001500302200731460000090000600809700780000015903040000060270000047365080000004003,471586392295731468836492157612859734784623915953147826369278541147365289528914673
100007305000928100607300004009100000240000607005060891002006043384750000970002000,198647325453928176627315984869173452241589637735264891512896743384751269976432518
604000800002030005830027090089540006100000053000102007207085640301009020040010070,674951832912834765835627194789543216126798453453162987297385641361479528548216379
040027060000130407350084020008006073760008900000045600581000200000000010602950000,149527368826139457357684129418296573765318942293745681581473296934862715672951834
040009002065034000208050040090000085800060370050700201412006007000047006030108059,143879562965234718278651943397412685821965374654783291412596837589347126736128459
940002053050070000001083004037010040000008520004900006000006900670230080025704601,948162753352479168761583294237615849196348527584927316413856972679231485825794631
009040010671300820000700305007200450080009200063100008020080009508420003704061000,359842617671395824842716395917238456485679231263154978126583749598427163734961582
000020860501003009920705400002800900060050000730001084004600598000907010603010200,347129865581463729926785431412876953869354172735291684174632598258947316693518247
040009600051080200007234005003001590000090000700460018800072400005803002009510007,248159673351687249967234185683721594514398726792465318836972451175843962429516837
900100003620000050073462000200508070830007200090000105000790016050003748004000900,948175623621389457573462891216548379835917264497236185382794516159623748764851932
100040603006002970080300100250760004003900006070208000068400205500009030027100409,192847653436512978785396142259761384813954726674238591968473215541629837327185469
583006010002050403000270000000008540007005300100040209905602000610700000300009170,583496712762851493491273658239168547847925361156347289975612834618734925324589176
000600000938100000004800721600097500302060100005210098040005007210040800700300206,127654983938172465564839721681497532392568174475213698846925317213746859759381246
800500000390008041104070006450900020706020000000607300008452090200030570000091008,867514932395268741124379856451983627736125489982647315678452193219836574543791268
304080001060002050000500009800000090000050620240016703079630510028097030600400008,354789261961342857782561349836274195197853624245916783479638512528197436613425978
008170000004200300300090087702800401000000050100750200095000000683020140400609530,568173924974268315321495687752836491846912753139754268295341876683527149417689532
054090020701280040006400819908000060500104000070000002005003000020005701010620084,854391627791286345236457819948572163562134978173968452485713296629845731317629584
000140320807200050004030069010760003005020000090300180900470005600905014402000700,569148327837296451124537869218769543345821976796354182981472635673985214452613798
308001200002300005019060400901043000000000609040508001205904860600805030004000900,378451296462389715519267483921643578853172649746598321235914867697825134184736952
039000002000463780700005410010000026903007000504820070078900100000380000002041065,439178652251463789786295413817534926923617548564829371678952134145386297392741865
789060410003018000400020300001093005200500009800000070000050706350004900102700080,789365412523418697416927358671893245234571869895246173948152736357684921162739584
000900200000005067050746083240060700180000020009030005700600040001207806590018300,367981254814325967952746183245169738183574629679832415728693541431257896596418372
530007001006500000070630000040301002910000407000020069003060080204100590008043006,539487621426519378871632945647391852912856437385724169193265784264178593758943216
713004600806050097000800001430000000000941030002506980027000000900308075504600120,713294658846153297295867341439782516658941732172536984327415869961328475584679123
000800000390002006078016423085074000012000650604005700000069002003750008040003500,426837195391542876578916423985674231712398654634125789857469312263751948149283567
002907004000040703080005000890001000540600092107350600000000210060780039350060080,632917854915846723784235961896421375543678192127359648478593216261784539359162487
