400075009930102005027300460348500006600830074010000000053006290009003000000780100,481675329936142785527398461348527916692831574715964832853416297179253648264789153
008900100061040020000300067009820706045009000700035008680000040000007509902081003,278956134361748925594312867139824756845679312726135498687593241413267589952481673
507800214049200830001070006400001720000360908358000000000047000080000609264930000,537896214649215837821473596496581723172364958358729461915647382783152649264938175
000000164462000008380000079690504700007003040005201003008107000010490530500026900,759832164462719358381645279693584712127963845845271693938157426216498537574326981
080400705005030100241000080000062300806059002000103600050010840094206070100090000,983421765765938124241675983419862357836759412527143698652317849394286571178594236
008205004007060380090040061500002019801006050200700430030900006720008900004670000,618235794457169382392847561573482619841396257269751438135924876726518943984673125
400017030003090501870600000020870060510000800000000923030004056908030400700521009,495217638263498571871653294324879165519362847687145923132984756958736412746521389
270000008005200904000031060140570300009002050600090420003089647904300010080650000,276945138315268974498731562142576389839412756657893421523189647964327815781654293
720650001600090300003207950004006130590030002002100708906310004037004080000000000,729653841658491327413287956874926135591738462362145798986312574137564289245879613
001720950000300400236009100905000010300010027078060000087004035000008009403502600,841726953759381462236459178925847316364915827178263594687194235512638749493572681
700300869000974000250600340405200006000000510820700000006430008500008930040090071,714325869683974125259681347435219786967843512821756493196437258572168934348592671
002085040300000209090070001060004035870002190105000007004500006006031070930800400,612985743357146289498273561269714835873652194145398627784529316526431978931867452
030000105500060020942008030800009000200070094010283070078450001600700240000090053,736924185581367429942518637857649312263175894419283576378452961695731248124896753
200090087750003004014050200020480003390070000006502091080000025070810000001006400,263194587758263914914758236127489653395671842846532791689347125472815369531926478
300096200001000005070040810000034096509070080800065700130027000005400360900008074,358196247491782635672543819217834596569271483843965721134627958785419362926358174
080003040000000690500072000904510060001800400038200007010650004003049051070000980,182963745347185692596472138924517863751836429638294517219658374863749251475321986
500004030008060000460590027050030081703080050100702400010376095290040008070000106,527814639938267514461593827652439781743681952189752463814376295296145378375928146
407850300005032090020940005809107006100009008062000900510200040000008030003670021,497851362685732194321946785839127456154369278762584913518293647276418539943675821
070400082805061000004200300006030501002007640401500900109083060350000800000190070,673459182825361794914278356796834521532917648481526937149783265357642819268195473
002000090873001005910430800067000000000170042030250080000803900006900000480705601,642587193873691425915432867267348519598176342134259786721863954356914278489725631
500031268072040300000006005004620900001054020097800400006000183430000500000082090,549731268672548319183296745854627931361954827297813456926475183438169572715382694
040000021601790005000500800020037000906010000000008403700620500053004610009003278,547386921681792345392541867824937156936415782175268493718629534253874619469153278
003147200610050900008200030704002000050670008060300059005000004040930160900008005,593147286612853947478269531784592613359671428261384759135726894847935162926418375
000700040908032610060059003300007280120000050400016007003080009050001704002904008,531768942978432615264159873396547281127893456485216397743685129859321764612974538
904702530003008010060040000000380600071059400038000052005000708210065009000900020,984712536753698214162543897529384671671259483438176952395421768217865349846937125
009100506680500390000007000032846000000000208005900034070200050091008027506301400,249183576687524391153697842732846915914735268865912734478269153391458627526371489
005006072060540001301080000009000005000009160038020004904700000700032850800601020,485916372267543981391287546179864235542379168638125794924758613716432859853691427
705002031980430056020080000600000025000001070870560904000058060003900407160020003,745692831981437256326185749614879325539241678872563914497358162253916487168724593
027603090100008040003910005800390060070081900500400002000000080062007301340005200,427653198195728643683914725814392567276581934539476812751239486962847351348165279
006000008500904020471000630005097012040301970000206400130800065004002000090700100,926173548583964721471528639365497812248351976719286453137849265854612397692735184
050021000703000420000080609207009000060140900004600805005000000300570218602398007,956421783783965421421783659237859164568147932194632875875214396349576218612398547
804096007520030900006207030918300005000000700003952400070820006041000009000415300,834596217527138964196247538918374625452681793763952481375829146241763859689415372
400100785020409001003000002804203000100005678950000000070000500005320014009060830,496132785728459361513786492864273159132945678957618243371894526685327914249561837
001030000040206105079400003000602800050080027090301406680000004700063000020705001,261537948348296175579418263437652819156984327892371456685129734714863592923745681
940203805006400007070608100004000008050807230620010500005000491000060002207904003,941273865586491327372658149734526918159847236628319574865732491493165782217984653
078029100049001000502380060004007032000600018030450900900000257100003004006800000,678529143349761825512384769864917532795632418231458976983146257157293684426875391
003006015008020400061903700010302007706000890905070040000865009000000000007140352,273486915598721436461953728814392567726514893935678241342865179159237684687149352
203910050008063000400200009000596003020304981700001000046000700370080015950002600,263917854598463127417258369184596273625374981739821546846135792372689415951742638
076001005200908000930000407000710302020050000610040900000300040498020170750000826,876431295245978631931562487584719362329856714617243958162387549498625173753194826
041800630900410000060007090500020001078005403003008960000043010000092870752600000,241859637937416258865237194596324781178965423423178965689743512314592876752681349
000010087040206009900080430050300008600745100027008600001009052273600000400003001,536914287748236519912587436154362978689745123327198645861479352273651894495823761
000807002350020809600031050090100600002080470000065000510046030030000107704003090,941857362357624819628931754495172683162389475873465921519746238236598147784213596
060000100800200300200007098900020401740306080008100650030079046000001020075860003,564983172897215364213647598956728431741356289328194657132579846689431725475862913
093070806100063905070040100047009020500324000010000000800000607400086059006501003,293175846184263975675948132347619528568324791912857364859432617431786259726591483
056008201193000000000560007000603028040070096000004500009150080801007000007030604,756398241193742865284561937975613428348275196612984573439156782861427359527839614
503007924900001000076002500001600000038015700000083002200070049004500008190400260,513867924942351687876942531721694853438215796659783412285176349364529178197438265
060008000200007034003014506004089060000021700087530002009000805032900010050060340,465398271218657934973214586524789163396421758187536492649173825832945617751862349
030005604160039020800670000900012430600390075050000000002004150590087000017200800,739825614165439728824671593978512436641398275253746981382964157596187342417253869
004015006000008013061490507708000902000000301010540060380069074640370085002000000,234715896597628413861493527758136942426987351913542768385269174649371285172854639
070008032001540090000010700000050003080760425902800001209103068018900007005400000,574698132321547896896312754467251983183769425952834671249173568618925347735486219
000400070069081000000035941102000507030000409070062300826070000003000050005204680,351429876469781235287635941192348567638157429574962318826573194943816752715294683
001000738060980050240000006004009070300010690095074081502600300409027005000050100,951246738763981452248735916124869573387512694695374281512698347439127865876453129
000007500904200000000390280020076109069810702051004030003000961000045008017000000,182467593934258617675391284328576149469813752751924836543782961296145378817639425
100050000053040700002010608040023900001406305065900027800000002900800130000732006,189657243653248719472319658748523961291476385365981427836194572927865134514732896
000700030406203510080010709521060070000530100009800000068040302750609400000080000,192758634476293518385416729521964873847532196639871245968147352753629481214385967
500000406890006020017030500009508603000700080480610005200000759060800004930002001,523987416894156327617234598179528643356749182482613975248361759761895234935472861
009600010010403607807005900001009003034501008780002050050800700002037045100004020,349678512215493687867215934521789463934561278786342159453826791692137845178954326
000100035020890060450320000010700580009002070000000401006070300091500007700084026,968147235123895764457326918614739582589412673372658491846271359291563847735984126
600002019070480020300060800000300090190700458504000006200007061005201900807005043,648572319971483625352169874786354192193726458524918736239847561465231987817695243
000800023105009070060000019340750090090018300080000762014205000900070006702390004,479861523125439678863527419346752891297618345581943762614285937938174256752396184
008030910030000750075029008000082071000004805091007260400001603312000040609500000,248735916936418752175629438564982371723164895891357264457291683312876549689543127
078000000106800040900540007800072590000130604617000008500009700040005120300026009,478263915156897342923541867834672591295138674617954238562419783749385126381726459
007590603000703010009000004300807260026004005090001308004000001080060520072018090,417592683658743912239186754341857269826934175795621348964275831183469527572318496
040901630070400005261000007038004020007150400100006079506300008000009300410025090,845971632379462185261583947638794521927158463154236879596347218782619354413825796
820410060000900582005003701600040000000000127009380050406000000501090008230567000,827415369143976582965823741652741893384659127719382456496138275571294638238567914
302800900008200510940600038010000040005072006690501700000096002000040070400300081,352814967768239514941657238217963845835472196694581723183796452526148379479325681
100620004000000008072040905000490500830010049450008203005006300016000070083179000,198625734564937128372841965621493587837512649459768213745286391916354872283179456
008100024037020010500000900060407001070009500009860030002090860310204050900730000,698175324437928615521643978863457291274319586159862437742591863316284759985736142
070000823000000065506009410001480000607005004980020300400002109000046008390710600,179564823843271965526839417251483796637195284984627351468352179712946538395718642
608120009040070006070430080800500760503002001090304500009000050300807100012009004,638125479245978316971436285824591763563782941197364528489213657356847192712659834
380000400004190350070604029205080034030001670090050000060807590007000001040002000,389275416624198357571634829215786934438921675796453182162847593857369241943512768
380002005000700200071536008046097002000000093010084000032000054009170006007405010,384912675695748231271536948546397182728651493913284567132869754459173826867425319
058070090324001000607348000010005600009100580002000073000090431705800006040032800,158276394324951768697348215813725649479163582562489173286597431735814926941632857
450010073000007900206094050008000290047500018900031000000080006802405100530902400,459218673183657942276394851318746295647529318925831764794183526862475139531962487
028000760103500904400002030002930000706000083050610070000005000007461090045003802,528349761173586924469172538812937456796254183354618279931825647287461395645793812
009410200005006400000070038018300542020000000764000100000635007300108090082090005,879413256235986471146572938918367542523841769764259183491635827357128694682794315
005000030006000217000819004070052000300407002520690800001700000203008040980003600,415276938896534217732819564178352496369487152524691873641725389253968741987143625
010765204007000010030020090000900700080300620965080000400009160520801003003070408,819765234257493816634128597342916785781354629965287341478539162526841973193672458
040956070001800000309020040095100030620080700803000605052040000000278001400003096,248956173571834962369721548795162834624385719813497625152649387936278451487513296
406082000570900006000700410090500000305000802608473009001030540702090300030160900,416382795573941286289756413197528634345619872628473159961237548752894361834165927
000701302040009607130000004005862400490000803076000050060920008703000900080054020,659741382248539617137286594315862479492175863876493251564927138723618945981354726
003080000000740690905601204021003000500006179760008000004500016300000900107002805,643289751812745693975631284421973568538426179769158432284597316356814927197362845
009074150008203004310050700500096000147300060000020870203508009060000000090140200,629874153758213694314659728582796341147385962936421875273568419461932587895147236
700006005002070690031540020810030050300001204049000000000600780900103002586900100,798216435452378691631549827817432956365891274249765318123654789974183562586927143
608900000740050623000042700000400900300008562100065008006070091980300040050200300,628937154749851623513642789865423917374198562192765438236574891987316245451289376
000406257070800000051092600020000508907300010048020030290007040080560001305040900,839416257672853194451792683123974568967385412548621739296137845784569321315248976
030040517016000400002009630170003069083000700004200001000057020000896004509004803,938642517716538492452719638175483269283961745694275381841357926327896154569124873
080070091050006400702030086600020040830540000004100903041900075000700200020010009,486275391153896427792431586615329748839547162274168953341982675968753214527614839
500040083001879400000503001609008720010002006802300000094000500200050307000106009,527641983361879452948523671639418725415792836872365194194237568286954317753186249
003150700098002000400079306010490000000008052604700010005000079920030604100087005,263154798798362541451879326512493867379618452684725913835246179927531684146987235
840000000002308067005209800600002035000710000900056004503900070020000153001004026,846175392192348567375269841618492735254713689937856214563921478429687153781534926
000570000301008650007903000620300541003800090070060002030409100000000280450081360,284576913391248657567913428628397541143852796975164832836429175719635284452781369
600032000000870610090500007210000095000003800050100240030607004580004023027080109,671432958345879612892561437218746395964253871753198246139627584586914723427385169
120050693780620501000000000900507014003180025000040000390864000210309008600000070,124758693789623541536491287962537814473186925851942736397864152215379468648215379
801040900069013705040062000420000380790200006106050000300570020050006001008009400,831745962269813745547962138425691387793284516186357294314578629952436871678129453
602073080300000049014060200000704500006009012257180000001390004900650071020000050,692473185375218649814965237139724568486539712257186493561397824948652371723841956
004170000580920003030000006000040021001005090469000800700680400903017000026004015,694173582587926143132458976358749621271865394469231857715682439943517268826394715
021095006003000008005040900000002079462019805300000410870056200009200001000073000,721895346943627158685341927158432679462719835397568412874156293539284761216973584
705102300039075060100809004900006000070000058062300401450090230080754000000200000,745162389839475162126839574918546723374921658562387491451698237283754916697213845
048013000300250070590406000900004020000090601064807003203700080670001004000002095,748913562316258479592476318935164827827395641164827953253749186679581234481632795
