168500900400901005020060708080609300002000070040075001300014020005000084000700609,168527943437981265529463718781649352952138476643275891396814527275396184814752639
301070820002340000008500009967200004000450090200086010000090031709060250410003007,341679825592348176678512349967231584183457692254986713826795431739164258415823967
081004320000907050600030400007000900300072010020305006002006800830400170059810004,981564327243987651675231489567148932394672518128395746412756893836429175759813264
400050007503080210026000000000094803004702009307510600009007004805003020000160030,418256397573489216926371485251694873684732159397518642139827564865943721742165938
000043600802900004300107090009025008104769500000010700010000370600578000090600002,951243687872956134346187295769325418184769523235814769518492376623578941497631852
800090410423500000010800070952000061000200850000003004037002000106037920004600008,875396412423571689619824573952748361341269857768153294537982146186437925294615738
007204508009006000010030000096010007200059430050803091000608023008070164400020700,637294518549186372812537649396412857281759436754863291175648923928375164463921785
790000203501008400000002560430701006000060000012090038060300019003289000070500040,796154283521638497384972561438721956957863124612495738265347819143289675879516342
200000703706004098080005010002803006439700080000201050500007000000160030940000107,295618743716324598384975612152843976439756281678291354561437829827169435943582167
306804972900010060075000108004000700050006001230507080000089005062300040109040020,316854972928713564475962138694128753857436291231597486743289615562371849189645327
000102059079050080300080000908020600000040701760305800014960003230000060005008070,486172359179453286352689417948721635523846791761395842814967523237514968695238174
000000028580200060000970403870040600320019007005006100200600004903020510017050080,734165928589234761162978453871342695326519847495786132258691374943827516617453289
002010090850006047001005302000700000065040039079031800204890075500000004000600010,642317598853926147791485362328769451165248739479531826214893675536172984987654213
030594000000002014760300002800130900050008000170450603020000008005016200409800750,231594867598672314764381592846137925953268471172459683627945138385716249419823756
050080046000796200820001000600000007180069002092100308000430000071000030035002809,759283146314796285826541793643825917187369452592174368968437521271958634435612879
790000000040000382100652004931000670008009421000500008074908500060731000000020860,792843156546197382183652794931284675658379421427516938274968513865731249319425867
600007000900050420100380096305000001009004238040009007002000019007048360010020500,623497185978651423154382796385276941769514238241839657432765819597148362816923574
084700015170000000006002004000010083901500070008930600060000007740003020205609300,384796215172345869596182734657214983931568472428937651863421597749853126215679348
800260509007300204000015780000009420021000060460000050140702003508000000009183000,814267539657398214392415786785639421921574368463821957146752893538946172279183645
006000050090007008085100402030080710002600000070041030020900603010002507408035009,746328951291457368385196472634289715152673894879541236527914683913862547468735129
204000006130200500070610040010902300050080090607003004000060152009300070800045000,284537916136294587975618243418972365352486791697153824743869152569321478821745639
000903000106200087030010045900600070005008210820057603340000009001000052070862000,457983126196245387238716945913624578765398214824157693342571869681439752579862431
090000008003704091020308645004006007019200060506070030001605820000001000002800409,495162378863754291127398645234516987719283564586479132971645823348921756652837419
000150703579000680010000020000340009308700050120090006002060000807930400030280090,286159743579423681413678925765342819398716254124895376942567138857931462631284597
200409000900010503086005020504780090601500300003020705000640978010200000008030001,235469817947812563186375429524783196671594382893126745352641978719258634468937251
010200500052001048700304090500070260800006000970000003600018004040760010003902050,419287536352691748768354192534879261821436975976125483697518324245763819183942657
057042380400500007180370049006084700000060050009700034208009000000001003094050201,957142386463598127182376549536984712741263958829715634218639475675421893394857261
005804001903600070000017050020790006708400320500006140300002908084300010006500002,675834291913625874842917653421793586768451329539286147357142968284369715196578432
562430000300090020040160800003006100480000097007580002800001039001020640075009000,562438971318795426749162853253976184486213597197584362824651739931827645675349218
900160047230000010000504009400906805050040700000230004520697030006300078009010000,985163247234789516761524389413976825652841793897235164528697431146352978379418652
004000008105009630300020050001070020400050970780062400800300702509280060000004000,674531298125849637398726154951473826462158973783962415816395742549287361237614589
000000092800045000400693780000584009003012000000000074075806001600001200029050006,536178492897245613412693785761584329943712568258369174375826941684931257129457836
030080520290043800607090100068430000400000076009017000006000942010000050502008603,134786529295143867687592134768435291451829376329617485876351942913264758542978613
790030080206010030000006049070008520850000004003420100080600003509000067001007800,795234681246819735318576249174398526852761394963425178487652913529183467631947852
700140305060802100309000800250000607000900004084070000000010050630007408047628010,728149365465832179319765842253481697176953284984276531892314756631597428547628913
380200070790500400000096005001860290004007501809030006040079000100300020058410300,385241679796583412412796835571864293634927581829135746243679158167358924958412367
000015000960800004007920010040000300082003465300501070000079500600450008034006720,423615987961837254857924613745268391182793465396541872218379546679452138534186729
002048500700020810003509000204010080850730020090000704400200090000006003600387105,962148537745623819183579462274915386856734921391862754437251698518496273629387145
010840900005001006400006208930000020007030605008407100060500873070392000001008400,612843957785921346493756218936185724147239685528467139269514873874392561351678492
009200704104906000520007080080020003007631900001400000400010007000509402630800590,869253714174986325523147689986725143247631958351498276495312867718569432632874591
040600301800000042005018009003050008000006790060932004020790010300500020671004000,947625381816379542235418679493157268152846793768932154524793816389561427671284935
017002009400700638058600000020000501070000060034001072900086020000150040005094003,617832459492715638358649217826473591179528364534961872941386725283157946765294183
360080000490070028500001304080902030010056400200300075609804100007000003120000096,362485719491673528578291364785942631913756482246318975639824157857169243124537896
830000200000080547200017080625000004040009000900060805060008003401070900070052600,837945261196283547254617389625831794748529136913764825562198473481376952379452618
000730802008569300091000050406000000080070500000013649602080005070002081010394000,564731892728569314391248756436925178189476523257813649642187935973652481815394267
210400060068150324003600508090080432082300700000790000000000271700815000000006090,215438967968157324473629518697581432182364759534792186856943271729815643341276895
206090800300400690900107052032008005000000001001045063087900000000054070159020030,276593814315482697948167352732618945564379281891245763487931526623854179159726438
001038006047090001960500007008000070500073400000006053002000090400801305630047200,251738946847692531963514827318459672526173489794286153182365794479821365635947218
000450700120098400008706009870030060203960005094000100300210070000003500540000280,936451728127398456458726319875134962213967845694582137389215674762843591541679283
905200370700000104030800009358000006400601000000070402002350600109060050060024000,915246378786935124234817569358492716427681935691573482872359641149768253563124897
026009300070500001900180060000052004400630025600000780800004509030070010090008072,126749358378526941945183267713852694489637125652491783867214539234975816591368472
003000410097106850060800703500020067000043209008007030010060900206790001040000005,853279416497136852162854793534928167671543289928617534315462978286795341749381625
000780023080020145000605000400000807601057009000130200302000900059002001040069080,594781623786923145213645798435296817621857439978134256362518974859472361147369582
040009020000086300506720080400018530060047900008000000002095000153000790900002601,847539126291486375536721489429618537365247918718953264672195843153864792984372651
400198050000000000700306209605843010302060700090000000060001008230004005108705300,423198657956472831781356249675843912312569784894217563567931428239684175148725396
000006430704500001100700092080039020026100004400005780810020300049081605000900000,952816437734592861168743592587439126326178954491265783815627349249381675673954218
008020490000053000413907600037004000901005040006000132809700050000008000020561008,758126493692453817413987625237614589981235746546879132869742351175398264324561978
009002810826070009430590000000003008702000060048010902050280307007005640100006000,579362814826174539431598726965423178712859463348617952654281397287935641193746285
000060072080902100004050890090100206500043000208005037060010340109000000307409020,931864572785932164624751893493178256576243918218695437862517349149326785357489621
000786005832001400000200009008420500013000700020197060050009018601008034304000000,149786325832951476576234189768423591913865742425197863257349618691578234384612957
094020030106040200200093067003000045501280300000001008040800600600005900082007010,794526831136748259258193467823679145571284396469351728945812673617435982382967514
742003800910070065500010020000000500157094000230801690080730002000209003000005470,742563819918472365563918724896327541157694238234851697481736952675249183329185476
045302080060000104003006200100053607800740093500000000000970040009064050072100800,745312986268597134913486275194853627826741593537629418651978342389264751472135869
000070402010306850800905000502804900000003604900010005608200700000000010074050238,365178492419326857827945163532864971781593624946712385658231749293487516174659238
070900620060012005400070009040065100009300000300720048020084050081090070600100300,175938624968412735432576819247865193859341267316729548723684951581293476694157382
028507003900340070003800001600031400259000006000960780705000020030004600104709005,428517963916342578573896241687231459259478316341965782795683124832154697164729835
705203001460070000000160508004000900056001020200600007000985300002300486013400090,785293641461578239329164578174852963956731824238649157647985312592317486813426795
401638000000010063070429008800000000247060500009507014003800795028003001500000030,451638927982715463376429158815294376247361589639587214163842795728953641594176832
700061830050080700600400120080307040260804900090000507020000091304018600005002300,742561839159283764638479125581397246267854913493126587826735491374918652915642378
007000000060203081400000902209004000500080160380500009002709000003048500150300004,827491635965273481431865972219634857574982163386517249642759318793148526158326794
060400201108670009003800057200090800091003004057000000000080570406520103070060020,765439281128675349943812657234796815891253764657148932312984576486527193579361428
000061500600005029100703008800904012000000090095012360380500000070040200200308406,948261537637485129152793648863954712421637895795812364384526971576149283219378456
050096170034000200900200300400801030060000800100025009098170050007054008000003620,852396174734518296916247385479861532265739841183425769698172453327654918541983627
005089004000420007390106500081030000070008930009510802060004000207000105008000470,725389614816425397394176528481932756572648931639517842163754289247893165958261473
000050700050081230030247080007908000826000090000130000600000050143520008002790306,268359741754681239931247685317968524826475193495132867679813452143526978582794316
018600047740003056009002000030000780000040060207501000080030421000108009500200630,318659247742813956659472813134926785895347162267581394986735421423168579571294638
200006841000450073009800050600000319010070000905380000080000700703560002040090605,257936841861452973439817256678245319314679528925381467586123794793564182142798635
600320900709061030042008005500040860891000000004507000007604520000002100020050489,618325947759461238342978615573149862891236754264587391987614523435892176126753489
090000302400009000600034750000005070079240100001060285014072000020000861030850000,197586342453729618682134759268315974579248136341967285814672593725493861936851427
098002300703090026060070400301000060009041075200080003150006090007900004000024851,498562317713498526562173489341257968689341275275689143154836792827915634936724851
090005460800020057000004002350097210900610840000200700420089001100030580007006003,291375468846921357735864192358497216972613845614258739423589671169732584587146923
032190008490830006008600005009380070043200801010004090000006510000570402207000060,632195748495837126178642935529381674743269851816754293384926517961573482257418369
000035600109060000050108300400003086607500002090820170800700025510000009072004010,748235691139467258256198347421973586687541932395826174863719425514382769972654813
300000685000902400547000100001000304080060020009130070070610003008047509620500008,392471685816952437547386192761829354483765921259134876975618243138247569624593718
009007102060500080104603095800006004700901500005080010098002600000400030032090807,359847162267519483184623795813256974746931528925784316498372651571468239632195847
804050000060030070000208100400100003023600090080900620250004069009802305107009084,814756932962431578375298146496127853723685491581943627258314769649872315137569284
300008901708200305020500060004010096009004270587006030002003450800092000010040700,356478921798261345421539867234817596169354278587926134672183459845792613913645782
000030705307010094000068020003000000200400081085627300001800400406570900008001070,812934765367215894594768123643189257279453681185627349751896432436572918928341576
031000020600352400480060090008070309920008000000004870013090000000500716006720004,531849627679352481482167593148275369927638145365914872713496258294583716856721934
005016039020000807970023004060507020200304080500000900040009078006030100098602400,485716239623945817971823564864597321219364785537281946342159678756438192198672453
504107300160000040080630095000700060000201004020053007038040000215000089607009002,594187326163925748782634195451798263379261854826453917938542671215376489647819532
007500194105600020098004000004208000810000006920030075050006003000790050062105000,637582194145679328298314567574268931813957246926431875759826413481793652362145789
670000038010947000254000000406010200500690000100200390000502800730080609000300124,679125438318947562254836917496713285523698741187254396941562873732481659865379124
200000700904005010005021006170400000000000038803290004000083957060010800000574020,216349785984765312735821496172438569649157238853296174421683957567912843398574621
023005070690200000400007601001300780004180500260004900500073090000090038800060100,123645879697218345485937621951326784374189562268754913512873496746591238839462157
630708000020010008800600400008905000070040309000260010309004082500020641010000700,634798125725413968891652437148935276276841359953267814369174582587329641412586793
009610040080000000401053907067200030500700000002980006006304018240007650700008200,379612845685479321421853967867241539594736182132985476956324718248197653713568294
004130600750060300000002084460200105008040073092005000040001002000058906083409007,824137659759864321136592784467283195518946273392715468945671832271358946683429517
506300010001004087004902500800009056000031009070400030340508601007000002090276000,526387914931654287784912563813729456465831729279465138342598671657143892198276345
401000209080000035006927000900206008800730010050000400760010042020800603304050070,471583269289461735536927184917246358842735916653198427768319542125874693394652871
