050210049809003005042050300008360900000408002700500600900007010473100206006000058,357216849869743125142859367528361974691478532734592681985627413473185296216934758
083017002000003490746500010297040000010030904500001080000000600061700025002180730,983417562125863497746529318297648153618235974534971286879352641361794825452186739
300004000602050807804000603010002070007003456900400000008010790040800002026700305,371684529692351847854927613413562978287193456965478231538216794749835162126749385
007890200640000000052040001090200800508001604100603095970300060001520087003000050,317895246649132578852746931796254813538971624124683795975318462461529387283467159
107500409052900008000068000960003150030001074070200000804307020000140900010800503,187532469652914738349768215968473152235691874471285396894357621523146987716829543
000700000200003045568010700700940000050600021040008300471060800000002030092405060,934756218217893645568214793723941586859637421146528379471369852685172934392485167
050980120010004500607000003509200040480310000200065008900000800008106304003050709,354987126812634597697521483539278641486319275271465938965743812728196354143852769
002745089059200004003080010508030601060000230041002000000591400700428006000000005,612745389859213764473689512528937641967154238341862957286591473735428196194376825
080600300009084560000003097010308059908402006036010470000106002492000000105000780,587691324329784561641523897714368259958472136236915478873156942492837615165249783
052100070000740090109000600600004010210530000000902700930087400000090560064000003,452169378386745192179328654693874215217536849548912736935687421821493567764251983
060504090000310002300069000090607410008020900054000000020890103580000607130705020,862574391945318762371269584293657418618423975754981236427896153589132647136745829
200800030097003060806750900070002003369007801000009504020000409050010080004068007,241896735597423168836751942475182693369547821182639574628375419753914286914268357
900000307820900400010005002502307104006080900790406080603070000150024000009031600,965248317827913456314765892582397164436182975791456283643879521158624739279531648
003740600006000017200059008004208009100970230000064050690100420080000005070020006,853741692946832517217659348534218769168975234729364851695187423382496175471523986
201000705050100489390050000016030070000800200400670008702004096539060001004008320,241986735657123489398457612816235974975841263423679158782314596539762841164598327
236000090400500000801090306007400018000082700003600000300001540002006009905007802,236718495479563281851294376527439618694182753183675924368921547742856139915347862
042609017030000006001802500170050080003400009050200630407308200800061004065000000,542639817738145926691872543176953482283416759954287631417398265829561374365724198
007319005000080209010000800038106000059230040600405700100900084004753620360000500,287319465543687219916524873438176952759238146621495738175962384894753621362841597
003000000400085200600370590059204003100007400020010068040106009070952800005000310,513429687497685231682371594859264173136897425724513968248136759371952846965748312
480070000600000521200950000007200980001068700800300004360001290090005807000420603,485172369679843521213956478537214986941568732826397154364781295192635847758429613
024800750000030010500060004006302000900100407483059000005008000730600902001970065,324891756867534219519267384176342598952186437483759621695428173738615942241973865
083076010009802000460000307051000096600040128000000750890063000070908004020010060,583476912719832645462195387251387496637549128948621753894263571176958234325714869
000308024035000001184570000000609000510000008760020300408706050900003407006100200,697318524235964871184572936843659712512437698769821345428796153951283467376145289
070003900060500002140020005920430800001005060600007000030800710002001040508709306,275613984869574132143928675927436851381295467654187293436852719792361548518749326
765080009008400210000739000600095000007300000094001028100900070080060053302000604,765182439938456217241739586623895741817324965594671328156943872489267153372518694
705060000020034608000007301408600007003020096000900004109002000300180029046050800,735861942921534678864297351498615237573428196612973584189342765357186429246759813
005802079900010000002003500200000600007008941800647020000420103630701008009000054,315862479976514832482973516243195687567238941891647325758429163634751298129386754
000709008030000090050680400310020640000004953060907002425018700600000080701400200,146759328837241596952683471319825647278164953564937812425318769693572184781496235
000030001084209730700800050500004600063010890020370000070005900048060002002790310,295637481184259736736841259517984623463512897829376145371425968948163572652798314
027003056600040090090008102064501970080090000200400003800079230050600001701050400,427913856618245397593768142364521978185397624279486513846179235952634781731852469
007309840008006052009150000500063080006500009320900100400002706800000530000740010,657329841138476952249158673591263487786514329324987165415832796872691534963745218
700000614002900050805130000300081000000450803000009270060208430009047106580000007,793825614612974358845136792326781549971452863458369271167298435239547186584613927
040060715305040280600807000060300049000000100103078000008500000900002063700910500,849263715375149286612857394567321849284695137193478652428536971951782463736914528
019025007000300040200610000600090000080000730950048006830562004590000321407000080,319425867765389142248617593672193458184256739953748216831562974596874321427931685
900700048000050200304800570007008109108000400205039060010463700800001900020000005,952716348781354296364892571637248159198675423245139867519463782876521934423987615
005038000000000607008107900380900200006000041200056700401500020009420506000870034,795638412143295687628147953387914265956782341214356798471563829839421576562879134
064020180080090050502310400008042000031006270000000009000060530056400007009007018,964725183183694752572318496798542361431986275625173849217869534856431927349257618
000743800040010507002098000004000080530670019070304065059100000086025000400000302,195743826843216597762598134624951783538672419971384265259137648386425971417869352
075060092040050000610000480023500700000903001054780000800040317000002056000391000,375468192248159673619237485923514768786923541154786239892645317431872956567391824
000000900940805100000407035081000050500602014030000006204370009056020300070106080,765213948943865127128497635681749253597632814432581796214378569856924371379156482
002700160100800047063402050200080300900605000071003002000070910849060030000500004,482759163195836247763412859254187396938625471671943582526374918849261735317598624
050020000008030724030071809300000206000250040480000100170090068006700500000400307,957824631618935724234671859395147286761258943482369175173592468846713592529486317
000000060040317000518900000030200709409000805021705430003000000960020507082040190,397458261246317958518962374635284719479631825821795436153879642964123587782546193
200040907800509024000607800504100090000000036730080250080400003010270680903005100,251348967867519324349627815524136798198752436736984251682491573415273689973865142
100000000820046030000175600000508009409010708200000310031089006000307800070260540,167832954825946137394175682713528469459613728286794315531489276642357891978261543
300002087100950000004030900740005803800410070000006020506000002003009600018047305,359162487187954236624738951741295863862413579935876124596381742473529618218647395
100040078060000920048260050035000006090105740700820000000670000001009200003480105,152943678367518924948267351235794816896135742714826539529671483481359267673482195
007020003058000040000405001300540008280001760019070004602908500000007090000630100,467129853158763249923485671376542918284391765519876324642918537831257496795634182
000970053500041000004006027350000070208709530109080002820600010000403009003002060,612978453537241896984536127356124978248769531179385642825697314761453289493812765
406100030078060000100000402000090120009678004503400906002310009734002005000705080,426159837378264591195837462647593128219678354583421976852316749734982615961745283
070900802005040000040010097900200600620089010007301050010400060538007400260103900,176935842895742136342816597951274683623589714487361259719428365538697421264153978
169007000080500030003048700024900008000030501030004026710003090805060000000251400,169327854487596132253148769624915378978632541531874926712483695845769213396251487
000590180800640205002003000610300708097410006005020001960000050073900002000107340,746592183839641275152873964614359728297418536385726491961234857473985612528167349
040090056020001007100080290304200001050870300009010460700340980008007004006050030,843792156925631847167485293384269571651874329279513468712346985538927614496158732
490061007000003108007500000000240986060000000782010040130004200500000403206709050,493861527625473198817592634351247986964385712782916345138654279579128463246739851
300000907070206048104009060090600304402050600000007010016002005007800000250941080,368514927579236148124789563791628354482153679635497812816372495947865231253941786
000009400680510003200030570597006000000000967801002040100900002702104050050070080,375629418684517293219438576597346821423851967861792345148965732732184659956273184
300004087007630019005108000030090054020300001108005060240786000609203000070010400,312954687487632519965178342736891254524367891198425763241786935659243178873519426
000190200082006079700805300039710064025000800007080003006900408100450600000003050,364197285582346179791825346839712564425639817617584923256971438173458692948263751
108530000032004050090060700271400008603018000500000470000800632004096500000172090,168537249732984156495261783271459368643718925589623471917845632824396517356172894
092010607874002190000003800003000780085040000120560400050001000000900020649205310,392814657874652193516793842463129785985347261127568439258431976731986524649275318
100000500003002804080030910607010040019074680850900200090005003500827000460000000,146789532973152864285436917627518349319274685854963271798645123531827496462391758
800060074009805000160009300027003000600920000050071092003410060708350100000208400,835162974479835216162749385927583641681924753354671892293417568748356129516298437
030050069005620070702300010009010057510000400804200001108000096000904000203070008,431857269985621374762349815329418657516793482874265931148532796657984123293176548
000004800350060102060371050009700008020039001007020036008690007906403000210580000,791254863354968172862371459139746528625839741487125936548692317976413285213587694
007830049450090000800000102900210700005600310040508900020050000183007460006100007,617832549452791683839465172968213754275649318341578926724356891183927465596184237
002010590000002070800540001050007820201950000796800030570080000300091004004000986,642718593915632478837549261453167829281953647796824135579486312368291754124375986
400520000090017042030000106007009080020005703000061000018400097002093815003000020,471526938896317542235984176567239481129845763384761259618452397742693815953178624
060304800002010409070008120205600000907005042001000903300800007500047080010509060,169324875852716439473958126245693718937185642681472953324861597596247381718539264
001047000000008000694002017005320000067000501210050039056000900080910003030000078,821647395573198264694532817945321786367489521218756439156873942782914653439265178
087040050190800006006300207905080400004760003010004090030902705600000820059000034,387246951192857346546391287965183472824769513713524698438912765671435829259678134
200307980004062570130000004000000090052038040080601002670050000900810005001094038,265347981894162573137589264316425897752938146489671352678253419943816725521794638
000074050760310000140082090870049000013000074000200601090700045508000003000068200,382974156769315428145682397876149532213856974954237681691723845528491763437568219
000040670807026004030090502040007890109000026020600403490850300073004050008100000,952348671817526934634791582346217895189435726725689413491852367273964158568173249
040705800000000601039080740270301005000000024150069080780004090000900276300502000,641725839827493651539186742278341965963857124154269387782614593415938276396572418
900140005023075080008300000080014000741009006000200009060002398000060054007000100,976148235423975681518326947289614573741539826635287419164752398392861754857493162
800642700000500800030090506079004201005000003000801065910027000000036120207000004,851642739796513842432798516679354281185269473324871965913427658548936127267185394
900010507056200000870090003002040090735008041040036008400000100013000082000750900,924813567356274819871695423682147395735928641149536278497382156513469782268751934
070009680400320005519400007300900400087000001050018032096501200000000040002760800,273159684468327915519486327321975468687234591954618732896541273735892146142763859
070300000000604078500100230900010420007030010840090306060002000038500900200080105,472358691319624578586179234953816427627435819841297356165942783738561942294783165
700000906085074200100503000910000007000002504043680000098250401050030800006400390,734821956685974213129563748912345687867192534543687129398256471451739862276418395
051060040000057080970200100102000400000984000600700053064300920003000670800012000,351869742426157389978243165182536497735984216649721853564378921213495678897612534
000400605003920040068070020140003900070680000205700001002000080830590710000030402,927418635513926847468375129146253978379681254285749361792164583834592716651837492
071060030905800470000005020000000900407021005060940203080609050032000790000400801,871264539925813476346795128213586947497321685568947213184679352632158794759432861
800096010005000043004700002019070250326804000500010000700280406003060890090001005,832496517975128643164735982419673258326854179587912364751289436243567891698341725
800050704002701000001003806000020500083060000604970201100209005705006403390040080,839652714462781359571493826917324568283165947654978231148239675725816493396547182
020000000108026040500001063004670020053000009009230184030008006470900001000500790,326457918198326547547891263814679325253184679769235184932718456475962831681543792
200680350019040600000203000007400008038071009900060007702850040501037020600020900,274689351319745682856213794167492538438571269925368417792856143541937826683124975
980640005000537094000000000008060040500023716010004000050000320042905078069082000,987641235126537894435298167278169543594823716613754982851476329342915678769382451
601805302020190080000040500100400009360020040870610000400002008095000600203700015,641875392527193486938246571152437869369528147874619253416952738795381624283764915
360000400000380075002051096010920000409600037058003002090102060080070140000004500,365297481941386275872451396713928654429615837658743912594132768286579143137864529
700000408095130007300204500009007060046002901810000000080006045000050006002941003,721695438495138627368274519239517864546382971817469352983726145174853296652941783
003004008700001400600873502059000600070510003028400190200008004000200769045730800,513624978782951436694873512159382647476519283328467195267198354831245769945736821
800001074060020005430600900050080203090050060703090010004000826012700000009360700,825931674967824135431675982156487293298153467743296518374519826612748359589362741
050000036037210400900340000080034000009000860200800007806009075001000082072560010,154987236637215498928346751785634129419752863263891547846129375591473682372568914
010058000340002080006000001000005040038100072704090600980074020100300750005260009,217958463349612587856437291691725348538146972724893615983574126162389754475261839
020806340000700980004000006009002800043090710700410002008100520307000160600305009,921856347536724981874931256169572834243698715785413692498167523357249168612385479
040609300328000100106000005000900700000180026009352801030040500810023000500800004,745619382328475169196238475281964753453187926679352841932746518814523697567891234
800000000045001090000007642210300400608020907304805000007452080003000065090630010,826943571745261893931587642219376458658124937374895126167452389483719265592638714
509042080700603091020070604070000100034908000180400030000080510603500000800301020,569142387748653291321879654976235148234918765185467932492786513613524879857391426
