080030095503000100007690400809100000026007509040300026002000603105400002000506740,684731295593284167217695438859162374326847519741359826472918653165473982938526741
900405000100008600000090720806200030007831000020047150050004290090010806730060000,962475381175328649483196725816259437547831962329647158651784293294513876738962514
035027960940800000000000051500068030290000600018709040300954070860000014007100002,135427968946815723782693451574268139293541687618739245321954876869372514457186392
012008304905700200860900100401005908509234000070000000030001760000090021000806050,712568394945713286863942175421675938589234617376189542238451769654397821197826453
207050090800000146090300700600410000021007080005029003008730005060005409000206870,247651398853972146196348752689413527321567984475829613918734265762185439534296871
200605089036000000700940010579406000100800500008003027094018305000000200310507006,241635789936781452785942613579426138123879564468153927694218375857364291312597846
004000010790001208000905003630002045010030706500008090003000080027650009140800670,354286917796341258281975463639712845418539726572468391963127584827654139145893672
000502073090040000501678000008360200900080510000005040300200800640019002082400051,864592173297143685531678429458361297923784516176925348319257864645819732782436951
001000070008902604650030900070420003006059800300081205007000001510608400902005030,291564378738912654654837912875426193126359847349781265467293581513678429982145736
906002083170005040200460700000000000097080001600037208058300006001020490020041030,946712583173895642285463719832156974597284361614937258458379126361528497729641835
000700320064059001100000050005291080010008740300060000673100200092803005500006007,859714326264359871137682954745291683916538742328467519673145298492873165581926437
006500700140009006020003015007036004000800120509040038070021050830007000000004209,396518742145279386728463915287136594463895127519742638974621853832957461651384279
010900570900007030602000008300100050098002600150640800761009040004050001080020307,813964572945287136672315498326198754498572613157643829761839245234756981589421367
001079003005620008600000100060592017700803904000040680900706000820010040000004005,281479563395621478647358129468592317712863954539147682954786231823915746176234895
060700010300845070402603000087460050900000004230091007005008930000000001010030865,568729413391845276472613598187462359956387124234591687645178932823956741719234865
000900008008006570306040100010605430003180090725000000042000603600528007900400000,274951368198236574356847129819675432463182795725394816542719683631528947987463251
057006000960083040340905000600201708010800430004500009030004020000070091502090060,257416983961783245348925176693241758715869432824537619139654827486372591572198364
900273080800450096010000000000000350708960400021007000006590701200106908040008030,965273184873451296412689573694812357738965412521347869386594721257136948149728635
000105064000003507780006090406000380900000002020987050040708001003060200510020600,239175864164893527785246193476512389958634712321987456642758931893461275517329648
290850700008400002060097003340500000529006100607130000100080570004000006000072480,293851764718463952465297813341528697529746138687139245132684579874915326956372481
020900006504000030000085097070019000840600050613000200082003705100400908006027300,728934516594761832361285497275319684849672153613548279482193765137456928956827341
030007065980030040602000100050000024001065793207400000400070500010002386560198000,134827965985631247672954138356719824841265793297483651428376519719542386563198472
002070609030405082100300500050006017400001900280730006003904005060050200000010340,542178639637495182198362574359246817476581923281739456813924765764853291925617348
009005080000301004005720009006000008318070000000069102040086901090000450002000073,139645287287391564465728319926153748318472695574869132743586921891237456652914873
710000000005203006400700903000607409900030205020009710200514080680002000070890004,713965842895243176462781953158627439947138265326459718239514687684372591571896324
000802090010030004452060700080900103600500079007481020030007006079010000520000400,763842591918735264452169738285976143641523879397481625134257986879614352526398417
806007090952000004070050060120839600608400100000210400005003020710090800000600350,846127593952368714371954268124839675698475132537216489465783921713592846289641357
830079200100600370000004056580001700003065002070000490005090600097230008000000024,836579241154682379729314856582941763943765182671823495215498637497236518368157924
800510060074060009050008010081090050930006807400000002000749600002003401006250030,829514763174362589653978214281497356935126847467835192318749625592683471746251938
100009240008040060053800107760400009000521000000000413035090000290005800004708050,176359248928147365453862197761483529349521786582976413835294671297615834614738952
830059000420700019000006000060397400005100807290040030000000040980020001012030650,831259764426783519579416283168397425345162897297548136653871942984625371712934658
305012040800009700900000063004006020030500007016000489070003201090804530050020000,365712948841369752927485163784196325239548617516237489478653291192874536653921874
705080900130920040800500076600000051020000000070104820060702103000096005009418200,745683912136927548892541376684239751921875634573164829468752193217396485359418267
000184900650002008000000040900005760010039804047200500020010005300008410080570690,273184956654392178198657243932845761516739824847261539729416385365928417481573692
067000093200010708100009050001043009070096030004008200009050061000087400025300080,567824193293615748148739652651243879872196534934578216789452361316987425425361987
700900004062405010003002960010004700079200040380006500500100008800009620001000350,758961234962435817143872965215394786679258143384716592596123478837549621421687359
300084000400003520002001060000679300070010080049500002700000901800340076206000840,365284197417963528982751463128679354573412689649538712754826931891345276236197845
400020030031000602000150008609001080000097040287400300500306900070000100026900070,495628731831749652762153498649231587153897246287465319518376924974582163326914875
450390102021705009600000030003501270700006090508002003090480006000050780004000001,457398162321765849689214537963541278712836495548972613195487326236159784874623951
502000180080204097030600004004003000270980601006070509300006400008730025120000700,542397186681254397739618254954163872273985641816472539397526418468731925125849763
010000040509100008470060003004000020008375001190002000080241300206098500000603700,813527946569134278472869153354916827628375491197482635785241369236798514941653782
020800390030260045605070000009701580008000020010340600007004130200050000006900807,724815396831269745695473218469721583378596421512348679957684132283157964146932857
004500271002690300080007000035800190210300840000060030807026000609005010000070004,964583271172694385583217469735842196216359847498761532847126953629435718351978624
039520001856001007000306090700050100040702008085064203002900540160000800000003002,439527681856491327217386495723859164641732958985164273372918546164275839598643712
000000941400030050805009206340700002060500700001042090500900103690028005080070600,236857941419236857875419236348791562962583714751642398527964183693128475184375629
160300000000092057200045001003780102001054060980000400500400039602000700370801000,165378924834192657297645381453786192721954863986213475518467239642539718379821546
100700036069050200740000510800200600900030407000090050000605082023100740008004009,185742936369851274742963518854217693916538427237496851491675382623189745578324169
805007620039000000000060001500920006700018004092000005007085010300401902046003070,815347629639152847274869351581924736763518294492736185927685413358471962146293578
000780003000009070800143006504090100021006038007530024002060741706250000090000050,269785413143629875875143296534892167921476538687531924352968741716254389498317652
007000024001059000083200090010800005090300600800016000700564300000030208509108740,957683124241759863683241597316892475492375681875416932728564319164937258539128746
009076030700000005002140800800003014240010700005020096060900000058400167407500003,589276431714398625632145879896753214243619758175824396361987542958432167427561983
000000017308060004915008002009500046006200190730004020694003005100000300020975060,462359817378162954915748632289531746546287193731694528694813275157426389823975461
500030081009610700100204000070400650086003009000000020003092045908006070702150003,564937281829615734137284596371429658286573419495861327613792845958346172742158963
020010708840006000005047300034200006060431509200700100000980001092000600380052400,623519748847326915915847362134295876768431529259768134476983251592174683381652497
001000500800060043750180200040002900100009706009500080520047000006000030430600850,361924578892765143754183269643872915185439726279516384528347691916258437437691852
005940007600003000090208500100095070740000003203060901080000002317500060006081340,835946127672153498491278536168395274749812653253467981584639712317524869926781345
100369040200000607040700530020007380350600104004000090009150270062840000080000003,175369842293584617648721539926417385357698124814235796439156278762843951581972463
090040050580601307070000001049000705130970280000002004300508600006230400017009020,691743852582691347473825961249186735135974286768352194324518679956237418817469523
006090503920040000700562010001000746050800300402079008008001064010306005000020000,146798523925143687783562419891235746657814392432679158378951264214386975569427831
507034000002000067390208100000700018740009200008340500100460083060050000039800004,517634892482195367396278145953726418741589236628341579175462983864953721239817654
010060039020008150709000000004006320000000607170025084040200000005090801680037400,518462739423978156769153248894716325352849617176325984947281563235694871681537492
060004817020000390040170000009310020870040600600050001000037400005002060390800500,563924817127685394948173256459316728871249635632758941216537489785492163394861572
809070050003000746000602010014800009900005060007040100208403070700906003050020800,869174352123598746475632918514867239982315467637249185298453671741986523356721894
310020705008600000007143960080050004000001597030000102560037800020006000104092000,316928745498675213257143968781259634642381597935764182569437821823516479174892356
030407025012008300000005800670000000409000531008200009900100062065030408007089100,836417925512968347794325816671593284429876531358241679983154762165732498247689153
081050004070000650000142030000205900460307500920400083000009060630800000007610409,381756294274938651596142837713285946468397512925461783142579368639824175857613429
004030900060701040700000018090540080103600407050803002930002761000008500002096000,814235976369781245725964318296547183183629457457813692938452761641378529572196834
350000701010857090000102040600309007501700300020000080000086009009400230047500800,358964721412857693976132548684329157591748362723615984135286479869471235247593816
702806510950004680000000003000045070800000109013070260009037000040010796520600000,732896514951324687684751923296145378875263149413978265169437852348512796527689431
009006301005790004400208000610000500200480930000600012503002008802050090060030070,789546321125793864436218759614329587257481936398675412573962148842157693961834275
840070016019800005000300020480023001030006070005190480000059204703040900000608050,842975316319862745576314829487523691931486572625197483168759234753241968294638157
007300002000004510149800300006720098002403700050000060400980600020001930075000100,567319842283674519149852376316725498892463751754198263431987625628541937975236184
008400001020060005603200040500086090400150207017000030900310460070004908200008050,798435621124869375653271849532786194469153287817942536985317462376524918241698753
010007368020800059500000020049100500260400030000029800130074000000508607080600490,914257368623841759578396124849163572267485931351729846136974285492538617785612493
010689430005700600800050279009800000740006310501002006000071000008400900300900052,217689435495723681863154279639817524742596318581342796956271843128435967374968152
012096500500300060600071900060724000320800045180003009008065100090000703400200000,812496537579382461643571982965724318327819645184653279738965124296148753451237896
300060004080004102906250070014007000609000000700900831005480700070020009100603400,321768954587394162946251378814537296639812547752946831265489713473125689198673425
030000001045026009070340008001769030026004090000080104800070002960015700300200500,638957421145826379279341658481769235526134897793582164854673912962415783317298546
048090000100840360037600010006073405000020070010905020003000200200500987009018006,648391752152847369937652814826173495395426178714985623583769241261534987479218536
500000601760025803080490007050301080020700006904080070000000000006070329395004010,542837691769125843183496257657341982821759436934682175278913564416578329395264718
040580000381900400600070030400700502705030001028000090090150600010004789200006003,947583216381962475652471938439718562765239841128645397893157624516324789274896153
200090000085600031109584700060801405000720019050000308000000040003906207000017806,276193584485672931139584762962831475348725619751469328697258143813946257524317896
000108003090070510280036907002003460008059000400600001709005200004000300650002074,547198623396274518281536947972813465168459732435627891719345286824761359653982174
460900710108005306790008200002007000670100000000290840910063080030020600000401005,465932718128745396793618254842357169679184523351296847917563482534829671286471935
040039750020461900008000006167020000500100037000098500410900070003004008072005609,641839752725461983398257416167523894589146237234798561416982375953674128872315649
035000080400006100000700260040508070000300091801020500016057300000980016003200409,635142987427896135198735264349518672562374891871629543916457328254983716783261459
081400500005091006340070020900530480070206050403100000096000004800062700000300809,681423597725891346349675128962537481178246953453189672596718234834962715217354869
500980001003706504017003600052470010400000200090601300000000087009350460084000900,546982731823716594917543628352479816461835279798621345635294187179358462284167953
307082090089400600000003870461508030070001000002030069005100002040005000036020705,317682594589417623624953871461598237973261458852734169795146382248375916136829745
800000026015000400000071309083054900100690000700023085060007540008439000230010007,897345126315962478426871359683754912152698734749123685961287543578439261234516897
010500007004608130320040069070010200900320048500006000030700025897003000040001800,619532487754698132328147569473819256961325748582476391136784925897253614245961873
009600003083050940005020010407500000000072006902308007300049100000000080510807030,129684573683751942745923618437596821851472396962318457378249165296135784514867239
010000803300200940084009007001607000056000102200005004005096370408070206009380000,912764853367258941584139627841627539756943182293815764125496378438571296679382415
070040008006080320018609000030050000102700460000001759095270016081905007000003040,573142698946587321218639574739456182152798463864321759395274816481965237627813945
006002800090040070000853000308060920275300010000407000061080040400500200932700605,156972834893641572724853169348165927275398416619427358561289743487536291932714685
200890006090000420000502007000080070300001804700006105020610000604973008005408301,237894516598167423146532987451389672362751894789246135823615749614973258975428361
400700920190080604078406000039500100801002700500304096060000003002150000700020080,456731928193285674278496351639578142841962735527314896965847213382159467714623589
009000020030071000654800097086004075000090014070005900000500209045080001102047030,719456823238971456654832197986124375523798614471365982867513249345289761192647538
049300050520107000306009200000700008080000904400520136010036000750040800800000319,149382657528167493376459281631794528285613974497528136912836745753941862864275319
020091006100507290000300078900070000260140000304920580690008400403000867005000003,827491356136587294549362178951873642268145739374926581692738415413259867785614923
