095400070120003006700058200836002005007000080019000403040630000600810054503070091,395426178128793546764158239836942715457361982219587463941635827672819354583274691
004320706659000000002080100300652010080004302900010070205030091000700804060000000,814329756659147283732586149347652918581974362926813475275438691193765824468291537
030020109850690300702300040005040070680007950270806010000400000100289500043000060,436725189851694327792318645315942876684137952279856413528463791167289534943571268
300400087006310050250006000060204095032070840070090100010863200040500069000007000,391452687786319452254786931168234795932175846475698123519863274847521369623947518
340000000257030000900007401135000020800901760070080005006208054000605200010703980,341869572257134698968527431135476829824951763679382145796218354483695217512743986
403009500725400091008700000210008070000050600000030084080004230300106000506080049,463819527725463891198725463219648375834957612657231984981574236342196758576382149
302054106400300070850060090910500000603890001070000230040000708005902040006010025,392754186461389572857261394914523867623897451578146239249635718185972643736418925
003040579500006400041300000005400390790200040080000106230090050009007601607000082,863142579572986413941375268125468397796213845384759126238691754459827631617534982
020076041400150000900000307603000029049020700007640580100800065800001900050002100,325976841478153692961284357683715429549328716217649583194837265832561974756492138
035004020008600105900010007000800042020079810040003096700200008600947000010500300,135784629478692135962315487391856742526479813847123596754231968683947251219568374
500901200200570086007080040020040090081090300090700105034000600009603002600010807,548961273213574986967382541325146798781295364496738125134827659879653412652419837
160970000300408020094060800006850090000201750001000003007000045950007300800600901,168972534375418629294563817736854192489231756521796483617389245952147368843625971
900000120034007890800300006040900050009860700003000200070600031060574080205008040,957486123634217895812359476746921358529863714183745269478692531361574982295138647
080106000030450170500300090010009080008070230400002509807060014024080006069700003,782196345936458172541327698215639487698574231473812569857263914324981756169745823
701050000030000509820004061004009107080205000302067000100908052600030784070040000,791653248436821579825794361564389127987215436312467895143978652659132784278546913
907302040000000012000547006080465900002090030500200100074038000150000069820006000,967312548435689712218547396381465927742891635596273184674938251153724869829156473
093605400708000300560000080080760590040002010670940800050200030000004102900010705,293685471718429356564137289182763594349852617675941823451276938837594162926318745
040001080002700400060080359900300010200100970000046002000032006091005800800009745,349561287582793461167284359954327618236158974718946532475832196691475823823619745
050040009908700003027130605005004201100800090300900046080092000541300000000460700,653248179918756423427139685895674231164823597372915846786592314541387962239461758
001003624300000701000402008050061900703040060800300105000250080240709000560080073,981573624324698751675412398452861937713945862896327145137256489248739516569184273
560100403409026000800047950070059002000000007903002100320075060004080075080030010,567198423439526781812347956178459632246813597953762148321975864694281375785634219
042001000100620805060900300090000204825030106000750000407806001250304090000010007,342581769179623845568947312793168254825439176614752983437896521251374698986215437
400050100009304708063910000050000410100590086806700002095203000070000630080409070,428657193519324768763918524952836417147592386836741952695273841274185639381469275
736802090040650000000000000200700010800325007900008540050009631000070804020013050,736842195149657283582931476265794318814325967973168542457289631391576824628413759
760010008900004020005783006300005407600340800002900050010008075000092300430060019,764219538983654721125783946391825467657341892842976153219438675576192384438567219
006014090080270030004800600060000470509000001021305006000097200000100008300602540,236514897985276134174839652863921475549768321721345986658497213492153768317682549
007500301906004002803000540008020019100003060400809700600050130000067020734091080,247586391956134872813972546378625419195743268462819753629458137581367924734291685
007080604890700050503092100000000820000039007902100500070060200410300006086045030,127583694894716352563492178731654829658239417942178563379861245415327986286945731
008000340002406007900723000600230800401005030020000015349600020100090006050074080,768519342532486197914723568695231874471865239823947615349658721187392456256174983
700085920002001470040600000004009502506100807830002040007300019000704065300000000,713485926652931478948627153174869532526143897839572641467358219281794365395216784
000000029409003806001802450050074002040000910002050080000900300063001007107060008,835746129429513876671892453958174632746238915312659784584927361263481597197365248
400100602000069800010300795060043009000002580031890000003086000700005416200900000,497158632325769841618324795862543179974612583531897264153486927789235416246971358
070000603609721008400000020040809007305100040000530201100400865007005090000380002,572948613639721458418653729241869537385172946796534281123497865867215394954386172
070000000000003102150469000006100073000900005504302806090000004785200300060015027,378521649649783152152469738926158473837946215514372896291637584785294361463815927
318000206070602309020700040600080000400003710000209053009800400060004192001050030,318495276574612389926738541653187924492563718187249653739821465865374192241956837
204510300600000048700040260020080001590370004001205900030609000000038700005400809,284516397653792148719843265326984571598371624471265983837659412942138756165427839
630400100090030002050000600100390764800204000009070005003102070007060408402005009,638429157791536842254817693125398764876254931349671285983142576517963428462785319
000004006000100039429000100061035800050409200300876005708623500000050071690000000,183594726576182439429367158961235847857419263342876915718623594234958671695741382
060000713701002800048900502800000400004000039902750001600320005090006000000581906,269845713751632894348917562816293457574168239932754681687329145195476328423581976
900042000350670040080010607000007005019000002420000380700260103040005809035108020,976842531351679248284513697863427915519386472427951386798264153142735869635198724
000750002004080070100000800900200016407630050250100930030014690098300100000002700,869751342324986571175423869983275416417639258256148937732814695598367124641592783
800560020000007001073810090210000008309004750045900003000049560060201080002380000,891563427526497831473812695217635948389124756645978213138749562764251389952386174
280000007013960800459000020500030100070020000302800760090005080807600390000000401,286543917713962854459187623568739142971426538342851769194375286827614395635298471
040028950300070800015600004104056700000700090078000500900800020650390407000062010,746128953329475861815639274194256738563784192278913546931847625652391487487562319
900035000400809012603004900702006093000100067001000420090470500054021000087003006,918235674475869312623714958742586193539142867861397425296478531354621789187953246
000070304506830007200001090080040120027308006300005080430600900090250470001900600,819572364546839217273461895985746123127398546364125789432617958698253471751984632
700841360500003900068700000602000009000060000080375040200100870046000003030294510,729841365514623987368759421652418739473962158981375642295136874146587293837294516
037001600200600005500940702750000000000583060040029301004800010010076080602300004,437251698298637145561948732753164829129583467846729351374892516915476283682315974
090100830040860210030070004008007340370420500006085901705039060000010000060000025,692154837547863219831972654158697342379421586426385971715239468284516793963748125
386000002201605047000030010007300065100074230900010000020060800058903470400000900,386147592291685347574239618847392165165874239932516784729461853658923471413758926
082000690600000001003590084130800050000403007509700002000042008068000103354010700,482137695695284371713596284137829456826453917549761832971342568268975143354618729
053040000090100000002006819005090087200500900047200003000460100700008025820730400,153849762698127534472356819315694287286573941947281653539462178764918325821735496
005060009200000700306708024009001000830050002100076030700200106040003850051900040,475162389298534761316798524569321478837459612124876935783245196942613857651987243
000810040100400600005970230670000090009700000028603070901000480700050360460200015,236815947197432658845976231674521893319748526528693174951367482782154369463289715
002075319090602070000030002000409000407200058560003000108000430350100807076000025,642875319893612574715934682281459763437261958569783241128597436354126897976348125
000780014041000800003020050600090300005006298032000705509430070000610000087002430,256783914741569823893124657678295341415376298932841765569438172324617589187952436
000000060006430729500012843460000170750090006300800000000920400180007000902300085,243789561816435729597612843469253178758194236321876954635928417184567392972341685
900065001006080209080100043028097000000400900370500000004020500065000718100006320,943265871716384259582179643428697135651432987379518462834721596265943718197856324
900034760000001003050002981803006040001070005070000298006420010400008506037090000,918534762762981453354762981893256147241879635675143298586427319429318576137695824
060000500034900000280300106800024090950010470000090061005470008120600700000000923,761248539534961287289357146816724395953816472472593861395472618128639754647185923
680902000000040103470560009065003000090450700200108000500020306800010407700609201,681932574952847163473561829165273948398456712247198635519724386826315497734689251
004006780500000300208730904057069030040003012802054070013400000000010865000092000,394526781571948326268731954157269438946873512832154679613485297429317865785692143
000006904900002037005130080187000003003460109090000025060520000741900006302010700,238756914916842537475139682187295463523468179694371825869527341741983256352614798
000932008005600107904000000090020064002008050610005003700200389300040000800710406,167932548235684197984571632593127864472368951618495273741256389326849715859713426
250010308007000060060803790070034800400009100903200000800041050032070600001006000,259617348387492561164853792675134829428769135913285476896341257532978614741526983
008000205000740800010092670090400028060100903030057010104000000980016540056300000,748631295629745831315892674591463728467128953832957416174589362983216547256374189
007040506806750421000200090001000035200100000750890002100904000098600750060003800,927341586836759421514268397681427935249135678753896142175984263398612754462573819
062008570001302004000070300007900100290010050405006090006809000050620830800105407,362498571571362984948571326687953142293714658415286793736849215154627839829135467
312950040070013000000700060003805009190020003045000680500040020680009107900007830,312956748876413295459782361263875419198624573745391682537148926684239157921567834
002000100043690000000504206830701009400000860060308500901050387000200600580007040,652873194143692758798514236835761429417925863269348571921456387374289615586137942
891000030003805400000160020030450000970010006402008190609007310000240007004006058,891724635263895471547163829136459782978312546452678193629587314385241967714936258
780000050002007041040003008500100006001000832630049070000090200010500903970810000,786421359352987641149653728527138496491765832638249175865394217214576983973812564
060108400074009005900060203089024050006370008500001000105040600307000802020000094,263158479874239165951467283789624351416375928532981746195842637347596812628713594
020100934100708006056230000200000000810005003070940068600072080030060741000500090,728156934143798526956234817264387159819625473375941268691472385532869741487513692
200009100640003720701500030000004050410006009050070000560007200020310060003020894,235769148649183725781542936897234651412856379356971482568497213924318567173625894
102060090000008370700905801800054000060010005400003102005400960640030000913200400,182367594594128376736945821821754639369812745457693182275481963648539217913276458
900407000050008726001000500098102007030060048526000030000396400200800000070040381,962457813354918726781623594498132657137569248526784139815396472243871965679245381
030070050040605300806900140008000200020004000710050004070039501200000690003180070,132478956947615328856923147468791235325864719719352864674239581281547693593186472
503400620001009470000010908060854010070030009200000060910000052780906003400580000,593478621821369475647215938369854217174632589258197364916743852785926143432581796
600000800084200005057003210000030000501087004000401972190020350008000067040360009,612579843384216795957843216479632581521987634863451972196724358238195467745368129
060002005003000204070509080000083026098160003100200070001094300354700008087006000,869412735513678294472539681745983126298167543136245879621894357354721968987356412
470692800102000000030800405000940050000703109068020300097100030020008040041050700,475692813182435697639817425713946258254783169968521374897164532526378941341259786
703890006600475001090003080070000020000060413312080090080010000904000002200007560,743891256628475931195623784476139825859762413312584697587216349964358172231947568
206008019087601500040900000105070200000805300800000006030027140500003702004100605,256738419987641523341952867195376284462895371873214956639527148518463792724189635
093406080270500003004300120010700690800000015002000004050090301609108470720600000,193426587276581943584379126315742698847963215962815734458297361639158472721634859
300050002650007010009630480000120040208570900010008000703400000040209706960080250,384951672652847319179632485597126843238574961416398527723465198845219736961783254
006100007080005090200400308560039040137620000000008000079806002001002809040070053,496183527783265194215497368568739241137624985924518736379856412651342879842971653
090005370010490002608000010100860720030040900002700560400100005579200000800003240,294615378317498652658327419145869723736542981982731564423176895579284136861953247
030250000070600013009008640902100060500734820000060100210097500406820090300000080,634251978875649213129378645942185367561734829783962154218497536456823791397516482
007208000090004581050310700600947010300061098400020000708030260020790040006000005,167258934293674581854319726685947312372561498419823657748135269521796843936482175
008020140709000300100067000600100900005840020003059806300080270004300001056070009,568923147749518362132467598687132954915846723423759816391684275274395681856271439
605000080800012300930000706000006013000340009210075600070058900452030000009007102,625793481847612395931584726794826513568341279213975648176258934452139867389467152
000805730600010004507602190400706080050030900000954000082000070104209500360001000,241895736698317254537642198419726385756138942823954617982563471174289563365471829
103070500059302600000006000805400007076023014001800009000009075400010028092080030,163978542759342681284156793825491367976523814341867259618239475437615928592784136
100408200020000360309007105001503407062010800070000000600084090035200000080906730,156438279728195364349627185891563427462719853573842916617384592935271648284956731
001400230000005009976003010040000106060502080530090400000204708093000601782000300,851469237324175869976823514249387156167542983538691472615234798493758621782916345
100006007928040003700580009050091000342000010000632000003258060006010290080700400,135926847928147653764583129657491382342875916819632574493258761576314298281769435
002034005300000000090761004705600900004000013610080070003025789001047326800000000,172934865346258197598761234735612948284579613619483572463125789951847326827396451
300700006050080100092041300008105403040000207023670081765000090010050004800209700,381792546457386129692541378978125463146938257523674981765413892219857634834269715
072508000090000810400073600005089100120647090300000040000000074007200500900061003,672518439593426817481973652745389126128647395369152748216835974837294561954761283
