010829300003040020000500607006200708700900015504001000305000040900486000060030201,617829354853647129249513687196254738732968415584371962375192846921486573468735291
010320400007104063006008500600005291700000350081090000300509020004060100009402870,915326487827154963436978512643785291792641358581293746378519624254867139169432875
002130005010700340900040860009000008130500000640390207065002709804007510000000006,482136975516789342973245861259674138137528694648391257365412789824967513791853426
000006039093150627570000010201608000400230080000009300010070904060420070008000051,124786539893154627576392418231648795459237186687519342312875964965421873748963251
040506100700080920003002805689050030004100002000730040008020307205000006160900050,842596173756381924913472865689254731374169582521738649498625317235817496167943258
070230800801007200000900065056000402900068001300540000290100038007805140004090000,579236814861457293423981765756319482942768351318542976295174638637825149184693527
073010004000026170290040005350000200006875400108900000000400380809001700014003006,673519824485326179291748635357164298926875413148932567562497381839651742714283956
007002049400030025560000100000806512080900306700010000000000904830705000020698000,317562849498137625562489137943876512281954376756213498675321984839745261124698753
371920080208010000000830005006503001900700006047000950092006040010402500600000730,371925684258614397469837215826593471935741826147268953592376148713482569684159732
601070900004230071820010600000520403008000507903400000000090060460008300079001000,631875942594236871827914635716529483248163597953487126185392764462758319379641258
401070900002004506073089002390000160600300025020000004000000708004012039800567000,461275983982134576573689412395428167647391825128756394216943758754812639839567241
060200005000306140108040700205000306000701200890000050040039607370500028900100000,463217895759386142128945763215498376634751289897623451542839617371564928986172534
000097000600000095405036008000240037310900060007008902700014050050000106028600403,283597641671482395495136728869241537312975864547368912736814259954723186128659473
030605910086000530000390704004080001005002300000907600253040090700201006860700000,437625918986174532512398764694583271175462389328917645253846197749231856861759423
980067002045000000306200105600095074002300060800720900400003850100000027000180309,981567432245931786376248195613895274792314568854726913429673851138459627567182349
406100070700609002500030410100054320020000100007080009004900060038002705900008000,486125973713649582592837416169754328825396147347281659254973861638412795971568234
079000201006702009003850040740200690001400003090005004010006830850140000002907005,579364281486712359123859746745231698261498573398675124914526837857143962632987415
090017605050280100080005073341008900800000020000564800600300709400076010020940000,293417685756283194184695273341728956865139427972564831618352749439876512527941368
000060013070089200004000509900008605600402080320015007089103004030027100005000900,592764813173589246864231579941378625657492381328615497289153764436927158715846932
800000905090010060206700001403869500600004080009300070008041723000605004001000008,817426935394518267256793841473869512625174389189352476568941723732685194941237658
702008091000004006658030000001305280070000510080907004003091460400080003590060000,742658391139274856658139742961345287374826519285917634823791465416582973597463128
013000090700010802800709000050397080002604105040500600500230007207100503006000400,413852796769413852825769341651397284972684135348521679584236917297148563136975428
600300450800097023020000000306805900081002600540100037400070091015004000009506080,697321458854697123123458769376845912981732645542169837468273591215984376739516284
000837000012400908000002670085001040200340500690020010040060000000500360803070209,956837421712456938438912675385691742271348596694725813549263187127589364863174259
617009048000005230020060090830104002050080004901070060078043005300001070200050001,617239548489715236523468197836194752752386914941572863178943625365821479294657381
503004060010050200080706000070080300000030145002010009007800030400502680021900400,593124768716358294284796513175489326968237145342615879657841932439572681821963457
090800002200407013080050007005903024004018090000205600030060400971000030600301700,197836542256497813483152967865973124724618395319245678532769481971584236648321759
003800000400290103605000400028010609300085001040903070001502900000700002700060380,213854796487296153695371428528417639379685241146923875831542967964738512752169384
046002070019500300230090080083060204005710960000048000104029050070000800000030640,546382179819574326237691485783965214425713968691248537164829753372456891958137642
080000693602007450000190000000018075540700800720003060860500000400029007000030910,187245693692387451354196728936418275541762839728953164869571342413629587275834916
004000780001534000620000005030670904548002170900010200000920000067800003090006402,354269781781534629629187345132678954548392176976415238415923867267841593893756412
021080000000030510700400068160050030050008701003000090046700009509006002072900480,621587943498632517735491268167259834954368721283174695846723159519846372372915486
007001298062050004014007000040000000080002103603090070000800300005704820020615000,537461298862953714914287635241376589789542163653198472476829351195734826328615947
074100603008700005000069007900002400080516000302007008009300150560080024000020300,274158693698743215135269847956832471487516932312497568829374156563981724741625389
003809402000026107090001005738005000200090050040100206000680070406000300807504010,173859462584326197692741835738265941261498753945173286319682574456917328827534619
013600970009010004600005020070500380092001046800004010006800000480130600530002700,213648975759213864648975123174526389392781546865394217926857431487139652531462798
000023500000100073703408100900810050004002006060005807006000029040007000001234060,619723548428159673753468192937816254584372916162945837376581429245697381891234765
900700400010042000800000079005034028030100060009278100600005040700801605002000031,956783412317942586824516379175634928238159764469278153681395247743821695592467831
600013009007000000009520086000600002002705010080090300041009065768400090035208007,654813729827946531319527486173684952492735618586192374241379865768451293935268147
420080701005279080068005309080790000000006000003041205600004807090360000157000004,429683751315279486768415329586792143241536978973841265632154897894367512157928634
003020090010060207008750600000800074050972000060510809002300146081000030700040008,673128495915463287248759613129836574854972361367514829592387146481695732736241958
018000207600900300500076000004080920700024500080600030020031080069050000137009400,918543267672918345543276891354187926796324518281695734425731689869452173137869452
030860294029000000810000350000980070040705036000600509501020060004003700098070042,735861294429357618816249357653982471942715836187634529571428963264193785398576142
071520409090000800603004720040980600000010005102603070000000090900108503007340260,871526439294731856653894721345987612769412385182653974438265197926178543517349268
801090520320010400000000007209300170600540300080701600006405000040008960530062001,871694523325817496964253817259386174617549382483721659196475238742138965538962741
030094070074260000061005400008000002690100540045637090007080010100500009080000603,532894176874261935961375428718459362693128547245637891357986214126543789489712653
701800003350162080008470560040000009000019270070650030000030805502080046090007000,761895423354162987928473561143728659685319274279654138417236895532981746896547312
000974000700000093025600000080000045006003178250407069040010830003065000100008702,638974521714852693925631487387196245496523178251487369542719836873265914169348752
003010470720350008000906000480000300000001007310605002032007691004000805600892000,563218479729354168148976253485729316296431587317685942832547691974163825651892734
009008417087046005000100000208030760000069030050010008904000000003007200600203190,569328417187946325432175689298534761741869532356712948924651873813497256675283194
000270084050000670290040300400091068008300405070060100605100000003750800000002039,316275984854913672297846351432591768168327495579468123685139247923754816741682539
020000010009300500570008602001469030300020950060070080086005790004000000205014003,428657319619342578573198642851469237347821956962573481186235794734986125295714863
730000400001800659600020008960030042024500100180700000003064000000080790592010060,738659421241873659659421378967138542324596187185742936873964215416285793592317864
050070820000090400047201950108005302090000070300702108000024003002800560016000004,953476821621598437847231956178965342294183675365742198589624713432817569716359284
001000008009003600005260390080007000700520040200100063060300005308001204040798000,631975428429813657875264391986437512713526849254189763167342985398651274542798136
000080360056020080090000010029400070608509001001070600002008095140006730003004000,214985367356127984897643512529461873678539241431872659762318495145296738983754126
070900200103080045040031060000700001060093700290416008430000006800009000002500430,678954213123687945945231867384725691561893724297416358439172586856349172712568439
091020700030090004006430081002000450800000206500180090080943000007005063100670500,491826735738591624256437981312769458879354216564182397685943172947215863123678549
750920000068004500103060004309107640007000098010400200600500001900708002000006803,754921386268374519193865724329187645547632198816459237682543971935718462471296853
102007030000001294003069507700805000206094001900020703600410000058000060301002080,192547638567381294843269517714835926236794851985126743629418375458973162371652489
200040500001306090000090084020000701350082000604903000030700045082000170095600308,269847513841356297573291684928465731357182469614973852136728945482539176795614328
700010520805600100200800076106020940030908007074050300009001064050004000008307009,763419528845672193291835476186723945532948617974156382329581764657294831418367259
000720005060400103081006007002603908000970040056108000020090651013804000007000080,349721865765489123281536497472653918138972546956148732824397651513864279697215384
090080003000100560648000210003020005104503007002400090270031600030900080005704000,591286473327149568648375219983627145164593827752418396279831654436952781815764932
020307500098010006500400800012000364750020000309008200603050190000091080000200407,126387549498512736537469821812975364754623918369148275673854192245791683981236457
050046080902180006108000702004020003000000900800750060537094020010300498000610005,753246189942187536168539742674921853325468917891753264537894621216375498489612375
490503010000870000300000800032010007105008064000702090856029400200000306010005020,498563712521874639367291845932416587175938264684752193856329471249187356713645928
095604000000500800000010670064980502200040067030000100013400009020105780580023000,895674321671532894342819675164987532258341967937256148713468259426195783589723416
104000750650300049038000216000090374402600000000087005091003000000106007205700008,124968753657312849938574216586291374472635981319487625791853462843126597265749138
430000259560001080000000301020069005807240000619007000200700603980350020070090040,431876259562931784798425361324169875857243916619587432245718693986354127173692548
050203400009005801207010060000832070100070900300400050002649530890007240506000000,651283497439765821287914365965832174124576983378491652712649538893157246546328719
300054260070000000140620903700000090908405000500002476000018035016000700200790040,389154267672839154145627983724361598968475312531982476497218635816543729253796841
007000289000701600309000005504003002082000001100950470800070000600304500090120043,417635289258791634369248715574813962982467351136952478843579126621384597795126843
003000070069540012400093008000082069016000000050430020002600430085710006047000100,523861974869547312471293658734182569216975843958436721192658437385714296647329185
390005100040007802602030000060409000500008370710350084000000007206040010070096250,397285146145967832682134795863479521524618379719352684938521467256743918471896253
730005040201630000090007065300050800008091507000420900000100003000800072612000009,736985241251634798894217365329756814468391527175428936987142653543869172612573489
900037020026900830300480096005000000209810740043000100010049005807503200000000600,958637421426951837371482596185374962269815743743296158612749385897563214534128679
280040067300800200759002008400076530000080000020150004806003012037001009900060000,281945367364817295759632148498276531175384926623159874846593712537421689912768453
800600040035049100040001000600000790098030200704085000310007089000002461000050007,871623945235849176946571832653214798198736254724985613312467589587392461469158327
050200000000001937900804050800070210301600000064059800008010040100320060006908500,653297184482561937917834652895473216371682495264159873528716349149325768736948521
503010000008600210720000806200139008005006049000400700009743002640020105080000070,563812497498657213721394856274139568815276349936485721159743682647928135382561974
020000070109000200038056400800910600090400083000068050260007004000032160507000008,426391875159874236738256419875913642691425783342768951263187594984532167517649328
050108007008006019020003000702501000835029600600000004209000030007384090014090050,953148267478256319126973845742561983835429671691837524289715436567384192314692758
050206008463800270900030010615000030000050920820600400030005149000402000708090000,157246398463819275982537614615924837374158926829673451236785149591462783748391562
200006045070100900049002030050800600703204080100930000020600758010000009006350004,231796845875143926649582137452871693793264581168935472324619758517428369986357214
082000000030715080004800065069020400000008390000306001010000037098043052600007840,582964713936715284174832965369521478251478396847396521415289637798643152623157849
210070805030002009704000000140050037520083000007020006051060043000009000860047052,219374865635812479784695321148956237526783194397421586951268743472539618863147952
100390000007000283004005010005070408030062007008004069020457600091200004006009530,162398745957641283384725916615973428439862157278514369823457691591236874746189532
000030405078900100050176002937002000001050008000064300500000216609003007040080500,196238475278945163354176982937812654461359728825764391583497216619523847742681539
700000000500002089060095401000230600070004130402000058014308705009700060800940200,798413526541672389263895471185239647976584132432167958614328795329751864857946213
405006020001903500090700000800070014003605280016000930000004000029800060080201750,475186329261943578398752146852379614943615287716428935137564892529837461684291753
100002087003060000050407600098500023400690015000008400936000070070030502002801009,164352987783169254259487631698514723427693815315728496936245178871936542542871369
900006400000000007080050910100000005053908700672340800065470009300061002007003084,921736458534189267786254913198627345453918726672345891865472139349861572217593684
070000056003000702026490008005062800480905010700300000604000305900013200008750000,879231456143586792526497138395162847482975613761348529614829375957613284238754961
309004020000000700760005801006093005480017030002600410091000302600072008050800900,319784526528169743764325891176493285485217639932658417891546372643972158257831964
809620015201500078500000406050300760000050001708004090070030104016800200000009050,849627315261543978537981426154398762693752841728164593975236184416875239382419657
400003070002480003050026010000610804630950000740000009090300007360041052200000080,486193275172485693953726418529617834638954721741238569895362147367841952214579386
607000000040593007010200809000007510080904200502680000920000600006040053103860470,697418325248593167315276849469327518781954236532681794924735681876142953153869472
690100000080520400072046030005308007400001390008060002010007800003002060740900103,694173285381529476572846931125398647467251398938764512219637854853412769746985123
809040300003056020010200074201700090900001658060308000402003001050980002070000046,829147365743856129615239874281765493937421658564398217492673581156984732378512946
