641000590900050010820700300500070106004900780000602000380047009000280600070060430,641328597937456812825791364593874126264915783718632945386147259459283671172569438
009002500502300006016405030390020010807000900000503800071008400040600000000070128,439762581582319746716485239395827614827146953164593872971238465248651397653974128
026700080800620000743091000071500040008039102300000050052060300039070820100000506,926753481815624739743891265271586943568439172394217658452968317639175824187342596
000085039006914700080000000017003904800020076600490005050600001390002500102700080,471285639236914758985376142517863924849521376623497815754638291398142567162759483
003105980007000050040920006006008501014570800380010209701080000000003090060000034,623145987197836452548927316276398541914572863385614279731489625452763198869251734
085040019007002300310750040002037600800600200603804000000010050400200038001908007,285346719947182365316759842192537684854691273673824591728413956469275138531968427
080357002090400070003200650214000080000060903300500140006720000005001004008009230,681357492592416378743298651214973586857164923369582147436725819925831764178649235
309080500100072300046050000230060010000907400907000608001035802600801000070400095,329184576185672349746359281234568917568917423917243658491735862652891734873426195
010000062340070098008009000200100309109205007005306040026008705500000010800034006,917853462342671598658429173264187359139245687785396241426918735593762814871534926
020134000600028000000000073093650401800000009005840032700060958910400000000072600,527134896639728145481596273293657481874213569165849732742361958916485327358972614
807006130000107200002304580086021009000000400100739060000500048930000002740000650,897256134453187296612394587586421379379865421124739865261573948935648712748912653
090050800000007062052080300006009000580470001000300007800004030360190008710002046,697253814138947562452681379276519483583476291941328657829764135364195728715832946
805401030020860071000000000030150900670904025000000806900730104052010000700009680,865471239329865471147293568238156947671984325594327816986732154452618793713549682
040000709003501002600000380007062004190000008005090070706029100800600020210043006,548236719973581462621974385387162594192457638465398271756829143834615927219743856
007008000000205906309040050400500367200089000010030002100960083070000549083002070,567398124841275936329146758498521367236789415715634892154967283672813549983452671
901700004000400002708621300600139500307002080000000001000360000002080750050000609,921753864536498172748621395684139527317542986295876431479365218162984753853217649
090000260070503809108002004009000007047060350260037040080070005000210000400950038,594781263672543819138692574319425687847169352265837941986374125753218496421956738
010400007950002000300756002000035006000000318490160070060080501084029060200070080,612493857957812634348756192871235946526947318493168275769384521184529763235671489
092000000610900045403100890006009708700003020309074056000530210070006000508020004,892345671617982345453167892146259738785613429329874156964538217271496583538721964
500082000406300000039000075000060008070001432082005100900006007040008620200170503,517982364426357981839614275194263758675891432382745196953426817741538629268179543
002000076080000051000010209030076000900054800410009002029700504604390000350082607,192548376786923451543617289238176945967254813415839762829761534674395128351482697
069100050107030000308750200090004003082000106000217008073400085000009000420680071,269148357157932864348756219591864723782395146634217598973421685816579432425683971
050900300401030706090000042030708150000090000760004200009570008020016003800400600,256947381481235796397681542932768154145392867768154239619573428524816973873429615
090000503005840007208903040700280900001006000500304060000002035086570021400000670,194627583635841297278953146763285914841796352529314768917462835386579421452138679
000100500301502409970030020090020150080604000502010706236070000004900008000003010,428197563361582479975436821693728154187654392542319786236871945714965238859243617
510604000800217400000090230120306009004000050650100800000008004003000092940500670,512634987839217465476895231128356749394782156657149823265978314783461592941523678
603200900019060708050900620030410005508003079007000002000509400380100000006082030,673258914219364758854971623932417865548623179167895342721539486385146297496782531
400708020951003000200040065300090007000236004006800100080002709020460850004500010,463758921951623478278941365342195687817236594596874132685312749129467853734589216
603009000070280005050000480028060000000500190100742000009173608006000340007620500,683459271471286935952317486328961754764538192195742863549173628216895347837624519
750003028001000050200010740006950001304006570910020000002700060168200000090408300,759643128641872953283519746876954231324186579915327684432791865168235497597468312
024071009900520007010008500840700090000000000005304610000039405002180073096450000,524671839968523147713948526841765392639812754275394618187239465452186973396457281
370080009050093084800100300790006103100005260008040705002060401000230900506000070,374682519251793684869154327795826143143975268628341795982567431417238956536419872
005960400180700000290004075040100093000520008302008000903200610001049050060300800,735961482184752936296834175548176293619523748372498561953287614821649357467315829
040703080906000130705008020014070600009004008200956003800300740500401000020500090,142793586986245137735618924314872659659134278278956413861329745597481362423567891
200008301004010050370000020600189000905000000028370600090000076103400500040902008,259748361864213957371596824637189245915624783428375619592831476183467592746952138
002706043097054000000280009600000074700903021305100800000000082060510000040008010,852796143197354268436281759619825374784963521325147896571439682968512437243678915
450260003000080600007401980000903050080620031001074000003506407049700008020000060,458269173192387645367451982276913854984625731531874296813596427649732518725148369
006804900003060010200900407100007080900000200024630005010005004058020090700108603,576814932493762518281953467165247389937581246824639175619375824358426791742198653
000039400059107060200840000074200005008096001900703008305000200720080019800500070,187639452459127863263845197674218935538496721912753648345971286726384519891562374
208009007100084002006500040010920034007105009004000050080630001060000370072000098,248369517153784962796512843815926734637145289924873156589637421461298375372451698
048000700000096500001802930030509400280060000000730016603001007050000120000047003,948315762372496581561872934136529478287164395495738216623951847754683129819247653
500006380600200000032701900240000600051043090060028075800017000100050023090000704,517496382689235147432781956248579631751643298963128475824317569176954823395862714
510830000096500034000020910005000200740900500003601070002004000100008306467300002,514839627296517834378426915685743291741982563923651478832164759159278346467395182
610700080900000073043800600080109007000006002500420390090300204020061050807050109,612743985958612473743895621286139547439576812571428396195387264324961758867254139
800012004196005000000860507040000792250408100030900000007183040902000008403000650,875312964196745823324869517648531792259478136731926485567183249912654378483297651
004600032800030950010072040480009520500000701000206000003090006071400090050301200,794685132862134957315972648486719523529843761137256489243597816671428395958361274
100007803008900070760082014049700000080500200610038050000240005450000302003090067,194657823238914576765382914549721638387569241612438759976243185451876392823195467
050000420000436000780059003006701030400500910000020075870602090002180007300000006,653817429219436758784259163526791834437568912198324675875642391962183547341975286
000100830409260000500040002007450080034800109100009706075000300000002607092037005,726195834489263571513748962967451283234876159158329746675914328341582697892637415
000094168800000304009000700004008052160400007000563000008016200390002080710080046,573294168821657394649831725934178652165429837287563419458916273396742581712385946
408206050095400060100090032617008000309007026000000100560003007000710000082504009,438276951295431768176895432617328594359147826824659173561983247943712685782564319
040703010000560038520089006800040003007610900904000780091050802086000095000002000,648723519179564238523189476812947653357618924964235781791356842286471395435892167
075082069410003000000000001000067548530200700006090000904001003600458010150900020,375182469419673285862549371291367548538214796746895132984721653623458917157936824
630050070240601305008000000500208430089704001000009006000093100402805960700020008,631952874247681395958347612576218439389764251124539786865493127412875963793126548
000000090038024000600009321090000700070950016421030008000508040205600070340007600,712365894938124567654879321596481732873952416421736958167598243285643179349217685
450700800072083060900000003010042000506100004300069070097600010001950086040030200,453796821172483569968215743719342658526178934384569172897624315231957486645831297
105720000600050309038000100000608040001290000320000500000064082500109073489000600,195723864674851329238946157957638241841295736326417598713564982562189473489372615
050700300469000000000500401840020703690005100701608000000304072000080009382060500,158742396469813257237596481845129763693475128721638945916354872574281639382967514
000900700020147005130800096501028000600005319370000080040031007009700050000506208,458963721926147835137852496591328674682475319374619582845231967269784153713596248
090002470600950020001603008900000180040390750300008009010060030407081000065400200,593812476684957321721643598976524183148396752352178649219765834437281965865439217
020960800403070010601230000160700004008010307070500920200000030040020006000108059,527961843493875612681234795162793584958412367374586921219657438845329176736148259
078069025205780600000000003102095040000201080496000000030020700040300059600058001,378469125215783694964512873182695347753241986496837512539124768841376259627958431
508071300090005010300200040074002001050030008600108204100090002080406057020007900,548671329792345816316289745874962531251734698639158274167593482983426157425817963
061000900000872000002006307490300700050408092100050080070040005000900630840015000,761534928934872561582196347498321756357468192126759483679243815215987634843615279
030007000007045003401090008000080070906020304002504910019070062000002000085103400,538217649697845123421396758143689275956721384872534916319478562764952831285163497
456302001009005000700000380007503010630800409208704500000209000000000026500010834,456382791389175642721946385947563218635821479218794563864239157173458926592617834
000805000700090000482701060910000805500013047630504002003402016090000003000000020,369845271751296384482731569914627835528913647637584192873452916296178453145369728
040009006002000070090183500000050260084301907027600030109400820070930005003005004,345279186812546379796183542931754268684321957527698431159467823478932615263815794
310006904000000002006519000003082760760003200840100005059800100007090030200071080,318726954975348612426519873593482761761953248842167395659834127187295436234671589
002030950640800310007900000900041600050070203086300045100200080000087436000005700,812736954649852317537914862923541678451678293786329145174263589295187436368495721
000000340017090056508700020090008002001007600600120084070304009045001070369500000,926815347417293856538746921794658132281437695653129784172384569845961273369572418
740000026091304500080010000000475000605003070030020910302601098900007400000580260,743958126291364587586712349819475632625193874437826915352641798968237451174589263
962000300400039700050410006207100004006050000005293008030920050800005100000067490,962578341418639725753412986297186534386754219145293678634921857879345162521867493
309050004050090028061700090604030059002064800900100007700603100040002000800000576,389256714457391628261748395614837259572964831938125467795683142146572983823419576
600400705008001300032009064090142006107050040050000008060738050004000037000960020,619423785548671392732589164893142576127856943456397218261738459984215637375964821
300000705000280016000709340007300000930008170401600802620004590800105000700002400,398416725574283916162759348287341659936528174451697832623874591849135267715962483
600000075031000000400082000040397068800604120305000490000830000086409002090501006,628143975931765284457982631142397568879654123365218497214836759586479312793521846
105408000002900068036052000500000417040031020000070906000807091600100004008000752,195468273472913568836752149563289417749631825281574936354827691627195384918346752
800401032054630008290070010340510020010009800605007300000020109070006000006000045,867491532154632978293875416349518627712369854685247391538724169471956283926183745
008014509709800120050200604007000905406070000830041000900006002000050730064003800,628314579749865123351297684217638945496572318835941267973186452182459736564723891
060890027105030040080400500390200008000060950007001030700006000800340600024570091,463895127175632849982417563396254718218763954547981236739126485851349672624578391
000205061396040500000007000802300090070001086500090207004000008087450120020609030,748235961396148572251967843812376495479521386563894217934712658687453129125689734
020051080100000000738000000010060309400800570050294060000407056064000730900580120,629351487145678293738942615812765349496813572357294861281437956564129738973586124
037801060800009002010056703000100040070280100920040007002000051003578000604000900,537821469846739512219456783368197245475283196921645837782964351193578624654312978
001420007400000001650030008090506000008090546007010030005600900730008624100003080,981425367473869251652731498394586172218397546567214839845672913739158624126943785
009087060500300000070200143800040300300501706026809400040610000200000800100002095,439187562512364978678295143851746329394521786726839451945618237267953814183472695
020000510009007830050106407006200940370809002000400001700054090068030000902001060,627348519419527836853196427186275943374819652295463781731654298568932174942781365
050620010000040050123080000400000520500370908609000341080005702000830096060102400,754623819896741253123589674438916527512374968679258341981465732245837196367192485
002108006900003017048000500500807000030002790080649003020975400406000300051000280,372158946965423817148796532519837624634512798287649153823975461496281375751364289
004098000001200004730000290050004730400071002900830006007000561800410300000502080,524798613691253874738146295156924738483671952972835146247389561865417329319562487
000600204080170009496820030040380650017000040050060702809003000060290305001000020,175639284283174569496825137942387651617952843358461792829513476764298315531746928
060085401070620905300940200400350000026000000950000170037010590002870006001002008,269785431174623985385941267418357629726194853953268174837416592542879316691532748
300061008064007009050304000003020900040095810780400000230508400100000057000039006,327961548864257139951384762513826974642795813789413625236578491198642357475139286
070090030302108040050206070000000108806041000590300200000900300080752019047000006,178495632362178945459236871734629158826541793591387264215964387683752419947813526
600000030054300007000082501102078046047009200860100000300001890005907020001040605,618795432254316987739482561192578346547639218863124759376251894485967123921843675
009807500860090070300041009090100200100300054700062000023704080000500013540080060,219837546864295371357641829496158237182379654735462198623714985978526413541983762
005060009790000028008071040040096070026300100000542300300009000600850201804700005,435268719791435628268971543543196872926387154187542396352619487679854231814723965
090680700003070065000309020054000306068040050907000800829700003000006504500901000,492685731183472965675319428254198376368247159917563842829754613731826594546931287
004750010291000008000020346000600000840093070036107805070009482050000100020430090,364758219291364758587921346712685934845293671936147825673519482459872163128436597
837600000906500210100009008402080036000000900019043002000065109300000520008024070,837612495946538217125479368452981736783256941619743852274365189361897524598124673
