900518004000230016003004070179000405006002001820049700750020009000000300042605007,967518234584237916213964578179386425436752891825149763751823649698471352342695187
807650040205000008034008009900200370070003980001004502068702030000000006503040100,817659243295437618634128759956281374472563981381974562168792435749315826523846197
060300905029081007840000300000000010500702000108059740003076100987043000000205800,761324985329581467845967321672438519594712638138659742253876194987143256416295873
002010070000004306500029100010050007937060080008002400406100002100038090300600850,842316579791584326563729148214853967937461285658972413486195732175238694329647851
201007005090010080005960400600030700089070010003504020500001000020003068167029004,241387695396415287875962431652138749489276513713594826538641972924753168167829354
080401703300000094050069010006908000030504020100002300072000659005700408600800270,289451763361287594457369812526938147738514926194672385872143659915726438643895271
409582060010000072035060000000070001300406000981005600702059000890001005006003408,479582163618394572235167984564978231327416859981235647742859316893641725156723498
002007000080003020009210605000001006460890000530400078800130740070059200093004501,312567894685943127749218635928371456467895312531426978856132749174659283293784561
010040060800090205040002037260100704030800000001025090008750320400060970600003008,312547869876391245549682137265139784934876512781425693198754326453268971627913458
400080010200300970000100003907003804000520007080400362604007580500000000003960041,439782615261354978758196423927613854346528197185479362614237589592841736873965241
008004005000000379700913400003248050050009706410070000000006032260300000901500080,398764215146852379725913468673248951852139746419675823587496132264381597931527684
608000030450002070200365008001007060007008204364000005002700450000053090080190006,618479532453812679279365148821547963597638214364921785932786451146253897785194326
900500400065200008001006032402903080300010000006008750009840005030007690074000001,923581467765234918841796532452973186387615249196428753619842375238157694574369821
209800000051060380630400000080900004007006150000103209040020010920300060000007405,279831546451769382638452791182975634397246158564183279746528913925314867813697425
000430000004001582096005300700608000010000078000250610020500064900720105043000900,851432796374961582296875341732618459615349278489257613127593864968724135543186927
500000400000963050012740008000000010070024960356070020140600735000801000293000600,539218476487963152612745398924386517871524963356179824148692735765831249293457681
514690020020010060908000003280900400406020000030800570370000600000100239000040051,514693827723418965968572143287935416456721398139864572371259684645187239892346751
000000780310045000276000500000304250009600408083000060000490600602807001750003002,945216783318745926276938514167384259529671438483529167831492675692857341754163892
903000081060438700040900020508003000007001200304060507050006000100720009032005804,973652481261438795845917623518273946697541238324869517459386172186724359732195864
100009030576040200090820070800900020020063008003005107600158000000700095407600003,182579436576341289394826571865917324721463958943285167639158742218734695457692813
003002004020008170100670300098001760300800000500040092000000915057020080006094000,783912654625438179149675328498251763372869541561347892234786915957123486816594237
060308100104070008090006000000950820003010007050084061002400000900000500017260093,765328149124579638398146275671953824483612957259784361532491786946837512817265493
003600000000500186020089003050210900200400001070063400590300027064000009080701500,813674295947532186625189743456217938239458671178963452591346827764825319382791564
000680100094070000000001002001900650006043000203107098072094031800050064030000800,327689145194275386568431972741928653986543217253167498672894531819352764435716829
067150300800307016010600400003042000000000590290560000100090267025803009040010000,967154328854327916312689475573942681486731592291568734138495267625873149749216853
960500710031002000500809006070000803008407290020005004005006082003090005614000030,962543718831672549547819326476921853358467291129385674795136482283794165614258937
790654020000270000050009084402001000370980010800000673001000036903500000600140005,798654321134278569256319784462731958375986412819425673541897236983562147627143895
201007890840300607700409001902000010003705400080060000400003000065040039007510200,231657894849321657756489321972834516613795482584162973428973165165248739397516248
607400051100809007040005900023000680006782300500030000400307200850601704000000096,697423851135869427248175963723514689916782345584936172469357218852691734371248596
530016082840905010006000700408002000010000300020500006060008035009000107001360049,537416982842975613196823754478632591615749328923581476764198235389254167251367849
000001008300406200087902040700008590205730400048000003690104870000000120010590000,426371958359486217187952346731648592265739481948215763693124875574863129812597634
007483090058010300910000070605290804300045600001007002000000260000030509080526040,267483195458719326913652478675291834392845617841367952534978261726134589189526743
020704000068000150040050070900041080170090003034020009005800702610209800000060030,521784396768932154349156278952341687176598423834627519495813762613279845287465931
009002054030704020008000309800316000167000080020500900002067800900100430054900001,679832154531794628248651379895316742167249583423578916312467895986125437754983261
091300000070004206450080900200950870040200030006000000000002060807400501920501380,691325748378194256452687913213956874749218635586743192135872469867439521924561387
709164000001000009000002500004500803026080001905000047030800060000715300410020090,759164238261358479843972516174596823326487951985231647537849162692715384418623795
540007300006003090100000624060105208000004069208700005080600010030009040002380700,549267381826413597173958624964135278357824169218796435785642913631579842492381756
970200800200980045050300006500100380010050070402039000003067090008010602600002100,976245813231986745854371926567124389319658274482739561123567498798413652645892137
100062008005800090000401307096504000204007060500210000730000009000109403900008651,173962548425873196869451327396584712214397865587216934731645289658129473942738651
500609000067400100021005908009000376000308040040100500000503400010827005706040030,538619724967482153421735968189254376675398241243176589892563417314827695756941832
200058403000700000000609015095016008780090001003000024870402000539001007100005030,267158493951743682348629715495216378782394561613587924876432159539861247124975836
160930000205001030000040802700320508006705093000690470000087000020400600890000145,168932754245871936973546812719324568486715293532698471654187329321459687897263145
500630070010090600030007824000900000460710500002045103009002750603000049270080000,524638971817294635936157824351926487468713592792845163149362758683571249275489316
000104500000090246052078300080410605007200800000006019609830470030060000528000000,396124587871593246452678391983417625167259834245386719619835472734962158528741963
074603500030900002000180070260008047090752006003090008609040000050007410100200080,874623591531974862926185374265318947498752136713496258689541723352867419147239685
314500000000007821020069000000003658540801090007000002900200765175090030000300000,314582976659437821728169543291743658546821397837956412983214765175698234462375189
200183000007000104050006092002018040090030080510004670000300010600509307704020009,249183756867952134153476892372618945496735281518294673925367418681549327734821569
004020800008901040900000531000706009006050108730080620860300000040072005029604000,314527896658931247972468531281746359496253178735189624867395412143872965529614783
500072600000503040082910000004680001900205000750000230060009000030100794201048503,543872619179563842682914375324687951916235487758491236467359128835126794291748563
005630721900410800000005000006008079080702400104000006003000068050071040020090350,845639721962417835317285694236148579589762413174953286793524168658371942421896357
280046700704801005006000000150900000009308206803007000007400050900012807020005164,281546793794831625536279481152964378479358216863127549617483952945612837328795164
000487090900020800000003275050000009060100420807000063001068007004009300003750102,235487691976521834148693275452836719369175428817942563521368947784219356693754182
000100007407605010603089500760000209029007034005000080100953008098006305004002000,952134867487625913613789542761348259829567134345291786176953428298416375534872691
076200391430008060500100000002005040000691000007003980093840005010060820040000709,876254391431978562529136478962785143384691257157423986293847615715369824648512739
600182700007003000840009006300825001001000200504300960009000100050090824470050003,635182749917643582842579316396825471781964235524317968269438157153796824478251693
006839000001670859000000062400000000570200030039001045060300018705094000023560400,256839174341672859897415362412953786578246931639781245964327518785194623123568497
056290300082006010400700000001075800024030060970000405890020700003010609010008020,156294378782356914439781256361475892524839167978162435895623741243517689617948523
960020030020716800408500000005900260300000000014603075000400001000078052630190004,961824537523716849478539126785941263396257418214683975857462391149378652632195784
200050100000703540470000306050008201010096700048002000006000037900814000020000809,263459178891763542475281396759348261312596784648172953186925437937814625524637819
005300020017000009900000800301802064020053070590470100042000005060900081000068703,685319427217684359934527816371892564426153978598476132842731695763945281159268743
500000847020308960006500100100784050904013200007020000008006003470009600030201500,593162847721348965846597132162784359954613278387925416218456793475839621639271584
081300000000100069009400082000200005600075400004001078006980007520060003700000040,281396754475128369369457182817249635632875491954631278146983527528764913793512846
000200050041000203507064800004008000360001900092400701408950020009000007136070005,983217654641589273527364819714698532365721948892435761478953126259146387136872495
480020300000003069500170080310900007600004200054082010007050000026400008000691003,489526371271843569563179482312965847698714235754382916137258694926437158845691723
306102050284009700007480900000008002003560400060037001840003070051000609009005208,396172854284359716517486923175948362923561487468237591842693175751824639639715248
000093061100450800200860007097100040085700030600500900004000092003602580070008003,758293461136457829249861357397186245485729136621534978864315792913672584572948613
800000210040067003000012409250400700900050308003000026070500680001603970098000005,869345217142967853735812469256438791917256348483179526374591682521683974698724135
003802740005000100241003008097601003400307600030480009000050896079000004800260010,963812745785946132241573968597621483428397651136485279312754896679138524854269317
056080000000006094007103805300002006480500039100400700010905070023008950004000002,956284317831756294247193865379812546482567139165439728618925473723648951594371682
450082000002000069071000850610590008000007030090824007300000001089610304020070090,456982173832751469971436852617593248248167935593824617365249781789615324124378596
036100900000072000000803065098300004004010000510009602009040080060908351020500007,736154928985672143142893765298367514674215839513489672359741286467928351821536497
000480000073100050020095306069000400037002081000500620000070048001300009450900170,615483792973126854824795316269817435537642981148539627396271548781354269452968173
560009200070058900200670801430001009000703500005000036800320005006400070300090124,568139247174258963293674851432561789689743512715982436841327695926415378357896124
090040100010030690078200503280600019000897034000000050006002000003104072907085000,395746128412538697678219543284653719561897234739421856146972385853164972927385461
000700020600095300002008001007130040986070100000509002709304000010060205203800079,895713624641295387372648591527136948986472153134589762759324816418967235263851479
500301680028056070030090204089000017006040000450002000000570940093000500100068002,574321689928456173631897254289635417316749825457182396862573941793214568145968732
405200000069010004107000030000052601800700029700460350390020500004300810020608040,435287196269513784187946235943852671856731429712469358398124567674395812521678943
590300000008271300000008601020050460030009025804120703402080000000000004960035800,591364287648271359273598641129753468736849125854126793412987536385612974967435812
706400980090000000005200703500060030108005000024970506602010007037020090040500600,716453982293786451485291763579162834168345279324978516652819347837624195941537628
001950000007002060009416800000020400060081002530000700100040057870060320200305908,681957243457832169329416875718523496964781532532694781193248657875169324246375918
050087300403210560090000001604000002008902450000700103100408207082500000300006090,251687349473219568896345721634851972718932456529764183165498237982573614347126895
050000300400160070029007054900000038005986020070002600130700200007000801048509060,751294386483165972629837154962471538315986427874352619136748295597623841248519763
850007000169300020000000065000019007304020009000540600040600090007050410010230508,852467931169385724473192865625819347384726159791543682548671293237958416916234578
015092040040010098008000605007030021300605004094078000100207000009000080070054006,615892347743516298928743615567439821381625974294178563136287459459361782872954136
300100642040802050900050730006040020050000800490270300203089005000000071009600200,385197642647832159921456738136948527752361894498275316213789465864523971579614283
609005000070002590000086420006000800100403052002170039301804070040090308005000001,629745183874312596513986427736259814198463752452178639361824975247591368985637241
450300000600027040010009607009705004062083050000000081000801000045600910780030520,457368192693127845218549637839715264162483759574296381926851473345672918781934526
802030000040600800650010040003507019060200000725100038000896053000050420010004007,892435761341672895657918342483567219169283574725149638274896153938751426516324987
010000003000200850904750200501040009030600002700091580057900608620080940400030000,215468793376219854984753261561842379839675412742391586157924638623187945498536127
500100006730824005812900070000000590290608000301000400000000627000315000084007003,549173286736824915812956374468731592295648731371592468153489627627315849984267153
090000010000050643400731009027890000904006500050004071610000207000200308072080050,293468715781952643465731829127895436934176582856324971618543297549217368372689154
000500240208360000957002000005000010310000807000906450800040520030009061609170000,163597248248361975957482136495738612316254897782916453871643529534829761629175384
000300100080090600700240590060000000038500920000106430600007050409080070001453200,942365187385791642716248593264839715138574926597126438623917854459682371871453269
805903600610200000004080023000490100050700046300108005070000004002006018509300702,825943671613257489794681523268495137951732846347168295176829354432576918589314762
090080300340960051605400802000010004507000100060700003200005900001630027480090000,792581346348962751615473892829316574537824169164759283276145938951638427483297615
020760040506302070080001009003040601012030000700800025000580437400000900900670800,129768543546392178387451269853247691612935784794816325261589437478123956935674812
023090005900180640001540070090070000040360507650004000700050832280001006000900010,423697185975182643861543279392875461148369527657214398719456832284731956536928714
003400590200600014050019300080905740700080001006072900872000000005030408600091070,163428597297653814458719326381965742729384651546172983872546139915237468634891275
000064007097003020250000608002010063005030190000846000080001500009007000543020010,318264957697583421254179638472915863865732194931846275786391542129457386543628719
370004095018630004400508000200007650051023080900100003060090002000700049102040760,376214895518639274429578316243987651651423987987156423764891532835762149192345768
