350900214007006000900140005180067400000050061709004003003000800042005090500782006,356978214417526938928143675185367429234859761769214583673491852842635197591782346
070090100052068070038007420600900503000120008040005900080000600019032054003041000,476293185152468379938517426627984513395126748841375962284759631719632854563841297
089000000000803140000064507006307200100590008827000030042070090901600000350040061,489751326765823149213964587596387214134592678827416935642175893971638452358249761
907560300018004050200003007700240095061078000009100006005302901034000800800000060,947561328318724659256893417783246195561978234429135786675382941134659872892417563
006098003000005080030040270020000807903000006175030004400052000060704090590160002,756298413241375689839641275624519837983427156175836924417952368362784591598163742
200630050600000483041507090030000006050008749709021030000000805506170000007009000,298634157675912483341587692834795216152368749769421538913246875586173924427859361
000900682760105000003084050040010208010070090305000006100002005684000000027009010,451937682768125439293684751946513278812476593375298146139742865684351927527869314
100030007850090000064500020900800430020370605600015000040000000010760003708201590,192634857857192364364587129975826431421379685683415972246953718519768243738241596
370009002000800510020064083040020000012075400900000306004100009500003170790600000,378519642469832517125764983843926751612375498957481326234157869586293174791648235
030480710040905008002001003100670340090050006500003000060017000810020590007800002,635482719741935628982761453128679345493158276576243981269517834814326597357894162
600000000800004795009523004001080002050107089360000400406075201030900008002301070,645798123823614795719523864971486352254137689368259417496875231137962548582341976
003009086087030100504000090700451900000320000600700324090204010008060030016070800,123549786987632145564817293732451968849326571651798324395284617278165439416973852
053800010400060370000059060010420730070008500000700829086004090205001003900200104,653847912498162375721359468819425736372698541564713829186534297245971683937286154
000003500078000102002070004300102070057060009014900380081200003600000940090415600,146823597578649132932571864369182475857364219214957386481296753625738941793415628
001500306007380020000001054008075003300200060769004010005008001410060200200000497,891542376547386129632791854128675943354219768769834512975428631413967285286153497
900570103304001200070000800406030070080600500702059004000200089005004320017008060,928576143364981257571423896456132978189647532732859614643215789895764321217398465
000208500203006000900301008040009007100480030652000090000000006891070450406020170,714298563283756941965341728348569217179482635652137894527914386891673452436825179
027080600003004087150900003000001309574000000001672040060700904800190050000050230,427385691693214587158967423286541379574839162931672845365728914842193756719456238
100000006800004000630705098001500400270100050000089607500000003060908120029630700,157892346892364571634715298981576432276143859345289617518427963763958124429631785
269080050800306002004905100070003045600174830090002000001407000000000790020010006,269781354815346972734925168178693245652174839493852617981467523546238791327519486
098000000004002170000516040009060320000104008200380405016940500057030600800000037,198473256564892173723516849489765321635124798271389465316947582957238614842651937
060021007300509000804300200003000980000070061600854000009106402102000005000090000,965421837327589146814367259753612984248973561691854723589136472132748695476295318
980200301605000900027050048008003070060041005090670003309100502010920000400000800,984267351635418927127359648248593176763841295591672483379184562816925734452736819
804903017530000090000021040016084500072000069305000000000240081097560002000037000,824953617531476298769821345916784523472315869385692174653249781197568432248137956
310000580000200000270685010002000401790004003601078290009056030000010024080790000,316947582958231647274685319832569471795124863641378295129456738567813924483792156
100400037070000250028903000290300500603087024400001760001850090906000048000010000,169425837374168259528973416297346581613587924485291763731854692956732148842619375
500070004128900060600520301970000000010004080086130950000400200003086010090012075,539671824128943567647528391972865143315294786486137952761459238253786419894312675
700000205800060013093008000070100030940037000501000062052400890000610507400980006,764391285825764913193528674278156439946237158531849762652473891389612547417985326
000028760480016020065003009032000100006040085900001007000005400710009300050000672,391528764487916523265473819532897146176342985948651237623785491714269358859134672
200100430040500867709030000086000074900005213000009005015078000420006190003400000,258167439341592867769834521586213974974685213132749685615978342427356198893421756
000087000100400306500012400006030120090500004083940605820009000004003502067000008,649387251172495386538612497456738129791526834283941675825169743914873562367254918
900400160200003500804610003700830000063100009090000205001590628070004000500200040,937458162216973584854612793725839416463125879198746235341597628672384951589261347
300104070000780003450060001074309600200400005180025000600000509010200047009040208,328154976961782453457963821574319682296478135183625794642837519815296347739541268
050810009103050046080400002000000503900600720200007610006948030004001900708032001,452816379173259846689473152867124593931685724245397618516948237324761985798532461
020041000016500400070000380001309040000002508089000136005060000030870065400090270,823741659916538427574926381651389742347612598289457136795263814132874965468195273
069003500057980304004007082102000070006400003000095600043060200000078109080500000,869243517257981364314657982192836475576412893438795621743169258625378149981524736
000000003400005197100027050081900060005300902030600814500263000008040020970080406,857196243426835197193427658281974365645318972739652814514263789368749521972581436
020000900008000501300400670600150340430070009007203108000604805095700020100028000,526317984748962531319485672682159347431876259957243168273694815895731426164528793
508406000000090000903002706076000018009000203100500460300050090004708120720100084,518476932267395841943812756476923518859641273132587469381254697694738125725169384
003200604705000000000098002107005920900000400540060800004089307000100006081302509,893217654725436198416598732167845923938721465542963871254689317379154286681372549
200000007700600915003900084010508600030040500002310000028130040001700009650800002,295481367784623915163957284419578623836249571572316498928135746341762859657894132
102400060000071000045803009050700301001009680760302904800004000490056700000080032,172495863389671245645823179954768321231549687768312954827134596493256718516987432
000070409203500000000901080100090072080600510500807603078004030065200700410060908,851376429293548167647921385136495872789632514524817693978154236365289741412763958
905002867030890200204005000002070105400010780006003002041600500700100308000930040,915342867637891254284765913892476135453219786176583492341628579769154328528937641
890006002206374001017900000009400500002010473000280006000563010000000839040000607,893156742256374981417928365169437528582619473734285196978563214625741839341892657
000960004025080769000071300860100000050700090304090020002300675090008100010540002,738965214125483769946271358869152437251734896374896521482319675597628143613547982
190000046400316080700590000000083760005700210008600004620900001049007030801025000,193872546452316987786594123914283765365749218278651394627938451549167832831425679
090600804500780031013000700000100020007004003400092060308060049024900070600501300,792613854546789231813425796935176428267854913481392567358267149124938675679541382
008020000050941007106005009070063020002100003400890050900034601007000400000570082,798326514253941867146785239579463128862157943431892756985234671327618495614579382
000100700900056804000402135870300000640000008003040250310900000059807406060005070,524183769931756824786492135875329641642571398193648257317964582259837416468215973
040800096009020710670003000003502000000609200050010003300000004001060529420087600,142875396539426718678193452963542187817639245254718963396251874781364529425987631
300006200002087100005103479809010007064800900207000054900000000100364000003200508,371946285492587136685123479839415627564872913217639854926758341158364792743291568
020000007009763208804050600150024006307098001000007500005041800000200900096000304,623489157519763248874152639158324796367598421942617583735941862481236975296875314
000460009100900053020007800070893010950000002800015600004008000300020706006504120,538461279167982453429357861672893514951746382843215697214678935385129746796534128
059003060600970140400008050005730090006020781100000005307450600280006000004810300,759143862628975143413268957845731296936524781172689435397452618281396574564817329
010500460000091023050482900000309005800024001697000000700005209040010800283070000,912537468478691523356482917124369785835724691697158342761845239549213876283976154
007800100900003564000964280051008000000200046203790000582030090090410050710000600,467825139928173564135964287651348972879251346243796815582637491396412758714589623
600310500050020800408070002370680000102005060090000005019040700704002083500900120,627318549951426837438579612375684291142795368896231475219843756764152983583967124
739050400000000000406108200003020601020590000908700500600430070005200100240061850,739652418812349765456178239573824691124596387968713524681435972395287146247961853
400000059092000013000840006500000060140085020637190004005300008063720045780001000,476213859892576413351849276528437961149685327637192584215364798963728145784951632
040300000000007109031058020090070600350460010720005908680020071000900004002003500,247391865865247139931658427194872653358469712726135948689524371573916284412783596
090158074204000000100070063027004800406007510000306000500203001381000009000960050,693158274274639185158472963927514836436897512815326497569283741381745629742961358
004000370018000400270960010406008000080051002000376500900005080832010704005020061,594182376618537429273964815456298137387451692129376548961745283832619754745823961
580720900032001005090006304960500100000200073005004608400008000700930006000000017,584723961632491785197856324963587142841269573275314698456178239718932456329645817
603090005500000408902708060009064020026807009007003000035200180100000040000086703,683491275571632498942758361319564827426817539857923614735249186168375942294186753
000090002700060930600108050007032000003500240090004018080051000041700023200900086,154397862728465931639128754417832695863519247592674318386251479941786523275943186
900010864470005000020000900000080510500907402603200000357008000009004280080670001,935712864476895123821346975792483516518967432643251798357128649169534287284679351
005700080700009620060050903170030000302015708004000006049020017800040500201000890,925763481713489625468152973176834259392615748584297136649528317837941562251376894
210006450000070000003102000070004023000950804068010900030090712197000000540060080,219836457684579231753142698975684123321957864468213975836495712197328546542761389
010080092496003000508000000000007080250040601901000005000500076070491023830702050,713685492496273518528914367364157289257849631981326745142538976675491823839762154
200400001000801070600075320030100500160050240004706008002009000308500000400037019,275463981943821675681975324837142596169358247524796138712689453398514762456237819
000000000480502000009800765001070620020935040740000090000084050096021800030000271,365197482487562319219843765951478623628935147743216598172384956596721834834659271
621500090940270003000000800002907100890003002005000070000410508004306007039000046,621538794948271653753694821362947185897153462415862379276419538584326917139785246
300200000004975800100400706000003500750001062069000008501020000040087390008564070,387216459624975813195438726812693547753841962469752138571329684246187395938564271
000000006007806100105040890300008700902500010016030042590002600040910057020080034,289351476437896125165247893354128769972564318816739542593472681648913257721685934
819060052030000600206040010007001024002690700000074130000038009051020008080409070,819367452435812697276945813367581924142693785598274136724138569951726348683459271
014002685000908000073005042050074000000000300096203074028019000000000160740050039,914732685265948713873165942352674891487591326196283574628319457539427168741856239
061240700900100008800037000480000017007080259000300040300600900042059600610020080,561248793973165428824937165486592317137486259295371846358614972742859631619723584
500041706900300001084070290009050000307060800010409620600200400030015000052600010,523941786976328541184576293269857134347162859815439627691283475438715962752694318
000400080700053602031000007050064000089002150076980030040206000902500003308001400,625417389794853612831629547253164978489372156176985234547236891912548763368791425
006704001001036900578000000090010004040270030062000158300000002010580460000920807,936754281421836975578192346893615724145278639762349158387461592219587463654923817
406800100391607080070030065000045072900000000820003400730008090000396020100070008,456829137391657284278134965613945872947281653825763419732418596584396721169572348
602080000000009048900765000060300090701206050035001420083500260100804507079000100,612483975357129648948765312264358791791246853835971426483517269126894537579632184
001026507080045690400000300200980403368000100090070000020108050803500910007002006,931826547782345691456719328275981463368254179194673285629138754843567912517492836
000680013900002400010003087700000054180460000002908070070040092503020000020015630,257684913938172465614593287796231854185467329342958176871346592563829741429715638
000742350500090002000001069903020608004800027006000100027006004010380090090050703,869742351531698472742531869973125648154863927286479135327916584415387296698254713
005000309600107400000060570200504000081000050090283007020038000000700046470090120,715842369639157482842369571267514938381976254594283617126438795953721846478695123
920860500001500700006431008040083207108000050090710060060002073534000090000094000,923867541481529736756431928645983217178246359392715864869152473534678192217394685
002104080000000056300090200040073009517600030008050060600002840020706001194300007,752164983489237156361598274246873519517629438938451762673912845825746391194385627
030010095700406031580000400402000009060092103000801760390020607005307000200085000,634718295729456831581239476412673589867592143953841762398124657145367928276985314
301009048400003000006800507000000925050380006000200081702100600508042010030600090,371569248485723169926814537813476925259381476647295381792138654568942713134657892
800000067009003000000095420500240006740300180003106009300607000910000008072084305,835421967429763851167895423591248736746359182283176549358617294914532678672984315
600000024050070310090402600320100000170009560008024007080201090700630000001000840,617853924452976318893412675325167489174389562968524137586241793749638251231795846
700495060300008025046010000009800502160300009000040018900006050014009070020700003,782495361391678425546213987479861532168352749253947618937126854814539276625784193
001804000300250069760100000870510302400090050002000070200008400500300206104000090,921864537348257169765139824879516342413792658652483971236978415597341286184625793
540000810020890600000000057001540200000068003704900060050400071970001008000032090,549376812127895634836214957361547289295168743784923165652489371973651428418732596
030050082050009034010800790004208060002001800063000007000500001780130900000007400,937456182258719634416823795194278563572361849863945217649582371785134926321697458
008002150070900000050170040804030026600740019090000003040601800500094000109850200,938462157471985362256173948814539726623748519795216483347621895582394671169857234
069010003007530014000900508000020387005081000002300450400200100903750200076009000,569814723827536914341972568194625387735481692682397451458263179913758246276149835
003008014810700090056000320300004570000600209009120000000901080041300007590040006,923568714814732695756419328362894571185673249479125863637951482241386957598247136
