000164580650900102000020300120097650070850000500003409904002063000070810038000000,392164587657938142841725396123497658479856231586213479914582763265379814738641925
000004500300002160052091084000006000064059027809200001500070000790068040016000030,981634572347582169652791384275816493164359827839247651528473916793168245416925738
008052600490031008002407000036000009850000263040500010010004500907020040000370001,178952634495631728362487195736218459851749263249563817613894572987125346524376981
000020301500890700047050000103000205096500030000072000630400098009060170005008042,968724351521893764347156829173649285296581437854372916632417598489265173715938642
600208090710030008084700000090560003320001400000024500007006052948000067500903100,653248791719635248284719635491567823325891476876324519137486952948152367562973184
090000208005069003070400090020000800004750100080001736002300040150690002803105000,496573218215869473378412695721936854634758129589241736962387541157694382843125967
600100000009020173030057000082095060160300400090004850000000084507801200300000706,674138925859426173231957648482795361165382497793614852916273584547861239328549716
902370004610000085070060020001900306300200090050040070090000051006580200007124800,982375614613492785475861923721958346364217598859643172298736451146589237537124869
035001007000040000102960400007504020906000105000008049008100670060823090501000200,435281967679345812182967453817594326946732185253618749328159674764823591591476238
020010360750002804006008007040000900001803050580609730403500090200030600900007240,824715369759362814136498527347251986691873452582649731473526198218934675965187243
508000000047180006006402005000000019900876020304020050070034001600700280005610307,598367142247185936136492875782543619951876423364921758879234561613759284425618397
000001952806300000051400030500120008300075490074030060012000607080209040405086000,743861952896352714251497836569124378328675491174938265912543687687219543435786129
409000170006093400008507006705080090300206000840030001020070300100004569050600024,439862175576193482218547936765481293391256847842739651624975318187324569953618724
509400300070089000802103000026001057004000601105047029000000070003094582000350060,569472318371589246842163795926831457784925631135647829458216973613794582297358164
009210080740006003100008000300020001007304502080750300235900400070140000000000650,569213784748596123123478965354629871617384592982751346235967418876145239491832657
600100049500024000030008000008300500172000603009070400020530080040082901010007062,687153249591724836234968175468319527172845693359276418926531784743682951815497362
000000600450000002302906180000000460090073008508240309800100000640005203015007090,981324657456718932372956184723589461194673528568241379839162745647895213215437896
020900400065300000000000832053042970801007026009000501002084010900005000700610003,328971465465328197197456832653142978841597326279863541532784619916235784784619253
900805670071004000803060902200001890508090067100500204000008503060402080700000010,924835671671924358853167942236741895548293167197586234419678523365412789782359416
000200060600500081700003900810000000006075023070869000980000002000001540053402790,541298367639547281728613954815324679496175823372869415984756132267931548153482796
000200610900108507020700043098352400630807052100004000003600200800000090060500170,387245619946138527521796843798352461634817952152964738413679285875421396269583174
070084020205073900300100600680000000913005040000020009061009080000540037504710006,176984523245673918398152674682497351913865742457321869761239485829546137534718296
070910004250086093000000780790830001003400052546002000009070000800040015400300609,678913524254786193931254786792835461183467952546192837369571248827649315415328679
000000502800450710007039040000010380500600000314072000000901064080000270296008005,643187592829456713157239648962514387578693421314872956735921864481365279296748135
060501790010004368370000000006000004053000100490182050000908500020050031009700820,864531792915274368372869415186395274253647189497182653631928547728456931549713826
072003040504060170960708030006802009000051302000000780290030600007980000450000001,872513946534269178961748235346872519789451362125396784298134657617985423453627891
602000005103090040700301908007086500400000003000100790908050001040079006006002380,692748135183295647754361928237986514419527863865134792928653471341879256576412389
800002050020003046400590003700200100562080000009450070000010607980700024030900510,893642751125873946476591283748239165562187439319456872254318697981765324637924518
890600003017580400060009100100000004026950000080070025250048900900103000003200070,894617253317582469562439187135826794726954318489371625251748936978163542643295871
520040030008210907600903004084002000000109300907580000700060001403008569005000200,529847136348216957671953824184632795256179348937584612792365481413728569865491273
090008200800001054506000017000790401002065070030004008001002000745300090089050603,194578236873621954526439817658793421412865379937214568361942785745386192289157643
508000007009684010100507040906200000400003109005710200750490002002008070300000506,548931627279684315163527948916245783427863159835719264751496832692358471384172596
006000940102540706000007005000010003010423090090000080860204000700085014305690008,576832941182549736934167825257918463618423597493756182861274359729385614345691278
000014009030206040800790005603070200420080100501000037000925060076000000900000418,265814379739256841814793625693571284427389156581462937148925763376148592952637418
193400000020100387067250000001007054200000000400539006005300100006000820040080075,193478562524196387867253491631827954259614738478539216785362149916745823342981675
067430902050607030800000070000700028310090000040260300230980500004000610900014000,167438952459627831823159476695743128312895764748261395231986547584372619976514283
507000000004200600020801030065070010308510900009006204602035480090064007000000309,587693142134257698926841735265479813348512976719386254672935481893164527451728369
500680004096300000204150903005070038300200150010900200860002001400000000070840096,531689724796324815284157963925471638347268159618935247863592471459716382172843596
023570090900004000700200360500020708830790004004005620406083050010000083007000100,623578491951364872748219365569421738832796514174835629496183257215647983387952146
001007089020000006409030070360900502850310000000200400978040600003006700200001050,631457289725189346489632175364978512852314967197265438978543621513826794246791853
009008006300500871700140900908060305600093047020000080540037090000001020107400003,219378456364529871785146932978264315651893247423715689542637198836951724197482563
000090820100007000304100500710004000008061904020500306050306002007800050903020048,675493821182657439394182567716934285538261974429578316851346792247819653963725148
090380000650200004301540290400805920030007500100690070082010057006000430000700000,294381765658279314371546298467835921839127546125694873982413657716958432543762189
704962005200080100090000006000000087147200003306504000900006500051709300008030240,714962835265387194893451726529613487147298653386574912932846571451729368678135249
070003060506000102003400070090524800000007609281000005430876050002905000800310007,178253964546798132923461578697524813354187629281639745439876251712945386865312497
200008003650792008007500060090000740010325096008000000901040007030000180800060204,249618573653792418187534962392186745714325896568479321921843657436257189875961234
049021006000396200005008000904000500026100300830700029000800931708050060000204007,349521786187396245265478193974632518526189374831745629452867931718953462693214857
500826700000500038090004006002075081004009200000630079058000602031000040200761000,513826794426597138897314526962475381374189265185632479758943612631258947249761853
000200504802059600000000801070903005004560019010008230030800060500070040090421007,163287594842159673759634821276913485384562719915748236437895162521376948698421357
140620500005700018800130009003000070096480001510000024007009603900540080000207000,149628537635794218872135469423951876796482351518376924257819643961543782384267195
659100000000000108080034050300290000006005790091008042410006005072540081008070320,659182437234759168187634259345297816826415793791368542413826975972543681568971324
079500600000780594003000080008001000400002009967830040030908021100240070004000005,879524613612783594543169287328491756451672839967835142736958421195246378284317965
920030005000900400080007600601085320408000001032006007059008703100050004007021900,926834175715962438384517692671485329498273561532196847259648713163759284847321956
004567000701008530009010002180030009027400100096000000500001003003952408000000706,234567891761298534859314672185736249327489165496125387548671923673952418912843756
200047803403850610000090050009080000651000000000006935907100026030270400000004309,215647893493852617768391254379485162651923748824716935947138526536279481182564379
000002530090734060180090000000260008060059270007183000632000100508000946004070050,746812539295734861183596724359267418861459273427183695632945187578321946914678352
020003080900500706317090000049700608701800203000012400000260050560004007400309001,625473189984521736317698542249735618751846293836912475198267354563184927472359861
084016007906302010020007005000140900000008036302000074051004000009800200700000563,584916327976352418123487695867143952495728136312569874251634789639875241748291563
005004800809106020200000130060001000590760080003500700002050000007930045006408079,615324897839176524274895136768241953591763482423589761942657318187932645356418279
071008503000000940200014000600500030700000052103920074080103007064080200900402060,471698523836275941295314786628547139749831652153926874582163497364789215917452368
081003507706000000054020081600700900402800000870041630009005726100300009000000400,281493567736518294954627381613752948492836175875941632349185726127364859568279413
000050000006700103801400027000007439400030810090600052703590004089006000102008060,274153698956782143831469527615827439427935816398614752763591284589246371142378965
600080109004000060302097800000029004509410703060050010003000500807540026200308001,675284139984135267312697845731829654529416783468753912143962578897541326256378491
000000908487001300036050000004007520600093000178002009002640853009705600000210004,251376948487921365936854271394187526625493187178562439712649853849735612563218794
900082100031000090060490503609070002400850000500900638072000001000038700054600209,945382176231765894768491523689173452423856917517924638872549361196238745354617289
763000090020010070500200043009805000001063200670000004090004805002109007086070031,763458192924316578518297643239845716841763259675921384197634825352189467486572931
600031540180040000703506200004070900520000406070800350859300020200000600000019030,692731548185942763743586219314675982528193476976824351859367124231458697467219835
000802060013700040000310079204070010007004850900200007069005001500608300420000090,795842163613759248842316579284573916137964852956281437369425781571698324428137695
074000510005004008612900000030720105000008090927601030000500306000040980106800200,874362519395174628612985473438729165561438792927651834289517346753246981146893257
090702008000000210100403076580206000704080500030070000076305009409000603200100084,695712348347698215128453976581236497764981532932574861876345129419827653253169784
540071009760090040000306000014000520070804060085029007000610803098007050200005100,543271689761598342829346715914763528372854961685129437457612893198437256236985174
000030001710850300506700024070206080002000169900040073100900042000001500040068900,829634751714852396536719824371296485452387169968145273185973642697421538243568917
000071250050008070000200406009340010084006300003507690028000100960800030700005049,846971253352468971197253486679342518584196327213587694428739165965814732731625849
090080034000567000020400105640010300050804007103009002084120070305000026000000980,596281734431567298827493165648712359259834617173659842984126573315978426762345981
060000000400205030837001605010400502500010900082507001709300004020000300006098007,265873149491265738837941625613489572574612983982537461759326814128754396346198257
010040580690003000204100006800000003020016050003470002905230640000807100070590038,317642589698753421254189376841925763729316854563478912985231647432867195176594238
000089650700200000010037040204060370003000008089500020900006085067001004028040109,432189657796254813815637942254968371673412598189573426941326785567891234328745169
800970403001063005700500002100600007080025000094081200052030068006400000310090070,865972413241863795739514682123649857687325149594781236452137968976458321318296574
002090100040006058603005040300000000504007010001200930080010070100040602070359000,852493167947126358613875249398561724524937816761284935489612573135748692276359481
500000000040020680002137000007008403000060900180300205003209040650070309204080051,579846132341925687862137594927518463435762918186394275713259846658471329294683751
900004020000500970520000800105920004483700000600053100301079002048301009060000008,937684521814532976526197843175928634483716295692453187351879462248361759769245318
165000008708400009900003006020005070300900000009386104050297600200000040087510300,165729438738461259942853716826145973314972865579386124453297681291638547687514392
080094000059300001060205083608400200430000067000007040002079300017860094500100020,183794652259386471764215983678451239435928167921637845842579316317862594596143728
000000007043801000008709000001470002950008000402935680100000040000020053097504026,569342817743851269218769435831476592956218374472935681125693748684127953397584126
008000302790510040602300010005094800060000507900006034074005009010087020830200006,158469372793512648642378915325794861461823597987156234274635189516987423839241756
000803050090070100581900030007400010005006084200030907800000321706020490004150000,472813659693275148581964732967482513135796284248531967859647321716328495324159876
004000800830100600092070004063000400100820700005940023071002056900030008400095001,514269837837154692692378514263517489149823765785946123371482956956731248428695371
000250070900008405306000810400132050000800000001070960007009006020000504804360027,148253679972618435356947812469132758735896241281574963517429386623781594894365127
900801075000052600860400310001736000050109200007000034049000706203005900010080000,932861475174352698865497312421736859358149267697528134549213786283675941716984523
017000000300000801640059070031000204020764030800000590000091000002046980056820003,217438659395672841648159372731985264529764138864213597483591726172346985956827413
061050009703026008809000503000070300006408021010005094090037600300000085040102000,461853279753926418829714563984271356536498721217365894198537642372649185645182937
000280003906300017240607000809000502020005070300401980000008609005900020708060130,571289463986354217243617895819736542624895371357421986432178659165943728798562134
803046009001030702400709600040087030000000400530090001708000500900120006060500908,873246159691835742425719683149687235286351497537492861718963524954128376362574918
000000036057800009610039040980400500020007004003010980508260400071500003000004100,894152736357846219612739845986423571125987364743615982538261497471598623269374158
006000980509017034070020060030800000005003790620540000103004608408250070000000501,216435987589617234374928165931872456845163792627549813153794628468251379792386541
350000009002009501000600342000482090090700000043001067035007800109060005607203000,354128679762349581918675342576482193291736458843591267435917826129864735687253914
000400602005870090164000050900000080080200716607380000720000300090731040008090500,879415632235876194164923857952167483483259716617384925721548369596731248348692571
750010043008200007900003820100350706080021000500064030040900108007540000600000052,752618943438295617961473825124359786386721594579864231245936178817542369693187452
417000080000900530000240006300510240008009001052000607004080070060003809025107000,417365982286971534593248716379516248648729351152834697934682175761453829825197463
008035920900070800056000010003004000010002309092080061030050487270098050100003600,748135926921476835356829714563914278817562349492387561639251487274698153185743692
