024003050000904601603070820005300160309041700870500000907000000502610478000008200,124863957758924631693175824245387169369241785871596342987432516532619478416758293
006015908030200045020460300900806070140003000000900250000670080790500160205089000,476315928831297645529468317953826471142753896687941253314672589798534162265189734
364200007000403052070090000003020900089100004502600100020705040008900010150008060,364251897891473652275896431713524986689137524542689173926715348438962715157348269
006200085001060000290500403608020970500040010000307002004690000003800709900701806,346279185851463297297518463638125974572946318419387652784692531163854729925731846
005308609090500081700004000300000062470209005180700300000120040900806107830900500,245318679693572481718694253359481762476239815182765394567123948924856137831947526
020034809000961750007800003010470306006010480509000000000300624600000000830540010,125734869483961752967852143218475396376219485549683271751398624694127538832546917
094100000065009380180070200002000007506307890400061003000950410300480072000000605,294138756765249381183675249832594167516327894479861523627953418351486972948712635
008900701050604030073000500147800309000000006060045020500367100800402905002090000,428953761951674238673281594147826359285739416369145827594367182836412975712598643
300000084004189300005007010100040006060002470907603000000071065026000090590300800,319265784674189352285437619152748936863592471947613528438971265726854193591326847
000007203800451007604300000100200874000009500002876300010760090409000000035010680,951687243823451967674392158196235874387149526542876319218763495469528731735914682
001003040805107600093002007409200000010860209000000700030700805002509030906040100,271653948845197623693482517469275381317864259528931764134726895782519436956348172
000400605160700002700052910004000103018060097050093000030008001209507040000300280,892431675165789432743652918924875163318264597657193824436928751289517346571346289
000103009560029008000050073370506900021408000604030010487200600000000005190007082,742183569563729148819654273378516924921478356654932817487295631236841795195367482
089200153300004007006050008040500010002010600150097300090130000800009002020860490,489276153315984267276351948647523819932418675158697324594132786861749532723865491
801007304040015960000000020002030010005900807409800002700060080903002105200570400,821697354347215968596348721682734519135926847479851632754169283963482175218573496
003700061057000840001089003870500209000608730040910650000046000509001020020000007,483752961957163842261489573876534219195628734342917658718246395539871426624395187
509000076016000405000080090701000603640001200005490000000510087304700001000832900,529143876816927435473685192791258643648371259235496718962514387384769521157832964
900004201084109605003860007001200050050076000076008004240300060000050100008000340,965734281784129635123865497891243756452976813376518924247381569639452178518697342
000070485800091030003650000370000008001000942295000310900360200026700000400980051,169273485852491736743658129374129568681537942295846317918365274526714893437982651
020000703000800056001074900060103000087065049905080201092000034040700080003002500,428956713379821456651374928264193875187265349935487261792518634546739182813642597
360000000000800654504700810040060180000090002807510300080000009200003560006950470,368145927712839654594726813943267185651398742827514396485671239279483561136952478
008300015060007040390042060000008700420960030039710500070821000005400980000000400,748396215562187349391542867156238794427965138839714526974821653615473982283659471
700060850036002004809300001328000700000890005010004060590170002004250037001000090,742961853136582974859347621328615749467893215915724368593176482684259137271438596
000000010000902670653080900201400300005001006760000820070020089310005004400006200,927643518148952673653187942291468357835271496764539821576324189312895764489716235
067100020320090015100300084014006000002008500000750030000000078800429000659010003,467185329328694715195372684514236897732948561986751432241563978873429156659817243
000700840060080020403056000002098304006530709100400005957620000320009001018000070,295713846761984523483256197572198364846532719139467285957621438324879651618345972
053079060006003040900210008000080100015004023084031095070005009408600002002000030,853479261126853947947216358369582174715964823284731695671325489438697512592148736
720005040030700000800039000010004900400080060506100020080200094040317850100900670,721865349934721586865439217218674935493582761576193428387256194649317852152948673
030600572680200010009040003760928005050700000001006030800000900012090860500014007,134689572685273419279145683763928145458731296921456738847362951312597864596814327
507029080100060000300405009000001046089703005002080070070000054006152300903000018,567329481194867532328415769735291846689743125412586973271938654846152397953674218
670240000080000120401003005012050430003600800900070051050008307030720090800100600,675241983389567124421983765712859436543612879968374251256498317134726598897135642
510086730040003000206070509087900100000050000053164800890000002000000041600315070,519286734748593216236471589487932165162758493953164827891647352375829641624315978
060070910000854000207000008810400620906001370000009500701060000080005003509200740,468372915193854267257196438815437629926581374374629581741963852682745193539218746
800060000000089012542000000170000005036070280005340600080002090007401003090037056,819264537763589412542713968178926345436175289925348671381652794657491823294837156
030400079506100000140083000000307640080902013001005000050008490094030800600200705,832456179576129384149783256925317648487962513361845927253678491794531862618294735
850143090790008002006970000501000204004810650067000300000420080108600007030005000,852143796793568142416972835581396274324817659967254318675421983148639527239785461
000052089030001070792040050870500032014300000009020006100004705000608120600030900,461752389538961274792843651876519432214386597359427816183294765945678123627135948
080043009200900410097100603870650001600004000500020907701500004020000000050370086,186243579235967418497185623872659341619734852543821967761598234328416795954372186
007000602100080700054003000020030079590800014000001500300065008079240003800010200,987154632163982745254673981421536879596827314738491526312765498679248153845319267
570980000910560382200003000300700560006400070090050100080300001607208054000004007,573982416914567382268143795341729568856431279792856143489375621637218954125694837
402000500050043000081600079070120004500079300000064100038097040100200008900008235,492781563756943812381652479673125984514879326829364157238597641145236798967418235
010209573400830010000000600000501097902004065070000000800060009530710400006080250,618249573457836912293157648364521897982374165175698324821465739539712486746983251
000091043000008160750300000090030070080240531520006804000003002200010680406000057,862591743349728165751364928194835276687249531523176894978653412235417689416982357
907000800002079040000600705008004026010092004000300500723016008040580000506007901,967435812852179643431628795398754126615892374274361589723916458149583267586247931
000675800000000301400008079009000543046020710008507000062030000051009406930106000,193675824687492351425318679279861543546923718318547962862734195751289436934156287
050068007107040008020000940076005000800603000005087390700900580013000020904302670,459268137137549268628731945376495812891623754245187396762914583513876429984352671
020008370100005009480103600008426010700000400605007093001090020003050084900600005,526948371137265849489173652398426517712539468645817293851394726263751984974682135
070000149000259008380100000030904605240683000100070000000008700950060003860720400,572836149614259378389147562738914625245683917196572834421398756957461283863725491
000600039509000460640008010160409008007002500028070043090506102000020050700341000,271654839589213467643798215165439728437862591928175643394586172816927354752341986
210704000607098050000500310003201060408070900000640700800003209379002040040050608,215734896637198452984526317793281564468375921521649783856413279379862145142957638
048000100605109000070320060090280305300076092000004007900012400007600980001000053,248765139635149728179328564796281345314576892582934617953812476427653981861497253
050302690009700030401006000010005000000020408580670002802000970300090001007004526,758312694629748135431956287213485769976123458584679312842561973365297841197834526
798500403020000690001030020400090751080650040000007800503001000070300069004820005,798562413325184697641739528436298751187653942259417836563971284872345169914826375
009002000000005137040760500300009080687040002205010000400020801001680790070300040,759132468862495137143768529314279685687543912295816374436927851521684793978351246
800006029100000407009250380090084170003010006000700050058900000060032000371060800,837146529125398467649257381592684173783519246416723958258971634964832715371465892
040060085009050103070103200008300000900080640210009000394002800500708000002040016,143267985629854173875193264458326791937581642216479538394612857561738429782945316
432000900000007105050908060008000436000500000920060701003700010610040080709205000,432651978896437125157928364578192436361574892924863751243786519615349287789215643
800691003000308700051000069010870000700200310080000204006704050240009000009132006,827691543964358721351427869412873695795246318683915274136784952248569137579132486
500402001030007800026015000760540030008100709000038000081000003009003604450600902,597482361134967825826315497762549138348126759915738246681294573279853614453671982
000001750070530009800069402000302090659080070027000804096027000100406000008010520,963241758274538169815769432481372695659184273327695814596827341132456987748913526
040002000900087000206590000009060037470120058080003090500304260010006800700910040,847632915951487326236591784129865437473129658685743192598374261314256879762918543
800970026060108300947002005410050008050760040000304000000000000502003800103096270,831975426265148397947632185416259738358761942729384651694827513572413869183596274
860300050904000102020980060371508000050260390000040000009025001600400008003170004,867312459934657182125984763371598246458261397296743815749825631612439578583176924
650027039030501008048000170006480052000670800003000000800010920790304000005000046,651827439937541268248936175176489352529673814483152697864715923792364581315298746
500008034080203900701900500060507000400000105002600480006092703090310000045080200,529178634684253971731964528168547392473829165952631487816492753297315846345786219
004005800000038906700902503010720030403000000006840010081050600092000004500160080,934675821125438976768912543819726435473591268256843719381254697692387154547169382
098000004005371006067080000020009080003000400084615200009206301010003520000040907,198562734245371896367984152721439685653827419984615273879256341416793528532148967
600304205080000009002905160050609308070200500430800001004012090100060700000503600,619374285785126439342985167251649378978231546436857921564712893193468752827593614
050107904421005800890000000683700100000009040000560007900000050078000069000014038,356187924421395876897426513683742195715839642249561387934678251178253469562914738
000065090000027008006410300039000620670200004042900010081003045760008009003050100,327865491914327568856419372139584627678231954542976813281693745765148239493752186
050000006104500320706900000080000007509170000601020430000302010408006095000089760,853241976194567328726938541382694157549173682671825439967352814438716295215489763
008060150004387002096004000027005806080100900000630000000050019300400008945020007,738269154514387692296514783127945836683172945459638271862753419371496528945821367
970602801341700200000000530230800070500060004060497000700024008010900050020081063,975632841341758296682149537234815679597263184168497325756324918813976452429581763
504090008000000230006813900400580090018030004070609002249007600007308000600000051,534296178891475236726813945462581397918732564375649812249157683157368429683924751
500007000000038029007216804700020006300600080060154900603000072080000400204395010,528947361416538729937216854759823146341679285862154937693481572185762493274395618
090005700205310009070200040587600000010809300004020060009003020008006510460100008,891465732245317689376298145587634291612879354934521867159783426728946513463152978
008005302600400080703120000000284061009306027040010005800000090061070043070693000,418965372625437189793128654357284961189356427246719835832541796961872543574693218
049103850000067002216000040001005000007040035800000290304200080000500069980030007,749123856538467912216958743421395678697842135853716294364279581172584369985631427
017080903500000000030002570000900040400003780789051060820306000000290800006047051,617584923542739618938162574263978145451623789789451362825316497174295836396847251
050040000070901028800000106500009080010600072002030501706023040008004090020008603,251846739673951428849372156567219384314685972982437561796123845138564297425798613
700400298000002605150000070001000006028701000004580003000820500036000900000946807,763415298489372615152698374591234786328761459674589123947823561836157942215946837
100002005002943007030600090000010703308000050276005800980020060060409200704500010,149782635652943187837651492495816723318274956276395841983127564561439278724568319
840210060000009030100568004209640007418000500075000300926000080000700452700300001,847213965562479138193568274239645817418937526675821349926154783381796452754382691
004518000900004206000000080000260010015083000060900847490700068006002530300100709,624518973981374256537629481849267315715483692263951847492735168176892534358146729
000000810089026000063410000075009400620000000090234005400100063700085009016007002,247953816189726354563418297375869421624571938891234675458192763732685149916347582
158026009004080700000009050060045073209000004075300120300800200002107035040000061,158726349694583712723419658861245973239671584475398126316854297982167435547932861
400070000150600290009020731300800000570130680000000002600000800090345070013260940,432971568157683294869524731321896457574132689986457312645719823298345176713268945
806400000091073020000006005700000809002318504000000000040032900570604001200807030,856421793491573628327986145734265819962318574185749362648132957573694281219857436
004203070760800010003050409530002040401080000080070521370090000600001092059600800,894213675765849213213756489537162948421985367986374521372498156648531792159627834
000006102410009050038700900090407600500902083002030009900000206100080300065001047,759846132416329758238715964893457621571962483642138579984573216127684395365291847
480750060015408090060300000008001207700040900000005680000036020093100000052980041,489752163315468792267319458548691237726843915931275684174536829893124576652987341
007400031009006008030920060080200500140500003003060072304000017060107090500398000,627485931419736258835921764786213549142579683953864172394652817268147395571398426
560000300031020470702008006000006001904300500008710090280095004100800609003000050,569471382831629475742538916327956841914382567658714293286195734175843629493267158
010060320060458070900000006004705903806020004790001080000002007509100840208530000,415967328362458179987213456124785963856329714793641285641892537539176842278534691
926050030403009100000204000000060009700002080000380647091006005005700328800040060,926158734483679152157234896538467219764912583219385647391826475645791328872543961
010072900306100000205006003024080700000050060860904002080030670000021048003500100,418372956396145287275896413524683791931257864867914532182439675659721348743568129
016307020570089010408000000600500032000060400240030170000600708751000069009205000,916357824572489613438126597687514932193762485245938176324691758751843269869275341
065030070300040829000007060000000487009608501100300000008029043740180000902005000,865932174371546829294817365653291487429678531187354296518729643746183952932465718
041050600000007001503029400080690002004801006970500080450206000030000090207004300,741358629892467531563129478185693742324871956976542183459236817638715294217984365
050083000287000010000001020040032000009048650500790800061000305408000070030964200,154283769287659413693471528846532197379148652512796834961827345428315976735964281
