840370005001400600037091020080200000106003087005010900000760400050000269009025001,842376195591482673637591824984257316126943587375618942213769458758134269469825731
401050900000900008560031072002009801800240006070006040790005004000020380300408150,481752963237964518569831472642579831815243796973186245798315624154627389326498157
020000080800670204304100705940050023000810560600300000002008007090430050105097300,527943681819675234364182795948756123273814569651329478432568917796431852185297346
508060900100500400000803207000394020200007138065001004902700501600008070034100009,578462913123579486496813257817394625249657138365281794982736541651948372734125869
800640300000009020900002807207800690590270004043501000050400901701003008000060050,872645319134789526965312847217834695598276134643591782356428971721953468489167253
009004030600070100801050960012000703750430602000800000500019200004006079060200805,279164538635978124841352967412695783758431692396827451583719246124586379967243815
040300001000024380068070004605030700010600000080090500100007820000045090297800600,542386971971524386368179254625438719719652438483791562154967823836245197297813645
090800400005230100700006008300000650609020007080004012000700520103060004002580963,296817435845239176731456298324178659619325847587694312968743521153962784472581963
000950046045010702967000000054006031200080900700305080070840003001003050000001827,128957346345618792967432518854796231236184975719325684572849163681273459493561827
201030000090108520607500009060000034008051072900400000730002090504060000000340160,251936748493178526687524319165297834348651972972483651736812495514769283829345167
080003020704090000050720860019800306207050900008001040030000708000400015695100200,986513427724698153153724869519842376247356981368971542431265798872439615695187234
890320100006000000070010865080603009020085001504290003007000408102070300650900200,895326174416857932273419865781643529329785641564291783937162458142578396658934217
200803100070010054000000600007054960006900000030070042080600010945700080103002509,254863197678219354391547628827354961416928735539176842782695413945731286163482579
100600500470000029625003080090872106060000000750100004030010800000700490802056007,189627543473581629625493781394872156261345978758169234937214865516738492842956317
030802900406700005000090031107630002905000000080920070310004609504200800000001407,731852946496713285852496731147638592925147368683925174318574629574269813269381457
000070320050000980760300105008590004024800003305260700010400600900030001002680009,481975326253146987769328145178593264624817593395264718817459632946732851532681479
405007009600003810000021700201000080069100005000048620380000040092080007070256300,415867239627593814938421756241675983869132475753948621386719542592384167174256398
000740093056208704300900068090605080007000051080000300501300000640090100000804020,812746593956238714374951268193675482267483951485129376521367849648592137739814625
050800070030021904009040100400003020700980560000062409002400705001035000008679003,154896372637521984289347156496153827723984561815762439362418795971235648548679213
108020000306700249007609000000003100640005320000960058003007010500000802070041600,198524763356718249427639581285473196649185327731962458863257914514396872972841635
000003010001089503050040708090000061086250009000901800715600040003070006040000950,879523614461789523352146798597834261186257439234961875715698342923475186648312957
005060170087002056000900400020340900100008700054000620490085000506070003000009001,245863179987412356631957482728346915169528734354791628493185267516274893872639541
809000000050001006000000793097306042083002001402090065036580020700100430008207000,879623514354971286261845793597316842683452971412798365936584127725169438148237659
000200480704006002590000003071800560006047200208090001009083074040060305310700000,163259487784316952592478613471832569956147238238695741629583174847961325315724896
002900010500070403470086900000003067016205030048000090200001000053700008690400520,832954716569172483471386952925843167716295834348617295284561379153729648697438521
008004000200096070093500462106050300030400098040700010007030000005000236001982500,618274953254396871793518462176859324532461798849723615427635189985147236361982547
000610000009070208402009003001900702008450609060000010847190000003026570050003000,385612497619374258472589163531968742728451639964237815847195326193826574256743981
005001090301040000000370200000006804812000076603900020004705080080004150027610300,275861493391542768468379215759126834812453976643987521134795682986234157527618349
310028000506000002004900067000805340009016000100347006261030700080400290003000005,317628459596174832824953167672895341439216578158347926261539784785461293943782615
905002000030080567060304000000040819008507000604210000073100005100036008040070091,985762134432981567761354982527643819318597426694218753873129645159436278246875391
008090560046820000170000003095070102300004087007000940000061078000400000810005490,238197564546823719179546823495678132321954687687312945954261378763489251812735496
207000009005061000400009803008000500160050000900200174301074900004900036070805020,237548619895361247416729853748193562162457398953286174321674985584912736679835421
700300260510070030900008041105702090082030006000605000030006000074010058009000400,748391265516274839923568741165782394482139576397645182831456927274913658659827413
049600100200000075005300900001070000080006002700845600807060090003180060050002401,349657128268491375175328946691273854584916732732845619817564293423189567956732481
000030002056001089008250704180000900007840030904000006030080120402100500005760000,741938652256471389398256714183627945567849231924315876639584127472193568815762493
302510000067008450104006008096301800200900040000005209600079000009802703010050060,382514697967238451154796328496321875235987146871645239623179584549862713718453962
803409200501807006900130040004000000007080065302000107008210590060570002000040003,873469251541827936926135748684751329197382465352694187738216594469573812215948673
036010807002007040040090250000065003087002015300100900905306074001009600800040000,536214897192857346748693251219465783687932415354178962925386174471529638863741529
900850020006401008350070000002007893000006001107900500000149200509000100480020076,914853627276491358358672419642517893895236741137984562763149285529768134481325976
034780906000005000700900048507004300200030000000016009005020461026400005008009037,134782956689145723752963148567894312291537684843216579975328461326471895418659237
302000000850007020001086090000050400409000086060390001904062703070500608085400010,392145867856937124741286395127658439439721586568394271914862753273519648685473912
060048500070002081950300040500704360000150802090600010210007600300000090040806003,162948537473562981958371246521784369634159872897623415219437658386215794745896123
001003902805070010400100070016090500000780629080050740039204000067000000200900305,671843952825679413493125876716492538354781629982356741539264187167538294248917365
000016082002800000006000743003402000040950120098070000060000050509207004001300896,435716982972834561816529743153482679647953128298671435364198257589267314721345896
080100470009002006000000300036000008701503009050416200210700000670090500003045020,382169475549372816167854392436927158721583649958416237215738964674291583893645721
000000002593020000070901308040036901605090080300080040700540016008007005001002700,186473592593628174274951368847236951615794283329185647732549816968317425451862739
032700600060004001000900700570001020003050087016000309004209810000560004890043200,432715698769824531185936742578391426943652187216487359654279813321568974897143265
004900700501000039030040050980002000045800076600170090350007002002009000008050014,864935721571628439239741658987562143145893276623174895356417982412389567798256314
030001900500000601076002043928060000000000705010493008049127080000000030600089027,834671952592834671176952843928765314463218795715493268349127586287546139651389427
060029801090708063001000040905030000080007005402050710000094070307001006200600408,763429851594718263821563947975132684186947325432856719658394172347281596219675438
600070804000003071005100200024900600080506010350801900001002030009600008472009050,613275894298463571745198263124937685987546312356821947861752439539614728472389156
004000850000059706100780004820500030039016000000002000901040008008007029650300107,794621853283459716165783294826574931539816472417932685971245368348167529652398147
000894700020007081040000500800003000057680109094070038602050000019000306003060927,135894762926537481748216593861943275357682149294175638672359814419728356583461927
050002706921000050006080000062000037530906400400070020070093008008740060000100503,853412796921637854746589312162854937537926481489371625675293148318745269294168573
000900407010326005580010020078069003900002001046500280060070934700080000025001060,632958417417326895589714326278169543953842671146537289861275934794683152325491768
040603000021790506300058740002005980000300601700010050410060009009800300600200007,547623198821794536396158742162475983954382671738916254413567829279841365685239417
000000803179083002020500010500010230030009067007406900060040058083900000401027006,645192873179683542328574619596718234834259167217436985962341758783965421451827396
249700800000500004360100700400297060608010002000004371750962000001800056030000000,249736815187529634365148729413297568678315942592684371754962183921873456836451297
007820940000906300300050006100430590070015034040000002790000100005640080016007025,657823941421976358389154276162438597978215634543769812794582163235641789816397425
500000040100390602040002183002700000007050814806000009705640001980000530000030070,523861947178394652649572183412789365397256814856413729735648291984127536261935478
651300400400100903070080650000009100000240008903000007240071500700900006006850020,651397482482165973379482651824739165517246398963518247248671539735924816196853724
200800100900043600853006070021050000006080392000760040000900004040030215005100037,264897153917543628853216479421359786576481392398762541132975864749638215685124937
100030007027090004534020900000700400090600028080000361001004870900250603600900050,169435287827196534534827916316782495495613728782549361251364879978251643643978152
000024000200609103617080002090003080751000006080500490004701200503090600000400875,935124768248679153617385942496213587751948326382567491864751239573892614129436875
300809010806400500002056000090001030740002006200300708000008270007000905605100043,354829617876413529912756384598671432743982156261345798439568271187234965625197843
840030020000000510502090703000067002093804007065000140106002030008701009004050800,847135926639278514512496783481567392293814657765329148176982435358741269924653871
090307004068050010230000607000190005070040301805002060300806700100420000400070098,591367824768254913234981657643198275972645381815732469359816742187429536426573198
000410508098000000750200031371050029500000060420980703000079010802306070030000400,263417598198563247754298631371654829589732164426981753645879312812346975937125486
098200006600400128000070000000091050001005287073600040026034700305020009010500400,498213576637459128152876394284791653961345287573682941826934715345127869719568432
007000096602010800100504073040000900000425010280006005003000507069270080020108030,457832196632917854198564273345781962976425318281396745813649527569273481724158639
459008106000506000000030029027040000000600308300700005145020090900003807083061000,459278136231596784678134529827345961594612378316789245145827693962453817783961452
800405009500700400310080702730000000400609320000300106008001097902064510000200800,827415639569723481314986752736152948481679325295348176648531297972864513153297864
003057069040081200000000004027910030800500400050600078680704190000006503100000000,213457869946381257578269314427918635869573421351642978685734192794126583132895746
600408020325090800400070010207600000009500043004001705000010607903002000080350100,671438529325196874498275316257643981169587243834921765542819637913762458786354192
076501098300600204010008000420007000007020569009800002503190080840006003000300056,276541398358679214914238675425967831187423569639815742563192487841756923792384156
090240100541000000602000709030000908007080000804075060008107200100059430000604050,793246185541798623682513749235461978967382514814975362458137296126859437379624851
014007390079043508200000000001500809430000060002106000900050476000608120050070000,514867392679243518283915647761524839435789261892136754928351476347698125156472983
037096000140000005000002708000050106020001093900870040570120009008300001304080600,837596214142738965659412738483259176725641893961873542576124389298367451314985627
000708030000053628009000500034000007160300850000201004802560900700094010046000000,625718439471953628389426571234685197167349852598271364812567943753894216946132785
204030900000007020000860010053700200089004007010050086007640009106000840008109603,274531968861497325935862714453786291689214537712953486327648159196375842548129673
067000450000100032050080000904300170080450000530002090009506081002030006000847300,167293458498175632253684917924368175781459263536712894349526781872931546615847329
260300008003086140000740065905001007010090536320008000791000000000450090008000023,264315978573986142189742365945631287817294536326578419791823654632457891458169723
068120040003007600000504003795040300000009265010300700687030001029081570000200009,568123947143897652972564183795642318834719265216358794687935421329481576451276839
100020070000300480035100960700500000490702608080046000209607010048050000670490300,164829573927365481835174962716583249493712658582946137259637814348251796671498325
003800700700040005005200409006090040000504801109000063001008600300027100802106070,493815726728649315615273489586391247237564891149782563971458632364927158852136974
000009380063004500510000007430500701070800002900300040000020058600900000204068190,742159386863274519519683427438592761175846932926317845397421658681935274254768193
350000000000610370020000408008024009609530240040100005205043001400007980870000000,357482196984615372126379458538724619619538247742196835295843761461257983873961524
390000010405000002700008460002005300040023980900670001059081003160030807000002005,396247518485916732721358469612895374547123986938674251259781643164539827873462195
070803000010600392090420060060010009200057400000300080500000021041062870703009050,672893145814675392395421768467218539238957416159346287586734921941562873723189654
000004912080060000700530460037450000020009530160000700290800070301000084500610200,653784912482961357719532468937456821824179536165328749296843175371295684548617293
000075206700200004031006580008100000360020790500093040025010870093850000040600009,489375216756281934231946587978164325364528791512793648625419873193857462847632159
500090600100063820020007004040006000891030000203410580007002000000300495419008730,538294671174563829926187354745826913891735246263419587357942168682371495419658732
153000090000001080800639400000004700542017009008050003014003506006070000700090210,153748692469521387827639451391864725542317869678952143914283576286175934735496218
480030701035600920000007068900120506000045000001390000040000209050802470013000080,486239751735681924192457368974128536368745192521396847847563219659812473213974685
405060308010003062703090000070038040009200600204076015580000070601004003000020900,425167398918453762763892154176538249859241637234976815582319476691784523347625981
098700056500080023003010004060800002005002097100006040640001530207090000030504009,498723156516489723723615984964857312385142697172936845649271538257398461831564279
906000027003000180070450600000291000002000800140360590084007903005630040200100006,956813427423976185871452639568291374392745861147368592684527913715639248239184756
050062001009800030001407082120500800070039065060070004000000006390005048007610920,758362491249851637631497582123546879874139265965278314412983756396725148587614923
000200000281097053706410000003080607000001098094050000050009360020060019400170020,945238176281697453736415982513982647672341598894756231157829364328564719469173825
000006000806520097003400002072050080000840105400907030731080650520060403090100000,257396841846521397913478562172653984369842175485917236731284659528769413694135728
