000006005305078000090000180830054079600102003040030008900001360200490000087005020,428916735315278496796543182831654279679182543542739618954821367263497851187365924
003098041094600700200307500029700050000002806080035019061000000000564000078109403,753298641894651732216347598129786354345912876687435219461873925932564187578129463
000000025902000360050048701004007002087600500309010070270065900800300614000009000,718936425942751368653248791564897132187623549329514876271465983895372614436189257
034702010000400798050600200007900000106040007080001002410060030090058000003000506,934782615261435798758619243547926381126843957389571462415267839692358174873194526
624010030080029000970008000000085079100000046007040305000050020240030087030670100,624517938385429761971368452463185279152793846897246315719854623246931587538672194
008009607000083500012400300000000180039051004400070002907038010825600009060204000,358129647694783521712465398576942183239851764481376952947538216825617439163294875
450900370080030400600002001900710000003008050720060009000450106090071028506000030,451986372289137465637542981968715243143298657725364819872453196394671528516829734
000080230000970861060500097800010004650200003107054600500068002020300700401009050,719486235345972861268531497892613574654297183137854629573168942926345718481729356
020040069001007080000360500005200004700610008369870001000001703074090020980000005,527148369631957482498362517815239674742615938369874251256481793174593826983726145
204001005017080900080004036003000008070000260920516040340600709001700003000090082,234961875617385924589274136163427598475839261928516347342658719891742653756193482
100000500003000071070019208040705000060008002008200036400000900051420060086050310,124876593893542671675319248342765189769138452518294736437681925951423867286957314
000050620400073009910000780004009065608042090030005201000060408073200500000308000,387951624462873159915426783124739865658142397739685241291567438873294516546318972
300020500097080000004001002000107300050060928400050760002075600180900005600300480,318629547297584136564731892826197354751463928439258761942875613183946275675312489
015030089800260010070900020000700860009301405400050001000076053062000000001804700,215437689894265317376918524153749862629381475487652931948176253762593148531824796
000200096001074530083510004700000000100807200054160300000048002095320860200950010,547283196921674538683519724732495681169837245854162379316748952495321867278956413
002000005090018040146700900018403090079000360600207800000620703024500080500039001,832946175795318246146752938218463597479185362653297814981624753324571689567839421
400600005000001040026309007040076080095004003007830020200087190080090306150000200,471628935938751642526349817342976581895214763617835429263587194784192356159463278
010648507090500002040290380070800906800076000003050400285004010007020030900001060,312648597798513642546297381471832956859476123623159478285364719167925834934781265
000010020728040010004300500600439001200006000509801300050098064400050700071000930,935617428728945613164382597687439251213576849549821376352798164496153782871264935
700360000080002501400100260020070609008409102100000083091250048030600900005087000,712365894986742531453198267324871659568439172179526483691253748837614925245987316
602000003500010070080005600204590800010004900370020056400970002008600100001803004,642789513593416278187235649264597831815364927379128456456971382738642195921853764
203050014040230000019008007800065000600497081370000005000970028450100090000023000,263759814748231659519648237891365472625497381374812965136974528452186793987523146
643007800000906000075081002200000009497200050506304010008000060100002740000759008,643527891812936574975481632231675489497218356586394217728143965159862743364759128
050280060900007081024009000090100700400000326370046005030590007001028030780000450,157283964963457281824619573695132748418975326372846195236594817541728639789361452
000640210410208000023019008040000300907001605032067090300806004800530007065000900,758643219419258736623719458146985372987321645532467891371896524894532167265174983
008730290069004000005060100500000007307690850604200310040320001003079000100500980,418735296269814735735962148591483627327691854684257319946328571853179462172546983
080940005050007200014200680002300079140005836708060100090004020005001703600030000,287946315356187294914253687562318479149725836738469152893674521425891763671532948
200007054003010062008300090000009080800270406020650003709031000050086000104905007,216897354973514862548362791637149285895273416421658973769431528352786149184925637
004028709030500800207000060040003290008601300051070004000406150013780000600009038,564328719139567842287194563746853291928641375351972684892436157413785926675219438
900200073500004680076005009408100006630900204000007000702016950005400300001080020,984261573513794682276835149458123796637958214129647835742316958895472361361589427
180069050794050013020000040000380064470000500000701829500008372200900000031007000,183469257794852613625173948912385764478296531356741829549618372267934185831527496
310600400002000009600250718000009630706304900008005070090010500000080143074000006,317698452582741369649253718421879635756324981938165274893416527265987143174532896
600000503280400001010598002062300700000060059304001820000075400807002060400810090,649127583285436971713598642562389714178264359394751826921675438837942165456813297
360000087108050000090460200003000009000710460870240010200935006009800000005600043,364192587128357694597468231413586729952713468876249315241935876639874152785621943
200097840608102005043050100024008600100560087000900354070600003000010902901070000,215397846698142735743856129524738691139564287867921354472689513386415972951273468
903000005740230000010004090007002410801070062200508070400360107032800056000900000,923186745745239681618754293357692418891473562264518379489365127132847956576921834
800000010073004209010065400200030000754012080000500970090650301028003067500070004,845329716673184259912765438269837145754912683381546972497658321128493567536271894
300450906978000200004000030000841600006307009210500000507062308800030140002000700,321458976978613254654279831795841623486327519213596487547162398869735142132984765
013460072900000810507208000408600093070003000060951007200000300600580009090004028,813469572926375814547218936458627193179843265362951487284796351631582749795134628
002050000030201650900080017705496003410000008000300000608900041040807090070060502,162759834837241659954683217785496123413572968296318475628935741541827396379164582
200800000140007003500169700003900600870004925000000104020670480090530206001000050,267843591149257863538169742413925678876314925952786134325671489794538216681492357
000000040092037108800504009000060870503002000064001200970300021000005600056710034,635189742492637158817524369129463875583972416764851293978346521341295687256718934
300210050005600014680904003040005706000820000090007320000040060210730008057100900,374218659925673814681954273142395786763821495598467321839542167216739548457186932
400030000000007190509028604002906075057000360001000809030040000000063780820001040,418639257263457198579128634382916475957284361641375829735842916194563782826791543
360005900024908310000040000002800100790001050800630042100004070007200860009076005,368715924524968317971342586642857193793421658815639742136584279457293861289176435
800300090096080030200096041500000100410260078003047000008524009060003507102000000,841352796796481235235796841527938164419265378683147952378524619964813527152679483
058300002009080050006401800002130760400000900061904005020800003005200017700060040,158396472349782156276451839592138764437625981861974325624817593985243617713569248
040806050600120000090070230705000310026000008410700002800439700200600400000018900,342896157657123849198574236785962314926341578413785692861439725239657481574218963
980004006000105080007003900005907308090500001432000750800020640053060070040000103,981274536364195287527683914615947328798532461432816759879321645153469872246758193
040758900006340800070010002001079263000061080800200040037500000090080004200603150,342758916916342875578916432451879263723461589869235741137524698695187324284693157
086007010500900200000010084000000600400160508902003040005400130203500070070082009,386247915514938267729615384158724693437169528962853741895476132243591876671382459
600800000708120050020093071400002010051400002830006900200300005007059460000040109,613875294798124356524693871476932518951487632832516947249361785187259463365748129
670090843820007009001005000530009007000050461004628000042000910000082000908010500,675291843823467159491835726536149287289753461714628395342576918157982634968314572
430020000005000602001803000000176800608005070010400900020904085380500109070010360,437629518895741632261853497952176843648395271713482956126934785384567129579218364
009006031200800009746003000103570902800000400090300056000098010004200000020700365,589426731231857649746913528163574982852169473497382156375698214614235897928741365
460000230038000700100950008000018000040306021500007806790030050050070603001600940,465781239938462715172953468629518374847396521513247896796834152254179683381625947
200008107009003804004020090950760030000300000071042068400800001020509300160070005,236498157719653824584127693958761432642385719371942568495836271827519346163274985
680000002000300070090412030000850003000076910920000600751080004400007001032900005,683795142214368579597412836176859423345276918928134657751683294469527381832941765
008006040000200500003000781090400036400850000021003009600375204170040090005010600,758136942914287563263594781597421836436859127821763459689375214172648395345912678
960000100800300020070460900420503070000109080080700400500002093792600050100005004,963258147814397526275461938421583679657149382389726415546812793792634851138975264
041000006500102970280004000000095001006200703398600000010000600409070128070030050,941753286563182974287964315724395861156248793398617542815429637439576128672831459
000006478307001506020000000700069010080050040490720300100840639830090200500000700,915236478347981526628574193753469812286153947491728365172845639834697251569312784
090000740085000261100000000954002100270603800030140000003054009620080005000910370,392561748485739261167428593954872136271693854836145927713254689629387415548916372
006500093700016040005700800070340600030001054902008001800000900010205060207460030,186524793793816542425793816571342689638971254942658371864137925319285467257469138
921003004000250010680004070100090028000560300054802006008000065069070000403000901,921783654347256819685914273136497528892561347754832196218349765569178432473625981
800007019010000200400805007021370000009004701050920060000490050035106400206050098,863247519517639284492815637621378945389564721754921863178492356935186472246753198
201000098060001700005340020009060000780520010530087000012600500408930001000005004,241756398863291745975348126129463857786529413534187962312674589458932671697815234
701050080069307000040010039500600000300248900402900103600084507000002018070090006,731459682869327451245816739597631824316248975482975163623184597954762318178593246
000780200350000978090003640680002000045060007071904000029010500104005030000020006,416789253352641978897253641683572419945168327271934865729316584164895732538427196
720580090000200187009130600004600050032850709000070030003000801806420000190000042,721586394365249187489137625974613258632854719518972436243795861856421973197368542
000900200000073090840012300007040809030560004012080750005004062700100000603095010,376958241251473698849612375567241839938567124412389756185734962794126583623895417
070030012031409007809020060500007000600003829108040700360090000004150003002008056,476835912231469587859721364523987641647513829198642735365294178784156293912378456
680430095052000408037000000000000002063078500094106070700200604040500080000609310,681432795952761438437895126178354962263978541594126873719283654346517289825649317
000630710900002004000980005006805003038026090410000020609107002504003080020560007,852634719961752834347981265296815473738426591415379628689147352574293186123568947
000710089803002500005630001004090000300400005200800760100079620060080107009200450,426715389813942576975638241654197832387426915291853764148579623562384197739261458
500102308008000026010069000000201043006005017074003080900300070723008005000054000,567142398498537126312869754859271643236485917174693582945326871723918465681754239
000050086408092001000060207009600008001030050250009740100000300704510002602408900,927351486468792531513864297379645128841237659256189743185926374794513862632478915
502980000010043000946001080170060800000007200060109050054300701000000940709200503,532986174817543692946721385175462839493857216268139457654398721321675948789214563
008006090700030200000500314020010000403009600810640053100207008004001075090405030,348126597751934286962578314526713849473859621819642753135297468284361975697485132
050106002800300570070000946610094000503701000007000084082500090000028605000407300,459176832826349571371852946618294753543781269297635184182563497734928615965417328
002000105000075490408901300503602000070080002100497800209300040040100580000000036,792834165631275498458961327583612974974583612126497853269358741347126589815749236
030490801840000700095670000700000602008051003004009080006020048009030520000805010,637492851842513769195678234751384692968251473324769185516927348489136527273845916
090205003508090260010070040004150007200600008030700604900060712600040009085001030,496215873578493261312876945864159327257634198139782654943568712621347589785921436
600003009500160008074500030005000071047802060306040805000010597008600300020090004,612483759539167248874529136285936471147852963396741825463218597958674312721395684
000305000001074600598206700010002060600000900872500003060000820030080149907001000,746395281321874695598216734419732568653148972872569413164953827235687149987421356
069007000000090015705048002000503629000270031800000000107000000600009340030426050,269157483384692715715348962471583629596274831823961574147835296652719348938426157
400702091307600800009150000236010540000000069000080007090300014150009206700040080,485732691317694852629158473236917548578423169941586327892365714154879236763241985
000064010500000000903500608200100740087005900006340002300809504650032009010000270,728964315561283497943571628235198746487625931196347852372819564654732189819456273
005080420860002903094001000050610040307400002000800007010070056000009810628000709,735986421861542973294731685952617348387495162146823597419378256573269814628154739
203067900090025006070300000900804102050013400040090068006030740104000020080200053,213467985498125376675389214967854132852613497341792568526938741134576829789241653
704003008100890030580000060070310250000075600401900000006004080320100700000052019,794563128162897435583241967679318254238475691451926873916734582325189746847652319
000070000530820400906000012008030001710060005000004960087390000604000203200500107,842671539531829476976453812468935721719268345325714968187392654654187293293546187
076100500080046020450930100000001806000094712200000000004370000001028074360000009,976182543183546927452937168749251836635894712218763495824379651591628374367415289
050908001600003270004000900000090020085001004900307006026100730007420109008005060,253978641619543278874612953361894527785261394942357816426189735537426189198735462
004700300100090428908000605045002010617000009800063000000530000060800107002004500,254786391176395428938241675345972816617458239829163754481537962563829147792614583
126304000050092000003076080000730100800000005070051006502000407600040010901800302,126384579758192643493576281265738194814629735379451826582913467637245918941867352
000400005103002800840000970510009200308700410020608000056030790000200584900071000,692487135173952846845163972517349268368725419429618357256834791731296584984571623
540000100100600708006001042070009310000020806053040090700000000038095000291830470,547283169129654738386971542872569314914327856653148297765412983438795621291836475
300007500850019004002000003009870000100200690408030107630080040010000860007045021,391427586856319274742568913569871432173254698428936157635182749214793865987645321
017800000300006240002050006408060051030009670090015002900020300080794000175000400,617842593359176248842953716428367951531289674796415832964521387283794165175638429
