000350002500017960060000800750403100020080090004020508080109000201004600090078430,819356742542817963367942815758493126126785394934621578483169257271534689695278431
300007580020080030019500000004001907007600020080053400000060090500204063060100705,346917582725486139819532674634821957157649328982753416478365291591274863263198745
000087050300100002070205409046009100800020035000710204400090807080063000590002600,124987356359146782678235419246359178817624935935718264463591827782463591591872643
000270040809003700042000860008000150170026000300590007900010005403005691006002400,631278549859463712742159863298347156175826934364591287987614325423785691516932478
053007102080000765000091000038400009702050004006312000005049020020760000090800347,453687192189234765267591483538476219712958634946312578375149826824763951691825347
003009070800306091000420600000090200241080300307500006624001080100008904070050060,463819572852376491719425638586193247241687359397542816624931785135768924978254163
050000401300490208270010000100304506000020800000706039089200000760045000420801060,958632471316497258274518693197384526635129847842756139589263714761945382423871965
050086190000000603013097005900000080006200304037005016000002060700004008504130070,452386197879521643613497825945613782186279354237845916398752461721964538564138279
000050400701203000956071008800000200070905001003004076084000002090702083600390104,238659417741283569956471328869137245472965831513824976384516792195742683627398154
600423905000000210090507806500009004280700001000201608173906000006004030059080000,618423975745698213392517846561839724284765391937241658173956482826174539459382167
035000064410007205802000700900814030170025000504060900000386070090042600000000010,735298164419637285862451793926814537173925846584763921251386479397142658648579312
400008209001000378060072010080510004005000083100406020209000750500090006000307040,457138269921645378368972415782513694645729183193486527239864751574291836816357942
010004700400030006908700104507006029009053000020080410000000850001802063036009200,315694782472138596968725134587416329149253678623987415294361857751842963836579241
098001300460002070007060005004025008300010640001940027035000010700058000209700806,598471362463582971127369485974625138352817649681943527835296714746158293219734856
040030000080000051506127009697000020200063085008010070903500008000902004470000600,149835267782694351536127849697458123214763985358219476923546718861972534475381692
100053046000210709008007000600000001009080350250704000090340510016800090700092003,127953846564218739938467125683529471479681352251734968892346517316875294745192683
001600409003908000405030700080305600050190070072000100000400300000506008906080012,821657439763948251495231786189375624654192873372864195518429367237516948946783512
009570003003809200017000065084000000060003081031020459070405090050700600002010008,629571843543869217817234965984157326265943781731628459376485192158792634492316578
007300090001702800625000400800006250006007004240098071000901308302004506050020000,487365192931742865625189437879416253516237984243598671764951328392874516158623749
080900704309085102005070000021700093000020040607503001000049000530000089100302006,286931754379485162415276938821764593953128647647593821762849315534617289198352476
000460900041090803020008050270010000580009300009803700000300601350000090608027400,835461927741592863926738154273614589584279316169853742492385671357146298618927435
018000250000007038050003400007030006006429005023608190042006080000095040600000709,318964257264157938759283461497531826186429375523678194942716583871395642635842719
000004020035901740700000006900030000050400810000600375620780051001300902894500000,169874523235961748748253196987135264356427819412698375623789451571346982894512637
000089073090000152000160800700001400268030000400290000020008509010605038300074060,142589673896743152573162894739851426268437915451296387627318549914625738385974261
130900040025104600000230008800000397000860000417000200060300029700050001049010860,138976542925184673674235918856421397293867154417593286561348729782659431349712865
050040860309607240020310050837900005090105000004080000008400000060023010000571009,751249863389657241426318957837964125692135478514782396178496532965823714243571689
304006705001500869080002000850403002027009043000010900700000090040025010630700500,394186725271534869586972431859463172127859643463217958715348296948625317632791584
800570010006408000005010302500029400163050000000000750078100040924803070000007960,839572614216438597745916382587629431163754829492381756678195243924863175351247968
001903240009780050006004017050092006308450002000807500407100800900000060120040300,571963248249781653836524917754392186318456792692817534467139825983275461125648379
050006230300009500007008010038040000065100302920005004000020900690000001012700486,159476238386219547247538619738942165465187392921365874874621953693854721512793486
000600040703000600910054080050007400200130070080092301000089000002500109060370028,528613947743928615916754283351867492294135876687492351135289764872546139469371528
050000007800300120106904000205408700670190830000056010003000460000800002090017350,359281647847365129126974583215438796674192835938756214783529461561843972492617358
086107250014000390300000007052049603000050070000306100090800540200065000037400008,986137254714528396325694817152749683863251479479386125691873542248965731537412968
010690000050000690030700002970234580000087900003500010400000030006901025007002804,214695378758423691639718452971234586562187943843569217425876139386941725197352864
030080091004210706005009040060000018500930000207065004070390000001057082800006000,736584291984213756125679843369742518548931627217865934472398165691457382853126479
500003018400670020002004907060710000308050090090008052000037000827000106010060004,576923418489671325132584967265719843348256791791348652654137289827495136913862574
304080009200004750056000001700100836080740020100200000010672500029003080630050400,374581269291364758856927341742195836983746125165238974418672593529413687637859412
700040002903082650004000071070000000050020068408017020060000415200008906135009080,786541392913782654524396871672835149351924768498617523869273415247158936135469287
009000001003980740600054003000000400081070635400120908050890000906005100074306020,749632851523981746618754293397568412281479635465123978152897364936245187874316529
106040035080009607074025010020000050001307028048060900000402301000010000600093700,196748235285139647374625819723984156961357428548261973859472361437816592612593784
960700013070030620030605000004090000010408070005003081600500900180020040200970008,968742513571839624432615897824197356316458279795263481647581932189326745253974168
600000345009002170004501002728090060000007084900360010001020030507800009000403800,612789345359642178874531692728194563163257984945368217481925736537816429296473851
603000702002640301500010000009750600000004180070208003056803000708000400090005870,613589742982647351547312968839751624265934187174268593456873219728196435391425876
800004000027008109900000005040701002003560900010009300070200000435010070008403050,851394726327658149964127835649731582783562914512849367176285493435916278298473651
040001070609050100070040025005810003900700608230009000820900340090036000001402700,542391876689257134173648925765814293914723658238569417826975341497136582351482769
050890010039604000020530060680000042004002980000070506001005308097000004800013027,456897213139624875728531469683159742574362981912478536261745398397286154845913627
670850000903001000500960040000090720180200690002340580005002300400087016007600000,671854932943721865528963147356198724184275693792346581865412379439587216217639458
050740096030108000207003005003020480500006023000090051009601040001000007070430102,158742396936158274247963815613527489594816723782394651329671548461285937875439162
100790800040001050928000600070000205006279430000604000002903070700016008814000090,165792843347861952928345617479138265586279431231654789652983174793416528814527396
500003001002701000074020039800400070013807045000102603405096200607000008900000504,568943721392781456174625839856439172213867945749152683485396217627514398931278564
700040000025000970069000038004806001001500020980103006010007269800235400007600300,738941652125368974469752138354826791671594823982173546513487269896235417247619385
130005200572000096000400010003070000006201800950840007800090035060002001410650000,134965278572318496698427513283579164746231859951846327827194635365782941419653782
970060041400050070000840900008000594001002360760090000200630050003900708040501200,975263841482159673136847925328716594591482367764395182217638459653924718849571236
030067900940003005000000021057600010400000602806019570600200830280000004501048000,132567948948123765765894321357682419419735682826419573694251837283976154571348296
800006450000350010006700039304507600001080970000200500790030004043960002608001000,839126457472359816516748239384597621251684973967213548795832164143965782628471395
160053040003270006000001000000805062032009084050060709040000007300128090985030000,167953248893274156524681973719845362632719584458362719241596837376128495985437621
200008000007590003040637900900001705300200064068040200016000509750080040032005100,293418657687592413145637928924861735371259864568743291816324579759186342432975186
097002160140300800200401090080600049009000010010507200423080050006005083000000706,397852164145369872268471395782613549539248617614597238423786951976125483851934726
060590247040218090000000300850601000310070602090040780070036800500000070200900003,168593247743218596925764318857621934314879652692345781479136825536482179281957463
000028304082009071470010500040530780000097060037060002016040030000300205850000000,165728394382459671479613528641532789528197463937864152216945837794386215853271946
000078620040020109069000000008300095092410003400005007600540700053200000920031080,315978624847623159269154378178362495592417863436895217681549732753286941924731586
709300081000750060020400590280000054000060100301000209970502000006080003800070040,759326481148759362623418597287193654495267138361845279974532816516984723832671945
000001000040600050095040026206030090870000135059008040400002010032507008000960003,623751984748629351195843726216435897874296135359178642467382519932517468581964273
590302470700408000004150002100200750840500030000089006026001097070000803301000600,598362471712498365634157982169243758847516239253789146426831597975624813381975624
800047190003000000004091005200100840590000607061000503700008000020953704005072060,852347196913526478674891235237165849598234617461789523749618352126953784385472961
004200130080970002065013400000000800006049005070000061000350097003086014500002006,794265138381974652265813479159627843836149725472538961648351297923786514517492386
079006030502001408000052109480000002027045600651000080306700000000698007040010900,179486235532971468864352179483167592927845613651239784396724851215698347748513926
020670103098402000003095000300020060000704059001500800280006005704900002016080034,425678193198432576673195248357829461862714359941563827289346715734951682516287934
002064170701800045000000208007508300053040012060000709039700086004200000010036000,582964173791823645346175298127598364953647812468312759239751486674289531815436927
030000640040920000200070100005038907608107005000000080860000010100693700003401590,937815642541926873286374159415238967698147235372569481869752314154693728723481596
625030400000109000701205080300900004058070100040003605032600000807090210900080067,625738491483169752791245386376951824258476139149823675532617948867594213914382567
007190000900003156600080040760400003305000209082070005000058630030210000090004782,457196328928743156613582947769425813345861279182379465274958631836217594591634782
054006009602000107108230000300021008007080064000700520000504010000378900506100400,754816239632459187198237645345621798217985364869743521973564812421378956586192473
102000005003002940000935060015090000709004800000706401300040708001020030580071600,192467385653182947847935162415893276769214853238756491326549718971628534584371629
060000409001089002400500073029047600003100007000926005100075034050001000002030801,265713489731489562498562173529347618643158297817926345186275934354891726972634851
002405071009200000700000306580006004003041090090000080000027500000100003640309800,832465971169273458754918326581796234273841695496532187318627549925184763647359812
000078360080930072100004050000760200700500008009201430093402000804010906071000000,925178364486935172137624859348769215712543698569281437693452781854317926271896543
600000010005009780204051063020086300901005070003090504080030250400700000739000800,698273415315649782274851963527486391941325678863197524186934257452768139739512846
004006000800930600020170300060002000900000528058400007307869240000000030090025070,134256789875934612629178354761582493943617528258493167317869245582741936496325871
920760000307010080006804000400050306002096810060037020000382057079000130000001004,928763541347519682156824793491258376732496815865137429614382957279645138583971264
089030000000102009560007028004060700710093050003010602000406005432050906070000081,289635147347182569561947328924568713716293854853714692198476235432851976675329481
070024908600530004000076100030000009500600080906041000003000050051800207062709410,375124968619538724248976135137285649524697381986341572793412856451863297862759413
820070430000000000070102680400631500700508900230490000010004009040300076098056210,826975431154863792973142685489631527761528943235497168617284359542319876398756214
270930005000100860100584020000068000420000008063490750000075910034000270009002000,278936145345127869196584327957268431421753698863491752682375914534819276719642583
000000060940080710002034509000056200190020004508000370000310000365090020407500908,851279463943685712672134589734856291196723854528941376289317645365498127417562938
006070000070012003300908000090105204002800037460090500800040050004509708100306020,286473195975612843341958672798135264512864937463297581829741356634529718157386429
480093170702050030030008009000046005000201008609000040051400700307010020800037690,485693172792154836136728459278946315543271968619385247951462783367819524824537691
070003002200080040301960800620001009030500710800040005064007903000204000980100570,578413692296785341341962857625371489439528716817649235164857923753294168982136574
610908007000040000570302090307460900000003050408095300700500813000086004021000000,613958247289647135574312698357461982192873456468295371746529813935186724821734569
000960703537002006800001040060053109900040000700206800010730528008000000045010000,124965783537482916896371245462853179983147652751296834619734528378529461245618397
000009280000740510235000700700300900000006050123070068001008002940613000560200004,417539286689742513235861749756384921894126357123975468371458692942613875568297134
572000300003048100000020000014005060007290804090710250040600930100003005608900027,572169348963548172481327596214835769357296814896714253745682931129473685638951427
700003008000600030520080100001894670070035480009006000040000510200700040836050090,764513928198642735523987164351894672672135489489276351947328516215769843836451297
006908100000000270375060004003214500020086009650700000080030750001800403009001020,246978135918345276375162984893214567127586349654793812482639751561827493739451628
700900000006010040040000735080034900001802000630500870500073126007609504002008000,723945618856317249149286735285734961971862453634591872598473126317629584462158397
090600400003009860000050230360800000012074590549100000100520008400003070070006310,291638457753249861684751239367895124812374596549162783136527948428913675975486312
080970005600400073002000100001360900096120030070050000410008290005006008300000704,184973625659412873732685149541367982896124537273859461417538296925746318368291754
084000703002005960060041000401050000036820001007003006700009008000000402290036050,584962713172385964369741825421657389936824571857193246745219638613578492298436157
000009140007800500590700020450900600600513004000680203308000000041067000960400301,836259147127846539594731826453972618682513794719684253378195462241367985965428371
800004500503091600200070098000000020016040030408900706037006084000000905040280010,891624573573891642264375198359768421716542839428913756937156284182437965645289317
