050000070080230460610004003000043007300809000820650301100090600709000250000465009,453986172987231465612574983596143827371829546824657391145792638769318254238465719
570040180400000052000001703080700600900058200054093001728010009000082400009306000,573249186416837952892561743381724695967158234254693871728415369635982417149376528
150400708008520690007000003060085019230060004010700060070109080502000000400036000,156493728348527691927618543764385219235961874819742365673159482592874136481236957
005980000080004037400205190500007009800160200006040013702836005090000020000400300,175983462289614537463275198541327689837169254926548713712836945394751826658492371
050800364000709800021600005290070010105002600070000490008503000040060080300410700,957821364436759821821634975294376518185942637673185492718593246549267183362418759
000059407000820003001000520306070100709004000020001046104067092050030000807900004,283159467475826913691743528346275189719684235528391746134567892952438671867912354
050734006700000000400201080001025043003060209009080017095006072160040300080009000,958734126712658934436291785671925843843167259529483617395816472167542398284379561
076020580000018040000400709908500400300047200720900360009000050801006003050003120,476329581593718642182465739968532417315647298724981365239174856841256973657893124
204070000000930510900806300080000402406000070052610039070058006000407980600020001,234571698867932514915846327183795462496283175752614839379158246521467983648329751
009000072010608050524010008730460200000703410400001009000300000908040603160092500,689534172317628954524917368731469285892753416456281739245376891978145623163892547
060800500040013082070056000000179300800000015902000064084900000000060093305241070,163892547549713682278456139456179328837624915912385764684937251721568493395241876
020950307400001850910003602080010470000670090060508000007826000630000005290400001,826954317473261859915783642582319476341672598769548123157826934634197285298435761
400017092700060400800250000000406003035009006070000010008090060900008351002301800,453817692721963485896254137189476523235189746674532918318795264947628351562341879
010002400907000006040370950005000009000264080300050740274901005000800030806520100,513692478987415326642378951425783619791264583368159742274931865159846237836527194
060000008000970003701058002900200087083100400500093006070000624005010000094680050,469321578852976143731458962916245387283167495547893216178539624625714839394682751
009160080003000067020038410350400102080000005064209000040970800701005000500001304,479162583813594267625738419357486192982317645164259738246973851731845926598621374
005001003290053000000800470760200001059080240400006050008029500001600089000070610,845761923297453168316892475763245891159387246482916357678129534521634789934578612
090002065064098020003600401802000000041050309750043000070016054000700100306000008,197432865564198723283675491832961547641257389759843612978316254425789136316524978
036070000204600105805024070090000307060135004001008002400003001000002059009860200,936571428274689135815324976598246317762135894341798562427953681683412759159867243
100500940904030060020006001007004503306001004058070020000900730800762000500800012,163528947984137265725496381217684593396251874458379126642915738831762459579843612
090035010007080630504000800060570000009102507020490063840010006006000392070200000,698735214217984635534621879461573928389162547725498163842319756156847392973256481
260007905090630207100042000501006480080450006300009000000590108007023600014000030,263817945498635217175942863521376489789451326346289751632594178857123694914768532
005800200901000704004070090100560030052008001830091047020013058000002400608704000,375849216961325784284176395149567832752438961836291547427913658513682479698754123
000001708059000000000684090007030160460009370010050809500078204003260000708903000,634591728859327416271684593987432165465819372312756849596178234143265987728943651
562010000070004603400000290000409007010028005390050006800700000005830010607001304,562913478179284653483675291258469137716328945394157826831742569945836712627591384
900000005780910003035280000000031060504790800100000470609004010007050028002306000,921643785786915243435287196278431569564792831193568472659824317347159628812376954
003092000049060007150800006017200850008070401460000030006009000080003195020054080,673492518849561327152837946317246859298375461465918732536189274784623195921754683
004015020050900003000273090001300409908007000020406870082600040030008007065020010,394815726257964183816273594671382459948157632523496871782631945139548267465729318
005040302002900001907006080503000809010508004000004010000709008020030060604180950,165847392482953671937216485543671829216598734798324516351769248829435167674182953
400856900090100040670000500201905007009013600000400080000200760035090018020078304,412856973593127846678349521261985437849713652357462189984231765735694218126578394
070000020000907501300600000926008030050000409018000006007100052204706900580309700,179845623862937541345612897926478135753261489418593276697184352234756918581329764
000301608096008750500007000035402809610090430020600000002000903960804070074500200,247351698396248751581967324735412869618795432429683517852176943963824175174539286
060007008000905060470000102800092615012040090005083000004000780200000301000634509,561427938328915467479368152843792615712546893695183274934251786256879341187634529
040006780000000000210000009070940250600810003304002070905021040003780920100300065,549136782738259614216478539871943256652817493394562178985621347463785921127394865
000070100320001000090200005053004200400307060060895070500900603012080409004506007,845679132327451986196238745753164298489327561261895374578942613612783459934516827
002008004380170009014500070100000400000289035800017000600000200043850700091340600,572968314386174529914523876129635487467289135835417962658791243243856791791342658
087260000905081000020034090010000607096010830473000005030048570000600000060095420,387269154945781263621534798812953647596417832473826915239148576154672389768395421
008030014000005900567400802000019603409000001010700000052004000080300076731980020,298637514143825967567491832875219643429563781316748259652174398984352176731986425
021040800000106003090300704009008000450030076706401090080060350140920000507000002,321547869874196523695382714219678435458239176736451298982764351143925687567813942
806000700940005632320400001082740000500106400000000023401980006070000900000370045,816239754947815632325467891182743569539126487764598123451982376273654918698371245
170000000090300400602800150500719002400003809030082000700004001006175900000060520,173546298895321476642897153568719342427653819931482765759234681286175934314968527
704602005100900036000084701002000954403006100580007060009053000316200000050100008,734612895128975436965384721672831954493526187581497263849753612316248579257169348
450003080970500031000900000120678500506100970300000002230016004000090800008047010,451763289972584631863921457129678543546132978387459162235816794714395826698247315
729100000084000602000030800005093400143200008200700056800005034401607900000080107,729168543384579612516432879675893421143256798298741356867915234431627985952384167
401500703639007002000200100004020068050009010702008034086001045000000009097065000,421596783639817452578234196914723568853649217762158934286971345145382679397465821
259300006708200310100008005003000000000705060802064900000040090010900274000071538,259317486748256319136498725563829147491735862872164953387542691615983274924671538
080900000705006230012004087201030070600007002000801905009500700004013000007060541,386972154745186239912354687291635478658497312473821965169548723524713896837269541
000026500780310600006009001910730060050008430860902007300057900000400805002000040,139826574785314692426579381914735268257168439863942157348257916671493825592681743
000006300759000000008240050000600010016538700320700840060300481004892005000001020,241956378759183264638247159897624513416538792325719846962375481174892635583461927
000031587100000900070480006000590140427000005090060008030650001200003400985002700,642931587158726934379485216863597142427318695591264378734659821216873459985142763
871003450500000769006000000060280140000005097007931000003076280020040000005108036,871693452534812769296754813369287145182465397457931628913576284628349571745128936
700053092602000003015009800008407050053000006960002401040806030001200704000001020,784153692692784513315629847128467359453918276967532481249876135831295764576341928
830052000049001702000703050071520000300000274000600090000080510020309408060470003,837952641549861732612743859971524386356198274284637195493286517725319468168475923
500200930093007820100008405082530000000000000400609100370860000014070506050024090,548216937693457821127398465782531649961742358435689172379865214214973586856124793
058100600401000002009560078276000040000070590100480000000640300004891007600352010,758129634461738952329564178276915843843276591195483726912647385534891267687352419
008276490104050730060030800900600205203400000080500910000801067005092000040000300,538276491124958736769134852917683245253419678486527913392841567675392184841765329
017090300203000801080000020000405069604003050702008010020301004905604000300070005,517892346263547891489136527138425769694713258752968413826351974975684132341279685
810040060003005090625009710070000521000203009004600800980310400500007006401020070,819742365743165298625839714376984521158273649294651837987316452532497186461528973
900765030500009000000080001000001803010040670703820009032000500009400086640018700,921765438584139267367284951496571823218943675753826149832697514179452386645318792
400005009000620051100840760060030500920410300008502007009700004001000208603080090,436175829897623451152849763764938512925417386318562947289751634541396278673284195
080060005350000012004500070026490000079016830400070000048600020003001009090028401,982167345357984612614532978826493157579216834431875296148659723263741589795328461
000000340019207680405000000081400960000071000640005002896010500730800406000302700,278596341319247685465138279581423967923671854647985132896714523732859416154362798
602801050100400209049700003860100000900030070051002400000007396200045180078600000,632891754187453269549726813863174925924538671751962438415287396296345187378619542
000020970086000140000805030900310000075000020041062807092000000007090456504103200,453621978286739145719845632928317564675984321341562897892456713137298456564173289
008000760470006039520000000090083010100027004803000002004512090700030800610000450,938241765471856239526379148297483516165927384843165972384512697759634821612798453
900012573030048002600000490700000050025039800103064000090007031001280009004003600,948612573537948162612375498769821354425739816183564927896457231351286749274193685
703060900000075024026108000600050401087040306030700090001900087000001003048020000,753462918819375624426198735692853471187249356534716892261934587975681243348527169
500020430060300000102050006005000970270030084610708000040000500000940120800016709,598621437467389215132457896385264971279135684614798352941872563756943128823516749
900000186000408090051260000000504031637020005040080920006000704070350009002100000,924735186763418592851269473289574631637921845145683927316892754478356219592147368
030061000020000090408230007000006800783500010905010004170304050000080009090005670,539761482627458391418239567241976835783542916965813724176394258352687149894125673
050920070008506009230070004100830007300009100000004650006001048090000320470205000,654923871718546239239178564165832497347659182982714653526391748891467325473285916
080006400701030002602701800960200078800065100034090000000503900450000030000140520,583926417791438652642751893965214378827365149134897265216573984459682731378149526
004060001053000080010720495500002004001080609200946010000209300600300007078010050,924865731753491286816723495569132874431587629287946513145279368692358147378614952
063004500407000029002600301800010053009706800010903000090120005500008007700040280,163294578457831629982675341876412953349756812215983764698127435524368197731549286
802000470000900000075608100008067003034050000001030502200304080600120730100000095,892513476416972358375648129528467913934251867761839542257394681689125734143786295
800021030004730100200604700060009000000800095050400206009000007032160480100980600,876521934594738162213694758367259841421876395958413276689342517732165489145987623
005030046008200500170490000400067002802040037600300051009020070010900003063000980,925831746348276519176495328431567892852149637697382451589623174714958263263714985
807690400500080001020501000300006907082710045001003800095100000000237006030040020,817692453569384271423571689354826917682719345971453862295168734148237596736945128
003540600070830000145067020000000041084005709906020800700000010090200503030080406,823541697679832154145967328357698241284315769916724835768453912491276583532189476
310048700700005900000206401040007102070400000569030004250090300000801060090000508,316948725724315986985276431843567192172489653569132874258694317437851269691723548
087300050304002009610004002000000000408670900920500360000967010100820004005013080,287396451354182679619754832576239148438671925921548367842967513163825794795413286
503704001006208050000000900005043008900800500074001300002605094600007210417000060,523794681196238457748156932265943178931872546874561329382615794659487213417329865
000036500031058070000200004872940010400000090095801003700000300054020760086010042,247136589931458276568297134872943615413562897695871423729684351154329768386715942
007208390000050270500043608309000700601005029048090060930070800020360050010400000,467218395183956274592743618359624781671835429248197563936571842824369157715482936
506104209000093060010000000000276005700040103982000600250000000071920030304010080,536184279827593461419762358143276895765849123982351647258437916671928534394615782
090706804043092016000000020020010000506804000710600030002905300170080400309070500,291736854843592716657148923928317645536824197714659238482965371175283469369471582
000002507706900020010000038090050300045208006271304000500700100003640000120005094,839412567756983421412576938698157342345298716271364859564729183983641275127835694
023008900760902140008001006009000501807060400040050683002017009904300000000005720,123648957765932148498571236639284571857163492241759683582417369974326815316895724
041200006300090020002608053009107000050000637600050104086042705070080000000900208,841235976365794821792618453439167582158429637627853194986342715274581369513976248
000030000508002107670000290001065940030804000050910076000406080210009005004057300,129738654548692137673541298781265943936874512452913876395426781217389465864157329
109082005073140000000000067000000300004690708007405290815020003902000500000801040,169782435573146829428539167691278354254693718387415296815924673942367581736851942
290600538058009407040000001007000900000800020010734000070010045604005080120003000,291647538358129467746358291487562913563891724912734856879216345634975182125483679
008000103030204000905006802047802000090040205100053600054000037200790008010000500,428579163631284759975316842547862391396147285182953674854621937263795418719438526
000000030500801000090542001006080074400367002950000800168090050030020900240706310,812679435574831629693542781326985174481367592957214863168493257735128946249756318
000042050400371060031009002007290046380004201090800000800030015060400080050060300,978642153425371968631589472517293846386754291294816537842937615163425789759168324
090400000600900054003067800750012408401050703000008560009200000578006002100030070,895421637617983254243567819756312498481659723932748561369274185578196342124835976
090010420003007000005390800070200064032609005100050000700000010086025307000048590,897516423213487659645392871578231964432679185169854732754963218986125347321748596
300000007060904020509700300001402750900100640070005800006510000020080934700003001,312856497867934125549721386681492753953178642274365819436519278125687934798243561
270050090000628500010000038009480006000005000034901700086300450700090100350870002,278153694493628571615749238529487316167235849834961725986312457742596183351874962
090300100048051200020490700200089005300006010010000460970803040506000007000072039,695327184748651293123498756264189375357246918819735462972863541536914827481572639
