060245700090030000408000000000500001700023005200680439070400063830001027650008010,163245798597836142428719356386594271749123685215687439971452863834961527652378914
000809070008010304400000062810097400050201903620400500200030700006058000037100050,362849175578612394491375862813597426754261983629483517285936741146758239937124658
601800007000051020080203040005030600076002910048090035000004571400060208900700003,621849357734651829589273146195437682376582914248196735863924571417365298952718463
002050600060400198741060000500000903000027060038500004070910000800036700100084029,982153647365472198741869532527648913419327865638591274273915486894236751156784329
008106074900200000006050810100020090530000600000483020090370200603010400401809500,258136974917248356346957812184625793532791648769483125895374261673512489421869537
000900040280000107100230600090300800008024060516000000300007010070050093065040702,653971248289465137147238659492316875738524961516789324324897516871652493965143782
050001002002000758706000900008294030601007040000605007000083005105900023900400670,859741362412369758736528914578294136621837549394615287267183495145976823983452671
200403510000050080306700900100080640090600230604002007000120809007060002409000061,278493516941256783356718924132987645795641238684532197563124879817369452429875361
960030500000000204250940036800060109740012000003000800008304001090071005006580470,964237518387156294251948736825763149749812653613495827578324961492671385136589472
036080102210300509004000600000800067091004308002650000007030920400105000580209004,936587142218346579754912683345891267691724358872653491167438925429175836583269714
341007000090580400600009010074200090020060803000900500000012060503400700007030109,341627958792581436658349217874253691925164873136978524489712365513496782267835149
300900085100600307027500400904300010780109040000080070619002008400000200003010950,346927185195648327827531496964375812782169543531284679619452738458793261273816954
009003804500017002020060009037009108000470060000300045048090050060700000701245006,679523814584917632123864579437659128852471963916382745348196257265738491791245386
900200085020059600003001007270500900850406301010070026000005003600890400480300010,967234185128759634543681297276513948859426371314978526792145863631897452485362719
010400080270050049300100000080070560061000207040590000000062851029830006000704030,615429783278653149394187625983271564561348297742596318437962851129835476856714932
060000031400027600583000000024009810000068203098010004000672500000503002007040080,762854931419327658583196427624739815175468293398215764831672549946583172257941386
002400060003768000700200801104900500080000004006005120070000015030086002045070390,852419763413768259769253841124937586587621934396845127278394615931586472645172398
057010020300090000064005908820007500000400610016302090003500170270906305008000004,957813426382694751164275938829167543735489612416352897643528179271946385598731264
280640007000000008050000132003085200600070504190200000300001070002007496809450000,281643957937512648456798132743185269628379514195264783364921875512837496879456321
720800600000007085000620309203040860640008001801000903000430056300000102905071000,729853614436917285518624379293145867647398521851762943182439756374586192965271438
090000028003015400106700309409063000030502060020870000075690800800000604000001730,597436128283915476146728359459163287738542961621879543375694812812357694964281735
403000000058009207100300690570000040060075008000206000900000002200104805000603410,493762581658419237127358694572831946364975128819246753941587362236194875785623419
800594002430001605091062000043705000060000084000016003650000408200003100007900000,876594312432871695591362847943785261165239784728416953659127438284653179317948526
300900080970023064001060300006000210000670095400805000500000973030190500607004020,365941782978523164241768359756439218183672495429815637514286973832197546697354821
800030056001200370090680020308005004000000762712000005006401080005090000470008003,827134956641259378593687421368725194954813762712946835236471589185392647479568213
090080027051700000800003960320590040405000001007308600002654000000010230008000574,693485127251769483874123965326591748485276391917348652732654819549817236168932574
007100005940070006010002480600410092009086504370000010050903000030000800200068700,867134925942875136513692487685417392129386574374259618758943261436721859291568743
000706030700019005500008410301500800048300029020060071006040080492000600850020000,214756938783419265569238417371592846648371529925864371136945782492187653857623194
050963004013005900000040008060004031070620085008017020006000070290070000004502000,857963214413285967629741358962854731371629485548317629136498572295176843784532196
030090872000203005590017004020305106001000400708006030010000600609400000073080590,136594872847263915592817364924375186361928457758146239215739648689451723473682591
800103560021070048600900000000350900392740005040000807007801200103090006060500000,874123569921675348635984172718356924392748615546219837457861293183492756269537481
000000318005970000006012007020640050904000620007509000201760900009084103360005400,792456318135978246486312597823641759954837621617529834241763985579284163368195472
762005980190000700000004020230079041005600097040030002001800600309001000650020003,762315984194286735583794126236579841815642397947138562421853679379461258658927413
010602030068400000079380400000070008051000702004201900000056079500000104030109520,415692837368417295279385461923574618651938742784261953142856379596723184837149526
700560001009001038040000520500130004082050600190000007060400800007900403038072090,723568941659241738841397526576139284382754619194826357965413872217985463438672195
400300065003200090018090300087609500100020040960000207020030800000516700050800014,492387165573261498618495372287649531135728649964153287721934856849516723356872914
001004050070800060030750208007060109080049000200130040300010507006300920540002006,821694753975823461634751298457268139183549672269137845392416587716385924548972316
010005070600004100009020403300000060200018009040700802076002900004306758503480001,418935276632874195759621483381249567267518349945763812876152934124396758593487621
402003750080100000060000204628050040003901800050020076005804010010090038004000507,492683751587142963361579284628357149743961825159428376975834612216795438834216597
030500800002083901160000057020100090007030008503960400001005036000624000980000200,739516824452783961168249357824157693697432518513968472241895736375624189986371245
060000030001402009902015087054709000600003020007500000700008043240000650003960001,465897132871432569932615487354729816698143725127586394716258943249371658583964271
000680070870000902024030000000900603057020410300108000060040530005001720000560001,519682374873415962624739185281974653957326418346158297168247539435891726792563841
240090000903058070010600930000000207570006040004005861000000080000403100608021590,245397618963158472817642935186934257572816349394275861421569783759483126638721594
200500060900000307041860500005407020090010005437090600008004000060708109320051800,283579461956142387741863592615487923892316745437295618178934256564728139329651874
020304789000000051804900020300400600098060004601070008700630200050809000102005090,526314789937286451814957326375498612298163574641572938789631245453829167162745893
600500480027600500000021030000000070700032009950048300384009160001050940060800700,613597482427683591895421637138965274746132859952748316384279165271356948569814723
000460002317000040000038000029000060006140050000052803070500006058907020094080100,985461732317295648462738519529873461836149257741652893173524986658917324294386175
050730600400008120290000708010500849300470060000096007670100032042000000800045000,158732694467958123293614758716523849389471265524896317675189432942367581831245976
600200050002076390108040006000002000000900130430007805080390040057800002960001500,673289451542176398198543276815432769726958134439617825281395647357864912964721583
408090520000702910000060007700500030030670009610300004000000203063080491289001060,478193526356742918921865347794518632832674159615329874147956283563287491289431765
038600059004090710010007400000009800300010604465302000002004008600050100001030097,738641259254893716916527483127469835389715624465382971592174368673958142841236597
700360040002001900350902071019030008000005010004206705000100050046580030000003429,791368542462751983358942671519437268627895314834216795973124856246589137185673429
000026000001700050006003948058000106007090204420300080800500000040010003090280570,584926317931748652276153948358472196167895234429361785812537469745619823693284571
006200010908036470040001580027050034005000900690074000170980020003000000060100803,756248319918536472342791586827659134435812967691374258174983625283465791569127843
000070014021054000500060800050640007870009030009000120680035090090008640300200700,968372514721854369543961872152643987876129435439587126687435291295718643314296758
601000804007000059380240006900810070050300600004976002800602100020750030019000000,691537824247168359385249716962815473758324691134976582873692145426751938519483267
009700002450000610000501040000468000730002100060007905100093200907804030086200000,819746352452389617673521849591468723738952164264137985145693278927814536386275491
300090600006000872470801300700250180080070059030100000005000000010004960920310040,358792614196435872472861395764259183281673459539148726645987231813524967927316548
069080230853070010102049005704000500025000008000602400080005360090003700000107009,469581237853276914172349685734918526625734198918652473287495361591863742346127859
045307086090410050208090300350040070060001009001700530900200007002086140080000200,145327986693418752278695314359842671867531429421769538914253867732986145586174293
164050000009064080030790001087000204000038750600200100702300409008600005000049002,164853927279164583835792641587916234921438756643275198752381469498627315316549872
005040000900607030406005010050301002021460500800070090160000008000208006307900024,275143869918627435436895217659381742721469583843572691162734958594218376387956124
000080500078010000104037069400502008000078690090006203200000305003450000960000701,329684517678915432154237869436592178512378694897146253241769385783451926965823741
000089072309040000060301050000003010800010045720560800093400021100700004050002906,514689372379245168268371459945823617836917245721564893693458721182796534457132986
080056320920140700070008060000965007040020030600007100162000000500300084800009005,481756329926143758375298461213965847749821536658437192162584973597312684834679215
010000697040030000928000010100069850052007000630200040000680100400700360007405209,513824697746931528928576413174369852852147936639258741295683174481792365367415289
027300605350200080000410000005040002038976000140000860070190450000038709082000006,427389615351267984896415273765841392238976541149523867673192458514638729982754136
400071009080000502650080070008040090307100800120690307005300140000200005910000026,432571689789436512651982473568743291397125864124698357275369148846217935913854726
064850000053000609080109030340700000000035901007000200800607450290040700006012000,964853127153274689782169534349721865628435971517986243831697452295348716476512398
020700000031006800506030004304560900002900560009083070005090017010000008800204309,428759136731426895596831724374562981182947563659183472245398617913675248867214359
030020800428090007067504010290001380005030000710060902000050009100906700000700406,531627894428193567967584213296471385845239671713865942674358129152946738389712456
730400060205000490400008005000032906010807030000160807308910020070025000090004100,739451268285673491461298375847532916916847532523169847358916724174325689692784153
000356002800090040030040170900070000760000058001602090008004205610000809005013004,147356982826791543539248176983475621762139458451682397378964215614527839295813764
000000054008901036006040870005027400190300000802090315300050780200006000047200069,713862954458971236926543871635127498194385627872694315361459782289716543547238169
003060470080009102197030006900040500010600008075800013000410285020000704000005090,253168479684579132197234856968341527312657948475892613739416285521983764846725391
005902008400001007080430100300057040061020009700860300640005900003600501012003600,135972468496581237287436195329157846861324759754869312648215973973648521512793684
600052340030078002081400000800007009059060400072030160003906700000025001965004000,697152348534678912281493576816547239359261487472839165123986754748325691965714823
140000000900003520056907080680002004000800000701500390005310002007080630290470805,142658973978143526356927481689732154534891267721564398865319742417285639293476815
010090000009020486600083000190500823000006700040030009050162070300004592807000010,418695237539721486672483951196547823283916745745238169954162378361874592827359614
049120060008347090500000001050790310010804000000030602390208500001006708000000000,749125863168347295532689471856792314213864957974531682397218546421956738685473129
001004500097000206060793001020500070010039600630200840200958000003070000849001002,381624597497185236562793481928546173714839625635217849276958314153472968849361752
004002000570081009800500102080000003100048276603900005030060500260004800900705301,314692758572481639896573142487256913159348276623917485731869524265134897948725361
980165030002009040017002900200000700500910006031706008000430100060058400700000052,984165237352879641617342985296583714578914326431726598825437169169258473743691852
900030046068200700103000098500918027020400500000007369000050934014000000000670010,972835146468291753153746298536918427729463581841527369687152934214389675395674812
402090310680170050030000009000280005098005670001007230000402900000800007350060801,472598316689173452135624789743286195298315674561947238817452963926831547354769821
070010065502706000430020801900008050120074306083001900000090042697000000008005030,879413265512786493436529871964238157125974386783651924351897642697342518248165739
427100603900320800600050001060007000000002095701800004070508002384000070009400106,427189653915326847638754921562947318843612795791835264176598432384261579259473186
029010050005002007603800001090700560104500203300406098080200605000190040700003800,829317456415962387673845921298731564164589273357426198981274635536198742742653819
560700004008230000307480500001604930080013040000050062409008000023509006010000007,562791384148235679397486521751624938286913745934857162479168253823579416615342897
090800310201006000305400098802000051000007640600025030030764000049030705000010000,497852316281396574365471298872643951953187642614925837538764129149238765726519483
700009000480020300305004091290508004000042000506730009000080106607010080001005037,712359648489126375365874291293568714178942563546731829934287156657413982821695437
020030400010602000875040060100097040003208670980000023000051700006000501500906080,629735418314682957875149362162397845453218679987564123298451736746823591531976284
006400010100009000095300800000007203603008000428901070000100029250700100080053046,836475912142869357795312864519647283673528491428931675367184529254796138981253746
090008700400600200052179008905027003360000040080000105000390560000004021000781090,193248756478653219652179438915427683367815942284936175841392567739564821526781394
080249000500000030000300709060004000092100304370080650001007495020506080008010007,783249516549671832216358749165734928892165374374982651631827495427596183958413267
902100570100603004080000030001070600020540800060900045006400009007815003043700020,932184576175693284684257931451378692329546817768921345816432759297815463543769128
109300000600710050080020907350040006090037000007600085005208130001000000748050069,179385642624719853583426917352841796896537421417692385965278134231964578748153269
008390050700001000006005142500000080004006301290170000320004670040820003100900005,418392756752641839936785142561439287874256391293178564329514678645827913187963425
700018004005000002012035600154900300060000080030007109000020058603090021009800460,796218534345769812812435697154982376967143285238657149471326958683594721529871463
032010700400806050001000803008021070040500020600308049054000910900002000013704006,832915764479836251561247893398421675147569328625378149754683912986152437213794586
