107204090000700005580016000009000014600300500000067089002400000001090430093580007,137254896926738145584916723379825614618349572245167389862473951751692438493581267
094608010037020095005030800070200160320900008580006002010003089600000041000507200,294658317837124695165739824479285163326971458581346972712463589653892741948517236
070608090039000010502000000260950307050001004008307060000105830810093400007000002,174638295639542718582719643261954387753861924948327561426175839815293476397486152
706001040420803005005097080000030600900025010208000003050600002030014790804000500,786251349429863175315497286541938627963725814278146953157689432632514798894372561
003600004704000528001870600900005200000300006000060971020103005410520080038097000,893652714764931528251874639986715243172349856345268971627183495419526387538497162
000810050690000300000050704900008030068094070704630005530002908080700260040000000,472813659695427381813956724951278436368594172724631895537162948189745263246389517
047080023205001080010040000030800975000002010000509800390064200156703400000900000,947685123265391784813247569432816975589472316671539842398164257156723498724958631
210000360070150082900400500001703008640018700000000050800070030302090610060020049,215987364473156982986432571521763498649518723738249156894671235352894617167325849
080014070016207000054830002000020106860700050100908030002000060040673005000050794,289514673316297548754836912497325186863741259125968437572489361941673825638152794
108630004020400080300070000080560200670809310900100000090080500003004009010200706,158632974729451683346978152481563297672849315935127468297386541563714829814295736
057006340460050029100004570000532000006000002803040710002870400900000081080960000,257196348468357129139284576791532864546718932823649715612875493975423681384961257
700010300809047001025009060097301050000005000300780204684003000000000108900200045,746512389839647521125839467497321856268495713351786294684153972572964138913278645
000002000700605420051483060038000904020900170900001030807040015000500006093020807,346792581789615423251483769138267954625934178974851632867349215412578396593126847
000038157410000900000000060708305090005086200309001040600000004902050380000607510,296438157417562938583719462728345691145986273369271845651893724972154386834627519
109000000050790230003128050010600000000250019040003675030004080208060007075300090,129435768854796231763128954517649823386257419942813675631974582298561347475382196
020530007810000400006000019300095000087240000000810602609000230200007540041008706,924531867813679425756482319362795184187246953495813672679154238238967541541328796
930017050100205008024000000870050940003100020401070006006030094080700200705600013,938417652167295438524863179872356941693184527451972386216538794389741265745629813
900800004001302860080074200060010009000260150005008700500000070316500040079041080,927856314451392867683174295862715439734269158195438726548923671316587942279641583
400900060052730001081640300073060000010000893800002050040000000000400125709100086,437921568652738941981645372573869214216574893894312657145286739368497125729153486
840607002000000835100000006709002501015408020004000390290031780000070100000849000,843657912967124835152983476789362541315498627624715398296531784438276159571849263
900405001070109040005080700507041000008900026002036100030500078000020300680010092,926475831873169245145382769567241983318957426492836157231594678759628314684713592
009030000500400108006028004003710902001804006040090000000580601700000520205679083,489135267532467198176928354853716942921854736647293815394582671768341529215679483
907600018300000000005041072096000507002000041000783060060405090400007006103209005,947652318321978654685341972896124537732596841514783269268415793459837126173269485
700102008600390020000006097003400070001000065008571004010600000946000280850023400,739152648684397521125846397593468172471239865268571934312684759946715283857923416
908401006000805120005070000007030008810000403306100502003209700040560000201300980,978421356634895127125673849457932618812756493396184572583219764749568231261347985
900574081000000040006290003060020010509300400000008076200167030150000800040005002,932574681715683249486291753864729315579316428321458976298167534153942867647835192
000710689000000437380000010000080056004032700590106003050000020103400900479050008,245713689916825437387649512731984256864532791592176843658397124123468975479251368
037820400009063001000050280740000008008009057000000630390004015100098000604005702,537821469829463571416957283743516928268349157951782634392674815175298346684135792
002030907490007200170500600750021360600008000001709004020040093000080021000003580,582634917496817235173592648758421369649358172231769854825146793367985421914273586
400003080050700920032960400000040019860200000014050700270085100001630070006090038,497523681658714923132968457725346819869271345314859762273485196981632574546197238
100800029709003600060050700400091000000607004892034000004025010050700030030010068,145876329729143685368952741476291853513687294892534176684325917951768432237419568
900030206007450980001702004090047000008003752063000008020001009800600010045080600,954138276237456981681792534592847163418963752763215498326571849879624315145389627
025000006400387009300025000000100640008000072900874030097010050050006701031059800,725941386416387529389625417573192648148563972962874135697418253854236791231759864
006004030710030082500186000000390500308000060009005400020000007140078300600040901,896724135714539682532186794461392578358417269279865413923651847145978326687243951
040059000207000540009201008000000000300080956006074231080096302002010060103008007,648759123217863549539241678921635784374182956856974231785496312492317865163528497
000100034100605002076080090010309500904008200008240007509706081400912006030000000,895127634143695872276483195712369548964578213358241967529736481487912356631854729
010060009002800430008907000070000040600290005359071806103086702590140360000000000,715364289962815437438927651271658943684293175359471826143586792597142368826739514
003100002000052040007000600060000030045706009090080100071048093800210005609570480,483167952916852347257394618768921534145736829392485176571648293834219765629573481
009860030413000800607004209702301080140000070306009024805903000000000000000270016,529867431413592867687134259792341685148625973356789124865913742271456398934278516
005200378632008000000000100001795400708060052900004000007450069086010005020083040,195246378632178594874539126261795483748361952953824617317452869486917235529683741
500020000040906000008400031360200004000017980009350000100063002073008540095000010,536821479741936825928475631367289154452617983819354267184563792273198546695742318
000000001500003940406970050007810304041005068030700020000130500370060000009040802,793452681512683947486971253257816394941325768638794125824139576375268419169547832
300800451008005003900400607051040000000206000430900160010003902874002000090060075,367829451148675293925431687651348729789216534432957168516783942874592316293164875
100508402073000080205009006000305001302740600917002000609000004048010207000600830,196538472473126985285479316864395721352741698917862543639287154548913267721654839
002060040007100003600452009000000108000790060536008007204073910390000800800040200,982367541457189623613452789729634158148795362536218497264873915391526874875941236
000030020510908000040200690800016700120805430000040009970600005236004010008070003,689437521512968374743251698894316752127895436365742189971623845236584917458179263
701086302000509006900031500068040000300000400170300009025000060000854900030700108,751486392243579816986231547568947231392618475174325689825193764617854923439762158
481005020209000856000070900700203014800490730000650000048000592900000003036100000,481965327279314856653872941795283614862491735314657289148736592927548163536129478
031000800008040290000060034062700040380005010907028306050900021000084600700130009,431259867678341295295867134562713948384695712917428356853976421129584673746132589
032076000008500200050000913000009006300045071400728050010090002087003000690100080,132976548948531267756284913875319426329645871461728359514897632287463195693152784
010890020700001600309270000006403002005020904002009038080714005090650073400000100,514896327728341659369275841976483512835127964142569738683714295291658473457932186
000460005052003607700080090000900038360824500590071400180600000407000010000010920,913467285852193647746285391274956138361824579598371462189642753427539816635718924
030000002000010480804600307705204090000850020086003100000000074090570000320908601,139487562672315489854629317715264893943851726286793145568132974491576238327948651
003100004064052730010080900000410020070508016080069500007090000025700308300000040,953176284864952731712384965536417829279538416481269573147893652625741398398625147
082003051010007090040062000000290410690000030501800700003400578209050003008070006,782943651316587294945162387837296415694715832521834769163429578279658143458371926
010000630607008000408030109090010000305607000000009427100500980500964000043000250,219475638637198542458236179794812365325647891861359427176523984582964713943781256
050030907820000603000500010043029000096800705007601040070086004000300290305400001,651234987824917653739568412543729168196843725287651349972186534418375296365492871
005003040002000007000890010500010930640000700890037602000085006000904120470106390,185763249932541867764892513527618934643259781891437652219385476356974128478126395
020000541300080600600591300070000204050810036900006070002764010008000009001030750,829673541315482697647591328176359284254817936983246175592764813738125469461938752
150000900006802100042000307090083000204001050500260700060410230000035861030009000,158347926376892145942156387697583412284971653513264798765418239429735861831629574
000100000300082759860054030000060400002705600000093280004070008910006300278300001,529137846341682759867954132793268415482715693156493287634571928915826374278349561
040005020800400190019070065006900000320560000007004810500001309004082007030000040,643195728875426193219873465486917532321568974957234816562741389194382657738659241
009008005643020008000037260407100300031060900000005402700890000050002600190006040,279648135643521798815937264427189356531264987986375412764893521358412679192756843
073000080000970000102504069006010073090000102804020050500002014000680307069003500,973261485645978231182534769256419873397856142814327956538792614421685397769143528
400598001003021409005000027010000360309407010200080000080600500000004090670030002,427598631863721459195346827718259364359467218246183975981672543532814796674935182
306042700070001024500008000024000050760300800008004001080920407050063009091080360,316542798879631524542798136124876953765319842938254671683925417457163289291487365
401600009080900400600003078900050083036008700000009521000020000097100005003407216,471682359385971462629543178912754683536218794748369521164825937297136845853497216
480070023000900507005264000100003095046710200008400000010000060200840700950300804,489175623621938547735264981172683495546719238398452176814597362263841759957326814
001000508704032010069070000000021006507900403080000090230540900070060340905008002,321694578754832619869175234493721856517986423682453197236547981178269345945318762
008030021206004000300901007005000600070800509400056008100407900000090043002013080,798635421216784395354921867825379614671842539439156278183467952567298143942513786
100009050020670009804200670040386000003045910007000000560900402400000061002003800,176839254325674189894251673941386527283745916657192348568917432439528761712463895
900002500013000008000470060605700003090046070240008005028090041000201980000030007,976182534413965728852473169685729413391546872247318695528697341734251986169834257
009100500406020093000065704080010476000000050042009800503807012090002000708390000,279134568456728193831965724985213476317486259642579831563847912194652387728391645
060000300704002010039180700900000035016070048008023000000507001800034067502001400,165749382784352916239186754927418635316975248458623179643597821891234567572861493
089006002000000395013040006200901503000075060004000870460502100028100900100807000,789356412642718395513249786276981543831475269954623871467592138328164957195837624
103609807000005200007100049070020600900060038450008070000000005604803001280704900,123649857849375216567182349378521694912467538456938172731296485694853721285714963
500090602030081000907000340060000008020070435873004010000003020208045000014600700,541397682632481597987562341465139278129876435873254916756913824298745163314628759
307000800000010006000932000400000302291076400805040061040001000180500907060498200,317654829924817536658932174476185392291376458835249761549721683182563947763498215
000025400509701030000690007007804010150200740063000090034900800000406520800003000,716325489589741632342698157297864315158239746463517298634952871971486523825173964
000728000019003000030400586900630008053200970007001004008000425400090100106005007,564728319819563742732419586941637258653284971287951634398176425475892163126345897
030040000097030502800002039003500000400106090705003860506020780001407006200608000,132945678697831542854762139963584217428176395715293864546329781381457926279618453
054000209930005170700003085000000000006980003170340068010600040062058000309020010,654817239938265174721493685893576421246981753175342968517639842462158397389724516
200304805000600400709000001160000704350080090008026000004000100071902060080075000,216394875835617429749258631162539784357481296498726513924863157571942368683175942
803060001502409007000000002050083090001700500406000020700105860040830010000206405,873562941562419387194378652257683194981724536436951728729145863645837219318296475
002908400008502170970003008700069800805000003030400021406200590000050004010700600,152978436368542179974613258721369845845127963639485721486231597297856314513794682
029004500306051008000700000050380401940020700710900035800690000005000367400003020,129864573376251948584739612652387491943125786718946235837692154295418367461573829
390002000540000600008000079004003012980016305000420080405900038020031000706004500,391672854547198623268345179674853912982716345153429786415967238829531467736284591
017020060000890040084105090000519000502006008300008904030054270100030006020700030,917423865653897142284165397748519623592346718361278954839654271175932486426781539
090008050504000007003040102000020780100003000900706043056100200070500008310407960,291378456564291837783645192635924781147853629928716543856139274479562318312487965
048000030301005028000020001009640700600092310005310000570080160060700405004900000,248169537391475628756823941139648752687592314425317896573284169962731485814956273
086500014000080705200900006050100280100050300927600400014270090709001000060403008,386527914491386725275914836653149287148752369927638451814275693739861542562493178
218400000007201050000670009023105040800060300040090007670043090490000608305000002,218459763967231854534678219723185946859764321146392587672843195491527638385916472
080000000400790060023016804031004709700850002000930016000062105090380007250000300,687243951415798263923516874531624789769851432842937516378462195194385627256179348
070300000080704065306020041160500273005032000009800000007290006000001850094600020,471356982982714365356928741168549273745132698239867514817295436623471859594683127
071000435009005800400063009040010000800204950037906002000090300200708016108052000,671829435329475861485163279942517683816234957537986142754691328293748516168352794
607120900040090008001056040802070300003200000510000067058000430000600809900740025,687124953245397618391856742862571394473269581519483267758912436124635879936748125
050700000003901807809420500090007006004610000200005048061008059037060100020030604,152786493643951827879423561395847216784612935216395748461278359937564182528139674
000786020002090065074000030900300417180020000006500000001000089438150006060037001,593786124812493765674215938925368417187924653346571892751642389438159276269837541
043050100800000657070010200008600021706040009050028030401003000092407800000002060,243756198819234657675819243938675421726341589154928736461583972392467815587192364
601040003043002580500007000320600408000003010074290005007005346800020001009300070,681549723743162589592837164325671498968453217174298635217985346836724951459316872
