200001086800070910005460000000089000080040627000100590609052034340000702007800100,273591486864273915195468273752689341981345627436127598619752834348916752527834169
900860430000502081701040200040000792396010000007080600032094000000700050000308004,925861437463572981781943265148635792396217548257489613532194876814726359679358124
200004010090060243600007800703081000500000980040600037002005001908030005050420600,285394716197568243634217859723981564516743982849652137462875391978136425351429678
570000103000602009098000470000700301160950002040003050310800960002304800000097005,576489123431672589298531476825746391163958742749213658317825964952364817684197235
060801700710002004309005000400038600000900052001020490050043107007600503620000800,264891735715362984389475216492538671876914352531726498958243167147689523623157849
408000120090000400600073090007810004900007050030560000200608900010092345040135860,478956123395281476621473598567819234984327651132564789253648917816792345749135862
100080406080006070300090250700000049430720005005030001062043800004061902000008000,157382496289456173346197258728615349431729685695834721562943817874561932913278564
780300001200790403004015080060001000400080000005070096010006230306902700890000045,789364521251798463634215987968521374473689152125473896517846239346952718892137645
007200006008040007405009130000562018000300000026008700100007940092053000504800060,917235486238146597465789132749562318851374629326918754183627945692453871574891263
800190360000205418500060000704008009060340000103000620098002070020500081305907000,872194365936275418541863792754628139269341857183759624698412573427536981315987246
002007690000300845154000300060008259928004000000010006710400508500902030040180000,832547691697321845154896372461738259928654713375219486719463528586972134243185967
000000200079028403640100058905040006083070000010302090060085040000003007037006512,358964271179528463642137958925841736483679125716352894261785349594213687837496512
480090030009210006600003890070000004058700023100005060060009052002086940700340010,481697235539218476627453891276931584958764123143825769864179352312586947795342618
003500710026307005900800000010400502062003900704002008850060301000000096037008200,483526719126397485975841623318479562562183947794652138859264371241735896637918254
080005140710020065300070289009000001020407030635008000801042900040051670000306000,982635147714829365356174289479563821128497536635218794861742953243951678597386412
020400009483000000000607028006004070100050900090002180301005200008190604500076010,627481539483529761915637428856914372132758946794362185361845297278193654549276813
380010000500002390004700500069400005000029180800601070701080002030004060025000003,387915624516842397294763518169478235473529186852631479741386952938254761625197843
005100060010080007890024050300700090040001002006540180003008705004270039208000006,435197268612385947897624351381762594549831672726549183963418725154276839278953416
050000600013790002800160090000080103400070020079500800008600047204010306060900010,957248631613795482842163795526489173481376529379521864138652947294817356765934218
140003009600080520020470083005040630807030002000109005000002908902500007401800000,148253769673981524529476183295748631817635492364129875756312948982564317431897256
600080007000509030058060010900042070000907605023006401270008900040000000031205004,692381547417529836358764219965142378184937625723856491276418953549673182831295764
000000820030290007070005604040700102809600045150020000960013008010408300500900060,695147823438296517271385694346759182829631745157824936964513278712468359583972461
290014080060003001503060700000001460006300005780042000000405300800700294020089070,297514683468273951513968742932851467146397825785642139679425318851736294324189576
900830107400200000008075002000003070006021340740960050000090830082040906501006000,925834167467219583138675492219453678856721349743968251674192835382547916591386724
408509030000100200500270040070056300901730604000040802002000100839000006065008097,428569731397184265516273948274856319981732654653941872742695183839417526165328497
069008015001070438403200000070000050192580700000690000005030890200400570000010023,769348215521976438483251967876124359192583746354697182615732894238469571947815623
750609300012005009040000802000840500004071200006302000100530000200107063090008710,758629341312485679649713852921846537534971286876352194167534928285197463493268715
065700900102000000407910003000269000010030060000140307030008570978506004004000209,365784921192653748487912653743269815519837462826145397231498576978526134654371289
800720000056400008023009610582900300001070500390008060000000240600230107009041035,814726953956413728723589614582964371461372589397158462135897246648235197279641835
001800500340560720080049360003096050100000040097210000000070810500038000060002009,671823594349561728285749361823496157156387942497215683932674815514938276768152439
065900007100040000003806005200187090009020060040000370050700146090203000708065020,465931287187542639923876415236187594579324861841659372352798146694213758718465923
002581600701003005000470390003094000905706008610000000400100063080035002206009017,392581674741963285568472391873294156925716438614358729459127863187635942236849517
806302900570040018009000000030008021201000000600050704003500080900160007025709043,846312975572946318319875462437698521251437896698251734763524189984163257125789643
200059006901002030053410002682007000000008940007030000030500070004801000109060504,248359716961782435753416892682947153315628947497135628836594271524871369179263584
036087500004000120981000006000600750020004809010798040000039000460500000008010237,236187594754963128981245376849621753627354819315798642172839465463572981598416237
150600200000500009030018007400039601017280050200000730670040300020900480009000005,158697243764523819932418567485739621317286954296154738671845392523971486849362175
020000100009050006703041085104702003000600000057000908200069030045800760080410090,528376149419258376763941285194782653832695417657134928271569834945823761386417592
006080302040000700071360005003029001050700000027501003005070049680004000030900256,596487312342195768871362495463829571158736924927541683215673849689254137734918256
501047002004000060680500009030012045817005000002030086060184900700200018000000300,591647832274398561683521479936812745817465293452739186365184927749253618128976354
100050460360800029407000300002009806000020051070600030090040708054010000013790002,189352467365874129427961385542139876638427951971685234296543718754218693813796542
410600300030902010802000490060010005900804000003506207040000750700080600500130820,419658372637942518852371496264713985975824163183596247348269751721485639596137824
050103908049600070187020000000400820703005060000007009096000305200040010501086400,652173948349658271187924653965431827723895164814267539496712385238549716571386492
100007000090130060430002809003500000800010720006004501000845003502900070040200680,168497352295138467437652819713526948854319726926784531671845293582963174349271685
051690020003102008690008005010470009000020060004500370007040900506007082400803510,851694723743152698692738145318476259975321864264589371187245936536917482429863517
000000500604210000083650009072500103008000006100937400500040071900300082000106340,219783564654219837783654219472568193398421756165937428536842971941375682827196345
000927010501000094060100030027010600340060009006308025030870000709005400008006000,483927516571683294962154837827519643345762189196348725634871952719235468258496371
010003700062050008700090050026040075000908040309600200004000090257060100108430006,415283769962754318783196452826341975571928643349675281634512897257869134198437526
650200003100006040040009705071062000035107800900830500304000980080070002006901050,657248193193756248248319765871562439435197826962834571314625987589473612726981354
900024068701809400000015030040302000009400050025000810002060701030000046800007590,953724168761839425284615937148352679679481352325976814492563781537198246816247593
900017030200903700080520004030680000807004006060000050540061008320090500000200901,954817632216943785783526194135682479897354216462179853549761328321498567678235941
005640190682009030000007000069000510743580000000000803200900000408300062900010470,375642198682159734194837256869423517743581629521796843257964381418375962936218475
020903060004080000810007502390600280002000007000058100150040003076005004030109006,725913468964582371813467592391674285582391647647258139159746823276835914438129756
060008010839070004500300200290050070084016930050740060040605008010920506000400007,462598713839172654571364289296853471784216935153749862947635128318927546625481397
006070802008105700000300060003250090400030210150009008890400006200700001640080037,316974852928165743574328169783251694469837215152649378897413526235796481641582937
100060370000040006068090200920500100400000008835701060001053740009200050702008090,194862375273145986568397214926584137417639528835721469681953742349276851752418693
009042008002360904510007000638000090000030402000800065720098036050100000400605210,369542178872361954514987623638254791195736482247819365721498536956123847483675219
020060030070900820800750049513870002009305006700400008000200905006040100300019000,924168537675934821831752649513876492489325716762491358147283965296547183358619274
001007935004100702600293000400306080008000071309050004800609200005738000000004013,281467935934185762657293148412376589568942371379851624843619257125738496796524813
005900027000014000800602019032708650090036200007000004000001080310850900270300060,165983427729514836843672519432798651591436278687125394954261783316857942278349165
010000207002000006090170850900063002007050100843209000000086000036401090420930500,315698247782345916694172853951763482267854139843219675179586324536421798428937561
706050940000007031031002800000029080000610705425300090100436000900000003004000650,786153942249867531531942867617529384893614725425378196158436279962785413374291658
070900000806003007000045960400050276100802000053004000020080409040107002608000015,574968123896213547312745968489351276167892354253674891721586439945137682638429715
470900032000038000901020508004206050120000000306510079000700400800190006567000093,478951632652438917931627548794286351125379864386514279219763485843195726567842193
060070200050014008370020090090700082002800034400060509047005010630001000900600305,164978253259314768378526491596743182712859634483162579847235916635491827921687345
004528097290036001000001000010040023005069048080003100000057600602900005030000470,164528397297436581853791264716845923325169748489273156948357612672914835531682479
170024006030100000000900058017300460600042010200005007090030700004006380020850009,178524936935168274462973158517389462689742513243615897896431725754296381321857649
060000040405007103801309200000062509000010806920008300200700408630050090050801000,362185947495627183871349265183462579547913826926578314219736458638254791754891632
007000900003002480010850006570600201640080590090410000009030060400061020080904307,857346912963172485214859736578693241641287593392415678729538164435761829186924357
500400700813005000064030008008009010250100000030700600100090260040057003097600084,529486731813975426764231958478569312256143879931728645185394267642857193397612584
000006000200805714503790000004070083300010050079002000400901036085040100900060028,748126395296835714513794862154679283362418957879352641427981536685243179931567428
090470600030090080000605100000506400120007000645103002307800954264000030800000070,591478623436291587782635149973526418128947365645183792317862954264759831859314276
300040071027600000105080002000804000710290006904700058260000190000000400089053600,396542871827619534145387962652834719718295346934761258263478195571926483489153627
003018000001500270764020080030000610650009008802030409070406035100000000090050702,523718964981564273764923581439285617657149328812637459278496135145372896396851742
204000030061708000090630007000063800050000402006251900000142080710090005800300026,274519638361728594598634217927463851153987462486251973635142789712896345849375126
030207005900048000801350000205070604000000700010960230090030046040501800073006120,436217985957648312821359467285173694369824751714965238198732546642591873573486129
400920005000670002090003080060000500200047018080001093630190020000050301007806400,476928135813675942592413786361289574259347618784561293635194827948752361127836459
100002000009080004000006853000079020020100380700005009080047900046090105207030060,138452796659783214472916853864379521925164387713825649581647932346298175297531468
000070030100800905007230008016400790050000304004928106060000000000004529039105600,648579231123846975597231468816453792952617384374928156465792813781364529239185647
000000834000008001570103000090005640206070905380604070010400060600000329900020008,169752834423968751578143296791285643246371985385694172812439567654817329937526418
100035000060000738009064200050012006080076090004509000370050004800000017001290600,128735469465921738739864251957312846283476195614589372376158924892643517541297683
065003400000921000300500087090050372210670000040008900800400203400000016070060050,165783429784921635329546187698154372213679548547238961856417293432895716971362854
040506090003001000706003800007020901980000203030180004010430508850900700002000040,148576392523891467796243815467325981981764253235189674619437528854912736372658149
230500008709010000510007640900004000180920450003000007002800060400060095050040013,234596178769418532518237649925674381187923456643185927392851764471362895856749213
850002013004100008206009005030005741070083090029000000080070200905028060000540300,857462913394157628216839475638295741471683592529714836183976254945328167762541389
930000000006004800710060302001580070200900000050070143000702968002050001390008004,938127456526394817714865392461583279273941685859276143145732968682459731397618524
927000800000900052000000003860170000540060081009030004400000500208415030600702019,927351846386947152154826973862174395543269781719538264471693528298415637635782419
040009500006007002080460000502004031034020708000701405008072300000015906603000010,741289563396157842285463179572894631134526798869731425918672354427315986653948217
008010709060005410300700000000524001210090807030800905450908000706042300080000200,528413769967285413341769582879524631215396847634871925452938176796142358183657294
018300000060152300402087095006020007170500000000008630700904080050016400090000203,518349762967152348432687195386421957179563824245798631721934586853216479694875213
308900000000020500060701003900670038604050170080000205010046090032809007590030010,348965721179423586265781943951672438624358179783194265817546392432819657596237814
604002100030690580000037000000410000008000207350006040040700321200805060976001004,694582173137694582582137496729418635468953217351276948845769321213845769976321854
000078016060304002387000009509016408042050031000400970008931000200000050071200003,924578316165394782387162549539716428742859631816423975458931267293687154671245893
400098107500470000000012003306005008800100520070069400020000860608704009090003200,462398157531476982987512643316245798849137526275869431723951864658724319194683275
830607000500030807096040102300209040047003009001068750270500900000001500060090020,832617495514932867796845132358279641647153289921468753273586914489321576165794328
000207680038400900007910002059040701000081003400000060100096070090002856072000000,941237685238465917567918342859643721726581493413729568185396274394172856672854139
000200040010050086056004730009086314708400000601002005000029000200003097080501060,397268541412357986856194732529786314738415629641932875173629458265843197984571263
908401000010000060000729030260090000080000105050204009095306017004508006003010040,938461752712853964546729831267195483489637125351284679895346217124578396673912548
003400801600000030970008052105076000300200000090380047700000005400097300002501096,523469871618752934974138652145976283387214569296385147769823415451697328832541796
045090203000500600387004000000050400001062009059017080820006017000080934100030060,645198273912573648387624195768359421431862759259417386823946517576281934194735862
072800030980054006601000400706020005030195070040000300000042108890007000005306900,472861539983254716651739482716423895238195674549678321367942158894517263125386947
