040000500901408003006230019408029006003006105090700000084100302000050874200300000,342961587951478623876235419418529736723846195695713248584197362139652874267384951
760015000809006001030008470000450607002000034010000500090061003541070009306890020,764315298829746351135928476983452617652187934417639582298561743541273869376894125
002708960400096010008105007030400608060012040905800300700020050309070402100003000,512738964473296815698145237231459678867312549945867321786924153359671482124583796
000104903000090208030080075594300080201000600600709100300040500020816000706200000,852174963467593218139682475594361782271458639683729154318947526925816347746235891
001908300708430020920600000800710004010090000002300060000000705035270100060040090,641928357758431629923657418896712534314596872572384961289163745435279186167845293
000008704402095003003000190006507000709030850250640001900826000100000460080700039,591368724472195683863472195316587942749231856258649371934826517127953468685714239
300005079206008403000100060005070002090640030607050081004207190080000006701000050,318465279256798413479123865135879642892641537647352981564237198983514726721986354
960507000700031800004008002600043010020000743070000950000810390080094005509206004,968527431752431869314968572695743218821659743473182956246815397187394625539276184
630051000050300140008097000002980705300700910000046020045600300090000007200008401,634851279957362148128497536412983765386725914579146823745619382891234657263578491
850000000700005423020079000000004200682030001100080937093420700000001000470690850,856342179719865423324179685937514268682937541145286937593428716268751394471693852
003008570006005002082704009070900050030000640105320000000070020000809100900610807,413298576796135482582764319678941253239587641145326798861473925327859164954612837
000907605000208900035000207308000004600005700290140000420000010506890003070600002,182937645764258931935461287358729164641385729297146358429573816516892473873614592
050000009029083760763000010108320050000904001005000430070210504000000682000496000,851672349429183765763549218148327956637954821295861437376218594914735682582496173
940007850050901060006002004890200035000000080002450701700009000004300609560800173,941637852258941367376582914897216435415793286632458791723169548184375629569824173
010763004059140000003000020806204700040670010000030009900086502004000600070590803,218763954759142386463958127896214735345679218127835469931486572584327691672591843
000060400400089070092300501100020007300004120067805009680900030000100085035070602,573261498416589273892347561149623857358794126267815349681952734724136985935478612
006010040080030059900507038403900060062001300100000807500470010004008205709260000,356819742287634159941527638473982561862751394195346827528473916634198275719265483
010060050004200903000800001507104020800905000041030800700500204053092710060070030,918367452674251983325849671597184326836925147241736895789513264453692718162478539
100000006005402830708563000850020010040900002200036000093007601000050300017098040,134879526965412837728563194856724913341985762279136458593247681482651379617398245
061034050000000000040908307020060435805021000094700800070005102008040000903002706,761234958389576214542918367127869435835421679694753821476395182218647593953182746
000000002230170609600890150050000097000048001760030240008006725000203000410050006,189365472235174689647892153854621397923748561761539248398416725576283914412957836
000350008920070006004000510068500230000802400010009000030741600750603800002900000,176354928925178346384296517468517239597832461213469785839741652751623894642985173
109000520060200000070006081290070010000800004083004005046082007800050490005017003,139748526568231749472596381294375618751869234683124975346982157817653492925417863
000000320070015900490207506006302005050068001280000400005090630010543702800000000,561984327372615948498237516146372895953468271287159463725891634619543782834726159
004120378030000020100050400013680007800009043600000000950340106402900000000075290,594126378736498521128753469213684957875219643649537812957342186482961735361875294
090020040001075006000300100000506009100007400430209080048000720025104030900080600,597621843381475296264398175872546319159837462436219587648953721725164938913782654
045620010000040079300008500013900002060004007027060005079305040052000980800100000,745629318281543679396718524413957862568234197927861435679385241152476983834192756
900008002400530007603040510000010054007800920800900061009060300014790000362400000,951678432428531697673249518296317854147856923835924761789162345514793286362485179
900065007000400521704000000806020040000630805190700300070280006002004930318050000,921365487683497521754812693836521749247639815195748362479283156562174938318956274
030002005900400007001093006020064080067900130504010000006207900075830200080000053,638172495952486317741593826123764589867925134594318672316257948475839261289641753
100020050542009010008004003850072001020000906300408700000610539703090460000800000,139726854542389617678154293856972341427531986391468725284617539713295468965843172
060050300004209500700000820007008001900035400802196000108000903020047050050380060,261854379384279516795613824537428691916735482842196735178562943623947158459381267
700090501090500204008000000004670025000014603310002070060300950452700300130060800,723498561691537284548126739984673125275814693316952478867341952452789316139265847
070052010680940700000001049510390470200000050008400630040000060103007500902630000,479852316681943725325761849516398472234176958798425631847519263163287594952634187
300976000040000078006018005001800423070031060008009000200000104904600052050020030,385976241149352678726418395591867423472531869638249517263795184914683752857124936
605907080092150073400028000020043050100000007086000290000790041001306000700000568,615937482892154673473628915927843156154269837386571294268795341541386729739412568
018600005500074208002003400000095040307000000046002503024000061009080700100906030,418629375563174298792853416281395647357468129946712583824537961639281754175946832
009005060000002435200840009060000800004390020018600057400270000003009010756400300,149735268687912435235846179962157843574398621318624957491273586823569714756481392
624009003083600020905003001751020400000050900000006002800100064040300700200807005,624519873183674529975283641751928436362451987498736152837195264549362718216847395
620000008078000513001900600400009800005010030003645020002501080006730009050006470,624153798978462513531978642417329865265817934893645127742591386186734259359286471
670300008080006005059020010000010573002090480507008000043700201020100700000043069,674351928281976345359824617498612573132597486567438192843769251926185734715243869
026470005700000090048200030003096000407002300500084070004100600000005280309000107,926473815735861492148259736813796524497512368562384971284137659671945283359628147
400500680002190030009608007000030902605800000700402001080901026270000004030054100,417523689862197435359648217148735962625819743793462851584971326271386594936254178
010079800620010700807006400009028000030500062050007100500900080400153009060004201,315479826624815793897236415149628537738541962256397148571962384482153679963784251
840000107060802094000050060080006051000709030204001000600020000019007208020905076,845693127361872594792154863983246751156789432274531689637428915519367248428915376
008300194009026703304008002200174800780002905000000000053009600000060079000083050,628357194519426783374918562295174836781632945436895217153749628842561379967283451
208047009040001002000000063810003070009008205070960040690020018584090000100075000,238647159946531782751289463812453976469718235375962841697324518584196327123875694
010530002700600034000007900000043275004018006093000008680179500040080000059002100,918534762725691834436827951861943275574218396293756418682179543147385629359462187
020900080530001940700836020904300000176080000000107650010000007002000300390025810,621954783538271946749836521954362178176589432283147659815493267462718395397625814
100093580040065070000100002000030064069780300500009700402800603078000201950001800,127493586843265179695178432781532964269784315534619728412857693378946251956321847
070020005008003001290158600050400060706000290140309000900501040080040300003906070,371624985568793421294158637859472163736815294142369758927531846685247319413986572
002001004010002750408076000060030005000419602093800100000094080650000070800603901,572981364916342758438576219164237895785419632293865147321794586659128473847653921
960001482003952100700000000008500000200040700350010008000007065190085040080630090,965371482843952176721468539678523914219846753354719628432197865196285347587634291
073080015600103090000900028507300100094005800002004079040508700010600083006020004,973482615628153497451967328587396142194275836362814579249538761715649283836721954
076030802008400573100000000600020045090008100300759006009062000502800000800071309,476935812928416573153287694687123945295648137341759286719362458532894761864571329
730000420008097003010800950897506000045200010260040800000350200100704006050009031,739165428528497163614832957897516342345278619261943875976351284183724596452689731
050003170700000004409602500008000640100005302560200700380009000024700001001030209,852943176736581924419672583298317645147865392563294718385129467924756831671438259
008006027900804100073000400160405030000398010005160000000002360830000509090700002,418536927926874153573219486169425738247398615385167294754982361832641579691753842
500020341000800020010090006904201083070008500600500094300480015260070000001003009,589726341436815927712394856954261783173948562628537194397482615265179438841653279
800096300092010005006802000000700001050049706301200000107908000000050847000430020,814596372792314685536872914469783251258149736371265498147928563923651847685437129
002004806805062009000007030900120703006708204000050010600093080108600927040000005,392514876875362149461987532984126753516738294723459618657293481138645927249871365
000347092040050070006008010070805004450002006208400100000000820501006003380209007,815347692942651378736928415179865234453192786268473159697534821521786943384219567
302000850060000140900304000450900301000170900070060002200040607790800000005002430,342617859567289143981354726456928371823175964179463582238541697794836215615792438
340200080000096004057000326005170000028500090430000670060089500109000042000702003,346257189812396754957841326695174238728563491431928675263489517179635842584712963
900200060060709002501300980200684000736020090005070100300001074048060230090000005,974258361863719542521346987219684753736125498485973126352891674148567239697432815
003102709000050000020607015007820060050009048600010903010204000098300054406000807,563142789174958632829637415947823561351769248682415973715284396298376154436591827
401057006896000040000400020700300609602040108000015004260038000038000900905201700,421857396896123547573496821714382659652749138389615274267938415138574962945261783
100030075007010462640000000005360801930080000800700240400658300000001507098070000,182436975357819462649527138725364891934182756816795243471658329263941587598273614
000456030071090020600000040005004080807300905090001003304709008012008700080200060,928456137471893526653127849135974682847362915296581473364719258512638794789245361
070010080000200100409506207000800029203005706091700500300002900005904000007150403,572319684836247195419586237754861329283495716691723548348672951165934872927158463
010000004003059280508070060075000020042580703900030000800020901600004800250700340,719862534463159287528473169375941628142586793986237415834625971697314852251798346
040706029008000457092015000000500700186004005900021630400002860030000001805030040,543786129618293457792415386324569718186374295957821634471952863239648571865137942
120306700000002083098000640010040200479600000800735000045000006006509031700800009,124386795657492183398157642513948267479621358862735914945213876286579431731864529
009608470400090350000000009090800001006210080080300527801000060040037100057006204,319658472428791356765423819293875641576214983184369527831942765642537198957186234
200000491917060305000008000000800009035900007080310264604001020050070008090230050,268753491917462385543198672126847539435926817789315264674581923352679148891234756
071435008203000006040080700002790060090050300854000002017600029065300000900010040,671435298283971456549286731132794865796852314854163972317648529465329187928517643
008070401100302070000009800700543002006800005430000790901000006040020050027056930,398675421164382579572419863789543612216897345435261798951734286643928157827156934
050086200000090000300072948710065080030900700406000032870000004125008006009001070,957486213284193657361572948712365489538924761496817532873659124125748396649231875
100090056040081000970005008031004795000000380029007001008009030005640010407300200,182793456546281973973465128631824795754916382829537641268179534395642817417358269
500200003782064090001000000000028006293010400040500017400750300600100058307900002,564291873782364591931875624175428936293617485846539217418752369629143758357986142
004620500670800009000034010001700050906043802080500300230000008500019704000060290,194627583673851429825934617341782956956143872782596341239475168568219734417368295
070100000608472090419000050300000700040018002000905860700380900501600083002090000,273159648658472391419863257385246719946718532127935864764381925591627483832594176
485092600000004507091003000000050046070000130963040250000921000056000901300070082,485792613632814597791563824128359746574286139963147258847921365256438971319675482
528070000000800004700902006007009530400103600060250100210008073009000000035094080,528476319396815724741932856187649532452183697963257148214568973879321465635794281
920073040304000060080000001470020580000000403068500290012040008040057600700209050,921673845354812769687495321473921586295768413168534297512346978849157632736289154
380009205079000016006500300400010709010038040200075030005003008700054020000600407,384169275579342816126587394453216789617938542298475631945723168761854923832691457
090251060640970800001000720700010000009000248300680100000304007050760000008020093,897251364642973851531846729785412936169537248324689175216394587953768412478125693
020005709083000050006009410050086070090120080400007600030010002200370140800050390,124865739983741256576239418352486971697123584418597623735914862269378145841652397
010370005978006040050080160780240009200900031600750000000024010090005006103000084,416372895978516342352489167781243659245968731639751428567824913894135276123697584
609028750003000918400000000000587001082010603000036000020003047034190005001050090,619328754273645918458971236396587421582419673147236589925863147734192865861754392
060040500000301002912500070780060000009008004540200300870013040000607910005800600,368742591457391862912586473783465129629138754541279386876913245234657918195824637
907010500603084020021000706009023400080001002000470080200006893100500200490000070,947612538653784921821359746569823417784961352312475689275146893138597264496238175
040520000600010008500008390090003742058000030200706501020407600001060470000105029,843529167679314258512678394196853742758241936234796581925487613381962475467135829
000608030001520904705000060090002000603054002007009803086900300300000041250017000,942678135861523974735491268598732416613854792427169853186945327379286541254317689
410006000000107805005090062200000000806000597940300010120078003064020000700540900,418256379692137845375894162251789634836412597947365218129678453564923781783541926
090284010400500007236901000605090000000000941070438602020600709003000004001007500,597284316418563297236971485645192873382756941179438652824615739753829164961347528
790000080002900060031028040800096120005010004103507000004080053600001200070005009,796154382482973561531628947847396125965812734123547896214789653659431278378265419
680003790407058600050020400023605900004090003800000001300800009060010520009004000,682143795437958612951726438123685947574291863896437251345862179768319524219574386
000972500000030700040005060018700290570001004302008600203010407000020080009850103,631972548825436719947185362418763295576291834392548671283619457154327986769854123
260905013000007900004210050070300100000189000005004080910076530008000062700803400,267945813581637924394218657879352146643189275125764389912476538438591762756823491
