006831050000070900420900008057600041390080025010000000030200060001004200008065709,976831452185472936423956178857629341394187625612543897739218564561794283248365719
300062004040000607090150080100300026700009400005200810006008040020600003503007900,358762194241983657697154382189345726762819435435276819976538241824691573513427968
500946800026300500038000740007021000000008004205400100603500001190000370700090020,571946832426387519938215746847621953319758264265439187683572491192864375754193628
002008600600509340348170000135000007000000096000285000017040200090002403000600085,952438671671529348348176952135964827284317596769285134517843269896752413423691785
580600000071020003009000605008340160006009402702080000000970241304005970000018030,583691724671524893429837615958342167136759482742186359865973241314265978297418536
900216008003080406050090700560001040081670050309400002200500003000800170004003080,947216538123785496856394721562931847481672359379458612218547963635829174794163285
050000030009600100002037004040076900001000682300890057010503020070064005068020001,657418239439652178182937564845276913791345682326891457914583726273164895568729341
002489000340100060005730090600354020000008001200000645097600100080002407003001050,762489513349125768815736294671354829954268371238917645597643182186592437423871956
080000900360014705020860001030700042900002008410380600500407003670050090000900100,184573926369214785725869431836791542957642318412385679591427863673158294248936157
305000090480201607060080400603040105042190080000007009020708063000000700501604020,315476892489251637267983451693842175742195386158367249924718563836529714571634928
040650807809010000000023094038000040420190500001006020200000006056700030170904005,342659817869417352715823694638275149427198563591346728284531976956782431173964285
030056008904000050006320000350007206000001090700204310010000709403890001860705002,137456928924178653586329174351987246642531897798264315215643789473892561869715432
900000020503090640068005300097008004300206001200140008000000076400053000610700590,941367825523891647768425319197538264384276951256149738835912476479653182612784593
160800400003007000200406091001000020006940008870001503000503002080709000900200810,167892435493157286258436791541378629326945178879621543714583962682719354935264817
090008700307006208060903010000060004250001300900704580070000853008000000143500072,495218736317456298862973415781365924254891367936724581679142853528637149143589672
003500894000320710008007600060004970010080050089060020045200300270600009000051000,723516894694328715158497632562134978317982456489765123845279361271643589936851247
100040068004070900070320500750009301003000000090800250600000083320601000015400007,132945768584176932976328514758269341263514879491837256649752183327681495815493627
007300264302006000000800107020603000510009070800450309060100095700024000931000800,187395264342716958695842137429673581513289476876451329264138795758924613931567842
000024008140906007300010050072590003900068001006000020050400082087030900003105046,765324198148956237329817654872591463934268571516743829651479382487632915293185746
000000900000318045560700801080070109009456000627000030300820706206000050000001490,841562973972318645563794821485273169139456287627189534394825716216947358758631492
500008703120900080030016040703850096400007050000360100000000004009700860050431002,596248713124973685837516249713852496462197358985364127271689534349725861658431972
306170045081000090400802003200604709100000300050300012000790020040030080000058607,326179845781543296495862173238614759174925368659387412863791524547236981912458637
820000004076100200900008001000600820580709000040050000300570060000036087100004950,821367594476195238935428671719643825582719346643852719398571462254936187167284953
504720003070050190300009500000038204180000700000960030009270410201805006006400908,594721683678354192312689547967138254183542769425967831839276415241895376756413928
700000080451600230000030195640000009000960000007012400006000050503700800090208006,739125684451689237268437195642873519315964728987512463876341952523796841194258376
000030050806000704700650192043970520200100000605800400019000380000094007070300600,921437856856219734734658192143976528287145963695823471419762385368594217572381649
920046000318520006050300908473090000800000600005007403000034002246050010001000870,927846135318529746654371928473695281892413657165287493789134562246758319531962874
070040603200000075000380020986005400000030500000001082501720048093060000007409010,178542693234916875659387124986275431712834569345691782561723948493168257827459316
000705920000080007060109305006000502504600800090032010210040090000201640003078000,381765924952483167467129385136894572524617839798532416215346798879251643643978251
310600000000019600504002079800700006020000010907005204000084050003500902402091007,319657428278419635564832179841723596625948713937165284796284351183576942452391867
046850900900010500005402008560000780090084020000730000080109006700203004021000007,246857931978316542135492678564921783397684125812735469483179256759263814621548397
970200008350040600000008510802006300045100207030090005000600100020009084710050020,971265438358941672264738519892576341645183297137492865489627153526319784713854926
000009000069410703420038100000520004047090002500000086000000400700300008390640057,173269845869415723425738169981526374647893512532174986256987431714352698398641257
806000075730000492020104000000800960512007300098410000000036720400090000063000080,846329175731685492925174836374852961512967348698413257189536724457298613263741589
570000080200900000004832000001009020300064700907280104030000200050640039180005607,573416982218957463694832571841579326325164798967283154436798215752641839189325647
000002506000094021280530700005001000700900800630000109050060973090020040803470000,349712586576894321281536794925681437714953862638247159452168973197325648863479215
000600000000901205900083700032790050485000000001406800010000032048010007370240901,157624398863971245924583716632798154485132679791456823519867432248319567376245981
306004801500230000740008006600800025007400900030509040000027010018300700005600094,326794851581236479749158236694873125157462983832519647463927518918345762275681394
300001090206049085005020140400073010008000200000958063700060000980000056600107034,374581692216749385895326147469273518538614279127958463743865921981432756652197834
010084307000006805306501090007030024205900080001000906078010200090743000600009040,519284367724396815386571492967138524245967183831452976478615239192743658653829741
020003600508700200370100080015600004006052100700410009603800090240900000089004053,921583647568749231374126985815697324496352178732418569653871492247935816189264753
000400095040060208108300600006009000020001703470580006905204100607005400200170500,762418395543967218198352674356729841829641753471583926985234167617895432234176589
700050301050080000600904020409037200060000907080200510906700003025016400100008000,798652341254183796631974825419537268562841937387269514946725183825316479173498652
090004021053008070170652000980370100005000000430001608000260910700080040000095800,896734521253918476174652389982376154615849732437521698548267913769183245321495867
100063400073400096000080500096002000025100008080745000002009035030500081009070260,158963472273451896964287513496832157725196348381745629842619735637524981519378264
400001057603580000002090403700002801368100009000340005000000926090870000510600070,489231657673584192152796483745962831368157249921348765837415926296873514514629378
950000400006001200070904006010047008290150000003800060024080710000720830500003090,951268473436571289872934156615347928298156347743892561324689715169725834587413692
000350008508020900000006004710090040400200000080007365003705096007000000021630507,174359628568421973392876154716593842435268719289147365843715296657982431921634587
004020500710060003980001024200600010600054080493800006030500968000130000000009002,364928571712465893985371624258693417671254389493817256137542968829136745546789132
020000940005702800106054300008040506040076002030005090800010400000063070752000010,327681945495732861186954327278149536549376182631825794863217459914563278752498613
048200060000801203090000040370605020000007001025009800080030007916072000004060950,148293765657841293293756148371685429869427531425319876582934617916572384734168952
030008400005600820100090073060700530204009000073000010082406009750000006900125000,637218495495637821128594673869741532214359768573862914382476159751983246946125387
520000001300690805000000090840703900200006083070005020037010000006204010050807300,529478631314692875768351492841723956295146783673985124437519268986234517152867349
080002900002190300340005206230008001960010705000700060810200509700306080000000004,185632947672194358349875216237568491968413725451729863816247539794356182523981674
201050830000102005406809000000208000040307061039064700590000100000040023007000056,271456839983172645456839217765218394842397561139564782594623178618745923327981456
620000507978530460030000010300108079000073200046900080010750040800000000500406120,621894537978531462435267918352148679189673254746925381213759846864312795597486123
010050704000602000030810690000005423000490060051030070070020500890000000620741800,216359784948672351537814692769185423382497165451236978173928546894563217625741839
600001800301050004000270005209500000050340076046089003003700168000900007410008200,675491832321856794984273615239567481158342976746189523593724168862915347417638259
500008000009004073060920405900010700080003012140700060003001054750602900000300800,574138296829564173361927485935216748687493512142785369293871654758642931416359827
001500007650000020043008010000700006802100579305690004000250000910004300006370408,281536947659417823743928615194785236862143579375692184438259761917864352526371498
203005810080900607050000000001400706400013020305296000000307048709001200006020003,293675814184932657657184392921458736468713529375296481512367948739841265846529173
603085100700001002000640003007000050000823000481000200900000080028930075340710609,693285147754391862812647593237164958569823714481579236976452381128936475345718629
000400307040000010560070820900702001003600080408010009800260050075809000031000060,182456397347928516569173824956782431713694285428315679894261753675839142231547968
309000610050000748841000500900370020006012080005600430000540360408700000010020000,379854612652193748841267593984375126736412985125689437297548361468731259513926874
000105200640009010000024007100800603904003072008070500000000700205040030810650009,739165284642789315581324967157892643964513872328476591496231758275948136813657429
500003701004900860060010290306100007000000050041207900280035000093020004000860002,529683741134972865768514293356198427972346158841257936287435619693721584415869372
006070000900020605030900800560040000087002106100058034209036008300715200000000047,826571493914823675735964821563147982487392156192658734279436518348715269651289347
000200000006370140580409720607005090049012000005000806000080071030090400004103600,473251968296378145581469723617835294849612537325947816962584371138796452754123689
075008020000100640008923100080000000409060003063705004500481007300070901007200050,175648329932157648648923175781394562459862713263715894596481237324576981817239456
069000800000609007003810040710020000005930002000080065020001070006750230080490016,469273851851649327273815649718526493645937182932184765524361978196758234387492516
000345070907100406230000080040002500012400069879010003365080020000607091000000008,186345972957128436234769185643892517512473869879516243365981724428657391791234658
070401002902050400080090035630710500400900760000080010700020806210006300000503009,375461982962358471184297635638712594421935768597684213753129846219846357846573129
910250070000300685000060001001007002068000540057400300009813000070000200004902036,916258473742391685835764921491537862368129547257486319629813754173645298584972136
000005000050630070180402960895000031010000004300860029000090013600520000074083000,762915348459638172183472965895247631216359784347861529528796413631524897974183256
600097308039400700100600020001526070008004000305008046804001930250000010000050200,642197358539482761187635429491526873768314592325978146874261935253849617916753284
018703000305004081790000050000120003547600000000000560600970100004008920820040630,418753296365294781792816354986125473547639812231487569653972148174368925829541637
000460800760100250300005001400300000207008609090710005050070016100050908930020040,521467893768139254349285761485396172217548639693712485852974316174653928936821547
300000247000043608605080301020930500007400080094705100001506000700001002269000000,318659247972143658645287391126938574537412986894765123481526739753891462269374815
042006005500403860700210000020080300100900708080001506930708001005632007004000600,342896175591473862768215439629587314153964728487321596936748251815632947274159683
060000023725000060000096047890520010541030800003080609007405001000970000034010090,469758123725341968318296547896527314541639872273184659987465231152973486634812795
040000300809007052032190670900000065458200001070310080620040000000080000007052903,741526398869437152532198674913874265458269731276315489625943817394781526187652943
003001740020960000009057063000600010108000500240085030400000095367090002090018000,653821749724963851819457263975632418138749526246185937481276395367594182592318674
680041000000000500205980700510402096000000023804006150400065310000700004009830200,687541932931627548245983761513472896796158423824396157478265319352719684169834275
300097800000010705090400060000009004647200001020800530800001000450020600103050407,316597842284316795795482163538169274647235981921874536872641359459723618163958427
000080092063900400100450708002060070004708100900000800038006040000320605570090000,745681392863972451129453768382169574654738129917245836238516947491327685576894213
084032009700100360002007800007020001640700035500048000003010920000000040019460500,184632759795184362362957814937526481648791235521348697473815926856279143219463578
020004006000501089408007310007205048006043000001960270705800000032000501900000000,129384756673521489458697312397215648286743195541968273715836924832479561964152837
390100745650387000002004080009000210871003000030000009120000050500870692000045007,398162745654387921712594386469758213871923564235416879127639458543871692986245137
100082007050794600800000230040530190000070000280006500700450306063000910009010008,196382457352794681874165239647538192935271864281946573718459326463827915529613748
070209000000800103300100798035060004490301000000004087720000046900050200051403000,178239465549876123362145798835762914497381652216594387723918546984657231651423879
046500008300047602700036100070200005004390010861700003015000400000902007090080200,146529378389147652752836194973261845524398716861754923215673489438912567697485231
040170080013004020700600009821050070065009030000082000080030240500060700902508100,249175386613894527758623419821356974465719832397482651186937245534261798972548163
000178230020009000500600804310000907007090040460002001600045070180030060090006580,946178235823459716571623894318564927257391648469782351632845179185937462794216583
000160705030004800680005490920000000000780140107600300003020000079030001510040680,294168735735294816681375492928413567356782149147659328863521974479836251512947683
080025360460800010307000809504007000013060400020003791000200000009401605805090070,981725364462839517357614829594187236713962458628543791176258943239471685845396172
007530010040000028900600000800009560032070004100000072590310000000087006026054080,267538419345791628981642735874129563632875194159463872598316247413287956726954381
978530010300017082000604000010060040400000307060209008004001970037005006250800000,978532614346917582521684793815763249492158367763249158684321975137495826259876431
050000001183000000400008576607003480020006090900207000300082057040300900001650020,756924831183765249492138576617593482524816793938247615369482157245371968871659324
200060008831040007007901502060305940000670083420000000000257060390400005000009100,259763418831542697647981532768325941915674283423198756184257369392416875576839124
020013900006007580100460307650000210000540000870631000400020050509000860000908704,725813946346297581198465327654789213913542678872631495487326159539174862261958734
