026100000005300162700400005083097004900500080600032710090080350400005071000010208,326158497845379162719426835183697524972541683654832719291784356438265971567913248
580070003000009040604280000870600420200091000005804009160300050907100800032050070,581476293723519648694283517879635421246791385315824769168347952957162834432958176
100098706040700103030020080000800902200160070005039400517002390009540008600000000,152398746948756123736421589461875932293164875875239461517682394329547618684913257
008004610004708002701052400083040005500086200020000009060090024000100073907000500,258934617694718352731652498183249765579386241426571839365897124842165973917423586
003906250000300091006024008270038100900005040060000020050000006000010487438070000,713986254842357691596124378275438169981265743364791825157842936629513487438679512
460570080023094070005103000006300012902050003080006900000830200109027068050000700,461572389823694175795183426576349812912758643384216957647835291139427568258961734
300900005040608002702030900001005003090002400600004258214073060580000700903840000,368927145149658372752431986421785693895362417637194258214573869586219734973846521
009000200810020549000700083280067050604050008100032004030905000720003100050000006,369584217817326549542791683283467951674159328195832764436915872728643195951278436
010643000900005000040900517064109800870000109090020003100078025050030080200000360,715643298928715436643982517364159872872364159591827643136478925459236781287591364
060037209703002410000409006420700060057600080009054100100200607000810500540003000,864137259793562418215489736421798365357621984689354172138245697972816543546973821
080009700073080062051000049100420090062050000500060084006200008009746530000031000,284619753973584162651372849138427695462958317597163284316295478829746531745831926
109580000200906047004070005900067030340051060020800400730000009600000210015020083,179584326253916847864372195981467532347251968526893471732148659698735214415629783
034600002050004070601080300500700001020300600086401059702000905003106007000000810,934617582258934176671582394549768231127395648386421759712843965893156427465279813
900200530001904280050000700600500410000080067234010009710000020068701040400069000,946278531371954286852136794687593412195482367234617859719345628568721943423869175
000823060700090040000007501072140009908000004103600208010306090800075300035000702,451823967726591843389467521572148639968732154143659278217386495894275316635914782
670504090005027003000680000009800072301006000400090560908075100140009850002000400,673514298815927643294683715569841372321756984487392561938475126146239857752168439
819050000400030260000000000300107002590064700006000984005680401920700030081300070,819256347457931268263478195348197652592864713176523984735689421924715836681342579
000650003000000092014003080046370000028100040097802510050004260902018700003009000,289651473635487192714923685146375928528196347397842516851734269962518734473269851
070090302000001400002600051590067080120008070000130045310576800840000000006300900,471895362635721498982643751594267183123458679768139245319576824847912536256384917
007800510402000703000009000009506000800093407010070020370001260065000190080204305,637842519492615783158739642749526831826193457513478926374951268265387194981264375
060070000001800204020103058307080400005000061010500709400007830000200906009306010,568472193931865274724193658397681425845729361612534789456917832173258946289346517
900040102300106090850700400602000817098000045000000320000900000010803560746002003,967348152324156798851729436632495817198237645475681329583964271219873564746512983
502001030000760100006900087190840020025017409004050001300000000009003608740028500,572481936983762154416935287197846325825317469634259871368594712259173648741628593
000005302000264900059080040040000009010058700800030065027000600603071080004092030,468915372731264958259387146345726819916458723872139465527843691693571284184692537
004001806009060050208003100107204030090000004006390580080170063002000010370045900,534721896719468352268953147157284639893516274426397581985172463642839715371645928
700004650008601320009080040200050130540210980070049000600890000130007002004000500,712934658458671329369582741296758134543216987871349265627895413135467892984123576
000703980078000204340000000429000005150060000007900400000125308005890600090634700,512743986978516234346289517429378165153462879687951423764125398235897641891634752
040000907705300160000190200030008400004562081000000076001870050307900820000246000,142685937795324168683197245536718492974562381218439576421873659367951824859246713
200030048005407096300500107120900000008006003503000910000080400784105200000009070,279631548815427396346598127127953684498216753563874912931782465784165239652349871
500000400007463200600001907006090805020300000419705000904007001001624503000500080,532978416197463258648251937376192845825346179419785362954837621781624593263519784
800019000103720040600000509209067004004500070060300000507001008010200903030406027,845619732193725846672843519259167384384592671761384295527931468416278953938456127
000000010002407800400250030079016024001005903630904087000109050016802000087060000,753698412162437895498251736879316524241785963635924187324179658516842379987563241
075001006400200039301080000050908001002740390600052080100060450506400007003010020,275391846468275139391684572754938261812746395639152784127869453586423917943517628
400300090000060002008201600500010008872900054301005700090650307000403016007092800,426387591713569482958241673569714238872936154341825769194658327285473916637192845
050000007091020000400610032060800040002007015100049003536092780020000090700408500,253984167691723458478615932367851249942367815185249673536192784824576391719438526
500000704600098020081500006070084502028007000400103009043000017200439000050070900,592316784634798125781542396179684532328957461465123879943865217217439658856271943
010867005090000001800050302602500030000003026705200840006485000400030700308601900,213867495597324681864159372642598137189743526735216849976485213451932768328671954
400000000000740602760508109009200030102409080580001020370060400900007003010350800,425196378891743652763528149649285731132479586587631924378962415954817263216354897
004500080090024310030809065000063049500080230060200001000106720700050000041902000,614537982895624317237819465182763549579481236463295871958146723726358194341972658
307000060500030210024580700700008050103070008000043620890052400006004039005900000,317429865589736214624581793742698351163275948958143627891352476276814539435967182
004500637300090150005001090006030000702048009830209006000070400087005020100906008,914582637368794152275361894496137285752648319831259746529873461687415923143926578
080000240600905701700040500920036400007001003061800007009000000210078300530609008,185367249642985731793142586928736415457291863361854927879413652216578394534629178
000500000700009231030106089100000900840000067000705402070008604569002000002037000,918523746756849231234176589127364958845291367693785412371958624569412873482637195
200901700730600905400200610102008090900740500006310040005406003090005080000030100,268951734731684925459273618142568397983742561576319842815496273397125486624837159
400000000008502301070698200500000002001900400309007065010700040080103006705020098,452371689698542371173698254567834912821965437349217865216789543984153726735426198
000900306062001040900200057008120000047000908030074060001068200504093000000500730,415987326762351849983246157658129473247635918139874562371468295524793681896512734
210080069008070001930000500600102750700840000490003026000060302004910080005004010,217385469548679231936421578683192754752846193491753826179568342324917685865234917
009700001000009280830002006050040000600058007402076003506000042020403710003100090,269784531175639284834512976357241869691358427482976153516897342928463715743125698
810650004074008906000030800020000480009180002760000501200090300307020050050400100,813659274574218936692734815125967483439185762768342591281596347347821659956473128
006704380503000006090050200830015009402000050001082600075208000004100070600003041,216794385543821796798356214837615429462937158951482637175248963384169572629573841
010084600600000050075030009004000070038120904050076200100900300800250096003060000,319584627682719453475632819264398571738125964951476238126947385847253196593861742
080006029070950304100320500005600070200040000069072080406001097000004003750030601,583416729672958314194327568845693172217845936369172485436581297921764853758239641
030010040408703026506000900005600710200800000900170084007590068084000050009004301,732916845498753126516428937845639712271845693963172584327591468184367259659284371
903050014050600008800001000000304000275006803080700691000400307020007060007810052,963258714751643928842971536196384275275196843384725691519462387428537169637819452
600010540090807000531060020019004200320180070400000350072300160006900000000005807,687213549294857613531469728719534286325186974468792351972348165856971432143625897
687400100041000230902700600000315400000902073008000000010009000406500020270008369,687423195541896237932751648729315486164982573358674912813269754496537821275148369
074058960800000100090602040031080590760109420000400000208070053000040000310506700,174358962826794135593612847431287596765139428982465371248971653657843219319526784
030207010420100500000060800801003059690040037045700206000035000084010000250806900,938257614426189573517364892871623459692548137345791286169435728784912365253876941
004060301109000025080509670205430000000700060030821049610050000000002710420083000,574268391169374825382519674295436187841795263736821549618957432953642718427183956
000004002900030058701900600006475000105002000070180093047260080038009015000003040,863514972924637158751928634396475821185392467472186593547261389638749215219853746
016007300000039082000840005640900020075000804903052701507000008000016900129000030,816527349754639182392841675641978523275163894983452761567394218438216957129785436
600207003008040700930058020100004607005120000400300009001069000570082130860000504,654217983218943765937658421123894657795126348486375219341569872579482136862731594
002000310800050000009843050621000000790300060503700400000006782370085940000910006,452679318837152694169843257621594873794328165583761429915436782376285941248917536
600000019038000000700593400460302180502014000003000070000086507200900000100045690,645728319938461752721593468469372185572814936813659274394186527256937841187245693
210490058047006302900050007358900040060080029000000001820004100105200074070030000,213497658547816392986352417358921746461783529792645831829574163135268974674139285
060408005007020009003070008509004070102530400680000050000953002010200000900841360,261498735857326149493175628539684271172539486684712953746953812318267594925841367
700680021000500000086230590000370080200010050104006079057000410043000768002048000,795684321321597846486231597569372184278419653134856279857963412943125768612748935
060901300000070005000530410109042060300160004008000250081007600904200580070309000,465921378813674925792538416159842763327165894648793251281457639934216587576389142
103002059000040000700803200005018003060057904000460081076005800300020600040900030,183672459629541378754893216495218763861357924237469581976135842318724695542986137
001060800030000079975030001003928010782000006500400000020087930000050060600001024,241769853836145279975832641463928517782513496519476382124687935397254168658391724
002048071070020000034001050900003108061072009000060004010905600048000302706000800,652348971179526483834791256927453168461872539385169724213985647548617392796234815
000200000569000807300060001842500070900003006100000500003900000000041380278030019,781259634569314827324867951842596173957183246136472598413928765695741382278635419
020300080067040009009501740700006030000010908006203501900400026080097003340005000,124379685567842319839561742718956234253714968496283571975438126682197453341625897
060008095050640002930100700006020507083007100002080034000305900070010806100090000,261738495857649312934152768416923587583467129792581634628375941379214856145896273
249065001800009006000102005003020800701806950450003000007000100600790040000008302,249365781815479236376182495963527814721846953458913627587234169632791548194658372
235000900000000100000870053100290704809604000006053000008305012004000608060401079,235146987987532146641879253153298764879614325426753891798365412514927638362481579
035490280040700000007105930680000040409370062001000003002001506070002400800650000,135496287948723651267185934683219745459378162721564893392841576576932418814657329
100800706030960005805000030007000003000201500050630490400500007070100289602009100,129853746734962815865714932917485623346291578258637491491528367573146289682379154
300002051004080000596100070900700003000050062742001095631070084080430600000000029,378692451124587936596143278965728143813954762742361895631279584289435617457816329
700100090030850401086000007024000009903070506000306120000020005008430000402005078,745162893239857461186943257624581739913274586857396124361728945578439612492615378
005600204010090000060004380879040000004900560001237008700025690500081002030000070,985673214413892756267154389879546123324918567651237948748325691596781432132469875
150340008003006001006190700600900503010000040075080200007200300900750006820004900,152347698793826451486195732648972513219563847375481269567219384934758126821634975
850006203009507100006200400700610000090020805041030000007050368000400090020008740,854196273239547186176283459782615934693724815541839627417952368368471592925368741
070080610003004009020967580300008961000510300800603400000790000090040002467200000,975382614683154279124967583352478961746519328819623457238795146591846732467231895
796300200003090400020001007500000900004100006001006832300405000002007108109628500,796354281813792465425861397568273914234189756971546832387415629652937148149628573
000045000079800310230100006060010020000789500015002083408600902701900040600000078,186345297579826314234197856867513429342789561915462783458671932721938645693254178
400200970000198200205000030000009013810076020000320500009037800170080060060400005,481253976637198254295764138752849613813576429946321587529637841174985362368412795
000098500002070006068500030300900002580041003400705090000067001040103089010420600,134698527952374816768512934371986452589241763426735198295867341647153289813429675
806140070300002500004080600050734210708200000010050093060000000047009800100003942,826145379371962584594387621659734218738291465412856793963428157247519836185673942
602003500090007240500060001470950060100002780080100903034000020900800010760305000,612483579398517246547269831473958162159632784286174953834791625925846317761325498
001600028006020730850034000030007269700012000080305040040093802000008076900500010,371659428496821735852734691135487269764912583289365147647193852513248976928576314
070105200004032900010000608080290010000050760360701005000083007049000300005604080,978165234654832971213479658587296413491358762362741895126983547849517326735624189
002010000060050308318007054000800002804073091705100040006409000170000029050000603,542318967967254318318967254691845732824673591735192846286439175173586429459721683
030600050100030408702005906007060000925000010083400270068053100000000092504017800,839624751156739428742185936417562389925378614683491275268953147371846592594217863
608700019000000300010409207070256100380000000052890064730010802425070000000905000,648732519297581346513469287974256138386147925152893764739614852425378691861925473
000605027090020400608900010412003800005040070300508000860400192200009000040130650,134685927597321486628974513412793865985246371376518249863457192251869734749132658
040000003200300187700025600600002730108700950500084060007208005950010000402090000,849671523265349187731825649694152738128736954573984261317268495956413872482597316
006400095009100203070508006350870040001050038900000000000002860407001059000030120,816423795549167283273598416352879641761254938984316572135942867427681359698735124
000270600014005080006084250800046009030000860070910002100520700000007140950000000,583279614214635987796184253821346579439752861675918432148523796362897145957461328
087200054090000860500103709600030002804001030000407500050600308002900610000004007,387296154291745863546183729615839472874521936923467581759612348432978615168354297
