300020004700536001089100020006007439070010802800600050400300000028049005100005706,361928574742536981589174623216857439975413862834692157457361298628749315193285746
078016020130900580009005600405090008000600010000207403062009000314000007900320800,578416329136972584249835671425193768783654912691287453862749135314568297957321846
800106000010700050640090001000251690900400035007830020284000570790008002003000460,875126943319784256642395781438251697921467835567839124284613579796548312153972468
800010090500086007007209006080000041905703600026001300000060030370020504090305002,862517493539486217147239856783652941915743628426891375258164739371928564694375182
004009035900000100865230007000914800320080090000500601040306018006470000070008002,714869235932745186865231947657914823321687594498523671249356718186472359573198462
009070204010005607043102000004007305080914000070000800600040589000020003050800160,569378214218495637743162958124687395385914726976253841632741589891526473457839162
034802100800060000702900300001400078560001002000205030308000005090048067040510090,634872159859163724712954386921436578563781942487295631378629415195348267246517893
600010058409200006281000000007092500092040010800070030005304700300500680000960000,673419258459238176281756493137892564592643817846175932965384721314527689728961345
030000002905800030280300659807009001001004960000000045000500280462170000300906070,736495812915862437284317659847659321521734968693281745179543286462178593358926174
300700800010360005056820094008910042469000080020000500000008720003004001905130060,392745816814369275756821394538917642469253187127486539641598723283674951975132468
000930086300004000000082140430000705100045920090627004270000000000806000548010097,724931586381564279659782143432198765167345928895627314276459831913876452548213697
400603000010850790500040002823570600000230100007000800009700006040910230600004007,472693581316852794598147362823571649964238175157469823239785416745916238681324957
704060003630010249000800000060000051080036070412900000095074810000608004000520300,754269183638715249921843765367482951589136472412957638295374816173698524846521397
700600009800571003206004100090000824000035900074080015901000000002056041050002000,715623489849571263236894157593167824128435976674289315961748532382956741457312698
000005023001600708008079004100956040025480010790100600062700000340000892000030500,476815923931642758258379164183956247625487319794123685562798431347561892819234576
480000200000040017003106905500800472270504006010900030060008001090327080000000300,481759263956243817723186945539861472278534196614972538362498751195327684847615329
085000047000006300000700061090003104200100080008409005056037002030504906710900803,685391247471256398329748561597683124243175689168429735956837412832514976714962853
200500080906034000000078402500060008023000710010007509700001050004600300805040690,247516983986234175351978462579163248423859716618427539762391854194685327835742691
900106500073020100060030020009300701052860043800004000016400070200005008080009465,928146537473528196165937824649352781752861943831794652516483279294675318387219465
300070092070054080650200000902381005000000360107600000003002810040907200006500430,314876592279154683658293174962381745485729361137645928593462817841937256726518439
900006002726010000841070093430000010000050087000102509070009000094300068100840030,953486172726913854841275693435798216219654387687132549378569421594321768162847935
420600903000805600501900208000080041057000000030510002706002300980450107000030090,428671953379825614561943278692387541157264839834519762746192385983456127215738496
080041070105007009003520006000405030000070000094803200300200091702090800610008405,986341572125687349473529186267415938831972654594863217348256791752194863619738425
760000809000802006003406720050000370804500012019020008040237600000009000031040050,762315849495872136183496725256981374874563912319724568548237691627159483931648257
901040628708300000500902000007001040203050009056020010000000071000864300040075200,931547628728316954564982137897631542213458769456729813685293471172864395349175286
280000060070051304400926100600090080000200001053748000017030059000400007009500210,281374965976851324435926178624195783798263541153748692817632459562419837349587216
090008040041930007008020305075000006210009000006017280000600030007082109603400502,392758641541936827768124395875243916214869753936517284129675438457382169683491572
071400900000063000450800002540300001000908006006002795830017029000000010020500063,671425938298763154453891672549376281712958346386142795834617529965234817127589463
900004162700018503000050004090027056650800000003000900408705010360100820010006030,985374162742618593136952784891427356654893271273561948428735619367149825519286437
560090007307120050090500340001000200209430800854006900700005013000700006010040020,562394187347128659198567342631859274279431865854276931726985413483712596915643728
000300706005008040420600810063070080089000205500021039012004000000063094000090500,891342756635718942427659813263975481189436275574821639912584367758263194346197528
904020600061050080000300790010048002308000400079102005100580020650700038003060000,934827651761459283285316794516948372328675419479132865147583926652794138893261547
640001007000700080100200306362400900000009000400580070070053000800020010590006204,648391527923765481157248396362417958785639142419582673274153869836924715591876234
300100642092008051006007080105200300700090006000843000020305009004000560600080007,378159642492638751516427983185276394743591826269843175827365419934712568651984237
041060900003000002860501004006002090920400017100085040500000300074009680008710000,241367958753894162869521734486172593925436817137985246512648379374259681698713425
002300580600080000000057031040900063108000027079102000580030610000700090030026405,712394586653281749894657231245978163168543927379162854587439612426715398931826475
590720040400000809068500000050830004130050607002010500200306400000071038700490002,591728346427163859368549721956837214134952687872614593219386475645271938783495162
000400500030018209900023801080090000163000070040072086006080325050601000700000004,821469537635718249974523861287196453163854972549372186416987325352641798798235614
071008300402500700900060080000100972065000008000480030030042190800090604290070050,671928345482513769953764281348156972765239418129487536536842197817395624294671853
380060192002700065500080400100950006000008200639100000704520003053804070090001000,387465192942713865561289437128957346475638219639142758714526983253894671896371524
000020005600750430002009700070003080185040900009010240006005029500800100017430608,731624895698751432452389716274963581185247963369518247846175329523896174917432658
000920078001006900600350400270040003008700200300190067040000521003000000102005046,435921678721486935689357412276548193918763254354192867847639521563214789192875346
000023901027415060600000400000067000308009000206080704010854002050900007009100030,584623971927415863631798425145267389378549216296381754713854692852936147469172538
600030048105000900004008702260090075500402080043100090000000000050704600709086130,672931548185247963934658712261893475597462381843175296416329857358714629729586134
000900724100005000000632008080049053700000000243081006360000802059200140410007030,536918724128475369974632518681749253795326481243581976367154892859263147412897635
965100407100002000302000560090050000217000003400290180040870090030400008006003040,965138427174562839382749561698351274217684953453297186541876392739425618826913745
100008042003091008045006700000900050650020073309060421901500630000080100400300005,196758342723491568845236719214973856658124973379865421981542637532687194467319285
002003090800601400010090067000027300607054002009000800120400009304760000000302050,762543198895671423413298567581927346637854912249136875126485739354769281978312654
156089002200075400008000006020100005003062090490038600305000008010300700904001500,156489372239675481748213956627194835583762194491538627365947218812356749974821563
510000002670010084900436007352000800800970200000000010180004506090005340000009008,514897632673512984928436157352641879841973265769258413187324596296785341435169728
208790106000803000009000400100000048500302907807014600002907050000000702406050091,248795136651843279739126485123679548564382917897514623312967854985431762476258391
200000600083005079700068130100204060009071000020080504036040000000916800004300790,241793685683125479795468132158234967469571328327689514936847251572916843814352796
900003001760000400350170000000000005208009017070286000500048000090020060016050043,982463751761895432354172986639714825248539617175286394523648179497321568816957243
015904300300000008000070109000000906090230750078560004450601020801002000002050407,715984362349126578286375149523417986694238751178569234457691823831742695962853417
020809010006050390070406002600003001030000879400120050005040030180600407900007000,524839716816752394379416582658973241231564879497128653765241938183695427942387165
093010600160000004400890035000761050005080700030005800027904000006000300010050982,593412678168573294472896135289761453645389721731245869827934516956128347314657982
100800079503006100000094060000000300027500000809203005751060000600007840004010006,146835279593726184278194563415689327327541698869273415751468932632957841984312756
000725040750009102039600008000001209080500604617400080001006800093070000006240500,168725943754389162239614758345861279982537614617492385421956837593178426876243591
000100905970840100004060003108506020230001097000000501040708006006953000800020000,682137945973845162514269873198576324235481697467392581349718256726953418851624739
005100097670020503009080002000063000890540000704002609050070086002300100100094030,245136897678429513319785462521963748896547321734812659453271986962358174187694235
340802001080001000009000620100506900803200400050030007000910050005708096700460203,346892571287651349519347628174586932863279415952134867628913754435728196791465283
000100800009026107350000090502000009030740060010805300090063070800004002704008605,276159843489326157351487296542631789938742561617895324195263478863574912724918635
200630087508042006900000200006701090830506400005020000600000300081003020002109075,214635987578942136963817254426781593837596412195324768659278341781453629342169875
089000610100890000030005400047502008003000002500603090004206137201700054000080000,489327615156894273732165489947512368613978542528643791894256137261739854375481926
050009804039070520006015300017060002804000030000802090200350901040000060600100700,752639814139478526486215379917563482824791635365842197278356941541987263693124758
509002030004060200000070500405000710208090006306001048002783005100005674900100800,569812437734569281821374569495638712218497356376251948642783195183925674957146823
000530760008060009000080024020479000009006470500800001081300005245000900307240106,912534768458762319763981524126479853839156472574823691681397245245618937397245186
006014800900600005030090001010780029600003507040001080500007038020860900074200000,756314892981672345432598761315786429698423517247951683569147238123865974874239156
005820000000076980490030000200000600030981072047050301004500000980360500601094007,765829143123476985498135726219743658536981472847652391374518269982367514651294837
000800000310067002080132790000603240020010006090004015045089160007350000009006800,972845631314967582586132794751693248423518976698274315245789163867351429139426857
900400380800100005060000409632700001001620500000090700580030072020850040379200600,915462387843179265267583419632745891791628534458391726584936172126857943379214658
070500401260009057000460008000005002008601030010040090091208600040090700005730000,879523461264819357153467928436985172928671534517342896791258643342196785685734219
000607300009520107046003020103900000204081009000000508020109040008050000060240750,512697384839524167746813925183965472254781639697432518325179846478356291961248753
007009230002460800400503016040000002500806000703010405809000300035200040060071090,657189234312467859498523716946735182521846973783912465879654321135298647264371598
000096503005800604100400070209001400300000780086720109000042856020000000510030090,847296513935817624162453978279381465351964782486725139793142856628579341514638297
005000000090300780087015290140250070000008026360400000050890100020060907006703004,235987641691342785487615293148256379579138426362479518753894162824561937916723854
004076309100000720500890010000037800000005160623000070092040506810000400070583000,284176359169354728537892614951637842748925163623418975392741586815269437476583291
097000006100700400300921800051470098708250000000006053800040907004030010205100004,597384126182765439346921875651473298738259641429816753813542967974638512265197384
002090001760400230800003704304010000100905060050042008000008390590720800001000047,432597681765481239819263754374816925128975463956342178647158392593724816281639547
600980002050031400002600910070090000360000804004560320700000051801007600500029030,613984572957231486482675913278493165365712894194568327739846251821357649546129738
906000087020300000073060540005140000830005004010903706709000060200058130000400208,946512387528374691173869542695147823837625914412983756789231465264758139351496278
500830010860002000037015240040080159000406000283000070010967030059000400600004080,524839716861742395937615248746283159195476823283591674418967532359128467672354981
087200096409000002200130000710408000300076010050010809070020503000000048806900720,187245396439687152265139487712498635398576214654312879971824563523761948846953721
100624007008500090000079301005010070390000054240000603060007130000096000573040002,139624587728531496456879321685413279391762854247985613964257138812396745573148962
008007400360200000002900081700800123913000500005060000081046090000010005400329006,198657432364281759572934681746895123913472568825163974281546397639718245457329816
092030500004000036010805002008060207050001040000927003075002008603008900020600471,792136584584279136316845792938564217257381649461927853175492368643718925829653471
240000006301002000800047000000650007030804010960700450602009804007430009000018005,249185376371962548856347291124653987735894612968721453612579834587436129493218765
009000000801067050200408900490026510000305640700000003000700301308040090006001082,649253178831967254257418936493826517182375649765194823524789361318642795976531482
503904070010060008800000536041000020602450310009100000070510000006003907400209800,563984172217365498894721536341698725682457319759132684978516243126843957435279861
001700800089600005700309001630004020017060040025000906002500430800203709590000010,361725894289641375754389261638954127917862543425137986172596438846213759593478612
058700300930400780400000096870000030600100240001020007000098000005670029020304670,258769314936415782417832596872546931693187245541923867764298153385671429129354678
000006500407530060500900024000020003106800000084170009350060180000017200790208040,829746531417532968563981724975624813136895472284173659352469187648317295791258346
900200706400003008051064030090030800012009000807000500070015000069040210003070460,938251746426793158751864932695437821312589674847126593274615389569348217183972465
193700080240001035700620000060504170008070000300080029000009610059200803401000000,193745286246891735785623491962534178518972364374186529837459612659217843421368957
010090073603500402800000600700803040000050000200614530004001760008200090350047108,512496873693578412847132659765823941431759286289614537924381765178265394356947128
605700009000030050871005006580010000002870100010009403067900034304008520000000601,635784219429631758871295346583416972942873165716529483167952834394168527258347691
000040083830001060070200095000157000318900020607000940000000600105082400042710008,521649783839571264476238195294157836318964527657823941783495612165382479942716358
600900281002045003073080006060000000497230000000700802300400608800091504005020010,654973281182645793973182456268514937497238165531769842319457628826391574745826319
000380100080001409043000000070098060016050007004006250000507820302000700060030094,629384175587621439143975682275498361816253947934716258491567823352849716768132594
900000008410570006203800400600002170002000030840093050007060041000938007560100200,956324718418579326273816495635482179792651834841793652387265941124938567569147283
