040090030006140020708502001009270400000009500600013078027000190005600000403081000,241796835536148729798532641189275463374869512652413978827354196915627384463981257
000015906004000010030907004090000502287040000040390180870100369000603005500800070,728415936954236718136987254391768542287541693645392187872154369419673825563829471
050001064009005800760030090802400000010026300640910002007509003230107600500040080,358291764429675831761834295872453916915726348643918572187569423234187659596342187
006050020019403700200800904740008005005000009300061800670100508023000000100940300,486759123519423786237816954741298635865374219392561847674132598923685471158947362
360002009009080705008060030706900280000076301500204000600003020090000140031408600,367542819429381765158769432716935284942876351583214976674193528895627143231458697
520840100019070643060009800000003000007612900158000000340000501000050280000021409,523846197819275643764139825296583714437612958158497362342968571971354286685721439
010046205030000008020080710400090007200510900086000103507900080000004001060237004,819746235735129468624385719451693827273518946986472153547961382392854671168237594
603001800000040001070209050390020507400060012001803006200480000810097003005000940,643751829952648731178239654396124587487965312521873496239486175814597263765312948
230740000000300069014000200006970085305008002000013007520600000400059000708030010,239746851857321469614895273146972385375468192982513647521687934463159728798234516
000040730560090041402100006030060590810207000005083007008004600700020010190006350,981642735563798241472135986237461598819257463645983127328514679756329814194876352
978000005020540901000000070001805002000030016452070030007026000000908300530004090,978163425623547981145289673361895742789432516452671839897326154214958367536714298
470091802002000134003050007100806900200019560008700040000008709050140000600003020,476391852592687134813254697145826973237419568968735241324568719759142386681973425
030200710150004020900860000400030065873040090000000000210008304009705200006000051,634259718158374629927861543492137865873546192561982437215698374349715286786423951
000562940007001205040800000080009001060230090000400853004073160230000000901005030,318562947697341285542897316483759621165238794729416853854973162236184579971625438
037008010002400500500072093013049008600010020209005370860700000004091000000003802,437958216192436587586172493713249658658317924249685371865724139324891765971563842
030900785000000002100840000500090317002760809890005200080000036400512900700300000,634921785978653142125847693546298317312764859897135264281479536463512978759386421
090806300005079060800400001006025037020093054001700900300000072109064003080500000,297816345415379268863452791946125837728693154531748926354981672179264583682537419
060000098105047200038000010940005000000600750027030004051078032000200806400903100,764312598195847263238596417946785321813624759527139684651478932379251846482963175
500190400209000160703002000005273840020008000004060570001306000006580030400700058,568197423249835167713642985195273846627458319384961572851326794976584231432719658
086059000400030007307010600010900700000063041930400802700682109501000080062000004,186759423429836517357214698614928735278563941935471862743682159591347286862195374
407000862801500097000760000012000005304810000680049000020300640000980070003070210,457193862861524397239768154912637485374815926685249731728351649146982573593476218
003060150950300000807010403006040090018052070400070501000001802002007365604080000,243768159951324786867519423576143298318952674429876531795631842182497365634285917
420001098009020703806000000001809045730004000900530270010005000500007634080690100,423761598159428763876953412261879345735214986948536271617345829592187634384692157
713500090000070400060219080108005360000008072034060009020001007300800501590002030,713584296982673415465219783178925364659438172234167859826351947347896521591742638
060840003008001700020600040780304001002050067000090300205000098049067030601500004,967842513458931726123675849786324951392158467514796382275413698849267135631589274
900000540050710600387400002036007298700108000500002060000030879400905000020000300,961823547254719683387456912136547298792168435548392761615234879473985126829671354
430096850026007000090500100060100502107008000004060003000730900612400300009050008,431296857526817439798543126963174582157328694284965713845732961612489375379651248
820014600006007402000000059000706200050000080079502041410609000000020073030108900,825914637396857412741263859183746295254391786679582341417639528968425173532178964
001000080800406305070080200090053810007004000560090020040900100302100900008605034,431572689829416375675389241294753816187264593563891427746938152352147968918625734
040900320609500080010040009584603000027008000300000001900800703070205900803009450,745981326639527184218346579584613297127498635396752841952864713471235968863179452
026087300013000098400005006000904005008016070750000400070009210800000040200603507,926187354513462798487395126162974835348516972759238461674859213835721649291643587
200407030600008070000130006005000983304020650060075200580006040072900001090084000,259467138631598472847132596725641983314829657968375214583216749472953861196784325
050040600307600040010000289000107020004035006780060005005080030009402107670009004,258941673397628541416573289563197428924835716781264395145786932839452167672319854
090460000574309200000058010017900300020670050800000006050020009002003480003040107,198462573574319268236758914617985342329674851845231796451827639762193485983546127
500300001000086400067021800094100070080900230003050040750209000000030900300078620,528394761931786452467521893294163578185947236673852149756219384842635917319478625
100600045702001063500002900400070000050096400069038070630500080020009000000013052,193687245742951863586342917418275396357196428269438571631524789825769134974813652
002800000500700432406100070030000501604001090089204003001030609020060050700000080,372845916518796432496123875237689541654371298189254763841537629923468157765912384
006740009090006034230100500067905200000080360308002045500300700000019000140020008,856743129791256834234198576467935281925481367318672945589364712672819453143527698
709081000002400600105960300050200000003070104400003058820700009910005032030000840,769381425382457691145962387658214973293578164471693258824736519916845732537129846
850400000000500607070100490080920100306008240490010050005030800730000002201075003,859467321124593687673182495587924136316758249492316758965231874738649512241875963
300010800865009004014600350000060020570400030020305670002700006051000090608190007,397514862865239714214678359183967425576421938429385671942753186751846293638192547
070020008801700023300140009105304000060010057730009040500260084090080600400005100,679523418841796523352148769125374896964812357738659241513267984297481635486935172
006010700000504006280900010007052408900001052000000003002106300300008945804300000,456813729719524836283967514137652498948731652625489173592146387361278945874395261
604015803010200056030048000508009000040072090906000718750006001009087004000030500,694715823817293456235648179578169342341872695926354718753426981169587234482931567
040006010200307008609020000010500073070230040005804029000013600806000700007090354,743986215251347968689125437412569873978231546365874129594713682836452791127698354
030070002007090150000402060010047090705160240008000301260009004854010007000350800,936571482427698153581432769312847695795163248648925371263789514854216937179354826
829000074010500000307090000092006801530029000406105300000068090075230010000000740,829613574614587932357492186792346851531829467486175329143768295975234618268951743
024900070500000900800621000006004529001000400070805600040030706008200035109070008,624953871513487962897621354386714529951362487472895613245138796768249135139576248
243008000506007900009000014000000040080156020095080760700042003000830006004609500,243918657516427938879365214621793845487156329395284761768542193952831476134679582
012900004005000079000040260300004085081650000009003627058002010607809000000760300,812976534465321879793548261376294185281657943549183627958432716637819452124765398
600000080347000610000003250400925800000300000062847030051206907706104000000090500,625419783347582619189673254413925876578361492962847135851236947796154328234798561
903060080720010000800000254009005362070400800002103005000300000206809040400050107,953264781724518936861937254149785362375426819682193475597341628216879543438652197
309060402060400050050017600700502086890001000004000703080020005102600090070039008,319865472267493851458217639731542986896371524524986713983724165142658397675139248
500710002020060010907003000700090840060027309400506000030100520080004007100850403,546718932328965714917243685752391846861427359493586271634179528285634197179852463
410809020000006890900030006600081070005700300780020405120050904003400001040007082,416879523352146897978235146634581279295764318781923465127658934863492751549317682
420360000000048901618000000100700600045180300030005090200004053000009020867002400,429361587573248961618957234182793645945186372736425198291674853354819726867532419
095200076001000080030046190900000010072130500000008403609403002007059040150007008,495281376761395284238746195943562817872134569516978423689413752327859641154627938
591600000080094602000000003005078920470000308000409010750000000003081500106023070,591632487387194652264857193615378924479215368832469715758946231923781546146523879
087300000000001590300420080061508004905007030000060200006702041800040700003090006,187359462624871593359426187261538974945217638738964215596782341812643759473195826
410000029080060030005809700160700000020030008009000512700002081640090350001047000,416573829987264135235819764168725943524931678379486512793652481642198357851347296
806005920270006504900401000010002073730094008400500002080017300090600005100000860,846735921271986534953421786519862473732194658468573192685217349397648215124359867
056037090000804070082010004105900008049020037000000010031040500008062040670300002,456237891913854276782619354165973428849521637327486915231748569598162743674395182
073100008490000502002458000009783040061000009300000700040900087020500196006001050,573192468498367512612458973259783641761245839384619725145926387827534196936871254
200050740094000100800300260570080000016090037300640090007205006640030010002009005,263951748794826153851374269579183624416592837328647591937215486645738912182469375
003006792609001800400075010700020003300490500280000047100600080050004601040300005,513846792679231854428975316794528163361497528285163947137652489952784631846319275
580040260109350080004060900090527300018000090300900400000004000000000637620103005,583749261169352784274861953496527318718436592352918476835674129941285637627193845
914000007000006000073050842000600015040300000280014079009080031061073900500009720,914832567852746193673951842397628415145397286286514379729485631461273958538169724
061070200039500001500020806900000100403607020085042030070903005004086900100004007,861479253239568741547321896926835174413697528785142639672913485354786912198254367
240600108091043027005000030028001700630780000009004506007008060010300090000059204,243697158891543627765812439528961743634785912179234586957428361412376895386159274
007000009000050100540070208490206000006018034010900806080601350059003000120400007,837162549962854173541379268498236715276518934315947826784691352659723481123485697
005800700809201400000049003108907200090000305007652800200100007070006901060024500,415863792839271456726549183158937264692418375347652819283195647574386921961724538
004500180060000003005149207090006058003080000400007910301020006050004700007891400,274563189169278543835149267792416358513982674486357912341725896958634721627891435
020000407704580309000300065830010000000709000602050070100600020509008640080140903,325961487764582319918374265837416592451729836692853174143695728579238641286147953
306000080025030900040008605100400507400603108700950003090000004000120000678305009,316594782825736941947218635163482597459673128782951463291867354534129876678345219
070048000005070246010500000090102605250900030003000009046090700031065098800007003,372648951985371246614529387498132675257986134163754829546893712731265498829417563
024015006030060090800003250702000008006109000041230600010057802600000007009004500,924715386135862794867493251792546138386179425541238679413957862658321947279684513
405017830300520060176900000000370100700008020092000400200001984018046000500030002,425617839389524761176983245654372198731498526892165473263751984918246357547839612
090564000302000500000070010040800120785000400900030006807100052010053007406020090,198564273372981564564372918643897125785216439921435786837149652219653847456728391
003080025090030087007600000004510068170040203020800040010204000082007401006090030,463781925291435687857629314934512768178946253625873149319254876582367491746198532
600028040300000906904070500086205003050060004100000000030102400001790005840300027,675928341328541976914673582486215793753869214192437658537182469261794835849356127
090070400014080020352901800600000390928105006040000000000203570007008600105009034,896372451714586923352941867671824395928135746543697182469213578237458619185769234
304000005500974060090010820000721030000600000269005000671080400000307008050000209,314862795528974361796513824485721936137698542269435187671289453942357618853146279
600070108708200050023400009400006830030100005205000907001785006000010003500902470,654379128798261354123458769417596832839127645265843917341785296972614583586932471
700906054401000082000010006500780000130000740002000009009278010308040000040130065,783926154461357982925814376594783621136592748872461539659278413318645297247139865
490100730500000896802306040001059000640270000700004009080400100030008020207003005,496185732513742896872396541321859674649271358758634219985427163134568927267913485
030075010000020084000000650074010800560080032200609001408900500009001740050002003,836475219795126384142398657974213865561784932283659471418937526329561748657842193
004902001960014005010360000020680050000053079700090300508700410036008200400000006,854972631963814725217365948329687154641253879785491362598726413136548297472139586
174500820009000006023900504090430001062005000000870690050040060000210740801000002,174563829589724316623981574798436251362195487415872693257349168936218745841657932
200000800908003106040019075007400080603050000000002607031080500060070090059036004,215647839978523146346819275527461983693758421184392657731984562462175398859236714
020180000900400300067000001010050090305020070084300600048071900206900800030006025,423187569951462387867593241612758493395624178784319652548271936276935814139846725
706300040090700800320001607080006000003089205264010700607002408010090003500000120,756328941491765832328941657985276314173489265264513789637152498812694573549837126
520090470000104600806002000007830060900051037038000009605000014203708050090600200,521396478379184625846572391457839162962451837138267549685923714213748956794615283
016090000200063140005007009080000094030610070502409801900800030054076002100002708,716294583298563147345187629681725394439618275572439861927851436854376912163942758
005000100008954006706080090000600205030802000900100073050007380207030601640200900,495726138318954726726381594874693215531872469962145873159467382287539641643218957
807900035030100987000000002090017500310000000405203600780056000040890010062030004,827964135634125987159378462298617543316549278475283691781456329543892716962731854
297000008506080040000005309009004762008300015400670090041002500703016000000008027,297143658536987241184265379319854762678329415452671893841792536723516984965438127
040600090507080010016907803003060057000008002900300600070000008830002100621005304,348621795597483216216957843183269457764518932952374681479136528835742169621895374
300070062047190000800063001000210050084009000010508096460300708053000140000020005,391875462647192583825463971936217854584639217712548396469351728253786149178924635
560009700200140300000006049000870034045000081090000207001430520820501000003760008,564389712289147365137256849612875934745923681398614257971438526826591473453762198
009002010600030280800510470070006100500020940000805002030700000007300594004098063,749682315615437289823519476372946158568123947491875632936754821287361594154298763
