090081007000607053105420000000105028821000700003060490500200600000904030208000510,396581247482697153175423986964175328821349765753862491539218674617954832248736519
009800305100920007030000040900007036058090001020060004400502108360070900500010070,279846315145923687836751249914287536658394721723165894497532168361478952582619473
080560010460080705090070200000006042000837000500104090209000650003002104007310008,782563419461289735395471286178956342924837561536124897219748653853692174647315928
050210000302000604470000950240008001008000097005430200063009005000860040900702308,659214873382597614471386952246978531138625497795431286863149725527863149914752368
007005320405709100020040050700204010081030000300008692000600009806000500910503740,197865324435729168628341957769254813281936475354178692543617289876492531912583746
006080700030070502020000490008907020000000015950306040200190600360005000719800003,496582731831479562527631498148957326673248915952316847285193674364725189719864253
080003009004005620610270048009067350201050007000000460438000010706400800090700000,582643179974815623613279548849167352261354987357928461438592716726431895195786234
090001702570690048000000030410059600028007000000430070060020309001080400240005060,693841752572693148184572936417259683328167594956438271865724319731986425249315867
000000167190806203003005008870650090005200400900071000501020080704009030030000614,458932167197846253623715948872654391315298476946371825561423789784169532239587614
003548900700060800041900056300000082905020000060070400010390020208000530000004719,623548971759162843841937256374659182985421367162873495417395628298716534536284719
200406015060053009040700200120009360008060700090871040712080000030905000500000024,273496815861253479945718236127549368458362791396871542712684953634925187589137624
000005490500403006006109008321080060060700050009000204070000910480030027002600003,137865492598423176246179538321584769864792351759316284673248915485931627912657843
207500000016020080300084000509300006000000004020615093001007029050960430038050100,287596341416723985395184672579348216163279854824615793641837529752961438938452167
020007059450830000306290104900000025007003640600008901802400500030006000094010070,128647359459831267376295184983164725217953648645728931862479513731586492594312876
000004000025389106000010598086000720002071060409006000030040000010057309068020075,891564237725389146643712598186495723352871964479236851537948612214657389968123475
430000209001650800087940000006001080200405600593260700004700051000830970070000000,435187269921653847687942135746391582218475693593268714864729351152834976379516428
010060800470000500200900036095206003001008000030040780000000004500790020983520010,319465872476832591258917436895276143741358269632149785127683954564791328983524617
070500063046001200100730009005018006200079030030000894520000070000000905087604000,879542163346981257152736489495318726268479531731265894524193678613827945987654312
000701000004230008180009200803000007906005002021960040030050690070012504400008700,362781459594236178187549236853124967946875312721963845238457691679312584415698723
000001607907060053050200490570094280801600000092003500000002300438500900000070001,384951627927468153156237498573194286841625739692783514719842365438516972265379841
705020010340108007000600900010007408603040100500800092009006084000009250130250700,795423816346198527821675943912567438683942175574831692259716384467389251138254769
010200000090000083006534920937002040200417060000009800000746500403000006805000710,314298657592671483786534921937862145258417369641359872129746538473185296865923714
008010600070045002005328000906000000200900305350064180004000910010000007069070428,428719653173645892695328741986531274241987365357264189734852916812496537569173428
903740060078090400000080509060900005004020800050003010201804630600000250400076900,923745168578691423146382579762918345314527896859463712291854637687139254435276981
030006102000010950000702004725400090060030800400907000007008060810540023249000001,534896172672314958198752634725481396961235847483967215357128469816549723249673581
900400703003006002600057498017060000840700106050009080100000050008203670002094000,985421763473986512621357498317862945849735126256149387134678259598213674762594831
070500320004008001096200008100360740600021030205900800000407000710600500008039060,871546329324798651596213478189365742647821935235974816962457183713682594458139267
004005030870140005026000091900000007030750002008093160010060049200030500465078000,194625738873149625526387491942816357631754982758293164317562849289431576465978213
628007040070006050001280003904608015050040320100050890000300900416000007700105000,628537149379416258541289673934628715857941326162753894285374961416892537793165482
076030800204700050850000960900862504000090601030001020701400000080210070009008305,176935842294786153853124967917862534542397681638541729761453298385219476429678315
900071604400680000007500231031009060860400753000000020720000300000800000340126090,953271684412683975687594231231759468869412753574368129728945316196837542345126897
300026980400000010906740200004032070050410000800000102290800450017050090000003600,371526984425389716986741235164932578752418369839675142293867451617254893548193627
060000041018760500072900030200690008045031602000020170609540300007000000300000905,963258741418763529572914836231697458745831692896425173689542317157389264324176985
020070010340520000005409800089063702070000000000780460000230680007001045650000300,928376514341528976765419823489163752276954138513782469194235687837691245652847391
702100305000040090080500200098600020300000010061053047003064001920010700005097080,742189365536742198189536274498671523357428619261953847873264951924815736615397482
052890360300500100090607000000064708208013600010700002500320001746000050003000890,452891367367542189891637524935264718278913645614758932589326471746189253123475896
900205804704080000030700009102060900008507040040810600006004702010090053000302160,961235874724981536835746219172463985698527341543819627386154792217698453459372168
600250304009000780400003051150470000008001500060082100000740003920018000307900006,681257394539164782472893651153479268298631547764582139815746923926318475347925816
002000500396700000500308097008600100100024035000009800060040700030010048905207010,782491563396752481514368297428635179179824635653179824861943752237516948945287316
000547300806000470000030010001023080020000004307689050060908500100050720054100090,912547368836291475475836219591423687628715934347689152263978541189354726754162893
002009016040070290050006470000080354020031907809400060001003805000094030078020000,782349516146578293953216478617982354524631987839457162491763825265894731378125649
700500200000073009164008000080040010090805630002009007800190300600207500020306804,739561248258473169164928753386742915497815632512639487875194326643287591921356874
800410005602780300040002009006100070709050400080030106025090030000200504137006800,873419265692785341541362789356124978719658423284937156425891637968273514137546892
720000560506000830000100009063081402004007000080390000010700603805009010000003940,721938564596472831348156729963581472154267398287394156419725683835649217672813945
009017300680000000001600540978306002000008004040502730395800071007000020260000095,459217386683459217721683549978346152532178964146592738395824671817965423264731895
210608300000047100500000060005010240300000807086009030604700005059380400002900010,217698354963547128548132769795813246321465897486279531634721985159386472872954613
703054006081000000090800520018006004200791600307000002040269073800040000002008091,723954186581672349496813527918326754254791638367485912145269873839147265672538491
009708000300016058005402000000600437200090160500047090803000001092071000070009306,169758243324916758785432619918625437247893165536147892853264971692371584471589326
720800060300417900050030800690000003084000205002901000000070010003058407006002509,721895364368417952459236871697524183184763295532981746245379618913658427876142539
057600100200400369090280400500090230001700008304006007002005091030070520060900800,457639182218457369693281475576198234921743658384526917842365791139874526765912843
002569003000470100700800095030005020180000046060300059671090000400000000000043012,812569473359472168746831295934685721185927346267314859671298534423156987598743612
070160280009002300160009050400008020215003600080700004300240005600015740000300102,573164289849572316162839457437658921215493678986721534391247865628915743754386192
000000904013789060027060380600100000030024005082093007008510000249300100075000008,856231974413789562927465381694157823731824695582693417368512749249378156175946238
000030000230600701070159400640500087007000903080200040009041208518000000004070600,491732865235684791876159432642593187157468923983217546769341258518926374324875619
007200030380001050000006781040005100090103670603000940900708002061054800005960000,157289436386471259429536781748695123592143678613827945934718562261354897875962314
050012640980000000004080309000100236001094500500008000830050902600000710020307054,753912648986743125214586379498175236361294587572638491837451962645829713129367854
009040000370100000560073002600009470003200109010000068257960300000301800008007005,829645731374192586561873942682519473743286159915734268257968314496351827138427695
000070600370106090052009080109800050700300920040012008005020070080093410006008005,891275643374186592652439187129867354768354921543912768435621879287593416916748235
700802310009003200800000504060000009200430050380015040103009000056070820400651070,745892316619543287832167594564728139291436758387915642173289465956374821428651973
165400900020000730000089006600120070000058009504600300090015060400030580003700001,165473928928561734347289156639124875271358649584697312792815463416932587853746291
004008002570030600000902001089003260700040000305076004600105908230090040001000700,194768352572431689863952471489513267726849513315276894647125938238697145951384726
003040800108050037040700026006090502500081000710005308090620000007000040802000960,273146859168952437945738126386497512529381674714265398491623785657819243832574961
016090050702000608408300290070635010000000004009201870005008040900400000240960300,316892457792514638458376291874635912123789564569241873635128749987453126241967385
036040120000030009400982500894003607005410000120008000008001704700000093000025060,936547128582136479417982536894253617675419382123678945268391754751864293349725861
200090008000010490096350107007009012642000000050038600700040080021500003030600705,214796358573812496896354127387469512642175839159238674765943281421587963938621745
020080691000700030049002000900500100070300048005028006004201709003060400008904065,527483691861759234349612857986547123172396548435128976654231789793865412218974365
040027031000400800006003052300006900000050273090080040002175000031000009065209008,849527631253461897176893452324716985618954273597382146982175364731648529465239718
300127000700005600008040009530470200890001460001002093020908050640000008000050710,369127845714895632258346179536479281892531467471682593127968354645713928983254716
546302700010600500000800904080405007201000005007009680030006000060080042809007300,546392718918674523372851964683415297291768435457239681134526879765983142829147356
706040010000628000830500200050702109910080300004005082100900000407001036003000570,726349815541628793839517264658732149912486357374195682165973428487251936293864571
405230080090084307100000000007320406000009003208605001001002760006050098800010004,475231689692584317183967542917328456564179823238645971341892765726453198859716234
008900300001062048070010900520007160980300704100096000030205670000008005004100032,268954317391762548475813926523487169986321754147596283839245671712638495654179832
035108000870000003000209000501302004940016082080900060100704906703050400006000501,235178649879465213614239857561382794947516382382947165158724936793651428426893571
170080300006049082900750000002600574000021000400305008203000649005000100700902003,174286395536149782928753461312698574857421936469375218283517649695834127741962853
100200000304007008089400013560090070020000681700103509090520006000080400805074000,176238945354917268289456713561892374923745681748163529497521836612389457835674192
090073005400500009730060200000000126907050804001002900086040700300087040000901080,198273465462518379735469218853794126927156834641832957286345791319687542574921683
000010200700240508056800000487000390100700000009000640030060082010009750805020964,348915276791246538256873419487652391163794825529138647934567182612489753875321964
000050108430700090052000060025609870940002000000310400000930500008006710076104032,769253148431768295852491367125649873943872651687315429214937586398526714576184932
090601003008009060705340001001030948900002005076050000020005109143000080080000720,492671853318529467765348291251736948934812675876954312627485139143297586589163724
708023100001007800300090450080100002450000006002970530210060000009005070600430091,748523169591647823326891457983156742457382916162974538214769385839215674675438291
020045861005708400003090050054000290800069307307000006000803924000000000001472080,729345861165728439483691752654137298812569347397284516576813924248956173931472685
000018007506040000010902300087006050102050006090300082200405098004007001970600020,349518267526743819718962345487126953132859476695374182261435798854297631973681524
800560730700094000000000012904000081000107000053920600026000308080750004400300956,842561739731294865695873412974635281268147593153928647526419378389756124417382956
000264090069003405300050078000410080025700001010695037800000302001980000700000060,587264193169873425342159678973412586625738941418695237896547312231986754754321869
063907040100000700000186005032004006500200087040018530325000000004003108000060090,263957841158342769479186325832574916516239487947618532325891674694723158781465293
007948500300026400095700000070800060802600100050010084009003005200050001041007906,627948513318526497495731628174895362832674159956312784789163245263459871541287936
800905020003018006060700900700530009104090708056001400008040603040206010007000005,871965324293418576465723981782534169134692758956871432528147693349256817617389245
025604700001032050700100003970008000060000908004307060050020400406915200080000130,325684719691732854748159623972568341563241978814397562157823496436915287289476135
027300000306000001900070804802000009070096500040201300010800950035920070000035206,427318695386549721951672834862753419173496582549281367214867953635924178798135246
060000100023510040048600009800041000051309070000050302096082030080000004204930056,765294183923518647148673529832741965651329478479856312596482731387165294214937856
901000000000695204200004087125007300709030000004852100060003700003400006800201050,941728635378695214256314987125947368789136542634852179462583791513479826897261453
020730086508000001600045200205018700040500090100060302000400000731602900409050000,924731586578296431613845279295318764346527198187964352852479613731682945469153827
002609080008574030053100006960047002010000800000903405006702040040306709020080000,172639584698574231453128976965847312314265897287913465536792148841356729729481653
087300060009057400020060301050830290002074030014000807000090610900085000043000002,187342569639157428425968371756831294892574136314629857278493615961285743543716982
600408103003620004002050790058010240400000670907000050030002800009170002010065000,675498123193627584842351796358716249421539678967284351736942815589173462214865937
080507003270100006600000040402070135000002090016305000063900500000046019900800207,184567923279134856635289741492678135357412698816395472763921584528746319941853267
007512900090460000000000086370100000400007051800090024010970635005600002000003078,687512943593468217124739586372145869469827351851396724218974635735681492946253178
109070000080000600060340020000003170200890040500402809071059006043000210650000008,129675384384921657765348921498563172216897543537412869871259436943786215652134798
200645700097001008000900340600009071001406005509000280300052000018700004005100060,283645719497231658156978342632589471871426935549317286364852197918763524725194863
980006540700943600001008307000000201509032000300070000008000024430120005075009060,983716542752943618641258397867594231519832476324671859198365724436127985275489163
