000980310350002780007030600090250000080000009200810430400390206006004170501070000,642987315359162784817435692794253861183746529265819437478391256936524178521678943
834000200600010097000025000005280000000300106908674030791006800400030050000108604,834967215652813497179425368365281749247359186918674532791546823486732951523198674
700003004209000003030400180508200000120700039070004060300006821090015700406000090,781623954249581673635497182568239417124768539973154268357946821892315746416872395
050040006000900785109000032200009070700560000043010200080204063307008900500300010,852743196436921785179685432215439678798562341643817259981274563367158924524396817
090704030000060500061008002200301405057090081000800700005040690310005007074620008,592714836738269514461538972289371465657492381143856729825147693316985247974623158
620080790009200000500000036830052040900304020000070100065097000300061008107403009,623185794749236581518749236831652947976314825254978163465897312392561478187423659
740000000050800002106032700800000104000098300004706500400309060020050090601070803,742165938953847612186932745869523174517498326234716589475389261328651497691274853
210300650000041300008207009900080000061075040400006705009010080000800206057004030,214398657796541328538267419975482163361975842482136795629713584143859276857624931
000732400104590200005060089010200306000070002090003870030950100009401007860020005,986732451174598263325164789718245396643879512592613874437956128259481637861327945
900325000420000001000600800005007490800000700007180062030002005251070046004019030,918325674426798351573641829165237498842956713397184562739462185251873946684519237
700500400900607010538009600007000081280010000040002360312070800000903005090200040,761528439924637518538149672657394281283716954149852367312475896476983125895261743
240090600316000050000001070605043001800270030004805900900067000078050300100480020,247598613316724859589631274625943781891276435734815962952367148478152396163489527
900070100000560840060103009002600900004930580507080023400020001003800070050310060,945278136371569842268143759832657914614932587597481623486725391123896475759314268
394000050020053000600890007000308060007065014100002980900047130481000500000600002,394726851728153649615894327249318765837965214156472983962547138481239576573681492
600001003507000904000209080009507020000180705000903841801060039000000500472000060,698471253527638914314259687189547326243186795765923841851762439936814572472395168
008000070900001640002007003700400090405023080086090100050012000604508209007040018,568234971973851642142967853721486395495123786386795124859312467614578239237649518
000076048830200050062000900403805070100940000090007020609000301008510000040083007,915376248834291756762458913423865179187942635596137824659724381378519462241683597
200040007070500108830010920000098210010460700386001005604273000050904000000000000,261849537479532168835617924547398216912465783386721495694273851153984672728156349
003640801000750000001020049004500208800014073600203094400000127050030000786000000,273649851948751362561328749394576218825914673617283594439865127152437986786192435
407380000510097400000500908150260000080030240006000801020704500000020030901000760,497382615518697423362541978154268397789135246236479851623714589875926134941853762
020036000090800005103700608300000090016500000000900147260040700058007302700105800,825436971697812435143759628374281596916574283582963147261348759458697312739125864
005000396802100740090073100004000073000800600001026580020098001300750900060400050,715284396832169745496573128684915273253847619971326584527698431348751962169432857
300070000508021076000604100000006007100940308070800420809003040200050091006700805,361579284548321976792684153984236517125947368673815429859163742237458691416792835
020056040048170000597400006030802900076300010900010000084009700000080350005007290,123956847648173529597428136431862975876395412952714683284539761769281354315647298
960012000000003020100860470000004980042507600650000000210708000008150730035049001,967412358584973126123865479371624985842597613659381247216738594498156732735249861
580030014060920700090104002010000070820093500600005803900200000000006097147080056,582637914461928735793154682315862479824793561679415823956271348238546197147389256
009000617700208040001900005000841090860090000904500030007005480130072500420600300,289354617756218943341967825573841296862793154914526738697135482138472569425689371
090075020308690000450000100970800030010009600005000402000102806036050070002004900,691475328328691745457283169974826531213549687865317492749132856136958274582764913
809300020020060014000507803006039000000401000004800251140600300257040900093000005,879314526325968714461527893516239487782451639934876251148695372257143968693782145
004009025700001800000560003940023060000000300200007018600498700801070650003600009,364789125759231846182564973948123567517846392236957418625498731891372654473615289
504020000100056028072190000600009001000308007090200036018700400050000073027014900,564827319139456728872193654683579241241368597795241836918735462456982173327614985
040080070031004080208100630902003000003050400005890100000002067000546810090730000,649385271731624985258179634912463758873251496465897123584912367327546819196738542
670509000001003900590800024008100300246050007000047080007016250130000009900200708,674529831821463975593871624758192346246358197319647582487916253132785469965234718
820600010050000439079000080000370002640050100000210650065008790703025004001900000,824693517156782439379541286518376942642859173937214658265438791793125864481967325
073500100000020640560109070007006054052700000000000039046270001008900003190008400,273564198819327645564189372937816254452793816681452739346275981728941563195638427
021030000500600407480005060000803072900002040078019600310240005750006830090000000,621734589539681427487925361145863972963572148278419653316248795752196834894357216
060079500070300840105200000800030000041086090900002605000548013700000409003100060,364879521279351846185264937826935174541786392937412685692548713718623459453197268
200800060890050007031069004070300910004000020080026705159000000300042081000007603,245873169896451237731269854572384916614795328983126745159638472367942581428517693
002000900450000618090674500209530040500001009063080702000060037080002100010947000,632815974457293618891674523279536841548721369163489752925168437784352196316947285
000380750056070000080600029670490000004010002000003400307200085005060010010800670,421389756956172348783654129672498531534716892198523467367241985845967213219835674
010040200807090100435602900006100027500030480900574003004760301050003006000000090,619847235827395164435612978346189527571236489982574613294768351158923746763451892
170000008030165009059000300300600280002401000000003601095304002710050090600800074,176932458438165729259748316341697285562481937987523641895374162714256893623819574
700063040890100200006805130000540010600300009071680005200000700040008060000712380,715263948893174256426895137982547613654321879371689425238456791147938562569712384
080520000042800060600370009900105000056030070030400002000600751103200046004090080,389526417742819365615374829927185634456932178831467592298643751173258946564791283
690403005007090000000578109013000200950000706004010080035600020800042001006950400,691423875587196342342578169713865294958234716264719583435681927879342651126957438
005092010030700800670001054001000948008407600000200001390008705200306000506004020,845692317132745896679831254721563948958417632463289571394128765217356489586974123
490070050001450300086010020008002005107560080300091407000604810029000006000980003,493278651271456398586319724968742135147563982352891467735624819829137546614985273
090073056000290010000000004800030060560940103001000570036008020408010000157060900,294173856685294317713685294879531462562947183341826579936458721428719635157362948
001200080080030025006900173003006450720008000049050810500860000900120030070040009,391275684487631925256984173813796452725418396649352817532869741964127538178543269
100032089400500260073098040002000301605007900010243000000789500700050000089100600,156432789498571263273698145842965371635817924917243856364789512721356498589124637
000020530000001007000458200708000103032900006900040705300600001089035000060279040,891726534254391867673458219748562193532917486916843725327684951489135672165279348
025306000043020905910007000030000070000501800609042500150870009400900023007064000,825396417743128965916457382531689274274531896689742531152873649468915723397264158
010000000000751800049608000001403029207190060080060500600024050073009600050000043,815942376326751894749638215561483729237195468984267531698324157473519682152876943
109070000200050003054108070390007260045620000006500080017089604000000500980400300,139274856278956143654138972391847265845621739726593481517389624463712598982465317
300090501000036000000800700602050304015400002900701006006000190120574080738000040,384297561597136428261845739672958314815463972943721856456382197129574683738619245
004500100003007096080160024501090030000250078020043600300000041602008009057020000,964532187213487596785169324571896432436251978829743615398675241642318759157924863
900500400070020060812046700300000870650930100000207005200003004004010093500080610,936571428475829361812346759329154876657938142148267935261793584784615293593482617
370050002091083000000106490540008610603490020002000070000069050008002007059730006,376954182491283765825176493547328619613497528982615374734869251168542937259731846
086500370074000090290000006050402918000100064020098500009307841000001750003000000,186549372374286195295713486657432918938175264421698537569327841842961753713854629
040005102010600340300090850239480001860250900004006000027000630500071400083000000,648735192915628347372194856239487561861253974754916283127849635596371428483562719
100002000900730001700506240002060400060001038340057002000095080010400903008100067,154982376926734851783516249872369415569241738341857692237695184615478923498123567
504029003090600070000038064000040000607285000100000685208007140006050709300001200,564729813893614572721538964985146327637285491142973685258397146416852739379461258
000000507050048006208010304900800700370020010001030450804065000120900030096000208,413692587759348126268517394942851763375426819681739452834265971127984635596173248
041008029080002000070463005109600432000090070028005000600730080004050100000104306,341578629586912743972463815159687432463291578728345961615739284234856197897124356
000008050000729034231000090600400701004370000920680500308200000075010600100904008,749138256586729134231546897653492781814375962927681543398267415475813629162954378
735100400006004000002608079040280050150003080000900630020040806900750012300002000,735129468896574123412638579643287951159463287278915634527341896984756312361892745
000702300768003000050900084000040200903000010017008596004510002200000057800036009,149782365768453921352961784586149273923675418417328596694517832231894657875236149
004000001000197600000056703047000092010045380825000000060002004001908270580070060,674823951253197648198456723347681592916245387825739416769512834431968275582374169
005040030002609400038207001200803150100006070070900006000000500081002304360501900,695148732712639485438257691246873159159426873873915246927364518581792364364581927
009078002806003014030400790007610050350004000000002801008900300060001200420050069,549178632876293514132465798287619453351784926694532871718926345965341287423857169
900005030060297080700106042007012005305600004091400027230080000000300000084000610,912845736463297581758136942847912365325678194691453827236581479179364258584729613
070930081001000032002406000003820900400003500060009007019670000504200806700080105,675932481941758632382416759153827964497163528268549317819675243534291876726384195
250061370040300029000070000870003001090600500010892060400000002600089007130405080,258961374741358629963274815876543291392617548514892763489736152625189437137425986
060908042105000006400002370090800000008005023070614500000000700240500908806070031,763958142125347896489162375594823617618795423372614589931286754247531968856479231
010060070870950004003020900205609087080002160040700005000403020090000518006080300,519364872872951634463827951235619487987542163641738295158493726394276518726185349
807000200030800941000053006015400603000000072400069500200907300070042050004610800,867194235532876941149253786715428693986531472423769518251987364678342159394615827
000350800700142053605097000020700408870061900309500010006000007000028341040000200,412356879798142653635897124521739468874261935369584712286413597957628341143975286
960020003003607048804010000070000090002138007605009301100400760008900000200503109,967824513513697248824315976371256894492138657685749321139482765758961432246573189
470105006030007520206930008800609000003010059000080041025006000007090000040200130,478125396931867524256934718814659273763412859592783641125346987387591462649278135
007105030060080000094600085000412000000073190208000304300028069045000000600090517,827145936563289741194637285739412658456873192218956374371528469945761823682394517
000100080043060000205003600570940002031020047000008510002700400918004060760509003,697152384143867259285493671576941832831625947429378516352716498918234765764589123
060730400081620900005008206703080000010200600008904070009007502057140800000000091,962731458481625937375498216793586124514273689628914375139867542257149863846352791
004630710000009250108040600040060120701508000900700030086302900300096000520070040,294635718673189254158247693845963127731528469962714835486352971317496582529871346
001697000020150400097300600008005209930000064270003080300400100046080970010000002,451697328623158497897324615168745239935812764274963581382479156546281973719536842
001050306070042980904800000203100059497020030000000602580093200010680007000005060,821957346675342981934861725263178459497526138158439672586793214312684597749215863
001068070006910003080500040070000308054091200100032005820000050600300729007006001,531468972246917583789523146972645318354891267168732495823179654615384729497256831
040006008000140970702030045070300080000000501500892060006409120080060003400510090,945726318863145972712938645674351289298674531531892764356489127189267453427513896
000803972006100300000954080103006409950200608000000000087340000501790000320010540,415863972896127354732954186173586429954271638268439715687345291541792863329618547
065403800270000030400901007090038010000790480003060020940500000006000270021080509,165473892279856134438921657594238716612795483783164925947512368856349271321687549
004060005206985000900120380700009004015700200800400610620070100000008003309600050,184367925236985471957124386762819534415736298893452617628573149541298763379641852
040108000019000002508060400850016300030005067204007000000020930003701806100809500,342178695619543782578962413857216349931485267264397158785624931493751826126839574
900030508010690070402007100241000900000000680009705023705046030000300005860902004,976231548518694372432587196241863957357429681689715423725146839194378265863952714
670108023002060108050000400305009006400020590890600000000397004200000670010040805,674158923932764158158932467325419786467823591891675342586397214243581679719246835
004007000608350020370600040102000389450089067007206000800000100010092000005740608,524917836698354721371628945162475389453189267987236514849563172716892453235741698
010405002000000473702809060100000609800007020200308150390582000008060900076003000,613475892985126473742839561137254689859617324264398157391582746428761935576943218
005004209001020030020768400807200091200900000003085060008140006700003080060000357,685314279471529638329768415847236591256971843913485762538147926792653184164892357
700536200000980340050001600206108000470605000800003004620700910340002070010000008,784536291162987345953421687236148759471695832895273164628754913349812576517369428
001500002700080310005074000092738004000095006300600200870306500120400780040000009,981563472764982315235174968692738154417295836358641297879326541126459783543817629
000010700004697000020500060080706050400980207900003100007008094000005000150240308,693812745514697823728534961381726459465981237972453186237168594849375612156249378
794102800002607090010430050000910040035000000000074080870500100009008360003260900,794152836352687491618439257287915643435826719961374582876593124129748365543261978
