500260090690000400000071250080090704004058000000703100301020607078006003420500800,517264398692385471843971256185692734734158962269743185351829647978416523426537819
075010820002730016090005403850000640600098000003002905061800350000100090200004007,375416829482739516196285473859371642624598731713642985961827354547163298238954167
000003004420000600765080000600005430008100002502000070800037000130826057090040063,981653724423719685765482319619275438378164592542398176856937241134826957297541863
008020004010050300000004720000016200030000519050000068064005000900048035180930007,678321954412759386593864721849516273236487519751293468364175892927648135185932647
610049300080000005509200760400900070300180090060025008003057100702001040000430800,617549382284376915539218764428963571375184296961725438843657129752891643196432857
000800540800005092064000000000100830970003200200060701730020185140008006020950070,392816547817345692564297318456172839971583264283469751739624185145738926628951473
572000018080004900900000605003605001008240300001030740240800009015006070060702500,572369418186524937934187625423675891798241356651938742247853169815496273369712584
009341007200000008031870004700030926000014030085000000072000059000925040003460100,859341267247659318631872594714538926926714835385296471472183659168925743593467182
009804020000000007080063140170905030200310708000000506302508000094000002000407063,619874325423159687587263149176985234245316798938742516362598471794631852851427963
600208090039000000201500740005600170000049800000100329000004008003005010870030602,647218593539476281281593746395682174712349865468157329156724938923865417874931652
050600090000802600070145203209570408005000007060310000610203000408069500000000720,852637194341892675976145283239576418185924367764318952617253849428769531593481726
000820509078600040300009100800501020017006053002400000009070405086304200050000031,641823579978615342325749186863591724417286953592437618239178465186354297754962831
002003019074020500030104802960000080003701005705309004020000061006095207400000000,852673419174928536639154872961542783243781695785369124528437961316895247497216358
009207530100009000020064000008740060500300902340050018200000800065100093897000400,689217534154839627723564189918742365576381942342956718231495876465178293897623451
000090143508000600030067050045802000100004290600019000290005706060030024004700018,726598143518243679439167852945872361183654297672319485291485736867931524354726918
009002056087004100001530090306800010070009025000600000028053700090080000040701003,439172856587964132261538497356827914874319625912645378128453769793286541645791283
500100000049000038810079500600003704004080602000906010300600245070305080120090007,562138479749562138813479526681253794934781652257946813398617245476325981125894367
008003510000400970340500020170042360083701000200900000702060040095080006030090100,928673514561428973347519628179842365683751492254936781712365849495187236836294157
008004020000320000096005001000000380072060054450010709001072040300809605904500008,738194526145326897296785431619457382872963154453218769581672943327849615964531278
010350007700400205602100400007000506340009000000020098006005180000603052190008603,419352867783496215652187439927831546348569721561724398236975184874613952195248673
600084023408290005500000000070106300180047902000050040009010007030402000006809200,697584123418293675523761489974126358185347962362958741249615837831472596756839214
563000004000209750079000010002104005080030040904700206007000300400010080300085060,563871924148269753279543618632194875785632149914758236857426391496317582321985467
000709600502013000000260314049500200600000001083920007014000090207304008390008050,431789625562413879978265314749531286625847931183926547814652793257394168396178452
009120053300005602000809140500300000600007385800090460028000000046071008050004720,479126853381745692265839147514368279692417385837592461728653914946271538153984726
900030045500800300002014070100480600060005000800703090207000008000920761018040500,971236845546879312382514976139482657764195283825763194297651438453928761618347529
002000060301400007070000950000195003004036002000000070803004500700210400026053008,942587361351469287678321954267195843584736192139842675813674529795218436426953718
021040507400600030509000820090284300000000600078310005754009200000002008030750090,321948567487625139569173824695284371143597682278316945754869213916432758832751496
400700025009300060700045900001902054048067000003008016264010000080596001000000030,436789125859321467712645983671932854548167392923458716264813579387596241195274638
060100008900800743004927000080050060400030105102790000013500002705002800090004016,567143928921865743834927651389451267476238195152796384613589472745612839298374516
701000040060820503003047006006000005570290130124500000000182007900050680040700000,781635249469821573253947816396418725578296134124573968635182497917354682842769351
040050032800200600006034057290700060003000015000080900900540200057102000010867003,749658132835271649126934857294715368683429715571386924968543271357192486412867593
000050942000800000009207061901006050030000200786005094608010300207060008015740000,873651942162894537459237861921486753534179286786325194648912375297563418315748629
090006001078005240500020800003900060810004920200173000600508704000000305700410080,392846571178395246546721839453982167817654923269173458621538794984267315735419682
050200030090071280000009607001020056809107000030400800010360792306080014004005000,657248139493671285182539647741823956869157423235496871518364792376982514924715368
000001003089403072001800600037000506002054010000020904005609387073002000840000001,764291853589463172321875649437918526692354718158726934215649387973182465846537291
900030046001200850008004000407109080000500200160020079509470023200600700030080500,972835146341296857658714932427169385893547261165328479589471623214653798736982514
200001400508090160004630090907100503002050041000089200400507008061300000370008000,296871435538294167714635892947126583682753941153489276429567318861342759375918624
604830000000150607059024000002040016031000900400910800075008001000002309800000050,614837295328159647759624138982743516531286974467915823275398461146572389893461752
030000007400058230800200140008060092007019000054000800200036578100074000063500009,532641987491758236876293145318465792627819354954327861249136578185974623763582419
610037000008520006902000400050008100100702009084060305403800600000090570000600238,615437982348529716972186453259348167136752849784961325423875691861293574597614238
015200043600050080007039102160003000050180700304965000030007264800010000090002500,915278643623451987487639152168723495259184736374965821531897264842516379796342518
104086009003470600205000800000091084850730920020000070096003001010045702000060300,174586239983472615265319847637291584851734926429658173796823451318945762542167398
380270001002004000060891000205040970040030150790060038609007203100605740008000000,384276591912354867567891324235148976846739152791562438659417283123685749478923615
024900000080310607000000010058020000900086004302000065007045002496100300010009700,124967583589314627763258419658423971971586234342791865837645192496172358215839746
050060080001000903008007054709080000400106200000504010026008039083402075000009020,354961782271845963698327154719283546435176298862594317126758439983412675547639821
030605000092730401100020005000047390000801020048000600400050089086002000751309000,834615972592738461167924835615247398379861524248593617423156789986472153751389246
032068090009405008600100750070000904060280035053001000407300600090004020100079800,532768491719425368648193752271536984964287135853941276487352619396814527125679843
725000000006030100040260980000050018500800200090740030070380040300906007608001020,725198463986534172143267985432659718567813294891742536279385641314926857658471329
005004000601083500000010623080452009302060087090700000000006370410900002800001045,235694718671283594948517623786452139352169487194738256529846371413975862867321945
040009700300051080601200009572048300030000804000067090058100400100004050009730060,245689731397451682681273549572948316936512874814367295758196423163824957429735168
004310002270000001308076004000600900053001820106950430400003600000800050000597108,564319782279485361318276594847632915953741826126958437485123679791864253632597148
201008600030751004080000907600087320150006000300149700040065030009300046000000800,271498653936751284485623917694587321157236498328149765742865139819372546563914872
006800150000007240370005000800200700005960000009300518200000901531040860007026030,496832157158697243372415689843251796715968324629374518264583971531749862987126435
308000000000870904400002710104596000060040580002700000006100847000350106009407003,378914625621875934495632718184596372763241589952783461536129847247358196819467253
010040000305089206900207010050000069009051000740300500026930000000002008438600001,612543897375189246984267315853724169269851473741396582126938754597412638438675921
075063010403900008000072560020005000016080950800340070040700080080610002901020000,275863419463951728198472563724195836316287954859346271642739185587614392931528647
021450037030200960700000004008020000090635010045807002060740380000008050102090000,921456837834271965756389124618924573297635418345817692569742381473168259182593746
978003000000050760300000004630007902000001058002040001205108039007200500410600200,978463125124859763356712894631587942749321658582946371265178439897234516413695287
000350001600400090049200507002506000395087020000003810281000064000000702074090080,728359641653471298149268537812546379395187426467923815281735964936814752574692183
000079000051020030340008706627030001080000395000014000408602050006000089000500407,862379514751426938349158726627935841184267395935814672478692153516743289293581467
020000507800061400000703069270900004060000038005410200400007300019082000350090002,623849517897561423541723869278936154164275938935418276482657391719382645356194782
001000429000806300095000007006941080700000901080030042030082000607410500500609030,861357429472896315395124867256941783743268951189735642934582176627413598518679234
000047006029001004750360018037009001800030240000800050100250003290074000085000600,318947526629581734754362918537429861861735249942816357176258493293674185485193672
210600349005400000030800052000702900060030128400060007507010006020005010093000870,218657349975423681634891752351782964769534128482169537547318296826975413193246875
102009600500060108003050042031740960000805004050001000000004070360010020247000030,182479653574263198693158742831742965726895314459631287915324876368517429247986531
010002040005090783800653900000300100000879050400010360507000800081400029023560001,319782645265194783874653912752346198136879254498215367547921836681437529923568471
050004092602000700014200006000309108708060059000008070003020014800430600206700300,357614892682953741914287536425379168738162459169548273573826914891435627246791385
400009012030180600057320000010000800000653000920700450080007029590030004006200103,468579312239184675157326948615942837874653291923718456381467529592831764746295183
380600700020040051109208000000350910000724000076800040002000500001000498005060032,384615729627943851159278364248356917913724685576891243432189576761532498895467132
490500100200001030060728900020600781000980050073000604036100078000304000105000062,498536127257491836361728945529643781614987253873215694936152478782364519145879362
200000490008000300030040051004890507002050000070613920509160030600700000407209800,251376498948521376736948251364892517192457683875613924589164732623785149417239865
003900005078000610640200307702108500001040000500000960407090020250004080010730009,123976845978453612645281397792168534361549278584327961437895126259614783816732459
400000239002050400160009700030080020071600503005701900007320004080015600900408001,458167239792853416163249785639584127871692543245731968517326894384915672926478351
800003207401000000009802560000050073070400000108200094046010002300906008000070910,865193247421765389739842561294651873673489125158237694946518732317926458582374916
020318050601009000070060040004005092037000060000900301003156070080400205790280400,429318657651749823378562149814635792937821564562974381243156978186497235795283416
000006304008092100000450090201504908300870020004003670007080000052130007069000510,925716384748392156613458792271564938396871425584923671137685249452139867869247513
010002005048170200900860070200790004004206738800003910000507490060000020005040300,617932845348175269952864173231798654594216738876453912183527496469381527725649381
702601300009200000800009047000065009090000830540700102061030004385000710000080520,752641398439278651816359247123865479697412835548793162261537984385924716974186523
023000000708016050690800001230040900000001806007690004400062507000459108009000030,123574689748916253695823741236748915954231876817695324481362597372459168569187432
026003010009020650000080720070019400530000000801006000047005231000900500300742908,726593814489127653153684729672319485534278196891456372947865231268931547315742968
973002500000000000500961700090040080082100943007308602006000000040503810008074290,973482561861735429524961738395246187682157943417398652256819374749523816138674295
300000082004800910065000037406520090030007000098140006001070500000090040607081000,319754682724836915865219437476528193132967854598143276941372568283695741657481329
006080902010000040053720006000240008800609017307500000705000630002400005180006074,476183952218965743953724186591247368824639517367518429745892631632471895189356274
004008169000050304230900080097400250028500000500160700301027900060001070400000030,754238169819756324236914587197483256628579413543162798381627945965341872472895631
900700500800003092007060014109204376300051000004000008000010030000076900402500087,941728563865143792237965814159284376378651249624397158796812435583476921412539687
030170080800006000020030407000009300060800002050043710370590804012700050008062900,634175289897426135125938467781259346463817592259643718376591824912784653548362971
031905480070020503002010000000600020850090300043000601409750000700430206000108007,631975482974826513582314769197643825856291374243587691469752138718439256325168947
080070004070460250003105000905001800068040031010280400000900006002000007730620009,586372914179468253423195678945731862268549731317286495854917326692853147731624589
003109200002080070684500030059073004100008020800902560300000050760040000090206100,573169248912384675684527931259673814136458729847912563328791456761845392495236187
009002457401007086208500000800060320000894700067000500105200030342010900090000000,639182457451937286278546193814765329523894761967321548185279634342618975796453812
100687002000009800200000040000065094040800305003004610030090150056720000980030027,194687532375249861268153749817365294649812375523974618732498156456721983981536427
200005160030700008150620009000000573610800400007902000090100006300090840064270005,279385164436719258158624739982461573613857492547932681795148326321596847864273915
300080000000000094008471050600035019009708030000104206430020608250000000097006001,345982167712653894968471352684235719129768435573194286431529678256817943897346521
607040300040008192800395000260070041008000009500921008700204000003010050920000064,697142385345768192812395476269873541138456729574921638756284913483619257921537864
004000020026700815000003600000900000070060259013420000040100380002007006859600074,784516923326794815591283647265978431478361259913425768647159382132847596859632174
000016005600800407490002000070580206009300704203000010810907000040060103020005970,732416895651893427498752361174589236569321784283674519815937642947268153326145978
805102000609830040000907530900020807000601003520009000704000062010004700000200190,835142679679835241142967538961423857487651923523789416794518362216394785358276194
007905004010400285060030000780320016002000500040586007906074002400090173000800000,827915364319467285564238791785329416692741538143586927936174852458692173271853649
100002006030947000702600800060080947000120030500000602097500100000030080310094705,149852376836947251752613894261385947974126538583479612497568123625731489318294765
400010730090408012500600900300060000070020501056807000010500070000000089680930204,468219735793458612521673948342165897879324561156897423914582376235746189687931254
