460059200032000000095008007603070500020000000807143900000005700001300465070024018,468759231732461859195238647613972584924586173857143926346815792281397465579624318
100009320520370000400008000830200040060007100207064890089006005000902704000510006,176459328528371469493628571831295647964837152257164893389746215615982734742513986
000286090040030008000190070003005120520870030706900040601300080875400002002000609,357286491149537268268194573983645127524871936716923845691352784875469312432718659
012005000600180094007903500028500049040207603300040000200008060059600071103709000,912475836635182794487963512728536149541297683396841257274318965859624371163759428
050003870801060003004509001060700950020096100780000400500018006200970004900030700,652143879891267543374589621163724958425896137789351462537418296216975384948632715
051600080000004100000029050700000248026001500034008710940700600203506490000900003,451637982392854167687129354719365248826471539534298716948713625273586491165942873
000050006069304250002701908100230840300009100000800002403000709016408020075100000,831952476769384251542761938197236845328549167654817392483625719916478523275193684
090600208014300970800050010070064003009230000000705024520010080006000140003809007,795641238614382975832957416278164593459238761361795824527416389986573142143829657
005100020703658400910020030600704109500030007001009280058910004004070000000002860,845193726723658491916427538632784159589231647471569283258916374364875912197342865
230610000000028000740039806800040269000085041009700500980003017005004300023000004,238617495596428173741539826857341269362985741419762538984253617675194382123876954
040096000530040060000007012390100000008054790704320008809003500002000607650012004,241896375537241869986537412395178246128654793764329158879463521412985637653712984
060000009008050700019804250000700491000009000020100837340500160600042500082070003,465217389238956714719834256856723491173489625924165837347598162691342578582671943
010900027480001600005460300030005900874000003609040800020396001100080000903007506,316958427482731695795462318231875964874629153659143872528396741167584239943217586
803040051050086900700020006600000738020705000000010004300859010094160070001400003,863947251152386947749521386615294738428735169937618524376859412294163875581472693
045689000706035082010020050008200307000050014000007900300000006470010090060000231,245689173796135482813724659958241367627953814134867925381592746472316598569478231
200060004057208090000073800934600002600000007000510900503000008091000760072430100,289165374357248691146973825934687512615329487728514936563791248491852763872436159
400031680005920030800506200018370050090000001547000000001069800230800094000210006,429731685165928437873546219618374952392685741547192368751469823236857194984213576
058010203400706800901800400020100900000005076540003100000060508300078024090004030,758419263432756819961832457623187945189245376547693182274361598315978624896524731
069170804004800000010502030006905007008064910300020400900000703001030582000007000,269173854534896271817542639146985327728364915395721468952618743671439582483257196
040005000706300914010000803090704020103050076000001508267580000409002030000090700,348915267756328914912647853895764321123859476674231598267583149489172635531496782
080014500200000013000705069400002000507030004320609705000103600809050020034080001,986314572275968413143725869498572136567831294321649785752193648819456327634287951
087003004020000601130060890006350000000094020400800105002087060009540708010009500,687913254925478631134265897276351489851794326493826175542187963369542718718639542
003087210192000700040003900400000150306509020080026040005400000070060080000871003,653987214192654738748213965429738156316549827587126349835492671971365482264871593
280700000501903008000001620004100800020008074010060390006430900030807050047009010,289746531561923748473581629394175862625398174718264395156432987932817456847659213
001083090050007200800400600200316804400009006005020700130672000080000470009500003,641283597953167248872495631297316854418759326365824719134672985586931472729548163
900150002842000013030800600000067400021005700060300000403000008080900060050780320,976153842842679513135842697598267431321495786764318259413526978287934165659781324
000024900056070048820500300203000050007482009008009100140900086005701002600000003,731824965956173248824596371293617854517482639468359127142935786385761492679248513
600040030503017020040209060400000700201000308098005010010802570006400009070903600,629548137583617924147239865435186792261794358798325416914862573356471289872953641
180900023603850000000010700800090100040005870020680540002070091009063050000100460,185947623673852914294316785856794132941235876327681549462578391719463258538129467
030020800070004103601000040020030700800076201040500009008609020400001070059380006,934125867572864193681793542126938754895476231347512689718649325463251978259387416
743000080006050290005070001000019070508360000200000403009048010010007650460021900,743192586186453297925876341634219875578364129291785463359648712812937654467521938
000000001200603870506000490609410000003708000078050240040500060001080050090270030,937845621214693875586127493659412387423768519178359246742531968361984752895276134
053010006600000490082407000000900208074120000060005003040502807001030025500070900,453219786617358492982467351135946278874123569269785143346592817791834625528671934
602030100000028090900501000540000063008000017200047009009100040820075000004692050,682934175415728396973561824547819263398256417261347589759183642826475931134692758
700059200000007310960201080205900401007005060001478000506000090034000007000032050,718359246452687319963241785285963471347125968691478532526714893834596127179832654
008507100021090080503040000190400002000002068007900005605200090030100700040368000,968527134421693587573841629196485372354712968287936415615274893832159746749368251
000000910400608003053020406092006008060274050300000001005700000780059000140032670,628543917417698523953127486592316748861274359374985261235761894786459132149832675
000109004045760100108025073000000002830000400200678009050000601001094037009200800,723189564945763128168425973596341782837952416214678359452837691681594237379216845
078040069020057010100300000500000000080930406007608051040009020600070805790102003,378241569926857314154396782569714238281935476437628951843569127612473895795182643
800360020501000700060020509000900400357010800004070016200750000090004601100608037,879365124521849763463127589612983475357416892984572316236751948798234651145698237
850069000602087000000010002003870500590000483240005010004700030016000095300602007,851269374632487951479513862163874529597126483248935716924751638716348295385692147
030000804700000062020976310590800000460105000008030001607400008000010250082503090,936251874715384962824976315591847623463125789278639541657492138349718256182563497
200540006000097003895000000000150460320000001004960708060085009100320070007400805,273548196641297583895631247789153462326874951514962738462785319158329674937416825
030602400040300908002450001600020090080007103071800560900006050005740000324910700,138692475546371928792458631653124897289567143471839562917286354865743219324915786
360000017000400000070306509040620080001008000800005361132000700000290050097083604,364859217915472836278316549743621985651938472829745361132564798486297153597183624
900072000063001000050000428010050203702300054000047609086090100400060700300805000,948572361263481597157639428614958273792316854835247619586794132429163785371825946
400007890905062307038009205000008020500100004006090008024030010007000000053046900,462357891915862347738419265341678529589123674276594138824935716697281453153746982
904200673827010500000009000451000000080560042070390001000008906000170030045000200,914285673827613594563749128451827369389561742276394851732458916698172435145936287
807690000392500007050003010500420030001000000040070860600109008074008120030000459,817692543392514687456783912589426731761835294243971865625149378974358126138267459
030008016000290457009167208000900040400071603060000092100080005053002070008040009,237458916816293457549167238385926741492571683761834592124789365953612874678345129
000730060400002078850006200700903500043050100600040097000369020008120709010005004,192738465436512978857496213721983546943657182685241397574369821368124759219875634
010040003580102600009850000730960200800031004001000050964700801000300000052008960,217649583583172649649853172735964218826531794491287356964725831178396425352418967
800600730470091200005003000060250001000008600150704080096307040204000090001002508,819625734473891256625473819368259471947138625152764983596387142284516397731942568
002050007100060200000100408027500901650710000408090030005900086203000000800437009,982354617174869253536172498327548961659713842418296735745921386293685174861437529
706081903002570048000000000070000602030040001800200050010063280409020306000800790,756481923392576148148392567974158632235649871861237459517963284489725316623814795
004001520007090301030082600580003407006940250900025000370860000420030900090000008,864371529257496381139582674582613497716948253943725816375869142428137965691254738
072903000600108030001000758008037021900500360060400000415002080000000400089706000,872953146654178239391264758548637921927581364163429875415392687736815492289746513
400500208500760901360020040005000090070018003602490100000053800100900650009000074,497531268528764931361829745815372496974618523632495187746253819183947652259186374
600970140570006200000034800090000080040350600861000002003460001009800350100200070,638972145574186293912534867395621784247358619861749532783465921429817356156293478
090600270000200508508003009040000120157030080006907000400508003802740090710060040,394685271671294538528173469943856127157432986286917354469528713832741695715369842
500803402020060007801240500007000009000309780000056300009028045160930000204100006,576893412423561897891247563317482659652319784948756321739628145165934278284175936
000000800694000250030100046089070060017080502020509030000201407001003000005648019,152964873694837251738125946589372164317486592426519738963251487841793625275648319
207408000000025760000900810008090000010003906040752003790206050001030040603100000,267418539189325764435967812378691425512843976946752183794286351821539647653174298
000092050008150230001706009302000104740900300050000086090017060003008000804260073,437892651968154237521736849382675194746981325159423786295317468673548912814269573
200000059605000003007010406301750000008309070062400095049073100800105000070062080,214637859685294713937518426391756248458329671762481395549873162826145937173962584
500928000406500090020601300000009701008057000230064080001030056985000207000000148,573928614416573892829641375654389721198257463237164589741832956985416237362795148
050803620900210005304009007200984006008050034091070050503000002000630090670001000,157843629986217345324569817235984176768152934491376258513798462842635791679421583
983000007000007063007902500030210009600004100020305008006089720001006004500070010,983651247215847963467932581734218659658794132129365478346189725871526394592473816
090640070000009008006820405107500023853070000040008006700015062002360000000400910,598643271421759638376821495167594823853276149249138756784915362912367584635482917
804001500700090803053702060900800007002610409480250100009000600005000021010430005,894361572726594813153782964961843257532617489487259136379125648645978321218436795
000003125002740090000006800704009652300500000160020900630090001508071000090008034,476983125812745396953216847784139652329567418165824973637492581548371269291658734
800563090009000700100000028203046000000052040060800370650900081004071609001080430,872563194549128763136497528293746815718352946465819372657934281384271659921685437
940005002000060013600020509003000700200008931008170046000002065302840100700509800,941385672825967413637421589163294758274658931598173246489712365352846197716539824
020000057900601200000087060490028030650003000000140008360000075017009802000405003,826934157973651284145287369491528736658793421732146598364812975517369842289475613
500140800900708405080062010000050000031800060200000309064000003090026170007415090,572149836916738425483562917649253781731894562258671349164987253895326174327415698
300800090006205730780010004040000056952007000031090800079061302000008000400002571,324876195196245738785319264847123956952687413631594827579461382213758649468932571
900300850000048010704100006197020000040005300503806700030700590851002403200004000,912367854365248917784159236197423685648975321523816749436781592851692473279534168
004060080607004009030500020063850007010702000029030040000691070590080006100320400,254963781687214359931578624463859217815742963729136845348691572592487136176325498
024100830506200090008004700040023010090070040307008000000030906070091504280500000,724169835536287491918354762845923617192675348367418259451732986673891524289546173
004980000500000610020036078005009830067008200000170000200307940006000050130040002,674981325583724619921536478415269837367458291892173564258317946746892153139645782
008060400520700000003904051040005060002000900001096748037001200080070604190080003,918563427524718396673924851749835162862147935351296748437651289285379614196482573
460070910200100060075030048000050039020804000000600100300001670840065002700009400,468572913239148567175936248614257839923814756587693124392481675841765392756329481
007000451500008930200003807605890700840500000009004200000072610706900020030040000,387269451564718932291453867625891743843527196179634285458372619716985324932146578
000800935000900006050026078007200601300004820600057090980503042070019000504000100,762841935843975216159326478497238651315694827628157394981563742276419583534782169
054203008100090306600008005309010020061750900800000004000400870093600002020070031,954263718182597346637148295349816527261754983875329164516432879793681452428975631
005006123803402509000010700670900802090307050300040001280700000060009004400205090,745896123813472569926513748674951832198327456352648971289764315567139284431285697
007020009030000250000859040004006097092000860600074301908360000000100070056048002,547623189839417256261859743314286597792531864685974321978362415423195678156748932
072098460068200000500001300950004000000750010400309070034100092681002500000060083,372598461168243759549671328957814236823756914416329875734185692681932547295467183
564009100801720000090040036900053072005400608070100000200600000100070005050008390,564389127831726549792541836916853472325497618478162953249635781183974265657218394
000000210600051300030270006008963000100400905206700080807609500024130070009000040,785396214642851397931274856458963721173482965296715483817649532524138679369527148
000084630405700001038205007320040560000000109090678040014009003000010080009506200,972184635465793821138265497327941568846352179591678342614829753253417986789536214
400700850095083600300000104508020079072104300000005000000001700060030902203000018,426719853195483627387652194518326479672194385934875261859241736761538942243967518
000780009470050080093001002060300700050970240200006008704600001002030090609840057,125783469476259183893461572968324715351978246247516938734695821582137694619842357
100090208000000460096500007004608500320107000008020340049013020063709800500200700,137496258852371469496582137914638572325147986678925341749813625263759814581264793
600000090200947000085010300410608203070320004000000065053001000702095400000700086,647583192231947658985216347419658273576329814328174965853461729762895431194732586
579100800000004007108000503020090014300260708700008960650000000030407000001930205,579123846263584197148679523826795314394261758715348962657812439932457681481936275
000070046600518000900000100050009301090600200270130460300086010845000007000002903,512973846634518792987264135456829371193647258278135469329786514845391627761452983
560004000000700012108093007000800709032140000000069041003000000709536000040082500,567214398394758612128693457416825739932147865875369241253471986789536124641982573
600205190000070028007861000086904075120000940000003000004600030050307001003040509,648235197531479628297861354386914275125786943479523816914658732852397461763142589
005083002001020630008640900100072000006900005930006410407000090080001076200035080,695183742741529638328647951154372869876914325932856417417268593583491276269735184
