050030900000709080670081045000600702410000893002098060890024100000010279500000030,158436927243759681679281345985643712416572893732198564897324156364815279521967438
010708006000040213600090050130009000450200600007001420970502180080070005003806090,315728946798645213624193857132469578459287631867351429976532184281974365543816792
300008020700510406004200390008609700001040003002070940407086200050000071090001800,365498127729513486184267395548639712971842563632175948417386259853924671296751834
008007369004023001600000000070800400510200000000090153203108500790040008400560700,128457369954623871637981245379815426516234987842796153263178594795342618481569732
090700010068230040570600092600097001400003800020001050081000006000052009003180070,392745618168239745574618392635897421419523867827461953281974536746352189953186274
090100260670840000001900080040050090907000004023080001705020003008004016000730020,894173265672845139351962487146357892987216354523489671715628943238594716469731528
200695048300010002098000700006000180107020503004900007800504200050830016069070000,271695348345718962698243751926357184187426593534981627813564279752839416469172835
520009708000380020160004050090530012804000000005406803300061070470000601000200900,523619748947385126168724359796538412834192567215476893359861274472953681681247935
002035700409000003000600120080001309034900200000007060018070040700069802300420501,162835794459712683873694125687241359534986217921357468218573946745169832396428571
089317000200900508403000000000020017002860904100039006010004820007008165600000070,589317642271946538463582791896425317732861954154739286915674823347298165628153479
001300200046018079023004601750046030130900004080002000090600508000005700000081090,871369245546218379923574681759846132132957864684132957497623518318495726265781493
070249000014007003800600075200480630063500107090000000900060250000100004502030001,375249816614857923829613475257481639463592187198376542931764258786125394542938761
700500002060000150203801490800490521000306000407100008540028906009000074000003800,714539682968274153253861497836497521125386749497152368541728936389615274672943815
700000000042050009908400032000240078021730650500060090030000000069002380087100400,713928546642357819958416732396245178821739654574861293135684927469572381287193465
708061900002507030356090080400670001001209700090000005103004000020000804000015620,748361952912587436356492187485673291631259748297148365163824579529736814874915623
034080170800230056020001000900010085207800604006005300010904200070026008500070900,634589172891237456725461893943612785257893614186745329318954267479126538562378941
300040162720903050500000070070600003046019000209504010083002004900007080000096205,398745162721963458564281379175628943846319527239574816683152794952437681417896235
403061705107800600000000002030570080605900071008020063900405000000610908052003040,483261795127859634569347812231576489645938271798124563916485327374612958852793146
009402650400830902710060000320000500070210040608007003503009080080056700090140000,839472651456831972712965438321684597975213846648597213563729184184356729297148365
300501200001020065045870009602100700090007080080060013008700906000280007430005000,369541278871329465245876139652138794193457682784962513528713946916284357437695821
507020090680500043000008100050360010201807036030010702800000400040730009002000065,517423698689571243324698157758362914291847536436915782863259471145736829972184365
400700000000600092000031085930540000020070000507206809200003651103400020008050007,489725163315684792762931485931548276826379514547216839274893651153467928698152347
900470200030506000000002018804900500000687030361040070057003940029000001400000065,916478253238516497745392618874931526592687134361245879157863942629754381483129765
605034870020870509007026000102080000040600005000700914800005706290100000000300400,615934872423871569987526143152489637749613285368752914831245796294167358576398421
700002400050360280090010053209030001610008075008000340001500096020004008367000000,736852419154369287892417653249735861613248975578196342481523796925674138367981524
070000089000007401090853060015700004046080502307060000280600000001409005003200790,572146389638927451194853267815792634946381572327564918289675143761439825453218796
960001700001600003008027410800490300010000050005063002740200085000800600300519040,964351728271648593538927416827495361613782954495163872749236185152874639386519247
709830020000000430008621000000050000001006007273100900060002084017005003040980056,759834621126579438438621579694753812581296347273148965965312784817465293342987156
058060132020095070600800000060740000203600008170030094090020301304000050000170069,958467132421395876637812945869741523243659718175238694796524381314986257582173469
030024000907005600060000080045080010290700408301040207000019760000203005024570300,538624179917835624462197583745382916296751438381946257853419762179263845624578391
001047050953000000040030010680090700004080320070504800806200090500009000030100270,261847953953621487748935612685392741194786325372514869816273594527469138439158276
007910030605000000390005401500682000981004300004000507000003140049706020830090000,427918635615347298398265471573682914981574362264139587756823149149756823832491756
004000320705300006000762090300207008071008050600004100298050030000000080007001409,964185327725349816813762594359217648471638952682594173298456731146973285537821469
405000090096030700300502001001400052070000040200001608050100980008760004030940507,425617893196834725387592461861479352573286149249351678754123986918765234632948517
609000548005206007130000000203060000070501000000740693090000480800014076004305002,629173548485296137137458269243869751976531824518742693391627485852914376764385912
020170084060000000003040020300080190074300800000295030046500071005004300100826009,529173684468952713713648925352487196974361852681295437846539271295714368137826549
406010780809000003200507400005820610010900000600005040020094070397200060000038005,456319782879462153231587496945823617712946538683175249528694371397251864164738925
400510700000000003008070192057006200103002006090830400001490000020703010900600385,432519768719268543568374192857146239143952876296837451381495627625783914974621385
035000060004600901000027048400100802090000070078360195000830716500002003001040000,835491267724683951619527348456179832193258674278364195942835716567912483381746529
098400103300900746000012500620000008403701200000048060000650870000000904971030050,598476123312985746746312589627593418483761295159248367234659871865127934971834652
009000006140030790870902040208600010000040953000071000002563070790004060501020800,329417586145836792876952341238695417617248953954371628482563179793184265561729834
700018004090270003510300007802093010000024090430580060965000200001060070000009800,723918654694275183518346927872693415156724398439581762965837241381462579247159836
008002070015070890230090005180009007000100026009430580050708010600320000004060003,968512374415673892237894165186259437543187926729436581352748619691325748874961253
500043890200009000301200400004070060600800370019000020060715009020060105080904600,576143892248659713391287456834572961652891374719436528463715289927368145185924637
200170006050000070010056084006091000004530002809000300701800400060700095380004017,248179536653482179917356284536291748174538962829647351791865423462713895385924617
000200000506030470090048601800500030701004090420800000608970500003002010017080046,174256389586139472392748651869517234731624895425893167648971523953462718217385946
008040003350009600040307100967000080100023000004008950000005200010490006802061400,728146593351289647649357128967514382185923764234678951476835219513492876892761435
093007081000905700062008300020094000609500800000816040400700052010420600008000930,593267481184935726762148395821394567649572813357816249436789152915423678278651934
500000092100930800040600307300094010002850064089107000070501009000000200250080630,536478192127935846948612357365294718712853964489167523673521489891346275254789631
608103900000070216050900000470805100009010084002030005040350869000400370700020000,628143957394578216157962438476895123539216784812734695241357869965481372783629541
104000360030109200780000009000260010001003074940050008026490001000072050007608400,194827365635149287782536149578264913261983574943751628826495731419372856357618492
500070210016902700090305040031700054020600008800009000200053607000804003008060001,583476219416982735792315846631728954925641378874539162249153687167894523358267491
000900003010006009083204070040000630005100080300075020009400700570309408260058001,456987213712536849983214576147892635625143987398675124839461752571329468264758391
076205040340007210002090800000700108650040000020301006060100300000030029403680070,876215943349867215512493867934726158651948732728351496265179384187534629493682571
000860072050704010860001900042630000009000050610009007900020800000040035570316004,491863572253794618867251943742635189389172456615489327934527861126948735578316294
870020003002410800560300701090050082200600040007008006700940300050160009300000010,871526493932417865564389721693754182285631947147298536716942358458163279329875614
005690702000001080030007549009800000001032407540016320600000930700008001253040000,485693712972451683136287549329874165861532497547916328618725934794368251253149876
019000057080002006030041000400080000000105700006070230002900860708300009005620104,219836457584792316637541982471283695923165748856479231142957863768314529395628174
000050900070601000090007041001020570006035008300040002080360004407000006102800309,618453927274691835593287641841926573726135498359748162985362714437519286162874359
930070080087100064050630000700560000000020001025804030060380090870009500401000003,936472185287195364154638972719563248348927651625814739562381497873249516491756823
310004002000200397000680000002000400400007008037005910006800759090006030520010680,315974862684251397279683145952168473461397528837425916146832759798546231523719684
000007500060039408308020000000004109090053782001600000702048003005001870600070091,249817536167539428358426917523784169496153782871692345712948653935261874684375291
020900630650870000340000007890000005000602000007518023186004090000300400000001078,728945631651873249349126857892437165513692784467518923186754392275389416934261578
000208430004610020090005007020000090600407001800063250007030640100580000305096800,516278439734619528298345167423851796659427381871963254987132645162584973345796812
600020097054703200000005100820070409400009000000500380210094800070006010000180030,631428597954713268782965143823671459465839721197542386216394875378256914549187632
090870004300240567000006000070050906800461000530000020200500070008710200450008300,692875134381249567745136892174352986829461753536987421213594678968713245457628319
300980007070050000804003025002040930519070800000000006950600078200008010630210004,325981467176452389894763125762845931519376842483129756951634278247598613638217594
060700490009002080780360100040025007207010060100003008003104005025800900090000630,562781493319542786784369152948625317237418569156973248673194825425836971891257634
800090400010000070604571080030120705405000000200000096508004207003700800092380610,857293461319846572624571983936128745475639128281457396568914237143762859792385614
002407010000030205800600003250003400000704008047010056009001062310500000000896007,532487619674139285891625743258963471163754928947218356789341562316572894425896137
007004509003296010140500280400000000060015003000700845094300060756800000010020700,627184539583296417149573286475938621862415973931762845294357168756841392318629754
083045067709006050400000030000209800100000090605001720900067001002903040001080300,283145967719326458456798132347259816128674593695831724934567281872913645561482379
200063000040700102319008060005007000000930207000006840020000584080300000106045920,257163498648759132319428765495287316861934257732516849923671584584392671176845923
040003690600100005000029037003070008250400100001080200100900056590700080007004002,742853691639147825815629437963271548258496173471385269124938756596712384387564912
200710040080004960004008003300572000007360800590000000400025009003800005006190027,239716548785234961614958273368572194147369852592481736471625389923847615856193427
000006010070005904043100207000000000008257030064809002050030670897000100602080009,289476315176325984543198267725643891918257436364819752451932678897564123632781549
070980104010050208000003060000014050500600403390002000706040301048700029002861005,275986134613457298489123567867314952521698473394572816756249381148735629932861745
005073900042800070300410000087001600900000320004060700006209801100000409000036050,815673942642895173379412586587321694961754328234968715756249831123587469498136257
300000007004290001918060000000582090009000005607900320000805064042001000160740032,326158947574293681918467253431582796289376415657914328793825164842631579165749832
800200305007006204000019800400658000059002000706030400100700068904000103020093500,861247395597386214243519876412658739359472681786931452135724968974865123628193547
005073900007000215006080340090408070204015000300260000100020084600000190083040506,425173968837694215916582347591438672264715839378269451159326784642857193783941526
008146007200000000074000830500039100380020006000500420107050004050708900029300010,938146257215873649674295831542639178381427596796581423167952384453718962829364715
000580420007060013280017000075304900600009080140000500006705090000200305094030006,961583427457962813283417659875324961632159784149678532326745198718296345594831276
030082000056000700007450091003900400570601008109034020000100006000097800002003000,931782564456319782827456391263978415574621938189534627398145276615297843742863159
071300068000000900400265100000090080603081405950006002800004070010003050092170003,271349568365817924489265137147592386623781495958436712836954271714623859592178643
600100042040350010290060803000600130000074508005000094100209000004080000038700609,653198742847352916291467853489625137312974568765813294176239485924586371538741629
007205090000000374008010600930002000006040752004150800540900000602083001010007560,467235198251698374398714625935872416186349752724156839543961287672583941819427563
170050980300000674000030002037400000080960200402008010069800700004002500850016009,176254983325189674948637152637421895581963247492578316269845731714392568853716429
063002807120008060700530090000000000000675028090341070009003406036820500501900000,963412857125798364748536291657289143314675928892341675279153486436827519581964732
000608504309700620000040009000210890510030000000400200904006705057080316108000000,721698534349751628685342179476215893512839467893467251934126785257984316168573942
000382070067500108000001904009050000315060400024138000103790005040000067050400090,491382576267549138538671924879254613315967482624138759183796245942815367756423891
900000080200710403006859000304900510000035906007020004000100200040380157028060000,971243685285716493436859721364978512812435976597621834753194268649382157128567349
090100036320050010070690480000210804605700020800005709103060000784000000000034005,498172536326458917571693482937216854645789321812345769153967248784521693269834175
180075000006100900020803004209580701500001600060094000400000002075039008010000369,184975236356142987927863154239586741548721693761394825493618572675239418812457369
007010804600030005001094360960000780500060401032800050400270000800006970025300100,357612894649738215281594367964125783578963421132847659496271538813456972725389146
100084200950001000060003790620000080780029103004500000800470005000030960536800007,173984256952761834468253791621347589785629143394518672819476325247135968536892417
800010573700020910000350600060040008080200035900700120304900000251800360000001000,826419573735628914419357682562143798187296435943785126374962851251874369698531247
400608001500000029000702630007005080213000900090430700301080496000260008908304000,432698571576143829189752634647925183213876945895431762321587496754269318968314257
080601030302000704005200090050080107700000560609400300000342650021800000500009408,984671235362598714175234896253986147748123569619457382897342651421865973536719428
009340006100807000060000350008004700970010003054020680000001207086050409200900035,829345176135867924467192358618534792972618543354729681593481267786253419241976835
