700000030008003640040215000130009050806500400002084009001398006907000800005761200,759846132218973645643215987134629758896537421572184369421398576967452813385761294
500008002019000064700000590070620300400057900006093100090005403007130000240089600,564918732319572864782346591975621348431857926826493157198265473657134289243789615
002007190004000600090602540000369201028005000010800703567000009400016000030900470,652437198874591632193682547745369281328175964916824753567243819489716325231958476
020000049300804000007050601050010480908507106006230000210000500800000300560703002,625371849391864257487952631752619483938547126146238795213496578879125364564783912
010964000009250386205000000000028040058400910120000700700509060396010070000730020,813964257479251386265387491937128645658473912124695738782549163396812574541736829
940000002008504600307000010030020705000603089600870300109050040082940007070002506,946731852218594673357268914831429765725613489694875321169357248582946137473182596
300108007750040300020000004600000010080900620009750400003081900900002500100005863,394168257751249386826537194635824719487913625219756438543681972968372541172495863
000027001502000760600380900960073010307004029004500800200000504080760003090001006,849627351532149768671385942968273415357814629124596837216938574485762193793451286
000150060700023090900000500425800300600400001083000000030297050204510006010006807,348159762751623498962784513425861379697435281183972645836297154274518936519346827
201000074000600009030180200000004060703060018050090702095000000400051680008023500,261539874587642139934187256829714365743265918156398742395876421472951683618423597
008006095309007010102000400000021700600400020040609803000005206080000039000934170,478216395359847612162593487895321764637458921241679853913785246784162539526934178
000910300001750000058000609630207800009380040040100250900002000024600087070004560,462918375391756428758423619635247891219385746847169253986572134524631987173894562
010060070900000308060934002805400120090105000430000800007200649100078003056000700,513862974924517368768934512875493126692185437431726895387251649149678253256349781
801065000002000509000498060000309006740080090035000002020740300080050020603001040,891265734462137589357498261218379456746582193935614872529746318184953627673821945
700000600100609070000700094300065010050030048000820300047300082901008005680100900,794583621125649873863712594378465219256931748419827356547396182931278465682154937
000869002120500003500300748056104030790050000401900000030402690007080000002000501,374869152128547963569321748256174839793258416481936275835412697917685324642793581
130048257400070008006500900500300190010060405004200080000801300950700002860090070,139648257425179638786523914572384196318967425694215783247851369951736842863492571
600105040900847000001200007302000900000380056400000082230710064050009100010506730,678195243923847615541263897382654971197382456465971382239718564756439128814526739
016307020007000405080020010300400000000600298950102060100080003030506070029040501,416357829297861435583924716362498157741635298958172364175289643834516972629743581
000302000075910004204508060016000800000004076900020500090030200500807093740005010,169342785875916324234578169416759832352184976987623541698431257521867493743295618
410003060807001040002008005000000090350100000690507214000700800100405630270389000,415273968867951342932648175721864593354192786698537214543716829189425637276389451
010400050607508030030009820000802009802630005004000210100370000246105700050094006,918423657627518934435769821571842369892631475364957218189376542246185793753294186
080306000006010293059027600500009004140050002000700005900600078060174000013002500,281396457476518293359427681538269714147853962692741835924635178865174329713982546
046900008030004010000057004970020400002000030000189600005300002090700580004012096,546931278837264915129857364978623451612475839453189627765398142291746583384512796
900120740003000080001003500047800006000004050860005170008500000600080390010470062,956128743423957681781643529547812936139764258862395174298536417674281395315479862
009070004040008000067320000200005106053100090006297080020640007381000600000009305,839571264542968731167324958298435176753186492416297583925643817381752649674819325
800030009000670420120004006000003108090000500304509070260400900470201805010005007,846132759539678421127954386652743198791826534384519672265487913473291865918365247
800502003009006820000170040640000190508030400270060000000000074050980200137050600,864592713719346825325178946643825197598731462271469358982613574456987231137254689
423600008008020049070050000062400507080060010350901200000007300006085074040090001,423619758518723649679854132162438597987562413354971286891247365236185974745396821
001905000380260040940800756020600001097023005000009003034000200000070098500100060,761945832385267149942831756423658971197423685658719423834596217216374598579182364
010850000000026453000007600020000009174002800900730062038640570041008020700005080,416853297897126453352497618623581749174962835985734162238649571541378926769215384
000030048050200701304080906068700000100490000002010360497050080000049007506301200,621937548859264731374185926968723415135496872742518369497652183213849657586371294
050003004103052760804109030080000007020701009005000680001900000960030450000007023,652873194193452768874169235489526317326781549715394682231945876967238451548617923
091070500004300812602040003508603090000900000063751004010200000000009068079508300,391872546754396812682145973548623197127984635963751284816237459235419768479568321
204106090670009000830020006900000070020685010005000302080702501003500004090301760,254136897671859243839427156948213675327685419165974382486792531713568924592341768
042030008091006070003007495087001230000060007350000980000050764000840000910072000,742935618591486372863217495487591236129368547356724981238159764675843129914672853
009360008074509002203000050580970046041080000000100007600091700300020690000008015,159362478874519362263847951582973146741286539936154827625491783318725694497638215
080037001302000700906010058005860004000200963000000200020005890469000007007003010,584937621312586749976412358235869174748251963691374285123745896469128537857693412
080000000201600830700920105602800340000065908070003020005007019060040000837100002,586731294291654837743928165652879341314265978978413526425387619169542783837196452
020090035700800000016040700240000090008700006090514300000001062100005400973062800,824197635739856214516243789241638597358729146697514328485371962162985473973462851
247300001000710060109005004800000046700060003050023070002009385093048000600500010,247396851385714962169285734831957246724861593956423178412679385593148627678532419
096210008800050040015790000200980036003100409007600200000007064030000150024530007,396214578872356941415798623241985736563172489987643215159827364738469152624531897
015402706700080000090700100034100008000009602000850430200675043000000205900030060,315492786746581329892763154634127598578349612129856437281675943463918275957234861
060004200305806004200010730683005010001070950090400002002058600050060000800900073,169734285375826194248519736683295417421673958597481362732158649954367821816942573
000290000095081007680054300134900080002030900007000010000600504040800630000073092,473296158295381467681754329134962785852137946967548213328619574749825631516473892
070012900000600410630080500003007040560090002002400801306701005200009000040506708,475312986928675413631984527813257649564198372792463851386741295257839164149526738
800470000003010456090000002589600000400500037600024000000250089310006700052081000,865472913273819456194365872589637241421598637637124598746253189318946725952781364
540008000008000359007260100300670000710002840060009001000003490403080500092150070,541398267628417359937265184384671925719532846265849731156723498473986512892154673
090020530800004009605070002058003000006040087000201906000098100430650200700100640,197826534823514769645379812958763421216945387374281956562498173431657298789132645
000000083001907000405200906500000070083490100602080305090640207060012840004000000,926154783831967524475238916519326478783495162642781395198643257367512849254879631
800250000134009008006080970000005100601720000790063002000407501020800409003090000,879254613134679258256381974382945167641728395795163842968437521527816439413592786
800730060100900005050064702540003001690800030008000024017006900300050070000090408,824735169176928345953164782542673891691842537738519624417286953389451276265397418
000050900820100070400097013100045200000063580705000090610080004290300050080012300,371658942829134675456297813168945237942763581735821496613589724294376158587412369
400500607000200830895070004000000000203704081100003249708601000009080016310052000,432518697671249835895376124984125763263794581157863249748631952529487316316952478
900002000240060301060730900800320000521000004370800060000906015408005600000410708,983142576247569381165738942896324157521697834374851269732986415418275693659413728
000102700680500000003000009805093004009020006100700803050000280708056001420070300,594162738687539412213487659875693124349821576162745893956314287738256941421978365
001090000785006040009008032460750018090103400000800600000601007020070980300040500,231497856785236149649518732463759218892163475517824693954681327126375984378942561
000348916000500020000060800452000000100900007069080153605010070200030408803604000,527348916386591724914267835452173689138956247769482153645819372291735468873624591
100000039000059240089600000090000170003075000240308065001034000700560400520001086,152487639376159248489623517895246173613975824247318965961834752738562491524791386
007000609009402800801300470500680900020001006900054010005000008430006705600890003,247518639369472851851369472513687924724931586986254317195743268438126795672895143
080307000026500000140006509000030081200084607075002000000009700713000062960100840,589347126326591478147826539694735281231984657875612394458269713713458962962173845
008700002074000010000638000009200003000300604600084950093410000100026308020050790,968741532374592816215638479749265183581379624632184957893417265157926348426853791
002300106670010890300580000540090000007008340006000007890160704000032900251000030,482379156675214893319586472548793261127658349936421587893165724764832915251947638
600108900072600080000045060901486720000009300456300009708000403009000070000250100,645128937172693584893745261931486725287519346456372819728961453519834672364257198
007940000005800002400003657000020015300006089008100740061002000040070908072590003,627945831135867492489213657796428315314756289258139746961382574543671928872594163
000020000807050010902070630081790420000004003006300075530006081700010060064800900,613928547847653219952471638381795426275164893496382175539246781728519364164837952
000020003506098400120506700018007000400002059000040001080900630040810000703005004,879421563536798412124536798918357246467182359352649871281974635645813927793265184
040950007005080320890603010000706905500034000307000602006040000701020080004500791,143952867675481329892673514428716935569234178317895642986147253751329486234568791
409000008700051300000300000500700010062080009003002504915206400086034901000800020,439627158728951346651348297594763812162485739873192564915276483286534971347819625
002590010006040205007008403074082300300000072089700001000901500600200087540003000,432596718816347295957128463174682359365419872289735641728961534693254187541873926
900500100080009600007230008000000203200108000650000049570060090410907080003420506,924586137385719624167234958748695213239148765651372849572863491416957382893421576
760002000091000087800005360206008005040006039080730400009200078050040090300610040,763182954591364287824975361236498715147526839985731426419253678652847193378619542
106430008000085940000100037840760023305040100000020090002000065700809000031270000,196437258273685941458192637849761523325948176617523894982314765764859312531276489
500012000180004059000800740000100005900045806720690000670000480810760002300009600,547912368186374259293856741468137925931245876725698134679521483814763592352489617
170090080080130005000206700050340670000860092400001300307050100908720004600009000,173594286286137945594286713859342671731865492462971358347658129918723564625419837
100650702024903001070020040003406009900080200006000180500007000801009600740100305,198654732624973851375821946283416579917385264456792183569237418831549627742168395
340700050000026004096058300030009100004000280508100630105900000000805970270030010,342791856851326794796458321637289145914563287528147639185972463463815972279634518
061000050258100060300002070806090004430070026000030901007963000005000200900504000,761389452258147369394652178816295734439871526572436981127963845645718293983524617
800297060056100020700580309340028100605900070000060003090054008007009200510300000,834297561956143827721586349349728156685931472172465983293654718467819235518372694
602800900900000567040100308061305000204080000300401700085700610000090000790004052,632857941918243567547169328861375294274986135359421786485732619126598473793614852
300700509080203401009008000001500304004020007500309020046010802200007016000680000,312764589685293471479158263821576394934821657567349128746915832258437916193682745
000073140060504029020010005530009008280000010109060070370045000018000600004800230,895273146761584329423916785537129468286457913149368572372645891918732654654891237
000935060240070003050640108020190000380400700100500006090008507007010009861000020,718935462246871953953642178624197835385426791179583246492368517537214689861759324
060102070017080006300004005140000080270450300003017900024060100000508602500040093,865132479417985236392674815149326587278459361653817924924763158731598642586241793
050042003038010049209000570000007450800530012004600000190850600300006100000009738,751942863638715249249368571913287456876534912524691387197853624382476195465129738
900070000060401000102000560005200407201008309300900610800390700000600205003054000,934576128568421973172839564695213487241768359387945612856392741419687235723154896
500097080007600001069320004090013470000000002710062500000405200820001000030080097,542197683387654921169328754298513476653749812714862539971435268826971345435286197
640001003290065000005000007020000039009078201010000540038010400460092870000500006,647821953293765184185943627824156739359478261716239548538617492461392875972584316
000240090007089040800075201070000910051360000400008700390050008012096300006002150,165243897237189546849675231678524913951367482423918765394751628512896374786432159
006004980020350014040000503001600207090007040070085001005971030003020600780000020,356714982928356714147892563831649257592137846674285391265971438413528679789463125
602009000030020750870040900000307510004082070760500080590000008301090620040836000,612759843439628751875143962928367514154982376763514289596271438381495627247836195
050304001020000000801270003400500830032018700900060000006007059508106020070020004,759384261324651978861279543417592836632418795985763412246837159598146327173925684
072530400150860000000002008500043010009710060601005083300057600400006902000190000,872531496154869327963472158587643219239718564641925783398257641415386972726194835
502307040030100067006084900050800000007040120084070093000090012000003056013506000,592367841438159267176284935951832674367945128284671593645798312829413756713526489
000500001065008200702001000000006904690703010830040605050400003003062007078100090,389524761165378249742691358527816934694753812831249675956487123413962587278135496
920700560368009071000000302003050100004210009705400020800000014000605900076081030,921734568368529471547168392293857146684213759715496823859372614132645987476981235
530620400004007508090001070082040639060180050300009004000000002700394080001570060,537628491614937528298451376182745639469183257375269814953816742726394185841572963
305004908000500010010630002000000004940018607706090300070250400208900000450061070,325174968694582713817639542531726894942318657786495321179253486268947135453861279
001700054068540003000003902000900500070280069030105040850007190200000007094060800,321798654968542713547613982482936571175284369639175248853427196216859437794361825
006300400500602030012004009700010000054060800091408072003050094820000007000709001,986371425547692138312584769738215946254967813691438572173856294829143657465729381
