005000300609080000032095704301020960000030000000706002907860410800070009200041508,785214396649387251132695784371428965526139847498756132957862413814573629263941578
008000105005004907097026000061300002200600400030001890000700001500092730400038000,648973125325814967197526384861349572259687413734251896983765241516492738472138659
060000002008049063970080000005008104021030075000600300004061050017400800200503409,463157982158249763972386541635728194821934675749615328394861257517492836286573419
108040000000250001000009654090000010674030280820600570006070390007082000985100700,158346927469257831732819654593728416674531289821694573216475398347982165985163742
470001092068007103900305087002810000090003070006000450035720000010050906040006000,473681592568297143921345687752814369194563278386972451635729814217458936849136725
800000569670001400009080020000002900000640780060097051130050204480300070500260000,821473569675921438349586127758132946913645782264897351136758294482319675597264813
030490270000001900007600085009000800800053000601900450500704319016025000040800002,135498276268571934497632185359146827874253691621987453582764319916325748743819562
050000078003006190017480000300927005400003600208500001024030059006079200080000010,652391478843756192917482563361927845495813627278564931124638759536179284789245316
000046108830205090000900730000018002005007940620509001300000600059100004200804057,597346128831275496462981735973418562185627943624539871348752619759163284216894357
000800500205000639304006070600073040709520000040000090000060012801702003030095706,176839524285417639394256871628973145719524368543681297957368412861742953432195786
930070000502900600004000071000693005008010000300502047010034009000068520020750803,931876452572941638684325971147693285258417396369582147815234769793168524426759813
024050670090003401000702000010570090009018200700904300300001005060000040071260008,824159673597683421136742589213576894649318257758924316382491765965837142471265938
030054786600000052000007300500428030048009010972500000000100540000906008210030070,139254786687391452425687391561428937348769215972513864896172543753946128214835679
005800609063020070100004005030005012900007034007010000704206800050400091802053000,275831649463529178189764325638945712921687534547312986714296853356478291892153467
700005410930020060500306089100953840004018006800000070002041030000000700009280050,726895413938124567541376289167953842254718396893462175672541938485639721319287654
007300000080405006060000452000001900009002305250803040400500010190070680628009070,547326891982415736361987452734651928819742365256893147473568219195274683628139574
280500000007020605630080090000000100006700509001204830390008470004000000000013926,289546713417329685635187294743895162826731549951264837392658471164972358578413926
600250007080060030240009001804001000090028005000730090001300750407900680520040003,619253847785164239243879561874591326396428175152736498961382754437915682528647913
308020040200610703750000000009070084000005670803900210001709500420306008005100000,318527946294618753756493821569271384142835679873964215681749532427356198935182467
090028074200005036801370000603000900010700080470000002004050003009106500030809021,395628174247915836861374259653482917912763485478591362184257693729136548536849721
700003001091084560003206000010400300050092040008570620006800900029000050300000807,764953281291784563583216794912468375657392148438571629176845932829137456345629817
700000038004010070005098100050300060218600700070025401000007040906080200000932500,721456938894213675365798124459371862218649753673825491582167349936584217147932586
030219040400060080000580903000098300500000604016000027079000015002043000608700000,837219546495367182261584973724698351583172694916435827379826415152943768648751239
720060080060504300000020001680000009900100054004030760008093002050840970003007016,721369485869514327345728691682475139937186254514932768178693542256841973493257816
700600203040591600580070090010000530000084007900300001067002000120830040300019860,791648253243591678586273194418927536635184927972365481867452319129836745354719862
027056140900700030060008900801007400076040000030100802080009010500020009004301056,327956148948712635165438927851297463276843591439165872682579314513624789794381256
970003000203010600050000098000080209000470103037006005006502780002009500310007004,978653412243918657651724398564381279829475163137296845496532781782149536315867924
730001090000007001100650084006000800002809037090042105040930000058100076960000200,735481692684297351129653784476315829512869437893742165247936518358124976961578243
600070053704600900080000170900030082060000540050162000093720064820053010007800000,619278453734615928285349176971534682362987541458162397593721864826453719147896235
000071504000000810080005009020900045094008300001206000056007090307090100800630002,962871534475329816183465279728913645694758321531246987256187493347592168819634752
006709803302005000000000061209013700018000050405208006070020605000800049091430000,156749823382165497947382561269513784718694352435278916874921635623857149591436278
100030006003700900000205810045870000300421050910306200020600107008000590700080300,152938476863714925479265813245879631386421759917356248524693187638147592791582364
400009000026701083003602004070098000000150007908300006700005160004000072210000039,487539621526741983193682754671298345342156897958374216739425168864913572215867439
180000057506000000409203600005690420603100000000085009000009540020030010701406908,182964357536871294479253681815697423693142875247385169368719542924538716751426938
045000820200054007006930100000000030067508009400070208720300900103046500008010070,945167823231854697876932145582491736367528419419673258724385961193746582658219374
030006018150007060904008200000082007600900180200030450006000709300500020001074630,732496518158327964964158273415682397673945182289731456526813749347569821891274635
406030005000040620320000080090050862040302500050079401800600007009580100007100090,476238915981745623325916784793451862148362579652879431814693257239587146567124398
700000901041500000020040800002390407003120096085060200100056008000480050090207630,756832941841579362329641875612395487473128596985764213134956728267483159598217634
007420060108006300046000097005900002000630405301008670074050280000800000093010050,937425168158796324246183597465971832789632415321548679674359281512867943893214756
050070960400500708090382000040068000009020057600901380004017005105000400380000092,258174963431596728796382541543768219819423657672951384964217835125839476387645192
001250830720600400900080700010700090200006304850000102094030560087901000300400000,641257839728693451935184726413728695279516384856349172194832567587961243362475918
000510400000038059802900700001003000403806025580000094300670500020001040900000683,739512468164738259852964731291453876473896125586127394348679512625381947917245683
097145000000700201300028040800504600075009180002300090508006300000800760040030020,297145836684793251351628947839514672475269183162387495528476319913852764746931528
090080705700020360140056000010804002002061097560000430009302100000000500300070048,296483715785129364143756289917834652432561897568297431859342176674918523321675948
600000709000801040001096080060059030037080900050400026500200008029004001413070500,682345719795821643341796285264159837137682954958437126576213498829564371413978562
350260007700940500060005018003090721000000300041000065020400080800037100500800904,358261497712948536469375218683594721275186349941723865127459683894637152536812974
060290710000405200049007008002000000000930570100008603804001005035070002000604030,568293714713485296249167358352716489486932571197548623874321965635879142921654837
002097500403000700060001300050600002010003074940870150809000010500020060070480009,182397546493568721765241398357614982218953674946872153829736415534129867671485239
050827060609030001008100750100000407004701029900006000002500000003094005700603840,351827964679435281248169753186952437534781629927346518412578396863294175795613842
500007064100520030003940208006402503070000000009000810607089042901000700084300600,592837164148526937763941258816492573375618429429753816657189342931264785284375691
804302000900070002070060100005910047000000306430605001008020600501008204002090078,814352769956871432273469185625913847189247356437685921798524613561738294342196578
020003500005980002103060090009047350008009600600010049030700000000032801470050060,924173586765984132183265794219647358348529617657318249831796425596432871472851963
070098604005341800900000000000004370209000000010500028400180002050700046360050709,173298654625341897948675213586924371239817465714563928497186532852739146361452789
240600000000030071300005860700108030060090042901000500005046700070903000008700916,247681395586439271319275864754128639863597142921364587195846723672913458438752916
004506103100000060500070942800104030070090010420830000008020790003068005902005000,294586173137249568586371942869154237375692814421837659658423791713968425942715386
001068000036092008720004030000000000279080001003016270500000647100020009084009050,951368724436792518728154936615247893279583461843916275592831647167425389384679152
005302006000800974817009000480060590052000300300001007190450008600000703000200010,945372186236815974817649235481763592752984361369521847193457628624198753578236419
506008000040059020001000034030980006070500040209600810385407200002060079000013400,526348197743159628891726534134982756678531942259674813385497261412865379967213485
051300009706401500090002063419003070000000802300076000020007456075080090900010000,251368749736491528894752163419823675567149832382576914128937456675284391943615287
009100407805076000010008050090037568000004200026000090000000806700829100102405003,639152487845976312217348659491237568578694231326581794954713826763829145182465973
005046300003005048740001009400790030001000082600030704900507100200000005010823006,895246317163975248742381569458792631371654982629138754984567123236419875517823496
006400000013005700800000932900602500037080021540107090075008300100000856000900040,796423185213895764854716932981642573637589421542137698475268319129374856368951247
008500002762900050940036000000000400250040083083192060006000738010005940000708010,138574692762981354945236871671853429259647183483192567526419738817325946394768215
060705040283000500000089100700091000010403679000006205900607008478010006002040030,169735842283164597547289163726591384815423679394876215931657428478312956652948731
014630907805009400000008056582300170100500000046010020008000000430700500000062039,214635987865279413397148256582396174173524698946817325628953741439781562751462839
000064030040000190810003506090350800003078460500200070200007089700405002601020000,975164238346582197812793546497356821123978465568241973254617389789435612631829754
070038000024507038050260070090710800603009020000000045080002350400000001200106094,976438512124597638358261479592714863643859127817623945781942356469375281235186794
040000010706000230031708090003820000025040600800930504600001708074500100090604000,549263817786419235231758496463825971925147683817936524652391748374582169198674352
340081070060050920008007100002004300003600004510709800120096087000040506090500000,349281675761453928258967143672814359983625714514739862125396487837142596496578231
307904000000000100142070306006000712031600500750080000029700003000840200405063008,367914825598326147142578396986435712231697584754182639829751463673849251415263978
008003260200100700400079500702090000090850004830407100300020005060700900500608430,978543261253186749416279583742391856691852374835467192387924615164735928529618437
000010060000095084493600700800000907360001420072008005700004500015307002006000103,587413269621795384493682751854236917369571428172948635738124596915367842246859173
085900600000300040710000008000001054930407002000260170007503209800100007490082500,385974621629318745714625398276831954931457862548269173167543289852196437493782516
004520910050009026700031840001060057076100009009083400300078002260000000040000530,684527913153849726792631845831964257476152389529783461315478692268395174947216538
190020800076003100002090605000600008700010000004800359209107004800005273500030000,195426837476583192382791645923654718758319426614872359239167584861945273547238961
001048700900050001086100090200700015070006902100590400427300800000005260030089000,351948726942657381786123594298734615574816932163592478427361859819475263635289147
705010060040800020000000704063070098000006500020390100001060280032004007007901305,795412863346857921218639754163275498879146532524398176451763289932584617687921345
030050190400007602009100700200803010090060820040500006105900230600200084000738000,732654198418397652569182743256873419397461825841529376185946237673215984924738561
000700001304080000901006720502070049000400530030060800003198400009000058760520100,625749381374281965981356724512873649896412537437965812253198476149637258768524193
080504630000010085400006002042085013100002506097000000900350701076020800000407029,281594637769213485453876192642785913138942576597631248924358761376129854815467329
600900000028041057743008000071000090000053018004006702060400920030802605000000071,615937284928641357743528169371284596296753418584196732867415923139872645452369871
540081060080200093000709001005003206000675900430800007100900000600104075320008400,549381762781246593263759841975413286812675934436892157154937628698124375327568419
008020003140005600000300009000050080400219057079004000050760800012003470060082030,798126543143975628625348719231657984486219357579834261354761892812593476967482135
450010003001204980008050700002001308065020190090700060070008000389507040000900006,457819623631274985928356714742691358865423197193785462276148539389567241514932876
048010009002000067071025008700490805100080620205003070000609402030000500500041000,348716259952834167671925348763492815194587623285163974817659432436278591529341786
019000700006004050704950280200600008000207000900080100000003000081002046007041903,519328764826174359734956281275619438148237695963485172492563817381792546657841923
100500090003186005002730400000000080800020961007090002020860307000005040045013600,176542893493186275582739416239651784854327961617498532921864357368275149745913628
300018200020000004401370005010609300903500008840020000200067059050830010007005400,395418276728956134461372985512689347973541628846723591234167859659834712187295463
002630050380054209690020100004000002268090005010006300900087000050040906070001008,142639857387154269695728143734815692268493715519276384926587431851342976473961528
003400170020060003000190000001008056290500708700230004800740090960080001005000300,683452179129867543574193862341978256296514738758236914832741695967385421415629387
000204180702061304050080020800002009600807003070410000093050046000700002400903050,936274185782561394154389627841632579625897413379415268293158746518746932467923851
000900040700020300035001980480060010060005200900400806040170600009604103200000057,128936745794528361635741982487263519361895274952417836543172698879654123216389457
506029001002300009400705030001050307620840090800001600089003460000004000270060050,536429871712386549498715236941652387623847195857931624189573462365294718274168953
100004005905006000400090810030700520702109400800300060509020030000480006380070041,178234695925816374463597812631748529752169483894352167549621738217483956386975241
072040600080901045100002070290307500040060030806015000360000950700800400009000301,972548613683971245154632879291387564547269138836415792368124957715893426429756381
005908076300204000000760530012090400970180000506000010080520061000003980020007305,145938276367254198298761534812396457974185623536472819483529761751643982629817345
000200010605000400010039708050870900002401600007003080003700000401508270908024100,789245316635187429214639758356872941892451637147963582523716894461598273978324165
031002406700000835005400090400003150000904000163750002020000600500870004090600087,931582476742196835685437291479263158258914763163758942827345619516879324394621587
800014070673900010000320009900500060001040007580002040704006098030090050006005200,829614375673958412415327689942573861361849527587162943754236198238491756196785234
086500209702010050510003000400020700070030601028009040050006070090700800100480035,386547219742918356519263487431625798975834621628179543854396172293751864167482935
