081036040020005130460970200800450000902080705010009000007300410034000589000020600,581236947729845136463971258876452391942183765315769824657398412234617589198524673
900206130050000078706500009070300210000807096013040000001050000208604700500009060,984276135152493678736581429879365214425817396613942587361758942298634751547129863
000018003000200087901060004504000300100600029070800460800425900005070001090003070,742518693653249187981367254564792318138654729279831465817425936325976841496183572
000000013740600200501280940002001406000302009685070000070008000034090705000430061,928745613743619258561283947392851476417362589685974132176528394834196725259437861
745900006100200807000430910001058400008000360029003070062810000030006004000079050,745981236193265847286437915371658429458792361629143578562814793937526184814379652
040009003001000706003650920960008001000043057007200000005100040032860000710004005,246789513591432786873651924964578231128943657357216498685197342432865179719324865
010800409400500061902070000000008530050009704607402008040000002103600080709001605,315826479478593261962174853294718536851369724637452198546987312123645987789231645
060001073005000900009264000002196000300500092050803401000002004604380105280070000,468951273125738946739264518842196357316547892957823461593612784674389125281475639
000800614030609000700040020590070201600000080010350000001060500860013740907205003,259837614134629857786541329598476231673192485412358976321764598865913742947285163
800006907950380401001057000500609000010520030000470026040010295290000800038000000,823146957957382461461957382572639148614528739389471526746813295295764813138295674
020908100006320050000007003500000007401000200098401060080069500750080004030240800,327958146916324758845617923563892417471536289298471365184769532752183694639245871
500370001009008000084120600020007000300580096001060473400090002003810540670000800,562374981139658724784129635926437158347581296851962473418795362293816547675243819
300290007000084250000000104250700030060540080004068009006001002015000640829070000,341295867697184253582637194258719436963542781174368529436851972715923648829476315
609001500000530000000068041004000910007102850030007600820009070403080096100006302,649721538718534269352968741284653917967142853531897624826319475473285196195476382
090708053203000710010520409000800041000079000409061020030000604708230000105900080,694718253253694718817523469376852941521479836489361527932185674748236195165947382
080007360070500090103204005057106028012040000009708500006030907040000210900400800,285917364674583192193264785357196428812345679469728531526831947748659213931472856
000000800000130097100982450030040009500000180800657000013460700602705000008009014,329574861485136297167982453236841579574293186891657342913468725642715938758329614
703049000210057004000803600000960005007010320100005480580300701040000092006200040,763149258218657934495823617834962175657418329129735486582394761341576892976281543
400100053207060009050028060064207090000000830090051004013506028000910700005000006,486179253237465189159328467864237591571694832392851674713546928628913745945782316
080600407090000000206010038003200040070003905804501002000460210600030050015907003,381652497597384126246719538953276841172843965864591372738465219629138754415927683
307050000020407003906100005400001798060000100009728064000035020210900800005600307,387256419521497683946183275452361798768549132139728564674835921213974856895612347
090817004074095008000020030000940502015703000060001870006030045100402009803000060,392817654674395128581624937738946512215783496469251873926138745157462389843579261
005900703080400000201068500800059100072380000090000040000200005020003906600817430,465921783987435261231768594843659127172384659596172348314296875728543916659817432
090728400600009832000000001207000000010360004050890170005200960809004300003015000,391728456674159832582436791237541689918367524456892173145283967829674315763915248
081029500400106083000050206009503070010800600760040098043080069170000002500000700,681329547452176983937458216829563471314897625765241398243785169176934852598612734
075600008982007060001092040000070130360008002209000000000504703890000000000100684,475631928982457361631892547548276139367918452219345876126584793894763215753129684
090003170204090000035007008560700000008201003000000604009300201680000900702840305,896453172274198536135627498561734829948261753327985614459376281683512947712849365
009070056400089207160000030004032700003000904050000061290157000506003000070204008,829371456435689217167425839614932785783516924952748361298157643546893172371264598
301504090060870405080000700640080100007409002250600008100703060090002304005060010,371524896962871435584396721649285173817439652253617948128743569796152384435968217
600870001100609300080230059075400060016000840000002003030900010401750208900086500,693875421152649387784231659375418962216397845849562173538924716461753298927186534
000089004003650000010020607009500086076304150200000000050200009080040360761000208,627189534493657821518423697139572486876394152245816973354268719982741365761935248
070500602006003004480006700500004810300960070000102000034020091902080000057001400,173549682296873154485216739529734816341968275768152943834627591912485367657391428
020800400703000012001600590002904081000030005154006000090008000400075038305090207,529813476763549812841627593632954781978132645154786329297368154416275938385491267
005004090092600043630001802016900500083000900000817000000070400300580070200300608,875234196192658743634791852416923587783465921529817364968172435341586279257349618
032650980700030501006907002300170208869000000000090045004520700000004056100800300,432651987798432561516987432345176298869245173271398645684523719923714856157869324
800007002000500069170620300002906000750003006390850140001200070034000090600140508,865397412243581769179624385412976853758413926396852147981235674534768291627149538
016000003340000900000087401900010000002008740607905208005270004090060180400003052,716459823348126975529387461984712536152638749637945218865271394293564187471893652
010780900300050008060000010809100243001400007020900800057006000203070060006890020,415782936392651478768349512879165243531428697624937851957216384283574169146893725
100608200007000150540001830002074000600900500010500304869200000020306400030087090,193658247287439156546721839352874961674913528918562374869245713721396485435187692
800710090902005000000802304009200016007001830405030720024000901031400587000006000,853714692942365178176892354389257416267941835415638729724583961631429587598176243
508400002000008400030007000069304750704006210800100060000603097901500040006010805,598431672617258439432967581169324758754896213823175964285643197971582346346719825
523000007090600402007903010030001206005004000910700080400030001082057600000016054,523148967891675432647923518738591246265384179914762385456839721182457693379216854
000902001870600900100304050005000207700015490006890035301000740090100800480000003,654982371873651924129374658915436287738215496246897135361528749597143862482769513
030257000094000070200001036020070005900042001675800009000080200300009108510300600,836257914194638572257491836421976385983542761675813429769185243342769158518324697
702500680460080900000130002087093500500200001090800040005900100870004009640000750,712549683463782915958136472187493526534267891296815347325978164871654239649321758
700059003380601005021080400000704058002000040904026071260908000035000000000003160,746259813389641725521387496613794258872135649954826371267918534135462987498573162
800400102900703050041800000030002010009040006287050900020007590104209007003000600,875496132962713458341825769436972815519348276287651943628137594154269387793584621
003050807000086034100007060008000010507049300010500092049210000062804000700093008,693451827275986134184327569938762415527149386416538792849215673362874951751693248
016002090020007350080104007098003260250900408003080000500400000000031000400570916,716352894924867351385194627198743265257916438643285179561429783879631542432578916
010040200000000087800039056304006000601720809700053020905018300002600048070090500,516847293293561487847239156324986715651724839789153624965418372132675948478392561
827000060000006958090000204300001007700508310040027600030060840100900000085030002,827459163413276958596813274358691427762548319941327685239765841174982536685134792
035400706800009030000602100006508002700940005010000389940370060007000520103800000,235481796861759234479632158396518472728943615514267389942375861687194523153826947
009000013580032007020006400070004160000080329906005070000001536803200000415700900,649578213581432697327916458278394165154687329936125874792841536863259741415763982
000006020910803040400050300002900000030070561045081070000407006760010203058090010,583746129917823645426159387172965438839274561645381972291437856764518293358692714
009004500020076008031090047906000010340000075000029800100000206000018054074530000,769384521425176398831295647986753412342861975517429863158947236293618754674532189
758040090000705080006000100014830006000002000239570008400020500970000023005381049,758143692192765384346298157514839276867412935239576418483927561971654823625381749
008160032270005000041000090190000070034026008005003060060037084000589300002000057,958164732273895641641372895196458273734926518825713469569237184417589326382641957
637002800200090045040310000068000504000640000100907230000023070900800102805170000,637452819281796345549318627768231594392645781154987236416523978973864152825179463
400700906005610030030408000603200700000041090918070000200053007001020060059000420,482735916795612834136498275643289751527341698918576342264953187371824569859167423
047000081520009000600300702001680070000520019830000204003150600050407008970030040,347265981528719436619348752291684573764523819835971264483152697156497328972836145
040370080009010070002006304730200409006740005510000800000903016050000000801420790,645372981389514672172896354738251469296748135514639827427983516953167248861425793
703100008040950002006084900000210603020000045019300000100007380580006209004000070,793162458841953762256784931475218693328679145619345827162597384587436219934821576
024000000600000091700000530030640000100300002009520078001960740507403006206008910,924135687653874291718296534832647159175389462469521378381962745597413826246758913
036070028040280051000005790015306002807002005000000100102004000000500930400698007,536179428749283651281465793915346872867912345324857169192734586678521934453698217
005900376006700200230108009003040507080006002170009000400003008002500910090000630,815924376946735281237168459623841597589376142174259863451693728362587914798412635
030400009700056000005902800000010004040500236200608907090100600008704000107830020,632481759789356142415972863976213584841597236253648917394125678528764391167839425
803046075400010000009700000006007023000009800500130090001200600967051340004000980,823946175475318269619725438196487523732569814548132796381294657967851342254673981
900301005007080040062004039000010006003872100205006300500900672049200000700005008,984321765357689241162754839478513926693872154215496387531948672849267513726135498
300001007070000421006209500000003790000450008083060205005120300002085014600700800,328541967579638421416279583254813796967452138183967245845126379792385614631794852
704200500800690004000007030300104009209500670005006008003051060007000090510780020,794213586832695714651847932368174259249538671175926348923451867487362195516789423
600000000080030407007006109000900008259400000041200600436087020100000570002601300,614759832985132467327846159763915248259468713841273695436587921198324576572691384
050903708860400009000006250502000800900120030100074006020890507400307100080000090,254913768867452319319786254542639871976128435138574926623891547495367182781245693
900008302800002056000070004407203000080600473050090100120400860093050000640100507,974568312831942756562371984417283695289615473356794128125437869793856241648129537
000008061605940800709000000030051080072306000040020609490700200200100006008030540,324578961615942873789613425936451782872396154541827639493765218257184396168239547
700582901040030070805000000620050000470060003000900802130079000500006700090010604,763582941942631578815794326628153497479268153351947862136479285584326719297815634
706005430048900060000030700060010000900004803105027009412008000503000070070500102,796285431348971265251436798864319527927654813135827649412798356583162974679543182
200380006097500004048000130006007012000693007059008400000120000502009370480000500,215384796397561284648972135836457912124693857759218463973125648562849371481736529
960008051043000060080930204328001900000000700100485000690027080005060007010300420,962748351743512869581936274328671945456293718179485632694127583235864197817359426
000900103740800006900540800420006007000209500008073010035000000000010698106720000,582967143741832956963541872429156387317289564658473219835694721274315698196728435
000020901000000050056100084008014000009806203730500046900000308070043060002008075,487625931193487652256139784628314597549876213731592846964751328875243169312968475
002703000810600300040089065060070091400000508000452600500100040398000010070800209,652713984819645372743289165265378491437961528981452637526197843398524716174836259
860000000904050630700600812000135000000200095300060471003000720000579000610300900,861723549924851637735694812479135286186247395352968471593416728248579163617382954
192000008080510700400002003207090000600000540000830102900140060060000490050008031,192374658386519724475682913217495386638721549549836172923147865861253497754968231
005000090080207600460009730021608040000300029508000000100402005049501070007086300,715863492983247651462159738321698547674315829598724163136472985849531276257986314
000000600045620008073015009060000205087900000900402060509080070020301504038007010,892743651145629738673815429364178295287956143951432867519284376726391584438567912
400000000009620050700030916050002760008090020000450300002308671064507008100000003,416975832839621457725834916953182764648793125271456389592348671364517298187269543
580700309000250067003001000090480000307060002200500196006300500005900074820000001,582746319419253867763891245691482753357169482248537196976314528135928674824675931
029013000070200049008006520000090038800504906607001000000845003400700605030002700,529413867176258349348976521254697138813524976697381452761845293482739615935162784
002800003070040500090071000040680002100900675500200908304006200915703004007050090,452869713671342589893571426749685132128934675536217948384196257915723864267458391
732904000001300002900108600000030000204000570060502940003806001050700200809001004,732964815681375492945128637598437126214689573367512948423896751156743289879251364
070300060082010700090600024400050302053960000000007040100526009000098003025700018,574382961682419735391675824467851392253964187819237546138526479746198253925743618
000100709200054600981006030000300500069078000043010092006030207800590060070400001,654183729237954618981726435128349576569278143743615892496831257812597364375462981
608040500030850069040001000200000097061000030900702801005006183000930020027104000,678349512132857469549621378284513697761498235953762841495276183816935724327184956
003406090059007401001000800025000000948600000000900025000081034070250080002004709,783416592259837461461592873625173948948625317137948625596781234374259186812364759
600400207009000100030150008080002046050700001124060800000070460705038902060509003,618493257579826134432157698387912546956784321124365879893271465745638912261549783
502090400600003810008610907000004050081530200000720006020450070060070090409160530,512897463697243815348615927236984751781536249954721386123459678865372194479168532
007061200020708300510000804072040030980602001000890000000304709045007160090520000,837461295429758316516239874672145938983672541154893627268314759345987162791526483
020070800600200095753090000006008940000000001395700000008400200000031008174902300,429175863681243795753896124216358947847629531395714682538467219962531478174982356
004100920000008507010732008309640001800025000076000034000000000602080479007964300,784156923263498517915732648329647851841325796576819234498273165632581479157964382
000000000530712040007065203986000010300280700040050900804100090060004870190030006,629348157538712649417965283986473512351289764742651938874126395263594871195837426
