000420000095006018100580073000003050008700162210000007001037620040800000360040900,783421596495376218126589473674213859538794162219658347851937624942865731367142985
001050420003600805090000007000390006302700900000405701609180004054060010200030000,761859423423671895598243167175398246342716958986425731639182574854967312217534689
000602087200137000605400100004000506501790030000008900087000064020001790400306002,913652487248137659675489123894213576561794238732568941187925364326841795459376812
090007100000040068200005407007006809500300020048090610430060000070130080015209006,694827153751943268283615497127456839569381724348792615432568971976134582815279346
020705049000308006730090200000001820046803100900000000402100608010057030500000907,628715349194328576735496281357961824246873195981542763472139658819657432563284917
800060150003002000700005903070003610045090032900020008090401060000000870102750004,829364157513972486764815923278543619645198732931627548397481265456239871182756394
050120400070908601090030080037010200009750040180000030002009005010400076308000020,856127493273948651491635782537814269629753148184296537742369815915482376368571924
005400010906007300000060008003080160017092500850000090000030942420109700370000000,785423619946817325132965478293584167617392584854671293561738942428159736379246851
610000408280009730003100009500043000000007506008060097106000200045200070090478105,619732458284659731753184629567943812931827546428561397176395284845216973392478165
006010003450790008020345070000003720010600000800020095507800100300900802000000460,976218543453796218128345976695483721712659384834127695547862139361974852289531467
091780056004009002083060010060908200800500070025100000030002001070050039016003400,291784356654319782783265914167938245849526173325147698938472561472651839516893427
080109006070543900501020407429007001000000003160908000005002000000030264740601080,384179526276543918591826437429367851857214693163958742635482179918735264742691385
060830040704000020008001590100940250030005000009700680056008700800200930090010004,965832147714659328328471596187946253632185479549723681456398712871264935293517864
040052700207010000009000048060004000300280100805030009070920050406100023030005810,643852791287419536519367248761594382394286175825731469178923654456178923932645817
870000050000079108012350000000200430093014800604000709050000390700540000401082006,876421953345679128912358647187296435593714862624835719258167394769543281431982576
000070049204000810601080005009004120000390657850600000730200000010060790005800003,583176249274935816691482375369754128142398657857621934736249581418563792925817463
003720006000000070290001040701062504900300020820075031000538000000000950406000813,543729186618453279297681345731862594965314728824975631179538462382146957456297813
000500861010700004203006700060850090408090020130007006805064300070020015000000900,947532861516789234283416759762851493458693127139247586895164372374928615621375948
580039001416080050000000076040195067621004008000000030000020000870406002950708003,587639421416287359239541876348195267621374598795862134164923785873456912952718643
008400091102005073059000000000608947600201000005030002003002614710900025000084000,378426591162895473459317286231658947697241358845739162983572614714963825526184739
050023060163000000400700805620087009908005040701090200080059607000004001009000083,857923164163548972492761835625487319938215746741396258384159627276834591519672483
054010000000460702600208150090070035007390680008000070930640800020500900080700013,254917368813465792679238154192876435547392681368154279935641827721583946486729513
300502800080600005007030410509048070001900030006001509200097000010203008940000006,394512867182674395657839412529348671871956234436721589268497153715263948943185726
000500379894000010700201400040105600910003508002000000020008001076042050003700940,261584379894637215735291486348125697917463528652879134429358761176942853583716942
008307150901060040000095206040800063107026000009000500000401800200003974700950001,628347159951268347473195286542819763137526498869734512396471825215683974784952631
019020086007000000000063597000080403002500000056007109074001830920045070100306002,519724386367958214248163597791682453432519768856437129674291835923845671185376942
000100080005920370607030904060003501900602000740000800009040020400750609830001400,394167285185924376627835914268473591951682743743519862579346128412758639836291457
026700003000060100490023800160042900300005000045801070008004001050030602700980405,826719543573468129491523867167342958389675214245891376638254791954137682712986435
300600082000190300705000004000000407100206030978001205043700009020005800801060070,319654782482197356765823194236589417154276938978341265543718629627935841891462573
240000050608000790170920400304500026092800073080010000000257930000040000005003680,249786351658431792173925468314579826592864173786312549861257934937648215425193687
840360020730090100000057009090035001210700350000004806604008000380910502000200007,849361725735492168162857439498635271216789354573124896624578913387916542951243687
006092700009050008200470001300100050604005902500046800120900030050800064007003200,816392745749651328235478691372189456684735912591246873128964537953827164467513289
304090870007000905200086000009200106010568007800300200903071000750820040000000031,364195872187432965295786413539247186412568397876319254943671528751823649628954731
200560000503040018086001500000107000401006750607250003700000032109703060000089400,214568397573942618986371524835197246421836759697254183768415932149723865352689471
905000000070450019300070460409000301820030600060890507018007043030018000702006000,945681732276453819381279465459762381827135694163894527618527943534918276792346158
009806273000140060005000004070490085901207000340000002086500900003001048720060300,419856273837142569265379814672493185951287436348615792186534927593721648724968351
000400672200800001010075900460000000708900105030160420087051009040080030503002007,859413672274896351316275984461528793728934165935167428687351249142789536593642817
050208007203600004000095010800050020025000703000109600400087005006400370910006800,651248937293671584748395216869753421125864793374129658432987165586412379917536842
200085000007100930003000506604010702900004600010020083800940007450270001000056200,296385174547162938183497526634518792928734615715629483862941357459273861371856249
003750804000010020097034650605097000080401007300200400504006308026000900000008010,163752894458619723297834651645397182982461537371285469514926378826173945739548216
970060000003090210006853000780900300032000670040700100501040002460120008000005040,974261853853497216216853497785916324132584679649732185591348762467129538328675941
000006080506100000092078053710805009000630400000040120470312096020900030008000700,347256981586193247192478653714825369259631478863749125475312896621987534938564712
400001263000200700051037000004060000600800500708502100006009870000100394370005002,487951263963248751251637489514763928692814537738592146146329875825176394379485612
030671009060230740082000000005080010096003050400009300107090584000057200800020030,534671829961238745782945163375482916296713458418569372127396584643857291859124637
800070400190200580070300060007000000650019300020548900430800012080103700005006090,862975431193264587574381269947632158658719324321548976439857612286193745715426893
002001690003078000041920530798040300004060021000057004019000200000003470600000805,572431698963578142841926537798142356354869721126357984419785263285613479637294815
700100038003009020400070906100082005900040203068500040070814060500003010020060090,795126438683459721412378956134982675957641283268537149379814562546293817821765394
000967500003000800045100020082016904760005032104300070008400096200031007030090000,821967543973254861645183729382716954769845132154329678518472396296531487437698215
521090003600300000098000405460000907000002050050689100000200004970406038280050060,521894673647325819398167425462531987819742356753689142136278594975416238284953761
019004000000030102000025940030250080900060401508009700107386000320000007096740005,219674538645938172783125946431257689972863451568419723157386294324591867896742315
400915002016000050200004083028401000079682000300000060800050730057800900004206005,483915672716328459295764183628431597579682341341597268862159734157843926934276815
290450300600000070830160005042080000780620501000304900009030000050702080400900760,297458316615293874834167295942581637783629541561374928179836452356742189428915763
000010006948730001200805300080070004300001020002460809000100002006059700150000093,735214986948736251261895347689572134374981625512463879893147562426359718157628493
000001056300067290018000403090100085040280000080003704009020000007540010025009360,972431856354867291618952473293174685746285139581693724169328547837546912425719368
324000060500000317010009002890060001005000643000070850008700094067025000402010500,324187965589642317716359482893564721275891643641273859158736294967425138432918576
390001002200840009008905400580706000402050780001000300006200070005060043700030120,394671852257843619618925437583716294462359781971482365136294578825167943749538126
405870060720040003906005200508209000003150890000004730860000071000060000014000350,435872169721946583986315247578239614643157892192684735869523471357461928214798356
000407960029000001610002800046020090902050700000380400780106050005000003003940180,358417962429863571617592834846721395932654718571389426784136259195278643263945187
002609000000010380600750001900406020784300005200000107107002450005000630003008009,312689574579214386648753291951476823784321965236895147167932458895147632423568719
030600089200800407000057000006002000009016203305740800790001000804000306052930004,537624189261893457948157632176382945489516273325749861793461528814275396652938714
280000095030060200407200030000094007709000006060038010953400800001500064070829000,286341795135967248497285631318694527749152386562738419953416872821573964674829153
072600080900042301000085000000017420000000093406000100300560700050801009860900240,172639584985742361643185972598317426217456893436298157329564718754821639861973245
000000001100450060346200509708600002050080000004003908961008700005002813003700006,597836241182459367346271589738694152259187634614523978961348725475962813823715496
073060200506000008080500709750030006010800000200900540420007091000020430600019805,973168254546792318182543769759234186314856972268971543425387691891625437637419825
000001000000390400108420760507600008009007120600008504002000800061004030094750002,946871253275396481138425769517642398489537126623918574352169847761284935894753612
005208000071050680060900034690830201200004700040001090320500100000040063080070000,435268917971453682862917534697835241213694758548721396324586179759142863186379425
501009004034010070020005360006030100940000028070500009000700050680001400390086702,561379284834612975729845361256938147943167528178524639412793856687251493395486712
007000503002890061040032800000005010025700000030104090906000080510900230000416007,897641523352897461641532879469385712125769348738124695976253184514978236283416957
000087503008000900320009060805030006702000104930610000400905020270460800003001007,649287513158346972327159468815734296762598134934612785486975321271463859593821647
503906004700008010098047002410090060080000439000020080300604107000100500640502090,523916874764258913198347652417893265285761439936425781359684127872139546641572398
600030271000790540300240906001083007058002300960000010400019005087000460020004000,694538271812796543375241986241983657758162394963457812436819725187325469529674138
004103007070200405986000030600870050038000010091056200000400900300090020020708061,254183697173269485986547132642871359538924716791356248865412973317695824429738561
090000830005096072230108050180530600050000040000002007300800205060010004409607100,796425831815396472234178956187534629952761348643982517371849265568213794429657183
680103700104070290070045080000000875000084109035700000040820000916000020000901306,682193754154678293379245681491362875267584139835719462543826917916437528728951346
650089031094002700070100002003060090060000203800027510020070008506000000400856100,652789431194632785378145962213564897765918243849327516921473658586291374437856129
047006002008030090036125800000001030070040001650970008005300629000400000120080057,547896312218734596936125874894261735372548961651973248485317629769452183123689457
001003060280500300970018400030095071009200500004070096100802005060000007805009020,451923768286547319973618452638495271719286534524371896197832645362154987845769123
010082000004170302008906057640500019507010003080600070100093000079000400020008600,715382946964175382238946157642537819597814263381629574156493728879261435423758691
501008040400000379006320500300890006207000058010600000070006800902005004040100023,531978642428561379796324581354897216267413958819652437173246895982735164645189723
800004630300010700065702090730108020009350800010000074601980040047600100200000005,872594631394816752165732498736148529429357816518269374651983247947625183283471965
000070210030000005264800003008100040500000067001054009900720456020001900780096020,859673214137942685264815793398167542542389167671254839913728456426531978785496321
089000260006000054040300701000120000034607000812043005700500890000080010560290307,189475263376812954245369781657128439934657128812943675721534896493786512568291347
684000000320050010070906002098030070001400000500210890003009064000100907067800035,684321759329754618175986342298635471731498526546217893813579264452163987967842135
700000400589001600060205900030080000008900751000402090420003080005060302190004070,712698435589341627364275918931587264248936751657412893426753189875169342193824576
100008290050090703600502000036000000000014000800260047080145000090700834700009510,143678295258491763679532481436957128927814356815263947382145679591726834764389512
036007094000100700207040086080932050003084200009600008000008401064090000510000032,136827594845169723297543186481932657653784219729615348972358461364291875518476932
109040705040800013000096200020009800010005036306080009205700000060020307007500140,189342765642857913753196284524639871918275436376481529235714698461928357897563142
600791000008302000790000360400000800050004791817500030002640170060080200900200580,623791458548362917791458362439176825256834791817529634382645179165987243974213586
000060010300970000850130029080300507562040000903000008000006350407205190000090800,729568413341972685856134729184329567562847931973651248298716354437285196615493872
800000902000570400346001000010602700985000000700840350091003060004090180200706040,857364912129578436346921875413652798985137624762849351591483267674295183238716549
056901048800300100000070020200009370039100060041005090090016007060000584423000000,356921748872364159914578623285649371739182465641735892598416237167293584423857916
400100608208003079007800042000700300010006050905300804090001706000095020603008000,459127638268543179137869542826754391314986257975312864592431786781695423643278915
100093004020000010005740062074080509000000003086305000693004000700502100250007408,167293854429658317835741962374186529512479683986325741693814275748532196251967438
008902570500003006412500800000000764057060000030008009000001408283409000006207900,368942571579813246412576893821395764957164382634728159795631428283459617146287935
041006850002043000700100064907300016050902000834050007070000000600500209005208103,341796852562843791789125364927384516156972438834651927273419685618537249495268173
000450010020390708630800000001000006073680290009017340500030080040100060702000904,987452613124396758635871429251943876473685291869217345596734182348129567712568934
000000100400800039970014085090003800035600092006027051304100006010070500080052000,568739124421865739973214685192543867735681492846927351354198276219376548687452913
100740002009020086060008030025080104304600950700095008290070000657001000000000203,138746592579123486462958731925387164384612957716495328293874615657231849841569273
030690050080103400209570080053069007700800602800000010040700500060031020002050190,437698251685123479219574386153269847794815632826347915941782563568931724372456198
002100000009065000803040150200070084501300760000002000084020610060008079100590043,652137498419865327873249156236971584591384762748652931984723615365418279127596843
