500008000370960000094100270402000150708495000060001800600300504000024063000070908,526748391371962485894153276432687159718495632965231847687319524159824763243576918
040960730509030002070154000200000360000001807106083040000009070005240980603500000,841962735569837412372154698287495361934621857156783249428319576715246983693578124
006040700300560040700100580000708051004250038890003020500601000281004000060300072,956842713318567249742139586623798451174256938895413627537621894281974365469385172
800005300054000908302007060063009507000100600085000010700801400036900021410020006,871695342654312978392487165163249587247158639985736214729861453536974821418523796
500600000728009000601740020309000071100050836000170209263400900000000005040380010,534621798728539164691748523359862471172954836486173259263415987817296345945387612
900000700051003020000040306000096080700080695000402007060200008074905013025830004,936528741451673829287149356513796482742381695698452137369214578874965213125837964
007620003400010052065480009501000900048070020326000805000300047000001500002709006,197625483483917652265483719571832964948576321326194875619358247734261598852749136
000030000600097800020005910400080190908000067050700040590310704810204000760008030,189632475645197823327845916476583192938421567251769348592316784813274659764958231
809036200000500096003900841010000000300475060006810403650000007700094008901002000,849136275127548396563927841415263789398475162276819453654381927732694518981752634
060108207000050006407003900140706500000010060078090302010009000023604080750000409,569148237231957846487263951142736598395812764678495312814529673923674185756381429
009043080060800271002000009005460000043001502600007000450090100010620430008100050,179243685364859271582716349895462713743981562621537894456398127917625438238174956
901020300670004020030508000000403000000065078017090005008300960503000100102087040,981726354675934821234518796856473219329165478417892635748351962563249187192687543
005040800016387040000069002480000090002090073350102000600003109008700050001024600,795241836216387945843569712487635291162498573359172468674853129928716354531924687
003609800068030070010470000059000010400007300300100459100703040690054200000060580,743619825968235174512478693859346712421597368376182459185723946697854231234961587
480300200200700003650190700000030195009070400804020030100940050372805040000000006,487356219291784563653192784726438195539671428814529637168947352372865941945213876
000001000089000754003700602070004030025009081004300900500032070091406800600080500,267541398189263754453798612976814235325679481814325967548932176791456823632187549
005008030710320009960100800000007190054690280100002603009000005482050300000046070,245968731718324569963175842826537194354691287197482653679813425482759316531246978
009000005002006001810230000040000690007165204030089007600004100100000853000508009,369841725472956381815237946541723698987165234236489517658394172194672853723518469
500926080000003020079000100130040000000030705847200600604050001092001300300070908,513926487468713529279584136135647892926138745847295613684359271792861354351472968
003080005000000024784506010047019200200400150009000300800601000302090008076032090,923184675651973824784526913547319286238467159169258347895641732312795468476832591
510009000008000030006075200000500004043020089890031070700250106059080420301004800,512349768478612935936875241267598314143726589895431672784253196659187423321964857
006204050704000009920085006108000040070000900000050378500941002030070080040806500,816294753754613829923785416198367245375428961462159378587941632639572184241836597
000830001043009500080021790000040020520000006070500308030087100004106000210054069,792835641143679582685421793361748925528913476479562318936287154854196237217354869
000093000700001080046000200009247005500800006084006039850104003061000502470050100,128493657795621384346785291639247815517839426284516739852164973961378542473952168
005000032000006400800120560030090084006007010080040693058019007120030000740805900,965478132312956478874123569531692784496387215287541693658219347129734856743865921
023040080900602007500109026006070400804050100002000035408700000070903060100800053,623547981981632547547189326356271498894356172712498635438765219275913864169824753
030500270004000030760200100007090026300807050190035400020704500480100000001060809,938516274214978635765243198857491326346827951192635487629784513483159762571362849
300107406000080700000460030050020107160309000090050060005970840280500900001004020,328197456546283719719465238453628197167349582892751364635972841284516973971834625
020010400500060871000904600063070050005640910049100000030590740008207009010000023,326718495594362871871954632163879254285643917749125386632591748458237169917486523
003070006406053000000140502072001060080009005900060078230005090000430107501800000,153278946426953781798146532372581469684729315915364278237615894869432157541897623
200006507485002000030000041004059012960070800003140060007000930190307020050080006,219436587485712693736895241874659312961273854523148769647521938198367425352984176
030000705008002060490000010040075821200019600700003400570800093306050208000041000,632194785158732964497568312943675821285419637761283459574826193316957248829341576
030010070009604201000507004507200800100009546086000000002908000050006030604020710,435812679879634251261597384547261893123789546986453127312978465758146932694325718
042501006700000580010690300035700100001863007000002009003000805980010074000420060,342581796769234581518697342635749128291863457874152639423976815986315274157428963
200070500000130907004005020590304000080200100037080000700690034600700815028000060,213479586865132947974865321592314678486257193137986452751698234649723815328541769
410000000592060800007920650000650210009007003800300470008010034004702060051009008,416875392592163847387924651743658219169247583825391476278516934934782165651439728
030000580509040003610007900000000000700009264401032750000700006002815070980026000,234961587579248613618357942826574391753189264491632758145793826362815479987426135
028010900000074203600020017800000400097630000036501000005002009380009540074000602,728316954519874263643925817851297436497638125236541798165482379382769541974153682
364000000007000090000076105940001008005900007700064230090800060000029081580410003,364195872157248396829376145942731658635982417718564239291853764473629581586417923
003400050008076401200000000800250090120080300765900040470009208056000019000731000,613428957598376421247195683834257196129684375765913842471569238356842719982731564
003000204904600850850700000600210079000008530509004006046007095080400001007032000,763859214914623857852741963638215479471968532529374186246187395385496721197532648
400060970005003006002705801700096302020100060503804100006300008901072000300010040,438261975175983426692745831714596382829137564563824197246359718981472653357618249
050000008200007360100040090503860041001400200620030005060059400800700000309004700,457396128298517364136248597573862941981475236624931875762159483845723619319684752
060003500080700219950040000000061007004000380018094650000600824500100903002070000,267913548483756219951248736325861497694527381718394652179635824546182973832479165
064900807008042305090000060040710908003005200070008046907500100000000024036800000,264953817718642395395187462542716938683495271179238546927564183851379624436821759
500000928890010607320000050000643080050008700000075093001437200600800000000926001,517364928894512637326789154179643582453298716268175493981437265642851379735926841
680925070040300605000047009070009480050062003201000000508000001037010200010400306,683925174749381625125647839376159482854762913291834567568293741437516298912478356
039000504500001070040070030800207600016008723900000005670310900305090042004820000,739682514568431279241579836853247691416958723927163485672314958385796142194825367
700869501050000089100040000001028600640010900038900700802070030500300070060500402,723869541456137289189245367971428653645713928238956714892674135514392876367581492
500860000408300510100002703002706040070040200690010300003508624000009050080020100,537861492428397516169452783352786941871943265694215378913578624246139857785624139
406800020037605000200090301509106740670300080008009000010702056050000104004030009,496813527137625498285497361529186743671354982348279615913742856752968134864531279
200070809004006020307508416600000900008050007000812030001005000400900070820003194,216374859584196723397528416652437981138659247749812635971245368463981572825763194
057800040002009680030120000510600402060000019008040007400058000290006300600700150,957863241142579683836124795519687432764235819328941567471358926295416378683792154
007304000900002840504080000308750190020018056006903470000001003010070520000600980,287394615931562847564187239348756192729418356156923478895241763613879524472635981
001784000073006400080300020000000197720003060014509080000061005008900340500200906,251784639973126458486395721835642197729813564614579283392461875168957342547238916
560090040907040100080006702000003500010087006675000301004015208003009600020430050,562791843937842165481356792248163579319587426675924381794615238853279614126438957
030960008007030259102500000705001800000000320640078090080050170009000465400006003,534962718867134259192587634725391846918645327643278591386459172279813465451726983
137005000095000261000040000620900400340800507000013020700306094000270058860001030,137625849495738261286149375621957483349862517578413926752386194913274658864591732
030260000810905047000008300100800790060049503502070408680720001000006000409000050,934267185816935247257418369143852796768149523592673418685724931321596874479381652
905020601871000000000003590400500072569740030010090000700000053048970000000006040,935427681871659324624183597483561972569742138217398465796214853348975216152836749
000490500027060900000002018096001040300570000800003279253700800900080103001005027,138497562527168934469352718796821345342579681815643279253714896974286153681935427
205000010080160700007002640000085000009640130500903027034700000000891400010500290,265478319483169752197352648371285964829647135546913827934726581652891473718534296
000068100013207090700140350450910070800000010930005602006004080290000005000732004,549368127613257498728149356452916873867423519931875642376594281294681735185732964
090560007680017900005903104001024800008006025070009030450308009060040000807000200,194562387683417952725983164531724896948136725276859431452378619369241578817695243
080600970000002001130005006790020063014300700500700049060030002870901005009048000,285613974946872351137495286798124563614359728523786149461537892872961435359248617
000379000240500300760001800502090600400000037001030005600782090080004210005600004,158379462249568371763241859532197648496825137871436925614782593387954216925613784
008004020000050300300100807970020080023570009045080076001030045000200900060700100,758394621612857394394162857976421583823576419145983276281639745437215968569748132
000309108100000300070280090052160400064000003908020570490000030600758002005004060,246379158189546327573281694352167489764895213918423576497612835631758942825934761
040038000900500031000910206500380000601009070804702009010006042007140300006000057,142638795968527431753914286579381624621459873834762519315876942297145368486293157
007861000009002007000030540060080001870009460905400030000058710420000008000610093,547861329639542187182937546264385971873129465915476832396258714421793658758614293
000900005090420170805007200000700830001092706064010050037006409240800003050003600,472981365693425178815637294529764831381592746764318952137256489246879513958143627
075000130020406000900317005013068020004000000069200380000003907800905002400721000,675892134321456798948317265713568429284139576569274381152683947837945612496721853
000020000300408175009360400006100908410000000070802010204637000085010090030500604,841725369362498175759361482526173948418956237973842516294637851685214793137589624
910000040000350200006800310050007030804009700002536080040000800100970005370200690,913762548487351269526894317651487932834129756792536184249615873168973425375248691
000200610043000090700900005080507302021403007000000800400090000160840030902750004,895274613243165798716938425689517342521483967374629851458391276167842539932756184
800000000097006410062730000003409070000320500080000620035204890210000050640805031,851942367397586412462731985523469178176328549984157623735214896218693754649875231
706005200910600080400200037000000743003907500080500090001306000290081006005402801,736845219912673485458219637529168743143927568687534192871356924294781356365492871
900200605035009107002470000240800006509102080007060300000040201800006039704090500,978213645435689127612475893243857916569132784187964352396548271851726439724391568
200500037160000908704000050000659070450730010070800002080070604029013000000280000,298564137165327948734198256812659473456732819973841562381975624629413785547286391
024071900890050007000046020300000706150080340006402500000309005030060108900500630,624871953891253467573946821342195786159687342786432519468319275235764198917528634
800006000420037100051024009003000802700609400006002910900050000300741005000003708,837196524429537186651824379193475862782619453546382917974258631368741295215963748
004620003800001069900000405001590840000708032005003000106800000073004100090070026,514629783837451269962387415321596847649718532785243691156832974273964158498175326
000430000610087500040000906903800020005009001020370000400000600850240107079001304,597436218612987543348152976963814725785629431124375869431798652856243197279561384
700010360030408020500200081020170000003004500600503040004800006200006803160050079,782915364931468725546237981425179638813624597697583142374891256259746813168352479
040001507905067000201004089060000050009040100800200304300180096000009420700056000,648921537935867241271534689463718952529643178817295364354182796186379425792456813
064705080790300610200080004102004500000009046000103800025608700000500000806000203,364715982798342615251986374172864539583279146649153827425638791937521468816497253
006090732700681005004200000610000040530400009002053078200005006000870150840010900,186594732723681495954237861618729543537468219492153678271945386369872154845316927
500020000008600031100900000002790060304805700070042500401070009020300610706500208,593421876248657931167938425852793164314865792679142583481276359925384617736519248
408003507307060100090200000006020700750090001180004305009100053013806004640000002,468913527327465189591287436936521748754398261182674395879142653213856974645739812
020060000400009700937040026005000000201006009040587030560200078704308060000001350,128763495456829713937145826385912647271436589649587231563294178714358962892671354
000900012030052600807003004000800023006290507140000800000070000695004080403018006,564987312931452678827163954759846123386291547142735869218679435695324781473518296
007810045604002009001900600000080706900400810000073020009050082203060500150004300,397816245684532179521947638432189756976425813815673924769351482243768591158294367
005002704008009005100004060207030000030000801519600430300817209090000080040020607,965382714478169325123754968287431596634295871519678432356817249792546183841923657
510300497073000080206400001600070020025108000000065004000032058980600100007090600,518326497473519286296487531641973825725148369839265714164732958982654173357891642
203000004040000179071080260680200007004060005000913000020608000300701050900520608,293176584846352179571489263689245317134867925752913846425638791368791452917524638
003586000890001500600940000371200098400000030020600470200400017704003006080019002,143586729892371564657942183371254698468197235925638471239465817714823956586719342
401007000390010800607000050004700160000900300205008040000130084073520009000806502,451687293392415876687293451934752168768941325215368947526139784873524619149876532
008000000009124700031090460040000090600005127000370006900682005310050009280003000,428736951569124738731598462847261593693845127152379846974682315316457289285913674
004005182300090000002000070060020894003006500007108200500470030800032050401000006,794365182318297645652814379165723894283946517947158263526471938879632451431589726
007840000904023000030006750042080100000300960700001348860000020020060597000190003,617845239954723816238916754342689175581374962796251348869537421123468597475192683
