000007003240050980001390000027006014000500006509710030005002870700830041106009002,958247163243651987671398425327986514814523796569714238435162879792835641186479352
000001700900803060005720830043916020286500000000000470650000040007090301010240090,832461759974853162165729834743916528286574913591382476659138247427695381318247695
168024090007005104000070030509000026020000040400030508300760000805010200600908010,168324795237695184954871632589147326723586941416239578341762859895413267672958413
017000000085031006020580040203006100070800900064005020050340687000600509900000010,317264895485931276629587341293476158571823964864195723152349687748612539936758412
000000300071600008000195200306400809008000070190820054000010930603980500420056000,962748315571632498834195267356471829248569173197823654785214936613987542429356781
208010000900004706040092080300060950057300010060470000410050002600801400085200003,278613549931584726546792381324168957857329614169475238413957862692831475785246193
400096003018270000506003000040680370000000001070059246003540090200000510709102800,427896153318275469596413728942681375635724981871359246183547692264938517759162834
602400095493080006000003000057000900000000100301079024508604200106038040900002078,682417395493285716715963482257841963849326157361579824578694231126738549934152678
030800910000007800910240600800015020247000000005600030000960085300520170000038204,734856912526197843918243657863415729247389561195672438472961385389524176651738294
405310000800040000201900087906130000057000040000705891704502600000000102003680070,475318269869247513231956487986134725157829346342765891714592638698473152523681974
402809037000206000000300004705090018019004000680030052021050600346001700807000009,462819537573246891198375264735692418219584376684137952921758643346921785857463129
300091050006400009000605740000080093980204600207000000800570100001009520004806037,342791856756428319198635742465187293983254671217963485839572164671349528524816937
001005040360000805098023000000009603407000910009100078245300100000800034100270000,721685349364917825598423761812749653437568912659132478245396187976851234183274596
105003000974000001000800047001205900832900004000080060250041006040302700009600030,185473629974526381326819547461235978832967154597184263253741896648392715719658432
509007000003012000006500100602049750800060004070800310028050673000400920100030800,519387462743612589286594137632149758851763294974825316428951673365478921197236845
500130094000008070803590000000002010907806005034000206016900008350400007040080631,562137894491628573873594162685342719927816345134759286216973458358461927749285631
400260079305000010200000803003759120000006700008001904010030280002510000974080050,481263579395478612267195843643759128129846735758321964516934287832517496974682351
054000700600800093000040050320060075080009006007200910076120000200703080000680240,954312768612857493738946152329461875481579326567238914876124539245793681193685247
000500903004000020003076800730051004200804056080600091010008079560200000009010600,178542963654389127923176845736951284291834756485627391312468579567293418849715632
000800607040100002385000400108092050000471300670080090002000100003060940900000006,291845637746139582385726419138692754529471368674583291462958173813267945957314826
700028009000000670068305040400500132012790065800000000080003006105000904074200500,741628359523941678968375241497586132312794865856132497289453716135867924674219583
514700000300800900096020004001005002060301070700000640605000080270406035030902007,514769823327814956896523714481675392962341578753298641645137289279486135138952467
300000659800050704000704030410000007090080020000906001040208100009035006720691300,374812659862359714951764832418523967596187423237946581643278195189435276725691348
090602500205090000036004190001703200507000084900800000308060020010985006040001007,194632578275198643836574192481753269567219384923846715358467921712985436649321857
900618503000200000004090200300002080047900600006007015009085361500040800710000900,972618543635274198184593276351462789847951632296837415429785361563149827718326954
018729003640008009000100520000003004700000680060905100005006300070402001003010290,518729463642358719397164528251683974739241685864975132125896347976432851483517296
800964310230070000090000580005003901004200000020700860760041030310008405000020006,857964312231875649496132587675483921984216753123759864769541238312698475548327196
600500803030100000080260710010080079075000032904030600092004108000609000400001205,641597823237148956589263714316482579875916432924735681792354168158629347463871295
700600439800040010500002006400000007036105000205830691092000005000300080004091020,721658439869743512543912876418269357936175248275834691392487165157326984684591723
102400600000300090800620105750010034003090010604502070070050009008207300520000067,192475683465381792837629145759816234283794516614532978376158429948267351521943867
003080000270304800001006490510000600009052007407000309302900060000100008005800740,943581276276394815851276493518739624639452187427618359382947561764125938195863742
870003001005007400640009020001000507030090640000250030380100090700000016029430800,872643951915827463643519728291364587538791642467258139386175294754982316129436875
910007000005013460400200008002009531501040900006000700087000610030706024000008090,918467253725813469463295178842679531571342986396581742287934615139756824654128397
080500004009000061102607090005981400670050300000300028500090000024003007910240003,786519234359824761142637895235981476678452319491376528563798142824163957917245683
900080560000007208402001003210059000079040006600002350001820034800400700050010090,937284561165937248482561973213659487579348126648172359791825634826493715354716892
012000300790008160500130807008642000000005040620710090371500000005090003480000670,812476359793258164546139827958642731137985246624713598371564982265897413489321675
030005000408000520072604030004070015900000800103402960040089071005000000020706003,631825794498137526572694138264978315957361842183452967346589271715243689829716453
900301070400080000035007290000003465520400001006900007300060800010000030079008542,982351674467289153135647298791823465523476981846915327354762819218594736679138542
914200700060904100000000000100035060040700203008400009605000002073082050090070846,914268735367954128852317694129835467546791283738426519685149372473682951291573846
089020003600009200107300045005000634070250810000000000036900001400030058001470090,589724163643519287127368945215897634374256819968143572736985421492631758851472396
160800040934000068007000500800520104570060000000078002403659007610300900000201000,165892743934715268287436591896523174572164389341978652423659817618347925759281436
647003005000600840052000309000300582095060000130007400709840010001000070360010208,647983125913652847852174369476391582295468731138527496729845613581236974364719258
603078001400009005980000700528040003000000002107035690035094000004001380700002064,653478921472169835981523746528946173396817452147235698835694217264751389719382564
300001290806400000001950003400260007037090060102000980600704109070003020000080504,345871296896432751721956843489265317537198462162347985658724139974513628213689574
080046302004001007021370900000000240970020053000538000047090000016050870530800006,785946312394281567621375984153769248978124653462538791847692135216453879539817426
084620050090070008007500014006180003050902800043000009200000090070065300015840060,184623957592471638637598214926184573751932846843756129268317495479265381315849762
100000030950308600004900702060070150375040800002093000200005017000600098083200504,128764935957328641634951782469872153375146829812593476296485317541637298783219564
000450090002700140090001807000963010805000000030082760420800675070034900180000003,718456392352798146694321857247963518865147239931582764423819675576234981189675423
004002000000900830090173025280000004601020900300056070008500691000400050170060008,534682719712945836896173425287391564651724983349856172428537691963418257175269348
700100400400903521002008093800506309601307800050042000390050607000001004060000080,739125468486973521512468793827516349641397852953842176398254617275681934164739285
300086000009370400060050920000001005050040706001200390004008671080693000025007000,342986157519372468768154923496731285253849716871265394934528671187693542625417839
105600009320090810007002040019078400200010030630200000000000780900003200060054100,145687329326495817897132645519378462274516938638249571453921786981763254762854193
850071000072000509094530608020056190907420300000000400060000930500710806003040000,856971243372864519194532678428356197917428365635197482761285934549713826283649751
000020057008109006421500003030900060000857000940002500062010090000003200700084031,693428157578139426421576983835941762216857349947362518362715894184693275759284631
010000000600805743350009200580760090009140070000503008001020560740000080900604007,417236859692815743358479216583762491269148375174593628831927564746351982925684137
040000080050391040002087001900500703068070405000106200703050000004803006500004109,149265387857391642632487951921548763368972415475136298713659824294813576586724139
000520009030870400002000016309050000070100000046300258004900087005003601080704002,467521839931876425852439716329658174578142963146397258214965387795283641683714592
079002084050000000200370106600080950040731800010006007000000005023400600068100749,379612584156948273284375196637284951945731862812596437491867325723459618568123749
007000030091032400040105008210003604003970200000006100000860010650000007078204009,527648931891732456346195728219583674463971285785426193934867512652319847178254369
302046007750300401000050000000930850020000600040010203004800760609500000018700092,392146587756389421481257936167932854823475619945618273234891765679523148518764392
705216080400000056030800109000000503902300047000408060170000400008730002600049018,795216384481973256236854179864197523912365847357428961179682435548731692623549718
000900001005007300000582600690000408007209000100063002043701806201050700900428010,768934251425617389319582647692175438837249165154863972543791826281356794976428513
402000106050820039300007000106005400008690023090000008800000001503400070007352060,472539186651824739389167245136285497748691523295743618824976351563418972917352864
000000250080900070701500063050009010006450009100082000004016002509370600018000430,963147258285963174741528963452739816836451729197682345374816592529374681618295437
000052701730400090000008026609000000470200800508701039004090100300600007800035460,986352741732416598145978326619583274473269815528741639264897153351624987897135462
070000680030506410900301700200910030006408050005000902010002370700090000458607001,571249683832576419964381725247915836396428157185763942619852374723194568458637291
067805900090360007000002480180090005520007009000000301046080020700640010050023600,467815932298364157315972486183496275524137869679258341946581723732649518851723694
800020400200090038651400007015000900000104600460250100009307004080000051007580020,893725416274691538651438297715863942932174685468259173529317864386942751147586329
002006059090000480100820370300180020010090600408075010900340700205007000006000004,872436159693751482154829376369184527517293648428675913981342765245967831736518294
589200600000509074002010000000003867620850000340007050804060900015900420000100003,589274631163589274472316598951423867627851349348697152834762915715938426296145783
510000090039016200008700000400130000026407080300002057094805060200600074000003910,512384796739516248648729531475138629926457183381962457194875362253691874867243915
509870006002010040743000500600020004050100028000649107400700010087053002206900000,519874236862315749743296581671528394954137628328649157495762813187453962236981475
002016305500000640004007090860050000005903068017020000108000004003249800090800072,972416385581392647634587291869154723245973168317628459128765934753249816496831572
324006070081230500000000040030705806900002000600080031270100000805907400040050920,324596178781234569596871342432715896918362754657489231279143685865927413143658927
000070241900500780300001000000206500570040300038010060750890000080000054190603020,865379241941562783327481695419236578576948312238715469752894136683127954194653827
010027906000001700000000043001605000830400500075109480200903804043000079068000200,314827956596341728782596143421685397839472561675139482257963814143258679968714235
800605709006009450000780002150070300069502000400000010000830020514060900280000604,821645739736129458945783162152478396369512847478396215697834521514267983283951674
008750060264800500100000900020030400406007005903480000850023070700640001000001093,398754162264819537175362948527136489486297315913485726851923674739648251642571893
800020061000347005750000030070000690004580200306400010600010800980003047010092000,843925761261347985759168432578231694194586273326479518635714829982653147417892356
008020700901030086030070409304500008060800020100307590029600100000001005605004800,458926713971435286236178459394512678567849321182367594829653147743281965615794832
004720000000098350570010000190572040358000060000600010480901076703000109020000004,834725691612498357579316428196572843358149762247683915485931276763254189921867534
870640010050820000000051900300097502000006000095400163009010470063070201000200800,872649315951823647634751928346197582128536794795482163289315476463978251517264839
600034020000100007014085060000056000328400010705200000080571003502000870003009640,657934128839162457214785369941356782328497516765218934486571293592643871173829645
400001806090030040580004090040700532000029001308010600007540200602008000000090713,473951826296837145581264397149786532765329481328415679917543268632178954854692713
830670040900008200700040530002100000500004316000890020009000073267400080004510600,835672941941358267726941538472163859598724316613895724159286473267439185384517692
480900061013040000900500300340601502000000700050008094097200805000750100062003000,485937261213846957976512348349671582628495713751328694197264835834759126562183479
800500971000000000400279506103060700508902004906000028000015432007400009000008100,862543971795681243431279586123864795578932614946157328689715432317426859254398167
052006000300807006009510000000040007460085002103009000000090780001002634705300010,852936471314827956679514823598243167467185392123679548236491785981752634745368219
000704021078510390400000600102030000590200060003400800047002900300860405009007018,936784521278516394415923687182635749594278163763491852847152936321869475659347218
400100700000070096080652100207506000001043007093008520060900400004000035120037080,436189752512374896789652143247596318851243967693718524368925471974861235125437689
700040000002061750054320890005000280070014009360002000000009020603008001081070543,796845132832961754154327896415693287278514369369782415547139628623458971981276543
005390200701260000040000603054700001009001784080002060200543000003000800400128900,865394217731265498942817653654789321329651784187432569298543176513976842476128935
000109000004200503007038000910070030002090450083620100800050027036400000500000601,358149762194267583267538914915874236672391458483625179841956327736412895529783641
300029705580000000000070104270004600158000903060105020000803060906400300004790002,341629785587341296692578134273984651158267943469135827725813469916452378834796512
600700040000102800790580000380050020064020703000010900240890170071000238035000060,618739542453162897792584316389457621164928753527316984246893175971645238835271469
030604090000200100018007203085000317901005080040000002007069045000803000069452700,732614598596238174418597263285946317971325486643781952327169845154873629869452731
069840310080020950000500040600090003700154090204300100003000824050000060000278000,569847312481623957327519648615792483738154296294386175173965824852431769946278531
205070008040060090706300400100000507080950263002004100064087002900200310500600000,215479638843562791796318425139826547487951263652734189364187952978245316521693874
605049200003100006080270004506008000702000035000900100048060702000003518009020600,675349281423185976981276354516738429792614835834952167348561792267493518159827643
400201890300007056080500207030800549070040008820009001100006700060090034005300000,457261893312987456986534217631872549579143628824659371193426785268795134745318962
