500690700260500080180073400803002004042009170050760000790005013000020000000010968,534698721267541389189273456873152694642839175951764832796485213318926547425317968
430597800000004000096100040600070200040030980000085703200000090057600002009802105,432597816178364529596128347683971254745236981921485763214753698857619432369842175
300090005050000600800702040470025030018407900000010000960000053000003412001008009,347196285152384697896752341479625138518437926623819574964271853785963412231548769
050000800000010076060342000000060001901004002470009530080230400047005010500090680,153976824294518376768342195825763941931854762476129538689231457347685219512497683
800004030001000009009500260507008100320001004000096073045023600670040092003070008,862914735751362849439587261597438126326751984184296573945823617678145392213679458
600004750007580004900200603000097015000003478400010209080040030015009000346008100,628934751137586924954271683862497315591623478473815269789142536215369847346758192
060345007001070000075600908004508071000000890003291060090003020408000005630100400,869345217241879653375612948924568371156734892783291564597483126418926735632157489
071620009000800145043000000090573002312090000000006800980000030006105024005009760,571624389269837145843951276698573412312498657457216893984762531736185924125349768
200500841409700000600030270002004590700003000305126000000090006070200310513080004,237569841489712635651438279162874593748953162395126487824391756976245318513687924
300901070006400002905067300009108007600200058401006200090000400830005960004380000,348921576716453892925867314259138647673294158481576239597612483832745961164389725
081400003450003070000610820600000309009150240700302180060007000924060000003008095,281479563456823971397615824612784359839156247745392186568937412924561738173248695
301090002260800070070600500040720100006003000005009407004006021080015940090380006,351497682269851374478632519943728165716543298825169437534976821687215943192384756
900040080600000017143507900060000270014903008007860100709024030400308006000000520,972146385685239417143587962368415279214973658597862143759624831421358796836791524
109002485000479002002000003000650004000108030038000960801200050400006070726830000,179362485385479612642581793917653824264198537538724961891247356453916278726835149
003001640080769100020050800102000094000600087500934000054020036900805710007000000,793281645485769123621453879162578394349612587578934261854127936936845712217396458
054090102602004080030700054013900060006030701040000200090302500001580000027006930,854693172672154389139728654213947865986235741745861293498372516361589427527416938
074300200800400731000009006006200009980003040410700560109005007500000300703102008,674381295895426731231579486356214879987653142412798563149835627528967314763142958
070800900040060013000205806000053690037004000001900002010002000064597200309010708,576831924248769513193245876482153697937624185651978342715382469864597231329416758
106000490030100007020004500061052009700000380480790060019008650500601078000000002,156287493934165827827934516361852749792416385485793261219378654543621978678549132
000000074000032900070146203710800096905070010642500380004000800008000005520390600,236985174451732968879146253713824596985673412642519387164257839398461725527398641
400370690007400001350090000209000000075206300080001740960080027008014050030000460,412378695897465231356192874249837516175246389683951742964583127728614953531729468
075402000030090002400106309306580100020049700050600080000003096800070200200800400,975432618631798542482156379396587124128349765754621983547213896863974251219865437
670000130000802000009130204435000000200500076010009420060020000004005783087090050,672954138341862597859137264435276819298541376716389425563728941924615783187493652
005000021860009300920143600500700436004080000000000750000430200400600010030012809,345876921861259374927143685598721436674385192213964758159438267482697513736512849
000056104007009005420300000080060407106037920090408003001790050300005890200000006,938256174617849235425371689583962417146537928792418563861794352374625891259183746
140200308005006094089300070060004530007050100002980460900402000000070805710060020,146297358375816294289345671861724539497653182532981467958432716623179845714568923
000000037009546020081390000507400300620800095390002010070080450006014000900200860,465128937739546128281397546517469382624831795398752614172683459856914273943275861
207010400500003006100008370405300109800060240079200005060800090040075080000004721,237916458584723916196458372425387169813569247679241835761832594942175683358694721
013008007507290010000000056009000720306520091000300004030900400408060005270001080,913658247567294318824173956159846723346527891782319564631985472498762135275431689
070010000206090351300504600000760009905000002080000400062480030003079006190005027,578316294246897351319524678421763589935148762687952413762481935853279146194635827
610008500005070003340090870900085702000006300080012009000000200106400050709003640,617238594895674123342591876964385712271946385583712469458169237136427958729853641
060000508082009004300070000400100900059602010206703400040030070907086150530010002,764321598182569734395874261473158926859642317216793485641235879927486153538917642
201003987040007030080006500520030009607400300009700001850109700004005006000280000,261543987945817632783926514528631479617492358439758261852169743194375826376284195
003502107000003908000100400704006000918005200025870009001200654067004000800000013,483592167156743928279168435734926581918435276625871349391287654567314892842659713
015720080040060005203100004000000001064009830090308460037051900000086700000400020,615724389749863215283195674378642591164579832592318467837251946421986753956437128
002005000700000004010006073540301900360200007200084001050090086490068200800007010,632745198785913624914826573548371962361259847279684351153492786497168235826537419
080610902400000050007900400060020000051300000004509300009800215032005008810460730,583614972496278153127953486368721594951346827274589361649837215732195648815462739
000804000971050008005900327002000001500000230300607009080306500000415800603080094,236874915971253648845961327462539781597148236318627459184396572729415863653782194
000490006970050803004006052800607020503002010600140300090300700081000000302004508,258493176976251843134876952819637425543982617627145389495328761781569234362714598
070000008080160400095203000900058010600009203004300609020700840301045070007010000,176594328283167495495283167932658714618479253754321689529736841361845972847912536
078500060040020001009003000100206005480070030305180079056000407020608950900001080,278519364643827591519463728197236845482975136365184279856392417721648953934751682
019653002800900001007000490003460050070020100005807000020030780000540306600089500,419653872852974631367218495283461957976325148145897263524136789798542316631789524
093200080007090002540801300008000607060004105000530020016000270024307509000900064,693245781187693452542871396358129647269784135471536928916458273824367519735912864
000704320750090681000050009000080050530000700206400130020900000901060800480137900,869714325754293681312856479147389256538621794296475138623948517971562843485137962
401008905039020100070030000006000020100007406053062800008000709500100004060095308,421678935639524187875931642746819523182357496953462871318246759597183264264795318
008039074000000820001050000403000000026087005070290136050008003010760000304500690,268139574539476821741852369493615782126387945875294136657948213912763458384521697
070028000456900000200000090009004700008301040300200160004100076100437059830005020,973528614456913287281746593619854732728361945345279168594182376162437859837695421
005910320023000008017200960002608709000500230040790001060370010000005407800004050,685917324923456178417283965152638749798541236346792581564379812231865497879124653
000700006004208030500003910080400290036002180900000057060005802201074000803900040,318759426694218735527643918185467293736592184942381657469135872251874369873926541
006002170000050804000006023002610030040800095070943010000000702054179080380000050,536482179729351864418796523892615437143827695675943218961538742254179386387264951
000100800800072416045003000700000290930604050014200000006008001400750009259030060,627149835893572416145863972768315294932684157514297683376928541481756329259431768
080060205023000094005008000040900680092010007000407130000790010060100040007685003,184369275623571894975248361741953682392816457856427139238794516569132748417685923
000678002031000005000000040500100000004009261806004039908015700720306100040200058,459678312631942875287531946592163487374859261816724539968415723725386194143297658
360050127900870000040000008003008950100060004082090600009036040050001706800024500,368459127921873465547612398673248951195367284482195673719536842254981736836724519
020075004809010706000094030008002007104007093030040015006300008700009600502008000,321675984849213756675894132958132467164587293237946815496321578783459621512768349
050000000001203060260050980700084150600300004094600700108520300900007400003100028,359768241481293567267451983732984156615372894894615732148526379926837415573149628
005000008302064100189500306706010025050000007001009604010490080604000702090003000,465931278372864159189527346746318925953642817821759634217496583634185792598273461
000200710971000002000006084057030460084000000360078500006000039005890170000102000,648259713971384652532716984257931468184625397369478521816547239425893176793162845
050840700003100208740390010100050020000200309800004056972000400006001500300487000,251846793693175248748392615137659824564218379829734156972563481486921537315487962
907060003100000280000427100530280900080500004002700030000004006890031700460000095,927168453146395287358427169534286971789513624612749538273954816895631742461872395
307900002560000180001006003400105000853090070000480260008700090104050000600204007,347918652562347189981526743426175938853692471719483265238761594174859326695234817
005406009030079100200000065001203070070600008800001900067050304084000020050910600,715426839638579142249138765591283476473695218826741953167852394984367521352914687
240100803603085000000000007000536029700000030005074106108090600370820400029000010,247169853693785241581342967814536729762918534935274186158493672376821495429657318
002000036000012870710300090000080000060204000093570210029008064005009300170620009,542897136936412875718365492257981643861234957493576218329158764685749321174623589
000901008032000060400703000028600390016409005004050070000084007005100200000072186,657921438132845769489763512528617394716439825394258671261384957875196243943572186
000427009300908057000001060680000710904050800050000600208600301140090002530200080,865427139321968457479531268682349715914756823753182694298675341146893572537214986
000007005400800097830490200710003080043000502002106009170054003906200074000900600,291367845465812397837495261719523486643789512582146739178654923956238174324971658
301040006005980007049106050080630200500007063000051080008729000000000001264000900,371542896625983147849176352987634215512897463436251789158729634793468521264315978
001809020000000600280030541102000060000592070307608000006040785500160930470900000,641859327735421698289736541152374869864592173397618452916243785528167934473985216
000367000400000870001204900080410630050900020102530008820700306030809407000050009,298367541463195872571284963987412635356978124142536798829741356635829417714653289
100927000000080026405300008060008730093670805000000094800000401001562000030001059,186927543379485126425316978564198732293674815718253694852739461941562387637841259
704000200032000156060032090080650430090003007400010020000401008006900040507028001,754196283932784156168532794281657439695243817473819625329461578816975342547328961
062094500004070300310000007900058026040003000587002009600080001000061073095000800,762394518854176392319825647931758426246913785587642139673489251428561973195237864
040020000378006000021080705000901200037500160900072540100630807004800090050000410,549723681378156924621489735485961273237548169916372548192634857764815392853297416
200050900000040030637800002060100090584030006019000875000410200850906400000070600,248357961195642738637891542762185394584739126319264875976418253853926417421573689
060000500803040021002000430038750000640001080100009260005100307090004000781902000,964213578873645921512897436238756149649321785157489263425168397396574812781932654
008000067106200530005084009213000700000500090600040301000900205094001000870006013,928135467146297538735684129213869754487513692659742381361978245594321876872456913
003800015078000690014005000050601003809003000600000509025004070000300001000017480,263849715578132694914765238752691843849253167631478529125984376487326951396517482
075410920100328007000900403092760034600004005080000200060059000008030040037100086,375416928149328657826975413592761834613284795784593261461859372258637149937142586
030005900526800000408700010100060003005000427800002500000010000009650702607400038,731245986526891374498736215172564893965183427843972561284317659319658742657429138
025900001060280000070040035730000040004706020180000360010008753803120400000050000,425973681361285974978641235736812549594736128182594367219468753853127496647359812
000620900090040030023087065467000003000004287300005009009800150850102000630000700,548623971796541832123987465467298513915364287382715649279836154854172396631459728
403000500005000790060207000002041006600908270840500030009610340030000029500003180,473189562215364798968257413392741856651938274847526931789612345134875629526493187
030078040500009600170030900007683005004001030000200806020005009010702000089064501,936578142548129673172436958297683415864951237351247896423815769615792384789364521
000800100080790002040613507700580200850069070063007000026000803900030000005100040,637852194581794362249613587794581236852369471163247958426975813918436725375128649
500043080000790100017200093008004000026000950300000071001479600093601408050020000,569143287832795146417286593978514362126837954345962871281479635793651428654328719
005096104000380007060200053100450000720601090003000080039047006600100708270003500,385796124412385967967214853196458372728631495543972681839547216654129738271863549
005060000072090480006320071000700003450600000000018902907400105080000320634000700,145867239372195486896324571218749653459632817763518942927483165581976324634251798
020893400701500000080072003507089006300000040060054092000005300400000618216400000,625893471731546289984172563547289136392761845168354792879615324453927618216438957
470500020012060035083079000005920100060001009000840073020080050600700004140030090,476513928912468735583279461835927146764351289291846573329184657658792314147635892
000005200068903000503042109007090001800030000010508640129000080740000925000600007,491765238268913574573842169637294851854136792912578643129457386746381925385629417
002005049003061700480002005608020030105078000240050006317009002900000400000016007,762835149593461728481792365678924531135678294249153876317549682956287413824316957
079200000602530000000001706057009000106050300040000081090623008080094070300070012,479286135612537849538941726857319264126458397943762581791623458285194673364875912
000450062600103070853020004060230009004000000007085013070300050120000600900070248,719458362642193875853726194561234789384917526297685413478362951125849637936571248
580700306001000009600502070053006008002000007700490000300020800160030040920801605,584719326271364589639582174453276918892153467716498253345627891168935742927841635
814900070000000106002307400070091602508000004060205030001000208030004095000762000,814926573397458126652317489473891652528673914169245837741539268236184795985762341
500070830860204000010360004900520008002030061070900300000005410691000072340700000,524179836863254197719368254936521748452837961178946325287695413691483572345712689
010050400602097050800106000000900210503060740020030006080010300376042009900700005,719358462632497851854126937468975213593261748127834596285619374376542189941783625
600095400000200003150070600060300002000000519901047080200034800045806000830001270,683195427497268153152473698568319742374682519921547386219734865745826931836951274
905002000010007092073006504020003005051020408364010007400800000100070003080900760,945382176618457392273196584829743615751629438364518927437861259196275843582934761
