450007000003100006090004173900000768040005200280010040070620804030509000802700510,451367982723198456698254173915432768346875291287916345579621834134589627862743519
003060040020905600670080019000491000851600000300708000090173008004000006002000951,913267845428915637675384219267491583851632794349758162596173428184529376732846951
002000701300020060600904050000500000210076039054001080870002300000380400006109002,592863741341725968687914253763598124218476539954231687879642315125387496436159872
001900800006750320900048000314006050070000004500270080047080230830020901002560000,751932846486751329923648517314896752278315694569274183647189235835427961192563478
040350002082004300000206790070002681008001009009570000105040008400000060060193040,746359812982714356351286794574932681238461579619578423125647938493825167867193245
910000050007004002086530910600000400000803020501240760400072030070000140093080005,914628357357914682286537914628751493749863521531249768465172839872395146193486275
390410200008005060020000009142080000500070600000521030006309720010700090007000548,395416287478295163621837459142683975583974612769521834856349721214758396937162548
100009200008206040050040003307600080510700900060491000073008105000000806005032790,146359278738216549259847613397625481514783962862491357473968125921574836685132794
000001900072400030010590680005032870340080006809000100000004019200073005750000320,586321947972468531413597682165932874347185296829746153638254719291873465754619328
076910030002608705010002000030057490024809050100020800000004370007090000451300008,876915234942638715513742689638157492724869153195423867269584371387291546451376928
470063000500070680038901002003000000080002190069008034000040009016700508050006217,472863951591274683638951472143697825785432196269518734827145369316729548954386217
600087900002004060148003205809005000007090830000600001730000426000100700095040003,653287914972514368148963275819325647567491832324678591731859426486132759295746183
204001006000090140050086009008007060001925300907000504600050030700204008300600270,294371856876592143153486729538147962461925387927863514682759431715234698349618275
348000050000190040000030800052000007903600004604870035089040020000052710700301009,348267951567198342291534876852413697973625184614879235189746523436952718725381469
900023078580006002000100400106305020007900000020010090050008004061700089240000035,914523678583476912672189453196345827837962541425817396759238164361754289248691735
050219000247000500060050830800001060003000004004572009006000003500097010109048620,358219746247863591961754832895431267723986154614572389486125973532697418179348625
002705600080060137000008040910027080800000973603500400290003010106070009050400700,432715698589264137761938245914327586825146973673589421297653814146872359358491762
003000010009032405010907230000045007006020980708006001002000000940080176600500300,263458719879132465514967238391845627456721983728396541132679854945283176687514392
200890000070004090008102035034000000907006001010000764006087409021040070000350086,265893147173564892498172635634715928987426351512938764356287419821649573749351286
000004273105300000020000080090002300380750104000006057701080406950400000602903800,869514273175328649423697581597142368386759124214836957731285496958461732642973815
000090520000100074850020001003800046406030009710005300200074010970260008640003000,167498523392156874854327961523819746486732159719645382238974615975261438641583297
900000001270030000650104300080006527710500008003009600090403002000000845800765100,934657281271938456658124379489316527716542938523879614195483762367291845842765193
000236009800509200001000003040100030007085400312600070403870500000900720070001068,754236189836519247921748653548127936697385412312694875463872591185963724279451368
100079080200040300093000075001904028600020013070008000004206000005083109069050400,156379284287645391493812675531964728648527913972138546314296857725483169869751432
004070002391060008870150006000012600057800301000400780103009200609300005000080040,564978132391264578872153496938712654457896321216435789183549267649327815725681943
830076050001300084050108900000219060004007003500830100005960020080000007163000000,839476251621395784457128936378219465214657893596834172745961328982543617163782549
700000608302010005000760040605901000807020016000070092100405030009000750043200800,714359628362814975958762143625941387897523416431678592176485239289136754543297861
450300080000007601009015020026000490508043000107980000700059040000620700810004260,451362987283497651679815324326571498598243176147986532762159843934628715815734269
003090020000040580060705010050900001207600030049012006026003050700001490480000700,573198624192346587864725319658937241217684935349512876926473158735861492481259763
090010000002750043436000001040673095050801000083009002970000008000000650100408709,597314286812756943436982571241673895659821437783549162974265318328197654165438729
010000005307100000600207180001060020080003047576000900004900000052046810090820060,918634275327158496645297183431769528289513647576482931864971352752346819193825764
072000013400706090050400200083000007507203048200009000000045309016080050900367100,672598413431726895859431276183654927597213648264879531728145369316982754945367182
054000280700304000019060000087010503600098017040002000075000060000200831103009040,354971286768324159219865374987416523632598417541732698875143962496257831123689745
030940507000005003810072060090000300620500010700018040009100475070094200002000801,236941587947685123815372964198467352624539718753218649389126475571894236462753891
020004057900080630000020000570601000002000040068370009130068905007010308050790001,621934857945187632783526194579641283312859746468372519134268975297415368856793421
010002543840000670000506900020607090100090400507310820063029100900000000204083000,619872543845931672372546918428657391136298457597314826763429185981765234254183769
140005803000009000003060070007052900058030010920600004000410032000020089800700506,146275893785349621293861475437152968658934217921687354569418732374526189812793546
501093000034005107029040800900600005470001062063070010000450236008200900000009000,581793624634825197729146853912634785475981362863572419197458236358267941246319578
200700810403000000070098026800506100732000000001000794050630007004900350010240900,296754813483162579175398426849576132732419685561823794958631247624987351317245968
850001067070060354040270900103800000498500030000096040900024100000000080030100506,859431267271968354346275918163842795498517632527396841985624173612753489734189526
876490002900800004005067003050040109004000060309010050010000030600720800082005701,876493512931852674245167983758346129124579368369218457517984236693721845482635791
500138006009000300087090040090050030600900800200476010754000002800001900010267005,542138796169724358387695241491852637675913824238476519754389162826541973913267485
100005429604709005005080610000900000000000301700042080206503000508020960370160000,187635429624719835935284617863951742452876391791342586246593178518427963379168254
045800302200104050300070090006300200509026080080007030050080004000290010800001065,145869372297134658368572491716358249539426187482917536951683724674295813823741965
083010060000436000407009000090348001006020500301007902259100700000503409000800100,983715264125436897467289315592348671876921543341657982259164738618573429734892156
500080096608200410000705000200009007007001083030540100390400800102000050040018620,523184796678293415914765238261839547457621983839547162396452871182976354745318629
900400108020108736000000050403071600060000002057830001075020090080005064000900000,936457128524198736718362459493271685861549372257836941175624893389715264642983517
103062900804000100090510020070609340008074000030850096000283050046000000005000270,153462987824937165697518423571629348968374512432851796719283654246795831385146279
009500000000000048018603057000031200057000000021009030780096100406020000000405709,649578312573912648218643957964831275357264891821759436785396124496127583132485769
700100408095800230080004075070080006800309000504060100023400067600007900100005023,762153498495876231381924675279581346816349752534762189923418567658237914147695823
030890700007300685100040020020006007800000501504009038000012300002703049950060000,236895714497321685185647923321586497879234561564179238748912356612753849953468172
801000506500094020230006700020607009000103000467005002040300080705200410009078005,891732546576894321234516798123647859958123674467985132642351987785269413319478265
072605013000800500096010400001030069049020007200007800000081030400700190305206004,872645913134879526596312478781534269649128357253967841927481635468753192315296784
307810020090030008000200501002560010900701004004000602405009080860000307073040000,357816429291435768648297531782564913936721854514983672425379186869152347173648295
040802609000053020310000870580000200900306004001095760098070000000600010070024506,745812639869753421312469875586147293927386154431295768698571342254638917173924586
045002100008430506006019030000680070070200600050901384904000010013050009000008240,345862197198437526726519438431685972879243651652971384984326715213754869567198243
208000400050100000070630508134002809780000200600907010040001083090350002002009060,268795431453128697971634528134562879789413256625987314546271983897356142312849765
007501000830090002904002506560400709200987030000065080000274050009010027400000800,627541398835796142914832576568423719241987635793165284186274953359618427472359861
240059001006700504800430007020090300003016080501200000010000058760302000498070600,247659831136728594859431267624897315973516482581243976312964758765382149498175623
000040068607501030980070400500700001006004250030260809700310000054820300029000006,215943768647581932983672415592738641876194253431265879768319524154826397329457186
109360500000000006035049200001800604300402090070050083006103070290000050800270400,129368547784521936635749218951837624368412795472956183546193872297684351813275469
017050009009007000350600002070819064100240000080700005763020050400030080005001690,617352849249187536358694712572819364136245978984763125763928451491536287825471693
070050400200803610910040805609000020054000080703006009000900103507018064030502070,378651492245893617916247835689435721154729386723186549862974153597318264431562978
002980071000500060000063004004600900309027000715040080800005046901000528000270100,652984371437512869198763254284651937369827415715349682823195746971436528546278193
700098300061000040300100020008201090500003274070400006407005018050604009000980050,724598361961732845385146927648271593519863274273459186497325618852614739136987452
004903800000010050253000000100620300079504020000080074307008105520400006001300098,714953862986712453253846917145627389879534621632189574397268145528491736461375298
002830060050090030400007002000000570006019320001085400340206100708001009060070040,912834765657192834483567912894623571576419328231785496349256187728341659165978243
000802000019306040008070003040080209205067000060010054050000410074900008300705026,436892175719356842528174693147583269295467381863219754952638417674921538381745926
075092830060500170280037005009083500000406020147000080300805740000020000004000069,475192836963548172281637495629783514538416927147259683392865741716924358854371269
800600009019200046500037000000000974076005123100009800490071050732000008000080300,827614539319258746564937281285163974976845123143729865498371652732596418651482397
600703090982004300001000405300600950125070004000810000006200000500001003040506807,654723198982154376731968425378642951125379684469815732816237549597481263243596817
100700090004038026528004000039010604000400007001520380800000103002079000406080070,163752498974138526528964731239817654685493217741526389897245163312679845456381972
500007603316800090090400080000700002084010900102040700600204800020600050405930010,548197623316825497297463581953786142784312965162549738631254879829671354475938216
300000057070546003080090200290100605007000009604800170130052090009703008005060040,346281957972546813581397264293174685817625439654839172138452796469713528725968341
305100900400009051001600780700080306008061027940020000020050000059407800000200640,385172964467839251291645783712584396538961427946723518824356179659417832173298645
030150640850040300061007020093600500000300007506000809000509702089001003700480000,937152648852946371461837925293678514148395267576214839314569782689721453725483196
080006001020130846000000397408720000009040002100903780050869010010000059206005000,387496521925137846641582397438721965579648132162953784754869213813274659296315478
900200070050090010003000068004032500820900004005180709080046000107500003309007200,918263475456798312273451968794632581821975634635184729582346197167529843349817256
002170500003008009108500020700042301005060000000901800020094105487000200090003670,942176538653428719178539426769842351815367942234951867326794185487615293591283674
800629300007008060021070500000060900430200010105094800000500006008010735010030240,854629371397158462621473598782361954439285617165794823973542186248916735516837249
154002060780030000300000724000160430006280009570009000005403012010906800040000970,154792368782634591369518724928165437436287159571349286895473612217956843643821975
050000839809060040040003062004170000900400100700356008093008007021500900600020050,256714839839265741147893562384179625965482173712356498593648217421537986678921354
500004083090607402020950000364001008800706010000008045000039700200000006087100500,576214983193687452428953167364591278852746319719328645645839721231475896987162534
040800367057000000200010000400108000175003004008907005020400053000602970386009200,941825367857396412263714589492158736175263894638947125729481653514632978386579241
061045020002000500004008761000309400000051006500020098200037800907610200130900007,861745923792163584354298761618379452429851376573426198246537819987614235135982647
940300050012070000008400902003050100080902460600000035020700000400068090709501600,947326851512879346368415972273654189185932467694187235826793514451268793739541628
690840500020005090041206000010057020800300076000910300074001980000030460000000007,697843512328175694541296738413657829859324176762918345274561983985732461136489257
300010208070005014060090300580300000009862000700150060204603570001007083000000900,345716298978235614162498357586379142419862735723154869294683571651927483837541926
950040360072600954000700802040053000100408700200000001019260500580007600007009003,951842367872631954463795812748153296196428735235976481319264578584317629627589143
010203508040090013008050400006009020170300009950027100230000005094160800805000700,619243578547896213328751496486519327172384659953627184231478965794165832865932741
100080300730406000056000820307008450090000081000052700000210590009007000402930067,124589376738426915956371824367198452295743681841652739673214598519867243482935167
008040020043000765500096001000020047100080000006005190200100530000460800789003600,618547923943812765572396481895621347137984256426735198264178539351469872789253614
600040305300090080574060000080070400001508093030000020047900102000200006006051807,698142375312795684574863219285379461461528793739614528847936152153287946926451837
000007204040851003960000780510790040000300001637500000420000050150028600800030090,385967214742851963961243785518792346294386571637514829423679158159428637876135492
017980200450000070002030406500700942000108060326000000908640150070001008000009300,617984235453216879892537416581763942749128563326495781938642157274351698165879324
040000570009320006800015000000000008000437900500060420400079001062008053107000609,341986572759324816826715394674592138218437965593861427435679281962148753187253649
007809000050000307001040029000402006140035908603190050086020003705016000000987200,237859641459261387861743529598472136142635978673198452986524713725316894314987265
790084200400501830005000007920600000003490010006030058610200000280050706059000400,791384265462571839835926147928615374573498612146732958617249583284153796359867421
207860100069000043100005007000980430094000570802350010000008020001070006030640900,247863195569721843183495267615987432394216578872354619956138724421579386738642951
040080600968007001701000320000600800875400130300050002500021009607509000020300004,243185697968237451751964328492613875875492136316758942534821769687549213129376584
