003004100264109007910082056600007900402500060005000000000800020000706841130020009,853674192264159387917382456681247935492513768375968214746891523529736841138425679
002001348000087000400060501630009000075100090008254700390000002021003907800005060,762591348153487629489362571634879215275136894918254736396718452521643987847925163
560000002000700193030402060180000900002004000007380005903001800056090740400276000,561938472824765193739412568185627934392154687647389215973541826256893741418276359
100620058000903000032001700500409000000010060087500904263000400040080091801007605,179624358458973126632851749516439872924718563387562914263195487745386291891247635
108290000507100490020000805003900008004060100609048520001450063360000700400020000,148295376537186492926734815253971648784562139619348527891457263362819754475623981
319000080050194007000000000000007200900608014103420008805000060072500941030006020,319765482258194637746832159584317296927658314163429578895241763672583941431976825
900083070000020005500407609402800060009060030010309007008051090370008400600000250,964583172187926345523417689432875961759162834816349527248651793375298416691734258
032094010000010603009705000010002450000340861008000007900080036043500900705060002,832694715574218693169735284316872459257349861498156327921487536643521978785963142
302900670970120480005040002590700000008000040000280510180060003004000090760890020,342958671976123485815647932591734268628519347437286519189462753254371896763895124
700001089002603070593008010064900805080205090000030000050000047400070206201450030,746521389812693574593748612364917825187265493925834761659382147438179256271456938
009400785000003000054607009090050273026040000015000900801320000060900008070001034,639412785187593462254687319498156273326749851715238946841325697563974128972861534
000720000689130000005008040800000073290063050041000208030407609060050410100900002,413725896689134725725698341856241973297863154341579268532417689968352417174986532
800050902103802000057000086005100200030405098700390041020010305000074600506009000,864751932193862457257943186945187263631425798782396541429618375318574629576239814
007006098002507040006408100980200600050100000704003010400000500200040937039060082,547316298812597346396428175981274653653189724724653819478932561265841937139765482
140300000000009105207006300403000850058702930010800400000670000324100080060008590,145387629836429175297516348473961852658742931912853467589674213324195786761238594
004000036003120700700068000500940210017050000000000908800409020030015480091006073,124597836683124795759368142568943217917852364342671958875439621236715489491286573
000607004300000008172008500426030089900004000010820060003070910500100602600005007,859617324364952178172348596426531789938764251715829463283476915597183642641295837
020009016050836200904070000032060070700103490500084002000510008890002000000000134,328459716157836249964271583432965871786123495519784362643517928891342657275698134
000780000000030710806052090102075480504200006037900005040000630020300050008091200,413789562259436718876152394192675483584213976637948125945827631721364859368591247
940206000000095071310800600020403900060020050703000080801604305002001040600080700,947216538286395471315847692128453967469728153753169284891674325572931846634582719
064790830002405010090080002230007040006004083051020960500300006000149750807000000,164792835782435619395681472238967541976514283451823967549378126623149758817256394
400065007080010400905700032006001700030006009710089640000020000673000085049000060,421365897387912456965748132596431728834276519712589643158623974673194285249857361
400080029567000030000301600970040100084009250000863000010090000802007900050402706,431786529567924831298351674973245168684179253125863497716598342842637915359412786
054010006006400170280003095830067000070030200005092010900001603600950000000000084,754219836396485172281673495832167549179534268465892317928741653643958721517326984
050000006916000807804309000500026019001070203600900080000742050300800000002035041,253187496916254837874369125538426719491578263627913584169742358345891672782635941
000006501638501000005870900900720000000063040270004300180040203020007064000085109,792436581638591427415872936943728615851963742276154398187649253529317864364285179
080205090903680040004003501000000009100470630806100270600032000005067100070010908,781245396953681742264793581547326819129478635836159274618932457495867123372514968
000020070005600490094010306050002008600003940908007050060800501710000000002340700,836924175175638492294715386357492618621583947948167253463879521719256834582341769
360100002020800964070005000003760420000200890006000103100042000090380007805970030,368194752521837964479625318913768425754213896286459173137542689692381547845976231
000018300004006072100205096060090000508000719301007200087400903030800000600052007,926718345854936172173245896762194538548623719391587264287461953435879621619352487
008045000790800064002700053067003901030580002000000000420300009800164005050097600,318645297795832164642719853567423981931586472284971536426358719879164325153297648
070582040000109720008003600004000000720950003185006000960020100030740050401008230,679582341543169728218473695394817562726954813185236479967325184832741956451698237
409500208506100030070080401030009000605012000100060074000000692028045007001003000,419537268586124739273986451837459126645712983192368574354871692928645317761293845
009004302032018009460009000028050031001026500700000600010700050050400906870300204,189574362532618749467239185628957431341826597795143628914762853253481976876395214
150060092009018006430002000002450003090201650040703800900000010083007000700600540,158364792279518436436972185812456973397281654645793821964825317583147269721639548
060803200074050060903020010091600000320004005008075900406001038000008052000007400,165843279274159863983726514591682347327914685648375921456291738739468152812537496
600005003710690004905001000003800190002400078000000602107920006200360750040000080,624785913718693524935241867463872195592416378871539642157928436289364751346157289
300050020120403070540801609000070000904002085000900061090007800001690400608100003,386759124129463578547821639813576942964312785752984361495237816231698457678145293
160092050078040300009358007000080010005000400412000570800230091600010043020009600,163792854578641329249358167736584912985127436412963578854236791697815243321479685
020600085809000060100890340530000002000405100000067090098204710302700006450030000,723641985849573261165892347534918672976425138281367594698254713312789456457136829
003020675000050308000006190502763400040500006130009000029374080408000020075000900,893421675261957348754836192582763419947518236136249857629374581418695723375182964
000500000800324019109000320080107004005038006070090200900052007300801050000000460,732519648856324719149786325283167594495238176671495283914652837367841952528973461
090080000648100350005009072010000400009860100304720080080590061200036000070000540,792385614648172359135649872817953426529864137364721985483597261251436798976218543
270010800000000010903050046500200600084900103000074090001600905600048207807030000,276413859458796312913852746539281674784965123162374598341627985695148237827539461
063800007000001003500090801004083500001009002090652070027506008000270009806010000,163825947789461253542397861274183596651749382398652174927536418415278639836914725
000061007060400090004052000900023506030007000402100070390080201706005800801630004,589361427263478195174952683917823546638547912452196378395784261746215839821639754
700106009090720500162090700328400100051000698900000040040600083000350200003078060,735146829894723516162895734328469157451237698976581342547612983689354271213978465
005023008209080040600900001530000010400095800002307060070040052100600003000500470,745123698219786345683954721537468219461295837892317564376849152154672983928531476
002700900860453010100002803007206034050900000014000702040007100000008065500100370,432781956869453217175692843987216534253974681614835792348567129791328465526149378
001007603605800109079000050040260007000108000300009200020050004810070036067003901,281597643635824179479316852148265397792138465356749218923651784814972536567483921
400080007650290300009006000040100890700300620238900050160427000000035100805000002,412583967657291348389746215546172893791358624238964751163427589924835176875619432
700030409948200005000007060000501700029000004100000256060104000350760908002350010,716835429948216375235947861684521793529673184173489256867194532351762948492358617
000004908008012405200060037007690500001000700490050013080000004600705000340920600,163574928978312465254869137837691542521483796496257813789136254612745389345928671
006108530300000090420050006500701840109002000000460009000203900003087065097006012,976128534385674291421359786562791843149832657738465129654213978213987465897546312
706900408000000310830506020057400090600300840300200705000605000901040072082070004,716932458295784316834516927157468293629357841348291765473625189961843572582179634
000357000015800003800000004000009072090034060260105000980060400040021900731000500,429357681615842793873916254354689172197234865268175349982563417546721938731498526
000407190017000005308000020054800603006020051870500200105306080080290004000040030,562437198417982365398651427254819673936724851871563249145376982683295714729148536
200030906037050200500601004005480300890000000073209010002590008040076090001000603,214738956637954281589621734125487369896315427473269815762593148348176592951842673
034080060200005304170064900009000002320700000600100805098600750710043009500090200,934281567286975314175364928859436172321758496647129835498612753712543689563897241
758960042024030806300000000062090703500400910000700600980002000007015000001600480,758961342124537896396284571462198753573426918819753624985342167647815239231679485
070009006020705010418020057000960021030050400004200078000300600580016002009008004,375189246926745813418623957857964321132857469694231578741392685583416792269578134
080000000000072015607030900060450809200001000795060000103600200409100706050020034,582916473934872615617534982361457829248391567795268341173645298429183756856729134
700080200400000067900050040030760012100009050008020304006072095050130700201600080,715486239482913567963257841534768912127349658698521374346872195859134726271695483
830400900104005030000706010008903000245080700900004201057360109090200846000000050,836412975174895632529736418718923564245681793963574281457368129391257846682149357
100873900040500000805001260050100000608300021703609008079040600026700030000000402,162873954947562183835491267254187396698354721713629548379248615426715839581936472
810740502003900800450000000000090000640280790702003006001078064906024050580000000,819746532263915847457832619138697425645281793792453186321578964976124358584369271
002301070050000000130096500006080240007205001095004030073408090900060028000100304,862351479759842613134796582316987245487235961295614837573428196941563728628179354
089520010700003840043700000050067000010930602000200091200800750000006030004050109,689524317721693845543781926952167483418935672367248591236819754195476238874352169
021065400940008200000000319016802907203640080075000000760000040000720005580031000,321965478947318256658274319416852937293647581875193624762589143134726895589431762
009067000802309000700400130180005960600040002000091504500002070407180000030050026,319567248842319657756428139184275963695843712273691584568932471427186395931754826
310209004086007500040005819874500090003000020001000608762308000000094050000160000,315289764986417532247635819874526193693871425521943678762358941138794256459162387
006800004940072500038060001207030050050000089060100300480903620310780900070005000,526891734941372568738564291297438156153627489864159372485913627312786945679245813
000706000700010209680050000003040002950200410001890607097004083008003000104080750,319726845745318269682459371873641592956237418421895637297564183568173924134982756
807040100050700082000003906900600240018230000406100005090001308230590000001020004,867942153359716482142853976973685241518234769426179835795461328234598617681327594
400010630038000590001600802009040020056200000000080703090004000107830950002005014,425918637638427591971653842789346125356271489214589763593164278147832956862795314
720900054000006300041030800800703002006800130904500000000057060308004017400102090,723918654589476321641235879815763942276849135934521786192357468358694217467182593
000050000030002140007463290060540030829006000000078900905000028040700300002081056,294157683536892147187463295761549832829316574453278961915634728648725319372981456
507013002098002000001400070700050096800000040030260005605800104140005300200600900,567913482498572631321486579712354896856197243934268715675839124149725368283641957
050090378000072010640000000200003580000017900030856400004000750003409060901020003,152694378398572614647138295216943587485217936739856421824361759573489162961725843
704080000260007059080160040006039004100008205503400060300000000050000173090210006,734985621261347859985162347826539714149678235573421968318756492652894173497213586
000640072007015006058000300020801905930500400000430010470900080100020000506003700,319648572247315896658297341724861935931572468865439217472956183183724659596183724
004108000586020010700460009630090800007010004000800526301607002900000050008002037,294138765586729413713465289635294871827516394149873526351687942972341658468952137
502049008710002450086000009000360040240017000005000390000090017800500006000031520,532749168719682453486153279198365742243917685675428391354296817821574936967831524
060230500800040009700901208000500300080027006950600074508004010034100080200060090,169238547825746139743951268476589321381427956952613874598374612634192785217865493
600010000000206040089074510000030004010908070057001820092100687003092000004780003,645819732731256948289374516928537164416928375357461829592143687873692451164785293
800000170000030650000195208062080040730900800005201090008062003100050007004007500,853624179219738654647195238962583741731946825485271396578462913126359487394817562
000007000100403276004850001700104029009000000020905803008030040900060050260008197,392617485185493276674852931736184529859326714421975863518739642947261358263548197
508030021010078000040506708893060000000000102007405090000029560402700000900000073,578934621316278945249516738893162457654397182127485396731829564462753819985641273
050003000802904013600780040091500064000200005400071090100002876008000300320016000,954123687872964513613785942291538764786249135435671298149352876568497321327816459
700024508050700094009003600340095001000010820800000000025000400080107006604008039,736924518258761394419583672342895761597416823861372945125639487983147256674258139
000900100009403060426850003084000500070600490030000027103005000560009718740002000,357926184819473265426851973984217536275638491631594827193785642562349718748162359
000704090200003800046059000400298007800007051302060009705000014030045600010002500,583724196297613845146859723451298367869437251372561489725386914938145672614972538
508000000020030095004070601003000704100057028000890100002009530080100240607403000,568941372721638495934572681893216754146357928275894163412789536389165247657423819
004006010000000243023075006500600708076028001409003005008004009030050800001090302,894236517765981243123475986512649738376528491489713625258364179937152864641897352
510000608700020900009700310000001000008000045340806000100204780070503029904080030,512439678763128954489765312257941863698372145341856297135294786876513429924687531
002006000084030060007010290020008304050100079800574010600097500100602080030050700,912786435584239167367415298721968354456123879893574612648397521175642983239851746
510600000409000070060924080630040800080700490000305002150003069072006035300012000,518637924429158376763924581631249857285761493947385612154873269872496135396512748
005923800004100030009008601901000080263000704070000215000010003000790560840306020,615923847784165932329478651951247386263581794478639215596812473132794568847356129
030500801408906003605010002100004905087003140006000020000070000002450708090802650,239547861418926573675318492123764985587293146946185327854671239362459718791832654
047165002002800630008070000000000000060002059185307040030000405051904000970086300,347165982512849637698273514429658173763412859185397246836721495251934768974586321
