300519000100300060095040000069000230508004070010080500003027800057900104800460700,376519482184372965295846317469751238538294671712683549943127856657938124821465793
006801007020003901080040003009350100450090078701000609600408000000010400003502006,396821547524763981187945263869357124452196378731284659615438792278619435943572816
180300700005490102000005086407001309300000000006270405020500801970060000040139060,189326754765498132234715986457681329312954678896273415623547891971862543548139267
080400001036020050900000028520100000409030012060050037100380069647500000008270000,285493671736821954914765328523147896479638512861952437152384769647519283398276145
003900802009401030700030010001250900305000700200180060048000006000709540060002193,413976852859421637726538419671253984385694721294187365948315276132769548567842193
009020500803007001500000643030050092005400070060280104001830000700049038020600009,619324587843567921572918643134756892285491376967283154491832765756149238328675419
009438200005100639001000700007291003180000006290063005000740510070002800400900000,769438251845127639321659748657291483183574926294863175938746512576312894412985367
003906007500000180017000903800050001306000820000702306000041270092308500045070000,283916457569437182417825963824653791376194825951782346638541279792368514145279638
500600008027803010190020005060037090080010003004209070006075002930008060000000941,543691728627853419198724635261537894789416253354289176416975382932148567875362941
405083007090406201301200850009000103800764090000030640007009025000500000206070000,425183967798456231361297854649825173813764592572931648187649325934512786256378419
050006100080000409009100025007020690100035070020040000908200030640057802000360007,752496183381572469469183725537821694194635278826749351978214536643957812215368947
046903000005000372201058090820400006000030801009500030070640029102007400690010005,746923518985164372231758694823471956567239841419586237378645129152897463694312785
307004009050980013680005020005309700061570008900600200000726004000000800000000356,317264589254987613689135427825349761461572938973618245538726194196453872742891356
152007008300500976900348000005003709040080052007601300700200040020030600060004010,152967438384512976976348521815423769643789152297651384731296845428135697569874213
391060000200700014700000300000800050079005608065049021008007103000020005010630940,391564287286793514754182396132876459479215638865349721928457163643921875517638942
400079030300000105000801020500320800000004500760050049034280007890700006105090302,421579638387642195956831724549327861218964573763158249634285917892713456175496382
000970004002006008750203900000400100103005070870630209007000040086052300390080010,631978524942516738758243961569427183123895476874631259217369845486152397395784612
710086000400009002000201080300000009007045310006800407095064008024070900003100605,712486593438759162569231784341627859287945316956813427195364278624578931873192645
000009000001705430008000267095010604240000700030600508300802051702500000080146000,473269185621785439958431267895317624246958713137624598364872951712593846589146372
040000753000010280360005009530094007700020930100080000002800005090600310850700602,241968753975413286368275149536194827784526931129387564612839475497652318853741692
000000009000803027054020060000900040180407000002006398307201000090704035041008600,823675419916843527754129863635982741189437256472516398367251984298764135541398672
000070009006009218031006045200054930400008006670030100300165002080000071000820050,824571369756349218931286745218654937493718526675932184347165892582493671169827453
090107280000056000405000900008095300030010649002700050600400003080029406010803097,396147285821956734475382961148695372537218649962734158659471823783529416214863597
049705008030800047000000196020009004001007050400683700506024300010300800270500009,149765238632891547758432196327159684861247953495683712586924371914376825273518469
400560100208300074901000000010000020703200005000108063840709000306005700002004508,437562189258391674961487352614953827783246915529178463845719236396825741172634598
037010024000005630001048005015097200802006370000400000060030010094700500000082007,537619824489275631621348795315897246842156379976423158768534912294761583153982467
461000000000190040000805600007000398050400206010683070570010030082300050034200907,461732589825196743793845621647521398358479216219683475576914832982367154134258967
016005008003860904800470000270300090000090170000500806601050300007004002350180040,416925738723861954895473261278316495564298173139547826641752389987634512352189647
541700290000060078000000304050940010003007009460038500604520001327010900090000080,541783296932465178876291354758942613213657849469138527684529731327814965195376482
040001958015600000300700400071900005600004302000820060830500074000080120027090000,746231958915648237382759416271963845658174392493825761839512674564387129127496583
000047003090580001270900460060090050300400102050073094830010047600000000041020500,516247983493586721278931465764192358389465172152873694835619247627354819941728536
000059000532070008070300062600147009120860700004000050060000040400500083310092005,846259317532671498971384562653147829129865734784923156265738941497516283318492675
060950800091300002470060100014000207200040618000500009039107000520006030007800900,362951874891374562475268193914683257253749618786512349639127485528496731147835926
940805000008200503050000600709030405510070208300504017000400006120007090000698070,943865721678219543251743689789132465514976238362584917897421356126357894435698172
004060100010004987000030050800301200607490000230500070090005006002810043085020790,574968132316254987928137654849371265657492318231586479193745826762819543485623791
007603045000001078600040010052308000070006009300419020805000002060000400401957030,217683945543291678698745213952378164174526389386419527835164792769832451421957836
030601408006940300700085200008090006009007020470020190300100670090000001025060034,932671458856942317741385269218593746569417823473826195384159672697234581125768934
092400076000760103100002080030920000814000002700000865087050600040010900500397000,392481576458769123176532489635928714814675392729143865987254631243816957561397248
020590006006403007900100040140802650090000204700900801400005720031080000067030900,324597186816423597975168342143872659698351274752946831489615723231789465567234918
059000080700900321300004005000037208006002050005408009610080040008000093040625010,159273486784956321362814975491537268836192754275468139617389542528741693943625817
003000500091040702570060004006900203080610005920708000150370409649200010000000800,463127598891543762572869134716954283384612975925738641158376429649285317237491856
900300204004060005010008007702980400068200010000053000120046900043190850070002000,987315264234769185516428397752981436368274519491653728125846973643197852879532641
805000001040001306960078250084500003070064009200130060300002840520090010006700000,835246791742951386961378254684529173173864529259137468397612845528493617416785932
054783000230501080000000600008400012702010506005090300080200005046807031000046090,654783129239561784871924653368475912792318546415692378187239465946857231523146897
300904800090060050060831720800000100200703004953002000005010380600020907400006005,372954861198267453564831729847695132216783594953142678725419386631528947489376215
000002056501000204003060000009005700310097000200600030007204090004830102600010805,798142356561973284423568917849325761316497528275681439187254693954836172632719845
854002001060000020003079405001007906376040010900100800000305040100200009502096003,854632791769451328213879465481527936376948512925163874698315247137284659542796183
810060940034007860002009500290100004500800701600250000000030000080041090007028430,815362947934517862762489513298173654543896721671254389429635178386741295157928436
000040690900075083028100000796400005000230004000000700005060130107089400340000870,573842691914675283628193547796418325851237964432956718285764139167389452349521876
370010005000720900100036420040900008209500700658040000003270080086003004400000051,372419865864725913195836427741962538239581746658347192513274689986153274427698351
000002048070604002080030609002056430507400060001000980905760000000000100460010053,156972348379684512284531679892156437537498261641327985915763824723845196468219753
030097020004000810106080003400605900700210004603700251500003000090002587200800600,835197426974326815126584793412635978759218364683749251568973142391462587247851639
030500120600007009080462500300690007062035010009801004150900300000070480006200000,734589126625317849981462573318694257462735918579821634157948362293176485846253791
800006020047000500036920080300408001002050000000710930468003750005040800170000609,891576324247831596536924187359468271712359468684712935468193752925647813173285649
003704000640000020120000009000830504001907802080050070002080051500006347039100006,893724615645319728127568439276831594351947862984652173762483951518296347439175286
002530109000027005043000070950380042004060010100092600031009500007100860480000300,762534189819627435543918276956381742324765918178492653631849527297153864485276391
250086004300090086070420000003700602000000091001002403497300005080005060500071000,259186734314597286678423519843719652725634891961852473497368125182945367536271948
000030608730009012102507000009000056250000040061480000010000094900674003800902000,594231678736849512182567439479123856258796341361485927617358294925674183843912765
006230184120409050305000000080790000000806043209000008410308607907140000050000002,796235184128479356345681279684793521571826943239514768412358697967142835853967412
010073020020500610805000400059301046003250800004000000000036007700400009902710050,416873925327549618895162473259381746673254891184697532541936287738425169962718354
021050000004900705700806190009100006000070403873000000210000050406730020008401900,921357648684912735735846192549183276162579483873264519217698354496735821358421967
400109020010800000803600910900062004060090530002705000007004008005070309004530670,476159823519823467823647915951362784768491532342785196637914258185276349294538671
020007040400009601700300205600080009103400700000290360001000000009056008304902010,925617843438529671716348295642783159193465782857291364561834927279156438384972516
000001980034000706700420500402053000015900000060708450389060200020004060000035010,256371984134589726798426531472653198815942673963718452389167245521894367647235819
507000009600120300083047000000030050000590084901700060045600000120008540030002701,517863429694125378283947615468231957372596184951784263745619832129378546836452791
080050007300400012009700560840009300007234009000010706502100004000506000700092800,286951437375468912419723568841679325657234189923815746532187694198546273764392851
304056100109000704570001000080010000900824030405900010002300000000600593790040062,324756189169238754578491326286513947917824635435967218652389471841672593793145862
000040005050009783130600900009450006070000000600070128008000200003760094024130507,892347615456219783137685942289451376371826459645973128768594231513762894924138567
806500002000070500000639071007086090200010080350007410090103000600024000045700300,876541932931872564524639871417386295269415783358297416792153648683924157145768329
021090003004102806950000004000001005780060100503049000000006370806370020107800509,621498753374152896958637214462781935789563142513249687245916378896375421137824569
010400376020095804300600005047000000008107560900002000400080190005010037062030008,519428376726395814384671925647953281238147569951862743473586192895214637162739458
300008072000000980600320501030050720087091006506040100001604009200530000070100400,345918672712465983698327541139856724487291356526743198851674239264539817973182465
060010045800970600030400000005090708100000320379860001004700280200104006700020900,967213845841975632532486197425391768186547329379862451614759283298134576753628914
084100200700006004503000068069080030000240950030007001108090023000020510370605800,684139275721856394593472168469581732817243956235967481158794623946328517372615849
700020681063400720900080003420005000105000362076090800030018000040069210000004005,754923681863451729912786543428635197195847362376192854239518476547369218681274935
200061090010047502830009006090500600008020400047000053650010308023490000000605007,275361894916847532834259716392574681568123479147986253659712348723498165481635927
608095030000010000942300000400200100090730458001060007000070096367800500580000200,618495732735612984942387615473258169296731458851964327124573896367829541589146273
000019600680300400200078015100286000807040060000050003006090530509000102420001070,375419628681325497294678315143286759857943261962157843716892534539764182428531976
802106003703540000600008259070089040001230807206400000039000000400060580000701090,852196473793542618614378259375689142941235867286417935139854726427963581568721394
200800040700059320005060000084003092000490500007601080503702800000015006002300004,219837645746159328835264971684573192321498567957621483563742819478915236192386754
900000300000008050047312006059130400200074065600000180428900007005000010091067008,986745321132698754547312896859136472213874965674529183428951637765483219391267548
004300150800706030100900002020004000703200590069000018205008940000150300016000700,694382157852716439137945862521894673783261594469573218275638941948157326316429785
000000017100258400306000005900560340002400000704030861091000078507090000800016500,285643917179258436346179285918567342632481759754932861491325678567894123823716594
057010006800000940030700000390420108000600003002500600013075009560090870900104200,457912386821356947639748512396427158145689723782531694213875469564293871978164235
020040850605070001010008907006390000090600470340200008004030005108000009730005260,927143856685972341413568927876394512592681473341257698264739185158426739739815264
943600200000020007007458360500003900109240000000070048030100690006000102420000070,943617285658329417217458369574863921189245736362971548735182694896734152421596873
004000057002900060190570004700024630050060800280300070900050080300100200007439010,634218957572943168198576324719824635453761892286395471941652783365187249827439516
000480900201050040300009075000010809035040016087306000060000000409002567070901083,756483921291657348348129675624715839935248716187396254863574192419832567572961483
640009070010080200000006400960208107000000930021500006075034000400607083100850090,648129375317485269259376418963248157584761932721593846875934621492617583136852794
000108070053400002000030690007200006240006005310940008602001087400090300138000200,964128573753469812821537694587213946249786135316945728692351487475892361138674259
850940600002000830064000000500082000093450000006301240100000079030074021005020308,857943612912765834364218957541682793293457186786391245128536479639874521475129368
050427000900000030082006710870000000000000584300095206040070600006001000091500028,153427869967158432482936715875642193629713584314895276248379651536281947791564328
608003000100009328025170000080300074056010230700504000000026980040900053009000100,698243715174659328325178496981362574456817239732594861513426987247981653869735142
000100000863000070050468900001040790908016045200700800004000237000970001002300680,429137568863529174157468923631845792978216345245793816594681237386972451712354689
003809105060001200500020700000902040007380006029160807002000008006000419810500030,273849165468751293591623784685972341147385926329164857932416578756238419814597632
002000380010509760060000001006003100720480900301700500000896005058007690040030020,572614389813529764964378251486953172725481936391762548237896415158247693649135827
500601008807002400496000130030900005100004307000708010000080000072053080050167049,523641798817392456496875132734916825189524367265738914641289573972453681358167249
006007003003900170059400080100602950040071600305000002008000300070045820200709000,816257493423968175759413286187632954942571638365894712598126347671345829234789561
200604013010800970905003004100000000007362000506001028032900650001007040480050002,278694513314825976965713284123589467847362195596471328732948651651237849489156732
001000702000410860956000000007509006080120000200800430560030048039082170070050000,841396752723415869956278314317549286684123597295867431562731948439682175178954623
