060280000000000103721049000008500060100093007470600800009000400840037015500026030,365281794984765123721349586298574361156893247473612859639158472842937615517426938
040860050300401960000003007800350742020000003060080190086009010902000000150070200,249867351375421968618593427891356742527914683463782195786239514932145876154678239
060402000700008294000900701000020509004160020809030010082005640403006070500300900,961472358735618294248953761617824539354169827829537416182795643493286175576341982
100030074072900008000002000008300000920041080040208156700600005860053910005004030,159836274472915368683472591518367429926541783347298156731629845864753912295184637
270064003015200000600500970000000000900700561840130090400050800160097000523601040,279864153315279684684513972751926438932748561846135297497352816168497325523681749
008060070050080012439000500081350000200079005000014006603140200500000980010007003,128465379756983412439721568981356724264879135375214896693148257547632981812597643
024600000010000500603000070506704001401800200080030000700059034002007890090100060,824675319917483526653912478536724981471896253289531647768259134142367895395148762
400079000000860004725300000960000043042001700300200908009680051010095020030007006,486579132193862574725314689961758243842931765357246918279683451618495327534127896
000030070079460001040001800000100030206004005100087409408503000017200580630009002,561938274879462351342751896794125638286394715153687429428513967917246583635879142
700009006010004200900600080800040953520010007400300100070091300038250090650007000,785129436316584279942673581861742953523918647497365128274891365138256794659437812
790680003008009060400300005950008070023000000071005098200900010300460200016070400,795684123138529764462317985954138672823796541671245398247953816389461257516872439
002000940300070010060035028170502000000100005805046090504910032230600080000008007,752861943348279516961435728173592864496183275825746391584917632237654189619328457
409080002083005000500003460040600109000900030027031800700006210650802900100700004,469187352283465791571293468345678129816924537927531846798346215654812973132759684
061409037300006100058200060040000089007090605009061402002000000903052001070030090,261489537394576128758213964146725389827394615539861472612947853983652741475138296
329500076000070800008906003150000300074600021900410085006050090007008002530020040,329581476645273819718946253152897364874635921963412785286354197497168532531729648
200601040910000730600050082009040600078009000060087200030400005000002410402708960,283671549915824736647953182329145678178269354564387291731496825896532417452718963
007000000104905800000020013005362100406070000030109058009000060070800504063407009,397681425124935876658724913985362147416578392732149658849253761271896534563417289
906104300007008624020070900560200001000306009400081000005030000603000280102900050,956124378317598624824673915568249731271356849439781562745832196693415287182967453
000842090000050640780006003856070310041000200007500004000920100030007980620010050,563842791912753648784196523856274319341689275297531864478925136135467982629318457
405061007000900040920000503051004060004070002030200800007083021000107900608090305,485361297173925648926748513251834769864579132739216854597683421342157986618492375
048006020009007306050040170070603000001200085860500704200308900037001062900000010,748136529129857346653942178475683291391274685862519734214368957537491862986725413
100004005000087009037905401208300060000201000570000390090040500004006278020813000,189634725452187639637925481248359167963271854571468392896742513314596278725813946
830005000029006540105000002200403100608900000010857090000010308070030004004790650,836245719729186543145379862297463185658921437413857296962514378571638924384792651
000090046309100257001005030000008000106540820230001470080603010005004009060000502,857392146349186257621475938574238691196547823238961475982653714715824369463719582
900060840160050000000004002030907001080020039700680500872009400500006970010400053,927361845164852397358794162235947681486125739791683524872539416543216978619478253
000179400408002050310450900601280500000007004050960308504006037070300002809000000,265179483498632751317458926641283579983517264752964318524896137176345892839721645
900300400050781030208000060516020073080000901090807040003406085000003602700000000,971362458654781239238549167516924873487635921392817546123496785845173692769258314
013400076608900015000002000300801000000060003960570400000798002092300061450020800,213485976648937215579612384325841697784269153961573428136798542892354761457126839
105070084270030610930040000000080020006001090400009105710520803650018042000000070,165972384274835619938146257591387426326451798487269135719524863653718942842693571
080050040200000500050908031001030692462070000030001080007590006004100320500326009,183652947249713568756948231871435692462879153935261784327594816694187325518326479
000004925704000008100305700600040280072000006085009037098010000210060040300750001,863174925754296318129385764631547289972831456485629137598413672217968543346752891
908700205040000007030062080000821050000600009126005030400090070702000806000008493,968713245241589367537462981379821654854637129126945738483196572792354816615278493
009000500000378100020000403140000090008940000003802706617090805850003002900005610,389421567465378129721659483146537298278946351593812746617294835854163972932785614
708605000001070469000130800056003700000402000192080300803009014200000970070850020,748695231531278469629134857456913782387462195192587346863729514215346978974851623
017098520300200460009300010000900007500402901800073040084006200020100836900005000,417698523358217469269354718642981357573462981891573642184736295725149836936825174
000380020084006950030105008001007302400000060050800140900000000063590017710020804,576389421184276953239145678691457382428931765357862149942718536863594217715623894
901003000600270010003019807400000000000060975030508020259700001040080560008401002,971843256684275319523619847495127638812364975736598124259736481147982563368451792
000090306296000100510004002801007030004385000900200470400700000087601540050030200,748192356296573184513864792821947635674385921935216478462759813387621549159438267
810000003032190760500064000000630004120705900004020150680007000000050328059000001,816572493432198765597364812975631284128745936364829157683217549741956328259483671
270000013001540820509003700003021005400000086000609030906070000010800040700352001,274968513631547829589213764863421975492735186157689432926174358315896247748352691
000207054006030002000645300960004007450060021001980005020300000010058000704009086,183297654546831792297645318962514837458763921371982465825376149619458273734129586
007005260040308005095420008068100093304000001002070500000290080700030010100006409,837915264241368975695427138568142793374659821912873546456291387789534612123786459
100200040070080023009004618801050704600008200200409031430025076000036095000000000,186293547574681923329574618891352764643718259257469831438925176712836495965147382
607409200029056041010803006002301060500008400004070039903200007070000080100060005,687419253329756841415823796792341568531698472864572139953284617276135984148967325
000040105019580070206003400840007231090008600070050040000210003003069080560000002,738946125419582376256173498845697231391428657672351849984215763123769584567834912
003910800001046700200003040009050400087000002035701006090207031800005090002460500,743912865951846723268573149629358417187694352435721986594287631876135294312469578
300002500600180407004000139907300000200060071005840006090700080402609000010000050,371492568659183427824576139967321845248965371135847296593714682482659713716238954
015078043040250708060300000056007900103060002800009004920000106000090080007540300,215978643349256718768314295456827931193465872872139564924783156531692487687541329
000000007410209080003061025008020600740900008090054013926700500500610070000003400,269385147415279386873461925358127694741936258692854713926748531534612879187593462
600980720305200009070031450000050130021006800400002060060070001000800090009064307,614985723385247619972631458796458132521396874438712965863579241147823596259164387
430010007000500006160000300090208650801970400602000000004800529028390100000005070,435619287287534916169782345793248651851976432642153798374861529528397164916425873
107060000009820506000007240095000038046002709800503000700600012003004900050310400,127465893439821576568937241295746138346182759871593624784659312613274985952318467
060710000014000000308000520249008006000100093600007850705030062080200000003490780,562713948914582637378649521249358176857164293631927854795831462486275319123496785
009002807800730040100500000500000009063140502002060308001007635394800700007021900,439612857825739146176584293518273469963148572742965318281497635394856721657321984
020300804030020070000176020950700610000002300473000009840000100306405002000968005,721359864639824571584176923952743618168592347473681259845237196396415782217968435
320010607070029005080004903105002000430007009090000310006090054008705000000840706,329518647674329185581674923165932478432187569897456312716293854948765231253841796
300200085280194000067000000000570000809010200070003140420608090001902004600000503,314267985285194376967385412142579638839416257576823149423658791751932864698741523
050108006000307508100920040806000009000700200201096007987000034504800090030010005,753148926429367518168925743876231459395784261241596387987652134514873692632419875
500710028400602005003008040010000600030896017008200430001560070062407000970003000,596714328487632195123958746719345682234896517658271439841569273362487951975123864
201000500009008060640052000174800230000100900058060470000600007700020104002304005,281736549539418762647952813174895236326147958958263471495681327763529184812374695
067308000010600930024050006005000023090030108840005060700193004009702010000080200,967328541518674932324951876175869423296437158843215769752193684689742315431586297
007000810601700002020800045008100009700004230050390680300020000460900073009610500,547239816681745392923861745238176459796584231154392687315427968462958173879613524
000420810107005002043800006002030009000540760300068105021000070068019500000000090,596423817187695342243871956652137489819542763374968125921354678768219534435786291
000700060109005004060092001940006120038500706710080030402060009803004000000823500,524718963189635274367492851945376128238541796716289435452167389873954612691823547
140600800050000097090083120906030001000000580700021900500702300038009406401000000,142697835853214697697583124926835741314976582785421963569742318238159476471368259
016000032000510000495080006004203900089040007030070020003065008000120700700809410,816497532327516849495382176674253981289641357531978624143765298958124763762839415
030020980002540070000003600607001000050200409910035007085900020040018005093600001,531726984862549173479183652627491538358267419914835267185974326246318795793652841
000006000003700540700035802001090600050063207200407083020080065800000901049010030,512846379983721546764935812371298654458163297296457183127389465835674921649512738
003007000100080509600531000009000710360200904020000860200406000084790120000010075,453927681172684539698531247849365712361278954725149863217456398584793126936812475
000304018050600407800009006006800020001005000320000079040528090970040560010070304,267354918159682437834719256496837125781295643325461879643528791978143562512976384
160805002204607900050030000000000076005309028018040000482050001000060230070104059,167895342234617985859432617923581476645379128718246593482953761591768234376124859
570300040000679000100000008000060002237500000001400593000002086400780031390040050,572318649843679125169254378954863712237591864681427593715932486426785931398146257
000040000030602081102839600500067802027100000409005030000000710070054908604700200,786541329935672481142839675513467892827193546469285137358926714271354968694718253
400000000360790500519840006004510027000300010070008003080003409000107085600900200,427635198368791542519842736834519627295376814176428953781253469942167385653984271
506800007030007000000000421000005008080020130154300270408039000010706050790240060,546812397231497586879653421923175648687924135154368279468539712312786954795241863
705092000300001402010380000000870001600040580508000730000000290037004050190067800,765492318389751462214386975943875621671243589528619734456138297837924156192567843
076018000590000208201309000057040000008002047320061900000930002040080630600007051,476218593593674218281359764957843126168592347324761985815936472742185639639427851
001040065200000090530802001920408300000200500008006907046109000057020000100307048,781943265264715893539862471925478316673291584418536927346189752857624139192357648
190450803060891000200003005902076510004020008700500900015200600070084000000600037,197452863563891742248763195982376514654129378731548926415237689376984251829615437
001002000683040200420000080060000370000059008140703009000300704205100090300087615,951872436683941257427536981569418372732659148148723569816395724275164893394287615
020008010405070280000300005006000403570000900003010052800504190790806004300700028,627458319435179286189362745216985473578243961943617852862534197791826534354791628
000073190040006700050800003310002046400750800200604900008000000120300680079010025,862573194943126758751849263317982546496751832285634971538267419124395687679418325
052000709010430060906072300065008030790040508200100000583006002000700910000000056,352861749817439265946572381465298137791643528238157694583916472624785913179324856
502006003090000206003040780910005840007600050008094021700002000430050000600031908,572186493894573216163249785916325847247618359358794621781962534439857162625431978
096304000000000700200607013500008400630120007809060050020500300005740209081009005,796314528153892764248657913512978436634125897879463152927586341365741289481239675
200740000900000070304085160000056430090127000068000000000013006002470080150200903,286741395915632874374985162721856439493127658568394217849513726632479581157268943
401090057000040300009800100043200001007006080850000239200001060708020004605073008,461392857582147396379865142943258671127936485856714239294581763738629514615473928
005080907970031800020000150000000480003672000510000023800900605640820070001340000,165284937974531862328769154297153486483672519516498723832917645649825371751346298
001084090500300000896070050074020000000600087000010625029001000050943700300208100,731584296542396871896172354674825913215639487983417625429761538158943762367258149
040903075607080200000102040400050600008740090070020030039006008710800324050000009,142963875697584213583172946421359687368741592975628431239416758716895324854237169
084003075000601090902050000300980027265107080800004600000400800570000906009000031,684293175753641298912758364341986527265137489897524613136479852578312946429865731
802009301470000080000300070300140009050260400001005730610700205007900000900082060,862479351473651982195328674386147529759263418241895736618734295527916843934582167
020840000705002600000500390001903076000081200008020504350610900470398020010000000,623849751795132648184567392241953876567481239938726514352614987476398125819275463
403080007270003040050100002806050020009726003000008104005640900060030051002009030,493285617271963845658174392836451729149726583527398164315642978964837251782519436
602039700034800002750000010070006250040080006901050000508067000027004809010020003,682139745134875692759642318873496251245781936961253487598367124327514869416928573
073000500200601390000500048405008603061090000000000700500019820147020000008403006,873942561254681397619537248495278613761395482382164759536719824147826935928453176
270004009000080002300901750005000040014602037907003680190300006008105000040007098,271534869459786312386921754635879241814652937927413685192348576768195423543267198
000610040090070500650892010007020100020508900038700006700000400003400098080060025,372615849891374562654892317547926183126538974938741256765289431213457698489163725
020780400104006000730000900409830005003070020087091006000408053050010080006200007,625789431194326578738145962469832715513674829287591346971468253352917684846253197
005610029000003100970800304108002000030000542400076090064000078700900250820000003,385614729246793185971825364198452637637189542452376891564231978713948256829567413
