074006002002070059080010030000200418106800020500003900069000005000604307437009800,974356182312478659685912734793265418146897523528143976869731245251684397437529861
500004078006907000002000300800000006030610009017209540000500200040360017320408900,593124678186937452472856391859743126234615789617289543768591234945362817321478965
007002050000670019814300000005060078090040002600750301500918007300000000082000604,967182453253674819814395726435261978791843562628759341546918237379426185182537694
035060028000480003001000500300017942200000057509300010062009000740150000908070630,435961728627485193891723564386517942214698357579342816162839475743156289958274631
007960038000000610230580007069300400100670000080010090001240089003000070074035002,517964238498723615236581947769358421142679853385412796651247389823196574974835162
502046100030050000000307080400000030060080002087900604001590720706020809009700050,572846193138259467694317285415672938963481572287935614341598726756123849829764351
580004900002030000070020365750000620320700094004015800806300170090106000000940080,583674912612539748479821365758493621321768594964215837846352179297186453135947286
506004007702100000000030200280900510009020043001406000040697800000008650003510009,536284197792165384418739265284973516659821743371456928145697832927348651863512479
008900003609800700150230006007104000501308002000060840080013009000570030420000050,278946513639851724154237986867124395541398672392765841785413269916572438423689157
805043020007081006012000900408030000090000060030007400600010500509028040000509732,865943127947281356312675984458136279791452863236897415623714598579328641184569732
890030507360920000020510000000000019403600270270000468650100080000004000008070936,891436527365927841724518693586742319413689275279351468652193784937864152148275936
401300706500094030038007100000603002903250060020800005670010890800000020042005600,491328756567194238238567149154673982983251467726849315675412893819736524342985671
821900060007048001036200095042005087700030000000020450060401500905000106000070039,821953764597648321436217895342165987759834612618729453263491578975382146184576239
100892005069170004008400300040000200900000076017500408200906000005000087380004010,134892765569173824728465391843617259952348176617529438271986543495231687386754912
706009000000407160510203000000000841090030050020608900307180206900000004084500013,746819325832457169519263478673925841498731652125648937357184296961372584284596713
000070410670304050390000070508603092720005001000740000013500924002081600000009005,285976413671324859394158276548613792726895341139742568813567924952481637467239185
000759061000200790003108002030042000468000000010070630000900075604010800025003900,842759361156234798973168542537642189468391257219875634381926475694517823725483916
960008041502040690000001300107200060008053000030006014001000009470809200090470085,963528741512347698784961352157294863648153927239786514821635479475819236396472185
001900200328006040060005078409200006050040021800003000700192030040068700106000050,571984263328716945964325178439271586657849321812653497785192634243568719196437852
709000830030060001002050009000910000006230008008047520905000104040006700287001065,759124836834769251612853479523918647476235918198647523965372184341586792287491365
004020001006470000205018300030000897040600002082300450900005208007060900120730000,394526781816473529275918364631254897549687132782391456963145278457862913128739645
318002000004068917007000002080001530520090400790030208005680700600403090000000140,318972654254368917967145382486721539523896471791534268145689723672413895839257146
083705090210060400005200008840027030000950006000630182060390500704001600900000003,683745291219863457475219368846127935321958746597634182168392574734581629952476813
000050000670092003002830901900100006134700002008040050005006009009004078700380240,893651724671492583542837961957128436134765892268943157485276319329514678716389245
701035800040012060050600407007060020108000300690803000470000009000907085002001604,761435892849712563253698417537164928128579346694823751475286139316947285982351674
008940500905000100020100903630000000002607085001030074070008002580092730040300006,318946527965723148724185963637854219492617385851239674173568492586492731249371856
004700130108000060620049005007000900080375240200800010009050320300006704005201008,594768132178523469623149875457612983981375246236894517869457321312986754745231698
098010057300004210700006309000400982000700000641280000080003006036500470150090000,498312657365974218712856349573461982829735164641289735287143596936528471154697823
009805400041720000000000678310604080500300000080079200600010540070003920054000001,769835412841726395235491678312654789597382164486179253623918547178543926954267831
540001769000080000712500004000060092069703008053000400600102000300900015007004203,548321769936487521712596834471865392269743158853219476685132947324978615197654283
651970800302800690070000020409000013800040000500720006006000040200603005000180900,651972834342815697978436521429568713867341259513729486196257348284693175735184962
001603029420008050006074010762801000350000000089000004040002031000007068000510907,871653429423198756596274813762841395354769182189325674647982531915437268238516947
300020000601504200700009080095406130000002790006100040100300908004001060030207500,349728651681534279752619483895476132413852796276193845167345928524981367938267514
006508000100030507003041009320070401081000000000903005070205003510000070204090600,796528314142639587853741269325876491981452736467913825679285143518364972234197658
500302010400006520320004708000000000007150980001097056890000060030200070005041209,579382614418976523326514798953628147647153982281497356892735461134269875765841239
060050030000087609021000870010030508003824000670000040480001307102000004039065002,867952431345187629921643875214736598593824716678519243486291357152378964739465182
070038050930007260050100004700621903108000400200845000304090801000700006010000090,476238159931457268852169734745621983168973425293845617324596871589712346617384592
960102845500040000230680700075306010800009007000000230080500106000000420041073000,967132845518947362234685791475326918823419657196758234382594176759861423641273589
100080600000302040080076103700090804030125070690000020040900000920850007007034560,173489652569312748284576193752693814438125976691748325345967281926851437817234569
802090005300620040000500600004002837000030010705001006170480900029007408003060050,862194375357628149941573682614952837298736514735841296176485923529317468483269751
613400002500000080020900007090050068840010290000070000704001500036500000002068130,613487952579126483428935617391254768847613295265879341784391526136542879952768134
500004300060508029720009810238000000000413700000000650800200006045701000070036094,589124367361578429724369815238657941956413782417982653893245176645791238172836594
000030006600001400014080705000406003090120580027095000960500108072060000800300902,759234816638751429214689735581476293496123587327895641963542178172968354845317962
006905008100007004042301900000074503093000000080000460035000206600409001700520380,376945128159287634842361975261874593493652817587193462935718246628439751714526389
003080502207403000019600700090005080000009400480700001004001690560300047000200003,643987512257413869819652734792145386136829475485736921324571698561398247978264153
016250300307046000050000098080000726500080014009002005420310509700000400000068200,816259347397846152254731698183594726572683914649172835428317569761925483935468271
057000200800003400000568001503400090094800000270090030600000705001900842400017060,357149286816723459942568371563472198194835627278691534629384715731956842485217963
080340050300001200796800000004560001002090600050010304400052039009700080100600002,281346957345971268796825413934567821812493675657218394468152739529734186173689542
600000450009850000200047038008090040470008091030120800803000570010300004500602100,687231459349856712251947638168793245472568391935124867823419576716385924594672183
204190007750060008006000400009016000300700204000008015800905300031074006020000080,284193657753462198196587432549216873318759264672348915867925341931874526425631789
000003007001000058009072000600040025590061000080007903403280000275006009000000410,846153297721694358359872641637948125592361784184527963413289576275416839968735412
000001005120904068590370002850200070040000010002067000900000587000086490701000300,478621935123954768596378142859213674647895213312467859964132587235786491781549326
740200100305040000018060052504730809200008060070050304000690705030001080009000030,746285193325149678918367452564732819293418567871956324182693745437521986659874231
800010704037008000015060090069087200200000307000045010390106058040002906008000003,826519734937428561415763892169387245254691387783245619392176458541832976678954123
601090037200000408740005061003500020900063000065047000090030100070408093080012504,651894237239671458748325961413589726927163845865247319594736182172458693386912574
097180000601094800508702100900800040004003200030400065250000007000360008100005930,397186452621594873548732196965827341714653289832419765253948617479361528186275934
500000029009307008010040600030570010708901004900060200105004000002000060400800375,543186729629357148817249653234578916768921534951463287175634892382795461496812375
004012005020809300586040100300000054009060803400200070000503008210008069000190200,934612785721859346586347192372981654159764823468235971697523418213478569845196237
070002040100090608602401003000500000000026750240300860006079001590080230700100000,379862145154793628682451973967548312813926754245317869436279581591684237728135496
402050019090060400005009703801004030307020805020700006004086002016900004750300000,472853619193267458685419723861594237347621895529738146934186572216975384758342961
020060013300008090000409020003080500097210064060703000006070950140002800005390006,928567413374128695651439728413986572897215364562743189236874951149652837785391246
010006930005000000800025740002179000083060004050800092649007018700013000000000420,214786935375941286896325741462179853983562174157834692649257318728413569531698427
008106004017500900405080702000005036080062000091400070009043000270600580030200100,928176354317524968465389712742915836583762491691438275159843627274691583836257149
005016900900000120200057000301809056040720000000000708600490017050160400024003080,485216973967384125213957864371849256846725391592631748638492517759168432124573689
508406000102003086070090000000004023300870900420005100903001507810560040006300010,538426791192753486674198235785914623361872954429635178943281567817569342256347819
800020060000600179907050002045900200380070000600015730032180095000400801000060300,814729563253648179967351482745936218381274956629815734432187695576493821198562347
100005002007080410064730000406510800090000006020403050600000085805602139079100000,183945672957286413264731598436519827591827346728463951612394785845672139379158264
000008090020064501084007030300000025007810000956002070001500300600900812400700600,163258794729364581584197236318679425247815963956432178891526347675943812432781659
700001850000706900402983001005027100000090030107000205000300068063002000009804020,796241853381756942452983671935427186628195734147638295274319568863572419519864327
003400000062791500450000160070100080205000903306985020700060040009000200000842706,193456872862791534457238169974123685285674913316985427728569341649317258531842796
702300000050062004390007010476010090009004003010500000900120085000080270001030046,762341859158962734394857612476213598589674123213598467947126385635489271821735946
098300047302080900607004020030806075209071300080000100100400068054000002000035000,598312647342687951617954823431896275269571384785243196173429568954168732826735419
590480017062005800007030600050310002304709005000600000010802040400000900900140780,593486217162975834847231659659318472384729165271654398716892543438567921925143786
000048072000930010405000800190600040080100263073250000018000400006809150200070600,961548372827936514435712896192683745584197263673254981718365429346829157259471638
720080009800109060000500100000670200030004080067950004006002401080030070549060002,721386549854129763693547128418673295935214687267958314376892451182435976549761832
000790500100402800090001060001040923403007000068010000300005402700600008204080017,642798531135462879897531264571846923423957186968213745386175492719624358254389617
100243500200600009070500480002800300000010254030005096010000000608400910590086003,189243567245678139376591482952864371867319254431725896713952648628437915594186723
002086070001090200030002005076003000800900400040500127207800603063100809950004000,592486371781395264634712985176243598825971436349568127217859643463127859958634712
070080500260000087100009064000906040310000000000540201040350720705200600890100030,473681592269435187158729364527916843314872956986543271641358729735294618892167435
000007230070028104060301009800000047005206010309500000090005080201040760504000300,158497236973628154462351879826913547745286913319574628697135482231849765584762391
094000730200960001051007006000109025509030600070200480710004800805020003030605000,694512738287963541351847296468179325529438617173256489716394852845721963932685174
000072006042300005000001800870160002930040007010005040008093070301000604620500009,583972416142386795769451823874169532935248167216735948458693271391827654627514389
002008670306000000050009032900601003041500709007020810020000050000230104860400900,492358671316742598758169432985671243241583769637924815124897356579236184863415927
900005000007802035086900042301000600000300057020406810008250091003078000104030070,932745186417862935586913742341587629869321457725496813678254391293178564154639278
000240050750900004104087903907806500000000601000032080030009840860100007000050200,693241758758963124124587963947816532382495671516732489231679845865124397479358216
034000000107908030050130006206500097800010500010409300400650980502000004069807001,634275819127968435958134726246583197893716542715429368471652983582391674369847251
000000020500076018409083705600720000081005004007400936060100083095000002300604100,876541329532976418419283765643729851981365274257418936764192583195837642328654197
500601037000450600800200009030000012200910400004700008002590070107060020406000853,549681237723459681861237549935846712278913465614725398382594176157368924496172853
009000600004502008172000000020039100597200060000800070080007506706408020040910300,859174632364592718172683495628739154597241863413865279981327546736458921245916387
002900867400018300030502000000036078000000402180020093001060700058400000209007150,512943867497618325836572941924136578673859412185724693341265789758491236269387154
506907010000000003009400720000200180217005000004603000038700900160009050905080034,526937418741528693389461725653274189217895346894613572438752961162349857975186234
904000010600540800120709006500602009000000060080073040090008173002004085003150000,954826317637541892128739456541682739379415268286973541495268173712394685863157924
500079008030500270080360010012000085004002300060480002000940053096000000005021006,541279638639518274287364519912637485854192367763485192128946753496753821375821946
006000280800400093020018504790204350380001000602950700004090071100365009000000800,416539287857426193923718564791284356385671942642953718534892671178365429269147835
000001008050000012089302704690004080200100057071038090520000070000000603043709000,762941538354687912189352764695274381238196457471538296526413879917825643843769125
075000621060000480908024000380060200100900300040701098500100000000348005036009070,475893621263517489918624753389465217157982346642731598594176832721348965836259174
420000306000201900580300001036405100000700208900010060617032040008090000200087650,421958376763241985589376421836425197145769238972813564617532849358694712294187653
800107094009003000060200150201030908478000000090004200045000026100085037300460000,832157694519643782764298153251736948478529361693814275945371826126985437387462519
105700080062500400073008092000005019020070000040016753000930608316020000009004007,195742386862593471473168592637485219521379864948216753754931628316827945289654137
400910560000006007903800004810030000006048029000700053627300001080092040509080630,472913568158426397963875214815239476736548129294761853627354981381692745549187632
