008050062003008000900060071030005007604700008071890204090007003150640000007210450,718954362263178945945362871839425617624731598571896234496587123152643789387219456
051007006603900047904003000008400790005106000020000005700502300000089400010030062,251847936683951247974263158168425793395176824427398615746512389532689471819734562
000560030040020007169004000005007004830000910010208000301905800070140205900000370,782561439543829167169734528295317684837456912416298753321975846678143295954682371
050023009290600010001007064500040180026908000700200900010070023400015700003860400,654123879297684315381597264539746182126938547748251936815479623462315798973862451
007052000900400100000038054300009200705801036026000080010000005408300900032007001,847152693953476128261938754384569217795821436126743589619284375478315962532697841
408500700350970000007003904020000061000765302000018500040002080012090006800301090,498526713351974628267183954725439861189765342634218579943652187512897436876341295
007800049009700050802410000420100008060000107000005630036080002170503000008074000,317856249649732851852419763423167598965348127781295634536981472174523986298674315
060038000028071000900200400300040601700000035051092080230050090000700106417600200,164938572528471369973265418389547621742816935651392784236154897895723146417689253
070960300034001000600002801960043000702080540500000098350100709000750006000006102,871965324234871965695432871968543217712689543543217698356124789129758436487396152
020090043078500000405001600060053020132070900000000408000046190507030802910000070,621897543378564219495321687864953721132478956759612438283746195547139862916285374
007206031060005000001040270300507090020100608854000000030900045000800729002001000,487296531263715984591348276316587492729134658854629317638972145145863729972451863
000010746076030900080000002004500080530020007210009400000860000142000000000400175,325918746476235918981746532694573281538124697217689453759861324142357869863492175
620090500105800007040305600003020060910407002470000001007540030090100280800030406,628794513135862947749315628583921764916487352472653891267548139394176285851239476
005000800283070001060104030030209007009006004450030062006400010070050003010890520,145362879283975641967184235638249157729516384451738962596423718872651493314897526
060007000090080012105300000000008200807514093040209007500000069400620780030905004,264157938793486512185392476956738241827514693341269857572841369419623785638975124
542900008003074206900003100004020600090008070175006004000609450000810002030000087,542961738813574296967283145384725619296148573175396824728639451459817362631452987
300601950002040800069007040706090031021005090030000700400080102010030470007002005,384621957572943816169857243746298531821375694935164728453789162218536479697412385
061083000049006730507901820002060004600209105950407000000000640080000092003072500,261783459849526731537941826312865974674239185958417263125398647786154392493672518
013480000502360900090005600800000030040908007037020050006042500900100078750800040,613489725572361984498275613869517432245938167137624859386742591924156378751893246
002106003007023108060700009100050940030002000400908005000009052003405081780060000,852196473947523168361784529128357946539642817476918235614839752293475681785261394
000208050908106000400030900502070408006001090893065700270004005000300070065009001,637298154958146327421537986512973468746821593893465712279614835184352679365789241
000600000071050308800090024005104000906023007030000482300087560500000001729006000,492638715671452398853791624285174936946823157137965482314287569568349271729516843
000094008056003007000527000300068940270050000040000015400009030003170200820000609,732694158956813427184527396315768942279451863648932715467289531593176284821345679
000406500000380000526100403290064000000270809104009006030058070070000950008002601,813426597749385162526197483297864315365271849184539726631958274472613958958742631
000000052000480100610097300030070040006102003940650870700008400050001908089030620,498316752327485169615297384531879246876142593942653871763928415254761938189534627
001050042090700630403082070108420009026130000700000105000068000502009000089010003,871653942295741638463982571158427369926135487734896125317568294542379816689214753
000300051060298030780040200007030106800000040940800503002900007310004090400065020,294376851165298734783541269527439186831657942946812573652983417318724695479165328
002007000509630108640800203100000590007006004090003006820000001005004680963500007,382147965579632148641895273136478592257916834498253716824769351715324689963581427
702004100080000049500080602600800004090013020003496501004060900170250080030007000,762934158381625749549781632615872394497513826823496571254368917176259483938147265
030094008004000217000257930020003000100000086605910000010040090500060300087530041,732194568954386217861257934428673159193425786675918423316742895549861372287539641
009000751500870060010400008023007500608500903000010200001020800047095000290630004,489263751532871469716459328123987546678542913954316287361724895847195632295638174
003056000207900000016000840002739000400000200050800601070004905300600170890120400,983456712247918356516273849162739584438561297759842631671384925324695178895127463
000050600750809104304000020002400960001205070003097800009060740610000009080031050,128354697756829134394176528872413965961285473543697812239568741615742389487931256
207050091610000480080700003590604000043900702061802000000203009000086050420000010,237458691615329487984761523592674138843915762761832945156243879379186254428597316
008079360000300004702006018071004090300010000596008020040007082650020000800045037,418279365965381274732456918271564893384912756596738421143697582657823149829145637
700305091001042008000600547260090070058000600900450020020070000304908100100060030,746385291591742368832619547263891475458237619917456823625173984374928156189564732
700002014080007065190008003005100089000094000230000600401200300500306007000800420,756932814382417965194568273645123789817694532239785641461279358528346197973851426
386000740009030062000009850200071005040502001000060004960050000004300027037108000,386215749459837162721649853298471635643582971175963284962754318814396527537128496
030400068200870003570009400410200800800006057000003240706038020001005009902600070,139452768264871593578369412415297836823146957697583241756938124341725689982614375
005000094103007600002809500200006070040510000580900030600003002030084706000100040,875621394193457628462839517219346875347518269586972431654793182931284756728165943
056040080940080003800036010060000057700504900009007802002309001100008065470201000,356142789941785623827936514264893157718524936539617842682359471193478265475261398
008400930000060000030209014093025700140890500002604000659000008300076002007510000,268451937914763285735289614893125746146897523572634891659342178381976452427518369
040287050003000020010054680030006100709010006002890000601500900500072800000940007,946287351853169724217354689435726198789415236162893475671538942594672813328941567
100700043032846700500000900000103068060504070090070100050031000209000805700080002,186759243932846751574312986427193568861524379395678124658231497219467835743985612
009157004028000000000002960030500420006018030700094010090600008600039150203045007,369157284428963571175482963831576429946218735752394816597621348684739152213845697
023070000089501000705900103500008349000260008470009600900007001010600027000045080,123476895689531274745982163562718349391264758478359612956827431814693527237145986
069483010000001000000095740100000802235004900097360000083000106004058370002000500,769483215458721693321695748146579832235814967897362451583947126614258379972136584
500690000010300209702054800600000091087200040000739000050073106001008004870560000,538692417416387259792154863623845791987216345145739628259473186361928574874561932
083560170050892000000007000300000485020010709000406300004008200867023010095000006,983564172751892643642137958316279485428315769579486321134658297867923514295741836
823009006405700009000020040030470080041506090008010020070061000900050408000200051,823149576465738219197625843639472185241586397758913624574861932912357468386294751
120000054304000008000260007480010500030092801009806020850700306006530700000041000,127983654364175298598264137482317569635492871719856423851729346946538712273641985
203507000008000590000400062570030020010000708300060945407103600091004070005002800,263597481148326597759418362574839126916245738382761945427183659891654273635972814
200070630586200000090010040840005017029830060700090300000100080051000493000364200,214978635586243179397516842843625917129837564765491328432159786651782493978364251
100950600040800070526000000430009500068071030002640900070000001000028349000030080,187954623349862175526317894431289567968571432752643918873496251615728349294135786
802000000605239004000065001009700035006500900200403008400070203000912047008000600,832147596615239784974865321189726435346581972257493168491678253563912847728354619
760301090004500306801002005000700084090106007050020930200008003006010400100679200,765341892924587316831962745312795684498136527657824931279458163586213479143679258
008790400920040603007002000300000907602009008040506030786020300000418050000000209,168793425925841673437652891351284967672139548849576132786925314293418756514367289
008000420000206503050704608010063000700095001403100860071008200300510000986070000,638951427147286593259734618815463972762895341493127865571648239324519786986372154
000300000000009674060087502008103000010090820240056097094008005301005008005270000,457362981832519674169487532978123456516794823243856197794638215321945768685271349
627008000004705308005091000030400890400000600802950000000060403501030706060010029,627348951914725368385691247136472895459183672872956134298567413541239786763814529
021900000003084092860000007004700060050000310600290000702610005005008900040073801,421967583573184692869352147194735268257846319638291754782619435315428976946573821
400908203150000800300016090030270000970030406000800005000690751025700008001000040,467958213159327864382416597536274189978135426214869375843692751625741938791583642
004060501310009060720305800000092076083700009900040200000000025400671000000008400,894267531315489762726315894541892376283756149967143258178934625452671983639528417
907500000402060080010004003800000000200791060076002015063050004080073091100800037,937518246452367189618924753891635472245791368376482915763159824584273691129846537
400910007800000020057000046006087090108000203039104050200403700091002560000090800,462915387813746925957238146526387491148659273739124658285463719391872564674591832
700402903480050000001006500046500030010020090500980401073009008600700210800000004,765412983489357126231896547946571832318624795527983461173249658654738219892165374
400036120070800006002001908004003000208107600030090005100500280700400000059060400,485936127971825346362741958514683792298157634637294815146579283723418569859362471
009820100040051023006009004080000000967000030320006059004170260050900000003042801,539824176748651923216739584485397612967215438321486759894173265152968347673542891
000070109920050400030012600400200007563097001000006380302500090009003500080400006,856374129921658473734912658418235967563897241297146385372561894649783512185429736
530000280000091000796005004900200800068014300150006702800600000070040650024030001,531467289482391567796825134947253816268714395153986742815679423379142658624538971
024000008360120000709003100070010530932500800006007042000800600001950700053406009,124795368365128497789643125478219536932564871516387942297831654641952783853476219
009031600457090012001020780000060000130200890200308004070400060008000521600005030,829731645457896312361524789784169253135247896296358174573412968948673521612985437
000905287000010000923006100004062850308040700700301060400008039000057402015003000,641935287587214396923876145194762853368549721752381964476128539839657412215493678
002305800600000093400186700004000001293004000570002080006900207028700630100060040,712395864685427193439186752864579321293814576571632489346958217928741635157263948
094000002102060030000510900009350480300900061800074003008630150700800000405000076,594783612182469735673512948219356487347928561856174293928637154761845329435291876
870406010000000360025000490368700005400500000201080730000630100009008020100040059,873496512914825367625371498368712945497563281251984736582639174749158623136247859
009380010750009040000006002540003007000010008638002000200900065167204300000078400,429387516756129843813546972541863297972415638638792154284931765167254389395678421
806931200010000603500870040607002090050103008002490500001000005400028300390000470,846931257719254683523876941637582194954163728182497536271349865465728319398615472
173060008000014090600207005002091000000600470500030906748000300201900060030805012,173569248825314697694287135462791583389652471517438926748126359251973864936845712
504900010106032870000700009300007126200008400060090050005004000008009530040010260,574986312196432875832751649389547126257168493461293758625374981718629534943815267
000060100041803900600059204080370006070005830450006001300092058004010090002408000,925764183741823965638159274289371546176245839453986721317692458864517392592438617
029507000104039000000000030092600410518000906600200705000013000050000302006405078,329567841164839257875142639792658413518374926643291785287913564451786392936425178
009000000760040510001320604080604271037850040600000000010000700090400160503009082,349516827762948513851327694985634271137852946624791358416285739298473165573169482
000704810700020090934500000008009240560100009403800071300401007200036000010005600,625794813781623495934518762178359246562147389493862571356481927247936158819275634
200305470490010050007062010030800002106000080050007000010504720872031940300009000,261395478493718256587462319734856192126943587958127634619584723872631945345279861
070300008009601072530040060000920080090085400600000001008204903001030000004009650,176392548849651372532748169413926785297185436685473291758264913961537824324819657
000807501000002070014069800503080047289070005000200006800000120007100003006435090,392847561658312479714569832563981247289674315471253986835796124947128653126435798
080570209040691500003082610600009081000040000592000006800005700730004005000120003,186573249247691538953482617674259381318746952592318476821935764739864125465127893
500030007003019000001708360900403006200057008000000514007800040064001209300206070,582634197673519482491728365915483726246157938738962514127895643864371259359246871
042000109300700400095010080007000528050900001206083000803004952109007000060208000,642835179381729465795416283937641528458972631216583794873164952129357846564298317
007061508805073004400000009271000000000002195003086000030008000109057406504300200,397461528825973614416825379271594863648732195953186742732648951189257436564319287
830400060006150072000023009708000000020319400040002150980005004107800025000060730,832497561496158372571623849718546293625319487349782156983275614167834925254961738
000005047207090000038000206020800050154020800706000409003952608060047000000000510,691285347247396185538471296329864751154729863786513429413952678865147932972638514
500000249360000001001750000800040003203608950096023800000804090970100402050006000,587361249369482571421759386815947623243618957796523814632874195978135462154296738
040000090038265000671003000300006809090070204200500007106009085000084012000100370,542817693938265741671943528317426859895371264264598137126739485753684912489152376
062090003000058709705001480130070050904030800007204000400003072000000600200809140,862497513341658729795321486138976254924135867657284391486513972519742638273869145
006700805000406000351200004040825001038000062005009700029300107700081203000070090,496713825872456319351298674647825931938147562215639748529364187764981253183572496
209008070006400103080007500043060702000209400520010008800006001300500290100740050,239158674756492183481637529943865712618279435527314968875926341364581297192743856
050001600390005007000000084580900020019006030204517900000000002007149006165023800,452871693398465217671392584586934721719286435234517968943658172827149356165723849
040068070980300160000015000079000000800600020020400837107053206400000009052009301,241968573985374162763215498379582614814637925526491837197853246438126759652749381
