074900608009005040000000071010004020020861000503290806060010092030600507708030000,174923658689175243352486971816354729927861435543297816465718392231649587798532164
497500060051004900002061000000000500068005390000673012030006207804000000500102039,497528163651734928382961745213849576768215394945673812139456287824397651576182439
700000004009007352210800006005430670100200000000060401000006107080095000430780900,756923814849617352213854796925431678164278539378569421592346187687195243431782965
905070300400680200060900514650000070000300180008400602090006000710590800000021043,925174368431685297867932514653218479249367185178459632392846751714593826586721943
300005201002908006705010000600309784094680000003000000108056090040100062020070300,389765241412938576765412938651329784294687153873541629138256497547193862926874315
090008540870043910000067028400000005530070080281600000000020030000850109600109700,396218547872543916154967328467381295539472681281695473915726834723854169648139752
050400208036005007000010000540086090093020006071530800900207004068000020000900651,159473268236895417784612935542786193893124576671539842915267384468351729327948651
029500060000130200507604900800903407765000000000000082450010709000478030300200001,129587364684139275537624918812963457765842193943751682458316729291478536376295841
860007054010038067700040200020000036070450000901003500200006010048070009009200308,863927154412538967795641283524189736376452891981763542237896415148375629659214378
400780910000530080670020003250060090009040008000300051740900020080070400023450006,435786912192534687678129543257861394319245768864397251746913825581672439923458176
000067004008032061000400825091306080032000040560010097010005000457020000003100209,125867934948532761376491825791346582832759146564218397219685473457923618683174259
094000800720104000000070030000602045070058902056090100007003600040080059083205007,394526871728134596165879234839612745471358962256497183517943628642781359983265417
000000040870302065049008010100700320000600008538900170050019002700403000000060084,325196847871342965649578213164785329297631458538924176456819732782453691913267584
080007000605000090041520000300000406516038270070091300807005030200900680030040720,983167542625384197741529863398752416516438279472691358867215934254973681139846725
400080100005100060010007302090000086603950001048021700280300090000062000300840057,439286175725134968816597342192473586673958421548621739287315694954762813361849257
028301400500090003006000058900038005004960007160047200000400800407620030019000560,728351496541896723396274158972138645854962317163547289635419872487625931219783564
050190600060040798207008050503002040800030006720000180000800300604073200900506004,458197632361245798297368451513682947849731526726459183175824369684973215932516874
000001080905040200086920350328400007004065000000300102067030400590700001000006800,432651789975843216186927354328419567714265938659378142867132495593784621241596873
203000000060500078000024065081050009040701006075062000000007093006010480409300510,253678941164539278897124365681453729342791856975862134518247693736915482429386517
006900058070002090400106007005380024100000009340009506002407000650010003090600800,216973458573842691489156237965381724127564389348729516832497165654218973791635842
006904001173056009040030502001720900000600084850040610000000723005870000039000000,526984371173256849948137562461728935397615284852349617684591723215873496739462158
207008060036970520154630000000000035000189000002004907063000071009020008508700406,297548163836971524154632789941267835375189642682354917463895271719426358528713496
000500020372000090509010008005046100038270050020009763000604300940020006180037000,814593627372468591569712438795346182638271954421859763257684319943125876186937245
800000534005970200102004600600030000007106003240790008050208049001040000000560700,879621534465973281132854697618432975597186423243795168756218349921347856384569712
901072000005000408260350009007540231010007800506030070000600095000980100340000002,981472563735169428264358719897546231413297856526831974178624395652983147349715682
007600049000708200100045308301507900009060080670200100000003004520000000000859620,837612549495738216162945378341587962259361487678294135986123754523476891714859623
000070000340895006702000308060004180090730500000102903024060005800010704510008030,689273451341895276752641398263954187198736542475182963924367815836519724517428639
290030008000068014600007000380700400007041009000053021940006030100200065050079000,294135678735968214618427593381792456527641389469853721942516837173284965856379142
000037405060000000780400010050900203308051700009080600005003026100200040047006800,912837465564129378783465912651974283328651794479382651895743126136298547247516839
400290010021600003080700540056430200000001300703020009000064008800509100070300095,437295816521648973689713542956437281248951367713826459395164728862579134174382695
024001670069000000300050804005027019701460300000009000076018900100090028040002030,524981673869743251317256894635827419791465382482139567276318945153694728948572136
032050000610093800005760009000000403054028010390016500200100097860040020000032040,932854761617293854485761239126579483754328916398416572243185697861947325579632148
495000610030000002100568040050004000270600180003700954089000007710096800300070200,495237618638941572127568349951384726274659183863712954589123467712496835346875291
008000030060540900701000086026800049000100800030007150509073020010209070040650300,498716235362548917751392486126835749975124863834967152589473621613289574247651398
207008064054000830000009705009040201763010040000800000045097600300600180100200009,217538964954761832638429715589346271763912548421875396845197623392654187176283459
070906280000020605900100430081302000005470060430009000840050300000040079157000002,574936281318724695962185437781362954295478163436519728849257316623841579157693842
005906238034000560000020007090370010008001075001080020500100600800400000600052394,175946238234718569986523147492375816368291475751684923549137682823469751617852394
400097000030104605002060070085403900019056400007000083000005300090280006174000002,461597238738124695952368174285473961319856427647912583826745319593281746174639852
000030609047605001013000002008902000024307500000081700096740800800000043001500000,582134679947625381613879452768952134124367598359481726296743815875216943431598267
000700001105090020840200000798105300063009005000034007650007002009013060010060080,932748651175396428846251973798125346463879215521634897654987132289513764317462589
400260000300580900050007301000974050025100400030000067091650000007010008860000002,419263875372581946658497321186974253725136489934825167291658734547312698863749512
010420600465070300039000100800001004906030070300700596000000000072080900000567082,718423659465179328239856147857691234946235871321748596584912763672384915193567482
938600001004010060002049750006070028000300100200500376187002000000005900069008400,938657241754213869612849753346971528875326194291584376187492635423165987569738412
004700092200000300061900008500008060000403080702060450030006900005020041108590700,854731692279685314361942578543278169916453287782169453437816925695327841128594736
130290005008067000096405001600800000007010430053670020801000900000020807260004500,134298675528167394796435281612843759987512436453679128871356942345921867269784513
010040006826001030005030780380012050007400600000705400200007000500800009400359170,713548296826971534945236781384612957157493628692785413239167845571824369468359172
703802010900050400580060907000010740604008003000007208061500020030001096005340000,743892615916753482582164937328615749674928153159437268861579324437281596295346871
500009206901030000430706080020400100008063090000500072700005000093010520004908610,587149236961832754432756981325497168178263495649581372716325849893614527254978613
630100008008030097501000640060070200420508900009400310080790402000802000710004060,637149528248635197591287643165973284423518976879426315386791452954862731712354869
010290400300008027006047008040760002030080000009501300025670100108900704400005000,817296435394158627256347918541763892632489571789521346925674183168932754473815269
040006007608905013200170000000300502010040309007690080305000000006010820420708006,149836257678925413253174698964381572812547369537692184385269741796413825421758936
007000000950080207000940300000300142600000008392010000078209005500068000203401709,137625894954183267826947351785396142641572938392814576478239615519768423263451789
030060000069300548000879600008150200200080007140030090300000452405210900090007000,831465729769321548524879613978156234253984167146732895317698452485213976692547381
008751000005000610700240900376920005900010762000004800010000009547003000260500400,698751324425839617731246958376928145984315762152674893813462579547193286269587431
090000040040013600608050000200076410003809500756300200005004032870100000102090070,391268745547913628628457391289576413413829567756341289965784132874132956132695874
003000058609000034000071002000095000078023000005700869000400320040069007150008040,723946158619582734584371692461895273978623415235714869896457321342169587157238946
006001000004930120500470300403080206009300000860100000302000801605000940000529070,936251487784936125521478369413785296259364718867192534392647851675813942148529673
070000548630000000809020100000810700100305096005006000007060200302084050040002819,271693548634158972859427163463819725128375496795246381987561234312984657546732819
600029700000008005450037020730000012002604030005010870500340000000051903068090004,683529741127468395459137628736985412812674539945213876591346287274851963368792154
010009700002708500008600004700090000546000009081304020100042035009500006200863070,615439782492718563378625194723196458546287319981354627167942835839571246254863971
500920000007005060023100000200048007160000830090003605079000308000004100016370409,541926783987435261623187594235648917164759832798213645479561328352894176816372459
030004080600910402020063107960000700005000843013500000800020051000108600700046900,139274586687915432524863197968432715275691843413587269846729351392158674751346928
050870060928000050000023010600040002007005093490107086070301000080600000103080940,351879264928416357746523819635948172817265493492137586574391628289654731163782945
006000983000186200070000005004009000307000108080203009029750006500090700013648500,146527983935186274872934615254819367397465128681273459429751836568392741713648592
708410090000906030430000000600300800351002007800105240902600715100080600040020000,768413592215976438439258176624397851351842967897165243982634715173589624546721389
900280100000001006086493000040070830000020701031000250500040320074008000068500090,957286143423751986186493572642175839895324761731869254519647328274938615368512497
600070020018000300703000196080000500040035067560219000920004001001702008000003640,694371825218956374753428196382647519149835267567219483926584731431762958875193642
005098420000050000096200003020006180079030006080500700004002051300400070012005890,135698427247153968896247513423976185579831246681524739964782351358419672712365894
000001540870059000030000028000690050002003704510400260061008300007040089050376010,296831547874259136135764928743692851682513794519487263461928375327145689958376412
070000246200806095000050300960200010020900807400013000180500000500090761003640002,875139246234876195619452378967285413321964857458713629186527934542398761793641582
816009003000000200009170040300040085000002706680001900002308009040567002531000800,816429573473685291259173648327946185194852736685731924762318459948567312531294867
030000765008000043470000209006093070300600901002405008900030410005107002020064050,239841765568729143471356289816293574354678921792415638987532416645187392123964857
180000000600003400009200000340900027020060080000307501000750300810490002506100090,187649235652813479439275168345981627721564983968327541294758316813496752576132894
700801005025003810080040900010600083030200760004005200007000430953067000102900000,796821345425793816381546972219674583538219764674385291867152439953467128142938657
000070080006435709190600003000024800002050070005801000010000030208003041504900627,453179286826435719197682453361724895982356174745891362619247538278563941534918627
407030680200000001069002070700000206001745039958060400004000005036091000100800040,417539682285674391369182574743918256621745839958263417894327165536491728172856943
010040027460120000005083001000000014004300950859007006002004093703850600000009805,318946527467125389925783461236598714174362958859417236582674193793851642641239875
002006040005800903900540700107005000050003609304098021740100050601000807000602300,872936145415827963936541782197265438258413679364798521743189256621354897589672314
293005004040020510010007800730090000008702040060310020900050408500600031006040907,293185674847926513615437892732594186158762349469318725971253468584679231326841957
070000240059070063000480010210307500000090700003016080904000000180600059062830070,871963245459172863326485917218347596645298731793516482934751628187624359562839174
009510000302000041470000800035009006008340217200006500006820304000090070080401009,869514732352768941471932865135279486698345217247186593916827354524693178783451629
910506307600900000435000000080004090070160200501800706062001000003002084090730050,918546327627983415435217869286374591379165248541829736862451973753692184194738652
370000049060120000005004300030200000010078650407009008002015090080060402100840037,371586249964123785825794361638251974219478653457639128742315896583967412196842537
700050032400060015039002800300040090000085070016200003900001607602009480045008000,761854932428963715539712864357146298294385176816297543983421657672539481145678329
800407019035000602001000000020065007003000000540901003000028094074003106010706300,862437519435819672791652438129365847683274951547981263356128794274593186918746325
200301070000075890009080061100003900760400280940060000305006000000800413024000000,286391574431675892579284361158723946763419285942568137315946728697852413824137659
000070900200504060074900001300060009046098100080001200609002740010680300750030000,165873924293514867874926531321765489546298173987341256639152748412687395758439612
059000040000194602000007103870005034400080900065302007207013080080600000306020500,159236748738194652642857193871965234423781965965342817297513486584679321316428579
801025700704006030690000002000103004503704260000000500960800051340000000002007849,831425796724986135695371482286153974513794268479268513967842351348519627152637849
070204006801970000000006030080709105450001000030020080006048017903000020000500004,375214896861973452294856731682739145459681273137425689526348917943167528718592364
006400000200060487050709130600300720008002015000580604000803072702010500430000000,176438259293165487854729136615394728948672315327581694561843972782916543439257861
069507302004090000010020080080350970070806500400100060200000010043000005106904703,869517342324698157517423689681352974972846531435179268298735416743261895156984723
040500007080639200100000900200001000450000080031700600900025000300960004062803710,649512837785639241123478956296381475457296183831754692974125368318967524562843719
608100035700000008050209061940060000023001500060834900000403800100620070005798002,698147235712356498354289761947562183823971546561834927276413859189625374435798612
000400053609000004030050090307024000084107200060090800000376901203010400010005078,721489653659732184438651792397824516584167239162593847845376921273918465916245378
400027098089500000071006403854290100300470000000000020000309001090045760006000030,435127698689534217271986453854293176362471985917658324728369541193845762546712839
100070008054106920700000640006402710007063004000008250820009300905031000040050080,162974538354186927798325641586492713217563894439718256821649375975831462643257189
700091040400500316000020090010600032380057000060080004005960000008000120903004057,756391248492578316831426795517649832384257961269183574175962483648735129923814657
807904201090100300005368000601000070009400005000005896060207004070000003520080019,837954261496172358215368947651839472789426135342715896163297584978541623524683719
900000040080520006200379005600750002400038090007000301068040700030900120520100000,975816243381524976246379815693751482412638597857492361168243759734965128529187634
