060040890010200074007081030096800105000012003005030080078006040902057600000400002,263745891819263574457981236396874125784512963125639487578126349942357618631498752
280007600500002401047000000070000063005041080309008002008090050190065830400020007,281437695563982471947516328874259163625341789319678542738194256192765834456823917
705960041620080300031000000040710065000620070560400090000072910300500008400091000,785963241624187359931254687243719865198625473567438192856372914319546728472891536
809200050030008060000100400701004500608029130040005907200060000405087002060050013,879246351134578269526193478791834526658729134342615987283961745415387692967452813
050060009036007102080290700000089600000700304097000010001000003643801000800506240,752168439936457182184293756415389627268715394397642518521974863643821975879536241
200300007901074602054016000090005801876900400000030020100407080000000200583100060,268359147931874652754216398392645871876921435415738926129467583647583219583192764
000061070704952000310000096000840009000006128005000360036107000059038007180000240,598361472764952831312784596621843759943576128875219364436127985259438617187695243
304000020098000705275090130010004000030015690020700008601049050000280040000001306,364157829198432765275698134816924573437815692529763418681349257753286941942571386
000000200180605004740010089050803020609007001000049003500700006060020430810900050,396478215182695374745312689451863927639257841278149563523784196967521438814936752
005840000021397600080000427010400090008650001307020060600100079009000800052009030,765842913421397685983516427516478392298653741347921568634185279179234856852769134
108000076027000300000410090003290007000050100204076080701000260000063500059008034,198532476427689351365417892583291647976854123214376985731945268842763519659128734
020060810001005034478000000200703960057900021000801405503002080090500200000014006,325467819961285734478139652214753968857946321639821475543692187196578243782314596
038060005070005036501070408043000209200053000006907001007018060000000000090246800,938164725472895136561372498743681259219453687856927341327518964684739512195246873
000030089052000100010607500006002053200480970009100406001008042003795000867000300,674531289352849167918627534146972853235486971789153426591368742423795618867214395
009006070500140006670002080038000029400930007000500800004680001200003050013070904,349856172582147396671392485138764529425938617967521843754689231296413758813275964
000400016002603800103050090070000000405109030006874250020506040090230708000007001,857492316942613875163758492279365184485129637316874259721586943594231768638947521
906024030000000520075008100000103400003007980102060050080490075750300209300010600,916524837438971526275638194897153462563247981142869753681492375754386219329715648
405009002920070030008600001072060040300010570001400203060940008000050900004031050,415389762926174835738625491872563149349218576651497283567942318183756924294831657
040020005901304800835060900002071500060400071300080000000200090670800302009005016,746928135921354867835167924492671583568493271317582649153246798674819352289735416
058904030230058010694020000006780405005390000000400670470001500000000087901060000,158974236237658914694123758316782495745396821829415673472831569563249187981567342
000170860040005020370000490700340500010600000002007908400860201293050000008403700,925174863846935127371286495789342516514698372632517948457869231293751684168423759
006000000730109205200400780400803000018060300065014009050908124040705000003000907,586372491734189265291456783472893516918567342365214879657938124149725638823641957
000004080640000700357006901439805006000029018002060450005002003963170020800500000,291734685648951732357286941439815276576429318182367459715642893963178524824593167
706910084348000000100020600800009000000700090030604002007040206010005009050806073,726913584348567921195428637872139465461752398539684712987341256613275849254896173
003008000902051000040900201086300490500027108000400020607094850038000600100060700,713248965962751384845936271286315497594627138371489526627194853438572619159863742
040085379000107000030060850026970004089000200005003108010746002007050640800090005,641285379958137426732469851126978534389514267475623198513746982297851643864392715
000090820400005031098001000802070600004003070060509308003000210107040560500607000,315796824476285931298431756832174695954863172761529348643958217187342569529617483
106000004048206097930080000050041200603800010002003065705930100000002700084057900,126379584548216397937584621859641273673825419412793865765938142391462758284157936
700190602005000900008204130049630000000000240210708500007010020900003857380060000,734195682125386974698274135549632718876951243213748569457819326961423857382567491
090810060050042000006507302040208659000064208000001070100309800002000106305000040,297813564853642791416597382741238659539764218628951473164379825972485136385126947
045300000000071060013800720030000600194005870080107900068000050000906480902080010,745362198829471563613859724537298641194635872286147935468713259351926487972584316
700402018091003250600080007000829040050004020080050306000930400420018500076000009,735492618891673254642581937163829745957364821284157396518936472429718563376245189
032100509000008013800090600090401000356000002201000708460032000007005800000749005,632174589579268413814593627798421356356987142241356798465832971927615834183749265
500300002906050000004060708010000290237500004608140005000620180000003049160009000,581374962976258431324961758415837296237596814698142375749625183852713649163489527
501900800027004010400000073005610000000008204076203009060092030000031490008007501,531976842627384915489125673245619387913758264876243159164592738752831496398467521
060000009403700500010832000000209080500040001680001320800020007004010803007605900,768154239423796518915832476341269785572348691689571324896423157254917863137685942
100009600002510409037000058609030700015800002080470010400060071000708063000052000,154389627862517439937624158649231785715896342283475916428963571591748263376152894
706054009500001270400900030042809060680500900015300000009060852060000000203000047,736254189598631274421987536342819765687542913915376428179463852864725391253198647
546001002002800300810027095600903078200006000000470900000050800087000024005730010,546391782792845361813627495654913278279586143138472956961254837387169524425738619
004000900670030080082617000000084002207001034030570060000050407006093510091008000,314825976675439281982617345169384752257961834438572169823156497746293518591748623
100340000004000851070086020000791008050003270490050600310079000008002006006800105,182345967634927851579186324263791548851463279497258613315679482948512736726834195
000008020502000403130700000000091007273004010006000508000086704408510090059302600,697438125582169473134725869845691237273854916916273548321986754468517392759342681
004098500309500001700600040001076920040010650070000004050947062008002003020000190,214798536369524781785631249531476928842319657976285314153947862698152473427863195
350090700420130080006200000960703201000006030708400590007002408200500103010060970,351698724429137685876245319965783241142956837738421596697312458284579163513864972
100700005608039200005004839901008040302010500070900008060000000803057000000240106,139782465648539271725164839951378642382416597476925318264891753813657924597243186
509400310000000907000018060380000051050064080700050602000100800001096240043007005,569472318418635927237918564386729451152364789794851632925143876871596243643287195
400380091900024700007500006743901800210000007005060030000090200028006040139045000,462387591951624783387519426743951862216438957895762134674893215528176349139245678
002370940630451000500000000096000230710090850008103000305800072807600300000002004,182376945639451728574928163496587231713294856258163497345819672827645319961732584
603019002050400106000020098205300400000002617070800030041080003090564700700003000,683719542952438176417625398265371489834952617179846235541287963398564721726193854
000108050700092000030050200900400020820001340000063907409007500015800603080510002,692138754754692831138754269973485126826971345541263987469327518215849673387516492
000510040400023967087000000100295008070600504300078020690000000038040059020300670,963517842415823967287964315146295738872631594359478126691752483738146259524389671
000000780301000000070650209052904078700010004093208006008020600010509040040706530,965142783321897465874653219152964378786315924493278156538421697617539842249786531
096000030700023090050006708008040309062000040300891070000100000504068007810037502,296784135781523694453916728178642359962375841345891276627159483534268917819437562
000070004309100760024805003071006005000000406005080090200050000090340080010698030,168973254359124768724865913971436825832519476645287391283751649596342187417698532
800010529692007030030000060500120000080004000201705096456800001007503000000070904,874316529692457138135289467569128743783964215241735896456892371917543682328671954
003490056960025000004700080890100600051000027706030009070000193000008570035004200,283491756967825341514763982892147635351689427746532819478256193629318574135974268
304050601580036070097000504000004320100087065402060090000370940950008002000100000,324759681581436279697821534865914327139287465472563198218375946953648712746192853
002740090700038001030000406209000060010052080570060900040093500008010029001500730,162745893794638251835129476289374165416952387573861942647293518358417629921586734
036900007405108020200037640540093700000000000307020081020051006060000410008470009,836942157475168923219537648541893762682715394397624581924351876763289415158476239
407000010010500683068002000076003900100806500930040002093100720042309008500400000,457638219219574683368912475876253941124896537935741862693185724742369158581427396
200010000006003570084796030000970020000005049403860001070401000620080400009000385,237518964916243578584796132851974623762135849493862751378451296625389417149627385
006501497487030000000060020090004603030710050200000804001820706760003500050009000,326581497487932165519467328198254673634718952275396814941825736762143589853679241
010073040006205009549000200807400006000730024090060180300800700080000061000629500,218973645736245819549186273827491356651738924493562187365814792982357461174629538
050900002096000800703500400070000005002810003169004070400080629087032010600140080,854961732296473851713528496378296145542817963169354278431785629987632514625149387
090001000732506000600007539000020010017903068003004900020345700508060024060000100,895431672732596841641287539956728413417953268283614957129345786578169324364872195
000013000800240007107090520020400081300000076604080900038900100000800795450060030,562713849893245617147698523925476381381529476674381952738952164216834795459167238
600270084009014750000003002350900006470368005000007010002009800094500600830000020,613275984289614753745893162358921476471368295926457318562739841194582637837146529
005710000086049000920000073200530008600200001010078004003000050040080067090150042,435712986786349215921865473274531698658294731319678524163427859542983167897156342
006430259040105760980000000000820395000001007204900001009740003610500000003200800,176438259342195768985672134761824395598361427234957681829746513617583942453219876
020090000000708021931006500706300005450070060009001040005200610608900003040500780,827195436564738921931426578716342895453879162289651347395287614678914253142563789
000021007060000109900407830001500680045089002703200050300190076800000300026040000,538921467467835129912467835291574683645389712783216954354198276879652341126743598
300800260029607050500001030008200045007019002043005001000008000705300004814076900,371854269429637158586921437198263745657419382243785691932148576765392814814576923
530026900087530004106000080010042090008000000000605147600009210041000760200000053,534826971987531624126794385715342896468917532392685147653479218841253769279168453
801700002000000390000256000090005760406190500280604100030000245604300010002007080,861739452527418396349256871193825764476193528285674139738961245654382917912547683
500906002000108760070005030010000400023000098609340510840260051001090000002507080,538976142294138765176425839715689423423751698689342517847263951351894276962517384
356090100800060020000704800400000560021003000007258030605079004000020013009401070,356892147874165329192734856483917562521643798967258431615379284748526913239481675
006000800000003045048007320002030010051028900070090600200000750307104008810600009,136245897729863145548917326982736514651428973473591682264389751397154268815672439
007210090008097504040308060010030200036100980000006030009840023200005100064000007,657214398328697514941358762815439276436172985792586431579841623283765149164923857
062709500003045008890010040109206000000000005006470302000030010920007080047008600,462789531713645928895312746139256874274893165586471392658934217921567483347128659
000804309900017000850206000402000008035000026601005930000103407079040012060000850,217854369946317285853296741492631578735489126681725934528163497379548612164972853
003800250070009048005000009004000007060051030092073500400702803210040060007610900,943867251671529348825134679534286197768951432192473586456792813219348765387615924
063002800709008030840030601200076009070040085100500000020050003000604100050910074,563192847719468532842735691285376419976241385134589726421857963397624158658913274
001000206059104000300750009070036102600410800400008900000500004860020000120009703,741893256259164378386752419578936142692415837413278965937581624864327591125649783
040067009500200070090040103060009020002500704400100680000008506001032040703000900,148367259536291478297845163865479321312586794479123685924718536651932847783654912
400210005007008300058000096090005403830002000206700000070103542004000089000906100,463219875927658314158374296791865423835492761246731958679183542314527689582946137
069104007500030004010078000050900200086040100004501906042300000000020853700006009,269154387578239614413678592157963248986742135324581976842395761691427853735816429
065000002030080017019200850200070000008001045000400603100900300624130090500064700,865719432432586917719243856246375189378691245951428673187952364624137598593864721
003150700000076410200039085705000006020001598980000170400000000007840360500602900,643158729859276413271439685715984236324761598986523174462397851197845362538612947
460300210030059080007210603003005040090007000654800000000001068008090004120080059,469378215231659487587214693713965842892147536654832971945721368378596124126483759
040005601300720900075000082500608039002170460034000000000960140001500703428000000,249835671386721954175496382517648239892173465634259817753962148961584723428317596
700230010214900000096800050070000098000018630005006004900140300007000260183050700,758234916214965873396871452671423598429518637835796124962147385547389261183652749
200017000704005900001003820062000040005026130980000000500300286300090700010460300,298617453734285961651943827162739548475826139983154672549371286326598714817462395
000000506040302810602700004100090040078001090300806100000039005053180200289040070,837914526945362817612758934126593748578421693394876152761239485453187269289645371
070030680506400700800709013001602000003180052400900007000004296064021000087000000,179235684536418729842769513751642938693187452428953167315874296964321875287596341
091000036246300750700000802053097080100400073400020000060085000008961000507004090,891572436246318759735649812653197284182456973479823165964785321328961547517234698
008040006600300590470190200080920071021087000043050000030004082009710305000000060,398245716612378594475196238586923471921487653743651829137564982869712345254839167
008000005193200000600184900000000700800060004069073020407012508000005102050009030,748396215193257486625184973314528769872961354569473821437612598986735142251849637
007080065402900100000500907001093084000200003620001070108456002794000000060030800,917382465452967138386514927571693284849275613623841579138456792794128356265739841
500000090109304006040970800000020170060800903027003000950200010003060402084730000,538612794179384256642975831395426178461857923827193645956248317713569482284731569
603000020081062705507030409030048910000007004802150600000005300010200087908010040,693574128481962735527831469735648912169327854842159673276485391314296587958713246
