607300020050149000000007050029000400700502308100960000200003081004850060310070005,697385124852149637431627859529738416746512398183964572265493781974851263318276945
000290060076018300300400802987004000005730010000060020010000500064950003002607089,458293761276518394391476852987124635625739418143865927719382546864951273532647189
510206090070130504002400060049300000200504710000008009050010080030070200801003600,514286397678139524392457168749361852283594716165728439457612983936875241821943675
000600800704500009080092030130907005002000003070036140500061002046870001800405900,359614827724583619681792534138947265462158793975236148597361482246879351813425976
008050023050480760100006900420030105700900800039000000200005070040100006963078004,698751423352489761174326958426837195715964832839512647281645379547193286963278514
072001406900206000030000508020970010500000083607500000000035071008002000314800900,872351496945286137136749528423978615591624783687513249269435871758192364314867952
506180000037000800010092063920807004040000005708036002002060051000504020380900070,596183247237645819814792563921857634643219785758436192472368951169574328385921476
860070305001208000705040900006900500400000710300564008000701002070030160092080003,864179325931258647725346981286917534459823716317564298643791852578432169192685473
200048000000000150130000468079602003000007800002005901705081000980500307360900200,256148739498763152137259468879612543513497826642835971725381694984526317361974285
800900025005100003070004008007300690160020300240096050008500041920030070604007800,816973425495182763372654918587341692169725384243896157738569241921438576654217839
000796300003480100000050080400000076180200504050000290009137020020900400600004057,815796342973482165264351789492513876186279534357648291549137628728965413631824957
012059030900004086007803050700001608126070003000200704090500040230006100004080009,812659437953714286467823951745391628126478593389265714691537842238946175574182369
050690001410052003000007060840001600509380100270000004007045800300206900000900076,758693241416852793932417568843721659569384127271569384697145832384276915125938476
506103002030807000910006005760000040008024017200500309020000050003980000054030081,586193472432857196917246835765319248398624517241578369829461753173985624654732981
140900000020051060008270030002004870001030405700690003060345001875060000000800009,146983527327451968598276134932514876681732495754698213269345781875169342413827659
001000400096510037700090005020060100105930608804200070002678009940005000030000002,251783496496512837783496215329867154175934628864251973512678349948325761637149582
290004000008600000070058003040200017005003900061400530000089754003070601900100008,296734185538621479174958263349265817725813946861497532612389754483572691957146328
000051706000000029008700100072093800560002091083004050000026405490080600001035070,349251786716348529258769143172593864564872391983614257837926415495187632621435978
009700008005030040700040650360001000000050760080063024008006071004287900000310500,649725318815639247723148659362471895491852763587963124238596471154287936976314582
003509408100268093070000006000490120500600007710025000030000900080012504006980000,623579418145268793879143256368497125592631847714825639431756982987312564256984371
000804920045290000000070000400930018007006000092580003309000201080001670060750034,713864925645293187928175346456932718837416592192587463379648251584321679261759834
090056200402003700100084000005007046008020901009060820080002057007000130630009000,893756214452913768176284593215897346368425971749361825984132657527648139631579482
021000093430070006809041050300800200007002500000090041100004680500007000680150907,721568493435279816869341752346815279917432568258796341173924685592687134684153927
010008604900050100276030000029700000000003508030040002840020060600015307700460080,315978624984652173276134859529781436467293518138546792841327965692815347753469281
200086005030009010006520400008700000904063000150200078460100950019047830007050000,241386795835479216796521483628715349974863521153294678462138957519647832387952164
300750006029600080807100453002039000410020800030060000000080900100005040005004327,341758296529643781867192453752839164416527839938461572274386915193275648685914327
800902010150704009060030280010200908034070050608300000206805043740000001000090500,873962415152784369469531287517246938934178652628359174296815743745623891381497526
040083100020500090706000005100000000050001683900342070405690302002005907003017800,549783126321564798786129435137856249254971683968342571475698312812435967693217854
079153006600008005810400200400700900951020000082001003326500400000000072040010060,279153846634278195815469237463785921951326784782941653326597418198634572547812369
200130050080005009400600820340000080070080602900070001050706030106409000000013905,297138456683245719415697823342961587571384692968572341859726134136459278724813965
001600049080100570024090008500039067008200300003047102000013900000080050067000034,351678249986124573724395618512839467478261395693547182845713926239486751167952834
023600001008000400500937060260005700409280010000010200040071500006820397300000020,723648951698152473514937862261495738479283615835716249942371586156824397387569124
000010073400002100500380006005070000320006005060004009001059842807600500900041600,286415973473962158519387426195278364324196785768534219631759842847623591952841637
000006820859000010030009000620013704400060030900070205060300470708002093001008600,174536829859427316236189547625913784487265931913874265562391478748652193391748652
000053906600480500010007020820090410164020080057000003030200008700009140092600000,248153976679482531315967824823796415164325789957841263531274698786539142492618357
207060030930170020460020500000017000801000790000905460080006109050043002600200008,217568934935174826468329517596417283841632795723985461382756149159843672674291358
701000603900001200640090007080062010067840000302500008000004805009105320830700000,721458693953671284648293157584362719167849532392517468216934875479185326835726941
000087400258304900000500002005013800097002004080609035000908613030006000409100000,913287456258364971746591382625413897397852164184679235572948613831726549469135728
500400001078000340001000090906070010034002680000500000090025860400631009025804070,569483721278159346341267598956378412734912685812546937193725864487631259625894173
400007000910250800087106050809705001600840200000093407160300002004000060050068300,435987126916254873287136954849725631673841295521693487168379542394512768752468319
051060090000003840860027300079008160080410000006002000008040902702600050400071030,351864297927153846864927315279538164583416729146792583618345972732689451495271638
850004073206080000007003009000001040360090800041750020000200100070030560092145008,859614273236987451417523689728361945365492817941758326583276194174839562692145738
300000050090075010204980700000000602063208500080190073410000000005004928008603000,371462859896375214254981736149537682763248591582196473417829365635714928928653147
009600030025004006780105000010000820400001070850007900000000643000058719030740008,149682537325974186786135492617593824492861375853427961578219643264358719931746258
100098600000470009405021308260000000050306004009050701728000050000084290030005000,173598642682473519495621378261947835857316924349852761728139456516784293934265187
000520300380006400002004051070380009401007020000000603708060010094105000200900567,147529386385716492962834751576382149431697825829451673758263914694175238213948567
300200046208100090000060500602700003907680104041005000000097000009003268003400019,315279846268154397794368521652741983937682154841935672126897435479513268583426719
205100003060024780089000501000003102340007608906040000030090810500608000700005030,275189463163524789489376521857963142341257698926841357634792815512638974798415236
005072090107080240306000000070109020000320700080700051500030008000940630204006005,845672193197583246326491587673159824451328769982764351569237418718945632234816975
001200000053007006240095080400650900009001670005008040010030090700082103030040257,871264539953817426246395781427653918389421675165978342512736894794582163638149257
002050008030800060700009000000500172006904030580070090600080003013007204904032000,192756348435821769768349521349568172276914835581273496627485913813697254954132687
020043709060800050503000200100297006086010070409000300308701002950000000017050408,821543769764829153593176284135297846286314975479685321348761592952438617617952438
503820600047500100900071340000200400001060038000938206050000000000780500320006870,513824697647593182982671345836217459291465738475938216758342961164789523329156874
000604005760001000039000010000080006020009540014027098870005200000900031203800700,182634975765291483439758612957483126328169547614527398871345269546972831293816754
000032007100000600070080543004900002589300100007658400000200080005049060028071090,856432917143795628972186543364917852589324176217658439491263785735849261628571394
006190200030004900010603540600200000502000800900807010024080170700400006008035009,456198237837524961219673548681249753572361894943857612324986175795412386168735429
070190280000048090050300170000830050680400001009062700006200400310907000027010005,473195286261748593958326174742831659685479321139562748596283417314957862827614935
605700090300009000400063078093050816006071020040800500028040063007018400000200100,685724391372189645419563278793452816856371924241896537128945763937618452564237189
007589106000000900540706003006004310201000000003620075900302500705000420060400008,327589146618243957549716283876954312251837694493621875984372561735168429162495738
240009006030001900908034100000100004025000860060803751500008007006502009002470300,241789536637251948958634172783165294125947863469823751514398627376512489892476315
306547200009800000008000104000410056000030000020608900593070080064020713100006009,316547298249861375758293164937412856685739421421658937593174682864925713172386549
408007910000030607005009300084370200007081095016000000000106004000020580209054030,438567912192438657765219348984375261327681495516942873853196724641723589279854136
905001003080200697000000850006040000071083400240059080050060100020907034307004000,965871243184235697732496851896742315571683429243159786459368172628917534317524968
080020000209103840510006070970008000038400150000605900400000000701300068020059310,387524691269173845514986273975218436638497152142635987453861729791342568826759314
000720043600040058201300700000073015008400070030502006050000600402108930087090000,895726143673941258241385769926873415518469372734512896159237684462158937387694521
201000906709000004050360000000586070405007800600100209000034018100700000080020305,231475986769812534854369127392586471415297863678143259526934718143758692987621345
040508136000023907000000000370602080092850400100000060407005300031090240008100070,249578136816423957753961824374612589692857413185349762467285391531796248928134675
000000500600803041970020003003005260840900000005140090400008706008390010210650800,381469527652873941974521683193785264846932175725146398439218756568397412217654839
000730400082009030009400102000200053100000040265900070647001080300090005001078600,516732498482169537739485162874216953193857246265943871647521389328694715951378624
000502904000010002001470360800006109050700000932040006609300041400025080007100203,768532914345619872291478365874256139156793428932841756629387541413925687587164293
400000030502900671000608000029080006800000090710520300000796050005030102030100740,467215938582943671193678425329487516854361297716529384241796853975834162638152749
000089026060000309027030000000560000036100002500400008050904100108052704403006090,341789526865241379927635841284563917736198452519427638652974183198352764473816295
600030050170200800002007049006410002080706005020900780090000000000085034314600020,649831257175294863832567149756418392983726415421953786598342671267185934314679528
306079041020000000100000086810004000500720000700630809004085970000403060085260400,356879241428316795197542386813954627569728134742631859634185972271493568985267413
000809000100200540539001608000006030006104200002070050060300900080402100940080070,624859713178263549539741628497526831856134297312978456265317984783492165941685372
100002600005701094028960003070000850002009000040230900006100408300006070009053106,197342685635781294428965713973614852862579341541238967256197438314826579789453126
900010023050490016000006000200000097401203085000045000000030008800069742706108050,964817523357492816182356974235681497491273685678945231529734168813569742746128359
421090600890100070006080050000050284003000500104608000300700010000940006602005903,421597638895136472736284159967351284283479561154628397349762815518943726672815943
300024005706310002040060090000500000098000207034001080005002906080000401001643500,319824765756319842842765193267598314198436257534271689475182936683957421921643578
070500820089000000410002036900001602023060105500000084657890000002100049000030700,376549821289613457415782936948351672723468195561927384657894213832176549194235768
000000061000503900428006007006034200080207610053010008300900004002005070791080306,539728461617543982428196537176834295984257613253619748365971824842365179791482356
800500930017004508006109200000810029203070010700490300050000103009026080340700000,824567931917234568536189247465813729293675814781492356652948173179326485348751692
905010700082007036000200000097300240120090000806000005000104803740000020003570690,965413782482957136371286459597361248124895367836742915659124873748639521213578694
021750006070040800000009050087016042465020009090030000000001600740200081006098370,821753496579642813634189257387916542465827139192534768958371624743265981216498375
084065000700190040000003520038006900600001400005720086020980107190302000003000005,384265719752198643961473528238546971679831452415729386526984137197352864843617295
100005000057000300003048009700600002096027000410050076028100050009830001300069204,184395627957216348263748519735681492896427135412953876628174953549832761371569284
405000030008006001930752600109600004050321009000005200340008000800000173007090080,465819732278436591931752648129687354754321869683945217346178925892564173517293486
091000003056017908000068500060009304400050071030870600900200100703400000010005029,891542763256317948374968512567129384489653271132874695945286137723491856618735429
800607000090050034120308790500000083209710005064020000030006001400109020708400060,843697152697251834125348796571964283289713645364825917932586471456179328718432569
900510600720000080001327450897001340206000005003080060002900000100065030050042970,934518627725496183681327459897651342216734895543289761462973518179865234358142976
307090020000040008509680100700000806030070050216009003800015400004030971020400300,387591624162743598549682137795324816438176259216859743873915462654238971921467385
180200000060000718004600005906010870427900006000000430370504260009003000005802043,183257694562349718794681325936415872427938156851726439378594261249163587615872943
030600009000040085005200040200300000018007000046910300094060207021000958700800001,437685129962143785185279643279356814318427596546918372894561237621734958753892461
600007350000100947004800000030490700908570602105060000010000060307200500502039400,621947358853126947794853126236498715948571632175362894419785263367214589582639471
200807300400060809060000050005400201000005070716009400003908040091000560024603080,259847316437561829168392754385476291942135678716289435673958142891724563524613987
302940800050007140900006002074300000209000050530628004060070013000801005000490070,312945867856237149947186532674359281289714356531628794468572913793861425125493678
091780000420005010700003960000470005030012006546000007000309080100040502305060400,691784253423695718758123964812476395937512846546938127274359681169847532385261479
085070210060042000000300059410000085000039070702001400040260007907080306008000021,385976214169542738274318659413627985856439172792851463541263897927185346638794521
000001300652090010007020085540000000000830204700009860400180690860000003039405070,984751326652398417317624985548216739196837254723549861475183692861972543239465178
830004760000200091701060050002500006070900304680010000540702010018035000000480900,839154762456273891721869453392548176175926384684317529543792618918635247267481935
