740608000009003168000500007096100430850009010070050002060070850400000091000321000,743618529529743168618592347296187435854239716371456982162974853437865291985321674
000508204940003000000060080200390000601400502030000760086075020320009805109000400,763518294948723651512964387275396148691487532834251769486175923327649815159832476
803100060001040090040029005650408300010730050008000200009000037037501008400600920,893157462521846793746329185652418379914732856378965214169284537237591648485673921
010700200007430019000058040105006930040200000893500600070000060080070402009380501,418769253657432819932158746125846937746293185893517624574921368381675492269384571
810300500000000060090020378700840900000050002600071400051089000402700001980406005,814367529273598164596124378735842916149653782628971453351289647462735891987416235
149000000600102700300890050080620900700000030003957840000764002007039061005080000,149375628658142793372896154584623917796418235213957846931764582827539461465281379
500070049008029670000001000410300050703050206906008000060040090030100700004090825,521876349348529671697431582412367958783954216956218437865742193239185764174693825
910520000870040009020030470000602300500700042000010608708490030096000100042008005,914527863873146529625839471489652317561783942237914658758491236396275184142368795
007500062085070001402800350310002700904000230000004080063705400000490600200010000,137549862685273941492861357318652794954187236726934185863725419571498623249316578
003400195005960230001007800700009050084300900000850060120000070009080604060000302,673428195845961237291537846736219458584376921912854763128643579359782614467195382
008040090073582100016073002005200004691000080000067010042008360050001070000390500,528146793973582146416973852785219634691435287234867915142758369359621478867394521
010040080000209001056070209000030850000196043070005002340007608200064015501000900,912643587738259461456871239194732856825196743673485192349517628287964315561328974
025904800000000005030860720003070006804501000290000001002007040600300190970608032,725914863486723915139865724513279486864531279297486351352197648648352197971648532
050004072007003590800020000039010804500009600126000030002075000070046310365080000,653894172247163598891527463739612854584739621126458739412375986978246315365981247
300805400084021090006070000003504807070600000020090104900000703147006008500940200,319865472784321695256479381693514827471682539825793164962158743147236958538947216
752010040003409000090030081040082600619050400000000157800000900070540006200607005,752816349183479562496235781547182693619753428328964157865321974971548236234697815
807300210014080000900270060080730000090650032002104050605000407000000380030069100,867345219214986573953271864586732941491658732372194658625813497149527386738469125
004000320590030010006170050407000903020006100185040600000810207900200000001350064,714695328592438716836172459467521983329786145185943672653814297948267531271359864
060807540003020061700000090058001036246000050001200904000100003400902800012580000,169837542583429761724615398958741236246398157371256984895174623437962815612583479
030800600000050007401090320090600500302000000507014800200400978970028140100300006,735842691629153487481796325894637512312985764567214839253461978976528143148379256
084900007000702030120034908008490003000208190076510000693000200000000700050860004,384951627569782431127634958218496573435278196976513842693147285841325769752869314
904002005500460080000709002010030090380500401072006008006900304040070010108203700,964382175527461983831759642615834297389527461472196538756918324243675819198243756
060003000203010750549208630070005408006020000900030270005000000800400309100069025,761543982283916754549278631372695418416827593958134276695382147827451369134769825
000060907540080012009002340080047030050090106200000080800000065962150000430700000,328461957547389612619572348186247539754893126293615784871934265962158473435726891
010900208540000910700800003009060300086032005004008072067010000020509006030670100,613957248548326917792841563279465381186732495354198672967213854421589736835674129
050701060000540378090002100035000096008050201010406500270800000140020030006030009,354781962621549378897362154435218796768953241912476583273894615149625837586137429
300000402095032070000709150800053020907810006000000014002001067140006300068090000,371568492495132678286749153814653729927814536653927814532481967149276385768395241
000504300019700000080100027050906140001000200860002500400089006090070400200300805,627594381319728654584163927752936148941857263863412579435289716198675432276341895
200000490007062003005390701010070045006930007028056300904000100800710900003000060,231587496497162853685394721319278645546931287728456319954623178862715934173849562
029000005603094070010200640004781030000060020005000091006003000750419800900007010,429176385683594172517238649294781536371965428865342791146823957752419863938657214
003400061000970000041030072000008000027006080100000359018700430305020008960050200,793482561652971843841635972439518726527396184186247359218769435375124698964853217
150000900230001060800504002700080310090000704003075000042160035000002007006859400,157628943234791568869534172725486319698213754413975286942167835581342697376859421
041600009002040710900500060080903102709000380206070005300180050507006890000000400,841627539652349718973518264485963172719254386236871945394182657527436891168795423
001836500000000304095007801207001009003960708080502000600409007100020000409010036,741836592826195374395247861267381459513964728984572613632459187178623945459718236
000001072600000000183050000050080309490002680030700041009400700510008060802013054,945361872627849135183257496756184329491532687238796541369425718514978263872613954
940280005701900006008603040400870901010000000800065030095300007060008150300041002,946287315731954826528613749453872961612439578879165234195326487264798153387541692
139700500050003460700280000900300001000092075428001096340020000006004080200059100,139746528852913467764285913975368241613492875428571396341827659596134782287659134
490820003007496500000107000079350201100009050028000060840001600063000904050000702,496825173317496528285137496679358241134269857528714369842971635763582914951643782
007028130029061500003400000800000001710200306000085709030690200004003095060500040,657928134429361578183457962892736451715249386346185729538694217274813695961572843
019500000000034007530086000080060092050003706702090450100007800200400360040328001,419572638826934517537186249384765192951243786762891453193657824278419365645328971
100402780800006500096500030023905007050010040900087000507001900080004102060300000,135492786872136594496578231623945817758213649914687325547821963389764152261359478
000000000824000001090650087002501000030800005008092714400020008060000053700063190,576218349824739561391654287942571836137846925658392714413925678269187453785463192
007680500014075900060241000002054170340100208900000060050000010000030084720008009,237689541814375926569241837682954173345167298971823465458796312196532784723418659
020007604806030050570004132010000090080506000704182003900018000030000007002009046,321957684846231759579864132615743298283596471794182563967418325438625917152379846
409010850700800030050370106600020700001600905820504000900038061000002000003061092,439216857716845239258379146695123784341687925827594613972438561164952378583761492
090800000700090350812030000480107600300056090075000020000902063007013204006000700,593864172764291358812735946489127635321456897675389421148972563957613284236548719
002070600709000300063205040020000900057800006900014000016300490000402801800700050,542973618789146325163285749621537984457829136938614572216358497375492861894761253
057009000080056420140000300018000002400700981600300750000000019520004070009801006,257439168983156427146287395718945632435762981692318754864573219521694873379821546
000400057200863009010005800093501600401300000060047020800700140670100500000090032,386419257257863419914275863793521684421386975568947321839752146672134598145698732
040000000820000761601050800900002080008594300256010007000430002000800010103709040,347186259825943761691257834934672185718594326256318497589431672472865913163729548
200400000031080004905010023700000082064700501000060000302096105010270090008034060,287453916631982754945617823759341682864729531123568479372896145416275398598134267
047060000000014098600023750005000080920070000400900003060300400030090001218005037,847569312352714698691823754175436289923178546486952173769381425534297861218645937
100800070204007096008560130710000000069032004500000300000608007090000510400790020,136829475254317896978564132713485269869132754542976381321658947697243518485791623
100904057720030000084002010209060580000470003008520600017600400300000060540003098,163984257725136849984752316279361584651478923438529671817695432392847165546213798
009053004207009108080700006001200760000340001098005020040900350060070800000102009,619853274257469138384721596431298765526347981798615423142986357963574812875132649
050007013001084050004000090930000700006570020020803000009046008070900130800010560,258697413391284657764135892935421786486579321127863945519346278672958134843712569
603400209000502100080370000100900050978000001060028704709005830010000040502046007,653481279497562183281379465124937658978654321365128794749215836816793542532846917
300059801050000000000163904870306000000000000004780102437090205605420007091000086,346259871159874623728163954872316549513942768964785132437698215685421397291537486
200090001083004670006108025508002004000700190730006200051040036907300000060800400,275693841183524679496178325518932764624785193739416258851247936947361582362859417
060710000009400008007052304605003700300600805810090200040170003250060000000800519,463718952529436178187952364695283741372641895814597236948175623251369487736824519
607050100300140000900032580805000032002006904070500000010970860086000020504000300,627859143358147296941632587865491732132786954479523618213974865786315429594268371
400052000000370910005009408016740802589020001070900030040006103900580074002000000,491852367628374915735169428316745892589623741274918536847296153963581274152437689
007600200108400000400005017002004098030096702500820001060501079000037600045900000,357619284198472536426385917612754398834196752579823461263541879981237645745968123
900501300030004000008260045071020086800006237000000100067900002002080050504030609,946571328235894761718263945471329586859416237623758194367945812192687453584132679
006028430001500000050030900007003040100800206604007500000090801008345760095000020,976128435341579682852436917527963148139854276684217593463792851218345769795681324
000002400380000060000845031001534200400670080006200905070003029903001000045080017,517362498384197562629845731891534276452679183736218945178453629963721854245986317
061093000240000003709860005856009014000600700000050280100204000087005000000100937,561493872248517693739862145856729314312648759974351286193274568687935421425186937
701050830006238500050100020003765004100800003070400090045090100600000087200600900,721954836496238571358176429983765214164829753572413698845397162619542387237681945
026000340004005090809300100040680002500010060900007001608500030001469570070802000,726198345314725896859346127147683952582914763963257481698571234231469578475832619
308007601500008023000140000600304200052860040000059070070006908090735000103000050,348527691517698423926143587689374215752861349431259876275416938894735162163982754
900700020006050400400082560008060043060090075502030001020005080074003000610000902,951746328286359417437182569798561243163294875542837691329615784874923156615478932
004530060608049005001000709005000401000608070930000200286050030070006108500904007,794531862628749315351862749865273491142698573937415286286157934479326158513984627
040900028679000003000050106008000201002019070300000580801500600900200040056703000,145936728679128453283457196798345261562819374314672589821594637937261845456783912
000058900049001072003000040080705200402030050000900106504680300200000067060179000,627458913849361572153297648986715234412836759735924186574682391291543867368179425
000900800760030400802000005030216009000400076180005000209070000000150300054062007,543927861761538492892641735437216589925483176186795243219374658678159324354862917
002065308000000047349200050001308070600054000200090010406800003503602001100070009,712465398865931247349287156951328674687154932234796815476819523593642781128573469
004910002500000603390005000010009000200051349000076280007030416005400000608002507,764913852581724693392685174813249765276851349459376281927538416135467928648192537
190030070006200005030000402060007100005040380700809050070504890000080020024093500,192435678486271935537968412268357149915642387743819256671524893359186724824793561
000010720200408000491206008030000059000905400005607301820000100004100060067080093,586319724273458916491276538732841659618935472945627381829763145354192867167584293
000530026000000000940100780300001602078060300004270098001680050062409010090000400,187534926526798134943126785359841672278965341614273598431687259762459813895312467
030470000009006800104920560250683090010540078600000000300050004080010020092007130,836475219529136847174928563257683491913542678648791352361259784785314926492867135
040580700871000059930002060058900030006003002000010470000245100109068000000700328,642589713871634259935172864458927631716453982293816475387245196129368547564791328
030080910106002570200070004004290300000300051810000260605907003000040006009003800,437586912196432578258179634564291387972368451813754269685927143321845796749613825
000800752000031089054009000306080000049002010070950060681400020005000007290360800,913846752762531489854729136326184975549672318178953264681497523435218697297365841
080005007060230000095086034510000000003004008700520160004090823200468050001000090,382945617467231985195786234516879342923614578748523169654197823239468751871352496
003650000000081400007020059005008060600039817100760300406300000200014006050000780,943657128562981473817423659735148962624539817198762345486375291279814536351296784
070008509209007060430500200000106703700040010005082600003005102080290040006030900,671428539259317468438569271894156723762943815315782694943675182587291346126834957
096000200007804030000230007004005028200008490500000600038506700001790003400001050,396157284127864539845239167764915328213678495589423671938546712651792843472381956
040003057100706002000180040230017000608050000000600739301000560560900070082004000,846293157153746892927185346239417685678359421415628739391872564564931278782564913
700031400005607809009000030000004002056002903043800750080506020102740000090010006,728931465435627819619485237971354682856172943243869751387596124162743598594218376
750004802038000005200060090009010500600250041001400306100000008463005070070092030,756934812938721465214568793349816527687253941521479386192347658463185279875692134
100709630620800005004300100017000002005000890030206407000037000080000346042008059,158729634623841975974365128417983562265174893839256417596437281781592346342618759
000090003003602100790530048006000300048100290500040870150020000060009500207804001,615498723483672159792531648976285314348167295521943876159326487864719532237854961
000102004001054600800790020085000001430000070060935002076020005900003047040800309,693182754721354698854796123285647931439218576167935482376429815918563247542871369
000002030120746050609580000804150270030000006700300095070490000358070400001008020,587912634123746958649583712864159273935827146712364895276495381358271469491638527
078050403400090060000200018007800009800027605153000000091400000500003204230069700,978651423412398567365274918627835149849127635153946872791482356586713294234569781
100500009730002860080000024308046000005109006001307900020000051000625003607900040,142568379739412865586793124398246517275189436461357982923874651814625793657931248
900008000080001472160540900004030006000920800200060597006009085010053060073400020,942378651385691472167542938794835216651927843238164597426719385819253764573486129
004610893000590600003082000040379260080005004000006017001200700500030000960704080,254617893817593642693482175145379268786125934329846517431268759578931426962754381
460579000032006010807000000006080503050001000900200008043005900280010075700390200,461579832532846719897132654126487593358961427974253168643725981289614375715398246
