076000000340000827805009001090003004060190050203004000004028006701460203050900070,176842935349516827825379641597283164468197352213654789934728516781465293652931478
003500400600030070120906500000100062005840900800027300040080005306001090080309701,793518426658234179124976583437195862265843917819627354941782635376451298582369741
700040900950006020006005301000038007068070500200609403100400200030091008405002060,721843956953716824846925371594238617368174592217659483189467235632591748475382169
070500003864030005000070690000180020300400106020009040450010780009060000137800502,972546813864931275513278694645183927398427156721659348456312789289765431137894562
070230040208100690000005001083006020000020000604000180700800035065094000891300007,176239548258147693439685271583916724917428356624573189742861935365794812891352467
670003010100690048900502300430005870000100002528000003005201004000800700207040900,672483519153697248984512367431925876769138452528764193895271634346859721217346985
025060079000704800010930004007010090890200063650000000004073005000820406230005100,425168379963754812718932654347516298891247563652389741184673925579821436236495187
409600050070010043600085709008030061256000800040200000000009007130000090082007510,429673158875912643613485729798534261256791834341268975564129387137856492982347516
400006207205300940090010030502760001700039005048000000000040082006970300000208160,483596217215387946697412538532764891761839425948125673159643782826971354374258169
305021060600000009007500004010205000060070900509048073000012800800009630104000005,345921768681734529297586314713295486468173952529648173956312847872459631134867295
007580010120036400000004070905008037600200504080470109006002058209001003000900000,467589312128736495593124876945618237671293584382475169716342958259861743834957621
000015640000307058108020300006000009000640031807009420089060000200954000034002070,793815642462397158158426397346271589925648731817539426589763214271954863634182975
010700905705024030438000600807002400009050018200063507100080300000900026006005100,612738945795624831438519672857192463369457218241863597174286359583941726926375184
001970000000500030908602050410050009000427065000010082007008090609030814300004600,561973248274581936938642751412856379893427165756319482147268593629735814385194627
700060940006002080130090700400901000075300600800000002601000850002470093000518004,728163945956742381134895726463921578275384619819657432641239857582476193397518264
603078042841200900700001005005000080910057030000806004094000600302000401000520097,653978142841265973729341865465132789918457236237896514594713628372689451186524397
000700620070480001009010050302040070108300096700650300045000200600109008800020009,581793624276485931439216857362948175158372496794651382945867213627139548813524769
025043070007009000103860500080000049300071800604020057070002904000590060001006030,925143678867259413143867592782635149359471826614928357576312984238594761491786235
000140090048000070600200005090820003006004001031005209009000080173680020084503006,352147698948356172617298435495821763726934851831765249569412387173689524284573916
027800015093040002800059300000012080005300206600000000106008004758400020040760050,427836915593147862861259347374612589915384276682975431136528794758491623249763158
934002800070004010600030970000100490009053700210000006100070580005840032062090000,934712865578964213621538974356127498489653721217489356143276589795841632862395147
304605000070100900600807020800009605009070310507302000030206049002000568100050000,394625781278143956651897423823419675469578312517362894735286149942731568186954237
008905170090420008600013020000030790063504080120000000000079000000000650837602410,248965173391427568675813924584231796763594281129786345456179832912348657837652419
000004000026050031089620007507410002801000306000900070700043089000509000048002510,175394268426857931389621457537416892891275346264938175752143689613589724948762513
940030600003007000570462001090600258205140000000000009061504037000700080400098020,942831675613957842578462391194673258285149763736285419861524937329716584457398126
069000200000800030401067005300009060704028000008540012085900400906300071270050008,869135247527894136431267985352719864714628359698543712185976423946382571273451698
140000020000030509907680000008000007200005016060004300071900453080046090002700800,143597628826431579957682134518369247234875916769214385671928453385146792492753861
780300000000007900203400150905006002002800460040070031006001305897002000300060028,789315246514627983263498157935146872172853469648279531426781395897532614351964728
002900010710036280804500006500000890490802000060050300007060004000107509025300700,652978413719436285834521976571643892493812657268759341987265134346187529125394768
701304208040001000306090000090002851000957002230000006500000480820000107064079003,751364298942781635386295714497632851618957342235418976573126489829543167164879523
027058390006000450800690000700002803000170020054306000930700000002005901060004082,127458396396217458845693217719542863683179524254386179938721645472865931561934782
008000004019007500020310900000000002050098706830721000700035000500084601264009008,378952164619847523425316987947563812152498736836721495781635249593284671264179358
000400630080506100003091002405600000020000965309780020942000070700008000100900254,591472638284536197673891542415629783827314965369785421942153876756248319138967254
764820090005730000080006014507000130800007209009300080000000543002900060016058000,764821395195734628283596714547289136831647259629315487978162543452973861316458972
069050007210800053000400000050010360002380001007964000400007000001000490395201086,869153247214879653573426819958712364642385971137964528486597132721638495395241786
006400502200001009000300080090054130720080005010096400100037690059008201407000000,836479512275861349941325786698254137724183965513796428182537694359648271467912853
060200814019005002080060900400170030000000270057630040895000000300408091006020700,563297814719845362284361957428179536631584279957632148895716423372458691146923785
509200007070000654000010000906030500087409002010806900450023001620040080000001000,539264817172398654864715239946132578387459162215876943458623791621947385793581426
060058004100930700508001009000470800057002010290000060003080241020060300001007900,769258134142936785538741629316475892857692413294813567673589241925164378481327956
000203060090407801600008520780000050041090006002071400000604210008030000030005907,814253769295467831673918524789346152541892376362571498957684213128739645436125987
065070080080000430000010006027004090300208705950600018000000002640300009031062050,265473981189526437473819526827154693316298745954637218598741362642385179731962854
024500900006473010005609078090005703001300000460807500002000007800010062130000090,724581936986473215315629478298165743571342689463897521642938157859714362137256894
800902500704000200900500063070209008005080031009054000400600100026008090000301074,863912547754863219912547863671239458245786931389154726437695182126478395598321674
700030910028100000300562080002098076030705004109000300050400000000023540600000803,765834912428179635391562487542398176836715294179246358253481769987623541614957823
030091065028530001090000080001600027080200006700009450000406500500078000040320010,437891265628534971195762384951643827384257196762189453279416538513978642846325719
807000003040000910009562004700690028000700306005203040120070050693010700508000000,857149263246837915319562874731694528482751396965283147124378659693415782578926431
000003026102098003080006005300075061000400750008020000006980030009100042257004100,945713826162598473783246915394875261621439758578621394416982537839157642257364189
105006000973240100000908700058090040060003002700000008096500003000302604002100857,185736429973245186624918735258697341461853972739421568896574213517382694342169857
900010703000003010012850060700390000630700045004005002009041830500070006080600204,958416723476923518312857469725394681631782945894165372269541837543278196187639254
301009060000000850890702000083000000700100400200386790045908002000070010000261030,351849267427613859896752341583497126769125483214386795145938672632574918978261534
010080704300204009502609030425000390003057080008300100000005016006801200270030400,619583724387214569542679831425168397193457682768392145834725916956841273271936458
050000009000206308060030070004120030800009100020800057106070000003004092007098560,352487619719256348468931275974125836835769124621843957196572483583614792247398561
013405008290007060600082007007004091020500004050610030406000000900308050001000203,713465928298137465645982317367824591129573684854619732436251879972348156581796243
700380109802060500140002067009400006200590300001208004608005072005070410000800030,756384129892761543143952867389417256274596381561238794638145972925673418417829635
096800003003000400180520970400100000300064095012005000009350012000086054807000300,796841523523679481184523976465198237378264195912735648649357812231986754857412369
030000504002005310000960080800004002070100039594207000050040008001080670700302000,637821594982475316145963287813694752276158439594237861359746128421589673768312945
000004309003126708742900010500000001197000830306200000005001003000740590060058004,618574329953126748742983615524837961197465832386219457475691283831742596269358174
005710003000300702013640080000206070601050900280400050050000697060030040490008201,825719463946385712713642589534296178671853924289471356358124697162937845497568231
700100604500940028021000000060789000109003200057410000004006801083250046000000090,798125634536947128421638579362789415149563287857412963274396851983251746615874392
080502900914000000503400678005078290090100083000026041000061002431090000700003000,687532914914687325523419678145378296296154783378926541859761432431295867762843159
003002890019830005005000460100400709087000506040509020000907302700020010004106000,473652891619834275825791463152468739987213546346579128561947382798325614234186957
001006704200500009000210030000190803010032906095760100500000060074903000028004005,951386724283547619746219538462195873817432956395768142539821467674953281128674395
000504030306901070041030006578000304102009000060800002004006521800207900000105007,287564139356921478941738256578612394132479685469853712794386521815247963623195847
000008703059040000000061049095000208240100936000082007000007600367050001924800000,412598763659743182873261549795634218248175936136982457581327694367459821924816375
090060530405089007107400028000105703702030000000006000003007105804002000000310490,298761534435289617167453928689125743752934861341876259923647185814592376576318492
500012703001000900840050060200680045005000007000290800000030600972500030403900071,596412783321876954847359162219687345685143297734295816158734629972561438463928571
001058900690300054080700100000090735700060008004203000200035407000406010508000060,421658973697312854385749126162894735739561248854273691216935487973486512548127369
006290570008700000400005091000340025790008040000001006032057019080060000570100204,316294578958716432427835691861349725795628143243571986632457819184962357579183264
507010630080320700400906000009001074050890206003600080900004803021000000600700590,597418632186325749432976158869251374754893216213647985975164823321589467648732591
500100009786000204019008630804910000060050070351800006000790051030005040200300007,523164789786539214419278635874916523962453178351827496648792351137685942295341867
500900430004000207800020061050706000016034900003010080090300604602500070035070012,521967438364158297879423561258796143716834925943215786197382654682541379435679812
100060083089000207360050000002004000910080026740130800035800010000301605000920040,124769583589413267367258194852694731913587426746132859435876912298341675671925348
030050702690300050000481000000867004004200090820900105506790010900040070013000640,431659782698372451275481936159867324364215897827934165546793218982146573713528649
070000800006710490400093020000200006601350700030970042052608003807000010940000500,279465831386712495415893627794281356621354789538976142152648973867539214943127568
000030004020186007080040190100008000300050246500900700006005000070000329004302080,751239864429186537683547192167428953398751246542963718236895471875614329914372685
700300402009001050030050600540039780000715200060200900001003806870040000950002043,715368492689421357234957618542639781398715264167284935421593876873146529956872143
700000614045380090026000008870590030000004500509630070000900805308400700000021060,783259614145386297926147358874592136632714589519638472261973845398465721457821963
010000030630000107009008002004006809500047600002500710080901005056020080107300040,215679438638452197749138562374216859591847623862593714483961275956724381127385946
050321070800750129000008034900806000000040907026090450004002001310000040590000603,459321876863754129271968534945876312138245967726193458684532791317689245592417683
010005040420000905083960700000006203000807560094020000007302089300040612900080000,719235846426178935583964721875416293231897564694523178167352489358749612942681357
006300501001700830250000090402019600060003000000086123370008019000000480805020007,786392541941765832253841796432519678168273954597486123374658219629137485815924367
083540010000019500600023407050780060004200001079000205700000080000006904201430006,983547612427619538615823497152784369364295871879361245746952183538176924291438756
400000030100270009060004580087096000200037600090500801010403050704060300650000020,478659132135278469962314587587196243241837695396542871819423756724965318653781924
700003480098042000001500070900800037002000100060021504000200605053600810400009000,725913486698742351341586972914865237532497168867321594179238645253674819486159723
003200010704506009060034007590047203100090780000800500020400600400080030070069000,953278416784516329261934857598147263132695784647823591329451678416782935875369142
069280000000560273000010000400030800796000050508700021002008790005090408003004010,369287145814569273257413689421935867796821354538746921142358796675192438983674512
708025140003080000650109700000000506047300000109008020930046000000050091005007608,798625143213784965654139782382491576547362819169578324931846257876253491425917638
073500010080192053009030000700601200000058690460000007000080570530006802012000060,273564918684192753159837426798641235321758694465329187946283571537916842812475369
050600001300120079700305480043008700805003090190060004000040600009000258078001000,954687321386124579721395486243918765865473192197562834532849617419736258678251943
040900000006001200500008370900600000034025080072003600400760001003800090798302004,247936158386571249519248376951687423634125987872493615425769831163854792798312564
700420500059006040000509000935010600200900107008000030040300910010200084007008362,786421593359876241421539876935714628264983157178652439842367915613295784597148362
008100920060408300059700040790003001046280000805000030070005008000010264920004750,438156927267498315159732846792543681346281579815679432674325198583917264921864753
200000004009200060078013500010070058000965030034800000002009040480500026700002103,253796814149258367678413592916374258827965431534821679362189745481537926795642183
003087590690420170400000203000008600009105800000090030230070401010060900078504000,123687594695423178487951263352748619769135842841296735236879451514362987978514326
200106750810520003030009010529067800470901000000080000750000004103005069006208030,294136758817524693635879412529367841478951326361482975752693184183745269946218537
010206000080000050920037000006500300003902087052380904000008079060090410400600002,314256798687149253925837146896574321143962587752381964531428679268793415479615832
040650010090028000806094200007402903009000680580007000370009501200530700001800040,742653819195728436836194275617482953429315687583967124378249561264531798951876342
800020470703908160006035000000064020009000501001300080158002730000576004000000902,895621473723948165416735298587164329369287541241359687158492736932576814674813952
504003000090008206801560004470100500950020480308900000000045820007000690000702103,564273918793418256821569374472186539956327481318954762139645827247831695685792143
000600093438000001200000850701308205600200070000450069000094000305720000042001780,517682493438975621269143857791368245654219378823457169176894532385726914942531786
