009060520080302700010040009050001063700000048003200100407006800002054030860700001,379168524584392716216547389958471263721635948643289175437916852192854637865723491
040051000900000506080070023010402000009705060003089004071000000092640058600018307,246351789937824516185976423718462935429735861563189274871593642392647158654218397
760040003083050709090008200601070000008000051400803020000061090200594000005300402,762149583183652749594738216621975834378426951459813627847261395236594178915387462
003000005700086029060004017018030000040012730000900600400591080830400096205000004,183279465754186329962354817618735942549612738327948651476591283831427596295863174
600891740300050010000200609020900004001007280005006000009060001048730020070402038,652891743397654812814273659723985164961347285485126397239568471148739526576412938
160004080080002409300070000819050076250000040000200508070100362000390000540800010,162934785785612439394578621819453276256789143437261598978145362621397854543826917
700935020963008000080000001100400260039020510000070098300000079012500004800340600,741935826963218745285764931178459263439826517526173498354682179612597384897341652
040000092000075003631080045010040000708903600005008900386710020209506001000000070,547361892892475163631289745913647258728953614465128937386714529279536481154892376
047190600010053002020008300000800409004030570502910000003020106700309008050000004,347192685618753942925468317136875429894236571572914863483527196761349258259681734
010900000608400073090260105000832090004090000270610000900780031006000487300005200,415973826628451973793268145561832794834597612279614358942786531156329487387145269
050024001001000390074300056048000700105490080060013002800600005000730420032000060,653924871281576394974381256348265719125497683769813542897642135516739428432158967
030207008401500907060030004000908002170000000804010060009803500580001026600000400,935247618421586937768139254356978142172654893894312765249863571587491326613725489
480009000001806034006105200850002401009000070070030060205601700700200658300000109,487329516521876934936145287853762491649518372172934865295681743714293658368457129
000008000400750068005030207010300040020601705549080100608100500300079020002004309,267918453431752968985436217716395842823641795549287136698123574354879621172564389
038900402000050000400007068094006007601002050080710030067203100100608043000005920,538961472726854391419327568394586217671432859285719634967243185152698743843175926
201005900906030847470000205030809000000500780004620001060000000100002590008794030,281475963956231847473986215735819624612543789894627351369158472147362598528794136
400000080000501036608040102080096300002400608940070500190723000003109070250000000,415632789729581436638947152581296347372415698946378521194723865863159274257864913
407102908690400300008600070010004005000060230230907010004000080080050609500009721,457132968691478352328695174716324895849561237235987416974216583182753649563849721
003000006000170085000026710002800400940031507350902000560000001280710043000408000,173584296426179385895326714612857439948631527357942168564293871289715643731468952
060309000123080000405060070070200300200048900980710056040025061058900400000030080,867359124123487695495162873571296348236548917984713256349825761658971432712634589
208004007000680300000705490100002075042500000800090010500003009027018050630400002,298134567754689321316725498163842975942571836875396214581263749427918653639457182
010043080805760000009005007963080410500002930028000600006008050000279004007100293,712943586845761329639825147963587412574612938128394675296438751351279864487156293
000500008800409560305070092000016380080907020621034000046000000002001007570090001,294563718817429563365178492759216384483957126621834975146785239932641857578392641
008407109000060000050009003007504300061003094309000002106200908083070051400800060,638457129914362785752189643827594316561723894349618572176245938283976451495831267
000800030100006094040927080200015600050070002671003000718004005003000060506090703,962841537187536294345927186239415678854679312671283459718364925493752861526198743
359080000200004000040050136900865041002090008000041700000610370096007050803020000,359186427261374985748952136937865241412793568685241793524618379196437852873529614
300000010057000024000456080800000600070002159000093042004670000906010035012509000,348927516657381924291456387829145673473862159165793842534678291986214735712539468
020090046730600000005080903003500290008017000060800510907060100000052070016003080,821395746739624851645781923173546298598217364462839517957468132384152679216973485
300200070010605800000087140620800000003001500050090304240500006006009007795302080,389214675417635892562987143624853719973421568158796324241578936836149257795362481
080450007060001040003200980906000000010906732004508000570000019301029860000300204,189453627267891543453267981936172458815946732724538196572684319341729865698315274
700900010005000034301400905652740000010230000000091008920807500003000060504060120,748953612295186734361472985652748391819235476437691258926817543173524869584369127
009070064800390000501008030106080200000060710280903500040200009900640050030000071,329175864874396125561428937156784293493562718287913546745231689918647352632859471
506000004801050039300800700009630070060270018010504200020090503104020067000400080,576913824841752639392846751289631475465279318713584296628197543154328967937465182
006750900405020007000063014289030600000501700050090083013800000600009140000200039,136754928495128367872963514289437651364581792751692483913845276628379145547216839
040080036020000100005761080900205078100009040038040902057000460609000703000500009,741982536826453197395761284964215378172839645538647912257398461689124753413576829
060300759000400200108520040400050037300607905010008020020760003009014000700000168,264381759953476281178529346496152837382647915517938624821765493639814572745293168
000650203001007900006302084000030610208004095100068702703006000450000007080409030,894651273321847956576392184947235618268714395135968742713586429459123867682479531
403060010005200870089017300700090408000800030600354200326080900001000025090401000,473968512165243879289517364732196458954872136618354297326785941841639725597421683
000603000800000401003900087100059000002800050470201009910540320500390706608000005,741683592869725431253914687186459273392867154475231869917546328524398716638172945
109000000002038050060200143090060300048020067250400001007309000000080605503610080,139546278472138956865297143791865324348921567256473891687359412914782635523614789
100007950968031200000020000070800000090004503300050019000005640730640800800709020,123467958968531274457928136571893462692174583384256719219385647735642891846719325
020700600730006105008040002000031200080407000000890067501280040096000050040010709,129758634734926185658143972467531298982467513315892467571289346296374851843615729
060800091005004860040900200001035042706080500000102080508700009009210300430006070,263857491195324867847961235981635742726489513354172986518743629679218354432596178
100090670806005304002700001300050400005000028014670003400029006027001800090300005,153894672876215394942736581389152467765943128214678953438529716527461839691387245
800000906070008040005102300406000850098400003010306020600010005041025007700090180,824537916173968542965142378436279851298451763517386429689714235341825697752693184
050090817070036090024000050000010600480052009001300075005409760263700000000000008,356294817178536492924871356532917684487652139691348275815429763263785941749163528
200090000500607091040803670000000805008062100017400020002540009060008200400076050,276194583583627491149853672624719835958362147317485926832541769765938214491276358
320050009610830500008007000002080903049002860030506000090008034000010028106040700,327651489614839572958427316762184953549372861831596247295768134473915628186243795
001007000004030906090068310500001002670000080900520004400073108030850060000902470,361297845784135926295468317543781692672349581918526734429673158137854269856912473
000800000400002069005030801903500700007049002820010053002904007600700020081063400,176895234438172569295436871913528746567349182824617953352984617649751328781263495
045800009000570086200030007003040060600000205004107090900000010308450000017020530,745816329139572486286934157893245761671398245524167893952783614368451972417629538
100009000005000201009380670972004003040908026306005100000702084054010000000050307,167529438835647291429381675972164853541938726386275149613792584754813962298456317
804000000030060710000905023400107602008300150907200400081009305005400006602000080,824731569539862714176945823453187692268394157917256438781629345395418276642573981
000000008605390040003521000030106704080000021500070309017063200900700060020450010,192647538675398142843521976239186754784935621561274389417863295958712463326459817
050700061008320000900100340000009000680001930000050814890400003021506070040070002,453798261168324795972165348714839526685241937239657814897412653321586479546973182
000010060470200003080503200900040010530700800002906000140002037005087624006050009,253419768471268953689573241967845312534721896812936475148692537395187624726354189
008020000000610807206030051043000576601900200800407030030800040500001902009270000,718524693354619827296738451943182576671953284825467139132896745587341962469275318
270190800000030060000275904053002000090000501006004730002081009730000600680000145,274196853915438267368275914853712496497863521126954738542681379731549682689327145
300706000014090200000050089700001002056402000009000160030600800041309620005018740,398726514514893276672154389783961452156482937429537168237645891841379625965218743
040580960902030080050000704098040630007100002024000810000710040006003500300650008,741582963962437185853961724198245637637198452524376819285719346476823591319654278
700004320591300700000016800300450009140020080809003006605001000000807450072900010,768594321591382764234716895326458179147629583859173246685241937913867452472935618
053006028709013000040500070960000200005107400200009185427005000000380090300040600,153476928789213546642598371961854237835127469274639185427965813516382794398741652
910607300003000802005042000000104000860090504200050039000008200304260070008500016,912687345473915862685342791539124687861793524247856139196478253354261978728539416
048006703700905020010000409204001005090000170005700608600597004320800010000130080,948216753763945821512378469274681395896453172135729648681597234329864517457132986
700400100406050820020010709050070000804006310032000907105900208000304000098005006,789432165416759823523618749951273684874596312632841957145967238267384591398125476
020075146710600005000020080240800600039000700000513400063900201005002000800046009,928375146714689325356421987241897653539264718687513492463958271195732864872146539
008053000000780090106200053730006904002030000094000602000400780000098061501060200,948653127253781496176249853735826914612934578894175632369412785427598361581367249
830000007547080600002004010650300009000065040108020030070040003000052100406809020,831296457547183692962574318654318279723965841198427536275641983389752164416839725
043000609050008310020006405500063204102700000600890000000214070069050008007000030,843571629956428317721936485578163294192745863634892751385214976269357148417689532
005020800004000316780090500020007004370506001100380900000879060900000750830100020,615423897294758316783691542528917634379546281146382975452879163961234758837165429
000000008004809350706015000500920070070400960000030105003067080900003540128000600,395642718214879356786315492531926874872451963649738125453167289967283541128594637
502106070900800000800340956006070003000000090150000247008500024093010800020060010,532196478964857132871342956246971583387425691159683247618539724793214865425768319
406000090001370500000004027090021056060008201700560040103050700200617000050400809,476285193921376584538194627894721356365948271712563948143859762289617435657432819
093000004050108029006094050700260000000000183014500007300050706809400000020079008,193625874457138629286794351738261945562947183914583267341852796879416532625379418
001098305020050004800207000003500007050300910900062003600003401000640800570980002,761498325329156784845237196483519267256374918917862543698723451132645879574981632
080004300090006105504701920073020006145000700000470080000000050002908003030650210,281594367397286145564731928873125496145869732629473581716342859452918673938657214
032050000980670401004900003508000900760002000000490760000867200020001070050030180,632154897985673421174928653548716932769382514213495768391867245826541379457239186
800247000005060800000000291740350010013006058000900060407080500200073006008500304,891247635325169847674835291746358912913726458582914763437681529259473186168592374
000537000080190076009020405502970800370002000001403500908010062000000040100700908,416537289285194376739628415562971834374852691891463527948315762657289143123746958
800053012030901007700080094000000586070230000410006700060820030009065000205070069,894753612632941857751682394923417586576238941418596723167829435349165278285374169
000100063003408720507000000070601000008900200900020836090230005806507402040090070,489172563163458729527369148372681954658943217914725836791234685836517492245896371
075100028000005001043980005321460070009721080000300004067830050200000400000090036,675143928892675341143982765321468579459721683786359214967834152238516497514297836
004902500030080009060470180003100850107040036206007090070005020000010000095030004,814962573732581649569473182943126857157849236286357491471695328328714965695238714
000041050600030800082060009005006010006527340800900200014000700903002081700053006,379841652651239874482765139245386917196527348837914265514698723963472581728153496
240300006009000000005690001500020703073008600006400005700059004891004000600070012,247381596169745238385692471518926743473518629926437185732159864891264357654873912
040080350301000060009705002520900073107640080030020900070800501900000034004009800,742186359351492768869735142526918473197643285438527916273864591985271634614359827
084270010006000700390860050900020070800105046401036000700000380050004900030010520,584273619216549738397861452965428173873195246421736895749652381152384967638917524
040190360000000080600002105000820900090347010050061007830000050064080200902054700,745198362321576489689432175176825943298347516453961827837219654564783291912654738
650700000903004075004098010402600008530010090000302057007036040016040000000900803,651723984983164275724598316472659138538417692169382457897236541316845729245971863
100406030900100000032078004700050460509704082000810000850003079201500600004000200,185426937947135826632978514728359461519764382463812795856243179291587643374691258
009040000654100027382007000700000290005400080030705016400096870001000052060080300,179642538654138927382957164746813295215469783938725416423596871891374652567281349
010008650740100009053000200901035400000206008070410500005720001400000380060900040,219348657746152839853697214921835476534276198678419523385724961497561382162983745
140005020000700003009082501900301600830020050706800042051090068008004900000070000,147935826582716493369482571925341687834627159716859342451293768278164935693578214
007200000608045001000086504060507002010000609090000430240008053500100007003002948,457219386628345791931786524364597812815423679792861435246978153589134267173652948
050900070170006000986400200001005007200009400007830015500063000003507194008200006,354928671172356849986471253891645327235719468467832915549163782623587194718294536
070006405809071000052930870200350006900610000080000300300042180090000700701090630,173286495849571263652934871217358946934617528586429317365742189498163752721895634
800000060000023004072950008005207000380400150016008000050000809000604031194300700,839741265561823974472956318945217683387469152216538497653172849728694531194385726
000030940590000007648200000015000203230107860704800009072510000000004080000092305,127635948593481627648279531815946273239157864764823159372518496951364782486792315
000000062902405100400710003001086700076009320340200050097100800680000004020030005,715893462932465187468712593251386749876549321349271658597124836683957214124638975
900100430100069000063000500030501204016840070270000850000010092000420607008703000,982157436145369728763284519839571264516842973274936851457618392391425687628793145
