060708041007009003500060020010040302236001950004600000805097000600080100002350070,369728541427519683581463729718945362236871954954632817845197236673284195192356478
060182007200090030010005000530000400100000380008400096080740200070039005940806010,463182957257694138819375624536928471194567382728413596385741269671239845942856713
960020100000043000702080560800904600095070030001306070300501740057890000086000002,964725183518643297732189564873914625695278431241356879329561748457892316186437952
010047009800090530009306200007039600020001083005600901400200050070000042600005100,213547869864192537759386214147839625926751483385624971498213756571968342632475198
000056010070000083805130200900710030004000609702003040009082750060090000100005064,293856417671249583845137296956714832314528679782963145439682751567491328128375964
030720100705000086204081300008005003640900001000247069501000000007604950080300700,839726145715493286264581397978165423642938571153247869591872634327614958486359712
056084090020005800301000020007841600064003010000090082540138006900000053010007000,756284391429315867381679524297841635864523719135796482542138976978462153613957248
002008000941006070007490530300501740200000008756000200000100003085204090000967400,532718964941356872867492531398521746214679358756843219479185623685234197123967485
006020080370004000400001506001590000600200740852060030005000067000905800107300002,516729384378654291429831576741593628693218745852467139935182467264975813187346952
900000820630010054004200307028304000750080060300900100007800640015000000800407290,971543826632718954584296317128364579759182463346975182297831645415629738863457291
000000905700130000082706004020054300806010000475300800900080200041000509300409016,613248975794135628582796134129854367836917452475362891967581243241673589358429716
020050480500602090301008005093001048006200007704005600000000700079400002082010063,927153486548672391361948275293761548856294137714385629635829714179436852482517963
000070400078590360103800090047106000300050000209748050000900206060420070905000830,692371485478592361153864792547136928386259147219748653734985216861423579925617834
007430020000109308960000050098002700050700400021380000500800061000003540004026009,817435926245169378963278154498652713356791482721384695539847261682913547174526839
906000803000000157004307090020060970051004000080025010390056000200108006000200480,976512843832649157514387692423861975751934268689725314398456721247198536165273489
420019087009058002100407300703090500000002060040701000090006030201085000604000018,425319687379658142186427359763894521918532764542761893897146235231985476654273918
090052600030100020004600008000081004519070000000200700320006090008490500006007831,891752643637148925254639178762981354519374286483265719325816497178493562946527831
871040000000060004000200570090600200020080039003700140008500401700032050405018720,871345962952867314346291578194653287527184639683729145238576491719432856465918723
000008007020009064480020030913050708005040120060007000690015000002076093500200080,359468217721539864486721935913652748875943126264187359698315472142876593537294681
100730600008002090050000008000870200940603081705009360420180000806000540039400007,194738625678542193253961478361874259942653781785219364427185936816397542539426817
000180305590600170008020040673500002040031060000007009430870000100004000050300290,764189325592643178318725946673598412945231867281467539439872651126954783857316294
017400605050000030260008014600900000001073090030082500080000900502740003740006002,317429685458167239269358714675914328821573496934682571186235947592741863743896152
700193000500000300000520018407000080601802004030006102006030750890040600205900003,784193265512684397369527418427319586651872934938456172146238759893745621275961843
003904050080530400000070010539106700720003080006009000010000024057200600290010003,173964258982531467465872319539186742721453986846729135618397524357248691294615873
708005000003000081000301064000000302207904010040206900305100690980600000106008070,718465239463729581592381764659817342237954816841236957375142698984673125126598473
502040300000001806018009050076053004840070021905000600390107260000000478200005000,562748319739521846418639752176253984843976521925814637394187265651392478287465193
084700000500000967006030010930604850000000700017059042300010024809260003061300000,184796235523481967796532418932674851458123796617859342375918624849265173261347589
031075000070910006502080040007060408040290003305800009060004830200000097000650120,631475982478912356592386741927563418846291573315847269169724835254138697783659124
890000405000001090600903200006007530150060002300400801071000006004020008200059370,893672415742581693615943287486217539159368742327495861571834926934726158268159374
370600091640005083080002000908000604500000070000143009000409020021708036700030500,375684291642915783189372465938527614514896372267143859853469127421758936796231548
009407065040059300300180200700005000403800010002070650080690040190023070006000001,829437165641259387375186294768915432453862719912374658287691543194523876536748921
500020900090000631076008040003819700957400800000003206001300020040076005380004000,534621978892547631176938542623819754957462813418753296761385429249176385385294167
650400000070069508000023017800000030293804001000012095700001950000700003086000402,651478329372169548948523617815697234293854761467312895734281956529746183186935472
130007260600910304004006008960035800000209000010080075380402600050000401409000003,138547269672918354594326718967135842845279136213684975381452697756893421429761583
002700530040019000806004000013050062060000409500008007200300170000072080905060003,192786534347519628856234791413957862768123459529648317284395176631472985975861243
206410053000000000304780001000300908128004067007002000060007540093000076070095802,286419753719523684354786291645371928128954367937862415862137549593248176471695832
672001030090024801000000506030007450000000200051239000006800047907300000020040100,672581934395624871184973526238167459769458213451239768516892347947315682823746195
400700605020003000071500040096010480104007050000082900809000002500600790003000861,438791625625843179971526348296315487184967253357482916869174532512638794743259861
000023007100407298008590400052000000384002019600050000869010040000004700041036080,496823157135467298278591436952148673384672519617359824869715342523984761741236985
080164000700908024090200050000080071605407900003000502001000030020506410000730209,582164397736958124194273856249385671615427983873619542961842735327596418458731269
200000100070085060300791000006004809030100240001906070800000632040030050590602700,258463197179285463364791528726354819935178246481926375817549632642837951593612784
021009436003406500050720000047000902500001000006948000300050270800600004000002109,721589436983416527654723891147365982598271643236948715369154278812697354475832169
803054106000132900000080050092600010000000000106020407001407068709005200600008003,823954176567132984914786352492673815378541629156829437231497568789365241645218793
000361070920050000301000800050000903800090420706032010270540006008120005005006740,584361279927854631361279854452718963813695427796432518279543186648127395135986742
270030100900650087400900030019000050003090746040068000065400279000000003080710060,276834195931652487458971632619247358823195746547368921165483279794526813382719564
002080000870006403003000057100258600405100000000074130010000270004001398620009004,542387961871596423963412857137258649495163782286974135319845276754621398628739514
009601000203500090006800427130900745600080010050400036000009008400000062827030000,749621583283574691516893427138962745674385219952417836365249178491758362827136954
000071050450009637006004008009300000602095081735040200180200406000007500093000000,328671954451829637976534128819362745642795381735148269187253496264987513593416872
009040803600509020801300504500026040007000100463091005302900007090600000000075008,259147863634589721871362594518726349927453186463891275382914657795638412146275938
050007806087050004200100000700030451004062003908000000005300012360200700402005090,159427836687953124243186579726839451514762983938541267895374612361298745472615398
102040006740100030060089040020305017000400098005070000030250080050007104097006002,182543976749162835563789241824395617376421598915678423631254789258937164497816352
390700821000400000065003009030020010010348005700005006050070490809000100070260030,394756821187492653265183749538627914916348275742915386653871492829534167471269538
050001000070000198600284730510800020706005003800100900023070601400000000000039580,358791264274356198691284735519863427746925813832147956923578641485612379167439582
006200040800430076030070090015004000603080004007910500000090003040105720092700860,176259348859431276234678195915324687623587914487916532761892453348165729592743861
689045700100070000050028901000261000003000500276004080000700005920600004508010203,689145732132976458754328961895261347413897526276534189341782695927653814568419273
500040030040706020007050089319400200200010500060008007030061000080500071004380090,591842736843796125627153489319475268278619543465238917732961854986524371154387692
000704001600100800008000037030000240902018600047060015781690050003001029005300000,329784561674135892518926437136579248952418673847263915781692354463851729295347186
000934601007001009300670480000800000090203850206090107504020000003700000100000246,852934671647581329319672485435817962791263854286495137564128793923746518178359246
900030002052004001000607040006053000804000030010090807000000010300205069720108400,947531682652984371138627945276853194894712536513496827465379218381245769729168453
019780000260040509000600040680390010004506030703000206840900300002000870500030100,419785623267143589358629741685392417124576938793814256841957362932461875576238194
001000000600700402905380000370006900000020687009504000500030170000005063210040809,721469538638751492945382716372816945154923687869574321596238174487195263213647859
900068030000230156000715800004090600070000023500806400000104002018070009643050700,951468237487239156362715894124397685876541923539826471795184362218673549643952718
000408900051007200908020603020900300470200010600075004002103080000850706006009030,267438951351697248948521673825914367473286519619375824792163485134852796586749132
170030000005024800002009014000010300400050620369400007056008200008500030910067480,174835962695124873832679514527916348481753629369482157756348291248591736913267485
860090305001034800000700092300006054058000700470203600703080210020900008900001406,867192345291534867534768192312876954658419723479253681743685219126947538985321476
400000070050016003009250008006500049000070102590804300070063900000002501080900026,412398675857416293639257418726531849348679152591824367275163984964782531183945726
580301420400000001072045030050200007700036800630590000000008152090012640000000009,589371426463829571172645938951284367724136895638597214347968152895712643216453789
007800940090760080008030506070001005942070300600900000080025060030410000150007802,367852941591764283428139576873241695942576318615983427789325164236418759154697832
010003869000400000567000010400071603002080590079320100000200050700560002905000480,214753869893416275567892314458971623132684597679325148386249751741568932925137486
350009800084006003601000027072035900048610000500700204030940072006050080000003001,357129846284576193691384527172435968948612735563798214835941672416257389729863451
160005403050100829048000500000030090701040208023010060506009000900820007800603001,169285473357164829248397516685732194791546238423918765516479382934821657872653941
400089730079000080801002600007105204060000850340600000000004009000203170298001006,426589731579316482831472695987135264162947853345628917713864529654293178298751346
950048021080000470300200005038107009400000260000050000500902706870004390001060000,957348621182695473364271985638127549415839267729456138543982716876514392291763854
000006200700840001903500706030000048051002609060000520005904030080010907002780000,518376294726849351943521786239657148851432679467198523175964832384215967692783415
074650300000010580000329004200870001096005000317000400000496000681007002030000705,174658329923714586568329174245873691896145237317962458752496813681537942439281765
980210005000080300500073048267850000009400180100006000000000653705000200024930010,983214765476589321512673948267851439359427186148396572891742653735168294624935817
008270300006000080230040061800400000020009510970015004007800002065030400000951003,518276349746193285239548761851427936624389517973615824397864152165732498482951673
008063920095080407007400000000074012620009803000300000500002300100038750809100040,418763925395281467267495138953874612624519873781326594576942381142638759839157246
607900018030000065000082400029036001400001000706004002500308094900705800000120070,647953218238417965195682437829536741453271689716894352572368194961745823384129576
005017030100200094870000002060035008503900060920800070740020003002006100000009057,295417836136258794874693512467135928583972461921864375749521683352786149618349257
020100085003000104040956000900063001070002600060040730000020000800097356700301490,627134985593278164148956273984763521375812649261549738439625817812497356756381492
534000010009640572000080030010309005003500084700060000000900600802001900900720348,534297816189643572276185439418379265693512784725864193347958621862431957951726348
600801009573600040000005320008360100014027630000000070301009007027040005090080000,642831759573692841189475326758364192914527638236918574361259487827143965495786213
000080005700600910840210630060570042030006000002094801600058200107030500203009000,316987425725643918849215637968571342431826759572394861694158273187432596253769184
102070008940060030050408002809000001400007000360051809000006210001020057070900603,132579468948162735756438192829643571415897326367251849593786214681324957274915683
000042000500090806964008107700400900000003250023000068059700010007050403008360009,871642395532197846964538127785426931196873254423915768359784612617259483248361579
400050708090010004000048013008704060000002000050031092605800070237009405001000230,413956728892317654576248913328794561169582347754631892645823179237169485981475236
940053200000000008651900400069800005070100640000307000280400017300006020015078006,948753261732641958651982473169824735873195642524367189286439517397516824415278396
500076000860004300073000000940810600030052080000900102420005810001030057008740906,514376298869524371273189564942817635136452789785963142427695813691238457358741926
070015600680000300503400007210940003060007480000602509004000075027090000900803001,472315698681729354593486127215948763369157482748632519834261975127594836956873241
720003400003400810089007305910004000000902000006530070200106050035000904670000082,721853496563429817489617325912764538357982641846531279298146753135278964674395182
900207010540630008008000006070400650850020070300001002009140080000902300007003504,963287415541639728728514936172498653854326179396751842639145287485972361217863594
710809020300070005000000401108007064060200950070096300980300000045001006000042580,714859623326174895859623471198537264463218957572496318987365142245981736631742589
500800960097006300030005042060107090000400028008002100009300004680510070071020503,524831967897246351136795842362187495915463728748952136259378614683514279471629583
002058006000003400000900351037004095090300280408006007806040000900100702051607000,312458976569713428784962351137824695695371284428596137876249513943185762251637849
048600032700000506052091000360050090004000105000200074080403700009760020001000080,148675932793842516652391847367154298824937165915286374286413759539768421471529683
000004031075603200490020080046010905510000070000002800200059703304708002069000000,628974531175683249493125687846317925512896374937542816281459763354768192769231458
090600253200480600007003000000019700001000068905300024300008497072050000140006000,498671253213485679567293841624819735731542968985367124356128497872954316149736582
800000420009070060760304009570020006000058100301009000640090750000000902208510003,835961427419275368762384519574123896926758134381649275643892751157436982298517643
006700090030041050901008300008020605245080000000400007793056080004290001610000000,456732198837941256921568374178329645245687913369415827793156482584293761612874539
