400037010006240807050800062309700050020006040100908006007109200008500000601000073,482637915916245837753891462369724158825316749174958326537169284248573691691482573
005017023000000100069000007003800040500030268010200700307080010000005906080142000,845917623732568194169423857273896541594731268618254739357689412421375986986142375
000079042360000090700400350000000905801024730537080100900052073010800000005690200,158379642364215897729468351642731985891524736537986124986152473213847569475693218
300609800010005004020018035970082000000401007003560400032070610008000200600900070,357649821819235764426718935974382156265491387183567492532874619798156243641923578
006130020057060400320004908080207004100800796900300050008509300540001000000020680,496138527857962413321754968685297134132845796974316852268579341543681279719423685
026900003800670050001403700930201060000009401000050080302008014107500200009006005,726915843843672159591483726938241567275869431614357982352798614167534298489126375
350008006010000708020097300900082000040006107601043200000000009500601030008520010,357218946419365728826497351975182463243956187681743295162834579594671832738529614
000003040005280609012796005049032100000400003007050860020070091093600200784001000,968513742375284619412796385649832157851467923237159864526378491193645278784921536
000042007607005004000701839200430016100000978509000300830050001002017000004900260,391842657687395124425761839278439516143526978569178342836254791952617483714983265
005903060200085040010420008530009600009000030074600150000017420300200015060094007,485973261296185743713426598531849672629751834874632159958317426347268915162594387
901802056000007010200010408070030095306005007400006180003008020105090004740200300,931842756584367912267519438872134695316985247459726183693478521125693874748251369
070091600000005080053800020005027800760300004090480000630500940002000001000640738,874291653126735489953864127345127896768359214291486375637518942482973561519642738
070046000010809030090307820940030000000592100508000600000700240084020001230480750,873246915612859437495317826941638572367592184528174693159763248784925361236481759
869007020504100700130060000000005090005002184406390000000801260780940305001700009,869537421524189736137264958278415693395672184416398572943851267782946315651723849
005300070000062309024008150060000830908740600070001090010809004806000000730020001,695314278187562349324978156461295837958743612273681495512839764846157923739426581
000809007729000010065000204603000020100005470000140008010093006008501900200704035,431829657729456813865317294643978521182635479957142368514293786378561942296784135
480002600000730004306108070052000080730080900610000253000360005000004109209570040,487952631125736894396148572952613487734285916618497253841369725573824169269571348
004021008008574030009000072030000607005306209100050080000082140060409005207010000,374921568628574931519863472432198657785346219196257384953782146861439725247615893
408061070000400030100258000029030600006007254010005083000106000050090048830000706,498361572265479831173258469529834617386917254714625983947186325652793148831542796
005000900000670000390050807080090456004780200160200000410000300900107020023060508,675813942842679135391452867287391456534786291169245783416528379958137624723964518
700050040090000005000194000008015609010003720400706058305271800020600000680000470,763852941194367285852194367278415639516983724439726158345271896927648513681539472
500460027300701059100080630908342006700609410005000002000817000090000000603500080,589463127346721859127985634918342576732659418465178392254817963891236745673594281
900402005004009020070080030001000009680031050543200780007000008800610000012004097,938462175154379826276185934721548369689731452543296781467923518895617243312854697
026870045009310200070004008040900700000206010300040650090080007005402900801500003,126879345489315276573624198648951732957236814312748659294183567735462981861597423
020090000085100400060752090000009301002007580500304067701060000003800050698240003,127498635985136472364752198876529341432617589519384267751963824243871956698245713
760801050800079040054200090000325600015000200003060009000003807407008031080090000,769841352832579146154236798978325614615984273243167589596413827427658931381792465
701004809003608005000500200300000021090187040000029006000002097849010300260053000,751234869423698175986571234378465921692187543514329786135842697849716352267953418
000070290590060800302801000810720060030005089049000050607450000000200437080010500,168574293594362871372891645815729364236145789749638152627453918951286437483917526
003900500410200900280043006320180000100790042046000708700005800000601090060020030,673918524415267983289543176327184659158796342946352718792435861834671295561829437
000008760000910800024005000073000058105002490090060300006704013500180070040309200,319248765657913842824675139273491658165832497498567321986724513532186974741359286
000306901050700800308005240209018004804900570630000000090841006107000000000200309,742386951951724863368195247279518634814963572635472198593841726127639485486257319
010300728000040050065029130000705090200084600091000400423001809008000000000060273,914356728382147956765829134846715392237984615591632487423571869678293541159468273
082009060400750030060000900070030010510902400040008507000485201000600008059010700,782349165491756832365821974278534619516972483943168527637485291124697358859213746
059000007002600483086004000060501230000703054000098700000030620725010009040905000,459382167172659483386174592967541238218763954534298716891437625725816349643925871
300000800002107560050080190020060010040592000679003000810609340095070002000804000,361945827982137564754286193523768419148592736679413258817629345495371682236854971
001040096709820400300700100680004070007038509500000200054600010100957020000000803,821345796769821435345769182682594371417238569593176248254683917138957624976412853
070000462201060700340800000009500320803004900700019006004298600000050090050607103,578931462291465738346872519419586327863724951725319846134298675687153294952647183
540800362000409080001060000000640108700020000300700290208590007005107800060004039,549871362623459781871362945952643178714928653386715294238596417495137826167284539
710030000940100605000408100300012004000050380600070900870600020003005406105200007,716539248948127635532468179359812764427956381681374952874691523293785416165243897
000309002703800500520006900010207600300610000007040080070900300080001060605002140,146359872793824516528176934814297653352618497967543281471965328289431765635782149
200038060000410205048600001500000070903700800072049350000300504016082000300170600,251938467639417285748625931584263179963751842172849356827396514416582793395174628
800024050000560002030008409020100000008036070745900010310000004007000890004251006,869324157471569382532718469623175948198436275745982613316897524257643891984251736
004009008060000003203060700510030600000800029729400000600080500900045317070201400,154379268867124953293568741518932674436857129729416835641783592982645317375291486
000040008000160590409380000286090100000000070017500402001870020350206900070003040,165749238738162594429385716286497153543621879917538462691874325354216987872953641
910020030007406008800009500043107600100000070005084009000030954020708100036050020,914825736357416298862379541243197685198563472675284319781632954529748163436951827
860307010321000000705080200403709050000200860006050900907810005010000604000542001,864327519321695478795481236483769152159234867276158943947816325512973684638542791
850000002700520439003001000000476000090030027001080605035800000400009100127004058,859643712716528439243791586582476391694135827371982645935817264468259173127364958
007931008010400203000006400670049020920087100084050000050300007409010080000002506,247931658516478293398526471673149825925687134184253769852364917469715382731892546
104793000800510000000008006900000830300270105620030900005000009403601280700040300,164793528872516493539428716957164832348279165621835974215387649493651287786942351
004080000020004917500601082310090006009060230705003001030400608980500300400700000,174982563628354917593671482312895746849167235765243891237419658981526374456738129
000060190503002800000875400400080710120950030709403000310009002084000067006000900,872364195543192876691875423435286719128957634769413258317649582984521367256738941
002850400035001670000079000004060100020000003807012509040000086106400930700980010,672853491935241678418679352394568127521794863867312549249135786186427935753986214
000007540560010900900600073109738004074002310800000050005060000426509000000083200,213897546567314982948625173159738624674952318832146759385261497426579831791483265
002070083050462000791500004028000040506010700040253010004980027000001930680000000,462179583853462179791538264128796345536814792947253816314985627275641938689327451
903501000270040010006020904000978100500003000001200408014800350005004090700060802,943581726278649513156327984462978135587413269391256478614892357825734691739165842
100358092000700000548069001005000720300500009070100604030090008082407060006010030,167358492293741586548269371615984723324576819879123654731695248982437165456812937
000714000210800050090030607070469200083500000000000006520000403804602090009001005,356714982217896354498235617175469238683527149942183576521978463834652791769341825
000009003600040507005086020009054080000900104002070600007000010493100075058320000,724519863681243597935786421319654782876932154542871639267495318493168275158327946
305002000097400008002000765006058102020034086500070900003690041018000297000000000,365782419197465328842319765436958172729134586581276934253697841618543297974821653
600000024009070103024080009200300008000502000070140650001005300046009010350800047,637951824589274163124683579215367498468592731973148652791425386846739215352816947
100903607024060501030005900709000012350208400068100000800640170000030080070000069,185923647924867531637415928749356812351278496268194753893642175516739284472581369
008200007000060900432009005009006003720050006504037081901570030000100058307080040,698245317175368924432719865819426573723851496564937281981574632246193758357682149
900670002038000001000802049004000108016003050000009030603290700020005860781040000,945671382238954671167832549394567128816423957572189436653298714429715863781346295
504000000083001720100069405200003670790100080000004500600720003021300000800006059,564237918983541726172869435245983671796152384318674592659728143421395867837416259
000817034910024060000000500140030209005602807007090000020351006400000005008006092,652817934913524768874963521146738259395642817287195643729351486461289375538476192
800540032070090000002000601000000063300851070097003400740300900006007508080204010,819546732673192854452738691528479163364851279197623485741385926236917548985264317
014000000063084720000003506000005817089042000007060000602570084800030259900100000,214657938563984721798213546426395817189742365357861492632579184871436259945128673
600057000710400005008690024430005001061004050970160008503010092000200070000083400,624357189719428635358691724432875961861934257975162348543716892186249573297583416
070600000090402057000089020340000009900023106008050200720001890006007305510340000,274615938891432657635789421342176589957823146168954273723561894486297315519348762
020470600560002100937050084100098002709001068000300050008900003005010000406003070,821479635564832197937156284153698742749521368682347951278965413395714826416283579
050007016981004003000032000000000004620580790700901005100029580803060040070000069,352897416981654273467132958519276834624583791738941625146329587893765142275418369
410500900000860002300100045800700120030020094590003086083056070201000600000940000,418532967759864312326179845864795123137628594592413786983256471241387659675941238
502081300037900001900050004000400916003000457005076020800740000210063000070800090,542681379637924581981357264728435916163298457495176823856749132219563748374812695
500000130008035000076040200900070500083060720050908013000007000092050640104006807,549782136218635974376149285921374568483561729657928413865417392792853641134296857
209040003600500002080070600002003509190000700070680010310005407004820050005001980,259146873637598142481372695842713569196254738573689214318965427964827351725431986
005000013700014250060390070900701008048026000000000460020600740501008032000030009,485267913739814256162395874956741328348526197217983465823659741591478632674132589
190405700000810040000002006006200100400390500807040069082000007070603000010089350,198465723263817945745932816956278134421396578837541269382154697579623481614789352
020607000000098003047010080004706508073040002650001070001904050060830204035000006,328657941516498723947213685194726538873549162652381479281964357769835214435172896
800040065000031020427900008004002890000380701005079040039500004200706003050000019,813247965596831427427965138374152896962384751185679342639518274241796583758423619
900254010007000000845006030630900702700082046010000083000790004500008090200610500,963254817127839465845176239638941752759382146412567983381795624576428391294613578
061000080580000620704069003100340900000000017030207508092008400006730005050400200,961523784583174629724869153178345962245986317639217548392658471416732895857491236
060002903010500087900031040800619530001007006200004800502000104007260050009040008,765482913413596287928731645874619532351827496296354871582973164147268359639145728
800000050037940600010000908090056070340007800001000325004065090060104000702800100,829631754537948612416572938298356471345217869671489325184765293963124587752893146
001040873680000000070005109000509040290007000004032605009100700026000031030098520,951246873683971452472385169368519247295467318714832695549123786826754931137698524
070006000902050080084070030000030900760900105008041070030400051150890004007002006,375286419912354687684179532421735968763928145598641273239467851156893724847512396
000800102000040970309706005700560030080001040024089500107602800950000000800007056,475893162268145973319726485791564238583271649624389517137652894956438721842917356
004501096006000070580009021400050007050000038270108000010930000702000069830720040,324571896196482573587369421468253917951647238273198654615934782742815369839726145
000705906400123050080040000927510008508000470000600000000800704219060300074300100,132785946496123857785946213927514638568239471341678592653891724219467385874352169
060072100100500008034000009003001420502003800070800090001340600629080530040000007,865972143197534268234618759983761425512493876476825391751349682629187534348256917
006304900530080006000001000029008107007132000408060305100400270063700004002000059,276354981531289746894671532329548167657132498418967325185496273963725814742813659
000570030190003070500890406089000000430006700051230060060140800200060045007080012,826574139194623578573891426689417253432956781751238964365142897218769345947385612
020307906801050004003402070005900038100008602407000050940720010000065003008190000,524317986871659324693482571265941738139578642487236159946723815712865493358194267
005020709046008100200319000000700650007001004809056000001080040300005906500207030,135624789946578123278319465413792658657831294829456317761983542382145976594267831
000010007092006005006075420450090102018040096007800300300004600070380009045700001,534218967792436815186975423453697182218543796967821354329154678671382549845769231
056001092040080010207045300900008640068300200100004007000210079002006000530090806,856731492349682715217945368975128643468379251123564987684213579792856134531497826
004709030078612500001080000000000083060541700297800000000930140540000006032070008,624759831378612594951384267415297683863541729297863415786935142549128376132476958
040600802623007940000001000060200007109045200005009100708000300050106009030870400,541693872623587941897421653364218597179345268285769134718954326452136789936872415
000002500060071030030009004850023400190560000703100080000047900580000300040980261,471832596965471832238659174856723419194568723723194685612347958589216347347985261
090060041020001090007840005030504007005080030012307060200900006006000803470058200,398265741524731698167849325639524187745186932812397564281973456956412873473658219
900840125520070096000000080300020801000060030415900000037590040090610002000084300,973846125528371496641259783369427851782165934415938267137592648894613572256784319
