059600210200804003006000097601002030040050108300907000008001009000049500500230760,859673214217894653436125897671482935942356178385917426728561349163749582594238761
056090210304006507000000080007900062800240931400001000002000070000018600970300005,756893214384126597291574386137985462865247931429631758612459873543718629978362145
010305607000204050030009018009000205006051070048070093800006741702003900000800000,914385627687214359235769418179438265326951874548672193893526741752143986461897532
093002865506004000000000900951400200602080079004060001000176530000000714800305002,493712865576894123128653947951437286632581479784269351249176538365928714817345692
070006800001040009005009030009007086508002170000310900000000425310270000600800710,973526841281743569465189237129457386538962174746318952897631425314275698652894713
002705009640012000007009030074500008930800670200000105091600720000004500080037014,312785469649312857857469231174526398935841672268973145491658723723194586586237914
320000608008009500070004093406520010001703000080900000503600407000301920700080006,329157648648239571175864293436528719951743862287916354513692487864371925792485136
000000704075008316608004000800192040090300020061000503009680005007030100000405230,912563784475928316638714952853192647794356821261847593329681475547239168186475239
000036051501700009900050208090078003006004087020000940032000000480005700010029600,278936451541782369963451278194678523356294187827513946632147895489365712715829634
700430081002908307006000500004370010300005824500009000900200050203107090048000600,795436281412958367836721549684372915379615824521849736967284153253167498148593672
007905030000046200400102005056809007901300000300000160005008701800503400002690050,127985634593746218468132975256819347971364582384257169635428791819573426742691853
600070530009206084700900600060820103015030000000500008070182000003040097250000060,621478539539216784748953612467829153815734926392561478976182345183645297254397861
307009500140203000006048070052304100900800006004600290020000600509001703010720008,387169542145273869296548371652394187971852436834617295728935614569481723413726958
040708010100002809050040302073080001000100287600900050001060504980003000400275000,342798615167352849859641372273584961594136287618927453721869534985413726436275198
302090008068050170070308900010003056706800304000240007050700000000521009431000000,342197568968452173175368942814973256726815394593246817259734681687521439431689725
300000400007503090600002080001000045052700800806000203000097500020804001090010624,389176452247583196615942387931628745452731869876459213164297538523864971798315624
000260000000009007300078920605000100094005278800014090009500630013800004040007010,957263481428159367361478925675982143194635278832714596789541632213896754546327819
084120005500006007920004300600005000040030901231807000060050080050069420307000100,784123695513986247926574318679415832845632971231897564462351789158769423397248156
030004000917026500600307800008000006071059002520700140059003070000080200004000613,832514967917826534645397821398142756471659382526738149159263478763481295284975613
067500091002074030000200045305060008209080007810009000680102504001047000090003600,467538291152974836938216745375461928249385167816729453683192574521647389794853612
940080000100304508020090370000709010010200607000048023460005080380006209700000000,943587162176324598528691374234769815819253647657148923462935781381476259795812436
500000683002071005490800020931000000600090758000042000180030904000068030005700002,517924683862371495493856127931587246624193758758642319186235974279468531345719862
390007008507000600041520030800610040050809003000005090920001764060480010003090200,392167458587934621641528937879613542256849173134275896928351764765482319413796285
700204001186050000020000693300070006004009510009400072500320089800100004000700260,793264851186953427425817693318572946274639518659481372547326189862195734931748265
107090080600007010092068004270009003010004690004013208509300007008000021060050400,147295386685437912392168754276589143813724695954613278529341867438976521761852439
090004200000050006184300000009072060030560840800100070610090050345080907007000001,596714238273958416184326795459872163731569842862143579618297354345681927927435681
054087009900045000700900000570000610620071804040300000000030160008104200200869050,154687329936245781782913546573498612629571834841326975495732168368154297217869453
500700030090106000870049602700000908680050304300260070004000100900321700000004085,516782439492136857873549612725413968681957324349268571264875193958321746137694285
006003008790000200100540390020930607050100004000706810200010000008305000314008520,546293178793861245182547396821934657657182934439756812265419783978325461314678529
970000502008274190006300040051060070403018900700000400000052008300100600100800754,974681532538274196216395847851469273423718965769523481647952318385147629192836754
201008030086000900040950006007000860030001407458070090902003010000600004310085000,291468735586137942743952186127594863639821457458376291962743518875619324314285679
260100300908030000007082045080005030002000107030094060004600293000070508159800070,265147389948536721317982645786215934492368157531794862874651293623479518159823476
000020000003700280069401005500009018700300000401608509040137026080000007600050940,874523691153796284269481375536249718798315462421678539945137826382964157617852943
090040608500010930037500000000672080010300002400090500980020105120087340760000009,291743658546218937837569214359672481618354792472891563983426175125987346764135829
040010039703209400100006250005107090024000800900043020806300000007900105010082700,542718639763259418198436257685127394324695871971843526856371942237964185419582763
030010008000907010450060902102080500070002300098005004907800200040030060600000741,739214658826957413451368972162483597574192386398675124917846235245731869683529741
000540900001600003805203060060054789008002156109000000000300007006097034270016000,637541928421689573895273461362154789748932156159768342984325617516897234273416895
070204060003000180000013004001067200090000500640158009820095030000726090050000407,175284963463579182289613754531967248798342516642158379827495631314726895956831427
060090100000006380025400006001700020032080509900350004059100007048520030700004008,367895142194276385825413796581749623432681579976352814259138467648527931713964258
000057860200030010048900000300765008060209070809040005023600040700002136590010000,931457862257836914648921753312765498465289371879143625123678549784592136596314287
560902078004010005000003620078200061040008059000401300910830007005000000086004290,563942178824617935197583624378295461241368759659471382912836547435729816786154293
302007000070065109000080602009741860000059004103000900206004705830002006004890000,362917548478265139915483672529741863687359214143628957296134785831572496754896321
803745610010860000200009004680090130001536720000000409400600900730000580005007000,893745612514862397276319854687294135941536728352178469428653971739421586165987243
320070406100090530040008091080025340004700060901030070070816000090000000605003008,329571486168492537547368291786125349234789165951634872472816953893257614615943728
903085200150006090078000100002304007040700010730560008000030500680001900005092046,963185274154276893278943165892314657546728319731569428429637581687451932315892746
802045006600378005040000090100080003000702068750106900090020001301800500005600409,872945316619378245543261897126489753934752168758136924497523681361894572285617439
004007000108004050230690000000401709000800012506000480070208000620700130891003070,954187326168324957237695841382451769749836512516972483473218695625749138891563274
000310000412000070005907008080000069037004812090706004000600400009028500800003201,978312645412865973365947128584231769637594812291786354123659487749128536856473291
641900005008006000070240103706050000080000002100370098900700500305009201000065039,641937825238516947579248163796852314483691752152374698914723586365489271827165439
000800690040060007072195030520004301000000800064000029105200004007003206090058070,351847692948362517672195438529784361713629845864531729135276984487913256296458173
000704009300850071280090000804060000003002007160930500590000004000578600020600310,615724839349856271287391456874165923953482167162937548596213784431578692728649315
080256009400009000000100305360700000008000720901000803120600000800370906030410057,783256149415839672296147385362781594548963721971524863127695438854372916639418257
041060009057049020360508000600010450092800706408007300900070000005200807000300001,241763589857149623369528174673912458592834716418657392986471235135296847724385961
143700000020000380500006010980005002004600700700009035290850401030042069010900800,143798256629514387578236914981375642354621798762489135296853471837142569415967823
210500008608020504000000930580400196000017400430000080009078600000601005020304070,213549768698723514745186932587432196962817453431965287359278641874691325126354879
100608430024500000083007009300871050050000087000204960001090042900300706060105008,179628435624539871583417629396871254452963187718254963831796542945382716267145398
500039040000620780170400009048900530030070902010003060420000650003508000000100470,582739146394621785176485329248916537635874912917253864421397658763548291859162473
082019000004605008700800003067100490408020030090050002306790050500003670001004020,682319547934675218715842963267138495458927136193456782326791854549283671871564329
500920084104000000093500607900000070008000035032806001010240560007690300200081009,576923184124768953893514627951432876648179235732856491319247568487695312265381749
095010420200056800800004100300027001050039602006080040508902000710500000030000970,695318427241756839873294156384627591157439682926185743568972314719543268432861975
003208000042006009690705100000020000006400017010609503009074021000030800730000050,173298465542316789698745132354127698986453217217689543869574321425931876731862954
003000081500782009007900060100053070970800056030000204000020000018009607624300100,293465781561782439487931562146253978972814356835697214759126843318549627624378195
800030000019700600000004021040008006907050080201906540700120000030800250504009708,852631497419782635673594821345218976967453182281976543798125364136847259524369718
002093005095004076030100080000000002070500130300628040600457000084902003710000000,862793415195284376437165289948371652276549138351628947623457891584912763719836524
070009100002040059400350062000060500058900620009031008200400930040780005100206040,573629184862147359491358762714862593358974621629531478287415936946783215135296847
900300240001084006003507800000790000150200030702031000249000601300060700080059400,978316245521984376463527819834795162156248937792631584249873651315462798687159423
400201003730060841008300200300000004090000070620413050840009007060570010500000680,456281793732965841918347265385796124194852376627413958841629537263578419579134682
091780400400005026800320000032001500600009700010400308004650009300908007007000105,291786453473195826856324971732861594648539712519472368184657239325918647967243185
080700050009316000462005001041503009000080700300100480018020004574900860000000090,183742956759316248462895371841573629695284713327169485918627534574931862236458197
810900500000074900006500030092608000040001002130057000400030008027409006500120073,814963527253874961976512834792648315645391782138257649461735298327489156589126473
000008302800700540000090007754210003310050000009406010065070200030002901907083600,571648392893721546642395187754219863316857429289436715165974238438562971927183654
000006370080900002003154009930000015002000000605040728060001000704800500109402603,591286374486937152273154869937628415842715936615349728368591247724863591159472683
030786000010002005409301000004000070680900400700005102340000260020860001005070308,532786914816492735479351826254138679681927453793645182348519267927863541165274398
008500040030706900000030580042073000100040630900208007000061009890000200370009015,618592743435786921729134586542673198187945632963218457254861379891357264376429815
024069017370040800000500002035000000010304090906080001052600400000071068008403009,524869317379142856681537942235916784817324695946785231152698473493271568768453129
507004801000002790080060003000800502402300006100205037890000045370000108000610300,527934861613582794984167253739846512452371986168295437891723645376459128245618379
180090020200000005005803079090602080010000264004500300000070018070004006346910000,187495623239167845465823179793642581518739264624581397952376418871254936346918752
602005047830000605000900310900700006050002000007043058003074100019080020548000003,692135847831427695475968312984751236356892471127643958263574189719386524548219763
900761008000520040000009206305010824001800090700004005630005400090600017007008052,924761538876523941153489276365917824241856793789234165632175489598642317417398652
070001000009006503400000280603074010920005046010080300806900407590703002200000130,372851694189426573465397281653274918928135746714689325836912457591743862247568139
380206504000093002006100070000608230008001007540020000751804003000059640090000008,389276514175493862426185379917648235268531497543927186751864923832759641694312758
100200000002308704700090060504007800020004003000005901030100005695040080201060037,148276359962358714753491268514937826829614573376825941437182695695743182281569437
400007000820010047003060100900008005007605080005940062200003604704500090051002008,419257836826319547573864129962738415147625983385941762298173654734586291651492378
010240000300005008009000513006000390400017025000009104903670400020008000504030862,815243976367195248249786513156824397498317625732569184983672451621458739574931862
704502630100009008030100057002096015050400700080005390003600400076040002409020000,794582631165379248238164957342796815951438726687215394823651479576943182419827563
400100002003060078010009050280000010000305006370920085000004500620000001054078090,468157932593462178712839654285746319941385726376921485839214567627593841154678293
520000090001600402809310070014020750200800030070104006903006000060709043000200800,526478391731695482849312675614923758295867134378154926983546217162789543457231869
018090652270400900003000008000003406906705003080000170004006800020931000000020017,418397652275468931693152748751283496946715283382649175134576829827931564569824317
900742050026000000014005380300050020070280615001000070140300500002008900800610037,983742156526831794714965382368157429479283615251496873147329568632578941895614237
701030068080190053000400009008000004130000800600820710062504000910006000004002037,791235468486197253523468179278651394135749826649823715362574981917386542854912637
030400007805006310070000650014000020000570109000620480002308060003000502950140000,631485297825796314479213658514839726268574139397621485742358961183967542956142873
037028900900000042006501070450107080700042006091053000020300008000600015800019700,537428961918736542246591873452167389783942156691853427124375698379684215865219734
400000536200000700900503001000800073021007040006940000080700060305069080079302100,417298536253416798968573421594821673821637945736945812182754369345169287679382154
600030400400806290010009005070015000006702003800040709002354007080090360097000010,629531478435876291718429635273915846946782153851643729162354987584197362397268514
706030040000006105400109023009500080034701000600098002001083090008400700200000056,716235948392846175485179623129564387834721569657398412571683294968452731243917856
040080000001060200920703000607900005080000090000815706005300840300006950200070031,743281569851469273926753418617924385582637194439815726165392847378146952294578631
470501009082640071305029006800000007090400020200810090009000800003270010150030040,476581239982643571315729486864392157591467328237815694729154863643278915158936742
400653087002090140057200000970000001003000000106532094600700409000008062501004003,419653287362897145857241936975486321243179658186532794638725419794318562521964873
200704900809010000003000065007046000500000809004502730000200350310009270470080001,261754983859613427743928165937846512526137849184592736698271354315469278472385691
901000230400050000200004006007602305000087010600510800002108090010300702530009480,951876234463251978278934156187692345325487619694513827742168593819345762536729481
