900450078100863400000007032012000005400030000008045060006000700074001280000304090,963452178127863459845917632612789345459136827738245961396528714574691283281374596
095007020040000003107690084208409010300020060504130007001006030000804650900050001,895347126642581973137692584278469315319725468564138297451976832723814659986253741
200080050000601203418200067051000400000135000720094000005000009870460530009070002,263987154597641283418253967351726498984135726726894315645312879872469531139578642
004003080190005040500000127060051090000000502020900803900316000200809400380000670,674123985192785346538694127863251794719438562425967813947316258256879431381542679
370906500006038070419000000700102096000870200501000004000209010002007060090540803,378916542256438179419725638784152396963874251521693784835269417142387965697541823
040000690905007020031205800000010360020408050090070012200060040000300700804000009,742183695985647123631295874457912368126438957398576412273869541519324786864751239
201800970040600003000015080803000017020907040006380200300090504960200000000473009,251834976748629153639715482893542617125967348476381295387196524964258731512473869
590003700018007060000690100030000690764000002000804507002905080400100000180400325,596213748318547269247698153835721694764359812921864537672935481453182976189476325
008500100069008003050000047003070058500049000290003010004360080020097600070105200,738524169469718523152936847643271958581649372297853416914362785825497631376185294
000090561200830040049700000400009008023070006000100427060008105017260090580000030,738492561256831749149756283471629358823574916695183427962348175317265894584917632
700016540000007300625300000000920001096080200430000070804630095009001062007008003,783216549941857326625349187578924631196783254432165978814632795359471862267598413
200680070000000450300007001070040360004058002509230000085003010007001009060900240,251684973798312456346597821872149365634758192519236784985423617427861539163975248
009000000840050200001400935000080060695030008702000100020601004037000002450900801,569312487843759216271468935314287569695134728782596143928671354137845692456923871
409500080710608000006021050093000076500090408800005210002480060970030000030009107,429573681715648392386921754293814576561792438847365219152487963974136825638259147
008002001000570002650048930009280500030701600020060149006010780970000204500000000,798632451314579862652148937169284573435791628827365149246913785973856214581427396
080003014130000620204509080400020005000370100090008406570080000906400700003005200,789263514135847629264519387417926835658374192392158476571682943926431758843795261
100009706000008050050702003030040809608300040000906001506003204402010000089070600,123459786967138452854762193231547869698321547745986321516893274472615938389274615
023400806050200419190065000008090704640070000500600021907000500000003098001004003,723419856856237419194865237318592764642371985579648321937186542465723198281954673
508700010030060020000093054709008103450900006000012970300005008070240000100000790,568724319934561827217893654729658143451937286683412975392175468876249531145386792
002050000300941000900000750800002437700080010190600500076800300208003900400017020,642758193357941268981236754865192437724385619193674582576829341218463975439517826
000000240007980001405200030021040059903706800080050320810005600000031400009600000,198563247237984561465217938621348759953726814784159326812495673576831492349672185
070360020520040607018009005000082014050030062700000900809003000160008530000700001,974365128523841697618279345396582714451937862782614953849153276167428539235796481
020900864000100090036005007007090400010800356054320001092630000000700182080004000,521973864478162593936485217367591428219847356854326971192638745643759182785214639
010048020009005760007300050000000005750892001694070032000003407300004080060120093,516748329839215764247369158182436975753892641694571832925683417371954286468127593
725000600400170005800030200260500104050080020340000098093800051000009700000461009,725948613436172985819635247268593174951784326347216598693827451184359762572461839
701450000029003108500200370240080060000600805010035240070000006600309000080540009,731458692429763158568291374245187963397624815816935247974812536652379481183546729
010270030043000000805900076090608450007030008680009200000510690062004701000802000,916275834743186529825943176391628457257431968684759213438517692562394781179862345
000500090103096700007008004060740012040060903900200050500004180720030045600800000,486572391153496728297318564365749812842165973971283456539624187728931645614857239
530090002200400098090080370102004506006010009000500780000759100060003000400800020,538697412217435698694182375182974536756318249349526781823759164961243857475861923
902300100003700609006040580400650002030001857700080000060590300000002040080106000,952368174843715629176249583418657932639421857725983461267594318591832746384176295
100907800045600010308005000600070000089006140000820950062590081010704200004002000,126947835945638712378215694651479328289356147437821956762593481513784269894162573
008057003604009210590006000400360901007000080956001004000208430200000008001094050,128457693674839215593126847482365971317942586956781324765218439249573168831694752
100059300006002408097008520304700900050010806020030010040000070860507009001640000,182459367536172498497368521314786952759214836628935714245891673863527149971643285
003070490046030105095081300200000700000605030609047082014060000000300000580209040,123576498846932175795481326251893764478625931639147582314768259962354817587219643
800000013070139060020006900090700050506010002047900301003040800000008605604257000,869472513475139268321586974198723456536814792247965381953641827712398645684257139
190700050006010783000000040409002065002084000030005001004030200200090078300608090,198743652546219783723856149419372865652184937837965421984537216265491378371628594
010097620904080030870000500200930010056000080003100207038040005500071000020806094,315497628964582731872613549287935416156724983493168257638249175549371862721856394
001680030020700006089000051064020970000000102270003400000095608000370040590042000,751689234423751896689234751164528973935467182278913465347195628812376549596842317
000680200079000048042300001000065004200009130015200709008070013790401086060050000,351684297679512348842397651937165824286749135415238769528976413793421586164853972
002080734001050008680270000063009050400000029705800000040007900500690100800001673,952186734371954268684273591263419857418765329795832416146327985537698142829541673
300000406004783000095600200048500000000290600026070395080040010002109037010850900,371925486264783159895614273948536721537291648126478395689347512452169837713852964
370090000010020570409100020800700954020063010001000300063009400080500107500840006,372695841618324579459187623836712954925463718741958362163279485284536197597841236
005900780100023900000570004200034000078001600040057001001000306020300009096080057,435916782187423965962578134219634578578291643643857291851749326724365819396182457
000000038034025000506708904600040195100000000029070000251800300070093600003204017,792416538834925761516738924687342195145689273329571486251867349478193652963254817
400000930000008021510007000230004706009200000107500380604720800000089605050401009,486152937973648521512937468235814796869273154147596382694725813721389645358461279
000790003040032008690000500504001300007006014020803706300018902950400001002000870,281795463745632198693184527564271389837956214129843756376518942958427631412369875
300001000045008002020030647600004001703060090190507000018000430009020000067800500,376241985945678312821935647682394751753162894194587263218759436539426178467813529
005900023240006700708300060070050009050412000610003080400800051000007906000540200,165974823243186795798325164372658419859412637614793582427869351581237946936541278
005029060900301704010000003306100000040008209100750800408006090090005047070000502,735429168962381754814567923386192475547638219129754836458276391293815647671943582
705001032001695000840000600070026000010508000290000087000050400930102870600403020,765841932321695748849237651578926314413578296296314587182759463934162875657483129
300000010005000207170905600407100802060080093000509700009730084802000000010400506,326874915985316247174925638497163852561287493238549761659732184842651379713498526
706800324010003700000400000500010830082700406009504000050000010600097000008020693,796851324214963785835472961547216839182739456369584172953648217621397548478125693
607052009000900601000830705900018000060204000702005043000000092053060800010403506,637152489528947631194836725945318267361274958782695143476581392253769814819423576
406280000170900060090003105000010074020700900007005683500040300031002098602008500,456281739173954862298673145365819274824736951917425683589147326731562498642398517
306050004701826300098000000000700430030002509100409020057008010000090008082140600,326951784741826395598374162269785431834612579175439826457268913613597248982143657
325000000409280165008007000004601270030590610600400308580300002002740000000006090,325164987479283165168957423854631279237598614691472358586319742912745836743826591
009000670500902130108004000206800000070106000490300200014083950030090862000057040,329518674547962138168734529256849713873126495491375286614283957735491862982657341
002093500007104090310600080146500002008060000030207401090058740670000300580000000,462893517857124693319675284146539872728461935935287461291358746674912358583746129
000070968090000004004062750005700406081000090000038002078004503200809010056320000,512473968697185234834962751325791486781246395469538172978614523243859617156327849
600002085070960004034000000100050600000890017926041000502000003008507090041380026,619432785275968134834175962187253649453896217926741358592614873368527491741389526
600490300090001000028050710305107004000300002260008000056080201000905040070030098,617492385593871426428653719385127964741369852269548173956784231832915647174236598
800093020057000040000402001000106450080070063300080102670008030032045890090000506,814793625257861349963452781729136458581274963346589172675918234132645897498327516
600204800090080210070050403039400001100030042800075060004763000001900075086000900,613294857495387216278651493539426781167839542842175369954763128321948675786512934
023070900040860200000250700612035007800000050054107009100020006089000000006004083,523471968741869235968253714612935847897642351354187629135728496489316572276594183
200069708050000002107004306000872900705010000003940601008000023049500000000306010,234169758956738142187254396461872935795613284823945671618497523349521867572386419
000030080204500007300026405480019700700005026500600100090004860007080314002001009,965437281214598637378126495486219753731845926529673148193754862657982314842361579
007502000840009002090340160004750006030001080900080203650100708108007304000020090,367512849841679532592348167284753916736291485915486273659134728128967354473825691
200070030037400910094800520009764100060000400005028000080930600000006758040001090,251679834837452916694813527329764185168395472475128369582937641913246758746581293
030000402000061008087200350020109700600520040340080095290000500000400689008037000,936875412452361978187294356825149763679523841341786295294618537713452689568937124
004012080003400005670305091050007000001620009008090704920006007000001008080004352,594712683813469275672385491359147826741628539268593714925836147437251968186974352
009840005000007400810052060100030024070500008500128607430000906090003150207006000,769841235325697481814352769186739524972564318543128697431285976698473152257916843
006000008470000100800243000020700054003469020180000070305000086000001005967030402,536197248472586193891243567629718354753469821184352679315924786248671935967835412
902108060036000024700000001005806002060900570400210090840000605003450100007003000,952148763136597824784362951395876412261934578478215396849721635623459187517683249
041025890607000120005009000009830070000012000400000308700080430020650007930004060,341725896697348125285169743519836274873412659462597318756981432124653987938274561
030020090007080326090700048073060000508370010240008000009000005000106083106205900,835624791417589326692713548973461852568372419241958637329847165754196283186235974
000304076000800000090051040650102000047580320103090008832000000009000753010640200,581324976274869135396751842658132497947586321123497568832975614469218753715643289
000321800005900004281000003050010300047000608060070240000098000300054962070260500,794321856635987124281645793852416379947532618163879245526198437318754962479263581
000002070060580310010706504000048023009001000708200090401060005800003009630150040,584312976967584312213796584156948723329671458748235691491867235875423169632159847
800200900607950004004080030000000315000025006400070890039042070200008050540690100,853214967617953284924786531782469315391825746465371892139542678276138459548697123
000002041080300060090018000700100504000083090806540200047000005201690030060050719,573962841184375962692418357739126584425783196816549273947831625251697438368254719
006030080000710309005400170800000025629007004007083000900001043080062900030045200,176539482248716359395428176813694725629157834457283691962871543584362917731945268
081300209000400608900500070050000007400691500308000000100802034260007090007045102,581376249723419658946528371659283417472691583318754926195862734264137895837945162
870000009010500700000040120530001074400609002600000038050024003308906050092008001,875162349214593786963847125539281674487639512621475938156724893348916257792358461
430000600000068053602100740000207309095000000301080020080720000000009487140035900,438572691719468253652193748864257319295341876371986524986724135523619487147835962
805200000000890720703014600600000204004070013008902000500006409067130000900085007,895267341146893725723514698679351284254678913318942576581726439467139852932485167
000600010150090420004500807200009034006800200701053000090010508367000000008027900,879642315153798426624531897285169734936874251741253689492316578367985142518427963
000380040058007009072005310800240070706000004900008500104000920000190600003706081,619382745358417269472965318835249176726531894941678532164853927287194653593726481
950200800000050230013007090821560000370081000400000900000000465008034120607020000,956213874784956231213847596821569743379481652465372918132798465598634127647125389
010060740005003010080507009027050080490206100500900064073020008900001500000040320,319862745765493812284517639627154983498236157531978264173625498942381576856749321
008590406056300270790021005003050000940700000005800320000060900030008060402010087,328597416156384279794621835283156794941732658675849321817265943539478162462913587
970600100034000059006002080000068704040079020050020003003000400790180200000035091,978653142234817659516942387329568714641379528857421963183296475795184236462735891
206007035051030000000908060000020607010009043085060100000100429907805000060003050,296417835851632974473958261349521687612789543785364192538176429927845316164293758
000089470082000003001750000003062040207001005050000130060308097005007008000190260,536289471782416953491753826813562749247931685659874132164328597925647318378195264
860000000020100704003295001702060050000700900540809003000070369100640800030020015,861437592925186734473295681792364158318752946546819273284571369159643827637928415
852000400006803090300001600000009050900170800081040730070000008600234000005700126,852967413146823597397451682764389251923175864581642739279516348618234975435798126
750000206439000070800100000200690050080700640000530102070060309004012005560003008,751349286439286571826157934213694857985721643647538192178465329394812765562973418
000040020800700049027530008506907200100004006000020531390600000004080103251000807,963148725815762349427539618536917284182354976749826531398671452674285193251493867
590204003200060500000150084870900000001302090062740010009001605046038007300000000,598274163214863579637159284873916452451382796962745318789421635146538927325697841
306080405007650030010000020005400902069700180480096070074309600000001000890000310,326187495947652831518943726735418962269735184481296573174329658653871249892564317
050030004800570900002000063006090200040007010109604058428900005003702000060051030,651239784834576921792418563386195247245387619179624358428963175513742896967851432
