009300210050900470040002008908040027000160035100007860400800309082030040600015000,879354216256981473341672598968543127724168935135297864417826359582739641693415782
300607091200580760004300500500930006040000800000001007068040250900070304010200000,385627491291584763674319582527938146149762835836451927768143259952876314413295678
008130600100007000057008200000091006602080309079600000400000901800243500003005080,248139675136527894957468213584391726612784359379652148425876931891243567763915482
050060093090010870468000000070000002100009340200408005005720630003000718000900204,751862493392514876468397521574136982186259347239478165845721639923645718617983254
738006040605004002000850000026039010000000037000180509004010093970020008803040600,738296145615374982492851376526739814189465237347182569264518793971623458853947621
060073140000810030009005007405000700070040026800290010003000002052004963700060850,268973145547816239319425687425631798971548326836297514683159472152784963794362851
080007324000610900905030000047000608008500290000706050702100000019000860050420103,681957324374612985925834716547291638168543297293786451732168549419375862856429173
906347180081090003000200005700030004005700600020069010000074200412600700590801300,956347182281596473374218965769135824145782639823469517638974251412653798597821346
000460870001203500500009006250006700097300010030050080060041207302687400009000000,923465871681273594574819326258196743497328615136754982865941237312687459749532168
762340100500000000040850029091060830300001490008070206007400500000096043000720080,762349158589612374143857629291564837376281495458973216917438562825196743634725981
930700000042105008000000269005007180200009400010603000809400600407300002000068750,938726541642195378571834269395247186286519437714683925859472613467351892123968754
000600100005004960093500047730905010080030002020060054472080009001000620900300070,247693185815274963693518247734925816586431792129867354472186539351749628968352471
600390002002000010150080470370804025020060140000503007004050060060730900085200700,647391582892475316153682479379814625528967143416523897734159268261738954985246731
090462010004500000208000300050100076400800039701040820080610000003079500502004060,395462718174538692268791354859123476426857139731946825987615243643279581512384967
501020400004701005090650020800040070023000080000092130700060300085300940100089650,571928463264731895398654721816543279923176584457892136749265318685317942132489657
300120000400086009070004500006070000100008907049350280910800400200400310050000602,395127864421586739678934521586279143132648957749351286913862475267495318854713692
760009030048000090000581000001730400006054280900012300002003745807026010009000006,765249138148367592293581674521738469376954281984612357612893745857426913439175826
060015007203040080005300900450180060800000013307050490000908050098067200640000000,964815327273649185185372946459183762826794513317256498731928654598467231642531879
000060403080301090760008025300805009020007010570000062900013870001200000640509000,195762483284351697763948125316825749429637518578194362952413876831276954647589231
090002070063050800074608021002000000410030906080700510008000007030019050005806403,891342675263157849574698321652981734417235986389764512948523167736419258125876493
810000030030000906005720400300070040400036021680109005000054082000860000700912003,814695237237481956965723418351278649479536821682149375196354782523867194748912563
090650000021007804400000750389005001000003090056720000002190630000300048008006027,897654312521937864463281759389465271274813596156729483742198635615372948938546127
640003107008700020090100053009850270701904600800000049000689300062030090000410005,645293187318745926297168453439856271751924638826371549574689312162537894983412765
510092080080100760900406005001004002600900300740305100200079800030000600850000024,516792483482153769973486215391864572625917348748325196264579831139248657857631924
600030025010409700400650800708004090092000600004018002030107008000090100800526007,689731425215489763473652819758264391192375684364918572936147258527893146841526937
000900082152804000480700060890030650000008074063001009920300508600052010007000030,376915482152864793489723165894237651215698374763541829921376548638452917547189236
050030004700201060891000070200097308005640000000050041179006005000003987008005020,652739814743281569891564273264197358315648792987352641179826435526413987438975126
810020700406780500000094038600200900001530006000007253045003001007900480090006002,819325764436781529572694138653248917721539846984167253245873691367912485198456372
400050793190030605020007000200001080019008030000695040000000100863700402500206000,486152793197834625325967814254371986619428537738695241972543168863719452541286379
001057600032100000800000709100500040079080020400900806003096200000310507680400090,941857632732169458856243719168572943379684125425931876513796284294318567687425391
800240000073609050010070060000000375520003009098706200480500910060002438009000000,856241793273689154914375862641928375527413689398756241482537916765192438139864527
290000034104700006070520000008400000300000951020006070900801607057000090460003080,295168734184739526673524819718495362346287951529316478932851647857642193461973285
009006800002800000760010002100970030200005487500608901030094070847000500000300106,359726814412853769768419352184972635296135487573648921631594278847261593925387146
023806170600070008050010039841097060000600005000004007400000000000039406270100590,923856174614973258758412639841597362397621845562384917439265781185739426276148593
980500000004060508017024900200071603000003004750000009005086002030000460402390017,986537241324169578517824936248971653691253784753648129175486392839712465462395817
900526740000010300007800906700600001028003604503000090040007002805490000610058000,931526748486719325257834916794685231128973654563241897349167582875492163612358479
300010000000002007961508002730620800000000049508007020600000004070430051109085370,327914568485362197961578432734629815216853749598147623653791284872436951149285376
000008070500060400106040002020973065000001043700804000809500200000007050070392180,294138576537269418186745392421973865958621743763854921849516237312487659675392184
032700010005206003790080000001350080940000000007009604029400300804007209600001058,432795816185246793796183542261354987948672135357819624529468371814537269673921458
002009560807050020000084001400370800500000000091500603030040100900100082065002970,342719568817653429659284731426371895583496217791528643238947156974165382165832974
008700004060098030015000029003070106840002900070056000000200075304100000290480600,938721564462598731715643829523974186846312957179856342681239475354167298297485613
001290700008000024004760053420081000300000009010350047900045002002630008670800000,531294786768513924294768153427981365356472819819356247983145672142637598675829431
047300000602700910800402000000106859000520060006090703450008000379000200000000170,147369582632785914895412637724136859983527461516894723451278396379651248268943175
090003052007420800302650009200098000638007000010300007045070603900000470060105000,496783152157429836382651749274598361638217594519364287845972613921836475763145928
038405007097200003650000080006301000075080900300009406040050102002710000000006870,238495617197268543654137289926341758475682931381579426749853162862714395513926874
000002693500700400012064000300516780840000009000409001000000007200030150705820306,478152693536798412912364875329516784841273569657489231183645927264937158795821346
620900007031000500005100048350008060000070820000040705009420073004030109070506000,628954317431782596795163248357218964946375821812649735589421673264837159173596482
006120900408900100003604005060000570700000010040350008200000300051708049090260000,576123984428975136913684725869412573735896412142357698287549361651738249394261857
002008000074500009803960400000020300300001602500700001060300510000200890149006007,952148763674532189813967425491625378387491652526783941268379514735214896149856237
100050208000702003580000796390010000804300002000908400600000000053400100200837059,137659248469782513582143796396214875814375962725968431678591324953426187241837659
093004500010000060400562000000310002001000097237408010060050083380700001000809470,693174528512983764478562139956317842841625397237498615764251983389746251125839476
100092000000180600020003407008060900097200045400500008360041090010000806902730050,176492583543187629829653417258364971697218345431579268365841792714925836982736154
046010005800000097007002100790304000520670030000058400000106820309000050010805049,246719385851463297937582164798324516524671938163958472475196823389247651612835749
106005020005700004870093100050000009900082030402006510009318000560000900080600007,196845723325761894874293165658134279917582436432976518749318652563427981281659347
001005760096300500800402000035040120009600070780009000400090000072830016060100805,341985762296371584857462391635748129129653478784219653418596237572834916963127845
000839000000207100008000609070003080205041900340900050037120400460000007051008006,614839572593267148728514639179653284285741963346982751837126495462395817951478326
310020080090300060008470005040862900679000200800500003034910000000030897002006010,317625489495381762268479135543862971679143258821597643734918526156234897982756314
070004092006030140080020003800500020100009700540063000003108600794000010000700005,375614892926835147481927563869571324132489756547263981253148679794356218618792435
805034000276010003030000060000190020607500040329067008000800006001720500400000801,895634712276915483134278965548193627617582349329467158753841296981726534462359871
024091006710605208000800000030080005600100407009002010905000301002400670307000080,824391756713645298596827134231784965658139427479562813965278341182453679347916582
004009020010280507270000406006050000027400059403600700060148002000903005080070310,534769128619284537278315496196857243827431659453692781365148972741923865982576314
001070030347005109000000802700630050060400200000019000008091700900250080020008405,281976534347825169695143872714632958569487213832519647458391726976254381123768495
104080060000003002308092100070230000095010400000006270601500784007400900900008005,124785369769143852358692147876234591295817436413956278631529784587461923942378615
150000300200950000048000610400520100700600090029070804000007006300460900010308207,157846329263951748948732615486529173731684592529173864895217436372465981614398257
090008032706400000250030649027000090610503080840010500300026000000000907000745001,194658732736492815258137649527864193619573284843219576371926458465381927982745361
000001046405060279360700008002004801003200007680039400201507000000300502090008010,728951346415863279369742158952674831143285967687139425231597684874316592596428713
003070508600038000040105200520000004000010780071900300900051860406700050102003040,213674598695238471748195236529387614364512789871946325937451862486729153152863947
830420090007000200010068000608000007000605004079030021401500063080309450002000800,835427196967153248214968375648291537123675984579834621491582763786319452352746819
000050308000027090509100270700090140800060000021504060004000009100008036235076400,472659318318427695569183274756892143843761952921534867684315729197248536235976481
003510008405670001060009370800004050270080060001730900008020000350900024004000709,793512648485673291162849375836294157279185463541736982918427536357961824624358719
890020040000008706036105090007090020400000000020570631009310467002000100304680900,891726345245938716736145298167893524453261879928574631589312467672459183314687952
060030090054067820000108007000000900006004381035090460047802530000000000209056740,768235194154967823392148657421683975976524381835791462647812539583479216219356748
203701090500098000070600051000203600700080905010000830000060240389140007006530000,263751498541398726978624351895213674732486915614975832157869243389142567426537189
000075600008020190030900205020000000069000847050348900000000006207160300093200481,912475638578623194436981275824796513369512847751348962145839726287164359693257481
100004607060857010400020930000000700207010003800409005053200000080603040002080091,128934657369857214475126938514362789297518463836479125953241876781693542642785391
010600270540007000037010085050701009800020430006089000000950023009063000080400601,918635274542897316637214985253741869891526437476389152164958723729163548385472691
007000000600823004100009058030500000076004001015200693040190080200068035000040700,387451962659823174124679358932516847876934521415287693743195286291768435568342719
000020000410000090570006034091378050060090700030052008600830200000065007008700501,986423175413587692572916834291378456865194723734652918657831249149265387328749561
007002900080074030930080054200006097806500000014200003509003072600000080000060109,467352918185974236932681754253146897896537421714298563549813672671429385328765149
006000100940200075075038000002007698000020050581004000800100902003400067090350800,326745189948261375175938246432517698769823451581694723854176932213489567697352814
000500064809470200504000810900706040103000000026083059082010006001057080000092300,217538964869471235534269817958726143173945628426183759782314596391657482645892371
000000900000703025085004001300005607600109030750200048004300800060010700971400063,437521986196783425285694371312845697648179532759236148524367819863912754971458263
600700000905008400000012507020009000140650970000400835069004008007090013350200004,612745389975368421834912567523879146148653972796421835269134758487596213351287694
431078002900500000060030870000085037002000609008106400000004560513002000740900010,431678952987521346265439871694285137152347689378196425829714563513862794746953218
504000010600419002002000903301007280400800007070950030005000670008025004900360100,594273816683419752712586943351647289429831567876952431235194678168725394947368125
300108000000000023040059800004060301000070060920003540092507600010204008070080950,367128495589746123241359876754962381138475269926813547892537614615294738473681952
308450090010070480420000006007830500009001008030905240500000073080320001000007900,378456192916273485425198736647832519259741368831965247592614873784329651163587924
380000500904630017700540008007810930502000074000000126090106050200097400008200003,386721549954638217721549368647812935512963874839475126493186752265397481178254693
900014007070000506346800000010065903080490750000203000850070104002000090001029308,925614837178932546346857219214765983683491752597283461859376124732148695461529378
800290350600017402090005001300002700000300045001480060004900518005060900280000007,817294356653817492492635871346152789928376145571489263764923518135768924289541637
000700203200340080006800740057200000309004000820000651710003908000001005640590072,498765213271349586536812749157286394369154827824937651715423968982671435643598172
400070000001002305700168020560000000200410800803296007007009058300050094008000106,492573681681942375735168429564387912279415863813296547147639258326851794958724136
104000067057009020000000001200037019000062450093080600600004008021005030389170000,134258967857619324962743581246537819718962453593481672675324198421895736389176245
509300007000008390064002081000040000041506802037100005020490010705020940000760003,589314627172658394364972581856247139941536872237189465623495718715823946498761253
000070169800000300506100040003054901001203007705000600090010502000306804320098000,432875169819642375576139248263754981981263457745981623698417532157326894324598716
006058010009000073000943000071020005005009860890001004030000658050036200207400030,346758912589612473712943586671824395425379861893561724134297658958136247267485139
007402030000086900090350021100020800084703000005800193630000005021970080000000240,517492638342186957896357421163529874984713562275864193639248715421975386758631249
200304000005700613009000000050806070300200008086019020020048097904100050100070204,217364589845792613639581742452836971391257468786419325523648197974123856168975234
090300806004001050500000097040685000700010002659000000002560300000904010086073900,197352846864791253523846197241685739738419562659237481912568374375924618486173925
008000001900040750732605090150300000006002540020080607413000008009008120000700036,548927361961843752732615894157364289896172543324589617413256978679438125285791436
