000000600000008075904600230000450007007200061103900800500067040060020983042130000,385742619216398475974615238628451397497283561153976824539867142761524983842139756
035910008680400000040007502200090060004206057007001000306080400000005371021004080,735912648682453719149867532253798164914236857867541293376189425498625371521374986
003400150506073409090820000010000500400007038068902700980001600700060045000038020,873496152526173489194825367217384596459617238368952714982541673731269845645738921
670040910080905700200800000902030100004006020850017060496700080000000006130020570,675342918381965742249871635962438157714596823853217469496753281527184396138629574
008090040109800207005007039802406000900025604030001000200000501701054300000039002,378592146169843257425617839852476913917325684634981725243768591791254368586139472
001080309023509700000040160849065030500000000730020008090470610000100052068300400,451687329623519784987243165849765231512834976736921548295478613374196852168352497
600100409070004050010000608097060040080031000005800206009000780032047105000502030,623158479978624351514793628197265843286431597345879216459316782832947165761582934
000030504080070290006214000075460000300809010941000005700390000120600370000000852,217938564483576291596214738875461923362859417941723685758392146124685379639147852
071005003640079000080200009020090340000608050705140000304080602100020005068700090,971865423642379518583214769826597341419638257735142986354981672197426835268753194
009053600702400008035280070007809103400027506080100000103004000064000012000000039,849753621712496358635281974257869143491327586386145297123974865964538712578612439
006370010700064300002080600009140000608200500030000270200009064400705920081000003,896372415715964382342581697529147836678293541134658279257839164463715928981426753
000080510380002700700430020038000079400500100201094630020000806090750000650100090,942687513385912764716435928538261479469573182271894635127349856893756241654128397
700004530000906020800010009590000040306002710001070906900048603420700058000153000,769824531154936827832517469597681342386492715241375986915248673423769158678153294
037004000900083005010790800100008030020056090790240500580030601060025409004100000,837514962942683715615792843156978234428356197793241586589437621361825479274169358
090018007700200804006309000084000100305000042260090000000050618150047030030800070,592418367713265894846379521984732156375186942261594783427953618158647239639821475
103590080460230005200006700580069401040008360010000000600700504000023800000040279,173594682468237195295816743587369421942158367316472958629781534754923816831645279
000000052200809001040005078050308020002064300907100060009200010100087540476010000,798431652265879431341625978654398127812764395937152864589246713123987546476513289
010030070000800000243090510060005800009670040007012300006400189804003005050200600,618534972975821463243796518162345897539678241487912356326457189894163725751289634
009507028402060090000300100050084003000001907918030006241000000070205040800010600,169547328432168795587329164756984213324651987918732456241876539673295841895413672
406920000009870400007000650700081000064500308300600912000000261200409800058003000,436925187519876423827134659792381546164592378385647912943758261271469835658213794
006000490410000285705029000034050608000800130900107000000360050057000040200080901,326518497419673285785429316134952678572846139968137524891364752657291843243785961
640105080803070000100200900700000500090040306010082009002906003305004001060050700,649135287823479165157268934734691528298547316516382479472916853385724691961853742
000502700900400085208901034506804090040030000007000021460009000013706000002000150,634582719971463285258971634526814397149237568387695421465129873813756942792348156
040010509008407300219050600600325800100060423000000000700608000050002170093000004,347216589568497312219853647674325891185769423932184756721648935456932178893571264
003085600200301000007640903600010400079200058010007009052004000006900001040003872,193785624264391785587642913625819437479236158318457269852174396736928541941563872
263000000000000095700081240015930002070000610400002908600840030040600700091705800,263594187184267395759381246815936472972458613436172958627849531548613729391725864
610008000050609082002130004309054000008000750260300000780090560500040029000081300,617428935453679182892135674379854216148962753265317498784293561531746829926581347
080600050091704600200310000104009500830006090000508073900000307042007006016020080,483692751591784632267315849174239568835176294629548173958461327342857916716923485
500406010082010300000003058100920700078600005496500130905000000300002904007100060,539486217682715349714293658153924786278631495496578132945367821361852974827149563
008009020040800309071360800000000017009034502080907004097010050000005060530640000,358479126246851379971362845423586917769134582185927634697213458814795263532648791
058064071460100830201080000930720500170006200006000090602090004080501000000000003,358264971467159832291387465934728516175936248826415397612893754783541629549672183
200976100016000000080000305300850000600009280000000074800700400932104600007062091,253976148416538729789241365324857916675419283198623574861795432932184657547362891
580010090000002300060700400401980650008000700957000030000003976100408000302690010,584316297719842365263759481431987652628531749957264138845123976196478523372695814
006054008925070003400600190010430070000095082580007000300000010700086200054002600,136954728925871463478623195219438576647195382583267941362549817791386254854712639
301000020020009765600000090000091300200806050070430008500140900000728046084000230,391657824428319765657284193846591372213876459975432618562143987139728546784965231
609703000000001098827009001000060000050002400348070020001407500500200603003900102,619783254435621798827549361972364815156892437348175926261437589594218673783956142
060054307007102800452000006040010730000090200008307000109400000070600490630800150,861954327397162845452783916546218739713596284928347561189425673275631498634879152
300000914000002007589070600034109000700084002010060038070500340090810005060000079,327658914641932587589471623834129756756384192912765438278596341493817265165243879
005090002021004806307100009050300400204710000730006900000030060012807300400002750,845693172921574836367128549156389427294715683738246915579431268612857394483962751
001568000000010690008300071020000000967000030005849020200100960070020405400670012,791568243532417698648392571824736159967251834315849726253184967176923485489675312
095800030100400060068007250020008005081000720307009084700035000030700609040620000,295816437173452968468397251624178395981543726357269184716935842532784619849621573
030800500261900340000020017059078120002100090700500403800406070000009000620005009,937841562261957348548623917459378126382164795716592483895436271173289654624715839
206000000150430009030867000040001000920500703060024085008009054000700302510040900,286195437157432869439867521845371296921586743763924185378219654694758312512643978
060420000790600804003007109401003070050090200920058030002006381800005000004010007,168429753795631824243587169481263975356794218927158436572946381819375642634812597
650007048000050102007000003200000401084600590700903000090032000500104060431709200,653217948948356172127498653269875431384621597715943826896532714572184369431769285
800900060026005000453000008010070800304000007607429050140080200005701003000642900,871934562926815734453267198512376849394158627687429351149583276265791483738642915
000010097080007562060509300007300006400000920000021084070650208003094000651002000,345216897189437562762589341297348156418765923536921784974653218823194675651872439
012500007354006800009040060780009300006007009000103200040300958020710004000800010,612538497354976821879241563781629345236457189495183276147362958928715634563894712
400060802020000000501904000002150073807002510009003004005049620060700039000080001,473561892926837145581924367642158973837492516159673284715349628268715439394286751
400070092083000760901020800302090001500600089007010506000700008140500320009003005,456378192283951764971426853362895471514637289897214536635742918148569327729183645
006300009590004000023805600200019504105270806060000030000000901704000200080102043,876321459591764328423895617238619574145273896967548132352487961714936285689152743
400900015023004097090530080076050003000001200000048050600020734050610009782003000,468972315523184697197536482876259143945361278231748956619825734354617829782493561
072095140600003050000480007004060281506030400780009300810000000003001796007004003,372695148648713952195482637934567281526138479781249365819376524453821796267954813
560090001300000547200001800006180200107050030002904056019306400080000000005040703,568497321391268547274531869956183274147652938832974156719326485483715692625849713
000600004750000290493007005001830040080500006002000107060409873020058000040310050,218695734756143298493287615671832549984571326532964187165429873329758461847316952
030100280906000007200905060405390000000008400300570028100006790043020005897000030,534167289916283547278945361485392176729618453361574928152836794643729815897451632
070800154520004000910300000490006200706000085000093060300400592040600871000012000,673829154528164739914357628495786213736241985182593467361478592249635871857912346
200070060040600810005483200890500026006000030701004905509200140300058000000001007,238179564947625813165483279893517426456892731721364985579236148314758692682941357
060347050001080060020000930030000609700460080800500102090025004185900700004016300,968347251351289467427651938532178649719462583846593172693725814185934726274816395
005000302008450700761008900046001007800500096030007524000384010200600008900072000,495716382328459761761238945546921837872543196139867524657384219213695478984172653
087690020050004070200005801600070198049010037000083000100200960903100500520000004,487691325351824679296735841635472198849516237712983456174258963963147582528369714
009000417040867090230000050070050300608003020010698000000100064090025830005040902,869532417541867293237914658974251386658473129312698745723189564496725831185346972
067002940001090060000000203200470850780300100900050000609001700004005012050860430,367582941421793568598614273213479856785326194946158327639241785874935612152867439
120804000080000603675100000569040007030007104000000052050302090407908306000010780,123864579984725613675139248569241837238597164741683952856372491417958326392416785
013090080450076009200430005940000061000020790305000000000052634820001050006007200,713295486458176329269438175942783561681524793375619842197852634824361957536947218
690000074702030050005010000500860000001403800008501027000080700200009036406327001,693258174712934658845716293574862319921473865368591427139685742287149536456327981
100050000873260500004301020035000069060028040407000001092480005716000000000700390,129854637873269514654371928235147869961528743487693251392486175716935482548712396
039200801004008000007000493050069087001070006070014200608700050200603000000085009,539247861164938572827156493452369187381572946976814235698721354245693718713485629
000026004403009081567008300010084000004200003280070009730005906008100700009600420,891326574423759681567418392315984267974261853286573149732845916648192735159637428
031008070050010900708200600002603000083740190000800005007900023004050000090102480,931568274256417938748239651512693847683745192479821365167984523824356719395172486
100700009702003640485060001607010005000870024000905700008000010000402930003690507,136748259792153648485269371627314895359876124814925763968537412571482936243691587
093006000050000208200100490800000020030700009609400105740805030006941070000003810,493286751157394268268157493814569327532718649679432185741825936386941572925673814
060010005007004010023970080000590106308200057090007200230060009040803060001050400,864312795957684312123975684472598136318246957596137248235461879749823561681759423
000700900760080042000105830000527100004000209080010050370008006002000095910403000,538742961761389542429165837693527184154836279287914653375298416842671395916453728
905100000070003900104008005702080041060540030003900208086070302009005000000020450,925164873678253914134798625792386541861542739453917268586471392249635187317829456
000001840000509200020380001904075006801002000076400900063007000080164700000930015,695721843318549267427386591934875126851692374276413958163257489589164732742938615
090000402007205008000040310102800090000620053085079000010008007643700000058100209,591386472437215968826947315162853794974621853385479126219538647643792581758164239
000010960093570801205800300008000150060001000730602080480000090000740000170308042,847213965693574821215896374928437156564981237731652489486125793352749618179368542
070031000400500900906002015805603024010009706000080050080400030043006007000027068,578931642421568973936742815895673124314259786762184359687495231243816597159327468
260001080078090450054807600043069708000032000010700040000210094086304001000000500,269541387178693452354827619543169728897432165612785943735216894986354271421978536
079800002600200508000300910005000009980106304064070020012930076840005000003040100,479851632631297548258364917125483769987126354364579821512938476846715293793642185
950000004006040870004216053200607090109005008080000320020950100000800400635074000,952738614316549872874216953243687591169325748587491326428953167791862435635174289
900034080460520090500680000003000940050917038600005070000092007000800001302406050,921734586468521793537689214173268945254917638689345172845192367796853421312476859
400020700006805009008640530070030900900001250020000006603500400500008021100397080,459123768236875149718649532875236914964781253321954876683512497597468321142397685
007020049000005306416090070054000000780200000302816700100473902000009061008100000,537621849829745316416398275654937128781254693392816754165473982273589461948162537
400206070050410000003000608006523180012800400000007009300081905270050006001090030,498236571657418392123975648946523187712869453835147269364781925279354816581692734
090653001706400800120000000000027100080590002009000360402860907008001023500000480,894653271756412839123978654645327198381596742279184365432865917968741523517239486
800700003004800120009032407300510900100040000082900060500000374070450090006080005,821794653734865129659132487367518942195246738482973561518629374273451896946387215
000940800360005070001027004042000008000003560600280001280590030009060400070100086,527946813364815279891327654742651398918473562653289741286594137139768425475132986
600109000870004100050030702043001000720050019000080503090006400260090070107002060,632179854879524136451638792543961287728453619916287543395716428264895371187342965
304020607906130200800000010600700305040610020002400800170804000005000098003095000,314928657956137284827546913691782345548613729732459861179864532265371498483295176
079306000800700046000052000605000098090200703000084020203010000084600109051070300,579346281832791546146852937625137498498265713317984625263519874784623159951478362
080026450005030068760001090020160030400000005108052009000019007307008000000070243,983726451215934768764581392529167834476893125138452679642319587357248916891675243
402710090003000004750830010020009645000006000081040029030070051978600030040003008,462715893813962574759834216327189645594326187681547329236478951978651432145293768
305100608000005270008000004027301050804029010900400006009000140000008003063570900,375142698496835271218796534627381459854629317931457826789263145542918763163574982
030208006102003490000000000960030000005710300720400000008974500600080270004605018,437298156182563497596147832961832745845716329723459681218974563659381274374625918
009000002020090476100708000000000205870400600300812049200005300405607008003041090,739564812528193476164728953941376285872459631356812749217985364495637128683241597
060100080010203500309000400020015600480307000001800037597000020600092104000706805,265149783814273569379658412723915648486327951951864237597481326638592174142736895
030005000800007601160900340240000500000003080500840027705068930009200010410070800,934615278852437691167982345248791563671523489593846127725168934389254716416379852
030090010006057400800102067061080000050300600023009070000008035100640980009025100,537496218216857493894132567761284359958371624423569871642918735175643982389725146
