059410700710005004080063000500187002060040893200000500900000008070230401604000030,359418726716925384482763159593187642167542893248396517931654278875239461624871935
003500814460900000201008930037010020590073040000005000740096001002800003000004507,973562814468931752251748936837419625596273148124685379745396281612857493389124567
080503040100086007047020008050702060000090500321000000900200476600051302830040900,286573149193486257547129638459712863768394521321865794915238476674951382832647915
100000605000700030580041000706009201002356900000070400028004070040008502050230090,179823645264795138583641729736489251412356987895172463928514376347968512651237894
090402000603700000002506700010800290000005043307140560135900000040010930006000820,791482356653791482482536719514863297869275143327149568135928674248617935976354821
160004002050908340084020000030050900000400067002810400571000006000007023903001050,169374582257968341384125679436752918815439267792816435571243896648597123923681754
091043507700090420086500010000605082000039705000087100062004000005020093837000000,291843567753196428486572319374615982618239745529487136962354871145728693837961254
057000900103040002900730508300007100000060080060904005009075006804000203610082004,457628931183549672926731548342857169591263487768914325239475816874196253615382794
900506420020007630540310008000070000050024709080600010800009006435000100600140507,973586421128497635546312978264971853351824769789635214817259346435768192692143587
040309028710850000309040000004001605020007000800000013601520080070063000003070490,546319728712856934389742561934281675125637849867495213691524387478963152253178496
700360000490000803081050260005000970014006000020910005000007032000190400568004010,752368194496721853381459267635842971914576328827913645149687532273195486568234719
900010500070300210060005307400050820000037940380120006705048000004000600126000009,943712568578369214261485397417956823652837941389124756795648132834291675126573489
050003200908200001710060009100705030000046002265080100070090600094000015600008043,456913287938257461712864359149725836387146592265389174573491628894632715621578943
000100000013000498764020300009870240001093000370500060007060800800209705500400010,985134672213756498764928351659871243421693587378542169197365824846219735532487916
092080301000270040003016078009002006206750000501030009017800403080000152000400080,792584361168273945453916278879142536236759814541638729617825493984367152325491687
032007100008510060001809007500004710000090005003120690080040000100650203406900080,932467158748512369651839427569384712214796835873125694385241976197658243426973581
000050702000013964908006010604020500500081403370009006060008000002700138000490050,136954782257813964948276315684327591529681473371549826765138249492765138813492657
006009042200000760000005010407068035020000000090104270301940050040800003059071600,136789542285413769974625318417268935623597481598134276361942857742856193859371624
010700400820600573000059000050008960702040000003000001060070890001205034000903705,516732489829614573437859126154328967792146358683597241365471892971285634248963715
510000890300906070000840300040007002806003907090001603005079064061200000007104008,514732896328916475679845321143697582856423917792581643285379164461258739937164258
000796005240501068000000000004000983708002006100305047080270004060003000957400100,813796425249531768675824391524617983738942516196385247381279654462153879957468132
810030090524070100907000600600000503002608000041020000060059074208004015000002980,816235497524976138937481652689147523352698741741523869163859274298764315475312986
070300001010086000000705640090007430008042010650090208309000500082059700000608002,976324851415986327823715649291867435738542916654193278369271584182459763547638192
002830006000540000680090000850001002370000514009604073090000705000280030040009128,412837956937546281685192347854371692376928514129654873298413765761285439543769128
200300090510608000007250300890000256000080700031500009060102087009070004300004520,286347195513698472947251368894713256652489713731526849465132987129875634378964521
100870390706005080902003001003090600800000547000528000000200074001006030250104060,145872396736915482982643751513497628829361547674528913368259174491786235257134869
906030020001000040350708000809604000030050600000120009000985007400007001608402053,946531728781296345352748196819674532237859614564123879123985467495367281678412953
069007050000200904750000180170640308080010405003090000620000000090065042007400801,469187253318256974752934186175642398986713425243598617624871539891365742537429861
301000008002060740490000020008100095600090100003527060159070003860450002000900070,371249658582361749496785321748136295625894137913527864159672483867453912234918576
000204038003800760097005004400307201100002050030060009705400800080020600016009502,651274938243891765897635124469357281178942356532168479725416893984523617316789542
000910500010000020907006800573060200000023004009580706300170040002005008065830100,234918567816357429957246813573469281681723954429581736398172645142695378765834192
003000090200490680905706300030020804070005009042300016000500000620130007000082400,463258791217493685985716342539621874176845239842379516394567128628134957751982463
010830605003092800070105094704000200930000001105603000640070903200050478000080000,419837625563492817872165394784519236936728541125643789648271953291356478357984162
900061007006020030002900840000035000140000763060000980400000201090800050500743000,984361527756428139312957846879635412145289763263174985438596271697812354521743698
019005027400090000800000060092001650700206049000038000104070035250403800008060100,619385427423697581875124963392741658781256349546938712164879235257413896938562174
072006013080003090604590000000609381021080059060000700700000060503700040000104807,972846513185273496634591278457629381321487659869315724748932165513768942296154837
002906408098003610000004700570809031001300870000020060060508009004000000300071520,732916458498753612615284793576849231921365874843127965267538149154692387389471526
080027900100900740003000000690058020000060800500000490735140600200680000004700312,486527931152936748973814265697458123341269857528371496735142689219683574864795312
020048061400900700008350000805000002003460007007092605906000108510000004000013020,329748561451926783678351249865137492293465817147892635936274158512689374784513926
060095040700200100290730065050000709680500000030918000018400052004360008000000014,863195247745286193291734865152643789689527431437918526318479652524361978976852314
008000030300800609096007250802091007400086000050200100207650003001403590000000004,578962431324815679196347258862591347413786925759234186247659813681473592935128764
048060100003000020006970038294500000000002600007100003175820009000305070800090014,948263157713458926526971438294536781381742695657189243175824369469315872832697514
700201000034080006060400908000009030850006700900050401180590043005073020020600080,798261354534987216261435978416729835853146792972358461187592643645873129329614587
000080205030102080400050010009008400010060057600390000200040369506000002308900071,167483295935172684482659713729518436813264957654397128271845369596731842348926571
080000002036800405510007009002003540900108026100605700600372800000060010407000900,789456132236819475514237689862793541975148326143625798691372854358964217427581963
002060894905300002018400070000700000007019068004580037050003000080021506061007920,372165894945378612618492375826734159537219468194586237259643781783921546461857923
090600740003085012060030005086401000700060089100200000000000250048100006032059400,895612743473985612261734895386491527724563189159278364917346258548127936632859471
070300069000074005005906200000045030309120800408090017700000001060080053042700090,274358169196274385835916274617845932359127846428693517783569421961482753542731698
007082503020700004905003600790400200001060000403005081030070060600908045010320900,147682593326759814985143627798431256251867439463295781839574162672918345514326978
600314028700085040000000900019400030000750104030090502053600070040000289002001600,695314728721985346384276915519462837268753194437198562853629471146537289972841653
005082006000040030360090804200106070050004100904708002408015900701063520000000000,145382796879641235362597814283156479657924183914738652438215967791463528526879341
150300008080710340000026700024080000006001072000030865010004906005000000349200007,157349628682715349493826751524687193836951472971432865218574936765193284349268517
080096005200070390007040128318400500506087004000000000071008003029603010005000962,183296745254871396967345128318462579596187234742539681671928453429653817835714962
200450090069000700004003801030068010701200000050900203000846030000071908405020060,218457396369182754574693821932768415741235689856914273197846532623571948485329167
032800070580007100900364050005000007023400600400080390070041000006500002109203806,632815974584927163917364258895136427723459681461782395278641539346598712159273846
800907014200068070900010065090006750407300000035000002000050100002009030061740920,856937214214568379973214865198426753427395681635871492389652147742189536561743928
020000987030000456706004001019005000004618000000000803098071045000490670200506030,425163987931827456786954321819235764374618592562749813698371245153492678247586139
000700001020890470085001002007400060056002304230000080000386000903000010670904500,469723851321895476785641932197438265856172394234569187512386749943257618678914523
000001000468032500097080026700900401080300000902504730006000190500076200831000040,325691874468732519197485326753928461684317952912564738276843195549176283831259647
600108050000079061200005930000903702094060000003780000080050370040007109310200004,639128457458379261271645938865913742794562813123784695982451376546837129317296584
010030406006209000095040087200006070000007358030950001060800040504010009078002100,712538496486279513395641287251386974649127358837954621163895742524713869978462135
000306800001082045005090700056007100000000009700400302020001006814020950307000008,472356891931782645685194723256937184143268579798415362529871436814623957367549218
094010508800090003070026000025007000080002906600400010002050090000000405301600070,294713568816594723573826149125967384487132956639485217742358691968271435351649872
600023859000100200530007001905060120080070030140290065300000087809000000001005400,617423859498156273532987641975364128286571934143298765324619587859742316761835492
045000020016502008000003007003000100002070850000249070090100640020805019007060000,345786921716592438289413567473658192962371854851249376598127643624835719137964285
000010320580003600092007804015430006804090201070000009000060002600801050037504000,746918325581243697392657814915432786864795231273186549458369172629871453137524968
000104006079005400008600200201009050560000800000040003040230097920076001083000000,352184976679325418418697235231869754564713829897542163146238597925476381783951642
530070000000060928000204000009050701051900802867000400090032076600100009040000103,532879614714563928986214357429658731351947862867321495198432576673185249245796183
018042000347061000090085070000020368700400105060009200021008050000003624005000009,518742936347961582296385471954127368782436195163859247421698753879513624635274819
040500006060809203003071009000700308009215040200060500015000070407032060082900100,948523716761849253523671489156794328839215647274368591315486972497132865682957134
860900000105007930020050004903400102700080049080001306071040050002800600500003020,867934215145627938329158764953476182716382549284591376671249853432815697598763421
070200006002730804509000000034010258900600100807002003350009020041350700000001600,473298516162735894589164372634917258925683147817542963356879421241356789798421635
900450302050020910010807000000500400608010070400360800780240650306000009002730000,967451382854623917213897564129578436638914275475362891781249653346185729592736148
080700036390050000140600009062104090000307605708000200000800020000506704971003008,285719436396458172147632859562184397419327685738965241654871923823596714971243568
000009210050008004203000065068740000020100039004900670500004900186005300070030026,847569213651328794293417865968743152725186439314952678532674981186295347479831526
010065048000900060009823007040008109320070005098030000007300600000010020630400050,213765948875941362469823517746258139321679485598134276157382694984516723632497851
006420930100900000208003740610050200030791500400600000060005308307040015000800070,756428931143967852298513746619354287832791564475682193964175328387249615521836479
007000016069050843000090502090027085800000200010406000030008007406005000002103498,527834916169752843348691572694327185873519264215486739931248657486975321752163498
105000978000047560300080002900700020800005004064200310590402600021900080007060000,145326978289147563376589142953714826812635794764298315598472631621953487437861259
020576010060000320000900807004010090503007040081000002450021603010090070700680900,328576419967148325145932867274813596593267148681459732459721683816395274732684951
409001705800007340006040002020105000700200830001708009204089007050000960007506003,439621785812957346576843192328195674795264831641738259264389517153472968987516423
008527000047080050090000200500002000080046003016000907800000041020400305700931680,168527439247389156395614278573192864982746513416853927839265741621478395754931682
003870000420000098950400100160000280832600070009005000000504009070090061006012043,613879452427153698958426137165937284832641975749285316381564729274398561596712843
050006100080709430704000085106980200043075008000600090610000009002403001008190002,359846127281759436764312985176984253943275618825631794617528349592463871438197562
290510670060702001000400890800160050340000700019004000072903040100050086000000300,293518674468792531751436892827169453346825719519374268672983145134257986985641327
107900000680007002009000040000509010002603908500420600203001086008050107704306000,147932865685147392329865741836579214472613958591428673253791486968254137714386529
050006310030942700000000008500030407009070500800420060021800093060001800907060020,254786319138942756796513248512639487649178532873425961421857693365291874987364125
090376000020090003006005018007824000010700024900003580050402001300060090074001350,198376245425198763736245918567824139813759624942613587659432871381567492274981356
037050061000008000005320740000204050108060004006037102040080025790041003083600000,837459261264178539915326748379214856128965374456837192641783925792541683583692417
900040208000600749500800000289500100430170006060032500021409070004053800700006003,976341258813625749542897361289564137435178926167932584321489675694753812758216493
300040000870920030004006500006300097000800401521000060040180320908070006030050900,369548712875921634214736589486315297793862451521497863647189325958273146132654978
000090020048000600059200078500004037100830050002700100090056040007100003360020809,713698425248573691659241378586914237174832956932765184891356742427189563365427819
047020000309067842000000001008090023401000070005003600804506010670940300500078009,147829536359167842286354791768495123431682975925713684894536217672941358513278469
020806900040031700803970000000005809010403006605107002089060003002000000400200681,721846935946531728853972164374625819218493576695187342189764253562318497437259681
074050090060008430030102000940700250102060079053080600090300561000504820000010007,874653192261978435539142786946731258182465379753289614498327561617594823325816947
080069005400100903760000180002691040040070508300004000090005006000010702570300490,183469275425187963769532184852691347946273518317854629291745836634918752578326491
100400300400700056005021007004910002900030071802540000207603800390058000060000090,179465328423789156685321947734916582956832471812547639247693815391258764568174293
090618000007500100082009004050003406000000910060280030300100502009040007020030040,495618273637524189182379654851793426273456918964281735348167592519842367726935841
300159000758000001600720300002005098100093047009410060000060700080004009010207405,324159876758346921691728354432675198165893247879412563543961782287534619916287435
010890736000002005003704180069100008001039040005000003400658070080970250030001000,214895736678312495953764182369147528821539647745286913492658371186973254537421869
