032710500080060030407080200050600009700400001860209740900000070010000982200105304,632714598185962437497583216354671829729438651861259743943826175516347982278195364
009703000700000608800015090000490210004502000900076800406000300301800475500307020,269783541715924638843615792657498213184532967932176854476251389321869475598347126
490003010010200307203800060005000480000400003040701590508120600629005008100090070,497563812816249357253817964765932481981456723342781596578124639629375148134698275
000000090096005024010760005620051070708002309000008000839400100004000200005086043,587234691396815724412769835623951478758642319941378562839427156164593287275186943
000800000387001200010020500500900470900413008100600030020036040006050197000740020,295864713387591264614327589563982471972413658148675932729136845436258197851749326
076005000180700430500900062060040801005003040002001057400289003000000180390067000,276435918189726435534918762763542891915873246842691357451289673627354189398167524
008420019007300502400000300000090100560100070013080960000007095051034600004609800,638425719197368542425971386842796153569143278713582964386217495951834627274659831
000030706060852100004000090009307805005000240030460010700010080142000300083209070,851934726967852134324671598419327865675198243238465917796513482142786359583249671
300007000065003004000205908700100000800040103402706800503601200047080006091000500,328497651965813724174265938739158462856942173412736895583671249247589316691324587
070098610005000823000006400010009007207050931060000000048067350003080000900210004,472398615695741823831526479514839267287654931369172548148967352723485196956213784
003654980000002100002900563004108200900000000706000034500700600060389010041500070,173654982695832147482917563354178296928463751716295834539741628267389415841526379
900602400040081007000307206600500003010000025300079800002090340030408100850010070,973652481246981537581347296698524713417836925325179864162795348739468152854213679
030910502076004031000050004700038400008500003051000790060807000200400600490000085,834916572576284931912753864729138456648579123351642798165827349283495617497361285
700860305010092040060301800600000000305007401020680097000000070037040908108050002,792864315813592746564371829679415283385927461421683597956238174237146958148759632
300002087986300010210005600000000028005293000000010400008007095009031006060040803,354162987986374512217985634791456328845293761623718459438627195579831246162549873
000304000580600013109025006001000040498002700020009065003006009800070004062081050,276314598584697213139825476651738942498562731327149865743256189815973624962481357
009473001500000038020005070000020710040069003758000600086900000401230095030847000,869473251517692438324185976693528714142769583758314629286951347471236895935847162
506000920010020783070900060307090100650030004800501200000000000045206070900403018,586347921419625783273918465327894156651732894894561237738159642145286379962473518
030009081570060390000100605006300900900027106408000020200413500000580009140070000,634759281571268394892134675726341958953827146418695723289413567367582419145976832
000560908802900750070120034080090006790003510014200000600000400000045070031800000,143567928862934751579128634285791346796483512314256897657312489928645173431879265
069002043800304005000070100020009600450000010706038000005080920382700004001056007,569812743817364295234975186123549678458627319796138452675483921382791564941256837
010000653740001020038009004504030106000500070860002900200710308376800040000020000,912478653745361829638259714524937186193586472867142935259714368376895241481623597
070084003900030004380702160810075000000600020005043001740000800600000315021090000,176984253952136784384752169819275436437619528265843971743561892698427315521398647
140800050000006790900400006008007960012004007307500028504100003009600805200003000,146879352825316794973425186458237961612984537397561428564198273739642815281753649
300800407076503000900060000060100590040620700800000000405000102003700080720419650,352891467176543829984267315267134598549628731831975246495386172613752984728419653
087000209009100760400003005010050640600308000500240013030674850002009070000800300,187465239359182764426793185213957648694318527578246913931674852862539471745821396
060190400900000020073652008090300051050020007001008030104085060500730200006400003,862193475915847326473652198297364851358921647641578932134285769589736214726419583
900701020005083000604090830097000208503200009000050004006007403012068700000100600,938741526125683947674592831497316258583274169261859374856927413312468795749135682
000006000587002003360900410090018070605000302400050100009704605000320040030001709,941836257587142963362975418293618574615497382478253196129784635756329841834561729
000506700960003401200070308300080007400090205025001000170430080003060900098002004,834516729967823451251974368319285647486397215725641893172439586543168972698752134
001700800003004200720350040800070601069400030000095082050000006000049010938102070,491726853583914267726358149845273691269481735317695482154837926672549318938162574
002158006570020000960403800300000219897040305020600070000860901004700000000005600,432158796578926134961473852346587219897241365125639478753864921614792583289315647
000300020080006759060025004053001098049080000700460001034018070270000600000700145,415397826382146759967825314653271498149583267728469531534618972271954683896732145
020300617084005002600109008002096050000000083510002000047051090306070400000600070,925384617184765932673129548732896154469517283518432769847251396356978421291643875
003480020472310000000000009000603045058000700700000010040805061600927080205004003,593486127472319658816752439129673845358241796764598312947835261631927584285164973
008730260090000047000290100400801030300000005050060072270049601001005003863070000,518734269692518347734296158427851936386927415159463872275349681941685723863172594
002600040500018007078390601900006380240000005000150900009060008030007060010203009,192675843563418297478392651951726384246839715387154926729561438835947162614283579
900000005670014030000507420002800100001035000300000569003001690840706000700053204,924368715675214938138597426562879143491635872387142569253481697849726351716953284
470000080906014007030200050000070823008090605000503041040020090720058000100300760,472935186956814237831267459594176823318492675267583941643721598729658314185349762
010805620050403901003000800004079000960300007000001002300500000020100086801960405,417895623658423971293716854134279568962358147785641392346587219529134786871962435
790004200005000084010530600020096008300000900480001760000087103601045007900200400,793864215265179384814532679127496538356728941489351762542687193631945827978213456
004020703000096501190540800740080920052400000000000670007002000980010030406905100,564128793278396541193547862741683925652479318839251674317862459985714236426935187
020005700180400000063090040800007520400610903379000000091050400507003280000040106,924385761185476392763291845816937524452618973379524618691852437547163289238749156
092000507100409030000070640050800020608700300030106700007680004045000200209030008,492368517176459832583271649751893426628745391934126785317682954845917263269534178
000200350004078009076000001100050070650400008008013020002085013080607500040300006,819264357534178269276539841123856974657492138498713625762985413381647592945321786
030004960649020000807030500208300070004250030005047108700006890013000700000500001,531784962649125387827639514298361475174258639365947128752416893413892756986573241
030000005005008124100009076060401539010073800000500400400090000609800701023105000,236714985975368124148259376867421539514973862392586417481697253659832741723145698
005090610000007902860005307704038001180040000920060500502400000010270030300800109,275394618431687952869125347754938261186542793923761584592413876618279435347856129
004086070060009140310500000800705920005040080490020300509300008007001500020007060,954186273768239145312574896836715924275943681491628357549362718687491532123857469
009002030035010780000680004300120506080400003001005070200079100407000000090040320,849752631635914782712683954374128596586497213921365478263879145457231869198546327
000630075005001004080904020090000700010483000624100008002540300369002050000070610,241638975935721864786954123893265741517483296624197538172546389369812457458379612
640070051030000000907400002051038940080002705000060010008040090023015804000006100,642879351835621479917453682251738946486192735379564218168247593723915864594386127
002010705003748020060020018000054900100200006047900030409100207600300800050076000,982613745513748629764529318326854971195237486847961532439185267671392854258476193
400000365900401280000530100000600020069708000305009400090070010002000048741200950,417892365953461287826537194174653829269748531385129476598374612632915748741286953
005010600760008040000903027001257038000800460902036000590040000028070091100300000,235714689769528143814963527641257938357891462982436715593142876428675391176389254
010060000000804030900500410400238700071000002060000953087450206603970005092100000,814369527725814639936527418459238761371695842268741953187453296643972185592186374
200901008000340060005200409007810093062007000810000007680700500030020070009054031,246971358198345762375286419457812693962437185813569247681793524534128976729654831
080000900065070008103000205004650000050093001008047036040106083070039640200000009,782315964465972318193468275324651897657893421918247536549126783871539642236784159
732605000800300090005004000500021300009003854078000260206900140000400603010200007,732695418841372596695184732564821379129763854378549261286937145957418623413256987
009504170300000000508062030000200045000089002601000800002710900800346500036900700,269534178314897256578162439983271645745689312621453897452718963897346521136925784
301080604080070519000060000040290807750103090206000000009507301802000400000034062,371985624684372519925461738143296857758143296296758143469527381832619475517834962
000300870030001402002070065200709000501000008408000629000935000700460100040100906,654392871837651492912874365263789514591246738478513629186935247729468153345127986
061300050200080903080005072070091408000070000614002000120047060050000089300050001,761329854245786913983415672572691438839574126614832597128947365457163289396258741
804000050020000736006290000008300000070058010360040920200600041000025007593007800,834176259129584736756293184918362475472958613365741928287639541641825397593417862
800035100250000304009008006300040201060080070004060009090720000048001007107006503,876435192251679384439218756385947261962183475714562839593724618648351927127896543
000709200060005103038104005007600008800007090451000600510003060000046702004820500,145739286769285143238164975397612458826457391451398627512973864983546712674821539
070900231003508900064010807300000068001200504050006009040807003000020010596430000,875964231213578946964312857329745168681293574457186329142857693738629415596431782
000805400500030006000120073269000000180400300003010709048700030025006810070009000,732865491514937286896124573269573148187492365453618729648751932925346817371289654
030001050260090001800004207050003180000520006987010000010600400409080030300705900,734261859265897341891354267652973184143528796987416523518639472479182635326745918
800472005560108900237000000140009030003010000002650407000080103000065024709000580,891472365564138972237596841145729638673814259982653417456287193318965724729341586
060009120540610080008507030007140900020300604010095008831000007609002000000000590,763489125542613789198527436387146952925378614416295378831954267659732841274861593
060030750000205003070000084409700000053001062800050910040580000208060300501900870,962438751184275693375619284419726538753891462826354917647583129298167345531942876
300006520670840000082905000203680410001000703790000000010700862000490305500000190,349176528675842931182935647253687419461529783798314256914753862826491375537268194
050300008700206000100470063000080000035601040200500109008027630690005007002804010,456319278783256491129478563941782356835691742267543189518927634694135827372864915
000500490600472500007000300060004009900081050203900601090320080340700000105800006,812563497639472518457198362561234879974681253283957641796325184348716925125849736
003920107070630004009018065005009600000400000482001000010070930300002058827000406,653924187178635294249718365735289641961457823482361579514876932396142758827593416
005030008300090210000674090040059306002800000607102900020406150069000040100005007,495231768376598214218674593841759326952863471637142985723486159569317842184925637
000900000520006001000402768010307096800040052093080400000000040900730005680000203,768913524524876931139452768415327896876149352293685417357268149942731685681594273
600054010402008003538009000200095061170430200006020900000062479000000300005700028,697354812412678593538219647243895761179436285856127934381562479724981356965743128
000060890060708300720100400600004000850003921370890000000000500003950078090482006,431265897965748312728139465619524783854673921372891654286317549143956278597482136
080130540064000200201060098945000000600720003007008010000054302800070900090680005,789132546564897231231465798945316827618729453327548619176954382853271964492683175
000070000500609307004205801060784050049000000800002630100300000002906070705041902,913478526528619347674235891361784259249563718857192634196327485482956173735841962
085000913003009600460000080300160008890040052007002400002510040700200060041600075,285476913173859624469321587324165798896743152517982436632517849758294361941638275
310002094200908050000007602091500706006090348000204000870305009640000001050400080,317652894264938157985147632491583726526791348738264915872315469643829571159476283
400051000002403009058007000790000820030000046200060503580000072040090065601004030,463951287172483659958627314796345821835219746214768593589136472347892165621574938
780001020100030006005048000300080000020900600400072590004007210859026040070300008,783561429142739856965248731396485172527913684418672593634897215859126347271354968
070080005503070601204100090300400900050210860620003047000050014100006080092300000,971682435583974621264135798317468952459217863628593147736859214145726389892341576
010090307240000000700008059007006490005270001030005080800500060001400908092301000,518692347249753816763148259127836495985274631436915782874529163351467928692381574
000009027030540000010083060006107805070004030008200000053000002840006709002950140,584619327637542918219783564426137895175894236398265471953471682841326759762958143
281704600000000400300980500009470000600300008700000021023005070005090830070601009,281754693596123487347986512819472365652319748734568921923845176165297834478631259
720060400010704000000391607500086090090400230004130008100005360973000801608000000,729568413316724985485391627537286194891457236264139578142875369973642851658913742
350080407400005010067003050003916500800070900000000062100064300080300276000290008,351689427498725613267143859723916584846572931519438762172864395984351276635297148
040057069008300100520000040460100200100890004032006000900008052005400310610003070,341257869798364125526981743469135287157892634832746591973618452285479316614523978
170060400000010020000845307030900065050700082090051700245006003008402090760080000,173269458584317629926845317437928165651734982892651734245196873318472596769583241
080090426000000500706520093000060000003251087060709052050000710204130800008904030,185397426932416578746528193527863941493251687861749352359682714274135869618974235
000800070048051200306900000072103049610005000003096120200000068900340010050207004,195832476748651293326974851572183649619425387483796125234519768967348512851267934
005270060030085100710000024060150040270903000800007001100064302903002750006000008,495271863632485179718396524369158247271943685854627931187564392943812756526739418
700500200001000840096000000300080079002609014064031000209070003050962007080013050,738546291521397846496128735315284679872659314964731528249875163153962487687413952
047006893000075000102000060003020009074080530600100480090050010080940200325000007,547216893968375124132498765813524679274689531659137482496752318781943256325861947
080050274010000090605094008000500100320008540400006027096000030100009002040703860,983651274214387695675294318769542183321978546458136927896425731137869452542713869
