060810400900040000307006015006402900000000007102680003021900050050107230080020006,265813479918745362347296815536472981894351627172689543621938754459167238783524196
103500006004000935020007000000030600075001043000762080961800400200050000000004197,193548726784216935526397814812435679675981243439762581961873452247159368358624197
700390420000005070062410800090670030501900200870030000000000000003008150080260009,758396421419825673362417895294671538531984267876532914647159382923748156185263749
905830070004561008010709002000090080480600709370000600000080301290004050600120400,965832174724561938813749562156497283482653719379218645547986321291374856638125497
079500680000001000053740002200009065030008000047020010005803021061007940080000300,179532684624981537853746192218379465536418279947625813495863721361257948782194356
000007060820005090000030105500984010009000003040012700480090602030200540150600008,395127864821465397764839125573984216219756483648312759487591632936278541152643978
790053080000007600003102070640510020230000054008000700006490012051008400000730009,794653281125987643863142975647519328239876154518324796376495812951268437482731569
308006010090400870000029405006005000000318002209070050000500001413000008800002097,348756219592431876671829435136295784754318962289674153927583641413967528865142397
010400090790800406006007200000010508680070039340590070500100760060009803200340005,812465397793821456456937281927613548685274139341598672539182764164759823278346915
980200065013000208607040130400190056100008000030056070305009480040003097002000600,984231765513967248627845139478192356156378924239456871365719482841623597792584613
080000376040079000250800000090064007603000500000210008700605280100740050008300090,981452376346179825257836419892564137613987542475213968734695281129748653568321794
605010030930047020040050600020000100010763480008500090090006500004002360380090071,675218934931647825842359617723984156519763482468521793297136548154872369386495271
100070256600009800800210074002800591003005000900600007076003029080900340004050000,149378256627549813835216974762834591413795682958621437576483129281967345394152768
500010704063070000000009508070080301016400009080002000002795010000800005009364820,598213764463578192721649538274986351316457289985132476842795613637821945159364827
700000090140023500600800002000430018800060000510000470005008700290507603000610040,732156894148923567659874132976435218824761359513289476465398721291547683387612945
800000501500784000023090070090006000140020306200370080015600009600030400004001702,879263541561784923423195678398416257147528396256379184715642839682937415934851762
007400010208093000540802700005000008800026035409000076063007040700059261000001300,397465812218793654546812793635174928871926435429538176163287549784359261952641387
007004560640080090019730200102000084380070000900100002230000000005860001000520709,827914563643285197519736248172359684384672915956148372231497856795863421468521739
080003260009057000501400700402010306300004050100800902007006001060900830800000070,784193265639257418521468793452719386398624157176835942947386521265971834813542679
601005000020016704000070906507090083008104000090300425005400308300060000009008270,671945832923816754854273916547692183238154697196387425715429368382761549469538271
006208000900000500030001084603090000450300106700600802800000205020006349010504700,146258973978463521235971684683192457452387196791645832864739215527816349319524768
005002094070300005400070028240619000000200030080030160600740900050080003107005000,315862794872394615496571328243619587761258439589437162628743951954186273137925846
009150000000000004060240813904607521000900070320000006000015007608490030030800240,849153762213768954765249813984637521156924378327581496492315687678492135531876249
190070240030206050007403010600009000280640000015000300052700408009300120700080000,196578243438216759527493816674139582283645971915827364352761498869354127741982635
012000860093258000005001009060000053500040700071009040400300070200186900030002000,712934865693258417845761329964817253528643791371529648486395172257186934139472586
086900043000500072200001506100038900043005700790000030074100020060420059020086000,586972143419563872237841596152738964643295781798614235374159628861427359925386417
046009007502000019009050080015730000600004000000080263820600405700291800003000170,346819527582467319179352684215736948638924751497185263821673495754291836963548172
928600000070083004003000690080010407006045903000700210000030056200870100000091730,928654371671983524453127698582319467716245983349768215197432856235876149864591732
058032600060010000049708100000543060602000004000000879900080540300109020020370008,158432697763915482249768135897543261612897354435621879971286543384159726526374918
028470030300900000007010256002840063009020074700000502006003080090060000410005090,528476139361952748947318256152847963639521874784639512276193485895764321413285697
000006208000590670030008051006700040043050820207940100190400000700030004050820900,475316298821594673639278451516782349943651827287943165198465732762139584354827916
010040009035008700008070160040002050600309200003016087502800001800694003090520000,716245839935168742428973165149782356687359214253416987562837491871694523394521678
710000050002000980500094200007520600030160092005040713003009000670250800000830407,719682354342715986586394271197523648438167592265948713823479165674251839951836427
000490500008700062405003100020560340150040009900078006030200900000031004270000080,712496538398715462465823197827569341156342879943178256634287915589631724271954683
100006370709020004003800009672000010030200007004030650050100400900008000016043085,125496378789325164463817529672584913531269847894731652358172496947658231216943785
002008100700040090600070024000390045081400730000500006470910502835000900020006070,942638157713245698658179324267391845581462739394587216476913582835724961129856473
076009001520000000301500200094003006100080350800076024000042000030000075647830090,476329581529418763381567249794253816162984357853176924915742638238691475647835192
500092640001307008040500000003080054907006002820730001400901203005000090070024080,538192647691347528742568319163289754957416832824735961486951273215873496379624185
020085006000400003798000420050096040000350080000200001307800200582004960006007100,423985716165472893798613425851796342274351689639248571317869254582134967946527138
004900020019000608503640100000009010060710205040803009800037401057000080320050006,674981523219375648583642197732569814968714235145823769896237451457196382321458976
407003106060005008058200049390006000000048270002050000701084060200600010009000835,427893156963415728158267349394726581516948273872351694731584962285639417649172835
000021974902000008000806000068500300094700000703000450809030760250004103010068009,685321974932457618471896235168542397594713826723689451849135762256974183317268549
000064070006318090048007003000000051090071000003650420250000108074093260600080009,315964872726318594948527613467832951592471386183659427259746138874193265631285749
790600000030104009800005076500007400682050000004002810000009250020048637000010048,795683124236174589841925376513897462682451793974362815468739251129548637357216948
200040800001006750074301002002000049603027000010500020060409030800050000000030591,296745813381296754574381962752813649643927185918564327165479238839152476427638591
009000708070000412102003009300160084800047020000805001030700060095002003400508000,649251738573986412182473659327169584851347926964825371238794165795612843416538297
200019000040000157070805030400070000935008000120000069000302500060190480008060071,253719648849236157671845932486971325935628714127453869714382596562197483398564271
002790010004200609050038000680000250109500004040001073006103005700056040023407000,362794518874215639951638427687349251139572864245861973496123785718956342523487196
000791800050023097060000000824000901001004052300070000000406020732800106400000039,243791865158623497967548213824365971671984352395172684519436728732859146486217539
006908100150000320904000070200034950000201780080607004030045002090060000740300500,376928145158476329924513678217834956469251783583697214631745892895162437742389561
005003900690020100003000704016300000920004530500702040000005820061009000700486000,175843962694527183283961754416358297927614538538792641349175826861239475752486319
003000090600870400004010738987035000000706540000200000216000070700902063350000800,873524691691873452524619738987435216132786549465291387216348975748952163359167824
600000074007201590004050302200400837070096000043002001001800650830000000095100400,652938174387241596914657382269415837178396245543782961421879653836524719795163428
085210060000000001690043700502006903013009008900074010206090500000000006140000327,385217469724965831691843752572186943413529678968374215236791584857432196149658327
090061000000002405570000630020006007803050040010308502009000810600870023200049006,394561278186732495572984631925416387863257149417398562759623814641875923238149756
070029005254600000100080037015700020003006900000004086700030100800500094091000300,378129645254673819169485237615798423483256971927314586746932158832561794591847362
800900007420006013003002900007100652000803700940050080705060000630700298010040500,856931427429576813173482965387194652561823749942657381795268134634715298218349576
007610054030040009200830000008000162600208000904000003760003045401070030009025006,897612354136547829245839671578394162613258497924761583762183945451976238389425716
080042950060000040030009008302406000048005001007300290095023006100008420000010705,781642953569837142234159678312496587948275361657381294495723816173568429826914735
580000000300060720004009068010057032200000000050034001038040070900001005400620180,586472913391568724724319568619857432243196857857234691138945276962781345475623189
000040930013005200000806500000208000020460073007900010701500004502010706084000009,658142937413795268279836541136278495925461873847953612761589324592314786384627159
030002109005800763007100040010490006270001030009060580000354000600008020081700300,834672159125849763967135842518493276276581934349267581792354618653918427481726395
007800001640700905052040030005029600030160800700405000060000310400090027009210008,397856241641732985852941736185329674934167852726485193268574319413698527579213468
004710000306500010020389000070140320200605009008090570100000083009062000057800004,584716932396524718721389465975148326213675849468293571142957683839462157657831294
000200003008750090309081000040090000005802040801000762900047080052010400400605170,574269813128753694369481527247196358635872941891534762916347285752918436483625179
102007089040010003900000004061200070703160005050800400020050030096480100507609800,132547689645918723978326514461295378783164295259873461824751936396482157517639842
000000040000835206000904857003007500050300061709201000800012300040068190207500004,528176943974835216631924857183647529452389761769251438896412375345768192217593684
540307800700500020009062100030901060900648000070000004200004010850000370600890500,542317896761589423389462157438971265925648731176235984293754618854126379617893542
500070308402903600010004027009608005841050700020010093050700200000040100003801004,596172348472983651318564927739628415841359762625417893154736289987245136263891574
080090006206801750300004001041050090900000070020340005030008060507060809800200103,184597236296831754375624981641752398953186472728349615432918567517463829869275143
000010460926500010000800035801230070057000000000008502792001050060400003003006827,385712469926543718174869235841235976257694381639178542792381654568427193413956827
210000600006095000070800005400012007000030800600507304008900020301040506009100078,215374689836295741974861235483612957157439862692587314748956123321748596569123478
001820900040000803007009060030706208750040000090012430010050090406070000500003146,361825974945167823287439561134796258752348619698512437813654792426971385579283146
000501700040030008608090020090207600072000059300140800000400930500308064007020105,923581746741632598658794321894257613172863459365149872286415937519378264437926185
800400003070020000006509702034806000060091005107000900500600809683010007020304050,892467513375128694416539782934856271268791345157243968541672839683915427729384156
408150007063000000000040289000006500700394060600080914090002400085000000170065320,428159637963728145517643289849216573751394862632587914396872451285431796174965328
050060048973500060060012300500001609040208073002090500000870000008036900700400010,251963748973584261864712395587341629649258173312697584196875432428136957735429816
500100738984060050003000060200905000067003200400800071002050400005290680710004000,526149738984367152173582964231975846867413295459826371692758413345291687718634529
208065007790100002040090300014000080000500600905230004002017039180000700603000500,238465917796183452541792368314976285827541693965238174452617839189354726673829541
030069402400701906070000000000600795002800600900154003240000007006038050010070280,831569472425781936679342518184623795352897641967154823248915367796238154513476289
905381006200400507000000300020060043008730601160009000704000000300610798000850004,975381426231496587846275319527168943498732651163549872784923165352614798619857234
016592300400000050000703006700004100025900084100200900090300078004071590030080020,816592347473168259952743816769854132325916784148237965691325478284671593537489621
040003091100982000650074800008040005300009107420060000070205600010090003000006924,842653791137982456659174832798341265365829147421567389974235618216498573583716924
008001060950000008006703045100050306602009010045800009091400020700000803860007000,438591762957642138216783945179254386682379514345816279591438627724165893863927451
000075320060408100790600400400360007001009080270100005040001062300090840180007000,814975326563428179792613458458362917631759284279184635945831762327596841186247593
240060000751040680000730050006523001070000062010008409000900005600410900980000700,243865197751249683869731254496523871378194562512678439127986345635417928984352716
400008210200070600061045000002500701009300008087009400000490053306000907050001820,473968215295173684861245379632584791149327568587619432728496153316852947954731826
014060020000007301600020400003500200002801009708000600800309050020005900940610708,514963827289457361637128495193576284462831579758294613876349152321785946945612738
010006000600700908900800051005020790007600030103040065300509240000012000050008307,518296473634751928972834651865123794497685132123947865381579246746312589259468317
060100030075400680003005102580000040000090000609203057046017020800000090057804060,268179435175432689493685172582761943734598216619243857346917528821356794957824361
000029806080103900004000310000002050019540007630901000503086041002090700860000003,351429876786153924924867315478632159219548637635971482593786241142395768867214593
000000186410092730750063002009001000005300098000024600070010500362057000080000004,293745186416892735758163942649581327125376498837924651974218563362457819581639274
000730100009600504020045080905100008084002006030080750347009200002004071000060900,456738192879621534123945687965173428784592316231486759347819265692354871518267943
037008210201009780000070064908300000000060070070840500462100000080500630503000902,637458219241639785895271364958317426324965178176842593462193857789524631513786942
000040000083900014900005826801070350002093008065000409209108600650002000700000030,126847593583926714947315826891674352472593168365281479239158647654732981718469235
405007020608140000179200060003020109000074500090800070000060008307015200260009340,435697821628143957179258463743526189816974532592831674954362718387415296261789345
200806000057090200100000037800210006000300014004005080340050000095038600681007050,239876145457193268168542937873214596526389714914765382342651879795438621681927453
010089060043205008000700400025030090900020307067048051090000000008000725004351080,712489563643215978859763412425137896981526347367948251596872134138694725274351689
084100906005002700010950080000008002001637400009040305300760809050300000600010003,284173956965482731713956284436598172521637498879241365342765819158329647697814523
030706010201400060009000053000000408004162300025009070063010000900058600807024900,538796214271435869649281753196573428784162395325849176463917582912358647857624931
