000000005091420630076801400400980070002000053800060001025070190084002300009106002,248639715591427638376851429413985276962714853857263941625378194184592367739146582
806002000070600100000074050005400081041008720009003600030051097400020068098000003,856132974974685132123974856265497381341568729789213645632851497417329568598746213
304007100000039007002000680109005006030000700060200549096400008010500200507082001,384627195651839427972154683129745836435968712768213549296471358813596274547382961
230000957070900430500040000900060003041000092026701000000600018800250000090013740,234186957178925436569347821985462173741538692326791584453679218817254369692813745
000000200706048590900032071030005080108006004000090030004017805090000706050264000,413759268726148593985632471639475182178326954542891637364917825291583746857264319
040508903009006050700400002105204000080600007007030160602007008098005004000900310,246518973839726451751493682165274839983651247427839165612347598398165724574982316
074003006306090001000008750040100035200807400039600870620000094053000000701502000,574213986386795241912468753847129635265837419139654872628371594453986127791542368
597020400000708006380010090040060053610809007030047008000082000004150020902300010,597623481421798536386415792748261953615839247239547168153982674874156329962374815
300070104800600003042050000200036900007100000030020685080007009600048310501900200,396872154815694723742351896258436971967185432134729685483217569629548317571963248
000006030037590208260010500400200175005700006000001090000000907029080013651003080,594826731137594268268317549486239175915748326372651894843162957729485613651973482
500090102002000607970003500439085010050400020060317000000000800143002900800650040,584796132312548697976123584439285716751469328268317459625934871143872965897651243
100304500005060703900000102006210304030006050802570006080050000057049800200007090,178324569425961783963785142596218374731496258842573916689152437357649821214837695
002003600070260190900070000060800517800009200005010300650048000098620004010500003,142983675573264198986175432469832517831759246725416389657348921398621754214597863
900008020052970040410006009000017000807600053320400060034020670090000008006501002,973148526652973841418256739569317284847692153321485967134829675295764318786531492
901500300250930001000204000000000000040607908680401020000023005800000274709805060,961578342254936781378214659597382416142657938683491527416723895835169274729845163
780160032002000506040900070070200005600037010093010480020603190008002600500400000,785164932912378546346925871871249365654837219293516487427653198138792654569481723
000000009830400270074065310050021004680007020200890600003102705006370901000000000,162738549835419276974265318357621894689547123241893657493182765526374981718956432
006003074027000039590001200300605090140900050000020807689100000000076003004850020,816293574427568139593741268378615492142987356965324817689132745251476983734859621
070402010940000503600090000020005108100076052006000430050200080730000006000839000,873452619942681573615793824327945168184376952596128437459267381738514296261839745
809000030600150000321000060503010090000007480010290500090761000004020000000008257,859672134647153829321489765573814692962537481418296573295761348784325916136948257
008002519090006000030107280760800304400205098009030100207000803050000900001460000,678342519192586437534197286765819324413275698829634175247951863356728941981463752
000060925345020060090007008024001030530092000809700400406008100000100050007050600,178364925345829761692517348724681539531492876869735412456278193983146257217953684
070000300000042960000953102420698000389000040000310000203060095600070010510000480,972186354135742968864953172421698537389527641756314829243861795698475213517239486
000800093002009160004310500301000240500080300070504008953700600000900004008123000,615872493832459167794316582381697245549281376276534918953748621127965834468123759
100203609086000070007810204000090005500630908020704030018000000300005010790420800,154273689286549371937816254643198725571632948829754136418367592362985417795421863
001200080900016030567090000670350010080049070204000906000504800050008701003100240,341275689928416537567893124679352418185649372234781956716524893452938761893167245
000063400005840200304000970900570008003002010010090650706009003120008060508420007,271963485695847231384215976962571348453682719817394652746159823129738564538426197
810003009060900210000000785700508604050097030104002007090070000320645000408200100,812753469567984213943126785739518624256497831184362597695871342321645978478239156
052070010307904008000006074025040003189203000003860000900001240010085609006000000,452378916367914528891526374625147893189253467743869152978631245214785639536492781
067810005020004030800000700050071084009003210070040506602000009035480000000590640,367819425521764938894325761256971384489653217173248596642137859935486172718592643
000049001048200370617000000002013800703406009560000200000308524009050006300070010,235749681948261375617835492492513867783426159561987243176398524829154736354672918
700053000096100040000020008500009012100070400302004600001830060043700500850000209,718453926296187345435926178574369812169278453382514697921835764643792581857641239
100600008058019024000007900910000482802070051040000000230105067500030009600420030,193642578758319624426857913917563482862974351345281796234195867581736249679428135
000890364026570000004000020000400071100309200548001006070000800089600050010203000,751892364326574189894136725932468571167359248548721936673945812289617453415283697
904010000068070030100092050097000003000800540080037269700080000500006490020403016,954318672268574931173692854697245183312869547485137269746981325531726498829453716
408000905010400362000730081000200000075006010021950600800000000063020750090107004,438612975719485362256739481684271593975346218321958647847593126163824759592167834
200300079300057008006004000050009003700100200908006100034800010090405080102060750,245381679319657428876294531451729863763148295928536147534872916697415382182963754
680057901041000730700900000030009406000080502008264000200006308007010600890045000,683457921941628735725931864132579486469183572578264193214796358357812649896345217
000805010480703509060020030600080001810040290003570400935000702000200000100400063,372895614481763529569124837654982371817346295293571486935618742746239158128457963
510408072000500800040093060002806000000300204984070000000010900630007005805200710,519468372763521849248793561352846197176359284984172653427615938631987425895234716
001507200730090004080210006009750002000043158804000900007300600060001790020000805,641537289732896514985214376319758462276943158854162937497385621568421793123679845
280096030000007000904050207706000050300028070140000600005100403010073069090842000,287496531531287946964351287726914358359628174148735692875169423412573869693842715
902040170600980200030057000010098052000000861004020000100073940506000003007400010,982346175675981234431257689713698452259734861864125397128573946546819723397462518
204001050068070200009056407000530021000000000850090630700040890400800003100369005,274981356568473219319256487647538921923614578851792634736145892495827163182369745
030400010709008600804009075200156000078900206000002430300700009090200760500004082,635427918719538624824619375243156897178943256956872431382761549491285763567394182
019580300400010867060003000500034000020900000003020056800100040000807902140005670,719586324435219867268473195571634289624958731983721456897162543356847912142395678
900170205005900871008402000200800060309007080100003904040001039003600500670000020,936178245425936871718452396254819763369547182187263954542781639893624517671395428
980000620204000019100003004809060207030089000750000000007531800040270056000094100,983147625274856319165923784819465237432789561756312498697531842341278956528694173
000140603500907002030008150072400500001062907900080000000000060840310200369050708,298145673516937842734628159672493581481562937953781426125879364847316295369254718
080000004015042806700500320000964100002000607004708005000010003308200050600037090,283679514915342876746581329537964182892153647164728935429815763378296451651437298
040006010027083590600070000890000000572010004003058620230060907054000800000591003,345926718127483596689175432896342175572619384413758629231864957954237861768591243
073010000600070400080005010006009002000000139030287054051090080800340760000002000,273418596615973428984625317546139872728564139139287654451796283892341765367852941
080200400712600800040507090060040901200710060038006020000003650400000207009125308,985231476712694835346587192567342981294718563138956724821473659453869217679125348
007900000138540760690003012300026004701000280080000005400109608902030000060070300,527961843138542769694783512359826174741395286286417935473159628912638457865274391
070000043240008000005190080600403079000900006007002310901005200403070600020080051,178526943249738165365194782612453879834917526597862314981645237453271698726389451
201035087000860240049000006500004710004002090076300008003016050080970000012000300,261435987357869241849127536528694713134782695976351428793216854485973162612548379
100005090020080007007230040098003000000802036000006075950040001006051023403000080,184765392329184657567239148698573214745812936231496875952348761876951423413627589
006083920079400100200006300000020430030905000007000058010648500400000001608500007,146783925379452186285196374561827439834965712927314658712648593453279861698531247
420000000900000150076019302810007006230800090004500708000090500360004021100602807,421385679983276154576419382815947236237861495694523718742198563368754921159632847
008069003035800400400200070000006085900300014020010060702640901100027540590008000,278469153635871492419253876341796285956382714827514369782645931163927548594138627
095070000000380200007046010010003060920800300000250049030610005700004028001709004,395172486146385297287946513518493762924867351673251849432618975769534128851729634
080007093000200416600905000415002000390070800728100600009001057270800000040020930,182467593957238416634915782415682379396574821728193645869341257273859164541726938
730001200080640051500029400000394020008000000406850007019000500040000036000267090,734581269982643751561729483175394628328176945496852317619438572247915836853267194
060109000200076401004050370025034900809000650100000080400001005706090042030007000,367149528258376491914258376625834917849712653173965284492681735786593142531427869
267900030000600004100053002002100059608000010003074080300060800580490600040310020,267941538835627194194853762472186359658239417913574286329765841581492673746318925
068407900001500000390002008050000002000056807730908604900670205020090346000301080,568437921271589463394162578856743192419256837732918654983674215127895346645321789
600090500380062970070000002800000390000810000062500014050120630000007008910003047,624791583385462971179385462841276395593814726762539814457128639236947158918653247
040005010050080009800092603095700280006540001180003007000030000409860300200104706,943675812652381479871492653395716284726548931184923567567239148419867325238154796
407006000020080005008031094006050280109070300000304001090028410230900000701600009,417596832923487165568231794346159287159872346872364951695728413234915678781643529
709040000025601000000300091031980400500002016687500300000470080003009650002105037,719248563325691748468357291231986475594732816687514329956473182173829654842165937
005090080063010700020430900208005060170600030000240000700800096001004250059007100,415792683963518724827436915238175469174689532596243871742851396381964257659327148
010050790097103008005400020009000104600217000008600000030005806504000372800020540,416852793297163458385479621729538164643217985158694237932745816564981372871326549
000302940070085000129400030700000810092003005601020000060090004400508060030060780,586312947374985126129476538743659812892143675651827493268791354417538269935264781
003040007090503042000780506108002700056004003030010800204906308670000029000000050,563241987897563142421789536148392765956874213732615894214956378675138429389427651
803040719004100030050006004908053001005280460320007500001300082000700006000025000,863542719294178635157936824948653271715289463326417598571364982482791356639825147
360002490702030006018400035207008001604000970030900000000013850089005020000006700,365182497742539186918467235297658341654321978831974562476213859189745623523896714
090560800060002094524000000030000900600030021000817006002091070407608030000703145,793564812861372594524189763135246987678935421249817356352491678417658239986723145
010000003020009504004327600700094002080750300000010059800230090540008260006500807,617485923328169574954327618735694182189752346462813759871236495543978261296541837
604000300800700090500930008009401000000870509706050020210000800003002075070043160,694218357831765294527934618359421786142876539786359421215697843463182975978543162
004000100201300065500209083070002001008500906003107040086000030900460020300875009,834756192291348765567219483479682351128534976653197248786921534915463827342875619
490800060000007081700634029081002003503000600200790000040280000602300004009010075,495821367326957481718634529981562743573148692264793158147285936652379814839416275
105008600006000070080420001070004065000080390602053408928000000301069004000215000,135978642246531879789426531873194265514682397692753418928347156351869724467215983
010090307980640050005807060600300800801905002000006740200708096003001020000250400,416592387987643251325817964679324815841975632532186749254738196793461528168259473
000361002094002600200000057302040705005103080086090010051600803007000029000507400,578361942194752638263984157312846795945173286786295314451629873637418529829537461
006100003050240106090000000040560000067000901301002500005007000400030870200904600,826159743753248196194376258942561387567483921381792564635827419419635872278914635
010000070260015003000790500020600900003000048470900320900006400000054080806030710,519368274267415893384792561128643957693527148475981326951876432732154689846239715
100043000096000004000007829300010600000500098027604000001200030840056070063000905,182943567796825314435167829358719642614532798927684153571298436849356271263471985
000180005400703080008025040200470900304006071500009002709801230630000500040000690,963184725425793186178625349216478953394256871587319462759861234632947518841532697
300000070100648030028097651080736400005000726000029000000001008042080300009000002,396152874157648239428397651281736495935814726764529183573261948642985317819473562
180007020000920600900400007490030070701005200006010308010680940003070502020500006,185367429374928651962451837498236175731895264256714398517682943643179582829543716
003009205480060739200400000700200008001630970500900106000508603900000007046001080,613879245485162739297453861769214358821635974534987126172548693958326417346791582
500700061608409507020010308000805000080040130794060002000000200072000004036091700,543782961618439527927516348361825479285947136794163852859674213172358694436291785
070160050900028004040030702100400000036000209002050178015940020800007060760000301,278164953953728614641539782187492536536871249492653178315946827829317465764285391
400008000000730001005069730080690405000007200900345060720503009608020050309400010,437158926296734581815269734183692475564817293972345168721583649648921357359476812
020000105000780002340005000050600019600048503000003670069051400007800200014360008,726439185195786342348125796453672819671948523982513674869251437537894261214367958
500039070000840006103700400028607500060000091307000008000008940670502100039400200,546139872792845316183726459928617534465283791317954628251368947674592183839471265
850900140001000903090270080240860000060102500000005000006050001907000306003610874,852936147671584923394271685245863719769142538138795462486357291917428356523619874
004060500030008020762094010907601200015800007000070430000100090200059840690007002,184263579539718624762594318947631285315842967826975431458126793271359846693487152
140060000009500740007800020008679500390000600000003000530016800002740005806002019,143267958289531746657894123428679531391425687765183294534916872912748365876352419
000630020000501380070009501002008000037402160680000450509810000020000010040300607,815634729294571386376289541452168973937452168681793452569817234723946815148325697
