010260803309004006005007040290000405500108020074009600061000059800700000002300701,417265893329814576685937142298673415536148927174529638761482359853791264942356781
415006002003002580700000601060000000059700104002048036000030050047109000900204008,415876392693412587728395641364921875859763124172548936281637459547189263936254718
050800207307001080400300600001650098908007405006000000020460019000090500604180023,159846237367521984482379651271654398938217465546938172725463819813792546694185723
008501040910040008200006300090054067001207509000300280820603005007000000640090020,768531942913742658254986371392854167481267539576319284829673415137425896645198723
050800090006040230740010006000930085405200960013008007600702000109460000078003002,351826794896547231742319856267934185485271963913658427634782519129465378578193642
007004013014076500520009000000010307000600085050328940803000000270090600091500024,967254813314876592528139476482915367139647285756328941843762159275491638691583724
020061507004700020090050841000800405600027009318900000000004008069000702507003100,823461597154789623796352841972836415645127389318945276231674958469518732587293164
010007042300180795605000000903050070000020084002008501041000360706902008500304000,819537642324186795675249813983451276157623984462798531241875369736912458598364127
030000060150080900004702080500800002006530407073000009689004000702903540040200100,238495761157386924964712385591847632826539417473621859689154273712963548345278196
301029000970500030850010002000201009000070600004080351060000070500430890208650400,341829567972564138856713942635241789189375624724986351463198275517432896298657413
010637500005001608200400390002703009946050002080000100301820006598000047000000000,819637524435291678267485391152763489946158732783942165371824956598316247624579813
800430000950700020030001008207300060000050190006000002080042076705090040023610005,872435619951768423634921758217389564348256197596174832189542376765893241423617985
000520001070008009903410500402000070001806005500003600300002108054900067006030000,648529731175368429923417586462195873731846295589273614397652148254981367816734952
536001800000000207024000516860715000009008000001030720900040005000803070043607009,536271894198564237724389516862715943379428651451936728987142365615893472243657189
000020306060950208084007000605000700070810590410070002507083000000000120009204000,951428376763951248284637915695342781372816594418579632527183469846795123139264857
200907300680050400019030600000041009300680002001005070040008900060200050507000010,254967381683152497719834625826741539375689142491325876142578963968213754537496218
608007000040800036030090150700450000986010042010200903005080004000001307091302080,658137429149825736237694158723459861986713542514268973375986214862541397491372685
080205060407000930030079801800040615200600008004310000006801093000090726005000000,189235467457186932632479851873942615291657348564318279746821593318594726925763184
903840260060000500000301087700020005035900610840100020002000000010076008057008300,973845261168792543524361987791624835235987614846153729482539176319276458657418392
020030800809002006540007010000450000006001030007203094705849100030000057200000609,621934875879512346543687912392458761456791238187263594765849123938126457214375689
420305700010070030000602904500790600036008000108030090804000506300400002060807040,429385761615974238783612954542791683936548127178236495894123576357469812261857349
000000009000051760740806250061240000800060073009500100030000000082013000017480905,156724389298351764743896251361247598825169473479538126934675812582913647617482935
700002830010000650058603001000406200007390018040800003960000007100074000302508009,796152834413789652258643791839416275627395418541827963964231587185974326372568149
709240010000300805000015004000000001063009070070824009105006007280000000604070130,759248613416397825328615794942763581863159472571824369135986247287431956694572138
300802609051000000600047001000001930002750006006304780027006500090100000405039800,374812659251963478689547321748621935932758146516394782127486593893175264465239817
060912000530800000002070140006504003089001060407000020103009087000080210900007504,764912358531846792892375146216594873389721465457638921143259687675483219928167534
070002305000000901540980000006100807920630010804205000008594002730001059000007060,679412385283756941541983276356149827927638514814275693168594732732861459495327168
000510690002480000000003108605000204370020050008900070006795020014800007500006003,483517692162489735759263148695378214371624859248951376836795421914832567527146983
002050900056009204000100078000600405030004820109280060070500003064037000001800059,712458936856379214493162578287613495635794821149285367978521643564937182321846759
300860200052041007480200010700024005009003000030690108020570040607008001800900030,371869254952341687486257913768124395519783462234695178123576849697438521845912736
910207000305000078000054000250003401800509300060010090020008006600900007004071020,916287534345196278782354619259763481871549362463812795127438956638925147594671823
701002008009000601024100030093806240000040105506700000002003570000078096630000000,761932458359487621824165739193856247278349165546721983982613574415278396637594812
008076001930004260700300004300048700690203008054001000020000980500102300086500070,248976531935814267761325894312648759697253418854791623123467985579182346486539172
006037000904208010502041600020004038700325400001700009000050090009600873180000050,816537942974268315532941687625194738798325461341786529267853194459612873183479256
000506700004800010107020590300000006705082041000490050630005870200031000009700030,983516724524879613167324598342157986795682341816493257631245879278931465459768132
600470081013000700580003009000000602000510070160920805000302000049081063700050040,692475381413298756587163429975834612328516974164927835856342197249781563731659248
300700501700000094094080620010095002068004000502360000007020000000956003000430810,326749581785612394194583627413895762968274135572361948637128459841956273259437816
900604035005009000001080000080001926007020004600390087004003071300700062700000890,978614235465239718231587649583471926197826354642395187824963571319758462756142893
007450021005006000040019860400600053000008790103070002260041008001200300700980000,687453921915826437342719865478692153526138794193574682269341578851267349734985216
100620070000000406058040091001070000030900024049863050006010803000702069085030000,194628375372195486658347291561274938837951624249863157726519843413782569985436712
000309058700060019003000000078020460400085072900003000010072840654100000020090130,246319758785264319193857624578921463431685972962743581319572846654138297827496135
000001520800207410040000003500834091107026080000000600030918007060050009002700840,679341528853297416241685973526834791197526384384179652435918267768452139912763845
580009030000054009201700000640100700000032908038000041060000570010020006700580010,584219637376854129291763485642198753157432968938675241863941572415327896729586314
100070800000000062903020507705002004040061008030540019007050421060089000350700900,126475893574938162983126547715892634249361758638547219897653421461289375352714986
800000060500300400060008001300012009074000000006070325900500600002481507010790830,849157263521369478763248951358612749274935186196874325987523614632481597415796832
100300450004806003002000907050160002000090080070043500801500096046002030930007201,167329458594876123382451967459168372213795684678243519821534796746912835935687241
040090102000704008503028000090071080060900340201050006900000600410030007807200054,648395172129764538573128469394671285765982341281453796952847613416539827837216954
008950120030040050901300000020090004080007530093600002705120006060700041002009800,478956123236841957951372468127593684684217539593684712745128396869735241312469875
072000006609078100050090003080100090306405010005260400000056080100903047020004300,872341956639578124451692873284137695396485712715269438943756281168923547527814369
609000000021600700045090082100074050400280300070069108002008971307050860000000003,639827415821645739745193682198374256456281397273569148562438971317952864984716523
403605009670003018001080400100470005062900700900000631820090000005100000004527090,483615279679243518251789463138476925562931784947852631826394157795168342314527896
003604090060080270040051000800407001507090000910200030052070006000000083470306020,783624195165983274249751368826437951537198642914265837352879416691542783478316529
190802750070000000002150408506030002783006900000040005038000100621009037000200604,194862753875394216362157498546931872783526941219748365438675129621489537957213684
820000590700030400001000083080273600090640000040009020006500700070020100500018002,823461597759832416461957283185273649392645871647189325216594738978326154534718962
090830000000015809500042060617500004084000020000009710003000200800706300400290507,196837452342615879578942163617528934984371625235469718753184296829756341461293587
403000067000079005080140200005201709010093054060800000800005430002008001900610020,493582167126379845587146293345261789218793654769854312871925436652438971934617528
000070000020091806790008520016050900083204000500000103040000601030906408805003007,658472319324591876791638524416357982983214765572869143249785631137926458865143297
019060500080002007070503910054009070700800309038410006502000104000020638000040020,219764583385192467476583912654239871721856349938417256562378194147925638893641725
430270060000050087090603500042000008800009036070501009269000014500040200010000070,435278961126954387798613542942367158851429736673581429269735814587146293314892675
600053004281000000040728009000065007030904082000800410100600300007040608005079000,679153824281496753543728169418265937736914582952837416194682375327541698865379241
010203900900004050840000600001090008007600205500008147030079000706010430004030082,615283974972164853843957621421795368387641295569328147238479516756812439194536782
170609508204080007090500000008040100000006003060003290002000630085130070409705020,173629548254381967896574312328947156941256783567813294712498635685132479439765821
500810000062790103000004907679008240100600005008000390040502000003000000920100608,597813462462795183381264957679358241134629875258471396846532719713986524925147638
900630010040000002185000004004709608002005000091020530050076090000800051700902080,927634815346581972185297364534719628872365149691428537458176293269843751713952486
050706000010000400070310095002009741000200083008075020001090658900620000340087010,859746132213958467674312895562839741197264583438175926721493658985621374346587219
300001002060000407507086090000000010008003005009147230010560009206008074040090003,384971652961235487527486391432859716178623945659147238713564829296318574845792163
075000403084607001006302000900800106400529008007001050000094000000030629010280070,275918463384657291196342587952873146461529738837461952623794815748135629519286374
000004070003021409700300521960003000502006007000500280280107000006080053407090800,621954378853721469749368521968273145512846937374519286285137694196482753437695812
786900000000000023012406009020009006804060070907130200053008047090005800000201000,786923514549817623312456789125789436834562971967134258253698147491375862678241395
005042300000500027800790400070206000900008010631054080059080230004000000000030196,715842369493561827826793451578216943942378615631954782159687234364129578287435196
000140800400070502705003060000008030091250000026000409200706105059480007030000600,962145873483679512715823964574968231391254786826317459248736195659481327137592648
500004710090200008406007300050100972200608000014000005003002400000080060721005093,532894716197236548486517329658143972279658134314729685863972451945381267721465893
000000074025360800907082500500010983860000050043000007030509102000830000604200090,386195274425367819917482536572614983869723451143958627738549162291836745654271398
590000320040009070007016500300007050021054908008030600630700004902805103000060000,596478321143529876287316549369187452721654938458932617635791284972845163814263795
500040809020000700780900360000030050000708040360190007400002006900815002003060108,531647829629583714784921365847236951192758643365194287418372596976815432253469178
908000000703001625500047001000600240030070000005432008062800900100004300080019406,918526734743981625526347891871695243234178569695432178462853917159764382387219456
700006052050780600010004009006010420000803000094020010980172306370000500400900008,748396152259781634613254789836519427127843965594627813985172346372468591461935278
000165207000043060000000438004052006070600802090000310100080753203907000086004000,438165297927843561561729438814352976375691842692478315149286753253917684786534129
000307100500408390206009080305100406067000030800000000009070840020094051008650027,984327165571468392236519784395182476167945238842736519659271843723894651418653927
000600007000025908963000100092400715710060003008002004040050020300708500100034809,285691437471325968963847152692483715714569283538172694847956321329718546156234879
056810049079502036000007020300080600014900002620001007001400850000030001935000000,256813749879542136143697528397284615514976382628351497761429853482735961935168274
460007100003296800708000009001500208002000005000180674080004050090370002054910030,469857123513296847728431569671543298842769315935182674387624951196375482254918736
032700000900601800000090064070320019300005000089006057095800023010042000006100075,632784591947651832158293764574328619361975248289416357495867123713542986826139475
008600030007004001602805900385072000400001002000060590070300080010020604590008000,148697235957234861632815947385972416469581372721463598274356189813729654596148723
028709000000320970006005310000004100510060020400080097001007005063100400290408000,328719546154326978976845312689274153517963824432581697841697235763152489295438761
304207050800400070072500100400010280030900000605000300009852010000006009060309048,314297856856431972972568134497613285138925467625784391749852613583146729261379548
008000209052400030060031700005003008000507901940060007000089604184000000003150002,318675249752498136469231785275913468836547921941862357527389614184726593693154872
000060000075290010001000598010800460003001800067054000036007009080000034200930007,398165742475298316621743598512879463943621875867354921136487259789512634254936187
050120380286070500009600074090306000800047000425000600070002400530000010001908005,754129386286473591319685274197356842863247159425891637978512463532764918641938725
050730000006280090704090026009400030000017005471900000090040100000000263230500070,952736814316284597784195326569428731823617945471953682697342158145879263238561479
080053410050209000007010092760040900900601003008900200020070040100004678300006000,289753416451269837637418592763542981942681753518937264826175349195324678374896125
803006250005438700040000900060082070270000080004070310000907003100004096002150800,813796254925438761746215938361582479279341685584679312458967123137824596692153847
020039700800010005900406103004070006060005302501008409300007600470020080005100000,126539748843712965957486123294371856768945312531268479312857694479623581685194237
000020540090007620067000900010000003502618000749052000050403070100080360600009080,381926547495837621267541938816794253532618794749352816958463172174285369623179485
000820000620105700983004000490700160206000005057901000000040002105006300000008549,571829436624135798983674251498752163216483975357961824839547612145296387762318549
000207094508004700000010360046708102950040008001000003100602400730080000000930500,613257894598364721427819365346798152952143678871526943185672439739485216264931587
180003900090500020005040001003400706050820030700096050910750002008200410076034000,182673945497581623365942871823415796659827134741396258914758362538269417276134589
502700000693000100007038005034050608960002070008003090000010039006840700010005402,582791346693524187147638925234957618961482573758163294475216839326849751819375462
350070020690000580002640007000200000203400010405086300000093146700000200000108000,354879621697312584182645937879231465263457819415986372528793146731564298946128753
140600900008200700060000083500030406074009000280407310630520001090780200005091000,143678952958213764762945183519832476374169528286457319637524891491786235825391647
