051306094409005000760010200005130860080607401000050300004003007003200100020900080,251386794439725618768419235975134862382697451146852379814563927593278146627941583
700000020096073008450200010800025067003400000000619300007800406905004200104900075,731548629296173548458296713849325167613487952572619384327851496985764231164932875
600205490004390001000470008960740580203001900000000072089100030400080000317000065,638215497754398621192476358961742583273851946845639172589167234426583719317924865
407010900260080710030200000000651000708009060040020390380000270000043085605070004,457316928269584713831297456923651847718439562546728391384165279172943685695872134
670091080010008200500400000000000105006042007109037040000270008205960703400005690,672391584314758269598426371743689125856142937129537846961273458285964713437815692
200000006690501080100206504300145207050000801040900000009320005000400370070058009,235874916694531782187296534368145297952763841741982653819327465526419378473658129
708145000900020040063008000070010280504300790210004500000081002030000906090206450,728145639951623847463798125376519284584362791219874563645981372832457916197236458
003050608006908015705040000568001300300007000010060204809300406000200090200009180,193752648426938715785146932568421379342597861917863254879315426631284597254679183
200900300001800500700032084090450007100200800063090001025000060006047908007006010,248915376631874592759632184892451637174263859563798241425189763316547928987326415
008120000460005023200004500300400009192080006000050800504709300006030041001006970,758123694469875123213694587385462719192387456647951832524719368976538241831246975
048030009000506300056000421900680005075020603000307092000490708139700000400015000,748132569291546387356879421923684175875921643614357892562493718139768254487215936
700018500400370062086090100005000000001037200840001000230056970090020054600800300,723618549419375862586294137375982416961437285842561793234156978198723654657849321
200000960075100803408000005900008502001600000050710340109240000030860000520073401,213587964675194823498326175967438512341652798852719346189245637734861259526973481
004050020802400600090007003080620490407008030009001005003060010070300250610900080,734156928852439671196287543581623497467598132329741865243865719978314256615972384
003000281204607500005031004407500300028009070560040020000950030030800009100006002,673495281214687593985231764497528316328169475561743928846952137732814659159376842
003000780050860201000030006028490000006000503790010000534002009100500602070089040,263951784957864231841237956328495167416728593795316428534672819189543672672189345
100050402602009070780430600209040031000006958070001000001000800050900320030078045,193657482642189573785432619269845731314726958578391264421563897857914326936278145
460300970007000018000510420300090040092080060500060803945000700708200030003004100,461328975257946318839517426386795241192483567574162893945631782718259634623874159
480900005050600720002500403070308500100040678000060092805079200003000041090103000,487932165351684729962517483276398514139245678548761392815479236723856941694123857
070005000936402001800160040008300079200600300060089400000000093307201000014008705,471895236936472581825163947158324679249617358763589412582746193397251864614938725
798005600500400002034800100000007051900002006163900800680000470020040000070309200,798215634516493782234876195842637951957182346163954827689521473321748569475369218
340001700501040060000852030790200005010030009006904800620508001000069207800100040,342691758581347962967852134793286415418735629256914873624578391135469287879123546
072495000900000006813000000080076150004980600300000002006703018001000473000240900,672495381945138726813627549289376154154982637367514892496753218521869473738241965
090520400031078500005600180080100000000400673070059002200096305003704090048000001,896521437431978526725643189382167954159482673674359812217896345563714298948235761
084509207510002390003006008900800170076010020800000050040900000160700005002043000,684539217517482396293176548925864173476315829831297654348951762169728435752643981
103007080280100500060092000000300896001900200005048070906015030300000054004680009,143567982289134567567892413472351896831976245695248371926415738318729654754683129
001503800650270030002009006030000040000700159040092007597080002060140703000000600,971563824654278931382419576739651248826734159145892367597386412268145793413927685
001600870058070293030090000060034900095002007000150042320000081084006000000205304,941623875658471293237598416162734958495862137873159642326947581584316729719285364
080004001300010950904003002100092030007005108090700006736208000000040600200309500,685924371372816954914573862168492735427635198593781246736258419859147623241369587
000060013530000040406501800000900064600702100850300907070080090300105602008409005,987264513531897246426531879712958364693742158854316927275683491349175682168429735
500004003120006057036000480098002004000470000060800712049520008370900000000001360,587194623124386957936257481798612534213475896465839712649523178371968245852741369
074001608000600790290004500007905861401000000000800302038020050100500000050009407,574391628813652794296784513327945861481263975965817342738426159149578236652139487
060400789200800050470190000180009603006004010752000800803721000000003000010650040,561432789239867451478195236184579623396284517752316894843721965625943178917658342
010008050040000207006097000970050480000100306002043070608205030400006010200030809,719428653845361297326597148973652481584179326162843975698215734437986512251734869
302857000070200180605090000000608307500020400034100209040000906956004003700003001,312857694479236185685491732291648357567329418834175269143582976956714823728963541
425090103030001009000460500000000200010009308900702000258000400603200007001058006,425897163836521749179463582367185294512649378984732615258976431693214857741358926
005091002730004060900230040540920010063700029000008600600100405874000003000080000,485691732732854961916237548548926317163745829297318654629173485874562193351489276
900800000057300020200405100605000000492050008010090070003701009860020410000046305,934812756157369824286475193675238941492157638318694572543781269869523417721946385
108000037040006000070200450009500040020104300050873012600020009085310600000008120,168945237542736891973281456319562748827194365456873912631427589285319674794658123
090008003473560000060000270000300006708450010000091420600070840501089000200100065,192748653473562198865913274914327586728456319356891427639275841541689732287134965
608000040030250060070003001000960008245007030906000700050374890000100500700086024,628791345431258967579643281317962458245817639986435712152374896864129573793586124
072008900031075008504900020008001405400060072090080100006094500809710360000003000,672148953931275648584936721768321495413569872295487136326894517859712364147653289
390701000005030000180500090400006508036208140970000020000003417002045806000800002,394781265265439781187562394421396578536278149978154623859623417712945836643817952
800070050000108073060900204300090001008004300670020590900083020007000015502400906,843672159259148673761935284325896741198754362674321598916583427437269815582417936
904000008670023500051804002702040010800069000000007309200008094030000685000510000,924651738678923541351874962792345816813269457546187329265738194137492685489516273
070609041130050000800340270906470008008010500000000069000020900400805010527003600,275689341134257896869341275956472138348916527712538469681724953493865712527193684
004980002015000064302001705060000000000068243700034600850010000200007901009020357,674985132915273864382641795463192578591768243728534619857319426236457981149826357
008400000940050376302109000003090048895010700700000060000800104206003050000570032,658437219941258376372169485163792548895614723724385961537826194216943857489571632
029000060060080300500007009030100008908400705700800420405030006001709002670540010,829354167167982354543617289234175698918426735756893421495231876381769542672548913
140758000008001000037009200280010540000003091905000600020040736070080054006000080,142758369698231475537469218283916547764523891915874623829145736371682954456397182
036090000087062000000000540009028304000700065100503800204300109003900670000071080,436195728587462931921837546759628314348719265162543897274386159813954672695271483
890500007200006014000030600700100326000907040650042800002790003080000160410028090,896514237235876914174239658749185326328967541651342879562791483987453162413628795
940708000007905200208300040710004030060000597000200010000030105500406083089012600,946728351137945268258361749715694832462183597893257416674839125521476983389512674
004300020000005810960200030780002040390180700000600500007049200000060384100503009,854316927273495816961278435786952143395184762412637598637849251529761384148523679
000195000500200084030000006089010200407036100053920040016409003000000790208070005,864195372571263984932748516689514237427836159153927648716459823345682791298371465
016000000008005004000921050070503000400017600001080209000030047290000108800069003,516348792928675314734921856672593481489217635351486279165832947293754168847169523
702930000500800204019056030950000000040002106000703080006400509100080003070010460,782934651563871294419256837957168342348592176621743985836427519194685723275319468
010350490090000052005480007650000000300090120800736040000004001972100030060000800,716352498498617352235489617659241783347895126821736945583974261972168534164523879
000002306080450910024930050600004007001390000540601080000010803709005600012000400,957182346386457912124936758698524137271398564543671289465219873739845621812763495
003406520007000080000903010000024050600700001024001390040002000060059408510600000,183476529497215683256983714971324856635798241824561397749832165362159478518647932
803100907950300400004020008100005062087400500200690010090860000071903000500070040,823146957956387421714529638149735862687412593235698714392864175471953286568271349
390081400000902060100340007760809005040520009000060130400700080908050706005000020,397681452584972361126345897763819245841523679259467138412796583938254716675138924
605004210000750000098000004900260000100000903043108007000010000004030568006802390,675384219421759836398621754987263145162475983543198627839516472214937568756842391
000002050781050006090600143907280010406700300012000000000800904500047600600301008,364192857781453296295678143937286415456719382812534769173865924528947631649321578
000001009093504802010070030270030004005000061400005380020407100089020070500009600,652381749793564812814972536278136954935748261461295387326457198189623475547819623
080739002600005980070000015502800103031002058000000060008301000200450009009600470,185739642623145987974286315562874193431962758897513264748391526216457839359628471
700002401500810239000300080904000006807503010200080740090176000012090605000200000,783952461546817239129364587934721856867543912251689743495176328312498675678235194
840000100530080700096005000000079810700000042050200007200496300001320060900500084,847962153532184796196735428324679815719853642658241937285496371471328569963517284
807340002003005040001000809600000090000007125059000078900276003304080000000930051,867349512293815746541762839672158394438697125159423678915276483324581967786934251
430000070009005000005371800800007165040020900007060020000806750012030008600900304,431289576789645231265371849823497165146523987957168423394816752512734698678952314
060270009000108003030005160002000670405000018100794000913600047700400026000000500,561273489249168753837945162392581674475326918186794235913652847758419326624837591
040008300000052017605000040031000709800503401020090060008067002109304056300000900,247618395983452617615739248531246789896573421724891563458967132179324856362185974
200065004740102850080009003502700300090000600067003109003080560900020007100050080,231865794749132856685479213512796348394218675867543129423987561958621437176354982
000002006400730200089104030300600190005008000060003504030070452008000000670490013,713582946456739281289164735324657198195248367867913524931876452548321679672495813
036400800005610409000075000087006500040080210300900040000704002028061030900000607,136429875875613429492875361287146593549387216361952748653794182728561934914238657
010540090000086052076900108400013500068000009700020030200700000094250306000001400,812547693943186752576932148429813567368475219751629834235764981194258376687391425
850264003000300100407000002020000510705840000040910078000009836100056020009083400,851264793692378145437591682928637514715842369346915278574129836183456927269783451
009016002003090600017020005000000000064800073520071904090005300030900280106034700,859716432243598617617423895371649528964852173528371964792185346435967281186234759
260003890000025400004607030009701300000090075670050080300804100401009060800000203,265143897738925416914687532589761324142398675673452981326874159451239768897516243
080020703000508040090174006030091508407300001800000000061000200270809004300065900,184926753726538149593174826632491578457382691819657432961743285275819364348265917
608090004003702510020000700360000402010005900090047050207960801400078600100200000,678591234943782516521436789365819472714325968892647153257963841439178625186254397
008070600203000050070500809040019576009306010010000000560790028804065000000240100,458971632293684751176532849342819576789356214615427983561793428824165397937248165
008010065000720980593000100050400007900086300016000500405100200270003009000058014,728319465164725983593864172852431697947586321316972548485197236271643859639258714
005081007000620400000050090060300128000000040710004506904507601076200003038900000,295481367387629415641753892469375128853162749712894536924537681176248953538916274
000071040692000007000500203000019560004300012800600074050908000973005806120003000,385271649692834157741596283237419568564387912819652374456928731973145826128763495
050370000076018004908400001043000008702000060000152000400900056060003010890520073,154379682376218594928465731543697128712834965689152347437981256265743819891526473
000530204392000800140000060001940600070005030408702000206010908000020370080409006,867531294392674851145298763521943687679185432438762519256317948914826375783459126
300000080601405007509730000200090600050010708804300009000006975020970030000000401,372169584681425397549738162217894653953612748864357219138246975425971836796583421
043800700160002093750000001070024000201708000005630008084050020000103906609000430,943815762168472593752369841876524319231798654495631278384956127527143986619287435
970106300050702019000000820160900000208430500007000000400050070005260930310800006,972186345853742619641593827164925783298437561537618492426359178785261934319874256
610000204000000053003268900490080005700301000028700061005420078080059000060003002,619537284872914653543268917491682735756341829328795461935426178287159346164873592
524010003809407001060038090000056700900100020053004100007900002002060507140300060,524619873839427651761538294418256739976183425253794186687945312392861547145372968
270060009090010380004507100036100050500480002400070030900002400700040063008906205,271368549695214387384597126836129754517483692429675831963752418752841963148936275
450063090070500021000001003020705010060090385100840900008407000300020004000019067,451263798973584621286971543829735416764192385135846972618457239397628154542319867
250060800070800300004000006061080004900024000802310950003640780090000010600507023,259463871176859342384172596761985234935724168842316957523641789497238615618597423
007200386002900500410000009060504170984003000000000030009172050108005400300000602,597241386832967541416358729263594178984713265751826934649172853128635497375489612
520107300010009007806050002003700600000304090080065140700906050401000800090030406,529187364314629587876453912143798625652314798987265143738946251461572839295831476
406089002030056910800300050200000500901700000004001370605040080098063040000210000,456189732732456918819372456273894561961735824584621379625947183198563247347218695
005207090740000000012005063976041002200380074030000106000930000000050827684002500,365217498749863215812495763976541382251386974438729156527938641193654827684172539
068007090102000400070290560001075020080003176230008000304000009059604700000010380,568347291192856437473291568641975823985423176237168945314782659859634712726519384
