600071230000850040001000607706490300035027000080000010050380460000000920023640008,648971235372856149591234687716498352435127896289563714957382461864715923123649578
060020000981400000007001580800003260000065907094000003040100020350670190209034000,563728419981456732427391586875943261132865947694217853746189325358672194219534678
902010700004800006380470002001605027500080060040009000030001984170060050000328000,962513748714892536385476192891645327523187469647239815236751984178964253459328671
780016430002000700009400025003658000200040090060930580100007000530190200007005604,785216439342589761619473825973658142258741396461932587124867953536194278897325614
005009013040780006020104000600001080070026300010403059068000094350002700007000500,785269413143785926926134875634591287579826341812473659268357194351942768497618532
000001062007005300001732500200050000764100800905640017046093100800000409003870000,359481762427965381681732594218357946764129853935648217546293178872516439193874625
050309080081005000407060200869070000510000307000016400002900053000004029030001604,256349781381725946497168235869473512514892367723516498642987153175634829938251674
600500000000002903000137082090060015840053700200710000010900804529400001007000560,632598147178642953954137682793864215841253796265719438316975824529486371487321569
010030040009000200700064008000000602070450103800700005340680700290010054507900010,618239547439578261725164938154893672972456183863721495341685729296317854587942316
380000290000070106000498050008006001050089327020350000204060930000540600100002000,387615294549273186612498753938726541456189327721354869274861935893547612165932478
400100205082000039903070600300054000820030074700806100000600958000082406010509000,467193285182465739953278641391754862826931574745826193234617958579382416618549327
000300567010540209200068040305000810000700002860004000504000900700020130008639000,489312567613547289257968341375296814941783652862154793534871926796425138128639475
005400000302010075007900316020001000049000007000703690030560040800020901054008200,165437829392816475487952316723691584649285137518743692231569748876324951954178263
000080009600470830002100070060001500904030060507809420030720001289000000176000340,743685219691472835852193674368241597924537168517869423435726981289314756176958342
490021060081000000600900304307004020000005079910006508068030007705082046200000100,493721865581643792672958314357894621826315479914276538168439257735182946249567183
300007500428130700000860001090782103502009004000000000100406390047300082000900005,316297548428135769759864231694782153532619874871543926185426397947351682263978415
060400500500280090700003100080710420002096001900004300100900650300050080240600007,861479532534281796729563148683715429452396871917824365178942653396157284245638917
900500060017080305023001040209800500700003090040000802061304000000670014000095080,984532167617489325523761948239846571758213496146957832861324759395678214472195683
072006040860003700000009058045010090000035100700960002600508009017040300000000207,572186943869453721134729658345217896296835174781964532623578419917642385458391267
050040000800000103702900480000105920091006000503709000010800205060002004400610870,156348792849267153732951486674135928291486537583729641317894265968572314425613879
018690500200300004000075030706002180090040706050800009009081300630000400001706020,318694572275318694964275831746952183892143756153867249529481367637529418481736925
040100830765000000003297006020040180107050020300800005600000490002314600070680200,249165837765438912813297546526743189187956324394821765638572491952314678471689253
000540071000000600500002830006020050493150000720390008060010482000007900941003000,638549271274831695519672834186724359493158726725396148367915482852467913941283567
601800000003010580007936002700600109180750260002004300006000900940000007000520001,621845793493217586857936412734682159189753264562194378216478935945361827378529641
740280003003700658005009040530017069000008070201060005000004090600050800180300007,746285913923741658815639742538417269469528371271963485352874196697152834184396527
000070050809201000160004200600508040548093100070010003400030920003007800010082006,324879651859261374167354298631528749548793162972416583486135927293647815715982436
000068090064235000810400000090600075072001300000049800200050001536000200100370406,723168594964235718815497623498623175672581349351749862247856931536914287189372456
100859620070010400000200080000003009400020100610070052002680003300402078509000060,134859627278316495956247381825163749497528136613974852742685913361492578589731264
005103082400090600063850907100045000000000060007000290086420103090001700540700020,975163482418297635263854917129645378834972561657318294786429153392581746541736829
002850009009000508000301604635070100000000060007210400080000730900735001000460205,462857319319642578758391624635974182241583967897216453584129736926735841173468295
200396007080040003006700400604001800908020501750600030500074920000000018000062000,245396187187245693396718452624531879938427561751689234513874926462953718879162345
004000601070260000005009083003000100710058090600000024890370000500012709000604018,924583671378261945165749283483926157712458396659137824891375462546812739237694518
300000000007200480249360000000890005500006100004017630601705020402081059030000700,358174962167259483249368571716893245583426197924517638691735824472681359835942716
307506020420000000000000671060002009000040056049013280052001738103709065000080000,317596824426178593895234671761852349238947156549613287952461738183729465674385912
000030000000004570320897410012305900054200008870010005009162000401708090000000600,746531829198624573325897416612385947954276138873419265539162784461758392287943651
030002007610807500008095016002003850500600704040010009190000000800900023706050400,435162987619837542278495316962743851581629734347518269193284675854976123726351498
500090000638100720009830054002005400890000030700480610080500060306710940010002000,541297386638154729279836154162375498894621537753489612987543261326718945415962873
000083920100070360060100040000000204034500809208039000000060000079005100041208650,457683921182974365963152748596817234734526819218439576825761493679345182341298657
003008000609050008100630450000002100870000000400067209060400597738001020050020010,543278961629154738187639452396842175872915346415367289261483597738591624954726813
084050021000030508060210070006040302002700006830605900040089005010004030705000010,384957621127436598569218473976841352452793186831625947243189765618574239795362814
630405020014080900007601800090000304000270060501030070020057010080002530300068000,638495721214783956957621843792516384843279165561834279429357618186942537375168492
020010703070269080104005060003081400090307000641000008200000005508406930030900001,926814753375269184184735269753681492892347516641592378269173845518426937437958621
980000043030200000001030902005003090208040706670002104106000507000401020009758000,982517643734296815561834972415673298298145736673982154146329587857461329329758461
500004869030600200002000170006090004004120980700000000017480006900710050405300002,571234869839671245642958173126897534354126987798543621217485396963712458485369712
420080030070106900900074000000953080000000250308000607600200005005738001810000029,421589736573126948986374512762953184149867253358412697634291875295738461817645329
805000160000208004479300500060700809517020040000103000290074600001000030008600052,825497163136258794479316528362745819517829346984163275293574681651982437748631952
800009706602305080049028030200000007501060400090040050030780001000001508006200009,853419726612375984749628135264593817571862493398147652935786241427931568186254379
000700234070090008603000050001003000005184009038000760090002500010906402302850100,159768234274395618683241957921673845765184329438529761896412573517936482342857196
200306100008000067304900805400008203002000009910740006839270040600001050000400700,275386194198524367364917825456198273782653419913742586839275641647831952521469738
000040700375060020004520160130700042608003501000002090712008009806000030090005600,261349785375861924984527163139756842628493571547182396712638459856914237493275618
087006500905100004040007190003408016000001009200060800700020980004003005026850070,187946532935182764642537198573498216468271359219365847751624983894713625326859471
080054000034009710160008020005390800000026907200000031907002163000040070056000004,782154396534269718169738425675391842413826957298475631947582163821643579356917284
000070009005006008190005720080630070050001043064002000800067304013280500070400900,632178459745926138198345726981634275257891643364752891829567314413289567576413982
007860104500300008001090020906014030003700006080000050320600700700040205000008049,237865194549321678861497523976514832453782916182936457324659781798143265615278349
090108062000003100180076094809005600700040015000020030423000076560700900010000080,394158762276493158185276394849315627732649815651827439423981576568732941917564283
061000009000302046007050080289600300030009507050401020800100000045063001600087002,361748259598312746427956183289675314134829567756431928872194635945263871613587492
096020010100000080007004050040060005060491008002083607031240000509307000004908200,496825713153679482287134956348762195765491328912583647831246579529317864674958231
080031040304750000076904100200560410000000089008003275005400020709010300060009008,982631547314752896576984132297568413153247689648193275835476921729815364461329758
004135780070090000005680100600200014002008060030504900903000006018750003720009000,264135789871492635395687142689273514542918367137564928953821476418756293726349851
500060940006517000083000000008070130400005029001234700009600010300002065000840002,572368941946517283183429576258976134437185629691234758829653417314792865765841392
000826000580300004090000006001045700007100685230000009018060002000097150400080300,374826591586319274192754836861945723947132685235678419718563942623497158459281367
000600092029000000003700845060010450308000000152090070800341000071050930500002600,785634192429185763613729845967213458348567219152498376896341527271856934534972681
007082030004170900090000150025401800040000003810596000002059780070200006009013040,157982634364175928298364157725431869946827513813596472432659781571248396689713245
001000700004680039080725060000069500029000048740030000090008054000090010856200070,261943785574681239983725461318469527629157348745832196192378654437596812856214973
047560103930002000000009470050023080700400009004800060396070500002905001800030020,247568193931742856568319472659123784783456219124897365396271548472985631815634927
018000007520006030900027001004305290260014050000900080000040600750090300036200078,618439527527186439943527861184375296269814753375962184892743615751698342436251978
050000063910000780002064190000000002023097000170650400800009000035021940004370008,457918263916235784382764195549183672623497851178652439861549327735821946294376518
070051000200900040090040583300785000000010902147600000832009104060000298000006300,478351629253968741691247583329785416586413972147692835832579164765134298914826357
000037680040200000970501040002060300310020005509000170600350700230900450008000001,125437689843296517976581243782165394314729865569843172691354728237918456458672931
000090030006405800952700010000040070100960082097031004000070263204000090001800507,418692735736415829952783416623548971145967382897231654589174263274356198361829547
064500780580702001130000065801624003900000000050913000702000048000040956000309070,264531789589762431137498265871624593923875614456913827792156348318247956645389172
006000800000400790402080501040853010008600009000120406100042070580900004900700630,756291843831465792492387561649853217218674359375129486163542978587936124924718635
260580007058000000010094080000002619000000403001059002070020091009403060083076005,264581937958637124317294586835742619792168453641359872476825391529413768183976245
064050392900100070000030005000274001010006950083000207820060003050920400607800000,164758392935142678278639145596274831712386954483591267829465713351927486647813529
051096000072000000060801407920407080008100260000000005000038009003204670600005102,451796823872543916369821457925467381738159264146382795217638549593214678684975132
820010050009007006004903021000500103670032000900080040000005280480060705010200069,823614957159827436764953821248596173671432598935781642396175284482369715517248369
016300000380040509024087001400500000095076080700230010002809400109000072000005000,916352748387641529524987631431598267295176384768234915672819453159463872843725196
780000429000040073000023100009005002040806090031000760900100006018009530060082004,783651429125948673496723158679315842542876391831294765954137286218469537367582914
304082009069100402000060050270090840086007200000500001008350070100000000940006108,354782619769135482812964357271693845586417293493528761628351974137849526945276138
008724003290000040003005018810007009000083462000250000005096007407008030060300500,158724693296831745743965218812647359579183462634259871385496127427518936961372584
104509080200031004035060100701002098060910730320000400907000005000678000000000240,174529386296831574835467129741352698568914732329786451917243865452678913683195247
000009610010602430305800000008005000700920803643000009020460001584000060000700920,472539618819672435365814792298345176751926843643187259927463581584291367136758924
004009006006701800009020304003406010700000080020030500460502900100800007085970200,874359126236741895519628374953486712741295683628137549467512938192863457385974261
300218000600000040571006300000704800780000205105300090003025018006003900800491020,349218576628537149571946382932754861784169235165382497493625718216873954857491623
000710002200003900079065003060020847008690010003000000600180000082400160540030020,834719652256843971179265483965321847728694315413578296697182534382457169541936728
030018000059000460200500070002094700084003510100685000016900802700200134000030000,637418925859372461241569378562194783984723516173685249316947852798256134425831697
060803150705200000140000309000508260002000084090006000007351002006700500010900408,269843157735219846148675329374598261652137984891426735487351692926784513513962478
008160700070802050000450031280079003100005006043000500030020905709006420004080007,458163792371892654962457831285679143197345286643218579836724915719536428524981367
983400010210700400005006028000900042040810790300020006730298500009070800100300000,983452617216789453475136928851967342642813795397524186734298561529671834168345279
540038002907000080063010400000462100080350069200007000000980715009600030450000000,541738692927546381863219457395462178784351269216897543632984715179625834458173926
000260000010007460700350908809000050040030800650100240072000000300709106004005039,498261375513987462726354918839472651241536897657198243972613584385749126164825739
087060050005400398009010004000001030056000007304200019903584600040607200700003000,487369152615472398239815764892741536156938427374256819923584671541697283768123945
500090701014860500000003060009001003840502900003080072400908020071400690000070000,536294781214867539798153264629741853847532916153689472465918327371425698982376145
003040080008006020006080901680400097090050600200100040000030074700610008015802300,923541786178396425546287931681423597394758612257169843862935174739614258415872369
000578060405001870200006090080300400000020019107005380006950700310002500004000026,931578264465291873278436195682319457543827619197645382826954731319762548754183926
040070906080050030009806200230700500057009160001080000020300054400010370300208610,543172986682954731719836245234761598857429163961583427126397854498615372375248619
500000308000064009729100050308002060602050904000037001001900805050278000090000000,564729318183564729729183456318492567672851934945637281231946875456278193897315642
007058210108002700039000040010020800870500600305004009063001007000640025490700300,647958213158432796239176548916327854874519632325864179563291487781643925492785361
009005400030060070460200081280100300000907250000004700540030009600008000100690005,729815463831469572465273981287156394314987256956324718548731629692548137173692845
800760900040005001007940020050629000071003400002100805060080537000000009234000600,823761954946235781517948326458629173671853492392174865169482537785316249234597618
