001650020820000097400807000097030400000940056580070003003490108206005340000100200,371659824825314697469827531697531482132948756584276913753492168216785349948163275
006590403420003800000000065007364000658200007900800010003900078140005200070006050,786591423425673891391428765217364589658219347934857612563942178149785236872136954
903000070000014590025060800091003000080651040300002008702080001050200004046097030,913528476678314592425769813591843627287651349364972158732485961159236784846197235
090600015000038090807005400003040078562000900000591020200100000486007000009000362,394672815651438297827915436913246578562783941748591623235169784486327159179854362
207080600500900140008000092600050420000010069003704005005003000109002534070046001,297481653536927148418635792681359427754218369923764815845193276169872534372546981
062070000308004070094005263040902500030700604070010020100090080650000700000023109,562379841318264975794185263846932517231758694975416328123597486659841732487623159
200000583500069000714000000900520004040087002080104000050302600000970401601008209,296741583538269147714835926967523814145687392382194765459312678823976451671458239
176030020000000006200400700700000000309002610020984500003509004900200130050060807,176835429594127386238496751785613942349752618621984573813579264967248135452361897
008300952007006003400192000040800390016004007850060401000900804600071200320050700,168347952297586143435192678742815396916234587853769421571923864689471235324658719
091005046060300802205704001540200067006030489000100000900001070700650094050000300,391825746467319852285764931543298167126537489879146523932481675718653294654972318
904063800208405007030100000060007104000006590002810000300040201470200905000508600,954763812218495367637182459863957124741326598592814736385649271476231985129578643
000600500000071090734800600080015240002030000407900081500394020600000004109020037,291643578865271493734859612386715249912438765457962381578394126623187954149526837
400300800790020046200009100030278900570100000020900604051780000000006001800403209,416357892793821546285649137634278915579164328128935674951782463342596781867413259
043010000700400005900028400004007210010350807608100040000600020002070106305000978,843516792721439685956728431534867219219354867678192543197685324482973156365241978
060500009093060080008000027600005040010097203059080001001000400230470006400300175,762548319193762584548913627627135948814697253359284761971856432235471896486329175
500030049000041630302900005007106004409800060020075000600350200010084307980002000,561237849798541632342968175837196524459823761126475983674359218215684397983712456
900010030005700000000486070002030790060002800041068500600040200507801009094050081,976215438485793162123486975852134796369572814741968523618349257537821649294657381
050372000796800000100006804670041009000050012080709050023000045400905030018060000,854372961796814523132596874675241389349658712281739456923187645467925138518463297
019500200003900005800240907301600408025080761000002000408009002000306010060070003,719538246243967185856241937371695428925483761684712359438159672597326814162874593
030700010406100708000005900003800002504690001010003047802006034079201805600050000,235789416496132758187465923763814592524697381918523647852976134379241865641358279
038000045700600900050080126100760084800023090003000000060240000205900010019008003,638192745721654938954387126192765384876423591543819672367241859285936417419578263
040009000007105009506000083030501400064087900005040020080092051002703000010400006,341869572827135649596274183938521467264387915175946328483692751652713894719458236
008009000050310000320500704060904380010020609000030020900006143501080060740000052,178249536654317298329568714265974381413825679897631425982756143531482967746193852
800500600030009002170060900086100037320000010490800250000900004250008701004037068,849521673635789142172364985586192437327456819491873256768915324253648791914237568
009800700605200004087064900040000060250100300000932008012090005870003409000027010,429851736635279184187364952943785261258146397761932548312498675876513429594627813
500030010869000407023640800708009002005200000900761504000470008306010009000503020,574938216869125437123647895748359162615284973932761584291476358356812749487593621
413000000200090543080700001050804060004910007802050000007520390030006010100000006,413265789276198543589743621751834962364912857892657134647521398938476215125389476
205900003000006704490001000050003468900200000010070500309700005520068070071409302,265947813138526794497831256752193468946285137813674529389712645524368971671459382
000093108050600000700820040980460075030070960100000200604050009009002510003900027,246793158358614792791825643982461375435278961167539284624157839879342516513986427
095003040001040028000005907950700600006204790230080000800096300040002015003410000,795823146361947528428165937954731682186254793237689451812596374649372815573418269
001040932800000750040270100400500000529700400000300006903000081007023000060150090,671845932892631754345279168436512879529786413718394526953467281187923645264158397
070081400000005026209300800061004070008060105050020039016903500000807300034000007,675281493183495726249376851961534278328769145457128639716943582592817364834652917
780000090006002070300960400120034000500710620040005800035026009400580100000009380,784351296916842573352967418128634957593718624647295831835126749479583162261479385
080000210620053000079006080800001732000400058560702000000020104050108307040090060,385974216621853479479216583894561732217439658563782941738625194956148327142397865
205600000000130097000084001320000500504900060109750040630009018407010000000842030,215697384846135297793284651328461579574928163169753842632579418487316925951842736
705304010060090000003100504900002037010060800457000090000000001200047068078003402,725384619164295783893176524986452137312769845457831296549628371231547968678913452
059030040070061800120400300002008904400700060060250000793006008800009250000000030,659832741374961825128475396532618974481793562967254183793526418816349257245187639
805024600009600020007100083700001000002900300004070901060200504000045090040390078,835724619419683725627159483796431852152968347384572961968217534273845196541396278
005078060000921000003006018030700000680034050210005940902500034000600107400200006,125378469846921375793456218534792681689134752217865943962517834358649127471283596
900000070004905800018070506000200000071050003400010209800103960035700082009060400,952681374764935821318472596593246718271859643486317259847123965635794182129568437
002408001801090350060750090040209000109004072050063800084300010900000520000000007,592438761871692354463751298648279135139584672257163849784325916916847523325916487
087060001009020750000309004100908306034000009060500010005003690070100240200054000,387465921649821753521379864152948376734612589968537412415283697873196245296754138
403500190000732060800400005001396002005001079000207400004000326060080750017003000,423568197159732864876419235741396582235841679698257413984175326362984751517623948
170800039050200740004006508090000305703029104000001000400300000010908206586070000,172854639658293741934716528291487365763529184845631972429365817317948256586172493
040910008200040610090050007079000003108679200500800000007302805062500090480100060,746913528253748619891256437679425183138679254524831976917362845362584791485197362
703000009100859000400701000002300754305042081001006920009000235580020000000600070,753264819126859347498731562962318754375942681841576923619487235587123496234695178
306020481000903000057000600708000005003007046160038002000510790014000058000200003,396725481481963527257841639748692315923157846165438972832516794614379258579284163
065090830900107040480006200010000600820030105500400000003720450000060019007908002,765294831932187546481356297319875624824639175576412983693721458248563719157948362
000371005006480200093000000000120076630000008080007594000910403052006719400000080,824371965576489231193265847945128376637594128281637594768912453352846719419753682
004172000905000410030000068009080000000407500600003172200004703000056000051309840,864172395925638417137945268579281634312467589648593172296814753483756921751329846
070030052060070403105000608000050891790061005400200000680097100502013000000408030,874136952269875413135942678326754891798361245451289367683597124542613789917428536
320094000508001000000506082071000905090030860430000107904008000600010790700250001,327894516568321479149576382871642935295137864436985127914768253652413798783259641
900100804080507102020000030500091683700004000009002017850600049497000000006080500,973126854684537192125948736542791683718364925369852417851673249497215368236489571
486900001100000950900807200000650003508004020060000074002001097040073085301080000,486925731127346958935817246794652813518734629263198574852461397649273185371589462
003029500100000038040007906050410700000000000806030402079006080460950020500803000,683129574197564238245387916952418763734692851816735492379246185468951327521873649
006250410800940050070003000030064021904800600010009080500030000200608070107020360,396257418821946753475183296738564921954812637612379584569731842243698175187425369
030405012090070406700012008406051900000084060019300000007500130061038020520000000,638495712192873456754612398486251973375984261219367845847526139961738524523149687
090400000000073810085002000014800002300006007070049060001020640400910035052060700,793481526246573819185692374614837952329156487578249163931725648467918235852364791
700920005005004100639700800008036004000209700593000000040050060180043020306100070,714928635825364197639715842278536914461289753593471286942857361187643529356192478
020850000600102780013070500009030027004200800030704001060000010000590608571000204,427853169695142783813976542189635427754219836236784951968427315342591678571368294
500000200004200930010007086903650048802100700050470009008031002700009450360000000,537986214684215937219347586973652148842193765156478329498531672721869453365724891
200608301054000600000007049020590073307000010000004806460370002501200000030009508,279648351154923687683157249826591473347862915915734826468375192591286734732419568
080405009601302007500010800040000203920008450003700000000060190200000064700109308,382475619691382547574916832846591273927638451153724986438267195219853764765149328
007369050030052700006080100605718002040600008000094000902003000100000837700040500,817369254439152786526487193695718342241635978378294615982573461154926837763841529
090062040500003000081400070007000109000507320630809750320900800170020930005008002,793162548546783291281495673457236189819547326632819754324951867178624935965378412
180000000790040620603000500000032060021000090009705008007003900200108730004500016,182356479795841623643279581478932165521684397369715248817463952256198734934527816
080010200609003004047060903450080006100049300000207081920100500000008040005030070,583914267619723854247865913452381796178649325396257481924176538731598642865432179
001750300264000500003806090000089450109500720600002013030600000705040009080090071,891754362264931587573826194327189456149563728658472913932617845715248639486395271
005060700007524006000300041000002060008000307176090002390058004002000190600700083,435961728817524936269387541543172869928645317176893452391258674782436195654719283
070150409402080500005760000000570013500400900816009705003020004600800030921000008,378152469462983571195764382249576813537418926816239745783625194654891237921347658
000100083402670000009005000600030590297000000010084067800001350070059002005023108,756192483432678915189345726648237591297516834513984267824761359371859642965423178
004900000100400257020130080000009740006070028015002006093000000408006510500080073,854927631139468257627135489382619745946573128715842396293751864478396512561284973
400607001025030600630018904200509078010023000000800400800090342070005000064100090,489657231125934687637218954243569178718423569596871423851796342972345816364182795
057200003400086100028704060000018504340000000009050006702903600001007029060000380,657291843493586172128734965276318594345679218819452736782943651531867429964125387
076009041030075006004000300800100003000047562065300000900060200401000070080921005,576239841138475926294618357842156793319847562765392184953764218421583679687921435
520007608000004001709630000000900005000382000673405200800000092041000750030201040,524197638368524971719638524482976315195382467673415289856743192241869753937251846
900020040000501030047000500600002708004970020010350600205694300093080060008105000,951723846826541937347869512639412758584976123712358694275694381193287465468135279
800009063046000701053000200090008000004310082070406010100940000600021530000083079,812579463946832751753164298391258647564317982278496315137945826689721534425683179
500610400097300001000275080920000300350021670004580000700096030000800040060004210,583619427297348561416275983921467358358921674674583192742196835139852746865734219
500783009038100702000000000207009503609800000050040061000020140400906307325001008,562783419938164752174592836247619583619835274853247961796328145481956327325471698
900005004047810003360070201500002000628003000000040607000039048003080050000401302,981325764247816593365974281574162839628793415139548627752639148413287956896451372
000047102502300090901600078650208000030400000008003540009502030800060400720000901,386947152572381694941625378654298713137456289298173546469512837813769425725834961
080032010530000068000540700008907156071050930600004002006281000400700000009000520,987632415534179268162548793348927156271856934695314872756281349423795681819463527
002380006903000005080070020650003100107060932000040050590020700070809014824001000,712385496963412875485976321658293147147568932239147658591624783376859214824731569
002030580703000206090400000004700000050083100901020030040301005020670090089005067,462137589713859246598462713834716952256983174971524638647391825325678491189245367
540001000060027800010690700486900005370040082000003600092000300751208009000000001,547381296963527814218694753486972135375146982129853647692415378751238469834769521
000006087003800501904000000008970200560100093100030400046200008090507104005063700,251346987673892541984751632438975216567124893129638475746219358392587164815463729
206095000000102008030000094820701000600023010709800005470008509005070400190060030,286495173947132658531687294823751946654923817719846325472318569365279481198564732
080734005050100960301009407430082001600000000097500300200010790000040008060800520,986734215754128963321659487435982671612473859897561342248315796579246138163897524
003100060040803007250070040009020300000367200802001050360005098008900571100004000,783142965946853127251679843679528314514367289832491756367215498428936571195784632
100002036000800900005047080078090204600030005520700010002070093051000048090465700,187952436246813957935647182378591264619234875524786319462178593751329648893465721
062107089590200400704003000030050014008019207000000300000700041600920000103068050,362147589591286473784593126937652814458319267216874395829735641645921738173468952
005030100030004278670098000004807005980260003200300000020000890090521706003000040,845732169139654278672198354364817925987265413251349687526473891498521736713986542
000600790400000300159040008610700800020001003034280050800006542000903600207000001,382615794476892315159347268615734829928561473734289156893176542541923687267458931
007084090000056301004109706039005267765000000020000900500200008103890020008001400,617384592982756341354129786839415267765932814421678953596243178143897625278561439
254078130000900000607503800010230007000090000702000964906005020870102006003000450,254678139381924675697513842419236587568497213732851964946385721875142396123769458
000490000408601050710008200005006003004070190060902870003010602026035709800004000,652497318438621957719358264975186423284573196361942875543719682126835749897264531
004380000036000705000000200002005004060829070150006300007010983395000100201070006,524387619836291745719654238972135864463829571158746392647512983395468127281973456
000006050000200807004910000802004005047350009309020160030508070270000016096000308,923786451165243897784915623812694735647351289359827164431568972278439516596172348
500460100000209083092700400000130006680005000073000092050070001041000000069080054,537468129416259783892713465925137846684925317173846592258674931341592678769381254
