090800010085970023600010700000004002807100046203600050401508000320090500060402007,792843615185976423634215798916354872857129346243687951471568239328791564569432187
000406005007000002380000041200901400060030200015700036051090000409570060003002008,192486375547319682386257941238961457764835219915724836851693724429578163673142598
904070002075801960003020080098100040500008620600000000001905800030006054000417030,984673512275841963163529487398162745547398621612754398421935876739286154856417239
065002010010007390020400075003800047000000500000091068800570900930080401600040003,765932814418657392329418675293865147186724539574391268841573926937286451652149783
080290605003750890100000007050076000900100740000480002007002309820600014046009000,784291635263754891195368427452976183938125746671483952517842369829637514346519278
200950003085040600000801500100003040437020005000000906948100002006708001000200390,214956873785342619693871524169583247437629185852417936948135762326798451571264398
908000410302900057070060200000005000130800040709004065600013002050600100480057030,968572413312948657574361298846795321135826749729134865697413582253689174481257936
000409005850630040000710602960250000000073008500000091180004900072008106090000030,726489315851632749349715682968251473214973568537846291183564927472398156695127834
000000800500100623309600400080090301610507200007020000403002006070004105006058040,761243859548179623329685417285496371614537298937821564453712986872964135196358742
008032070000000930060410500270009008400006100956840000010500740630070009005260000,548932671127685934369417582271359468483726195956841327812593746634178259795264813
400060290325800400709140008602309005008070300000600024006400003050080901070005080,481563297325897416769142538642319875518274369937658124896421753253786941174935682
014057000709001640080304021900000037000060900350200008060085400000100592003070000,214657389739821645685394721946518237821763954357249168162985473478136592593472816
006700200500100980020085001100240095078009006000630104090006000087050430241000009,816794253534162987729385641163247895478519326952638174395426718687951432241873569
900082000040001832100500074003009000580610009060700340002004598006300017050800200,937482156645971832128536974713249685584613729269758341372164598896325417451897263
080075004020000000507306009000740600406809012752030000308000090210900580000104006,189275364623498175547316829891742653436859712752631948368527491214963587975184236
089000320401600570050120604340050009016703000200000100030000780900005000000864050,689547321421639578753128694347251869816793245295486137534912786968375412172864953
150020609030680520004007000600008490903700201081040030000854000825300007000009300,158423679739681524264597813672138495943765281581942736397854162825316947416279358
041370008509006070002100060005010027960000300000704059700031004020089005058020030,641372598539846172872195463485913627967258341213764859796531284324689715158427936
080009302053700108001500069000150030400060010020307085360040000090800000700002094,687419352953726148241583769879154236435268917126397485362945871594871623718632594
006003980100450000003108004050030270028006005409070600300207000060000197900000520,546723981187459362293168754651834279728916435439572618315297846862345197974681523
702006034036070001500200700080000329000040006900180000007910805104500070350700900,712896534836475291549231768481657329275349186963182457627913845194528673358764912
206000080005308204010040075000050001730006040000907863300702000008610900490800006,246571389975368214813249675682453791739186542154927863361792458528614937497835126
008067021000002095007190300050000080406000073302608100040380000091400006060070250,938567421614832795527194368159743682486219573372658149245386917791425836863971254
060509020200000093030140000340000006070308905806200100051000064407090000020085700,768539421214876593539142678345917286172368945896254137951723864487691352623485719
900008006000200830073050019086073000000040602405100000020306780100009520008007001,912738456654291837873654219286973145731845692495162378529316784167489523348527961
076081050200046003000020600000174900960000814050000000080730420310009007005800006,476381259298546173531927648823174965967253814154698732689735421312469587745812396
708030500640000092190050876002000000806275004300046015004100008080900003007004069,728639541645718392193452876452391687816275934379846215964123758581967423237584169
906003207021085060700000010007032001403150000050600089030007005008009700200000438,986413257321785964745296813867932541493158672152674389634827195518349726279561438
050690001020300804700021090030000075000842030604007100801050009900000608065004200,453698721129375864786421593238169475517842936694537182871256349942713658365984217
010300006705000020060024008001008904000702080530001600903000401000495000650080007,812379546745816329369524718271658934496732185538941672983267451127495863654183297
000080700802400059061900208309100407014007306000002000008053600720000003590600001,935281764872436159461975238359168427214597386687342915148753692726819543593624871
070600580800002340001530020005080160402007000060090004600013957380400002009000008,273641589856972341941538726795284163432167895168395274624813957387459612519726438
096000000000095624300200710082060000030720040504000800003100080950070031700840590,296417358817395624345286719182564973639728145574931862463159287958672431721843596
180003009004581002600040000023800540000204301007000000009060150001302760340007020,185623479794581632632749815923816547568274391417935286279468153851392764346157928
208930050030050700510760092009205803800000209001000400700084000600070530080603000,278931654936452781514768392469215873857346219321897465793584126642179538185623947
920043070000500903000100600010060840400790506005280790038007210001600000540000008,926843175174526983853179624719365842482791536365284791638457219291638457547912368
305004090001000070000800405006005841082006300100903060409028530500000702010600000,325764198841592673697831425936275841782416359154983267479128536568349712213657984
507004300890060001100002500930000870602400030008050009004871002001230450000600700,527914386893567241146382597935126874672498135418753629354871962761239458289645713
640008030050700109300500600104020700930010005060300020020071006070050904500930080,647198532258763149391542678184625793932417865765389421429871356873256914516934287
960007050100408030007010000800000070706020405003051600004300508380509001009006002,968237154125468937437915826851694273796823415243751689614372598382549761579186342
480630007251000000006009002000167200060080300897000004020071650310400008000305090,489632517251748936736519842543167289162984375897253164924871653315496728678325491
400060020107200000000380075090000017510409380020058006670510090000096050300004800,435967128187245639962381475894632517516479382723158946678513294241896753359724861
008452000690070802030000100940280013570000020000039650004000530080001007207096000,718452396695173842432968175946285713573614928821739654164827539389541267257396481
008210400050800002300007010006082039000400070000731800007100904602009500809640003,968213457751864392324957618476582139183496275295731846537128964642379581819645723
010000803090604020007089540120540300603000070048002009300050007060270480500801000,416725893895634721237189546129547368653918274748362159382456917961273485574891632
270000000000000014000392058087009002003840160104005070040000023600700900090513000,278451396359678214416392758587169432923847165164235879741986523635724981892513647
300601000000940000056820340007082516000000000420500087704005600090300708010060290,349651872278943165156827349937482516865179423421536987784295631692314758513768294
003904070004806000000037890860000012070090056105070000017053900000461000230000045,583924671794816523621537894869345712372198456145672389417253968958461237236789145
030009740500104000002600300001042090670010000040003805900078526020000080003500009,136259748587134962492687351351842697678915234249763815914378526725496183863521479
007608500032001004800020903089000006040700320100500000070003160050046039010890005,497638512532971684861425973789312456645789321123564897974253168258146739316897245
298300000040000001000750090010002035003008200007600084001030058054100906600940700,298361547745829361136754892819472635463518279527693184971236458354187926682945713
020053004809040007013000609000700503607098400500002090105080200000601000004230800,726953184859146327413827659298714563637598412541362798175489236382671945964235871
013400009000760008604000300000008020900500800040020071090150003850036012200074600,713485269529763148684291357175348926962517834348629571496152783857936412231874695
200106048000240106010035900705324000008500060004090730690700000003980001001000502,259176348387249156416835927765324819938517264124698735692751483543982671871463592
070080043000350062601900000000000207902701000700049050040690005503000610009002730,275186943498357162631924578314865297952731486786249351147693825523478619869512734
070380024640000530902070000000135000250400071000007806003020680081600040000009000,175386924648912537932574168867135492259468371314297856493721685781653249526849713
970000003086005000045012700102570000460300800800060900030029074000007001009600085,971486523286735149345912768192578436467391852853264917538129674624857391719643285
701085200002130007590000040910006000020500060403000120000624803000000904070890600,731485296642139587598762341915246738827513469463978125159624873286357914374891652
005100800480200590106000040320800007000070183000056009070009060902001300800725000,295147836487263591136598742329814657654972183718356429571439268942681375863725914
000000896095008700603040020340105000000760100701000302002300009104209008860001050,417532896295618734683947521346125987928763145751894362572386419134259678869471253
007032000684015920090000107041007006903000705050096400000059034020800060105200000,517932648684715923392648157241587396963421785758396412876159234429873561135264879
905780003164900000008020054002009000000340508000010600040802079207050810030107000,925784163164935782378621954682579431719346528453218697541862379297453816836197245
400008100009204083000790502002010069050060300300070008090503400714900000580000026,425638197179254683638791542842315769957862314361479258296583471714926835583147926
000095300020000740354060000603004290008009016000170000270008150000900008060231409,187495362926813745354762981613584297748329516592176834279648153431957628865231479
000007000210900004004000608093608000057100002060504310040803507509002003008701940,986347251215986734734215698193628475457139862862574319641893527579462183328751946
019700000000805900060002507040020000701009403305080610007501860098040305600300002,519734286472865931863912547946123758781659423325487619237591864198246375654378192
307290040001005900620003007030000000800040701046081032000700015000059600000106308,357298146481675923629413857132567489895342761746981532968734215213859674574126398
370000026000520000400900105000008719210003080050400300020704091760002400908000030,375841926196527843482936175634258719219673584857419362523784691761392458948165237
024000301001009050300700064070002003490800006086030700000270540037068200800910000,924586371761349852358721964175692483493857126286134795619273548537468219842915637
002407051045000200008200903060003802820000370400090016000300000057028400030100760,392487651645931287718265943561743892829516374473892516986374125157628439234159768
350092800010000670400100009000854090000010004803709002278500003030000510005086400,357692841912438675486175239721854396569213784843769152278541963634927518195386427
000965000160004007308200900500082000097100430210090006680700200003040000900003705,472965318169834527358271964536482179897156432214397856685719243723548691941623785
640000002010209030005081004080036701090500068407000050930120580000007106200005009,649753812718249635325681974582436791193572468467918253936124587854397126271865349
730006205000300906020570040057049010410002800008600030840050007900001000005287400,734196285581324976629578341357849612416732859298615734842953167973461528165287493
075010002003004087140200090680500900001960030000072000004003050900045068308120000,875319642293654187146287593687531924421968735539472816764893251912745368358126479
008000004690003015005201300000350072409002000000070060207809140300006807006140050,138795624692483715745261389861354972479612538523978461257839146314526897986147253
000023590060040001000800700304567000016900000500012408021009030000000980470608050,748123596963745821152896743384567219216984375597312468821459637635271984479638152
060000400070093001008054360002016007790500000506900042320100800109030520000080010,963821475475693281218754369842316957791542638536978142327165894189437526654289713
200058630300610000006300975007020004400001008010760000050409010608000320001000047,274958631395617482186342975567823194423591768819764253752439816648175329931286547
047000563000009000800006704005000026270100908000504310002030840150070009036801000,947218563563749182821356794315987426274163958689524317792635841158472639436891275
004038006000000901980570000407060350093107260200000040050006023800090000031280004,124938576375624981986571432417862359593147268268359147759416823842793615631285794
089000530054006090000000700007504260000800000501062003600080070402030809310000045,289147536754326198163958724837594261926813457541762983695481372472635819318279645
087390000000002006100470320605210800078000090300009400060835901043000070010600000,287396514934152786156478329695214837478563192321789465762835941543921678819647253
081005040900420080500006079070519300008000106020300400090001062800700000730004005,281975643967423581543186279674519328358247196129368457495831762816752934732694815
096000075000380100320090040005600490740102008203008007000000000010705900458200063,896421375574386129321597846185673492749152638263948517937864251612735984458219763
480000001603000974009065080000001230700000640240008009025087010010200003900034000,482793561653812974179465382598641237731529648246378159325987416814256793967134825
600000700087602000903041005309250140150070009002800030000960000000530820046007003,614385792587692314923741685379256148158473269462819537235968471791534826846127953
080096070000520190900000320700008500630704000094003010063100002500000840018475000,182396475346527198957841326721968534635714289894253617463189752579632841218475963
060390050000002381800000004406003702090000000200800010008067020950001043012504870,164398257579642381823715964486153792791426538235879416348967125957281643612534879
000706200000090450742305109003002006810070903006008040680007000200400581094010000,159746238368291457742385169473952816815674923926138745681527394237469581594813672
000000486030210000605400000053002900800067001002390054040070028210908603006000570,921735486438216795675489312153842967894567231762391854549673128217958643386124579
060107032340020687000300900002001003790260040018005060070000090005800100020900704,569187432341529687287346915652491873793268541418735269174652398935874126826913754
350800601009005702087400030090002008706010203000060190008006005004270010060000970,352897641419635782687421539193752468746918253825364197978146325534279816261583974
002601000080004250071030080050000968003200000600900700009820003730040006400007519,542681397386794251971532684257413968893276145614958732169825473735149826428367519
080030540002007310609450000050903060070102890006070400700006000895000001001008702,187239546542687319639451278258943167374162895916875423723516984895724631461398752
970030501000080004004100720400506030001029060620300070090008000057200840300910006,972634581513782694864195723489576132731829465625341978296458317157263849348917256
000046007010002906070009310823000004060000298009070000600083029000501060234600500,392146857518732946476859312823965174765314298149278635651483729987521463234697581
060050081009008003002009060080000400006073002005614079090000720051407008008200300,764352981519768243832149567187925436946873152325614879693581724251437698478296315
000000000674002008100009650000070400801506200290380010729000030083020005000408007,952863741674152398138749652365271489841596273297384516729615834483927165516438927
090080060417200900000903002270800530004005000060479800000130000925007008800000470,392784165417256983658913742279861534184325697563479821746138259925647318831592476
