310600090040700053702090008500004000090001032021030067105340800480020070060500900,318652794946718253752493618537264189694871532821935467175349826489126375263587941
006000003000090002030714006278430100015009008609050300004300905801060000020800700,196582473487693512532714896278436159315279648649158327764321985851967234923845761
100008760000230000802601009300006980009400500704080030405002000006107098000004270,193548762567239841842671359351726984689413527724985136475892613236157498918364275
200640050900010470010002038540000027009000560020708001600175000087304090003000006,238647159965813472714592638541936827879421563326758941692175384187364295453289716
510000000806070920007035060004980500201000300090006847053809000000507003060012000,512698734836471925947235168674983512281754396395126847453869271129547683768312459
004608009002150000073900001000007205050389470000010083100030800940520600006004000,514678329692153748873942561389467215251389476467215983125736894948521637736894152
700059082390208006000001040015930000800400007930602005080073060040800700602000053,764359182391248576258761349415937628826415937937682415189573264543826791672194853
000200956300180200570400300004050000030000780718600095200000070000304601006820004,481273956369185247572469318924758163635941782718632495243516879857394621196827534
070050000203860005480209030000100600000670052000003098920005014804020007100430800,679354281213867945485219736548192673391678452762543198926785314834921567157436829
600057081190040700040200039000060040003019206570300010810006025204000007000890000,632957481198643752745281639921768543483519276576324918819476325264135897357892164
500000000040390008763800010008000470030280056004901200000407631010030007002060590,589716342241395768763842915128653479937284156654971283895427631416539827372168594
080009074207010630600020000592067008300000000000041500001200300806050002003478105,185639274247815639639724851592367418314582796768941523451296387876153942923478165
940300200002005071018406500400090320500137000000000067000800000260500940080002603,945371286632985471718426539471698325526137894893254167354869712267513948189742653
030000020700000590009364001014709036003600080902010000600900040005080002080231005,138597624746128593259364871814759236573642189962813457621975348395486712487231965
500034000309601540000800190024015800003000007007280006895300060700000004002076900,518934672379621548246857193624715839183469257957283416895342761761598324432176985
420100079070000010083050000000206301605003940900400700001060080004701200798040030,426138579579624813183957624847296351615873942932415768251369487364781295798542136
000000540700046008080903706040075801906028300070301060000000084004062030205010000,629187543753246918481953726342675891916428357578391462167539284894762135235814679
372010090008200600400030100000705000601090480043600020906003004080100706200504008,372416895198257643465938172829745361651392487743681529916873254584129736237564918
001000653800043910057000000005000000600218030400600780206089400004007008030050029,941872653862543917357961842185734296679218534423695781216389475594127368738456129
001000780000723001460051390504009800010206000390078000000637000872090010050000040,231964785985723461467851392524319876718246539396578124149637258872495613653182947
000409000760081205340005097010006000800004570406030008590100002003097180008200600,285479361769381245341625897917856423832914576456732918594168732623597184178243659
800100097470002000009060350710530008060009001085704002000308160000400700290000403,856143297473952816129867354712536948364289571985714632547328169638491725291675483
900200350300917060078000100000050001002306045004800200750000008060034009049100600,916248357325917864478563192637452981182396745594871236753629418861734529249185673
100320570008016409060000080009000013702000600040703095950074800000000020800061304,194328576278516439365497182589642713732159648641783295953274861416835927827961354
500170000093060400200095080900030760004500090170600302020400001007900506805012003,586174239793268415241395687952831764634527198178649352329456871417983526865712943
609070405000000000104528300000600902800047010536002007200000008701090600003801024,629173485358469271174528369417685932892347516536912847245736198781294653963851724
900040057084050901000306200007034000590007006003908025019000600000000810806203040,962841357384752961751396284627534198598127436143968725219485673435679812876213549
050400070109050068070061203007200840300080005920000006410009007000800500206100390,652438179139752468874961253567293841341687925928514736415329687793846512286175394
910000030053070001820003540000300010200054080065020900406800092000200307100960000,914582736653479821827613549748396215291754683365128974476835192589241367132967458
700043005006900024020500980008079006037002000950000400000324609100000008490016703,789243165516987324324561987248179536637452891951638472875324619163795248492816753
004250109176400005000007008040830760620049000801002500092003400000070086500100030,384256179176498325259317648945831762627549813831762594792683451413975286568124937
000005100013060500020400000050040370007030028008001609700690000300200895240008030,974385162813962547526417983652849371197536428438721659785693214361274895249158736
800060004040190750205300010061704029500000000070900030106500000002080576004032980,817265394643198752295347618361754829529813467478926135186579243932481576754632981
000000740000308020063500190070102600040960050100080300902706005700000000080093410,851629743497318526263574198579132684348967251126485379912746835734851962685293417
000049006502003100090506080600021054080070300400000007047100030000800092039060708,318249576562783149794516283673921854985674321421358967847192635156837492239465718
005276900204300086000090503010000200070068050080142609046005100900010000008000037,835276914294351786761894523619537248472968351583142679346785192927413865158629437
005400902030000018108030000509742003063980000200000500094001680021506040000000070,675418932932657418148239756519742863463985127287163594794321685821576349356894271
460079080205043070000200001073002005950308420000000060040001900602005000010690830,461579283285143679739286541873462195956318427124957368348721956692835714517694832
060020081008000500200005073410960000007004060009087230305400900740090020900638040,563729481178346592294815673412963857837254169659187234385472916746591328921638745
900060000704020058018500290500607120080039070030400000003290410402700605000805000,925368741764921358318574296549687123286139574137452869853296417492713685671845932
260000007058000003700900482409003008006070010000081650040506900003800275120300000,264138597958742163731965482419653728586279314372481659847526931693814275125397846
001800052059200080000010603080009047602000091070530000400002806823006400000040709,361874952759263184248915673185629347632487591974531268497152836823796415516348729
090000208030415700074000000080571000006090000200000310001689002508030060300207400,195763248832415796674928153983571624416392875257846319741689532528134967369257481
003000090900503400200000107015082700309076024600000008002705006004030200068001950,843217695971563482256849137415382769389176524627954318132795846594638271768421953
250001080400250009000467000000009065013000200508720004806090700004600958070003010,257931486461258379389467521742319865613584297598726134826195743134672958975843612
804750030003060205070001008105000600000600009320070100640030002200980003709504010,864752931913468275572391468195243687487615329326879154648137592251986743739524816
780050901000003600506280000200840397179000004000600205800010030307500002021700040,783456921942173658516289473265841397179325864438697215854912736397564182621738549
008400095030070800004025130000910003002080700900002650100000906060731002500600040,718463295235179864694825137856917423342586719971342658183254976469731582527698341
400000206630810790095002008010090037000460000850703960340205000009007004700000100,487359216632814795195672348216598437973461582854723961341285679569137824728946153
080049070549000000102508600300800004001090067200004135005076093000201000026000080,683149572549627318172538649367815924451392867298764135815476293934281756726953481
008607000090540180006902004543800020600100537270000900900060050000035400010000702,438617295792543186156982374543879621689124537271356948924761853867235419315498762
003029050840570060012030094300040000670800049001002008086000007000190403000007015,763429851849571362512638794328945176675813249491762538186354927257196483934287615
000407001130080057058020090009500063003060410400078000007006500910030802020004070,692457381134689257758123694289541763573962418461378925847216539916735842325894176
004309002001580070900027300500700201670400980308000500003000008020000796090012005,754369812231584679986127354549738261672451983318296547463975128125843796897612435
300904020020510900000007060108030006900080701005000003270400000406290830010076450,387964125624513978591827364148732596932685741765149283273458619456291837819376452
701002000050080090600400031007600400269000017400078059140906008000053002030007100,791362584354781296628495731587619423269534817413278659145926378876153942932847165
904010000000205000360704801003806004040032100807000906280500097506100003000000205,954318762718265349362794851193876524645932178827451936281543697576129483439687215
040600000502040037800900040005203000417006083003000019360058024000072900070000051,741635892592841637836927145985213476417596283623784519369158724154372968278469351
010450060230100007507200080000098013009540600006070045042003000800000706790060100,918457362234186597567239481475698213329541678186372945642713859851924736793865124
000100073200080060749230008328015600000000050000460980010050034082004100460090700,856149273231587469749236518328915647694728351175463982917652834582374196463891725
000040781004000063302001900030472000090000032106800504068000010901580000070090600,659243781714958263382761945835472196497615832126839574568327419941586327273194658
006084070002309456700000208000640010084050030097000500030810002208003000000705900,956284371812379456743561298325647819184952637697138524539816742278493165461725983
000000090301029008080060504025801069400000002090006307002700800037150040950003020,576418293341529678289367514725831469463975182198246357612794835837152946954683721
000305400008000010010026590003500070000008054000740206801000003240070680506902700,792315468658497312314826597423561879967238154185749236871654923249173685536982741
900030600072604009004075080060009824000250030100000700090807002050400108037001090,985132647372684519614975283563719824748256931129348765491867352256493178837521496
070040306600100928000502001109870002050000080700025030000003000918004060064780015,271948356645137928893562471139876542452391687786425139527613894918254763364789215
032040010900006500007809000010700038300090007500608200006200740040005100800001963,632547819981326574457819326219754638368192457574638291196283745743965182825471963
018240907007098260050000000004327005500010034060000020340906000070000806000105090,618243957437598261259761348194327685582619734763854129341986572975432816826175493
030090045950020060104300090000001086002870100000036900610003007097000853200450000,736198245958724361124365798379241586562879134841536972615983427497612853283457619
040026500803090700700080102908270630057009000000500409301807000206300048000060010,149726583823195764765483192918274635457639821632518479391847256276351948584962317
208160000004807500630052001000003749700981006520000300002000800005090103300074090,258169437194837562637452981816523749743981256529746318962315874475698123381274695
007010304340208060096005200000100039001059700029000048800307600010000005600040090,287916354345278961196435287768124539431859726529763148854397612913682475672541893
000010400000032860790000023134050000065800000009060012640000370010790008020403051,382617495451932867796548123134259786265871934879364512648125379513796248927483651
000090140000700603803400070005020000010005230094006801600830017109040002000502306,567293148941758623823461975385124769716985234294376851652839417139647582478512396
800920604000060000070500013003082065502001400400009700905030102168000007030804000,851923674324167859679548213713482965592671438486359721945736182168295347237814596
000000800602309001075408006700040210306200450004103000041090000090030028200805700,439561872682379541175428936758946213316287459924153687841792365597634128263815794
006710000000042768250300900801007000000900850093060402974020000010008006600005340,486719523139542768257386914841257639762934851593861472974623185315478296628195347
003008060004000015702604000018257030900000020305190400800072006070300900040905078,193528764684739215752614893418257639967843521325196487839472156576381942241965378
076023090008004062100000407307005086002090040809070005000400000200508301560910000,476123598938754162125689437317245986652891743849376215781432659294568371563917824
020001080809200400500300600000050861060002704070490530007008009002005000013604250,726541983839267415541389627294753861365812794178496532657128349482935176913674258
104026000000078005070900810007000280000047900500389064028001076050000430900000100,184526397239178645675934812497615283863247951512389764328491576751862439946753128
030900647705040008906008032084005000000719400600200010200000050008007903500061700,831952647725346198946178532184635279352719486679284315267493851418527963593861724
000739000004100203090060085020073000000500048305901600240010060570000002609008170,852739416764185293193462785426873951917526348385941627248317569571694832639258174
070610400900508000304702006003050001020000087701300605005026004000001090087900102,278613459916548273354792816863257941529164387741389625195826734632471598487935162
049800060000107009010604070070460180000059630300008057530000840007000210600002003,749825361856137429213694578975463182128759634364218957532971846497386215681542793
023108000500040100001000389000900040070003208182500600630050070040009016005207900,723198465598346127461725389356982741974613258182574693639451872247839516815267934
050600049300042801000800200870060000012004070049075310000000030004050602026901004,258613749397542861461897253873169425512384976649275318985426137134758692726931584
274300000000001000008560020900700045410000700006102039301809006020000508090607014,274398651569271483138564927982736145413985762756142839341859276627413598895627314
037004100640800030001309067268000500050000210000070806800190004000052090420086000,937564182642817935581329467268941573754638219193275846875193624316452798429786351
020470000050800960004006102800521000000000006705003089009060058043090000108200407,621479835357812964984356172896521743432987516715643289279164358543798621168235497
000000907320046800080305000005800000974000320008290014000063000490710260001500070,546182937327946851189375642215834796974651328638297514752463189493718265861529473
017000300020000008000754900000031049800609005006005080078306052905020006064010700,517982364429163578683754921752831649841679235396245187178396452935427816264518793
020018400073200900000950030405830190000064803000000060040009256100070300650000080,926318475573246918814957632465832197791564823238791564347189256182675349659423781
039006720402030150000000890070900040300002001260310000005207400800140560900080007,139856724482739156756421893571968342394572681268314975615297438827143569943685217
003000008050100647000207000487903000020006980900000005670010054240608091308005020,793564218852139647164287539487953162521746983936821475679312854245678391318495726
003700090040000001016085020002300805090000007008602430067400108005001070820090600,283714596549236781716985324672349815394158267158672439967423158435861972821597643
700160000060009080004025079010050400047000290006080301008703002470200005302008040,789164523265379184134825679813952467547631298926487351658743912471296835392518746
603020047007000900080100060030040100400053028709006005000095200050480610090060503,613529847247638951985174362538742196461953728729816435176395284352487619894261573
621007003700024008049006050030001906400060005080090270000800030075002000960703001,621587493753924168849136752532471986497268315186395274214859637375612849968743521
950230604048106002007500000003000000020910000006403017700600900500024080600790123,951238674348176592267549831173862459425917368896453217732681945519324786684795123
