690500008004023070500060010007300002000049030301080540010806000005070006020100087,693517428184923675572468913947351862258649731361782549719836254835274196426195387
000061038000409000071805000020003045650010009084070000305000704009608020200000960,592761438836429157471835296127983645653214879984576312365192784719648523248357961
014070305000600070230040601508060409006400020070001508000700000860035900009200130,614872395985613274237549681528367419196458723473921568341796852862135947759284136
400530000069000000081000072008067430005800920907400001700006010000150040023790580,472531698369278154581649372218967435645813927937425861754386219896152743123794586
073900002900108050050040000000785010290060700800230000009024180760000025400010603,173956842924178356658342971346785219295461738817239564539624187761893425482517693
080000009300005401002706030010563000076040200009201500450009070060000104903007058,685134729397825461142796835214563987576948213839271546451689372768352194923417658
800050010000108037073600054706010085000005409049002000600080240030090000205070106,864357912952148637173629854726914385318765429549832761697581243431296578285473196
000780360000010007001209058906005030425091000030400100708030049050640000000000082,592784361684513927371269458916875234425391876837426195768132549259648713143957682
610200053000403000809007100900500470000040206021800030008060900003700065007189040,614298753752413698839657124986532471375941286421876539248365917193724865567189342
000001080065030007014967500007000900009003802050400301000090060002804705098020004,723541689965238417814967523387152946149673852256489371471395268632814795598726134
095870020400050081701003000006000400007290015010306090063007509000900803000004062,695871324432659781781423956926715438347298615518346297263187549154962873879534162
200849010700000000690300052002000060004506890009083507056004000000050003410972080,235849716741265938698317452582791364374526891169483527856134279927658143413972685
090080000200600100061003057534000002000046000008700009106009030380005071470020680,795184326243657198861293457534918762927546813618732549156879234382465971479321685
005060210307004006900002043009670004060300980180240070000901000002800500570000308,845763219327194856916582743259678134764315982183249675638951427492837561571426398
400809005308014900070060020001900600000025400290041703560007018004000270007300000,426879135358214967179563824741938652683725491295641783562497318834156279917382546
530000081000037600001000004094560023080410706000200800100040000250980037843006900,537694281428137695961825374794568123382419756615273849179342568256981437843756912
302040005000100480680790032039007000206000019050030607001060090000409020007250800,312846975795123486684795132439617258276584319158932647521368794863479521947251863
085096000003004279000100005070000890608075403310002060040007300006508020000200740,285796134163854279497123685574361892628975413319482567942617358736548921851239746
023700015006090700000403008738000400010000080500060002074900106000214090900005030,423786915856192743197453628738529461612347589549861372274938156365214897981675234
700020300800040096020103004006017500003800072940500000090050100070408635000000480,754629318831745296629183754286917543513864972947532861498356127172498635365271489
090030002830009050064010080900850041700020398000306000082004060040500007501062000,195638472837249156264715983923857641756421398418396725382174569649583217571962834
520000000048305001007460890003040006000208359810000000906170500400800003050020760,529781634648395271137462895293547186764218359815639427986173542472856913351924768
700100050200035006040006700960002004400071300000060980080059020520800090007300510,736148259219735846845296731963582174458971362172463985381659427524817693697324518
040060009006003072500100040800000950910037000762004080280490000003205408000070106,348762519196543872527189643834621957915837264762954381281496735673215498459378126
000400072160500380009020650007010003205907160804000700000056000780004020000703419,358461972162579384479328651697815243235947168814632795941256837783194526526783419
593700080018095074000600000706200050200004603900001820042053000000000019370186000,593742186618395274427618935786239451251874693934561827142953768865427319379186542
540010800000005906170200000050003020703604105092700040014080009000002703800930400,546319872238475916179268534451893627783624195692751348314587269965142783827936451
005400000809307002647000980000206000103009708072000540006010005380750109090003200,235498617819367452647125983458276391163549728972831546726914835384752169591683274
012500708000700000039080502056009070080003109200400060001008000078360090004275300,612594738845732916739186542156829473487653129293417865321948657578361294964275381
498600003200048007006201050730100609050804010000007300060009200000500078041020090,498675123215348967376291854734152689659834712182967345567489231923516478841723596
275040080600950400900008100008006007710000034060120000109702800040095020300000056,275641389681953472934278165598436217712589634463127598159762843846395721327814956
005007046017068503090002100380070069600810007050040000900050030004903080060000024,835197246217468593496532178381275469642819357759346812928654731174923685563781924
900000350401089007070520081508003070000600490304010508820000000006091200035007000,982176354451389627673524981568943172217658493394712568829435716746891235135267849
007108030340000508500090002170040090900603874000020600090000040052031006401700300,267158439349276518518394762176845293925613874834927651693582147752431986481769325
700300906520040001103602500450701000060000037007209800000406203001507080049080000,784315926526948371193672548458731692962854137317269854875496213631527489249183765
540009080006308072003260009057804030090000000008103065109000008060070410200000600,542719386916348572783265149657824931391657824428193765179436258865972413234581697
650000020040000003008076451500700260010340007900020038032000010807001900000864000,651483729749152683328976451583719264216348597974625138432597816867231945195864372
706000000481000009920846005138600400200790016000000502007084050000005730004001200,756129843481537629923846175138652497245798316679413582367284951812965734594371268
308007056290001000000380900003805000021003060400600017060904800540000072007500190,318297456296451783754386921673815249921743568485629317162974835549138672837562194
705043160012700000800000025000007600080090307420030059001020080503800004040605900,795243168612758493834961725359487612186592347427136859971324586563819274248675931
760090201005000060302004000000000756000410000900870040600051000203960004008002039,764593281895127463312684975481239756527416398936875142649351827273968514158742639
052380000001009703600000000507200018000406009390500004000000081105060020809031460,952387146481629753673145892547293618218476539396518274764952381135864927829731465
050093010001204060020006709700085003345700090060000000200067008809001054030940201,657893412981274365423156789792685143345712896168439527214567938879321654536948271
009060070000520000506803002917004500050002163000080090400317009275000080000000640,329461875781529436546873912917634528854792163632185794468317259275946381193258647
004069000070200060901000007300450001005008023680003900030076100000940805509301400,254769318873214569961835247392457681145698723687123954438576192716942835529381476
020037800040006000003504200002010597080000001100293640906300105000070000810609700,621937854548126973793584216362418597489765321157293648976342185235871469814659732
002057800360409001704010620040003000810060970270000085901080502000190400000000008,192657843368429751754318629549873216813265974276941385931784562685192437427536198
003100800009025003410000009168090040000004500090317020075200980006008100020063070,253179864689425713417836259168592347732684591594317628375241986946758132821963475
200000163006031009008020000000000607709105000035480000000000030100640580504270006,297854163456731829318926475841392657729165348635487291962518734173649582584273916
000006002706210403084500900020803010000001006307900204453080000902650000100070049,531496872796218453284537961629843715845721396317965284453189627972654138168372549
910200640500006030067040801400602908006007200100900000709400002005008003200005470,918273645524816739367549821473652918896137254152984367739461582645728193281395476
009500030002019405400003007008037601694020000030900000000800009083040162150000740,819574236372619485465283917528437691694128573731956824247861359983745162156392748
004000008093401500008062010065020970000800350010007200080009760906700002700014003,124975638693481527578362419865123974247896351319547286481239765936758142752614893
002800076007051000648002005010080509800004000300070460506207140090403800000000092,152849376937651284648732915714386529865924731329175468586297143291463857473518692
126900008700000429000500006030048050060010803400200001207005000089420700005060190,126934578753186429894572316931648257562719843478253961217395684689421735345867192
000580200003060704897000006005004609400120070000008020706003000008200501130409000,614587293523961784897342156285734619469125378371698425756813942948276531132459867
700054026000000470021800090600900012370040680009007340230081050840003000000560000,798354126563219478421876593654938712372145689189627345236481957845793261917562834
009301200204600080350070040500264100001005034060090000102900050090008007873000010,789341265214659783356872941537264198921785634468193572142937856695418327873526419
300004010026503000040000200002806045050000090090030706107200680089067100005400030,378624519926513478541978263712896345653742891894135726137259684489367152265481937
002074001000300060504060020000908010456000300901030702030081005800007604007050090,362874951198325467574169823723948516456712389981536742639481275815297634247653198
012090006800070900400000532704500360200810000050004700003086009509240000000003107,312495876865372914497168532784529361236817495951634728143786259579241683628953147
000140020052000800760009003100270950000600004608034070000950031203780005075000200,389145627452367819761829543134278956527691384698534172846952731213786495975413268
300000905010706040508002700000068430000109206005400017209045000003200080470301000,367814925912756348548932761721568439834179256695423817289645173153297684476381592
300070001800960200002418009010007602403100050067000000590004000006002748020080300,349275861851963274672418539915347682483126957267859413598734126136592748724681395
420008100691403500070009000000500012006072000200060083800100907104300020057006040,423758196691423578578619234789534612316872459245961783832145967164397825957286341
090000600200048070185000000300050040500600207601700309430070520007032900000416080,794125638263948175185367492379251846548693217621784359436879521817532964952416783
580090700001206004302105080600807402910000003070004000150009008000340000027060010,586493721791286534342175986635817492914652873278934165153729648869341257427568319
907105060520030410400000300006090503000807006159006000082500000600900042004018070,937145268528639417461782359876491523243857196159326784782564931615973842394218675
090056014007002600000300009500090203079008060400100000920060075351000080000014030,892756314137942658645381729518697243279438561463125897924863175351279486786514932
009400005700001800036007190010000002084206350200708609500930000400000536072800040,129483765745691823836527194617359482984216357253748619561934278498172536372865941
903800570040020000781000063002701350605289007000003900019000020007005490400060001,923816574546327819781594263892741356635289147174653982319478625267135498458962731
805200600000900341400670020029780006700009530510030902006304709100007000040060080,835241697672958341491673825329785416764129538518436972286314759153897264947562183
005403180900060040020910000006200075890035010004070600000801020608002450500000093,765423189981567342423918567136284975897635214254179638349851726678392451512746893
005408003000000040902506807003085001000092086607000200000300095406000100500007624,715428963368971542942536817293685471154792386687143259821364795476259138539817624
700064009090200431018053000000501007237800090500000306080029070002670004000000600,723164859695287431418953762869531247237846195541792386186429573352678914974315628
000050490040006207305002180001005000006870001400009760037208009800010500902000340,628751493149386257375492186791635824256874931483129765537248619864913572912567348
000000520052407030803000001030600008906020040140309050004908006310050070009134000,491863527652417839873592461235641798986725143147389652524978316318256974769134285
000000003300806004029700510001000260047050000083927050410209700050103008700065090,164592873375816924829734516591348267247651389683927451416289735952173648738465192
062300005000708020000500010200003400045109760670004803903010506014000080080020009,862341975159768324437592618298673451345189762671254893923817546514936287786425139
006009710007000020820000003030950600401070080500014207005043108900006070208001005,356829714197435826824167953732958641461372589589614237675243198913586472248791365
023005007806000040700020900000501000278400100400800793901000876040003050002096000,123945687896317542754628931369571428278439165415862793931254876647183259582796314
005784290000063081000000700700000369980006004050000810302900040400027050060400107,135784296297563481846192735721845369983216574654379812372951648418627953569438127
021008075000900000403050600805002003140700008036090004098500006000600200052471300,921368475567914832483257691875142963149736528236895714798523146314689257652471389
041500000760901300805002070020800700006090001130700049009407600400380500000020087,341578926762941358895632174924813765576294831138765249289457613417386592653129487
002000500600148009074030800100620300500073104060400050083000600090017280200090007,812769543635148729974532816149625378528973164367481952783254691496317285251896437
900608000000090745234100000086000000000806034105907002060002413020000800073050096,957648321618293745234175968386524179792816534145937682569782413421369857873451296
007105408004060520390000060060020070700640012080900000000018054000092607032000100,627135498814769523395284761463821975759643812281957346976318254148592637532476189
600007002100460070093025008060083905000600800008041020020039100079000050005004603,684397512152468379793125468261783945947652831538941726426539187379816254815274693
080005047100290000340700900020030080500640009006020000070000308008100065209060170,982315647167294853345786912724931586513648729896527431671452398438179265259863174
000609000064300970700008530030805190409007008007200000000010060003902054548030200,325679481864351972791428536236845197459167328187293645972514863613982754548736219
504903600007010305090600028940830200016047000000290050003004000800162000060000781,584923617627418395391675428945831276216547839738296154153784962879162543462359781
007000000302010080900703026000046109650000400000521070070039800003200061045807000,587692314362415987914783526728346159651978432439521678276139845893254761145867293
009306800074090001000008020300280700000400010612007050050020007790050360030800045,529316874874592631163748529345281796987465213612937458451623987798154362236879145
105003009060020000073009600019750304006300085000040020000000056030108000604970102,145683279968427513273519648819752364426391785357846921791234856532168497684975132
060523000800710000027000400001065940040370200630908050400090708200006001900800300,164523879895714632327689415781265943549371286632948157453192768278436591916857324
417068000502000304009500008104009000020081605000702090600040500005090120030070006,417368259582917364369524718174659832923481675856732491691243587745896123238175946
005070306208300090004029105000503007706000400030960000902006540010098260000001078,195874326268315794374629185829543617756182439431967852982736541517498263643251978
130604090408057000500830100009000060070000205080706300000040802900000417010302000,137624598498157623562839174349285761671493285285716349756941832923568417814372956
019000025080090640030520007420370100060010008003800070000906431000200090506004700,719643825285791643634528917428375169967412358153869274872956431341287596596134782
450080001903604500200000700080351006040809000030067020601002035000900604070030010,457283961913674582268195743782351496146829357539467128691742835325918674874536219
