061040000893020000000805009010000370406087010280090004000004205059000030020906080,561749823893621547742835169915462378436587912287193654678314295159278436324956781
003048070070000006968002500004020700380009100210070098046010802000006400001003005,153648279472195386968732541694821753387569124215374698546917832839256417721483965
100000090075860300092540700000600004700098000251730060609000508024100030500002600,168327495475869312392541786983615274746298153251734869619473528824156937537982641
006052094080407000007390000200045078049200030060100020000703109002006300071080500,136852794985467213427391856213645978549278631768139425654723189892516347371984562
020006007804230000190040000680019030705023100009800005060001049050000803000407260,523196487874235916196748352682519734745623198319874625267381549451962873938457261
690170048004900060082003500050000200200010070019006803043790001061020785000050000,695172348374985162182463597456837219238519476719246853543798621961324785827651934
201309070005010000608070300000906050050008206403000097000420000932000410780005603,241369578375814962698572341827936154159748236463251897516423789932687415784195623
100000050000380706080905013000008900236109400700046000820070004070000621009500370,163427859952381746487965213514738962236159487798246135821673594375894621649512378
430058600006020003050390180297000000000004502001600079068009700000005801070030046,439158627816427953752396184297513468683974512541682379168249735324765891975831246
067008103002009046190000000000026054450017030003400008016050009370900000008030270,567248193832179546194563827781326954459817632623495718216754389375982461948631275
000450800603900200140320600000102009004000086900030700009670000075008001820500340,792456813653981274148327695587162439234795186961834752419673528375248961826519347
900302060000507000084010300098000000670051000201009538032000900000400857407608010,915382764326547189784916325598234671673851492241769538832175946169423857457698213
004083000051400002890075001030002470200000095986000000072300064010006508300900120,624183759751469382893275641135892476247631895986547213572318964419726538368954127
820700016047003580000050040009036400200410903070000001006905002103800700090040800,825794316647123589931658247519236478268417953374589621486975132153862794792341865
306042080570003001090600004480000600200075098900020407130097000000018705000500900,316742589574983261892651374487139652263475198951826437135297846649318725728564913
829005000005130004000720960908501023301000806000000750000417030600080509403000002,829645317765139284134728965978561423351274896246893751592417638617382549483956172
000007000416005000080010090090002704045090280870603100020300407900000500500176008,259867341416935872783214695691582734345791286872643159128359467967428513534176928
005600003638007040000010020062004100090000507070308000900400018100025004300980706,215649873638257941749813625862574139493162587571398462957436218186725394324981756
079000540000600002231040078040138900060000000805002004300954206980000001000007430,679281543458673192231549678742138965163495827895762314317954286984326751526817439
800000200027090040403057061600000100089001500014380007000806000300010926205700400,856143279127698345493257861632975184789461532514382697941826753378514926265739418
060000425270340000081090000000007608036000519900000040807405160500160092002030000,369871425275346981481592376124957638736284519958613247897425163543168792612739854
800602705900000000046080120030105080600070900000004037007010803025000001108500094,813692745972451368546783129739125486654378912281964537497216853325849671168537294
030008000160000542094000013200050036010067009370490150401073060000200901000005080,532148697168739542794526813249851736815367429376492158481973265653284971927615384
200806000050002006091040700070285040068390000000007010002050007700004590016030082,237816954854972136691543728179285643468391275325467819942158367783624591516739482
010000260060500007703009005020400790400018000350072100208100300605030020009607040,514783269962541837783269415821456793497318652356972184248195376675834921139627548
004051070321908050900420000608000000045009263000007140009002614072015080030000005,864351972321978456957426831618243597745189263293567148589732614472615389136894725
710900500400008100005024930000070060000081003873009050090000072064000000050263008,712936584439758126685124937541372869926581743873649251398415672264897315157263498
005100300094030007700648000060370908001205670000000204830020060107000892000050001,285197346694532187713648529562374918941285673378916254839721465157463892426859731
000072098080019060076000003092041050400006370500800001703000620000504080001200409,134672598285319764976485213392741856418956372567823941743198625629534187851267439
001000003005801694020396500200950070100002048064003000042008000930070000800400260,691547823375821694428396517283954176159762348764183952542618739936275481817439265
200498000536020000040000017005019000004607005720030080080000479090003500000076108,271498356536721894948365217865219743314687925729534681683152479197843562452976138
320800000905070030708095100080007400500010600030604270261050300000403006050009008,326841957915276834748395162682537491574912683139684275261758349897423516453169728
067300004305807090129060080400520000000030020051000078000109650000004009002650100,867392514345817296129465783473528961698731425251946378734189652516274839982653147
010000603040076000902500080030890050420001090500604100600035008008009504000710000,715982643843176925962543781136897452427351896589624137691435278378269514254718369
005010290800006100032900056087351600090008000000090004001045900060007082700200430,645713298879526143132984756487351629296478315513692874321845967964137582758269431
803600009000500470004001206030050601700020800051900003940307080120098005006000000,873642519612539478594871236238754691769123854451986723945367182127498365386215947
652000001000872400004000093028160039000280100730409000000690050080005700015008020,652934871193872465874516293428167539569283147731459682247691358986325714315748926
002009080180205000950003004090068007704000030000400061340590700007100305000706200,472619583183245679956873124291368457764951832835427961348592716627184395519736248
701008360060000200050403000309600702004050001082010090820709604006021007000040500,741298365963175248258463179319684752674952831582317496825739614436521987197846523
018600054300900120400000007000382005006010203100705400700030090090204060025007008,218673954357948126469521837974382615586419273132765489741836592893254761625197348
007200050100073800460000090093087005700309281000004000026041070004000900008050043,837296154159473826462815397293187465745369281681524739326941578574638912918752643
000875004100900207060003000830009640970420080002000010000580000405007006280140390,329875164158964237764213958831759642976421583542638719693582471415397826287146395
460000900008605000102000037090004000706900400305018206800043001000270050017890002,463127985978635124152489637291364578786952413345718296829543761634271859517896342
380020005060001090079086014603090008004350920000074501542060100000807000000000043,381429765465731892279586314653192478714358926928674531542963187136847259897215643
003027906004130080800005001017900000046000850900040030000086700029010400560700200,153827946674139582892465371317958624246371859985642137431286795729513468568794213
300900826000001470024000031000027590009003000108000060630540010500069002807300004,315974826986231475724856931463127598259683147178495263632548719541769382897312654
003000120027000054050308006076810402039060071008034000002100600000240900700905040,693457128827691354154328796576819432439562871218734569942173685385246917761985243
107008503009010200000900006265003000800600140004587000020070809000390461400006020,147268593639715284582934716265143978873629145914587632326471859758392461491856327
070010305106230008000064090300807902020000070015090000908406100200500003000100420,472918365196235748583764291364857912829341576715692834938426157241579683657183429
000819600308000901000006040900028460030507100000060200610750802790002000024300050,542819637368475921179236548957128463236547189481963275613754892795682314824391756
085004020023760000000000901097050000300010406008490003000006248064009075801200300,185934627923761584746528931497653812352817496618492753539176248264389175871245369
400000000087000652035006810020300080000749300006021075052004007003108009090007560,461582793987413652235976814729365481518749326346821975852694137673158249194237568
192050000000000800650170029009040503020010708006309040030025000700690031004800007,192458376347962815658173429819247563423516798576389142931725684785694231264831957
037201090500800200080930704009080451016002003004003000903010560200040008070506000,437261895591874236682935714329687451716452983854193627943718562265349178178526349
000270901083004002709600500000400000906751030817009000000805760430060820000040010,564273981183594672729618543352486197946751238817329456291835764435167829678942315
980043060051000070003100209400501708000078100000430025306004000000090806190205040,982743561651982473743156289469521738235678194817439625376814952524397816198265347
400827005010003098205000004000136000054000803067000900800709050090210076600054100,439827615716543298285691734928136547154972863367485921841769352593218476672354189
301500207007096080060100040806004150030000000902081730285400000040270809000000400,391548267427396581568127943876934152134752698952681734285419376643275819719863425
000900467308050009040012080003400000627003000500090008000027605280060074001305000,152938467378654129946712583893471256627583941514296738439827615285169374761345892
013060027970004000000030104006097200004200080090081050800500942750000030300612500,413965827978124365625738194586497213134256789297381456861573942752849631349612578
053000800600090043700068001038720410000010590020009000007036900004001008562007000,253174869681592743749368251938725416476813592125649387817436925394251678562987134
050008040980000006610500070009102000000600183800004700093000500006210034200705009,357968241982471356614523978739182465425697183861354792193846527576219834248735619
058200004000007100201364005965010083000850002000006010009000300100439050084000706,758291634643587129291364875965712483417853962832946517529678341176439258384125796
006003410429500700500000028100009630082001000005624000000407009050060307018900006,876293415429518763531746928147859632682371594395624871263487159954162387718935246
029040000850067304007090602560400001000000200000032708093050010000609070040180500,629345187851267394437891652562478931378916245914532768293754816185629473746183529
000005980079000004100020063080400125010900800602500070001004300090186000540307002,326745981879631254154829763987463125415972836632518479761254398293186547548397612
246800075900000003000005002382704009409000010070600000000060020638190047001307090,246831975957426183813975462382714659469253718175689234794568321638192547521347896
040035170290000600050760400704259000000600000380040000009301860021000750000008209,648935172297814635153762498764259381912683547385147926579321864821496753436578219
040520090000047051000006740008010903096004807003800460080050030200981600007000002,741528396869347251352196748478615923596234817123879465684752139235981674917463582
309500000008043627470010500100607050056034008007200000040008061080005730290000400,369572814518943627472816593124687359956134278837259146745328961681495732293761485
302000000870600150165040030090000408006009270000510000004170809001826700200093060,342951687879632154165748932593267418416389275728514396634175829951826743287493561
080040000037006900000093018600020083008005490240100507002308706005970040001500030,986241375137856924524793618659427183718635492243189567492318756365972841871564239
000070006500320140042806039000587000009400001067003820000790082098030000715000060,983174256576329148142856739321587694859462371467913825634791582298635417715248963
064009851200046073005000400008002000000678009130090060000054030700000502020830190,364729851281546973975183426698312745452678319137495268819254637743961582526837194
068000050050014027017950000005002008090500704046091000000648009903000080000370510,468237951359814627217956843735462198192583764846791235521648379973125486684379512
810309005305000084004070100009080650050704000003610029020000700900801000400020068,816349275375162984294578136149283657652794813783615429528436791967851342431927568
003801007501003040420000080070094060006700098040180300060052704039000002000607010,693841527581273946427569183875394261316725498942186375168952734739418652254637819
001300570040090006602070081400001050078004000029800403080006000350040208007500009,891362574745198326632475981463921857578634192129857463984216735356749218217583649
040600200900580706005312009704900810060700003002050040350068070400100300010007098,843679251921584736675312489734926815568741923192853647359268174487195362216437598
007003805000276900043000000008400350500900016020001009001782603309000200600010048,967143825815276934243895167198467352534928716726531489451782693389654271672319548
000087000302410860076500049000008001420360090900020500094070010500000003060051280,149687352352419867876532149635798421421365798987124536294873615518246973763951284
000980360430060070200100490005006010046051009023700500900005008080200000051073020,517984362439562871268137495895426713746351289123798546972645138384219657651873924
900002051567090003000000680830600100070003002002004090084030000305008206100759004,948362751567891423213547689839625147471983562652174398784236915395418276126759834
478000000020060983060005010980701050100000406054930000803092060000800000002050041,478319625521467983369285714986741352137528496254936178843192567615874239792653841
700400000001205640060008730004300006025000890900081070603854000008092001090030050,759463182381275649462918735874329516125647893936581274613854927548792361297136458
907000005020108009300020040009043002050002600002856001041600037600080950800437010,987364125524178369316529748169743582458912673732856491241695837673281954895437216
890060000020570806040009035609250004008946007100003020000107000507038010003020040,895362471321574896746819235679251384238946157154783629482197563567438912913625748
060485700203007000070060190045700060900034070001600020000200003584900006390010800,169485732253197684478362195845721369926834571731659428617248953584973216392516847
000107000043000000060080025609005800000030019500240603380570000120093700050026400,295167384843952167761384925639715842472638519518249673384571296126493758957826431
000750100020000490700032000065000018000390006004015002078020360050180079002406050,689754123523861497741932685365247918217398546894615732178529364456183279932476851
000370024560100008003005900205049030000708650900001082130850006007000000600002090,891376524562194378743285961285649137314728659976531482139857246427963815658412793
008400050410206003090300100940000060506000780003095002000063070002008001080701540,238419657417256893695387124941872365526134789873695412154963278762548931389721546
060500040392000600000600803504003190100407006070018002900301008800700210050090700,768532941392184675415679823584263197129457386673918452947321568836745219251896734
006035000090000318014000700000020000460950802038004079023091605000000080070840190,786135924592476318314289756957328461461957832238614579823791645149563287675842193
097258601000090000208000004309600007081300050006709012000506403803002000604000270,497258631165493728238167594329615847781324956546789312912576483873942165654831279
840000020007000509003206070050430096302800100090010080501397004400000307000580010,845973621267148539913256478158432796372869145694715283521397864489621357736584912
002760048060020700580300600109030002008604000750810930201009000600200071004050003,912765348463928715587341629149537862328694157756812934231479586695283471874156293
009030820600000054007800160400005710080029000305480000060000500003602071920070043,549136827618297354237854169492365718186729435375481296764913582853642971921578643
034590010000036809076800050200000107085060040040780600050004920001900730000200008,834597216512436879976821453269345187785169342143782695358674921621958734497213568
508090000040306008009000020900612003180000700320048509005000001070400306600907400,568294137241376958739185624957612843184539762326748519495863271872451396613927485
