800023050600008070001006043350600700706405120008090000009010000040879506000000230,874923651635148972921756843352681794796435128418297365569312487243879516187564239
070002001000569320000010800006000200014020780708006059580607410039000000000843500,675382941841569327293714865956178234314925786728436159582697413439251678167843592
000000067035048000900172800050000380008307009006010020001230506079400000600005901,812593467735648192964172853157926384248357619396814725481239576579461238623785941
000530701089000500005002400300780002090100806060459000200304000070060180054017009,426538791789641523135972468341786952597123846862459317218394675973265184654817239
007030500600489010083706020000007900704003005506040200321000004005910070000008056,947132568652489713183756429238567941714293685596841237321675894865914372479328156
006008020050600890047010005308007009501260740000000300260400100003506080009370200,936758421152634897847912635328147569591263748674895312265489173713526984489371256
600309500320001090070500830054090280010000005906000047200010000040620700008750306,681349572325871694479562831754196283812437965936285147267913458543628719198754326
100000087043000090200003564090625010300090258010070009008162000007900030450000000,165249387743586192289713564894625713376491258512378649938162475627954831451837926
000109004290060500060050087704830600600000720059600100007020310102400000580300090,375189264298764531461253987724831659613945728859672143947528316132496875586317492
200900100600301905007680000040050096002000081708064203100000047000002030453809002,235947168684321975917685324341258796562793481798164253129536847876412539453879612
000500009540600300098042700000080406003709010207015030901800050070006020020371800,716538249542697381398142765159283476483769512267415938931824657874956123625371894
100073000290401070000800054000000006426000005038029000702040080053000090600030517,184573269295461378367892154971354826426187935538629741712945683853716492649238517
000085910004600280700010035010009000806102400290007800070000306000901702503400000,362785914154693287789214635417869523836152479295347861971528346648931752523476198
002700140600903005701052860005000000400000380038001024040060790029340600007500001,352786149684913275791452863275834916416295387938671524543168792129347658867529431
809004000040790080007100006500970820100030007000020453063080700070042500050300069,819264375645793182327158946534976821182435697796821453263589714971642538458317269
001650070002008309007000000018067043090304210400590800060079500000000120035820000,981653472642718359357942681518267943796384215423591867264179538879435126135826794
003097400510006030000050260080003670000580010041002009270030005600104090000900800,863297451512846937497351268985413672726589314341762589279638145658124793134975826
700000006043200000061050080002004030089003500100509607490070051058360040000000802,725138496843296175961457283572614938689723514134589627496872351258361749317945862
000502089800030420006010030080007000152000600497058010009080007341900002200006500,734562189815739426926814735683127954152493678497658213569281347341975862278346591
018002700360000001000035000806910070030000040540870290002060500007098034080450010,918642753365789421274135869826914375739526148541873296492361587157298634683457912
000300056506007290430900100750082010010005602009010070600039000001060008823070004,197328456586147293432956187754682319318795642269413875645839721971264538823571964
200008007009140000038200006650302010000007204300900080807006300096003401400050900,245638197769145823138279546654382719981567234372914685817496352596823471423751968
010803200007450000003070908309021706200604010500000004405308070000006005080290001,914863257827459163653172948349521786278634519561987324495318672132746895786295431
000600000608035020092874010003250600040007802805009070000000407360000590059100030,437621985618935724592874316173258649946317852825469173281593467364782591759146238
008270400005009006070150000020400003906003180080007005001302009250080600004960800,398276451415839726672154398527418963946523187183697245861342579259781634734965812
020800300035004092100020067840000730000000005700930610006040100209760503300085970,427896351635174892198523467841652739963417285752938614576349128289761543314285976
000050009070100620890002400204780016080006003001405000007301280300040000106020900,612854379475193628893672451234789516589216743761435892957361284328947165146528937
080600090406020037703000000900050040502008901070030820000045002047006300020100006,281673594456829137793514268918752643532468971674931825869345712147286359325197486
729053000040060205000017000904105003005020804800300600230000016086900400001000507,729453168143869275658217349964185723315726894872394651237548916586971432491632587
079800000000000825002430000010052480500013000060900107008041060030060709021090340,179825634346179825852436971917652483584713296263984157798341562435268719621597348
917026008080300250053000007000005000320400000006000310001004970400057620090160500,917526438684371259253849167179635842325418796846792315561284973438957621792163584
186025704004090000000704050035200069901060005060000100002970000300000080850013407,186325794574196238293784651735241869921867345468539172642978513317452986859613427
000091480406020000070050010305072069004500000200008040008749500902003800100000306,523691487416827953879354612385472169794516238261938745638749521952163874147285396
009213005008005020000070046700050000001700684042900000500320000600008401013600009,469213875178465923235879146786154392951732684342986517594321768627598431813647259
090000060300006571105000408020601083001257000400030005004090806050008120007023000,798514362342986571165372498529641783831257649476839215214795836953468127687123954
004000098800306070100870600070000052005039100649005000000680014000007203420010760,764251398852396471193874625371468952285739146649125837937682514516947283428513769
870000130206009000000100006100042309638700400000081050300027900020860045705000800,879256134216439578543178296157642389638795412492381657384527961921863745765914823
607400009091760500302000080000812060004005910080649005000030704705100300000900020,657428139891763542342591687579812463264375918183649275918236754725184396436957821
002007050030048600601009020003002804090000037100060000820030740007004019900500002,482617953539248671671359428753192864296485137148763295825931746367824519914576382
208601040040730000509020010005208160060150300004000009000003006700480000010906082,238691745641735298579824613395248167867159324124367859982513476756482931413976582
000870091904006008310050072005310900706008030000200840480092500003000064501000200,652873491974126358318459672845317926726948135139265847487692513293581764561734289
000000610276050008408003009390004052100080060000502730003820005061070090750009400,539248617276951348418763529397614852125387964684592731943826175861475293752139486
802040609009000530700000020060300100483060002190087004000009701300105800006470050,852743619649812537731956428267394185483561972195287364528639741374125896916478253
005800240097062001800007050050004100102070090340680700080013402900400038030000006,615839247497562381823147659758294163162375894349681725586913472971426538234758916
300090002089460000020008104800001307500000000004070068030785900006000000200004571,345197682189462735627358194862941357573826419914573268431785926756219843298634571
402000900000000850907650010309005400000780060016302090004298500000010300501007028,452871936163924857987653214379165482245789163816342795634298571728516349591437628
001090080070600001436820500000704062014230000790580000520070300003050490000000800,251397684978645231436821579385714962614239758792586143529478316863152497147963825
801309072560010900037080400020050800006400050304690000200000041000230000678900030,841369572562714983937582416729153864186427359354698127293875641415236798678941235
049200060700030500000005102060054038300902700001780006003870001100300904096000020,549217863712638549638495172967154238384962715251783496423879651175326984896541327
004009000060420010300061700005030000040007509016900082058012030002040091070800600,184379256567428913329561748895236174243187569716954382958612437632745891471893625
010003008020050401490006007003915200000007300169002000675809040042001700800000006,517493628326758491498126537783915264254687319169342875675839142942561783831274956
005900002300084500010300000040007006790003400800062309000050768502006910009140003,465971832327684591918325647243597186796813425851462379134259768582736914679148253
071604080560708040090050070007402006009003000280000300400060590000820001003100807,371694285562738149894251673137482956649513728285976314418367592756829431923145867
700020901592007408430000000000390060080001340000064002210006703005032009600180500,768423951592617438431958276124395867986271345357864192219546783845732619673189524
000605072200080500480307900170002080359004006004190000090000305000210047000703100,913645872267981534485327961176532489359874216824196753791468325538219647642753198
040003100920000530008100000000700064010982750805040900790530000000091400000608020,547823196921467538368159247239715864416982753875346912792534681683291475154678329
000010658000800030020903400005400002670028003130607500260050071081070040400009000,943712658716845239528963417895431762674528193132697584269354871381276945457189326
706802004080001907002500000240900070109000203000007450050709000300040100098010036,736892514584361927912574368245983671179456283863127459651739842327648195498215736
000006079005490020020010008000002800430800006670001050350060200819500400040187300,184236579765498123923715648591672834432859716678341952357964281819523467246187395
006000700000400058070269040250008007100053060700000390301940500090007201000806000,416385729932471658875269143253698417149753862768124395381942576694537281527816934
008950000000004301460273009640010200050400700009000086130800507520000060907002034,378951642295684371461273859643718295852496713719325486136849527524137968987562134
000100000090530040000007562005002009680341007400800310074009005030708100900060020,568124973792536841143987562315672489689341257427895316874219635236758194951463728
190400005000080062050060130900031007004870090702504008000000201800059300063000050,196423875347185962258967134985631427614872593732594618579346281821759346463218759
600000000520107030080324001005030980790800360000402700401000500370081026000009000,613958247524167839987324651145736982792815364836492715461273598379581426258649173
040000000809305200000120840010008609400070003025630000500097060080060901700004032,142786395879345216653129847317458629468972153925631784531297468284563971796814532
000030020005018034090700060207500903054209008010070000106840000000090007830600015,781436529625918734493752861267581943354269178918374256176845392542193687839627415
800702030090000040603508900005200069008001570000960401400009050081300000350106020,814792635597613248623548917145287369968431572732965481476829153281354796359176824
901000700030017060800003904203060040400031000017809005006504209005000000000026081,961482753534917862872653914293765148458231697617849325186574239325198476749326581
050080000207600900009400310070912004380007001002000506000000648600090050401000700,153289467247631985869475312576912834384567291912348576795123648628794153431856729
005408000069705008700012603000806014007000090012090300300007060000203480051000002,135468927269735148784912653593876214647321895812594376328147569976253481451689732
000006104510708600890430000060070090400093520300800001002040708001602005000500360,273956184514728639896431257165274893487193526329865471652349718731682945948517362
000430600900008025013000090008000510400210007790006003040300060205700009807602100,582439671974168325613527498328974516456213987791856243149385762265741839837692154
104723000060050400500840097008300010709080002030405608000960200912000040000007530,194723865867159423523846197658372914749681352231495678375964281912538746486217539
600040000920000003500907010001560000403008020095400708000839000302001509080050607,618345972927186453534927816871562394463798125295413768756839241342671589189254637
360004090001005004008279000070640203400002108006000000900530601810000037007900500,362814795791365824548279316179648253453792168286153479924537681815426937637981542
040000126009081307075000009050006000300005208927003045600200010001034070000050800,843597126269481357175362489458926731316745298927813645694278513581634972732159864
070900650031008070400210090009726100610000700052043900580370040000009068300002000,278934651931568472465217893849726135613895724752143986586371249127459368394682517
000058920070000500590020074000010050060803100300042609001070000750009300028406000,143758926872964531596321874489617253265893147317542689631275498754189362928436715
952730040008040907000100625000510769000008010740000503020403000675020000010090008,952736841168245937437189625283514769596378412741962583829453176675821394314697258
200400050500290601001008900003900107006084002700630000108002340450100079060000000,289416753534297681671358924843925167916784532725631498198572346452163879367849215
083000900960050004004060580800130270205840390700006001601700030000200007050094020,583471962962358714174962583846139275215847396739526841621785439498213657357694128
020810600300064015090700000001940020080000360700000059004001007509470200230006800,425819673378264915196735482651943728982157364743682159864321597519478236237596841
700010025200003100400906700003059400010300060907008002800001543004230000005007009,739814625286573194451926738623759481518342967947168352872691543194235876365487219
040520300706000000950803046080400219201600700003000008500008000804050071000109065,148526397736914582952873146685437219291685734473291658519768423864352971327149865
598020600400000072730160500000035400020800039006071080003080050200400007070609100,598327641461598372732164598987235416125846739346971285613782954259413867874659123
009800430300000028600500900000900702071005000005602143006009500080407001907003206,719826435354791628628534917463918752271345869895672143136289574582467391947153286
020730900900600450600005003070006000004003719501008000030040060019000578200010004,125734986983621457647985123372196845864253719591478632738549261419362578256817394
000000470062000590001375060100460089036900000070180250059004010008020700340608000,583296471762841593491375862125467389836952147974183256259734618618529734347618925
810000094052003700000468001920000007701200805500300060634050100007910600000700240,816527394452193786379468521923685417761249835548371962634852179287914653195736248
006003800100005003740800020020000450005062001000070900310400090084210600562380070,256743819198625743743891526629138457475962381831574962317456298984217635562389174
600050012390012008050700000104068300000004076800597040080000029502340007060001050,648953712397412568251786934174268395925134876836597241483675129512349687769821453
040060500895300000600000341054000708210078000300009264000080072501900800030601090,143762589895314627672895341954236718216478953387159264469583172521947836738621495
080005071050060300600247008000000060300891002407300900006480210000059007093000450,284935671759168324631247598928574163365891742417326985576483219142659837893712456
780900006400003290001006000040000007005700001600850430500240713002008900910030060,783925146456173298291486375149362587835794621627851439568249713372618954914537862
679400520000000073080020100005006000200071040801050930000040006030590700510002804,679413528152689473384725169745936281293871645861254937928147356436598712517362894
010080950000601000384070000090200003001000006500749100703004210200050068068390400,612483957975621834384975621897216543421538796536749182753864219249157368168392475
090680000830902700004010500023000050605207089040061300006809072400000906100300040,597684213831952764264713598723498651615237489948561327356849172482175936179326845
000200100309150080007090036023060050800504090060009700002900400580030001106807300,658273149349156287217498536923761854871524693465389712732915468584632971196847325
000006500030071806087030090009004732270098600000500100914002000500800200000163004,192486573435971826687235491859614732271398645346527189914752368563849217728163954
006013850870090040100004062024070003000006000090351080953800100000005000480260007,246713859875692341139584762524978613318426975697351284953847126762135498481269537
