000004860350000070020870009901700600004315087000902300080000500003621040007509001,719254863358196472426873159931748625264315987875962314182437596593621748647589231
310000062000076830090002400800720045950080000060405000200510907080060010003804050,317948562425176839698352471831729645954681723762435198246513987589267314173894256
052000810000000093307410602460070080000090301703205000006053400200709008080062500,652937814841526793397418652469371285528694371713285946176853429235749168984162537
750600000084000060000207100000003706090000510100850002370046201900100305802000040,751694823284531967639287154528413796493762518167859432375946281946128375812375649
600970405070052000000603280205000001018300940004708500090000300007190000841006090,682971435473852169159643287235469871718325946964718523596287314327194658841536792
420080000000091806000705301030200690009057000700300150012004000608010534500870009,421683975357491826896725341135248697269157483784369152912534768678912534543876219
030000000100060407009000265050012090004008006000039018400800073001790600260351800,536247981128965437749183265853612794914578326672439518495826173381794652267351849
012900006387000000060805000806013002004780950030000000000050009900020341070401280,512974836387162594469835127896513472124786953735249618241358769958627341673491285
700058009200040030051002800004000652000001970609300408040670100580000006030500720,763158249298746531451932867314897652825461973679325418942673185587214396136589724
005000142000007089062000000040095076010026900009080400180500260073800000000341007,795638142431257689862914735248195376317426958659783421184579263973862514526341897
020178006401006000080002053004860200200009040009030670910500000700000800503400907,325178496491356782687942153174865239236719548859234671918527364742693815563481927
005069700200100000000070043004007008301050602060300059149000800072530060003084027,435269781287143596916875243524697318391458672768312459149726835872531964653984127
750600000308070640100305009080062300510700000092410070000007230000940180004001050,759624813328179645146385729487562391513798462692413578961857234235946187874231956
700000503503906000012000870000400210009003065670090000865009100034080007000302040,746128593583976421912534876358467219429813765671295384865749132234681957197352648
038090405010065700007300008074000500800901300006052001600010087902400000050083090,238197465419865732567324918174638529825941376396752841643519287982476153751283694
200601000947000000080439500009702008038016024700050601070000030006280010402500900,253671849947825163681439572169742358538916724724358691875194236396287415412563987
005900608700600410000213500980000060067040300021590780400030000030702000802001050,215974638793685412648213597984327165567148329321596784456839271139752846872461953
000001530170009680804000009702000003080000465040630200016207008000056010200300750,629481537173529684854763129762145893381972465945638271516297348437856912298314756
700500031309087000060090074050360000008040213007800050005000000140200005000601082,784526931319487526562193874251369748698745213437812659825934167146278395973651482
001820904780300100600005003003700000590040280200006041105000020007000000830974006,351827964784369152629415873413782695596143287278596341145638729967251438832974516
300000000609415800052030100803904007000008040901070200000500308004793061007600020,318269754679415832452837196823954617765128943941376285196542378284793561537681429
010805002700900036098020000600290005530100008042003190004307000060000751080060000,416835972725941836398726514671298345539174268842653197254317689963482751187569423
005600000000010407380090060067000020850900010002304850000081340094760002000500001,745632198629815437381497265467158923853926714912374856576281349194763582238549671
650800200019650000003017080000520014700400530030076000062001900000008470408390002,657834291819652347243917685986523714721489536534176829362741958195268473478395162
400905071103004062270000000820050003030009016090068504040130058000806000007040100,468925371153784962279613485826451793534279816791368524942137658315896247687542139
500271900038005004070480050609040025700000003010600009140730200006020080000000301,564271938238965714971483652689347125752819463413652879145738296396124587827596341
200016089095200000000080007100070605406100800000504030004009310320408700070030250,247316589895247163613985427139872645456193872782564931564729318321458796978631254
650001090002040078408000500000008639100050000307000100040310080000069020090025413,653781294912546378478932561524178639169253847387694152245317986831469725796825413
300600850010300060090070004607030400008057210000208003000102000502080090089040307,374619852815324769296875134627931485938457216451268973763192548542783691189546327
700920035000070020008506100100200306050000080060300490006851000400000509020003067,714928635635174928298536174149287356352649781867315492976851243483762519521493867
010006000004030800705094060056873020270000000039000650163005270008000040900200001,312586794694732815785194362456873129271659483839421657163945278528317946947268531
080032170300800000000007040102000600590010400000450280730600050050940006060780013,486532179317894562925167348142378695598216437673459281739621854851943726264785913
000608000070030800020007530590004016060970080408010005109002074000150020600003009,315628947974531862826497531597384216261975483438216795159862374743159628682743159
900105047013000600500087090090070800630040021002630400080000000104000005200019703,928165347713294658546387192491572836637948521852631479389756214174823965265419783
406020573000000008301000694000800006760042000009503010003008965004007300508090200,486921573957634128321785694132879456765142839849563712273418965694257381518396247
801604000000290005200007640010700000070000328006548079000000083059030400400916007,831654792647291835295387641918723564574169328326548179162475983759832416483916257
000100760095003004200005080007061000430000600008407300049000002070012050600830109,384129765795683214216745983927361548431258697568497321149576832873912456652834179
040018900602000715300000004490007060056120000070490300005000800700360040000075290,547618923682934715319752684493587162856123479271496358965241837728369541134875296
450000002067003100100409800000968001000000584703001009006100203240600900090085070,458716392967823145132459867524968731619372584783541629876194253245637918391285476
650000030040019068107005200030007490020301005006020080004070300000480010793050020,659248731342719568187635249531867492428391675976524183814972356265483917793156824
000008200000594006385070000703900680821000400090302001000600040049010700200057360,964138257172594836385276914753941682821765493496382571537629148649813725218457369
540000760009007800083012004001760900005091026400000003300248050600030007020500018,542983761169457832783612594231764985875391426496825173317248659658139247924576318
040030602700529100003800005800940000090106000050003074100007830070400500560092000,945731682786529143213864795837945261492176358651283974124657839379418526568392417
020075060093641500008000000830007000100002805042300907005060423004913000080000600,421875369793641582658239174839157246176492835542386917915768423264913758387524691
040031050009620030200000007070405060180067402003090500007083040300049016000100800,846731259759628134231954687972415368185367492463892571617283945328549716594176823
400020050001083670906000204203540100000006830005907060047051000600300008019700000,478629351521483679936175284263548197794216835185937462347851926652394718819762543
000001735050402601806000490240030170300000000000706009000908540970500200038064000,492681735753492681816357492249835176367129854185746329621978543974513268538264917
000020700086300000000009436900017800000060521530040000100075904609400008008002017,394126785786354192215789436962517843847963521531248679123875964679431258458692317
900008007001004020072000930083049500450020109000060470090570206630000701500010008,945238617361794825872651934783149562456327189219865473198573246634982751527416398
002014300570030000800000691904005700000000080050367000100470506430006008006090012,692814357571639824843752691914285763367941285258367149129478536435126978786593412
000062370405000000700080496900056020008004003503970100090100002007803001041005080,189462375465739218732581496914356827678214953523978164896147532257893641341625789
250000310100005068037000009706014050009030020400206000000800070000620904801097602,258469317194375268637182549726914853519738426483256791962843175375621984841597632
007608905000032000800010730002080500600174000093500401500000109049003027006400000,327648915951732864864915732412389576685174293793526481538267149149853627276491358
041027090650390004000800007500000010132900058068002000070030600000500902089410003,841627395657391824923845167594783216132964758768152439475239681316578942289416573
003901500260004108800000034104065000700009003000020900040002000937040260608170050,473981526265734198819256734194365872752819643386427915541692387937548261628173459
890700004004006020703410000030500807000391060052060000000040019069173040008000302,896732154514986723723415986631524897487391265952867431375248619269173548148659372
050009003006070200028001047014057900609000000000038061200000850000410009795020034,457289613136574298928361547314657982689142375572938461241793856863415729795826134
000000170109320006507604002400000005850060720020091308670030801200089060030000000,362958174149327586587614932493872615851463729726591348674235891215789463938146257
000900570075080000031060020800402150006090030200300900060010002147800060509007840,682941573475283619931765428893472156756198234214356987368514792147829365529637841
030000250027460009000015040600059012084001030000320708948000000016708500000000093,431987256527463189869215347673859412284671935195324768948532671316798524752146893
009070080018004790350000620004029001780300000000050306002100900046080000090507012,469275183218634795357891624634729851785316249921458376572143968146982537893567412
040080009508009001020300500037061800000504003000002974076400005081003700200690010,743185629568729431129346587437961852892574163615832974376418295981253746254697318
408200060006008903100907500000510072200003100610000090000002847003600010507400600,498235761756148923132967584389516472274893156615724398961352847843679215527481639
020503809050900072604000001000007400001020003985400060460070500000308006378250100,127563849853914672694782351236897415741625983985431267462179538519348726378256194
208093010700001095050070000020004008075820001803057060000600930400080000006049502,268593417734261895159478623621934758975826341843157269587612934492385176316749582
007684030089010400200003500130200705702050006000490100050000001600730980908000002,517684239389512467246973518134268795792351846865497123453829671621735984978146352
749580060050000100180020090900002070000076803560400200003840007290013006000060500,749581362352697148186324795938152674421976853567438219613845927295713486874269531
700300080090152600002790501201000060006007309000084007060009203350020800900860005,715346982893152674642798531271935468486217359539684127168579243357421896924863715
890010456605003000420000100200430018070095000000800020042300070000020609030187500,893712456615943287427658193259436718178295364364871925542369871781524639936187542
003729400104600059000000208006002000400500023035970081090010340502008060070406000,853729416124683759769145238916832574487561923235974681698217345542398167371456892
809360510050000029600001700390085400700200056060190380001040000000500207040800063,879362514153478629624951738392685471718234956465197382231746895986513247547829163
090007400200001568500300090709104350060009080010000270003006000400072001082590600,698257413237941568541368792729184356365729184814635279973416825456872931182593647
006057000204038100010000908098006430072410060000003002000070304501200007800069520,986157243254938176713642958198726435372415869465893712629571384531284697847369521
083120905900008001020604800001070200000010504007862003009700310706000000402053060,683127945974538621125694837391475286268319574547862193859746312736281459412953768
003000900014080020060309050008000000105020034000657100080560003096800400040103708,853216947914785326267349851628431579175928634439657182781564293396872415542193768
000109005000030060391250008070043050604500800008007230260010009050702003180900740,846179325725438961391256478972843156634521897518697234267314589459782613183965742
020730060010804003400060902031005009600080007007400850380100000002000400104290600,528739164916824573473561982831675249645982317297413856389146725762358491154297638
067800350100007000908032006200083000006010849015000070002100500301064900070009080,467891352123657498958432716249783165736215849815946273692178534381564927574329681
007001020680034001050000000000605009301002700400080060009003016070060845000240070,937851624682734591154926387728615439361492758495387162849573216273169845516248973
040098607095000004000700001200030009079400800036870500450000010000012038003906020,341298657795163284628754391284635179579421863136879542452387916967512438813946725
609007081000005290430010506100000740070568003000000059021900400500003002006074800,659427381718635294432819576165392748974568123283741659821956437547183962396274815
009000030001206000040700986302401650070900001000028000500069400483050700000300025,769584132831296574245713986392471658678935241154628397527869413483152769916347825
000850000402700030105092800000000170301046580060200300006375290024000600900004010,697853421482761935135492867249538176371946582568217349816375294724189653953624718
807050001100090304500003820000906070289040500063010080010830005000024000040000962,837452691126798354594163827451986273289347516763215489612839745975624138348571962
020815003090704058600000041087500092240900300000030000035420070001056800900007004,724815963193764258658293741387541692246978315519632487835429176471356829962187534
250006004071980030800005901000020050406098000000703028030050140900040086000812007,259136874671984235843275961387421659426598713195763428738659142912347586564812397
051007800040000007007860020000012063000403250500000704870051090010020386390040500,651237849248195637937864125784512963169473258523986714876351492415729386392648571
020057603000100050803009000401906000082005400900800037500064200000070096730001008,129457683647183952853629714471936825382715469965842137598364271214578396736291548
300100500560840003081000609400020300009007052007003010006080700078092000900051006,394176528562849173781235649415928367639417852827563914256384791178692435943751286
700250103000100060205090400670420080090001520300078000160030750400009836008040000,786254193943187265215693478671425389894361527352978641169832754427519836538746912
400000005930004016000720008060800500204600000507039100750908400109052080000001300,478196235932584716615723948361847592294615873587239164753968421149352687826471359
002071940790620000000000030650008010080907020003040005100064500208000300005010790,832571946794623158516489237657238419481957623923146875179364582248795361365812794
509000001100008060000930475060002000000006280048050003006020090017040306820007150,579264831134578962682931475761382549395416287248759613456123798917845326823697154
150080002000000403000659010500037100803460020070002085090200070081503009042090006,157384692968721453234659718529837164813465927476912385395246871681573249742198536
070210006906500300013090042609001700047300105000820000300600058052040001800000009,478213596926584317513796842689451723247369185135827964391672458752948631864135279
008400017000003502190720600000060004010000360004975008709010030043580200020600470,238456917476193582195728643982361754517842369364975128759214836643587291821639475
973800000005097408010600020700280100056340070080001009094032006600000005020010380,973824651265197438418653927749285163156349872382761549894532716631478295527916384
000038010050290300028006704000010060800300400917402000102000005590607000400081039,649738512751294386328156794234815967865379421917462853182943675593627148476581239
080609370070000000004130090020010000095703604000008720000064000503000800067352010,281649375379285146654137298728416953195723684436598721912864537543971862867352419
000050000105800070080164090070310806502090017000006240940200003236700005008009400,624957138195823674387164592479312856562498317813576249941285763236741985758639421
