000092107080000000400006082520600310904020005703401000351084200006507900090003000,635892147182745693479136582528679314914328765763451829351984276246517938897263451
500070032270045800008260040001509080700000356000027000040010060100000503090803470,514978632276345819938261745461539287729184356853627194345712968187496523692853471
301070090500800006864501300600002701108604200050000030000209840009340005000080070,321476598597823416864591327643952781178634259952718634715269843289347165436185972
002800040000095106080003020060051090418009070705400230030078000900000008070060450,652817349347295186189643527263751894418329675795486231534178962926534718871962453
006104002007900000420000075000359060800010090073260000030080500090003627650700084,586174932317925846429836175241359768865417293973268451734682519198543627652791384
600009020300062108904030000403015086070000300001800900280006005700201040005900002,618579423357462198924138567493715286872694351561823974289346715736251849145987632
000000040370001080000472903030000809009060012401500006700100300060048520180953600,296835147374691285518472963637214859859367412421589736745126398963748521182953674
082100000037000920600004700000049018800206005540070600200301050109058004000000067,982137546437685921615924783726549318893216475541873692274361859169758234358492167
000800301001020009060000054930010708080056120206000000050301800370640002004007500,529864371741523689863179254935412768487956123216738495652391847378645912194287536
070090080402600100003048500100000329000510000604002700001905006060073000200180475,576391284482657193913248567158764329327519648694832751741925836865473912239186475
000000080040030700006004291090120060054308000700005809280070640061800002309060500,927516384148239756536784291893127465654398127712645839285971643461853972379462518
020905300010060079803001540007039024384200000060000107509070600000402000000890003,726945318415368279893721546157639824384217965962584137549173682638452791271896453
810000053200060900930802060309100000507008040000020706008070090100000502000453080,816794253274365918935812467369147825527638149481529736658271394143986572792453681
160802009005100200700035006001060300008003502204000091080659020300040005090000780,163872459845196237729435816951264378678913542234587691487659123312748965596321784
006200740007506009100073008005000802070039010430050000200900305000108090608040200,586291743347586129129473658965714832872639514431852967214967385753128496698345271
000000701501003098000709360004386000307000050210905000068000034400000070723508006,639852741571463298842719365954386127387124659216975483168297534495631872723548916
001465090308009001000003200000008000602510807053070042200040600087000013430000005,721465398348729561569183274174238956692514837853976142215347689987652413436891725
070000930001800000300049261520610800980020407043000000430090005000002046705030009,674251938291863574358749261527614893986325417143987652432196785819572346765438129
062730105001000820078004003000379000030010000490000006680000901700050062050900700,962738145341695827578124693126379584835416279497582316683247951719853462254961738
100870500400009020000502900060027084040000036300004050002060000507080010000090378,129876543456139827783542961965327184241958736378614259832761495597483612614295378
500020701048050360003010090090000200010008034480730500000096050600502109007400600,569823741148957362273614895396145278715268934482739516821396457634572189957481623
000743000120005740300000089000100006907000324085000900000862000041500070860470290,598743162126985743374216589432197856917658324685324917759862431241539678863471295
201005086730100005040080930109020007000006050050943000680300000000052100302004078,291435786738169425546287931169528347423716859857943612685371294974852163312694578
000483500056900304008700190300005008000204619041070000100009403500320076020000050,219483567756912384438756192362195748875234619941678235187569423594321876623847951
000800400289000500047010309958620004060030002003001070000703010502006000104085006,315869427289374561647512389958627134761438952423951678896743215572196843134285796
200017390300008040700060508003050860060901070450200100170002600009040007008603004,285417396396528741741369528913754862862931475457286139174892653639145287528673914
000030001060740900702000450005900106900408000436002009800150300670000082009007004,548239761163745928792681453285973146917468235436512879824156397671394582359827614
100700080900506320308000400004010960000805740870030012000060000401008200020401095,152743689947586321368129457534217968216895743879634512785962134491358276623471895
000040819500000200801060070170280504080004630900007000703010980029300400000500063,362745819597831246841962375176283594285194637934657128753416982629378451418529763
451086000002010000007930450100000090948000000000004073000073600829050300006800120,451786932392415768687932451173568294948327516265194873514273689829651347736849125
007000300210600048008475009753100000090500020400067000800201060039000100600089470,947812356215693748368475219753128694196534827482967531874251963539746182621389475
004000001090245070607010002800032046061050080900100700000400068400090300250607900,524376891198245673637819452875932146361754289942168735719423568486591327253687914
060070109003008000010200586009103620007900000035080041090007308402060005000805260,268574139953618472714239586849153627127946853635782941596427318482361795371895264
024003750000060040008150300070000000905008624601300908010096200000470569500802000,124983756359267841768154392872649135935718624641325978417596283283471569596832417
060152070003800020140070000900501006725004300000090080090208100450900200086000930,869152473573849621142376895938521746725684319614793582397268154451937268286415937
002806040104900050000030709600000002058049007009572400020005060001000903470008010,792856341134927658865431729647183592258649137319572486923715864581264973476398215
000004010204900803190070006320105900040020180850000060005309204007000001900706500,568234719274961853193578426326185947749623185851497362685319274437852691912746538
070052063030700120058300490000000002301500000009160080700041050600003900080690700,174952863936784125258316497867439512341528679529167384793841256615273948482695731
015000830200300000400860090050002170000085000607094000090000200530046001084073960,915427836268359417473861592859632174341785629627194358796518243532946781184273965
500009600006100092700003541480500010091300007060007800000040278940076000008005000,514729683836154792729683541487592316291368457365417829653941278942876135178235964
017680240006120003800050010020000035360000000008090000740009060003510490209070380,517683249496127853832954716924768135365241978178395624741839562683512497259476381
026001090300502087100030000800243070094700051000000000032608000480010620005007009,526871493349562187178934562851243976294786351763195248932658714487319625615427839
400500100120006070063100089005014200970300010802000000046807050000900623090005007,487593162129486375563172489635714298974328516812659734246837951758941623391265847
060002090300060408050300007000821000007040023510007900100980600270053040094000500,768412395329765418451398267943821756687549123512637984135984672276153849894276531
300005000709040000080790324008100960040030007167200008000500000852006700603400081,324865179719342856586791324238174965945638217167259438471583692852916743693427581
004070020080090501093004007200600098100905004000030706000000000056802300978450010,614578923782396541593124867235647198167985234849231756321769485456812379978453612
300000901700000042020137000002400003480700006130090000610354089000008060005002700,358246971761589342924137658572461893489723516136895427617354289243978165895612734
600239087028500000019760500007080460400020058050000071180900042030000010000004306,645239187728541639319768524297185463461327958853496271186953742934672815572814396
400001670702904100050030089009002048600850300010700020000005000008100293061320700,493581672782964135156237489379612548624859317815743926237495861548176293961328754
600010008000007530271003060802070000006049050750300902089100020107480603000000004,635914278948627531271853469892571346316249857754368912489136725127485693563792184
210983070760002000800000100600507900004000010050040623090001030032060040008004509,215983476769412358843675192621537984384296715957148623496851237532769841178324569
960708003071400020020003060002381000000900200800000157009057300500230980004006001,965728413371469825428513769752381694146975238893642157689157342517234986234896571
000030600070960800014000003200619000800200097100080030003007502000850040960004710,598432671372961854614578923237619485856243197149785236483197562721856349965324718
400902810850004070006000003040005061070100902100860005700021590082000000309007000,437952816851634279296718453948275361675143982123869745764321598582496137319587624
000200000500010064018590300980007103300054200002000085007002908090301600060080470,736248519529713864418596327985627143371854296642139785157462938894371652263985471
601084009040509200025030006050700000000300140290016700000870065032000970000000801,671284539348569217925137486154728693786395142293416758419872365832651974567943821
000105270000639010001070943219000500400280600008004007396000000005700001070520090,983145276742639815561872943219367584457281639638954127396418752825793461174526398
000050701043067908008000020400002000809100040207500603071800300000090015500006290,692458731143267958758931426435682179869173542217549683971825364326794815584316297
000960042103007008000004350018600703507009000020081600409500081600130079080000006,875963142143257968296814357918645723567329814324781695439576281652138479781492536
506007083038000900007010546300005000090200007041080000080043120000960030070052409,516497283438526971927318546362175894895234617741689352689743125254961738173852469
001068005400700090902304000306040070200000001000230908000109604057000020140006300,731968245465712893982354716396841572278695431514237968823179654657483129149526387
043052700090008015000170200075900000382007060600020340060000070900000100001530906,143652798297348615856179234475963821382417569619825347568291473934786152721534986
800000504003001027006049300001700800490025030057060040100097068200003900060500010,812376594943851627576249381621734859498125736357968142135497268284613975769582413
006800000008630402200045070001209056080001300597000080060708590370090024000300100,746812935958637412213945678431289756682571349597463281164728593375196824829354167
010504700200610040690000080509407001038065007002030000000901800407000309000023560,813594726275618943694372185569487231138265497742139658356941872427856319981723564
065030080000006000002900140031000800098520607700001003010300090600042700240897500,165734289984216375372958146531679824498523617726481953817365492659142738243897561
060127040029000000407006080305090000000030165810000300000700012200008430904002506,568127943129483657437956281345691728792834165816275394653749812271568439984312576
005090807090406520010030040000058090649200050800700103720900000036004010500001600,465192837397486521218537946173658492649213758852749163721965384936874215584321679
000090200978250003500104007010008079800060405403900062001600000020030500045000701,164793258978256143532184697216548379897362415453917862381675924729431586645829731
095800030000740802000193004000020006562300009089000400041008500900006217056030000,495862731613745892827193654174529386562384179389617425241978563938456217756231948
000170040700080300086200090013009650904000008207058100400600087000000000391040020,539176842742985361186234795813729654954361278267458139425613987678592413391847526
000080072950302008000040100800600019100030706027005300510000000009418050002009640,436581972951372468278946135843627519195834726627195384514263897769418253382759641
230005006780004530006700900100080700004300089090670205540200601060900000018000007,231895476789164532456723918125489763674352189893671245547238691362917854918546327
000309100261800000300200407050000084706000009980013206400087090010005000003902850,547369128261874935398251467152796384736428519984513276425187693819635742673942851
000100300390000080100302709700040106030005048069000270800900060040503002005706010,576198324392457681184362759758249136231675948469831275813924567647513892925786413
700000000000246080090078650103000040070800100240650009630120800004900705001000030,786519423315246987492378651163792548579834162248651379637125894824963715951487236
000703050020004608610500090000941000200000040530007100870000530009032006160005082,948763251325194678617528493786941325291356847534287169872619534459832716163475982
300090002740500800080200506600008050013070004009400613200130700050609040006080029,365891472742563891981247536624318957513976284879452613298134765157629348436785129
000450031098070600040810290006007080200040100573980060000000750601000000827003004,762459831198372645345816297416237589289645173573981462934128756651794328827563914
000400910008610072103078000060053200970000005300900604280000403401002060006590800,627435918548619372193278546864153297972846135315927684289761453451382769736594821
000060098940308100026100005630070000504020610080094500095700020000400003210080740,351267498947358162826149375639571284574823619182694537495736821768412953213985746
004007085509800060000069070200036010005072004010400307008200000030004109601003002,164327985579841263823569471247936518385172694916458327498215736732684159651793842
200000018150020609000008300590040000040015087006730020000900731681400005970200000,239567418158324679764198352597842163342615987816739524425986731681473295973251846
300090704200300500400805060000200031080000000760038090001560300004000109905402087,358691724296347518417825963549276831183954276762138495871569342624783159935412687
001002089040000051020083000000060870750004000009250006137000600500608100408970032,671542389843796251925183764214369875756814923389257416137425698592638147468971532
401900800000170506960003000204000030090016002005008004003007109080020400026540007,451962873832174596967853241214795638398416752675238914543687129789321465126549387
700260030900030047068000019200006050030820006019040800000375420000000965402001700,741269538925138647368754219287916354534827196619543872896375421173482965452691783
041700068003050900200031000000970800058020700090604005080509001630008570000000204,541792368873456912269831457126975843458123796397684125782549631634218579915367284
010300008508407309290006740406000520070284000009700001001590803007003600000000050,714359268568427319293816745486931527175284936329765481641592873857143692932678154
600090000048102560097040030170020890900060204050003610800037040000800001230400005,621395478348172569597648132176524893983761254452983617815237946764859321239416785
052090180700000006490603000007200040040070301025010009030500908100329570000000600,652794183783152496491683257917236845846975321325418769234567918168329574579841632
402730005090020036860050070528600010000800000670002400007000001001509063300004892,412736985795428136863951274528647319134895627679312458987263541241589763356174892
020050400003020007007801050005910026030604100090200300908000000070560002001097604,829756431513429867647831259485913726732684195196275348968142573374568912251397684
010900050750000408840007006000006910007000002000020805600280030105074200302069580,216948357753612498849537126428756913537891642961423875694285731185374269372169584
400060700018000004700805390009017800280600009300004652600030400007091000035020007,453169728918372564726845391569217843284653179371984652692738415847591236135426987
010500402020860950507002080180290000376040009000000310009050064004310000800900500,618579432423861957597432681185293746376145829942687315239758164754316298861924573
000010006000305048703000150000469010062008900050700800170930280320004000605080070,549817326216395748783642159837469512462158937951723864174936285328574691695281473
050820370000040502709010400600007000004630005531000000100090004007005029082300106,456829371813746592729513468698457213274631985531982647165298734347165829982374156
005700800900050724004120060306000000000860072200903480460072900000300000018400035,625734891931658724874129563386247159149865372257913486463572918592381647718496235
600007902140003508095600000302040006450070100906000705000824070031000000700530080,683457912147293568295618437372145896458976123916382745569824371831769254724531689
