006940107040300006000002080071520600500079030280600701403007000920050008000010904,836945127742381596195762483371528649564179832289634751413897265927456318658213974
064000309307006800005090020009504080030067104021809006000000450806050731000001000,264785319397126845185493627679514283538267194421839576913678452846952731752341968
560390820009010040080004070407980006900001580100200004000720009705000000000060130,564397821379812645281654973427985316936471582158236794613728459795143268842569137
000039005009000100034562090380014500670090080000000703807000006000605204250300910,728139645569478132134562897382714569675293481491856723847921356913685274256347918
510724030030080150000000006408009710902005083060000900004250000083090020700601400,516724839237986154849513276458369712972145683361872945194258367683497521725631498
000019004000006790730020000001460250803050160005003008054290000600800010020007039,586719324412386795739524681971468253843952167265173948354291876697835412128647539
170009040040510006030002908000187500005030080200600400300050700620901803007400009,178369245942518376536742918463187592795234681281695437319856724624971853857423169
020058003904700200060902000100530006086007410240601900000109752007006008410000000,721458693954763281863912574179534826386297415245681937638149752597326148412875369
090700208800049650062500007000090060004305109170480020003601070205000410010000003,591763248837249651462518937358192764624375189179486325943651872285937416716824593
005107000200006840098304060030001624400050109700200350020060037000910000064008002,645187293273596841198324765539871624482653179716249358821465937357912486964738512
000037902105800000000004060004012300908003005020600790600700040002008500503049018,846137952195826437237594861754912386968473125321685794689751243412368579573249618
700040006129600008000300050067053290000000083002809500000906130085012400006000007,753248916129675348648391752867153294591427683432869571274986135385712469916534827
009041806840030500000000032057024009000907010020080600500078120360000700108200004,239541876846732591715896432657124389483967215921385647594678123362419758178253964
907830250000000431045160007702000063800006700030058090000910020029045000604000500,917834256268579431345162987752491863891326745436758192583917624129645378674283519
010200006006040872000053001003080000805000047420100500098702030700006005030594020,914278356356941872287653491173485269865329147429167583598712634742836915631594728
040000201630170090002046735008030050901005086000090400090758000317200040000004002,749583261635172894182946735428637159971425386563891427294758613317269548856314972
069804000020000813070005000008960030000501740700400609200008105004092007301700900,169834572425679813873215496548967231936521748712483659297348165654192387381756924
745001068009050020008960003407500000090802146000003200100637094000000300054200007,745321968639758421218964753427516839593872146861493275182637594976145382354289617
000437026090000000200600008300080010624050700018200095007094000800100470005002360,581437926496528137273619548359786214624951783718243695167394852832165479945872361
050402008203710600600000000000004090017300025040008371038040000002805749009000500,751462938283719654694583217325174896817396425946258371538947162162835749479621583
830016070041050009960000208070408000020009630600500000089307150000201907400000020,832916475741852369965734218173468592528179634694523781289347156356281947417695823
105040086200010700000300102070589240030000070084000005400637000006900001050100900,195742386263815794847396152671589243532461879984273615419637528726958431358124967
540600000000802701070003020900720604004900810350000000030060008809010500017450960,542671389693842751178593426981725634724936815356184297435269178869317542217458963
010007039540820060008100000800603410060040050720500000009200003057060020030005681,216457839543829167978136245895673412361942758724581396689214573157368924432795681
000000400209010080060830590430500100100090746076200008800600030050403017090072000,583926471249715683761834592438567129125398746976241358817659234652483917394172865
005008000700400162000290830006130200090020540038700006000000400904302007572060001,325618794789453162641297835456139278197826543238745916863571429914382657572964381
002059603000006410000173000001092506070000002040800090750328000400060050013007089,182459673397286415564173928831792546975614832246835791759328164428961357613547289
036087010015030908020600403908400000050003007003720000200509006000068120004100080,436987215715234968829651473978416352152893647643725891281549736597368124364172589
240091050800007030060302010500028900920600000010400706030000001150700268000905074,243891657891567432765342819576128943924673185318459726437286591159734268682915374
602014050070002900830000020280005079000400060409200801700900106008070300100046097,692314758574682913831759624286135479317498265459267831745923186968571342123846597
090100080473008600000020007605410000000003060080590213050800000048000530127600049,592167384473958621861324957635412798219783465784596213356849172948271536127635849
008701000007030608040009350002057000060840190100003402230000000006000209804905706,358761924927534618641289357492157863763842195185693472239476581576318249814925736
003052106040970005600008700005610002000300809270004600087040001010000230300890540,793452186148976325652138794835619472461327859279584613587243961914765238326891547
260400007000510890100060320601900000043001700080040005050087000070003980006290503,268439157734512896195768324621975438543821769987346215359187642472653981816294573
420009006000000150000567408650340801080000207031000000700930060360805004009210700,425189376876423159193567428657342891984651237231798645718934562362875914549216783
100025073023400600600008100807010400002040506000903000530080004040706090071200805,184625973723491658659378142867512439392847516415963287536189724248756391971234865
000010907089400360000600140200054000401003050706090800002000500360007080970385210,643518927189472365527639148238754691491863752756291834812946573365127489974385216
000506080000070500003401009406080030097000200100297050064900370700060000080052601,972536184641879523853421769426185937597643218138297456264918375715364892389752641
030014005050030810008000703006400001503070086000250090000001679007908200604005000,732814965459637812168592743976483521523179486841256397285341679317968254694725138
081720300000000008500090640068200510004000079920500803010640002070051086009300750,481726395796435128532198647368279514154863279927514863815647932273951486649382751
000000010090005306378040090200509403106020580030000007904630000005700601000801002,652973814491285376378146295287519463146327589539468127914632758825794631763851942
008503902270000000060007581000092307387004000100000050006019045040070190800605023,418563972275981634963427581654892317387154269129736458736219845542378196891645723
003902007000008920004070081400060098158300200260057004096100000000004759000003600,583912467671438925924576381437261598158349276269857134796125843312684759845793612
040000760500002010137500008306900070089400123020800050004003602015609000000000080,942318765568742319137596248356921874789465123421837956874153692215689437693274581
005090040206800307000460180010000000074903008800051023003000060690000500750280900,185397246246815397937462185312648759574923618869751423423579861698134572751286934
054000708003605020100940000730500609900002003006100004208003005010000080005007140,654321798893675421127948536732584619941762853586139274278413965419256387365897142
700058310020000080060070204830020040005900600016040097000100530900730000042860001,794258316523416789168379254839627145475981623216543897687194532951732468342865971
040090206508000009003560180010032070000800642805400000006120790309005000000700304,741398256568217439293564187614932578937851642825476913486123795379645821152789364
010200870800407001306000020000090500120706430409120060600340100907608045000005300,514269873892437651376581924763894512128756439459123768685342197937618245241975386
000050108803700000040009006586004012009078300010020009100830040970600020200040650,692453178853761294741289536586394712429178365317526489165832947974615823238947651
651400000003500490008000036079000605040201700200009003504120008060030200000806307,651493872723568491498712536179384625346251789285679143534127968867935214912846357
000602007060090004200800305020071900140006000006029580904007008705143020010000070,451632897863795214297814365528371946149586732376429581934267158785143629612958473
004370005702050060309000081000543008080000000000016420100700043903002607605009010,864371295712958364359624781296543178481297536537816429128765943943182657675439812
308400200900856000460700000037501900210007300000620080080004003040290600005000097,358419276972856134461732859837541962216987345594623781689174523743295618125368497
005902870600480200000037005009050013180000906000300000308206090054071060720000004,435962871671485239892137645249658713183724956567319428318246597954871362726593184
752800093010050064030900000001098200006007400800240019500000600069023057407010000,752864193918352764634971528341598276296137485875246319523789641169423857487615932
090024008050703600087590010600800439420000507003000001901067000708009020500400000,396124758154783692287596314615872439429631587873945261931267845748359126562418973
000000102009100073600075400100020890037500000480007010056004008040902050700308020,574839162829146573613275489165423897937581246482697315256714938348962751791358624
902004600005010009403800500300200765740960080020030000000000903000052041008407000,912574638875613429463829517389241765741965382526738194254186973697352841138497256
059000007060800512070060030905002086400009070012004000603540000800030109021070003,159423867364897512278165934935712486486359271712684395693541728847236159521978643
730010050508000190020560800042000070100027040000093610219006700305009000006800003,734918256568732194921564837642185379193627548857493612219346785385279461476851923
400000700002590604030020015206001000800306090019780400600009080500003207040010003,465138729182597634937624815256941378874356192319782456623479581591863247748215963
400063920082005076310000500069084005000706000000120008100900607003000140207040030,475863921982415376316297584769384215821756493534129768148932657693578142257641839
006001040370020080008300009102980560000000308090567000030700024029006001405100700,956871243374629185218345679142983567567214398893567412631758924729436851485192736
300056078907000020000940501048370005002010743060020000800000400601005390000160002,314256978957831624286947531148379265592618743763524189835792416621485397479163852
600020840008309000072460000000100062209000075350000409400680900030750208010030050,693527841548319726172468593784195362269843175351276489425681937936754218817932654
000471060070500380050800002139000600002063504004200007600020409800007010003905070,328471965476592381951836742139754628782163594564289137617328459895647213243915876
000020380300910200071000054006000030000489070085062000900647008650000040020003790,569724381348915267271836954496571832132489675785362419913647528657298143824153796
395000000068014007000600800016970000020500000470002310000408600001059230730020908,395287146268314597147695823516973482823541769479862315952438671681759234734126958
040007100850900200100002830500004023007060090091003005620400308380051007009600040,942387156853916274176542839568194723237865491491723685625479318384251967719638542
000679300406000080050030012270150000000300750180000060004700800300210509700860030,821679345436521987957438612273156498649382751185947263514793826368214579792865134
107005200000900104830601905000080047520000006006503000400100092061070000985402030,197845263652937184834621975319286547528794316746513829473158692261379458985462731
021000000005610080403080200050208064096007001040300009000806090700009630010503700,821734956975612483463985217157298364396457821248361579534876192782149635619523748
004008103309000240007100500500940020031000650080006090060481000200059700000700080,654298173319675248827134569576943821931827654482516397765481932248359716193762485
170002300903000004080906500030407206846500100000000090020083001700050008050691000,175842369963175824482936517539417286846529173217368495624783951791254638358691742
400002893150009006280403000071900280500200601000035070006704000030650008000000109,467512893153879426289463517371946285594287631628135974816794352932651748745328169
000003500400080290709540010100009007050600801683002040008400050264070000070200063,816923574435187296729546318142859637957634821683712945398461752264375189571298463
580300000046000230001600709060007000900008423200945100000700081015020060603090040,589372614746519238321684759164237895957168423238945176492756381815423967673891542
004006032060803400910000005070001900006370020485602001008005000700400103030709680,854916732267853419913247865372581946196374528485692371648135297729468153531729684
800106030400057200002038500200500067001000302090042800000000104038690000045081090,857126439463957218912438576284513967571869342396742851629375184138694725745281693
760049380050080000400065100900600000002000750084000091019800000000073920007054603,761249385253781469498365172975612834132498756684537291319826547546173928827954613
013500000000008079004671205560000080930400700400020300087906020200130090000007061,713592648625348179894671235562713984938465712471829356187956423256134897349287561
060109000000050097400000602008000160700020350000314008804007005032090800609530201,267149583183652497495783612328975164741826359956314728814267935532491876679538241
010708000096500400430096070002010093800430520000600004007200001069007800500080030,215748369796523418438196275642815793871439526953672184387264951169357842524981637
410800060008700520027093000006014900300000100042570380900150007060000045003086000,419825763638741529527693418876314952395268174142579386984152637261937845753486291
008000010230000700090341000504700068020104005006028090050000000000603147007092036,468275913231986754795341682514739268829164375376528491653417829982653147147892536
070015026503092080000070000802046709059000004140000030020700091005028003096500002,974815326563492187281673945832146759659387214147259638328764591715928463496531872
005038000070040060830026500006090075710200000503080004080005603021000409009060100,965138742172549368834726591246391875718254936593687214487915623621873459359462187
090201307000007065000046209007409000000000412026035000300094050175060020064000800,698251347243987165751346289817429536539678412426135798382794651175863924964512873
000080010705040000608207003346000090000001026200700508069003081470000350000092004,924386715735149862618257943346825197857931426291764538569473281472618359183592674
003702150500010346600000090090830000061509002304000000000090810082340700700006500,943762158527918346618453297295834671861579432374621985456297813182345769739186524
601004290000008504030970080900300608006020015000450920400600370007093001250000000,681534297792168534534972186925317648346829715178456923419685372867293451253741869
065070020010000408000192000003007040740200910600803000087600500009000002050304001,365478129912536478874192365523917846748265913691843257187629534439751682256384791
700301800590760200200095000070910052360008070000400001050000430409000067080503100,746321895598764213213895746874916352361258974925437681152679438439182567687543129
603401700700000450010290003040700006030068040970010080060180009002005000058003020,683451792729836451514297863845729316231568947976314285467182539392645178158973624
067401509000000010002503800081040300000000000005970020600000070590006208204309106,867421539359867412142593867781642395926135784435978621618254973593716248274389156
008050620000016805003400097050608300900000060070190004020009080610045002409030070,148957623792316845563482197254678319931524768876193254325769481617845932489231576
040030612090207038050100000000004160900060005102700084000005000306000700007008049,748539612691247538253186497875924163934861275162753984419375826386492751527618349
700048002083170090060950007692800705005036049001000200000060003420005000107009080,719648352583172694264953817692814735875236149341597268958761423426385971137429586
207006004400289670500000309010067050379100000000308200004001506000800000000075041,297536184431289675568714329812467953379152468645398217784921536156843792923675841
