009507402320000080400900500090085070680043005004200010050890006102004093000016200,819537462325461789476928531291685374687143925534279618753892146162754893948316257
900040705805201900000000020032709604000000082504003000007090460360570010410060008,921846735875231946643957821132789654796415382584623197257198463368574219419362578
050300401720090050006070890308920000060100300970450060003708006041230900500000200,859362471724891653136574892318926745465187329972453168293748516641235987587619234
230510000400930080100000200000708060506000800702090130000086472040000000803071095,238517946465932781179864253314728569596143827782695134951386472647259318823471695
009603570010080900700090084100000029000800650000501030004000010953062700860037000,489613572512784963736295184145376829327849651698521437274958316953162748861437295
090084000402001803000900056004100000086072000030050010001690372050008040960203001,695384127472561893318927456524139768186472935739856214841695372253718649967243581
290000000100008035345000008470180900080057100000640703050900060916005040800210000,298563417167498235345721698473182956689357124521649783752934861916875342834216579
006002107500476000020800034010030089900000276008560000005000090480905000007004810,846392157531476928729851634614237589953148276278569341165783492482915763397624815
090502003400800160003170004200460001705080300149000082000000900007630500820010007,691542873472893165583176294238469751765281349149357682354728916917634528826915437
170003029020081630040900000510200003306500870087096400000400095400000387050002000,178643529925781634643925718514278963396514872287396451831467295462159387759832146
040005310020300080001640500060730000800020070075090408030250760017000020600801000,746985312529317684381642597164738259893524176275196438438259761917463825652871943
090003082206000000050047000702306800001900500000800600305090076410000090068012450,194563782276189345853247961742356819681924537539871624325498176417635298968712453
000010509601548007074030000800059060000100230425700010208490001000006000900000852,382617549691548327574932186813259764769184235425763918238495671157826493946371852
500004000800930000026510700900000327100470586050060040400350000003006008070842001,597624813841937265326518794964185327132479586758263149489351672213796458675842931
004030090300790250260001070000000732703604800100500009000209081001040000056080403,574832196318796254269451378645918732793624815182573649437269581821345967956187423
036040081820050400001000007900584000207106000080000300100092030004000072560870009,736249581829751463451368297913584726247136958685927314178492635394615872562873149
080650000601002030302000504805300100400189000000040709240090306006700001700830020,984653217651472938372918564895367142427189653163245789248591376536724891719836425
007005800800000017102400003060080300903700400000300952429060000000900028006150704,637215849845693217192478563264589371953721486718346952429867135571934628386152794
100006500398000000004820070000730050200091040730600900019005002002408603060079010,127946538398157264654823179941732856286591347735684921419365782572418693863279415
400100050007064890001308706000200930920400007015003600006080010070905400800000302,468179253237564891591328746684217935923456187715893624346782519172935468859641372
920500800710630004403009000060084300100200006004010059870095020000000005200307910,926541837718632594453879162562984371197253486384716259871495623639128745245367918
020310086400000007060804020094006000500400013000027890106203040040008901007600005,729315486418962357365874129894136572572489613631527894156293748243758961987641235
004030005500209068602007300800560170230080050000000042000300906005040200197006000,914638725573219468682457391849562173231784659756193842428375916365941287197826534
240070000018600090003001004076450002000000803802039040100563000980010605000900270,249375168518642397763891524376458912491726853852139746127563489984217635635984271
300800645700030902950004010070510000801000007004602890000450038060701200000029000,312897645746135982958264713679518324821943567534672891297456138463781259185329476
800000529100324000060000400000042970930500008082103000009010067001650840600007005,843761529195324786267985431516842973934576218782193654459218367371659842628437195
040000000079061300602730400004570891300000705008090640805300060006200950010800200,143928576579461382682735419264573891391684725758192643825349167436217958917856234
000900750009034082124000009076005820005180000410000003000072600600500490300809010,863921754759634182124758369976345821235187946418296573591472638682513497347869215
004630000016090020002000805870400013291000040000005007340107600008004090100020008,584632179716598324932741865875469213291873546463215987349187652628354791157926438
003005072010800400950206001607000094040098000300050816005007603108002700000040050,863415972712839465954276381687321594541698237329754816495187623138562749276943158
305106200080009100000430007400603000008200060600047580007852093000301400009000020,395176248784529136261438957452683719978215364613947582147852693826391475539764821
008150090600300705370009042709004000000605300020083010810070204050000076400008030,248157693691342785375869142739214568184695327526783419813976254952431876467528931
940701020050002307000060819006000703702450000000903000103200000589000004070085006,948731625651892347327564819496128753732456981815973462163249578589617234274385196
057400090000600080090215003021006000700190000530007406100500049000083021362000007,657438192213679584894215763421356978786194235539827416178562349945783621362941857
127009000503700002480106005005030000040087093600401000890203506700000040006000108,127359864563748912489126735975632481241587693638491257894213576712865349356974128
804050170001000009250006000000940021400082030007600405005400006000010308093200750,864359172371824569259176843538947621416582937927631485785493216642715398193268754
009204600300007908001090047013000002260570100004600070050400200000059000086301709,879234615345167928621895347713948562268573194594612873957486231132759486486321759
380900071000020390061004080050186040000070205040000030800000910730200004006059800,382965471574821396961734582253186749198473265647592138825647913739218654416359827
000800147630904002000052000400020003015700008090601570253010009007005620008000400,529863147631974852784152396476528913315749268892631574253416789947385621168297435
006900352850070900001004060000740013020003000040500706700285000960100520030090000,476918352853672941291354867685749213127863495349521786714285639968137524532496178
000036005087000609039580240000000400045810002092005073000071800164200000200309006,421936785587124639639587241316792458745813962892465173953671824164258397278349516
023500000007006001019002060006720504150403089070000020900010648000300075084059030,623541897847936251519872463396728514152463789478195326935217648261384975784659132
901302870000007100023680000089000405300050080400100963007200000602004001100900604,951342876864597132723681549289763415316459287475128963547216398692834751138975624
000084030980160000020700500000900201016003054007402006300000840065008702002097000,751284639983165427624739518438956271216873954597412386379621845165348792842597163
000500073076200108480000006607010002090000300102086045541009000900370200000640080,219568473376294158485137926657413892894752361132986745541829637968375214723641589
068200047001500060300049005076000000000700028045083000030007009002096180100420003,568231947491578362327649815876952431913764528245183796634817259752396184189425673
900004601000010020107063008098000730040900500605040000380021900070400160020005070,932874651864519327157263498298156734743982516615347289386721945579438162421695873
106000920070006008009730004400050010003027059000061370090008241002013600800005000,136584927274196538589732164427359816613827459958461372395678241742913685861245793
024807030000605001007100948540003102360020080000001590000070054938200710000006000,124897635893645271657132948549783162361529487782461593216978354938254716475316829
800160030490050012005000700200781900300640000070030106050218070900004065030000480,827169534493857612165423798246781953319645827578932146654218379981374265732596481
000070096003002000901008400700410005089000040200063070305700200000054918018000037,842175396563942781971638452736419825189527643254863179395781264627354918418296537
509608104002070080306049000010700508020036907000002006004961000705200000800000090,579628134142375689386149752613794528428536917957812346234961875795283461861457293
760900140004000839000002000408200510070300006100070024059001063007568000020409000,765983142214657839983142675438296517572314986196875324859721463347568291621439758
820307005100049080306050004005608040000000018402095006500014230070000000900023007,824367195157249683396851724715638942639472518482195376568714239273986451941523867
600320108002010500095800700700283006014600285000000009006700000970004030080090040,647325198832917564195846723759283416314679285268451379426738951971564832583192647
007180930600524000082037000920000504000001000508600207300400006076010098049000103,457186932693524871182937645921873564764251389538649217315498726276315498849762153
540901000003002000800036057069307004002000800700125600015060030490000700030008219,546971382973852146821436957169387524352694871784125693215769438498213765637548219
020301000094000700005097008008206503900045680000000001700030250006078030150609040,827351964394862715615497328478216593931745682562983471789134256246578139153629847
040800500952003010008070006010300904060500000780060120074920000500000809000104073,647891532952643718138275496215387964469512387783469125374928651521736849896154273
087005900600014207000020060050409000409600008100072030300008501010700690570000800,287365914635914287941827365753489126429631758168572439396248571814753692572196843
900000607700023590246000080003500012100874009500000700300412000008050041007006030,935148627781623594246795183873569412162874359594231768359412876628357941417986235
930400080500320007040078090050740016400010200100506079785000060201050804060001000,937465182518329647642178593859742316476913258123586479785234961291657834364891725
007100090528007006090060300872010004000490000300006185000720000005009238064300500,637154892528937416491862357872513964156498723349276185983725641715649238264381579
000020640750000201001480390300176408500000029008009130940365000000000000203900074,839521647754693281621487395392176458516834729478259136947365812185742963263918574
080100092004060078001049050500200001400793065270005000900020004003000000050600083,685137492394562178721849356539286741418793265276415839967328514843951627152674983
003109000208005067409070010900204800000000050021603004506308070000040028300791000,753169482218435967469872513975214836634987251821653794546328179197546328382791645
790004510030050004080000029004860200006100008070205000009020140100706300520003890,792684513631952784485371629914867235256139478873245961369528147148796352527413896
005600001000001030103750800090860000700305006080402079900000423201080500647000000,425638791879241635163759842392867154714395286586412379958176423231984567647523918
200100093000005068008009710307020600052047000800000407700902005690310000001008900,274186593139475268568239714347821659952647381816593427783962145695314872421758936
070980106800400970250010030940076001000850400000301590003700240002000000006003058,374985126861432975259617834945276381137859462628341597513768249782594613496123758
002300089081700206600008005705010000248506000300029008507000013030150400064907000,452361789981745236673298145795813624248576391316429578527684913839152467164937852
015602073020014000000000002053408900680950030009000700900300087004200010100765020,415692873327814695896573142753428961681957234249136758962341587574289316138765429
600080000571000006200060374048100090002850010090307060006004907000000502000935080,634782159571493826289561374348126795762859413195347268856214937913678542427935681
507060830000093170010004005208009600300010080150270400000001060700830509064000002,597162834482593176613784925278349651349615287156278493935421768721836549864957312
701003940980402150050080067000100806003500000260040700097030004630000002500806001,721653948986472153354981267475129836813567429269348715197235684638714592542896371
016000000000032009070605082900406050804700960000503200090000820732900005400017000,216879534548132679379645182923486751854721963167593248691354827732968415485217396
050600000790021600200304501120000009060495003000800700034050900000903018008007060,451689237793521684286374591125736849867495123349812756634158972572963418918247365
304006100000902067200005809600107300000080500410090600007300258802050040930040000,394876125581932467276415839659127384723684591418593672147369258862751943935248716
900170806060000300000280001003000080026000054000714000035920400001005007840030920,952173846168459372374286591413562789726398154589714263635927418291845637847631925
807004005093500010040093672050086000006007240000230000900000103084065900705100006,827614395693572814541893672259486731316957248478231569962748153184365927735129486
380006040400001059600000010827040300006300008010290400090000200000524070000700035,381956742472831659659472813827645391946317528513298467795163284138524976264789135
006700810070000005040921070903800600750104003000090020001080430020006000498057000,236745819179638245845921376913872654752164983684593721561289437327416598498357162
570490003000006890800307001406701902000005104300200050007984000035000060180600200,571498623243516897869327541456731982792865134318249756627984315935172468184653279
010400600906008003300170002800007000040000098029003156007600030600012009082094507,218439675976528413354176982861957324543261798729843156497685231635712849182394567
800090004103020600002704530009500043080170265060000907020080000500600700900003081,857396124143825679692714538719562843384179265265438917421987356538641792976253481
908074000002030600100280507000048700000050493700906050000000024005003100206100830,958674312472531689163289547529348761681752493734916258317865924895423176246197835
002308071508107090703002400080004503000000000096021048004080056030000020000769100,942358671568147392713692485281974563457836219396521748174283956639415827825769134
004080100580090030063000004200070001070302950000540006007051020090007083042008500,924783165581694732763125894259876341476312958318549276837451629195267483642938517
020105040004980006739000100092001407016008030000060580000002600380590210000740000,628135749154987326739624158892351467516478932473269581945812673387596214261743895
000406702800301005005090000060034097100200506009700830900070104482500000006002300,391456782874321965625897413568134297137289546249765831953678124482513679716942358
000000530009140006020578400700030269908000003400600800007005014600290000853060070,174926538589143726326578491715834269968752143432619857297385614641297385853461972
002009001040080930603000200200040053070051049460908000001005060930706008080010702,852369471147582936693174285219647853378251649465938127721895364934726518586413792
000403280024700600000081000310000507607500090908106340005800009003007100700029006,179463285824795613536281974312948567647532891958176342265814739493657128781329456
003610007680005000009320540008079105700400020000861300400000008516000002032000790,253614987684795213179328546348279165761453829925861374497132658516987432832546791
070030010605007208900010005500680007000090500040000091100800300039120060820074000,472538916615947238983216745591683427267491583348752691154869372739125864826374159
890001000007504000100027068003000080900000004640319500400060307070890041002705000,894631725267584913135927468723456189951278634648319572489162357576893241312745896
340500800016409320002070010000300070930800040600005908000028700504006001090000680,349512867716489325852673419428391576935867142671245938163928754584736291297154683
010430009040005000700098360200006873180500000906000201000620480007000600002743005,618437529349265718725198364254916873183572946976384251531629487497851632862743195
071036000098000050500000074000250000657090010010800043089070031003100260000024009,471536928398742156526918374834251697657493812912867543289675431743189265165324789
060000841200809030005070009700005080408007003020300600050140970000206004140098500,967532841214869735385471269736915482498627153521384697652143978879256314143798526
