190000000400076038000400200030009650750600401000010820802090004004703000069280015,197328546425976138683451279231849657758632491946517823872195364514763982369284715
000700389000050040706090150045600008003201000680049007090304000002060070000802504,154726389829153746736498152245637918973281465681549237598374621412965873367812594
170002860009030000500001704860040052004105900000027300700000003090800600302590080,173452869649738215528961734867349152234185976951627348786214593495873621312596487
007020304364009010010080070080160045900037206000400100002010503600900700009005000,897621354364759812215384679783162945941537286526498137472816593658943721139275468
106300000034050607070001000750108002002090040409020350000080026080607490091004005,126379584934852617578461239753148962862593741419726358347985126285617493691234875
006050001000003708420010590200870000150204070000390106030000900570086402894500000,386759241915423768427618593269871354153264879748395126632147985571986432894532617
080000104000300709002694050094201007807005000006400080040007500729030001600809003,983752164465318729172694358594281637837965412216473985348127596729536841651849273
090008400105000000700260009800030002207640005500000916002514800603970050000300207,396758421125493678748261539869135742217649385534827916972514863683972154451386297
050007000039800040004600815207091530045000020100082004400103072370008000000020900,851247369639815247724639815287491536945376128163582794498153672372968451516724983
910050800035000006006908700000740900000605401074300002003000080028190504061070020,917256843835417296246938715652741938389625471174389652493562187728193564561874329
400300001598000000020069070705020300003401900040006180000073000009200004160800250,476382591598147632321569478715928346683451927942736185254673819839215764167894253
090600045104007803063000790000004300507098004000030581905040000000200010028370006,792683145154927863863415792281564379537198624649732581915846237376259418428371956
400000700085300091200890004020061003306700040010580900100002050860007000090040637,439216785685374291271895364928461573356729148714583926147632859863957412592148637
900080250026005090043602000379000800480230000000010009000043010002860503600500070,917384256826175394543692187379456821481239765265718439758943612192867543634521978
301002084500600000000003901090000050678000120200087000740500002002061309003048670,361972584589614237427853961194326758678495123235187496746539812852761349913248675
010740080063095100409000200340607000708300000000018005080000067095004301200960040,512743689863295174479186253341657892758329416926418735184532967695874321237961548
070609231020100800806403095000305008700002004934801600000090000681000500200008007,475689231329157846816423795162345978758962314934871652547296183681734529293518467
500000000900041000083009005010300840026008709054000600000065174097820060400030020,541683297972541386683279415719356842326418759854792631238965174197824563465137928
002000857003000040409170000000041760608290005310008200900780310000460070026003009,162934857573826941489175623295341768648297135317658294954782316831469572726513489
608970002020080100000000650007038005910704820300005000504003009870610030009400200,658971342423586197791342658247138965915764823386295471564823719872619534139457286
397800020800006045000000930002083400004100002500070060070654310610090000900720850,397845621821936745456217938162583497734169582589472163278654319615398274943721856
390080400002000710460901080930078021004500070805190006700000004058003600000020037,391287465582364719467951283936478521214536978875192346723619854158743692649825137
500021080087060100003000602010208503039507000000000740068013070002809400470600090,546321987287965134193784652714298563639547821825136749968413275352879416471652398
070890301006504800900070002004900030015402069600105000720000410009008500850703000,572896341136524897948371652284967135315482769697135284723659418469218573851743926
002540030000300009009061500104058600200090100005003902070002064083700005006400081,712549836658327419349861527194258673237694158865173942571982364483716295926435781
600150038002009500070008040390005084010800302200410060000500706107030000950062000,649157238832649571571328649396275184714896352285413967423581796167934825958762413
030000029006000000001679040050004908109702030007905160080040310300018006000307504,738451629496823751521679843253164978169782435847935162985246317374518296612397584
006007002140000530870905000723000048980000650000301009000008020050062914004010706,536147892149826537872935461723659148981274653465381279617498325358762914294513786
600000080005631200031007045943000010100049708070000020020090000700000460806210309,697425183485631297231987645943872516162549738578163924324796851719358462856214379
051000900000081004302070500809320607000090210037604000060907400070000050500160080,451236978796581324382479561819325647645798213237614895168957432973842156524163789
081004500700300019403690070009020600030067908002540000015002004040050301000008206,981274563726385419453691872179823645534167928862549137615932784248756391397418256
600047390010080000000905100760050030030790028500021006071002460400800073309000005,685147392917283654243965187762458931134796528598321746871532469456819273329674815
495002000700001820000600007614709000050340008008020060370500900809000010020030476,495872631763451829182693547614789253257346198938125764376514982849267315521938476
005803010068047090170000340903680001000900800007004025040208000809001004021030006,495823617368147592172596348953682471214975863687314925746258139839761254521439786
010006700000530000008400209009004672500000340037001005090600000765020090340070108,213896754974532816658417239189354672526789341437261985891643527765128493342975168
204030000000900200805670140680300004001080073007405600902000067400029305710008000,294831756176954238835672149689317524541286973327495681952143867468729315713568492
007020001050600080940003200008509103310700000009002048006280409100070005032400016,687924351253617984941853267428569173315748692769132548576281439194376825832495716
016087090000020000700003680100500870090300500580000143070194020230070004009005006,316487295958621437724953681163542879497318562582769143675194328231876954849235716
612000007000003049000576080006104305500800700291300400087090120004082050900600000,612948537758213649439576281876124395543869712291357468387495126164782953925631874
390057040000900082071602000000700409006530000280000013008200097000004651063009800,392857146654913782871642935135728469946531278287496513418265397729384651563179824
400000000908043560073206080600570104030600002002008090005000900800109320006050710,461985273928743561573216489689572134734691852152438697315827946847169325296354718
060104005000030780007900000530210060080300002020057041090080200642000050100005639,863174925419532786257968413534219867781346592926857341395681274642793158178425639
001025000870900013605700900000010430700094608208000000054008007020500040000060390,491325786872946513635781924569817432713294658248653179954138267326579841187462395
060084205503200800090000010000005001435600070812090003000860100320700040700100059,167984235543271896298536714679325481435618972812497563954863127321759648786142359
000200000609031800408506010030070052500460300084000070740009060002807005000003940,371284596659731824428596713136978452597462381284315679743159268962847135815623947
062090470810000009009300800050273004798050010000000060100900250007004003020815006,362598471815742639479361825651273984798456312234189567146937258587624193923815746
003020400120790003000600070008130047005008900741002000000009506064000208900380010,573821469126794853489653172298135647635478921741962385817249536364517298952386714
000903060002800070301040009000410000057006900410200508008002700073650802905030400,784923165592861374361547289839415627257386941416279538648192753173654892925738416
030079014600002300209408006340060005000210008051090700000000050095700820780003000,538679214674152389219438576342867195967215438851394762423981657195746823786523941
000040065246900010000008300080063001027004500500207090409000150800012006060300078,398741265246935817751628349984563721627194583513287694439876152875412936162359478
420050000050102700609038000010700050000009302000546980300084020207090564006000003,421957638853162749679438215918723456564819372732546981395684127287391564146275893
075600090002085070160300000058104032400000000900002540004509301630000900000460280,875621493342985176169347825758194632423856719916732548284579361637218954591463287
092105003030009800000430027608000102014070050900200000300904500860010700109800006,792185463436729815581436927678593142214678359953241678327964581865312794149857236
002000004084100070350007692003680200400023710100090005007409308600010450000000000,762935184984162573351847692573681249498523716126794835217459368639218457845376921
090060530706000281001705000902036000605000100030400060000100070004053810083920004,498261537756394281321785496912536748645879123837412965569148372274653819183927654
034500600200067010005008007000040072001003000800026340100930008002600051950080704,734512689298467513615398427563849172421753896879126345147935268382674951956281734
004070000076509030050830046090010070005407290038026504009000800100004069200000001,324671985876549132951832746492315678615487293738926514549163827187254369263798451
403020070970406800010009020008704605590000004007031000050200008104008360306007090,463825971972416853815379426238794615591682734647531289759263148124958367386147592
700000320129080060000001004030400050060097002402500087005700900213600500008103000,784965321129384765356271894837412659561897432492536187645728913213649578978153246
009207000048060500000059302003510094010002060625400007500000920736000010400180000,359247681248361579167859342873516294914732865625498137581674923736925418492183756
254006800009080007010000460002300106070590000843070052060004700300100080005230090,254716839639485217718923465592348176176592348843671952961854723327169584485237691
805002940010050062300067010590700003001006780408000001020070500000310078009400000,865132947917854362342967815596781423231546789478293651123678594654319278789425136
089004005500097160000800204600000070007020451004038009070340016000600082320000900,289164735543297168761853294692415873837926451154738629978342516415679382326581947
456903002073210900001058000080400070037000005900031060000509020020006047000020810,456973182873214956291658734682495371137862495945731268718549623329186547564327819
080652900700008305040000006000700001008090050501006703300009240002187600096030010,183652974769418325245973186934725861678391452521846793317569248452187639896234517
000650200054009730107024080000008090000201300089740510001400070038002004500000800,893657241254819736167324985612538497475291368389746512921485673738962154546173829
900200403000079600001458000002601070083004009090030500060700001208005004050142090,975216483824379615631458927542691378783524169196837542469783251218965734357142896
035008000200300495706104200000806000040910063802005100900000504170000080050070920,435298617281367495796154238319846752547912863862735149923681574174529386658473921
000930708032000500050704016000480107600159002904000060560002000071600003200007004,146935728732861549859724316325486197687159432914273865568342971471698253293517684
000840007070001906009020000400008000050000630067905021030500800108603500005207140,316849257274351986589726314423168795951472638867935421732514869148693572695287143
087050900002043057000000308000300006175600090900002840206008005030200010409031602,387156924692843157541927368824319576175684293963572841216498735738265419459731682
600000700007010894010480050000100530200900687860023000020804010003002000079500200,648359721357216894912487356794168532231945687865723149526874913183692475479531268
032906000000405700000001069400879001075100002906000803080650020060000140204007900,732986514691425738548731269423879651875163492916542873189654327367298145254317986
000031000120900300065842790540320000200500038070000006450080070087106200000090100,794631852128975364365842791546328917219567438873419526451283679987156243632794185
000007102580400060030600900700090800009106270043002005002950006418700000600001003,964387152581429367237615948726594831859136274143872695372958416418763529695241783
040601357000300006002047000850000900014032080096700001600405803001093000000800529,948621357175389246362547198853164972714932685296758431629475813581293764437816529
005200040080047306100306508704000263059000004300001007000634002000905670800000000,635218749982547316147396528714859263259763184368421957571634892423985671896172435
400708600950000000607200010048300260106800300700005004005010020000690850210007430,431758692952136748687249513548371269196824375723965184865413927374692851219587436
840002003600009450350600001000056108730001025000000040000965000002040096010803570,847512963621389457359674281294756138738491625165238749473965812582147396916823574
300006000050300642080001079010700028009803005002015400147009000900007860000050100,394276581751398642286541379513764928469823715872915436147689253925137864638452197
082000004100306078000054130708001200096000005200963040000090561007008000904200003,382179654145326978679854132738541296496782315251963847823497561517638429964215783
802630090300002010004000703609005000003901084000370600070190300000084002908700560,812637495397452816564819723689245137753961284421378659275196348136584972948723561
200684009567209004090000010000800107103470000029030000406320700000000850008165200,231684579567219384894753612645892137183476925729531468456328791312947856978165243
800900152090000430056203070960370000010020800000000004108006020520097001070040500,837964152291785436456213978964378215315429867782651394148536729523897641679142583
020900540700014260640200013100070028005080630000600700430000105090046080200509000,821963547753814269649257813164375928975482631382691754436728195597146382218539476
006000300401008060820000004500140080007009500000300921068007090009506002100804730,976421358431758269825963174593142687217689543684375921368217495749536812152894736
000431900050200003400070602640500001702003080000106090230098005001000078500600400,826431957157269843493875612649587321712943586385126794234798165961354278578612439
000010006410007090035804020020600500850702040904000700006980073002503800003020001,279315486418267395635894127327649518851732649964158732546981273192573864783426951
720060004900000160000001827060050001204009683300004000430090000070248900608013500,721865394983427165546931827869352471254179683317684259432596718175248936698713542
045900032008070504060030000020700090403006100006051820709000218050300040010800007,145968732398172564267534981521783496483296175976451823739645218852317649614829357
300010024000529300086000050024000000905087010700042006070001085860350009000700140,359816724147529368286473951624135897935687412718942536473291685861354279592768143
730800000900004081001006420650047090029000100000050340000300070805079600340068500,734821965962534781581796423653147298429683157178952346296315874815479632347268519
080000001100460700905203004000090085600070000350104900730081002502600038001900040,486759321123468759975213864217396485649875213358124976734581692592647138861932547
009700002076024050400006003007105408038000060000000200064038190020057300580409000,359781642876324951412596873297165438138942567645873219764238195921657384583419726
070536840080000060000020901000000030261089000095104200900600010053700004006908007,179536842582491763634827951748265139261389475395174286927643518853712694416958327
003041906900700002061300050009000070050032008406000509002015047010800620080407003,573241986948756312261389754839564271157932468426178539392615847714893625685427193
010000750000305046005400009900500201470860900002070084697180003003700100050006000,314698752729315846865427319986543271471862935532971684697184523243759168158236497
800004030012700590000000006609025070350000004000489003005203780080060000907010402,896154237412736598573892146649325871358671924721489653165243789284967315937518462
098000132002000004030094600706003010009051380000002005001600490527030000000087003,498576132672318954135294678756843219249751386813962745381625497527439861964187523
000060040009002350410000200263100007980600000700850020830079015504080600027040003,352968741679412358418735269263194587985627134741853926836279415594381672127546893
