058130900397000400000507000000002001760009023024600800045370082100480060600000050,258134976397268415416597238839752641761849523524613897945376182172485369683921754
030000840000603102109045000072100000500200908901504007640080000200706009005001073,736912845458673192129845736372198564564237918981564327647389251213756489895421673
000036020207005038000100009860070050005390102100502400006080310040200006009014070,954836721217945638638127549862471953475398162193562487526789314741253896389614275
041930800270000105809002740050004001007596402008070000090800000000060230300015064,541937826273648195869152743956284371137596482428371659694823517715469238382715964
006001073050200008807004900501020090030000604082007500405030700900406280100005046,296581473354279168817364952541623897739158624682947531465832719973416285128795346
760002009000001380300000006040608007507090062000530910605080400024005070913400200,768352149492761385351849726149628537537194862286537914675283491824915673913476258
000070104084200350107900000500420008700083502000100963003000671690048000000010080,362875194984261357157934826536429718719683542428157963843592671691748235275316489
300000047700008900010060050000017002246030008090004365470200006530400080009083100,382159647765348921914762853853617492246935718197824365478291536531476289629583174
000006901080720003200500400024003790900008060601045000506300209040100570708000016,457836921189724653263591487824613795935278164671945832516387249342169578798452316
500400968000081304002000000907050006000062807408003200005176000704090012000200053,513427968679581324842639571927854136351962847468713295235176489784395612196248753
060840007705090200030000000000057013001408025040302908970536800080070030400000600,269841357715693284834725196628957413391468725547312968972536841186274539453189672
500803047700510082060090050004100300089000060372050001007260019805034070020000004,591823647743516982268497153654179328189342765372658491437265819815934276926781534
000902350007800000003005910050070209600500001080016040000083406948000030010020705,861942357597831624423765918154378269632594871789216543275183496948657132316429785
008000300200000150519806702070200060051040009803090400400301800300004070060507000,748152396236479158519836742974218563651743289823695417497361825385924671162587934
080000940000026000059108300060001570900360102400807000840500200007000003610473005,286735941134926758759148326368291574975364182421857639843519267597682413612473895
462500007000408902700000050046000080097000015301002000508701690010030000003095004,462519837135478962789623451246157389897364215351982746528741693914236578673895124
084025007000100080030006240509010403072063900000700001000040860028007509900502000,684325197295174386731896245569218473172463958843759621357941862428637519916582734
005008000020076514300002690012050007000761089908000060050900070700040000006000453,165498732829376514347512698612859347534761289978234165451923876783645921296187453
000208104301005700490030080600502000015400000200003068000007900009104350507360020,756298134381645792492731685638572419915486273274913568123857946869124357547369821
050300004467009020200060970700200640800056093010008000001004030000100502930520000,159372864467819325283465971795231648842756193316948257521684739674193582938527416
020013500790008601080570900043000007510400003608000050200700080050024190104060000,426913578795248631381576942943685217512497863678132459269751384857324196134869725
009007063700503908305100240903060000840020700006010035020000470100950000000800001,419287563762543918385196247953768124841325796276419835528631479137954682694872351
081402900760001030004703000950080000023000690006004072009500040500017300002300806,381452967765891234294763185957286413423175698816934572639528741548617329172349856
060092010000400700598030400080600503200500000070140802002006107059008064300270008,467892315123465789598731426981627543234589671675143892842956137759318264316274958
901008304240900065000300100002040080650000907708165000509203000300001708007500090,971658324243917865865324179132749586654832917798165432589273641326491758417586293
006090008900016500074008020430720900000350702001000400098600041502003067000100305,256497138983216574174538629435721986869354712721869453398675241512943867647182395
100080000462100000050400309021000790370600004504270000000046073908500140000030805,193785462462193587857462319621354798379618254584279631215846973938527146746931825
700100480004520001000090000600000004000780032900015700510308070040600053807009100,792163485384527691165894327678932514451786932923415768516348279249671853837259146
000001560000400000472008030910520000000009800320840007004730091261000003030005082,893271564156493278472658139918527346647319825325846917584732691261984753739165482
080730010004065308000210506007603000020507403908000000000100069700049200502000080,685734912214965378379218546457693821126587493938421657843152769761849235592376184
050800009401350060200400001008970002010005006002036450090502000007090800600000013,756821349481359267239467581568974132314285796972136458893512674147693825625748913
100690020007010830408007009030021094070000060900500302020700608009004001500082000,153698427297415836468237519635821794872943165914576382321759648789364251546182973
060004030039600051700800200305090060070203590000410000042080709600520080810007000,268154937439672851751839246325798164174263598986415372542386719697521483813947625
600003412000004300008702006004205037007081940590000001005049000030000080021600054,679853412152964378348712596814295637267381945593476821785149263436527189921638754
000060010504008390013005080000000900180052706247093000908014200006089540000200000,892367415564128397713945682635871924189452736247693158978514263326789541451236879
580040207603020190004600008800704009020008006097500030351006000000091400000207003,589143267673825194214679358836714529125938746497562831351486972762391485948257613
000054810081200003320001740030020406007900050009016000010647028000000035960008100,796354812481279563325861749138725496647983251259416387513647928874192635962538174
600208370004030000009070210002000090150002038000463001498600750020900006701050080,615248379274139865839576214342815697156792438987463521498621753523987146761354982
507620000000500408023009706080360040000907102019000000190005080000410930005002007,547628391961573428823149756782361549354987162619254873196735284278416935435892617
401507800953001004000900200360010040800002039040080702530090000007400000600000315,421567893953821674786934251362719548875642139149385762538196427217453986694278315
002100300716403028950070000000010056300000000008267009807005403124000060000000980,482156397716493528953872641279314856361589274548267139897625413124938765635741982
500800406723600050000009010000020000030510068956304070079000081210005004040000037,591873426723641859864259713187926345432517968956384172379462581218735694645198237
200009000037008904008520706060004852090760430000100000300040070100900068072051009,216479583537618924948523716761394852895762431423185697389246175154937268672851349
409500800050090024038067010000380005006000402370000980000950100080203790061048000,419532867657891324238467519142389675896175432375624981723956148584213796961748253
270106490900070305001004002100520006506000103020009080040800001050300070308092000,275136498964278315831954762187523946596487123423619587749865231652341879318792654
009004602080230901030050070002906003010070800706300040040100080000090500025768100,579814632684237951231659478852946713413572869796381245947125386168493527325768194
080000005702040100160007300050930800001002009000186007030090060200508000970400021,483619275792345186165827394657934812841752639329186457534291768216578943978463521
085090670640500002170000008807600401000020000003009007206870510090060003000031240,385192674649587132172346958827653491914728365563419827236874519491265783758931246
000014720502900060070800010060300058907000002430059100003420007009001485000608000,896514723512973864374862519261347958957186342438259176183425697629731485745698231
001687024004010037500400900100005090000268003276001008940002000000900800632000070,391687524824519637567423981183745296459268713276391458948172365715936842632854179
078600009000120000350040600700000520060912408004073001600300000200008194407050080,178635249946127835352849617719486523563912478824573961681394752235768194497251386
300009400060000050500830001002007005059410003107020608020500090010006807043091020,371659482268174359594832761482367915659418273137925648726583194915246837843791526
060000012700061904009847000090000045001703200682005307120080000050000006003950800,864539712735261984219847653397628145541793268682415397126384579958172436473956821
060402000700051602050700390090007004007030508000208030620004050800905107900100006,163492875789351642452786391398517264247639518516248739621874953834965127975123486
060720040009000800040158030097082004000003050205006709000000203170060000824090005,368729541519634827742158936697582314481973652235416789956841273173265498824397165
600300048809070000210005307000140020000009806053000090140500200090807600060002173,675321948839674512214985367986143725421759836753268491147536289392817654568492173
140905700508000000003006042000053000925800060804607100000700039006020400470001058,142935786568472913793186542617253894925814367834697125251748639386529471479361258
000100028036420100500007090203500000009016700000800400958040030007068000041205900,794153628836429175512687394263574819489316752175892463958741236327968541641235987
001050340060701509023006000090800070386040002000069001400600080032080005000010497,971258346864731529523496718195823674386147952247569831419675283732984165658312497
509402000060500300700100095005090013873040009016007800400860000000020058000903270,539472186164589327782136495245698713873241569916357842427865931391724658658913274
000970600306080021018000004091405060600000042007310800400700009000600753052030080,524971638376584921918263574891425367635897142247316895463758219189642753752139486
050000690907068120008000034000825007070403050300096000002007809104500006009200040,253174698947368125618952734491825367876413952325796481532647819184539276769281543
780043006300009010050000790000200004007301520060084001001500062690007830500090000,789143256326759418154826793913275684847361529265984371471538962692417835538692147
095020760040760030000030201100002089900500600007803004008006003000000512502019800,395124768241768935876935241154672389983541627627893154718256493469387512532419876
650100380930000500007400006000000059102080467080609010400350720500070901003018000,654197382931862574827435196346721859192583467785649213419356728568274931273918645
080007409090130080702400065000301020009050000560000017024908300300502000001040270,185267439496135782732489165847391526219756843563824917624978351378512694951643278
463700900005030020000804050090000471000051009002670080000010092307060100809500600,463725918985136724271894356596283471738451269142679583654317892327968145819542637
040062901020504070803001002502000000037008060000790800090620040400800030000035619,745362981129584376863971452582146793937258164614793825391627548456819237278435619
098070100600000070203500080000810062501000000007095430000009020950304006036102048,498276153615938274273541689349817562561423897827695431184769325952384716736152948
004731580000890026000002700090060432010908050056000000020403890903000070047000100,264731589175894326839652741798165432312948657456327918621473895983516274547289163
605108700037900000020007396503704010000610802000000003162080500000000041900050000,695138724437962185821547396583724619749613852216895473162489537358276941974351268
008243000120060005694008070031000908275900060000030042500000804000007190860021030,758243619123769485694518273431672958275984361986135742517396824342857196869421537
000012038000009750360008004250807000097000860406100002008470521605020000040000093,574612938821349756369758214253867149197234865486195372938476521615923487742581693
500080010080004003147000090910502608030009040208000700020053107050107900400600020,593786412682914573147235896914572638735869241268341759829453167356127984471698325
010400028020085300004096000600500002081720005003600190075000040300004509908001006,516437928729185364834296751697513482481729635253648197175962843362874519948351276
000070290600029015409005000700040032018062000000301007004006980006580700203100004,851473296637829415429615378765948132318762549942351867574236981196584723283197654
970008000800392500403700020005009100200000600060203947500000060001400783020061400,972548316816392574453716829745689132239174658168253947584937261691425783327861495
007190008038006740401800205690030000100000504043020079009080000500700013380600020,257194368938256741461873295695437182172968534843521679719382456526749813384615927
060805190500007020001000340004376000000120000803509700040060501005280060390000004,462835197539417628781692345914376852657128439823549716248963571175284963396751284
236901800000000000850400013010008240078003006500106000020000078900207400100050960,236971854741835629859462713613798245478523196592146387324619578965287431187354962
084600001060050270300024000006000800810040705470302060000710530500200090090000018,284697351169853274357124986926571843813946725475382169648719532531268497792435618
072905400000081000600030708008070506290650030100400800006040081050000207004302690,872965413543781962619234758438179526297658134165423879926547381351896247784312695
050010067800009000024083051076500400300120085000007290100860000097030040405001030,953412867861759324724683951276598413349126785518347296132864579697235148485971632
700800254040000030500700900001020007030000020007960810650004003009518600210006009,796831254142659738583742961861425397935187426427963815658294173379518642214376589
400200700360007089008050004104009300900500060002710500503020006701006040090000102,419268753365147289278953614154689327987532461632714598543821976721396845896475132
006001020098306700001805000000039800860500092002000145203000064014070503500400007,356791428498326751721845639145239876867514392932687145273158964614972583589463217
405000900080300657003901020964003010000762000050010080702000540800240100000807003,425678931189324657673951824964583712318762495257419386792136548836245179541897263
860004900200068050704100000000057009090201800520830017010005640000900032673080000,861524973239768154754193286148657329397241865526839417912375648485916732673482591
140070003806200000930004500001503802600018900090400007080002050000000190705060034,142975683856231479937684521471593862623718945598426317389142756264357198715869234
230500080500900743010680200104000067000108320000000900090014000000702805300005090,239547186568921743417683259184239567956178324723456918895314672641792835372865491
000005008009000630400270000076080304001503900020049016008000020500431080730000500,617395248259814637483276195976182354841563972325749816198657423562431789734928561
008104700000730510009008030070900302465200800000010060000490200100000986052607000,538164729624739518719528634871946352465273891293815467386491275147352986952687143
003040092004020800060917300090001046400700035000062070000008007015090680302005400,153846792974523861268917354897351246426789135531462978649138527715294683382675419
200040100790302000000000036150006008032008040046059010010900453000080700305010090,263845179791362584584791236157436928932178645846259317618927453429583761375614892
080070900209800310071005080000000500008201643400398020900602805510009000006030070,684173952259846317371925486132467598798251643465398721947612835513789264826534179
042900010650007008000105047018006000000000605200094370009038700804070052500020090,742983516651247938983165247318756429497312685265894371129538764834679152576421893
140300057000061002709000800000102960900003000058000040080609200607410009004080510,142398657835761492769524831473152968916843725258976143581639274627415389394287516
004090060620003957700200010087020001003004000060100093015048020200007080900600504,854791362621483957739256418587329641193864275462175893315948726246537189978612534
700203060800090140049008000035010002400500070002630500193002600060080954000070030,751243869826795143349168725635817492418529376972634518193452687267381954584976231
300006041046000000209070500000591004064000000103800027007109080098047603000003705,375926841846315279219478536782591364964732158153864927637159482598247613421683795
