400900780080534100200006000017090020090340050506000300000080006905000210630001407,463912785789534162251876943317695824892347651546128379124789536975463218638251497
000060970001203400240098000000002000570130008034675009400080100920004805060507000,385461972791253486246798531619842753572139648834675219453986127927314865168527394
539060480008500030000070600056004900420003100000210070070020010310090806080001002,539162487768549231241378695156784923427953168893216574674825319312497856985631742
009700062050023090680100005001400306000850070020000501070908000030010428004006007,349785162157623894682194735591472386463851279728369541275948613936517428814236957
790006005000000684000034002307040010010200000608075900052910040960052001000300000,794826135235791684186534792327649518519283467648175923852917346963452871471368259
060105070901000040000000200083009600400680710500200003200306050709400002030710089,364125978921837546857964231183579624492683715576241893248396157719458362635712489
500004018740900602009150703000002000060800305080763400090000086008495000203000100,536274918741938652829156743374512869162849375985763421497321586618495237253687194
400006000706020380902508010000739600080100734005600000201000970090043005060010002,418396527756421389932578416124739658689152734375684291241865973897243165563917842
700080100089000000001453090095200780007600004310040050042009068000010030050800270,734986125589127643261453897495231786827695314316748952142379568678512439953864271
030500000075024300164089020400700850010003709000046010806090000001230900020000478,238571694975624381164389527493712856612853749587946213856497132741238965329165478
048520600030004070756010080960403010000062009504001000013090004020006950600700300,148527693239684175756319482962453817371862549584971236813295764427136958695748321
000609340067000080900057000012560400000008003009042600506800201340000970071906000,125689347467321589983457162712563498654198723839742615596874231348215976271936854
001006250000910000643072000700803406015000020300020790004009000070000800902465003,891346257257918634643572981729853416415697328368124795134789562576231849982465173
003180006000500807710090302004050020000600083635009400200043000086000090041200005,523187946469532817718496352874351629192674583635829471257943168386715294941268735
508007000900080504000201930070402006600030291010096080260000000007360105095800000,538947612921683574746251938879412356654738291312596487263175849487369125195824763
000076190080004605000090032160030804000540700300208000049010050500709000021000006,452376198983124675617895432165937824298541763374268519849612357536789241721453986
008906020102004500090030007000081004060090000005403086050708430070005290003210070,748956123132874569596132847327681954864597312915423786259768431671345298483219675
380900004075100360000000820600000200001746090057301080006008007200590030000034100,382965714475182369169473825643859271821746593957321486536218947214597638798634152
601580970300900008020000600908051300070090060030270400010040832000600050780300100,641582973357964218829137645968451327472893561135276489516749832293618754784325196
000039000608704200035006041000900080194200005700013060000080506456000017001000930,247139658618754293935826741563947182194268375782513469379481526456392817821675934
007800000640002000085030014009200030000706520700050109090380200000904071004100086,937841652641572893285639714569218437413796528728453169196387245852964371374125986
690030000020768000001400027008009743010006008503020900000200890904001530302080100,697132485425768319831495627268519743719346258543827961176253894984671532352984176
030006004198402000006700580080000007504800023000300090040509002207030005901060070,735986214198452736426713589389621457514897623672345891843579162267138945951264378
100850600732604000005000007006015409000900000400002175003280010640009230070031090,194857623732694851865123947326715489517948362489362175953286714641579238278431596
000030025000604700100050680703900060586002004020008031040500107005100000800479002,697831425258694713134257689713945268586312974429768531342586197975123846861479352
020018060065000830000700450500004007003006000089300120030085000602070980140009200,324518769765942831891763452516824397273196548489357126937285614652471983148639275
100008004900730200675009080000096300280070010030210060017650420090000008004000570,123568794948731256675429183751896342286374915439215867817653429592147638364982571
908305014070106090200087000829070001050200307006401000013000058500000026000009400,968325714375146892241987635829673541154298367736451289413762958597834126682519473
536900040870000001400008905090026008000070010253040600100600003000207000048095706,536912847879453261412768935791326458684579312253841679127684593965237184348195726
000700216006004350050023000070000009100087040035900080502090604090142830003006000,384759216926814357751623498278435169169287543435961782512398674697142835843576921
027004006109060830000150020300090100050023070062000084003005098006710000480900700,527384916149267835638159427374896152851423679962571384713645298296718543485932761
640020030901038000800065240760800900150600002003900450000070001000004397002500860,645729138921438675837165249764852913159643782283917456498376521516284397372591864
203040018008005000950073040400008005000690003086000720160500870720109034000002900,273946518648215397951873246497328165512697483386451729169534872725189634834762951
006004000089000201100005340090130000007600420003402080025780630000006970060900500,536214897489367251172895346294138765817659423653472189925781634341526978768943512
280050140000908020560700000307009080400805706010002309000007000103040002906001503,289653147734918625561724938357169284492835716618472359825397461173546892946281573
087906400030000000009702001043000790090800650500000108460080000005290007000601203,187936425234518976659742381843165792791823654526479138462387519315294867978651243
100000700030090600200810940081050004400700500097006002058030060700209003060008019,149625738835497621276813945681952374423781596597346182958134267714269853362578419
500310040039600000820097000060000800208000760100500302700004080010030205300206019,576312948439685127821497536963721854258943761147568392792154683614839275385276419
500000000000062840064300070010085000070400690008720103600103005950670200780000930,529847361137562849864319572316985427275431698498726153642193785953678214781254936
100240030403607000080000705002030000509000460000015008005001870760004013040089250,157248639493657182286193745812436597539872461674915328925361874768524913341789256
000070090500100007208560400000003600013905080940600002006841070400002108090700203,134278596569134827278569431782413659613925784945687312326841975457392168891756243
006470005010008270003009600000320006047800900080060154520790803001003000000200091,896472315415638279273159648159324786647815932382967154524791863961583427738246591
732600001008000900405000030009068004380000092600300510010080207900705060003240150,732659481168437925495821736259168374381574692647392518516983247924715863873246159
430009027002000500708001003300008046026007001050300709091020600000040030000076805,435689127912734568768251493379518246826497351154362789591823674687145932243976815
750004080800710000410500062008900003070260500045030001000179020020003004630080950,756324189892716435413598762168945273379261548245837691584179326927653814631482957
400890005807240100000030002200000407730100000049060380952000706010300050000026008,423891675867245193195637842281953467736184529549762381952418736618379254374526918
740003208010640500309000000082010009000020654670300001103075000024009300090000086,746953218218647593359281467482516739931728654675394821163875942824169375597432186
405003010090450003720080060000070002680001090009002300000805140140090805900300700,465723918891456273723189564314978652682531497579642381237865149146297835958314726
904000803300210070600040090008004060063000052571302004000500700009008021042706008,924675813385219476617843295298154367463987152571362984836521749759438621142796538
000000000026309000500060080780950460040802910031740000058170006000080740004003200,417528639826319574593467182782951463645832917931746825258174396369285741174693258
500001300470008600010470089800600075000032400904010000006500904390060720002003050,568291347479358612213476589831649275657832491924715863186527934395164728742983156
049305600800070000000009420910080032006200510300090040605100080090643007027000001,249315678863472195571869423914586732786234519352791846635127984198643257427958361
009002107200509060183007500600730004004000090000060032006000415030025000701000080,569382147247519368183647529692731854374258691815964732926873415438125976751496283
016002008200310070500900000060405031932001054005200600700004060000080900381670002,416752398298316475573948126867495231932861754145237689759124863624583917381679542
806010020000098507003500600000080705175000048940300000010030000580400203600207019,856713924421698537793542681362184795175926348948375162217839456589461273634257819
700004008036000540000290017085430200070020936900106000000805002800010060510907400,791654328236781549458293617685439271174528936923176854367845192849312765512967483
000090270048700901002035400503080100000300065086024007007801030034600002900000508,615498273348762951792135486573986124429317865186524397257841639834659712961273548
089060000700900080000170520030000000160243900807610054310500007000020600590084230,289465713751932486643178529934857162165243978827619354312596847478321695596784231
700002304003900000051040960069300052004021608800007000600205030002008001510000040,796152384483976125251843967169384752374521698825697413647215839932468571518739246
500009470107450000600208000005000930008000042200060700004031020930027500010500890,523619478187453269649278351475182936368795142291364785854931627936827514712546893
000900100070026009208100570030017002049300800502000040604090000300540607000001380,463975128175826439298134576836417952749352861512689743684793215321548697957261384
070003900029700051500800704000006000002370600780001020010029083403050006000600010,874513962329764851561892734935286147142375698786941325617429583493158276258637419
950360080040029530000000004003050120500000008810970600000000307076810290302540006,951364782648729531237185964763458129529631478814972653185296347476813295392547816
008009005120300700709801340984005060060040000300028000000090100001706003602403098,438279615126354789759861342984135267265947831317628954843592176591786423672413598
000780001010094607300520080200005460036000800904000100070060009020100350843009000,492786531518394627367521984281975463736412895954638172175863249629147358843259716
402800100000000060530090840600200000091003050807400026009051780064300009180070000,472836195918547263536192847643285971291763458857419326329651784764328519185974632
009300276250704010003080009030006945070008060600100800060905000007020001891400003,489351276256794318713682459138276945974538162625149837362915784547823691891467523
200008007006035400000090352007120063090080701304009000000050080501340000029071006,235418697976235418148697352857124963692583741314769825763952184581346279429871536
064705028050200374000309100080006010003090650270000049190684007045003096000000000,364715928951268374728349165589426713413897652276531849192684537845173296637952481
406000092920700100000080406000007000375600008602350900508004300010030060030809071,486513792923746185157982436891427653375691248642358917568174329719235864234869571
920050001476000000000360409390100045080090602001480030000508103008002070750000004,923854761476219358815367429397126845584793612261485937642578193138942576759631284
001806020000000960049230500720589003093400608000000070385604000200007000000300415,571896324832745961649231587726589143193472658458163279385614792214957836967328415
005108900200070005831400060300859001004000020917060030600730800490080700000902006,765128943249673185831495267326859471584317629917264538652731894493586712178942356
050042361000901000040380059020007013006000700001004002830500020002000080079100406,958742361263951874147386259425897613396215748781634592834569127612473985579128436
908020605001750400400010080007000020020006379005040001030800002040160700800403950,978324615261758493453619287687931524124586379395247861736895142549162738812473956
082000030700090410000254800030080900009400628600100000900670000010003205504802006,482761539765398412391254867237586941159437628648129753923675184816943275574812396
000008100250031860090420500060000004002065007800207050640900008007010096003072010,376598142254731869198426573765189234412365987839247651641953728527814396983672415
370940001500000900028016070050027830003400015480300000700002060010060020090805000,376948251541273986928516473159627834263489715487351692734192568815764329692835147
408290073093080041000000200020548300070020010500310009001000000000906054607034080,468291573293785641715463298129548367374629815586317429941852736832976154657134982
000004976004020300005071400100056004940008000003000618051900003200000809680703020,812534976764829351395671482178356294946218537523497618451982763237165849689743125
060000008780203000200900174104030005070000980032050600040800306900070050000065400,469517238781243569253986174194638725675421983832759641547892316916374852328165497
000200067860700543100050020517009000000074009030006012253800004000000805906430000,395248167862791543174653928517329486628174359439586712253817694741962835986435271
090000507083902000060500200400200000006010005010037092038704006050003400907058001,291346587583972164764581239479265813326819745815437692138724956652193478947658321
420003900100000006007609540090020083045700000200901700060087020900105360308000470,426853917159472836837619542791524683645738291283961754564387129972145368318296475
003050790900060502500810030780000200006700940000034001327081006060270000001500000,613452798948367512572819634784195263136728945259634871327981456465273189891546327
000040005703000610021706300007030062810900500000200840009310000236080700004005980,698143275753892614421756398947538162812964537365271849589317426236489751174625983
095006003060012000000000105700600081000340670080020000549001700027450900600800020,195786243364512897278934165732695481951348672486127359549261738827453916613879524
000400056210063098000050000490201800850000007007380609080600020300500704901024000,738492156215763498649158372496271835853946217127385649584637921362519784971824563
045030107072908460300014000900300700021000805000065042030070059000600000200040680,845236197172958463369714528954382716621497835783165942436871259518629374297543681
020600000000920405000473980008000009700005146100397050900806007546000000870010030,429658713387921465615473982258164379793285146164397258931846527546732891872519634
500406010060907800803020900004310000070850002201000034709060058008005620000140370,597486213162937845843521967954312786376854192281679534719263458438795621625148379
030090860015000409600802007940710002060040030701608500000027040052000108009003000,237491865815376429694852317943715682568249731721638594186527943352964178479183256
004003080023140070091027003570800002010702640000000100048030010007000935000906000,754693281623148579891527463576814392319752648482369157948235716267481935135976824
900850000270010305000402006095200840000000610008043070067500001100098000340076000,936857124274619385581432796795261843423785619618943572867524931152398467349176258
050010608002064730000800410030049050719000300004600080600080029300120070048590000,457312698182964735963875412836749251719258346524631987671483529395126874248597163
620490750007080000300000009100700430500609208070543600941002360080060002050100000,628491753497385126315276849169728435534619278872543691941852367783964512256137984
006240803080000250970000061000090105010080027405003000590004018200051794000076000,156249873384167259972538461738692145619485327425713986597324618263851794841976532
000009073790280040083650000600794000507000190800000060060002410004030205920801007,256419873791283546483657921612794358547368192839125764368572419174936285925841637
000902010980100074040038050000000761700009000325000400006200300530060000014075089,657942813983156274142738956498523761761489532325617498876291345539864127214375689
098017000300000750006042018000080000019703006074061520062000400500400390000809200,498517632321698754756342918635284179219753846874961523962135487587426391143879265
