210800400700050000090204003005000061007030509601000807006003102080049305300702080,213897456764351928598264713935478261827136549641925837476583192182649375359712684
080100000107006030000405006005600000096003018301097400043000890200009007009240051,684132579157986234932475186875614923496523718321897465543761892218359647769248351
009000001005600007820070430000000700014020005260009083100400600706150009040800502,679234851435681297821975436598316724314728965267549183152493678786152349943867512
760000030031080257240090100000025080006400000080001724000509000093240600104030070,768152439931684257245793168417925386326478591589361724672519843893247615154836972
004573000903400600517200000090010004000809500060000028240065079100020085700308002,684573291923481657517296843895612734472839516361754928248165379136927485759348162
000003006102045080800600419000070025308002900605000701090030640001700500430080072,749813256162945387853627419914376825378152964625498731597231648281764593436589172
020050040900230100301000092030820006078500000500900710200001500004060000600400937,827159643946238175351674892139827456478516329562943718283791564794365281615482937
302400015654000008089002603000045009000070130860030070908067400000800000700091200,372486915654913728189752643237145869495678132861239574928367451516824397743591286
501003060000078010004200003610900004002014380050060097920040800305006000007089050,571493268239678415864251973618937524792514386453862197926745831385126749147389652
074962080095730040000005100240309600060000007000018000000156030300040890702000005,174962583895731246623485179241379658968524317537618924489156732356247891712893465
061007005900000070003954001000381000608000300012060094504090702030800050070003160,861237945945618273723954681497381526658429317312765894584196732136872459279543168
206100070080500001090000305002070009507002040009403800010204050300805602600007900,256139478783546291491728365842671539537982146169453827918264753374895612625317984
003050017008003009200009406000700602160008040500304081300920000410000020709081500,943652817678143259251879436834715692167298345592364781385926174416537928729481563
090605200000007001006000080005040300641090700200860900708300095003200067060400130,194685273852937641376124589985742316641593728237861954728316495413259867569478132
019000027008007130200035000000079203403500090607420800100060400000908050002000080,319846527568297134274135968851679243423581796697423815185362479746918352932754681
028050009140009370070000658010305407002870960000001000030200080096040203004107000,628753149145689372973412658819365427352874961467921835531296784796548213284137596
800260000006001400017039050728000045090705200000000030040853190009070600003600004,854267319936581472217439856728316945391745268465928731642853197589174623173692584
100024500090601003004035068002000004000089026007450980320000079010000030508700000,163824597895671243274935168982167354451389726637452981326518479719246835548793612
800045009000000060100308457000603004007002030503400120090207000081000602470000085,836745219754921863129368457218653794947812536563479128695287341381594672472136985
610950030200004006008023700007060085089000000000070329106005004040700500000080192,614957238273814956958623741327169485589342617461578329196235874842791563735486192
200000006039200410400097800000500003805730920140026700307840050006000201000069008,278413596639258417451697832792584163865731924143926785317842659986375241524169378
040071060602003010000450809100985400004000590700602030083000001009124000260030007,948271365652893714317456829136985472824317596795642138483769251579124683261538947
080007429000100007520008036300805760040009501800006004600030000001002903702954000,183567429964123857527498136319845762246379581875216394698731245451682973732954618
001060205008042100490503670000950420300000007070000890100308000000004050267190000,731869245658742139492513678816957423329486517574231896145378962983624751267195384
080907004006052008390100650005014300009000072700030560600805003007400016020000900,581967234476352198392148657265714389139586472748239561614895723957423816823671945
900408200802000401006130000070060320000097008204500096001009034750600080400025007,917458263832976451546132879179864325365297148284513796621789534753641982498325617
700050090000402305600380007001500476007004200028900503014003600890200000005806004,743651892189472365652389147931528476567134289428967513214793658896245731375816924
030092000509430800204708069063000024020009701700005000000580106840010030007600040,638192457579436812214758369963871524425369781781245693392584176846917235157623948
080059000007308090000071063040060570900000020731040000008006049300010007504002108,483659712617328495295471863842963571956187324731245986178536249329814657564792138
007900010090300640008060300540080006012050790800126000020834000130500200900000507,367945812291378645458261379543789126612453798879126453725834961136597284984612537
460070302008402900070500001000003090009850003010260705020001000105694000306700800,461978352538412976972536481257143698649857123813269745724381569185694237396725814
006048050700930001018500002002870490501000630000056007003400000064020380920003000,296148753745932861318567942632871495571294638489356127853419276164725389927683514
020009300045020000809004001008710000000053900004006250016008570050070480200300069,721869345345127896869534721598712634672453918134986257416298573953671482287345169
002900000570026003000058074900030061300005007240100080009004538600083000010007002,432971856578426193196358274985732461361845927247169385729614538654283719813597642
350900020090702301080001094860040070002000009504009600000068010700400003610007805,351984726496752381287631594869543172132876459574129638945368217728415963613297845
064100870000205010300070004000400932907006050030800001800002000540030607610080509,264193875798245316351678294186457932927316458435829761879562143542931687613784529
038461920007280150092000400900800200000020060024500030601050000000034070750100008,538461927467289153192375486976843215315927864824516739641758392289634571753192648
100863007030001020507400006000190300002608010060070905003000040615307090804502000,129863457436751829587429136748195362952638714361274985273986541615347298894512673
024805090080003050600040002700000309403090680000016000830670010502900000007580040,324865197981723456675149832716458329453297681298316574839674215542931768167582943
070020430104600500890050070007030080320800091000170005950060000003418000008200600,576921438134687529892354176617539284325846791489172365951763842263418957748295613
010069000023000950500700048200001380006005029097402000804037600000908715000200000,418569273723814956569723148245691387186375429397482561854137692632948715971256834
030060490100705083067004000000000005740096000308102040409008502002300100000050870,235861497194725683867934251926483715741596328358172946479618532582347169613259874
100300080005907400034000002308710500500600070010080049000830017200009603600521000,167342985825967431934158762398714526542693178716285349459836217281479653673521894
136008000040001009020436700000065370070200005401090080065047001900300800280000050,136978542748521639529436718892165374673284195451793286365847921914352867287619453
300000020650800009000150780903000400020570800008049307104000200092001006000307004,381794625657832149249156783973618452426573891518249367134965278792481536865327914
805002009090010067020340010500000803200850190001690050603007000040020300070100004,815762439394518267726349518569271843237854196481693752653487921148926375972135684
070800000100200046003049800307100080064703000000065900086050312001670050500020700,475816293198237546623549871357192684964783125812465937786954312231678459549321768
000020164008030002017000000090007085602500400100804039030400000040002971500601008,953728164468135792217946853394217685682593417175864239731489526846352971529671348
002000900060400038350010070005020080180690400704050100000800703800040610200735009,472583961961472538358916274695124387183697452724358196549861723837249615216735849
047020090105876004060300000200060005439000800000401030000008760070009583503010200,347125698195876324862394157218963475439752816756481932924538761671249583583617249
047009350600730912000060800020905031014070090080003260830100040079000000000002005,147829356658734912293561874726985431314276598985413267832157649579648123461392785
000000305020307060900020480100000000760950200000840901800004002003068590415700630,687419325524387169931625487149273856768951243352846971896534712273168594415792638
026090070500030000090810000908306500400000000060700314872500901000004038001920760,126495873584637192793812456918346527437251689265789314872563941659174238341928765
000800050001607000704010900010798500307005020050430006960200430005000017002004008,623849751591627384784513962216798543347165829859432176968271435435986217172354698
090700068506900030020500104000004079004605300312000000805170000000003007107280406,491732568586941732723568194658314279974625381312897645845176923269453817137289456
030000008200810059600370000008040100092000600010500093800603007040180020056904001,135492768274816359689375412368249175592731684417568293821653947943187526756924831
056700003012030900030284006090100640000053210700008000200005700080007009300401580,456719823812536974937284156593172648648953217721648395264895731185327469379461582
000106500000709020689003040051004002300871000700050060008200093030900008012030070,273146589145789326689523147851694732326871954794352861568217493437965218912438675
000695000403000002001000806002030098908706034000020710020450003804900507700001060,287695341463178952591342876172534698958716234346829715629457183814963527735281469
050070029091360080706402100403200500002600098800107004000030060108000000045900300,354871629291365487786492153473289516512643798869157234927534861138726945645918372
090407500000100608037250049700000002200068050450920030100030080006500291040000007,691487523524193678837256149769345812213768954458921736172639485386574291945812367
009021006082070140000600307870006030045900080000015200300052408010000090406709000,739421856682573149154698327871246935245937681963815274397152468518364792426789513
957306001801507063000400000074000000030218000006000925008100040000002506620903800,957326481841597263362481759274659138539218674186734925798165342413872596625943817
090603005400970063008020100004009500209060007060150080301200000500008402080047030,197683245425971863638425179814739526259864317763152984341296758576318492982547631
010050000500003940008697020975004600080006000040830710000000180002040395003021060,619452873527183946438697521975214638381976254246835719754369182162748395893521467
630008100900704200050010070200000403045036080000050009709200000360090008001083040,637528194918764235452319876296871453145936782873452619789245361364197528521683947
001560400700000000865400002000905748200670013040000009102800005003002080070059060,921568437734291856865437192316925748289674513547183629192846375653712984478359261
080973600100000300020050004000002060940001005000695071093200000012040780400368020,584973612169824357327156894751432968946781235238695471893217546612549783475368129
000810006016004000700502390580070040003005000004100903300000860402309507001046200,935817426216934785748562391589673142123495678674128953397251864462389517851746239
009003065051090072402080010906300007100000040870602503543000000600008950000047000,789123465351496872462785319926354187135879246874612593543961728617238954298547631
030090405105002706090860030900000008041200567000780002020600100508400000307001020,236197485185342796794865231972516348841239567653784912429678153518423679367951824
039072500040503700600080100500300000070000942002006010020401039801000060400897000,139672584248513796657984123514329678376158942982746315725461839891235467463897251
090520800000030052027060009000701020000080013640003508805000700300640001014009600,193524867486937152527168349938751426752486913641293578865312794379645281214879635
971040020003019800500000070208500600107300009040190200006008190000620035430000708,971845326623719854584263971298574613167382549345196287756438192819627435432951768
400900710057620008900804032009100067061750400000008005003010200100006009082403600,428935716357621948916874532539142867861759423274368195693517284145286379782493651
600053082000710050309004607092600305710098000004000000020160800005009020006087040,671953482248716953359824617892641375713598264564372198427165839185439726936287541
390061000205900306006070820007420080800003400051000000000802190014006050080090073,398261745275948316146375829637429581829513467451687932763852194914736258582194673
245700006300500078000360002080003064030008010012940050700400080090102400001006700,245781396369524178178369542587213964934658217612947853723495681896172435451836729
007000100082600300300000420400970002006035009050102800001040970500810063960007500,647293185182654397395781426413978652826435719759162834231546978574819263968327541
007351804006020907040009000014870003050006001300100050290000608008940000070003120,927351864536428917841769532614875293759236481382194756293517648168942375475683129
407100030005000926080030010900082100100090540538600700040709000201840009060050300,497126835315478926682935417974582163126397548538614792843769251251843679769251384
005870001042006005130000640710200900009000027056900000000050172008090004600043800,965874231842316795137529648714235986389461527256987413493658172578192364621743859
750004000000030697310900080001000002072309040800012976943600005000008001020500700,759864213284135697316927584491786352672359148835412976943671825567298431128543769
000300684050000000428900000100086049700010002082700030007602100803009050009051003,971325684356148927428967315135286749794513862682794531547632198813479256269851473
000980020034005008602100300810060500040007003750008200000050490007006000095342806,571983624934625718682174359813269547246517983759438261368751492427896135195342876
640007102090000008802090530009000000000060071003581060700004280080312006000900403,645837192397125648812496537169743825458269371273581964731654289984312756526978413
009006102405701000030280097000530940908000001740800026500002360307950000001400800,879346152425791683136285497612537948958624731743819526584172369367958214291463875
048000520001029608200300004710900060050700930302685000000000407009501000670003010,948167523531429678267358194714932865856714932392685741183296457429571386675843219
080607002704830005002015000007080930509700081310400000000059040000204708201000650,185647392794832165632915874427581936569723481318496527876159243953264718241378659
630900140000008529000000000005040063000000780802016400050003908406500070100729000,638952147741638529529174836915847263364295781872316495257463918496581372183729654
904030100008502304605007820000610040203000608170000590001058200060309000000400075,924836157718592364635147829859613742243975618176284593491758236567329481382461975
500000068006030240249000501970000120050900000000381007360807000007020000810549006,531294768786135249249768531978456123153972684624381957365817492497623815812549376
900000300067800004800602000350260070000014002004003009600005100270100890030780056,912457368567831924843692715359268471786914532124573689698325147275146893431789256
000300820001900070060208549690040257780005100004003000900100080200000306100076400,459367821821954673367218549693841257782695134514723968946132785275489316138576492
005000068060503290040200005700004000810090030036001400403000087900382100001907500,275419368168573294349268715792634851814795632536821479423156987957382146681947523
000802064061700580050014030209030000030008051500406700083000000000069008700001329,397852164461793582852614937279135846634978251518426793983247615125369478746581329
824060700000080002790450001001004900007190035060000010140208063006009800200003007,824361759615987342793452681531824976487196235962735418149278563376519824258643197
607510008901030200000209000000900800006320140245700090038600705510008306700000400,627514938951837264384269571173946852896325147245781693438692715519478326762153489
004002610708090000650000000079080020260005001081000470090507030300006290100940805,934752618718694352652138749479381526263475981581269473896527134345816297127943865
000609730002040060080000502050002197194800000600003000003170200079080405040000600,415629738732548961986731542358462197194857326627913854563174289279386415841295673
