000003008004500702092000150005370060200004001740018200028000009100406500600189003,571263948864591732392847156915372864286954371743618295428735619139426587657189423
000048007800090360007301200020070009308405001006000580035000020000260104640010890,253648917814792365967351248521876439398425671476139582135984726789263154642517893
260000000400100539030847100000308002900250608600000040010970003000000260740035901,261593874487126539539847126154368792973254618628719345816972453395481267742635981
090000005760029000021400000500006080680012070009008403100080057002054630300097201,493761825765829314821435796537946182684312579219578463146283957972154638358697241
020003640000700091010029030900010000004506900301400708803005004700000506065840020,529183647638754291417629835976318452284576913351492768893265174742931586165847329
600509000002001008000000475900000010007900083010650204570026300000040001248103006,684579132752431968139268475925384617467912583813657294571826349396745821248193756
104030085070900620500810040050001002340500907702000010005000000008370490060082003,194236785873954621526817349659741832341528967782693514435169278218375496967482153
820600704000010900010584030940050021036007050000006390400800000070231000200009860,825693714364712985719584236947358621136927458582146397493865172678231549251479863
060971040008200060003040507500002001400083700900160200029800600000016970070400085,265971843748235169193648527586792431412583796937164258329857614854316972671429385
650030070004070108001509000030001094960802503000060007500300900209008400080400062,658134279394276158721589346832751694967842513415963827546327981279618435183495762
006007400200083000089100207004300008537046090008021000000004053040950600601000009,316297485275483916489165237124379568537846192968521374892614753743958621651732849
240970008630005000701000000000190620050042097000080013300804052007320904080000060,245976138638415279791238546874193625153642897926587413319864752567321984482759361
340060070250039800106000000000085020720010650080004901509008003800072104010300005,348261579257439816196857342931685427724913658685724931579148263863572194412396785
000007461020084000073500900000090630016702005890000040069005370500036000104200080,958327461621984753473561928745198632316742895892653147269815374587436219134279586
305026100010903400000800025046200080908007030070009004007364001850010690000000700,385426179712953468469871325146235987928147536573689214297364851854712693631598742
057006080000000503012007904460100007200938000039704001000012605000450030840000009,957346182684291573312587964468125397271938456539764821793812645126459738845673219
603900000002001800710050003000090006030804501049630700500780640098400050000010302,683947215952361874714258963875192436236874591149635728521783649398426157467519382
005074060308260005000800421000080059010000047600197083900052000480300000073000900,125974368348261795796835421237486159819523647654197283961752834482319576573648912
010040360007002001902050700100000635300008200000901470040397850080000000709026040,815749362437682591962153784198274635374568219526931478241397856683415927759826143
030100607102060090000840030001000400805090076706205800000300050578900100000004062,439152687182763594657849231391678425825491376746235819264317958578926143913584762
002801003904020080060037050000000607280005100643100098000040000708600902019050300,572891463934526781861437259195384627287965134643172598326749815758613942419258376
007059008680203400010000000050002100200000036040680700000010023500090007379400650,437159268685273419912864375756932184298741536143685792864517923521396847379428651
006800570409000800508320000010040062203710400600000708090007004000080109300250000,126894573439675821578321946917548362283716495654932718895167234762483159341259687
030000000201900048870103000040006091000025037067800000780000009900540710000002506,639284175251967348874153962542376891198425637367819254785631429926548713413792586
000098102700005008030671400063400000040500209280000000900000381600902050070014006,456398172791245638832671495563429817147583269289167543924756381618932754375814926
401890300073040060050027000540608000006530091000070005800053070000200049290000108,421896357973145862658327914549618723786532491132479685814953276367281549295764138
920000018073180005005030600760940031000000250010007400830070000001503089600002040,926754318473186925185239674762945831394618257518327496839471562241563789657892143
010400007902001006705063109200800000090500401007039000004020005080017320006004070,618495237932781546745263189251846793893572461467139852374928615589617324126354978
060900014400050007073000600080000920506024003017300085050196300000003700001002098,865937214429651837173248659384715926596824173217369485758196342942583761631472598
006030478300004020502100009090280000600000204700013506004000000050807300170905060,916532478387694125542178639495286713631759284728413596864321957259867341173945862
105080060090007000087310054700950083504002000010460200300704009960000000000008532,145289367693547821287316954726951483534872196819463275358724619962135748471698532
060302705400096800300070010017403009602000000890007030000800150200004006901020047,168342795475196823329578614517483269632951478894267531746839152253714986981625347
001004600890200100000038057403009001000050720120006400006805009004900270730600018,371594682895267134642138957453729861968451723127386495216875349584913276739642518
050020034040083600006000097605030010023051000700800060500000900401069085080014020,958726134147983652236145897695437218823651479714892563562378941471269385389514726
700080040053907000006510700800000074107356900902000013309802000508049020000000001,791683245453927168286514739835291674147356982962478513319862457578149326624735891
910000060003800200006945003304200810092001700750604000105007008080020000400000359,918732564543816297276945183364279815892351746751684932135497628689523471427168359
984030000063080051705402000600007003000390020050120004091008600000000740030645902,984531267263789451715462389642857193178394526359126874491278635526913748837645912
890006100013070500007002003076900010005031002000480000000003809002018376600700050,894356127213879564567142983376925418485631792129487635751263849942518376638794251
096002000140000000020040938031080205500000064000760000908500001400076080307120490,896352147143897652725641938631489275579213864284765319968534721412976583357128496
680459000004000000001867030500340820008700100420010050000503906309100007000090082,683459271754231698291867435517346829938725164426918753842573916369182547175694382
380010040405000002601400095008000900050800074000602003703026050004053600000080107,389215746475369812621478395238547961956831274147692583793126458814753629562984137
010065290409070000070902008306810005000050041008004600000600100060280504782000003,813465297429178356675932418346819725297356841158724639534697182961283574782541963
050096380090700050100004700001040637007800000030000200400060020500103800270009016,754296381396718452182354769821945637647832195935671248418567923569123874273489516
008900460576000010104000207800364000012050000000020708300075800000003026405280903,238917465576842319194536287857364192912758634643129758329675841781493526465281973
070005000080740203100003080010030968000407000002609140047090010800200006236050009,473825691689741253125963784714532968968417325352689147547396812891274536236158479
106700000900100702023008500001080600208010904090260030037906840000300050002004007,156792483984135762723648519371489625268513974495267138537926841849371256612854397
310000090905800200000064000600007000002405067008300001209100056706020903530000840,314752698965831274827964135653217489192485367478396521289143756746528913531679842
507900601000020093042003008009060504000700080683001000020100047018045300000370200,537984621861527493942613758179862534254739186683451972325196847718245369496378215
970048060000320100000076000009000400003002015058600309400060030021097608805001070,972148563586329147134576892219753486643982715758614329497865231321497658865231974
400020000080100006326008900050700800902005060800003024005304070010570009740001080,471629358589137246326458917154762893932845761867913524695384172218576439743291685
083000019000100780700204603600702401000650002970000008040075300200013095035006000,483567219526139784791284653658792431314658972972341568149875326267413895835926147
300100040080050200126009000060900020051070008200083009008002017504030090790401035,375128946489356271126749583863915724951274368247683159638592417514837692792461835
080047000001009007290630000605010008070003040040200100003170490500008031004090605,386547219451829367297631854635714928172983546948256173863175492529468731714392685
600030500070042001010000090000520080086300204500009037003801006002056008001070040,649138572375942861218765493137524689986317254524689137453891726792456318861273945
400009862230000709050060010640081925000600000008590004300040000980000206000002138,471359862236418759859267413643781925795624381128593674312846597987135246564972138
080700020104080000006004003009500206000390070560001080230040010098052400071009600,983765124124983765756214893319578246842396571567421389235647918698152437471839652
040020085703004001001080940600103009800000700000050023000960130509800600002410500,946721385783594261251386947624173859835249716197658423478965132519832674362417598
803090004060007825070000060000040001508302006092800000601003700000054003050210900,823695174964137825175428369736549281518372496492861537641983752289754613357216948
800009060007012030100054790060003000405090100000006923900300054541008000082070600,854739261697812435123654798269183547435297186718546923976321854541968372382475619
007300601006040002910000400402509000800230070050170080180025040090800305000060900,247398651536741892918652437472589163861234579359176284183925746694817325725463918
030004001400200060020518704500007920610040000003009018008000090042705003700006000,837964251451273869926518734584137926619842375273659418368421597142795683795386142
000000300100006704080570010003700091006040052201089007300850009000060240720100008,697418325135296784482573916843725691976341852251689437364852179518967243729134568
000030008900005671058702000310090050040061002027480000080026900005000340103000087,471639528932845671658712493316297854849561732527483169784326915295178346163954287
040706310200000500038050024020045071160000000573800900000210080000607030390004207,945726318217438596638159724829345671164972853573861942756213489482697135391584267
308010000400080670052300080000000500760290430809604120000003005517800002040170009,378916254491582673652347981124738596765291438839654127986423715517869342243175869
124000500503900001060080300090007000406803072030100006019608007000200643000075900,124736589583924761967581324291467835456893172738152496319648257875219643642375918
000057006075940000200063040007000080050008901100300205028700609509004003006120450,843257196675941832291863547967512384352478961184396275428735619519684723736129458
200001309037000008009540720000029000650018070041060000004030002720000501800600090,265871349437296158189543726378429615652318974941765283594137862726984531813652497
540780100090305200002060070008900001100034096460000030026007540700028900081000000,543782169697315284812469375238976451175234896469851732326197548754628913981543627
300070605701690000020410903000000367030008004645200000000901080580004100072000500,394872615751693428826415973218549367937168254645237891463951782589724136172386549
930000206024000870007051030708409010016000300390007000805103720200900000000840500,931784256524396871687251934758439612416528397392617485845163729263975148179842563
008000005003127000940003007000700800052069000000008046300600980706090102420050073,278946315563127498941583267634715829852469731197238546315672984786394152429851673
200080060006000005080730900800001049059000070304570106510000324700052000090800001,231985467976214835485736912867321549159468273324579186518697324743152698692843751
201800730000174000006000000500081400920400080100067503709000102000350840408000096,241896735395174268876523914563281479927435681184967523739648152612359847458712396
100600070057230008680009000000010042000020700002345091070003080904850600010097030,129684573457231968683579124598716342341928756762345891275163489934852617816497235
690302107000005000040607098009400001000008006073100420100080509020006000584070300,698342157712895643345617298269453781451728936873169425136284579927536814584971362
501003060400060032020180007160007080000500000802034570300900000040070805907006043,571423968489765132623189457165297384734518629892634571358942716246371895917856243
020600015730200600000300000100030460004010700058000021910706080480050200065940030,829674315731285649546391872172539468694812753358467921913726584487153296265948137
506010020000390004000508790230607400000900070069040800003002501642005000008000063,596714328827396154314528796235687419481953672769241835973862541642135987158479263
809010006060504300403000208001920030200075010070000560090650104000007900047308000,859213746762584391413769258581926437236475819974831562398652174625147983147398625
000040920027600840100700005010365000090400700850002016360090000482000070509800600,635148927927653841148729365714365298296481753853972416361297584482536179579814632
701090000350602010496001302002900800189004007000010035000700200007300006800000054,721493568358672419496851372532967841189534627674218935915746283247385196863129754
046079020005301000900000408160082090034010050500036000080000600700200049010750203,346879521825341967971625438167582394234917856598436712482193675753268149619754283
300201000090050807076080023009027000410800065680400709800009100000000376000132040,358271694294356817176984523539627481417893265682415739843769152921548376765132948
090382040001500000800040673600003052040001000570900400004000809250016700080290001,796382145431567298825149673618473952942651387573928416164735829259816734387294561
000067000570302009200140800030000960008530170729000050014603000080050200600008014,843967521571382649296145837135274968468539172729816453914623785387451296652798314
017000905490800002500600730900200000075410200061009400000940007300056001048030060,617324985493875612582691734934267158875413296261589473156948327329756841748132569
001560000000042806003097040064700910000080000750300204089006457270000093005001002,841563729597142836623897541364725918912684375758319264189236457276458193435971682
030850700000001000806030010750029801089060050002000094204300600070086002100047005,931854726527691483846732519753429861489163257612578394294315678375986142168247935
700009080300500100006003507023050906800060310090010042409286700210400030000700004,751629483342578169986143527123854976874962315695317842439286751217495638568731294
300000954000300001500060800080010540900007010036509207075406003090081600020730000,368172954249358761517964832782613549954827316136549287875496123493281675621735498
021060000500000018800047300905600403740300060030080502007002100408905000000010780,321568947574293618869147325985621473742359861136784592697832154418975236253416789
600009002002060500530000780000004008001072065050103940068390000000010090304820070,687539412412768539539241786973654128841972365256183947168397254725416893394825671
507200600030010200046000090003098060092430075400000000021307048008004130060005900,517249683839716254246853791173598462692431875485672319921367548758924136364185927
090000578270109036080054900000300700439007020500020001320500040006830000701000600,194263578275189436683754912812395764439617825567428391328576149946831257751942683
002160900807003400064000205056080090010057003000092080400200107300040050009805002,532164978897523416164978235256381794918457623743692581485239167321746859679815342
000020009436100800000604703004000050817005600205008104680037500020900000700051090,178523469436179825952684713364712958817495632295368174689237541521946387743851296
000060000900800500060007104003102009804073000020005870041590600602030900050020710,415269387937814526268357194573182469894673251126945873741598632682731945359426718
107060300300000195082305700690180030008400000710020009803040007500006408000290060,157964382346872195982315746695187234238459671714623859863541927529736418471298563
900000070000910062058067000670320049405800000000040201003000607010509083704030010,962453178347918562158267394671325849425891736839746251593184627216579483784632915
