003002007086094300500000091200006538045018200067000040000700850400020700102300064,913562487786194325524837691291476538345918276867253149639741852458629713172385964
000080540103705029080030001002009000458001006070000135560240070920006004030500600,796182543143765829285934761312659487458371296679428135561243978927816354834597612
090567100000480092071000008824010003000300601060709040300050080709002450042000300,298567134635481792471293568824615973957348621163729845316954287789132456542876319
070900025094850100100007600000005308300040592002010040020064050046002030081700000,678931425294856173135427689469275318317648592852319746923164857746582931581793264
082600000500710032703900850007800040040030018050002009801490300900001070260005900,482653197596718432713924856127869543649537218358142769871496325935281674264375981
071064000000802000508010700406090050002630190000000037804300061600209500950000043,271564389369872415548913726436791852782635194195428637824357961613249578957186243
107350240890040000004106030900000010050028400006000572210000300708603000000410009,167359248893247651524186937972564813351728496486931572219875364748693125635412789
009402107000006005052008930030009460014200009700000320100065094000107800587030000,369452187871396245452718936238579461614283579795641328123865794946127853587934612
700900080008000600000160340046702000900340002057000460070083010025001900004605208,763924185418537629592168347346752891981346752257819463679283514825471936134695278
720046090900800005050002100000709300079400001600030008008001034506080700400953086,721546893963817425854392167185769342379428651642135978298671534536284719417953286
050020940800100002000907305003800700906002001100400000490760083005001067010040020,751623948839154672264987315523816794946572831178439256492765183385291467617348529
031028005000740900702006080900030160070890000008162040540073006600410020000005300,431928675865741932792356481924537168176894253358162749549273816683419527217685394
005603140102089007030070000061800074400000850900007301080460000027051009300000520,795623148142589637836174295261835974473916852958247361589462713627351489314798526
000054030060730240900008007480060091005070000320180700100000000790003020004200615,271954836568731249943628157487362591615479382329185764152846973796513428834297615
571030000000020605902004000037008500000006004204300700400750260000801309380960010,571639842843127695962584173637498521158276934294315786419753268726841359385962417
010540008020003070008007560200609180300780400900030020070160009653200000004008050,719546238526813974438927561247659183361782495985431726872165349653294817194378652
000500100050080240060132000309006007046000002010895000004070053820043070001600009,972564138153789246468132795389426517546317982217895364694271853825943671731658429
870100920090340500010907806506000001287000050000705000100000048304069070000200603,873156924692348517415927836536492781287631459941785362169573248324869175758214693
100050087090001030600930004000004300700015008509000602054007209007062040802000001,123456987498721536675938124281694375736215498549873612354187269917562843862349751
708050041600003907090200600004060708001900000200018305073004026509000804020031000,738659241642183957195247683954362718381975462267418395873594126519726834426831579
704038020002005004500200781070100860963050070000090000008079006000460030290000050,714938625682715394539246781475123869963854172821697543348579216157462938296381457
000200040705090030900406501006700003850000960200100000020007016084003070510082000,168235749745891632932476581496758123851324967273169458329547816684913275517682394
014300002080700609006000710003207001150080270400690000500106030000004008927500000,714369852385712649296845713863257491159483276472691385548126937631974528927538164
000000410950301000107060003309006800070200050041800206800940100002008075093500004,236785419954321768187469523329156847678294351541873296865947132412638975793512684
002030960900560028100400000709080005060002000040370100631008070520090084000703000,452837961973561428186429753719684235365912847248375196631248579527196384894753612
000060708600400500003105042800932000031700094560000000920004301107090050040610007,452369718618427539793185642874932165231756894569841273926574381187293456345618927
580200009004078000079600430300001507000000016007406800006083100490000005103700602,581234769634978251279615438362891547845327916917456823726583194498162375153749682
003094760080501400000070800039006085040200036008000100006005004302060079054713000,523894761687531492491672853739146285145287936268359147876925314312468579954713628
060100842940500100007030000000008530000700904002360008083972001074005000691080050,365197842948526173127834695719248536836751924452369718583972461274615389691483257
020005008600000104710960020000083200000052016800700043008000037203094650040301900,329145768685237194714968325451683279937452816862719543198526437273894651546371982
509040006037506009020007080410070003800302000000050100900000320260090400045008097,589241736137586249624937581412679853856312974793854162971465328268793415345128697
080091040300000057050200800210700600007608104004030009603805000092004001100020368,786591243321486957459273816218749635937658124564132789673815492892364571145927368
038205047400001060000070023306000004054900602200008035005102000070804090190700000,938265147427381569561479823386527914754913682219648735845192376673854291192736458
013000042000901065080002300367500100000800000020143050090006430008050020042090076,913685742274931865586472319367529184451867293829143657795216438638754921142398576
040080392090107068005020000200309801013850000506000400120600007000700600607002105,741586392392147568865923714274369851913854276586271439128635947459718623637492185
000000010609850000043960200100200045502007300070130860200006904408000003091780000,825473619619852437743961258136298745582647391974135862257316984468529173391784526
090010000054890120800407003005074009260350010009000006700005460943006805010000300,397512648654893127821467953135674289268359714479281536782935461943126875516748392
002005080007060410300007500006398070804570603900000001000130900600000002001840735,462915387587263419319487526156398274824571693973624851745132968638759142291846735
402500000385020000160903400000006840020000007530470091970040003000108056006207010,492561378385724169167983425719356842624819537538472691971645283243198756856237914
100080704009060030075200100530700940920010600006004028841000009003050007000398000,162583794489167235375249186538726941924815673716934528841672359293451867657398412
002900100060308050903265400025400009607100800080006020000053200579000060000740001,852974136764318952913265478325487619697132845481596723148653297579821364236749581
008670300700805901069000000300000245054030800801700009400060020107082006000900500,218679354743825961569413782376198245954236817821754639495367128137582496682941573
840031700109002060020490005000007000401080602203900080087510030060800054500063090,845631729139752468726498315658127943491385672273946581987514236362879154514263897
003060270000509000900240100084916500170820030002070600009350080047000005800000461,453168279721539846968247153384916527176825934592473618619354782247681395835792461
090000040003206007507083001071045009000100028400602000706000050350900800008014060,892751346143296587567483291271845639635179428489632175716328954354967812928514763
090030060130060570008425000400000000706100290520080003000058710000004059901070408,295731864134869572678425931413592687786143295529687143342958716867214359951376428
300690000001002500095801200450010000086040170703200908020507003100300407000064020,342695781871432596695871234459718362286943175713256948924587613168329457537164829
704360080200004100080020007410900306050046000006005900068000520109800070540002003,794361285235784169681529437412978356953246718876135942368497521129853674547612893
000406500160200009230900780907820004600000003080017200000080037398705020010004050,879436512165278349234951786957823164621549873483617295546182937398765421712394658
900643200005009010040180970000070800102904000304208005090007000020400031701500480,917643258835729614246185973659371842182954367374268195493817526528496731761532489
007080060050209304800400021029600070000005006130090200370010050068030400400807900,247183569651279384893456721529641873784325196136798245372914658968532417415867932
040060007506009030120800900200501306000006490004007008700004010030700052812090040,943162587586479231127853964298541376371286495654937128765324819439718652812695743
047900085205060031090020000800200004009073008050810020900002650700640009008007300,647931285285764931391528476873256194129473568456819723914382657732645819568197342
503009070670010030402060801900037200080000000000680013807002004000400526050190007,513849672678215439492763851941537268386921745725684913867352194139478526254196387
506000014200003507000090060007830090080400305020105400190706002300950106800020050,536287914249613587718594263457832691681479325923165478195746832372958146864321759
100396005002001060000500104720089030080260740009000000306070000008030921095400003,147396285952841367863527194724189536581263749639754812316972458478635921295418673
000009000025007003306100048900038017000500800702601000408050096203000500060400170,847369251125847963396125748954238617631574829782691435418752396273916584569483172
010409305800300000900057810430010500000000720207908001608230004000804009570006000,712489365865321947943657812436712598189543726257968431698235174321874659574196283
029310064060005083075000000100050300607009200000874091030940050508000900012006000,829317564461295783375468129194652378687139245253874691736941852548723916912586437
300750102050800070000034560006007009029000300100509040207900004800600250400003081,384756192651892473972134568546317829729468315138529746217985634893641257465273981
530900700060204010018006009250090301071005400300080000080020046009000005000670238,532918764967254813418736529256497381871365492394182657783521946629843175145679238
007605000000020759049300080000080602900403570461070000000201900306000024050000837,287695413613824759549317286735189642928463571461572398874231965396758124152946837
360004800000029500080000702000308200200065107004700093039000060028103005507900001,362574819471829536985631742716398254293465187854712693139257468628143975547986321
010007680920050700003000005068030092000008547104270000040301800509060001630400009,415927683926853714873146925768534192392618547154279368247391856589762431631485279
000149002700050810950008630035060000200000700806091400064302000120074300000500008,683149572742653819951728634435867921219435786876291453564382197128974365397516248
014080500230060007000413600580900700900028010000005960809072400072100090450006000,614287539238569147795413682586931724947628315123745968869372451372154896451896273
507030006000017200081054090600305000002001070043090008008000547020840900910006030,597238416436917285281654793679385124852461379143792658368129547725843961914576832
610000070000027500300410006100300000207085004008000920003240098060850700004076130,612538479489627513375419286146392857297185364538764921753241698961853742824976135
908320001000000360460500800600007904239600070000800025007150040040090503102000009,978326451521984367463571892685217934239645178714839625397158246846792513152463789
060078204050230006078600091190004800030780060000302000040956020607010049005000030,369178254451239786278645391192564873534781962786392415843956127627813549915427638
600035820900007305002480000507103006140008000000040097030000510000020040008609700,671935824984217365352486971527193486149768253863542197236874519795321648418659732
320605001000040905097008040006700050205003780080014020950000062048029000100000300,324695871861247935597138246436782159215963784789514623953871462648329517172456398
008150036596000008700000040240090017000700083060413009000900020070006000910348000,428157936596234178731689542243895617159762483867413259685971324374526891912348765
008093760350001020700080001100000002020000490495076030003800004600030907940057080,218493765354761829769582341136948572827315496495276138573829614682134957941657283
109680704200300000065007020810040000350000908000200160000079380000500001047010590,139682754278354619465197823816945237352761948794238165521479386983526471647813592
000005017047009300620403800000028040009510002050000000800600030075092108003007209,938265417547189326621473895716928543389514672254736981892651734475392168163847259
080506007300000000170809602800900100060003750030021804020047095053600008904300000,482516937396274581175839642847965123261483759539721864628147395753692418914358276
076000004300016508001209300408090006000805001030070200850002070700400602090130040,276583914349716528581249367428391756967825431135674289854962173713458692692137845
050700390406050200030010056070800900300004080015069070740090000290100063001208000,152786394486953217937412856674821935329574681815369472743695128298147563561238749
070260503003009008920050470805090317700140205060000040000700006100320900004015000,478261593513479628926853471845692317739148265261537849392784156157326984684915732
430002005060009803002050700208040000710000250005000109006070010009803470800120906,431782695567419823982356741298541367713698254645237189326974518159863472874125936
007300089010400762005820010709050400080006007250000000000614020930078005100009006,427361589813495762695827314769152438381946257254783691578614923936278145142539876
000080500500001704607090020906000001003060845041302090020803100084600973000007000,432786519598231764617594328956478231273169845841352697729843156184625973365917482
800530400003409620007008090206015300509200070010060800035704061020000904400300000,892536417153479628647128593276815349589243176314967852935784261728651934461392785
000001470600057012009004500006370000740090200300085096205040180010603000493000000,532861479684957312179234568956372841748196235321485796265749183817623954493518627
509002010001806007080035004095203000000040896047010050200000060003600000160700045,539472618421896537786135924895263471312547896647918253254381769973654182168729345
060010000000803276900405300210070000036020049040000800024300008005007930007081005,863712594451893276972465381218974653736528149549136827624359718185647932397281465
200700408010090000070015020800309056023051090060807200004500080000004967030002100,259763418416298573378415629841329756723651894965847231194576382582134967637982145
034070500290004000008005630802700063001800907000006058106407209907081040000500000,634178592295364871718925634842759163561843927379216458156437289927681345483592716
004390060306080007290000104060010200120009058000507300057400920080106073000002080,574391862316284597298765134765813249123649758849527316657438921982156473431972685
001092000003060150500073806204005030080009500105684070020000063709200400000840001,861592347973468152542173896294715638687329514135684279428951763719236485356847921
024000098007069000030010600100002350000070000089034700008620005500380426700005013,624753198817469532935218647176892354453176289289534761348621975591387426762945813
807059160010470050020010409001000006209000800065803007002906043030007920000001005,847359162916472358523618479381724596279165834465893217152986743638547921794231685
200040010805090037000308040010007806098002053703005104300570000402060900060104000,239746518845291637176358249514937826698412753723685194381579462452863971967124385
500200704407630001300000980000080005002060470700100692850370000010004500206910003,568291734497638251321457986649782315132569478785143692854376129913824567276915843
900050001304102060700040230000008900160070020002063070008420017010700643500600000,926357481384192765751846239473218956165974328892563174638429517219785643547631892
007320009540100060200954001000010020008005694790800050380000070000270400406000008,817326549549187362263954781635419827128735694794862153382641975951278436476593218
007130640091006030308200700000702080040060502009800004000000010605480300702305090,527138649491576238368294751156742983843961572279853164934627815615489327782315496
000006103007053204094002000020370006030180700089000050561020007000040080802000910,258496173617853294394712568125379846436185729789264351561928437973541682842637915
030010000020000913089046027302670049010000005604908000001002706860000350000007180,735219468426785913189346527352671849918423675674958231541832796867194352293567184
