300700090097013205058000006040009020200370100900050800600108000003000604010420300,362785491497613285158942736741869523285374169936251847674138952823597614519426378
000460200001507090360010000852000670000023010000800004628000000009204705400091380,597468231281537496364912857852149673946723518713856924628375149139284765475691382
003420718000000040050007009027060050008700601190030002204850007800301005600009400,963425718782913546451687329327168954548792631196534872234856197879341265615279483
200604005807120340006000910080579000400003200010000083000006001004007020023900758,231694875897125346546738912382579164465813297719462583978256431154387629623941758
024801500500000091006300000000000007003610400050789302082403079000007680309000205,924871536537246891816395724268534917793612458451789362682453179145927683379168245
032150000040023009080000400100209807000400260607000040005900186009630050200071000,932154678746823519581796423154269837893417265627385941375942186419638752268571394
007028100000605030002000608800400009700019020460007803310004260940700080006300504,637928145184675932592143678821436759753819426469257813318594267945762381276381594
020017986008605200300000075030000000600790040574000320000400001080526004907100000,425317986798645213361982475839254167612793548574861329256479831183526794947138652
600000080800005912020900300007006005500710030038204009000090527040302060710008400,659123784873645912421987356297836145564719238138254679386491527945372861712568493
006102007140900620078000090000209430900078061850410000402503089000000300507000040,396142857145987623278635194761259438924378561853416972412563789689724315537891246
058200007430706950000040600020108000806050020700600390104305000900010800070092410,658239147431786952297541683329178564846953721715624398184365279962417835573892416
506021003780400900000000006000630250050809060407002300204010000090307810870090405,546921783783465921129783546918634257352879164467152398234518679695347812871296435
180000900002039000070060541650021008008005074009700000204900007060307100000200063,186574932542139786973862541657421398318695274429783615234916857865347129791258463
132760050008004000005090007000840010400203608090000500000010900261005070700480360,132768459978524136645391287526849713417253698893176542384617925261935874759482361
600008029000010600007002034098431500360970000000006010700050000405120807009003402,613548729942317685857692134298431576361975248574286913726854391435129867189763452
060005918200630400001000030089070160003050000170490800530009070802000004900210006,364725918298631457751984632489372165623158749175496823536849271812567394947213586
340016002000704051008300090010002034050091078027000000000030600590400820602050047,345916782269784351178325496916872534453691278827543169784239615591467823632158947
009200100005086200370009480801005070723060009000000300400000053906108020000740901,689274135145386297372519486891435672723861549564927318417692853936158724258743961
500003000010500007072806040360000050100004908008090621890700002006400100000205380,584973216613542897972816543369128754127654938458397621895731462236489175741265389
800905247000061950003200060605000800042009001000072000004028500079050300081004006,816935247427861953953247168695413872742589631138672495364728519279156384581394726
300680910005097460000400008097050230108006050000721000080042300206100000409300007,374685912815297463962413578697854231128936754543721689781542396236179845459368127
640000005703490000018026030000501070102000008000870490050903600080010302406007100,649138725723495816518726934894561273172349568365872491251983647987614352436257189
900310704000070568002000000040500300700040006085009012050230097030090100601000080,968315724413972568572684931146528379729143856385769412854231697237896145691457283
000047600012000400069200051800315007094000005000080302200960870048020003930004000,583147629712596438469238751826315947394672185175489362251963874648721593937854216
275001090400032000000900508109040000080005064306000700013007900000800205007469300,275681493498532617631974528159746832782395164346128759813257946964813275527469381
000070106168200030020030000010590700083126900004000600040702050905040001200010004,359478126168259437427631598612594783783126945594387612841762359975843261236915874
000063001600480950387500000040050079900100008100740520003970042500002300002600010,459263781621487953387591264246358179975126438138749526813975642564812397792634815
010005007207000508809040010080090301003500069060000250100080090700601420620003000,316825947247169538859347612582496371473512869961738254135284796798651423624973185
305000007000680920290701630004070500080205060070109040900004301030006092010000800,365492187741683925298751634624378519189245763573169248956824371837516492412937856
034502070000030209000810360000700018240300600907006500003480020002005100170060950,634592871815637249729814365356729418241358697987146532593481726462975183178263954
070003069050980007014700005305406071090275600000000090200840000006020010701050043,872513469653984127914762385325496871198275634467138592239841756546327918781659243
039051008800290001460000500002103980783005100000074000000009845010000706054600002,239451678875296431461738529542163987783925164196874253627319845318542796954687312
000000640007590000091340080009200000360100504580603092020015406030000010400802000,853721649647598321291346785179254863362189574584673192728915436935467218416832957
710065000000003080325070090200300004059010600060000271600800403107200000004090820,718965342946123785325478196271386954459712638863549271692857413187234569534691827
000908040006007300450360900090000005042030006381020000700012080800500190025000004,273958641916247358458361927697184235542739816381625479769412583834576192125893764
006004120702300800405700000060008001009500068270000093004820300000039005901460700,386954127792316854415782936563298471149573268278641593654827319827139645931465782
910000784006050009030000520007941000052300000000000618009004001023167000870500403,915623784246758139738419526687941352152386947394275618569834271423167895871592463
000732000510000009004000600370190806000800000200060154842070003650000981009650700,986732415513486279724519638375194826461825397298367154842971563657243981139658742
060300010309800260205070890800100300021000006000045000153900004000010570007024009,768392415349851267215476893874169352521738946936245781153987624492613578687524139
000700503910030820008000410000074000180602000027100960002060004500208300734015000,246781593915436827378529416659874231183692745427153968892367154561248379734915682
080000017903000450000956200100530000009007562400008000610043090075860004200000008,586324917923781456741956283167532849839417562452698371618243795375869124294175638
030600801681900002020040530000590400006003100000700005047100608200060050905420007,534672891681935742729841536172596483456283179893714265347159628218367954965428317
000903520005021007038040060020307400094560000700000018009000300070450901560800002,617983524945621837238745169826317495194568273753294618489172356372456981561839742
748002000509043601000000020600307900200901758000004010005108000900000830306090074,748612593529743681163859427651387942234961758897524316475138269912476835386295174
003050009019400270780003600000000100490600038630002005000004012008791000045080090,263157489519468273784923651857349126492615738631872945976534812328791564145286397
800053000020960000004000908070380026300000009080200010050120600739540200016000074,897453162123968745564712938971385426342671859685294317458127693739546281216839574
005198700020003000049020030014000086800560070300002900900005010067001400000306802,635198724728453169149627538514739286892564371376812945983245617267981453451376892
004700000090012040005080106700503009009100028020040060308000000047006290060300801,614735982893612745275489136786523419439167528521948367358291674147856293962374851
600010000070340508400908360706081090008005100020000037300050201590007080002400700,683512974279346518451978362736281495948735126125694837367859241594127683812463759
820000009070253400103800600300000206096040050014005307000020983080507000400960500,825416739679253418143879625358791246796342851214685397567124983982537164431968572
000040910100000007090023850002009030000470506450012700065890100030057008740000600,583746912124985367697123854872569431319478526456312789265894173931657248748231695
609020300007800010040005680700593800020001093000007045060012000500400270900000061,689124357257836914143975682714593826825641793396287145468712539531469278972358461
950680000310045080060090207040070009003400010500100600006002478800003500700000091,952687143317245986468391257241576839683429715579138624136952478894713562725864391
620030008090540060500800294289007001063000000105000602008071000000405980070200030,624739518891542763537816294289657341763124859145983672958371426312465987476298135
103007000090040000024006058068900400000320079000065012640012500501804200300050100,153287964896543721724196358268971435415328679937465812649712583571834296382659147
050800790907001260001000004430090000080502000702638000096470005004206013300000400,253864791947351268861729354435197682689542137712638549196473825574286913328915476
070605002030028009500004016008000950091003000406210037200951000800300000900860203,179635482634128579582794316328476951791583624456219837243951768867342195915867243
080006300104905002200070004000380120300600059090507800850203060069004000000008910,985426371174935682236871594547389126318642759692517843851293467769154238423768915
000000004603200900700054613020560308580079040001400009000900000068030200030180057,815693724643217985792854613924561378586379142371428569157942836468735291239186457
320609000000780005068500001010070020079040038504900006090053100402800070180000904,325619847941782365768534291816375429279146538534928716697453182452891673183267954
090510270500000100003264800000802000040050002810009306000900731081300009600047000,496518273528793164173264895965832417347651982812479356254986731781325649639147528
904082300607000002002704010408100006000025040100600029060038090070000004305970001,914582367687319452532764918428193576796825143153647829261438795879251634345976281
870046090020000000004039508500400000986500043003028106001007030600000970290080010,875246391329815467164739528512463789986571243743928156451697832638152974297384615
400000301009010000803007952070000640900084700002305080087049000065021008000000500,426958371759213864813467952578192643931684725642375189187549236365721498294836517
070980500042000060908650004001000259609230000800000700100400007003098100400105820,376984512542371968918652374731846259659237481824519736185423697263798145497165823
020010000083200790100803050008145000060000340590076002010430009007000080306090107,425719638683254791179863254238145976761982345594376812812437569957621483346598127
020000500500800079037009042004702180002040600009051023015080036700900000000134000,928473561541826379637519842364792185152348697879651423415287936783965214296134758
025830097710000004080020360070090003000406279400013000009265000038000040000000051,625834197713659824984127365876592413351486279492713586149265738538971642267348951
600000705053010004019057260080005409200040000005036078042000030000309800100760090,624893715753612984819457263386175429271948356495236178942581637567329841138764592
130820500079140008004900000042701000700090061000580300000200679805000040600003050,136827594579146238284935716342761985758392461961584327413258679825679143697413852
380450600000907008200000030600320904020105000700090001063001050041069087800540000,387452619156937248294816735615328974429175863738694521963781452541269387872543196
078000052201760000030980010020078000900010008056004300405000630060100587700300100,678431952291765843534982716123678495947513268856294371415827639362149587789356124
020010007006025049301009500500008623400000000090073005009106304800000050000842096,925614837786325149341789562517498623432561978698273415279156384864937251153842796
002400390607010085000700000800300400079002003201870600080506020003009040106200900,512468397647913285398725164865391472479652813231874659984536721723189546156247938
400000908300971200001200600107005040609004370005080000000050006706810090020307000,472536918368971254591248637137695842689124375245783169813459726756812493924367581
030090800080403270400000069003600451690250000007800020700300600009706008002010540,236597814981463275475182369823679451694251783157834926718345692549726138362918547
007904000010000304940210860190500000006430072703890500050762009000008020800000106,637984215218675394945213867194527638586431972723896541351762489469158723872349156
002009040000001375060840000950032800200960700700000004503010000008473010010008206,172359648849621375365847192954732861281964753736185924593216487628473519417598236
000000020208001960600930007900060200071090040500100008010007650860500403003620809,197856324238471965645932187984765231371298546526143798419387652862519473753624819
091050020300021006000040907006284090700100000400000253002007860053098000180000409,891756324374921586265843917536284791729135648418679253942317865653498172187562439
001000730806500420070309000700834910200000000040602075509040200000018040310060800,951426738836571429472389156765834912293157684148692375589743261627918543314265897
070002805026000009000405010060140503009200080015700046900038070007010002340000090,174392865526871439893465217768149523439256781215783946952638174687914352341527698
040006029087503001000000500006040000008320400052901008300410097001000250920008036,543186729287593641619274583736845912198327465452961378365412897871639254924758136
000004107100790060035000420063002900098600010001580006940201300000078040800053700,689324157124795863735816429563142978298637514471589236947261385352978641816453792
000000419930050070010062500005090803200401000069023040007830100080700260406005000,652378419938154672714962538145697823273481956869523741527836194381749265496215387
207801509000060000800957004601008000530600080004300027006094058090000302010020700,247831569159462873863957214671248935532679481984315627326794158795186342418523796
130085000600000020050106040006031280500004306870000900209560000048003000000020197,134285769687349521952176843496731285521894376873652914219567438748913652365428197
980704510002003800601020700050900200200800473706010080495300000000009004107605000,983764512572193846641528739854937261219856473736412985495381627368279154127645398
708900064050700000090004301105240800002603700004098602000020089630000050020170000,718932564453761928296854371165247893982613745374598612547326189631489257829175436
002005000000070136706840002050006304408051000000020000035200060607009801020104070,392615748584972136716843952251796384468351297973428615135287469647539821829164573
000369001020040050103200007200600009000050840649031000001708002008500104760000090,574369281826147953193285467285674319317952846649831725451798632938526174762413598
960004371000800400520070009002108700005090120080405000100000067000940803003602090,968254371317869452524371689692138745435796128781425936149583267256947813873612594
608300090000002004039040805500861000403070108000204070007020069100006300820090700,648315297715982634239647815572861943463579128981234576357128469194756382826493751
906000230040800001701000605004031500005400087300007060500200400109700003068059010,956174238243865971781923645874631529615492387392587164537218496129746853468359712
260030500074020080800710004100800906050007301902004000300002010005946802009300600,261438597574629183893715264147853926658297341932164758386572419715946832429381675
020690005006031004000005320094000000000580070170020640009060050208109000601470083,423697815586231794917845326894716532362584179175923648749368251238159467651472983
824000590006000310050869000000200041073005000062790005030541007900020000010070684,824317596796452318351869472589236741473185269162794835638541927947628153215973684
940523000001040005700000080080460091039700200620010508010000720800905604006000003,948523167261847935753196482587462391139758246624319578315684729872935614496271853
004608503090012070057040080030001267006205018000000900400930001073000400012800006,124678593398512674657349182539481267746295318281763945465937821873126459912854736
300520400780009350006008902020300009000000105001050267507280601090000000108047000,319526478782419356456738912625371849874692135931854267547283691293165784168947523
