400600500300092078107000306802006057091500000730904800000050640000203109000080020,489637512356192478127845396842316957691578234735924861218759643574263189963481725
020080060500007189006300002002600078470109003300050000080900400030046500790002036,927481365543267189816395742152634978478129653369758214685973421231846597794512836
804000005060007030900802100300060010041000090090400728070510082206300000050908407,814693275562147839937852146328769514741285693695431728479516382286374951153928467
050090008108560040900003200070600010020300804003000500094000075000819003302007006,257194638138562749946783251579648312621375894483921567894236175765819423312457986
703000805050800020000190000008400060361500009920000017095042073600030000000700046,713264895459873621286195734578419362361527489924386517895642173647931258132758946
000069018200054600030000000102506080090000700007008420079180006600703059310002804,754269318281354697936817542142576983893421765567938421479185236628743159315692874
360910000005074809000803510090400700600209005810000300931060080407000021000007000,368915274125674839749823516592431768673289145814756392931562487457398621286147953
600280701050170000400003200810000090096031400000760000307908540000000186002045300,639284751258176934471593268813452697796831425524769813367918542945327186182645379
090700108003500702048900060600090530009064010070000000804102900007603000510000820,295736148163548792748921365681297534359864217472315689834152976927683451516479823
020070900000040186508003000040050028093801060000000700070304001069500030080902540,624178953937245186518693274146759328793821465852436719275384691469517832381962547
026804000409000003053010007000003519000068000207900040304700061100000950900002308,726834195419527683853619427648273519591468732237951846384795261172386954965142378
003740600002900040007830005400509381009306007000080020208004500760000000010050872,593742618182965743647831295476529381829316457351487926238174569765298134914653872
045230807200508003000000900102804090086970000004600005700060041000005639030021000,945236817217598463863147952172854396586973124394612785758369241421785639639421578
000910820378000001200006075003478500105020900040000060090130700000009280600054030,456917823378245691219386475963478512185623947742591368894132756531769284627854139
060200805047003900200010670090680001130050469004300000900020104002900058850007000,361279845547863912289415673795684321138752469624391587976528134412936758853147296
018200300000900050760001024000304000200800607180050049037600100005102003620080900,518247396342968751769531824976324518254819637183756249437695182895172463621483975
090240080080013540051000070914002000002080001300009600030071002647900300005600800,793245186286713549451896273914362758562487931378159624839571462647928315125634897
009784600258090004006000010010070030300000207000560008400000950007038060000402703,139784625258196374746325819814279536365841297972563148483617952527938461691452783
003570000016030809040106020008960702400050030070200058039000500720804600060090010,283579461516432879947186325358961742492758136671243958139627584725814693864395217
503004700090501000104790200000200506876000040002040138700006000420108090009000053,563824719297561384184793265341289576876315942952647138738956421425138697619472853
300000900790506210102700600050820090206050840000304000004000023003149050001080000,365412987798536214142798635457821396236957841819364572984675123623149758571283469
063008050740000030080740026100032008358000000007019000570001004004900601602007590,263198457741256839985743126196532748358674912427819365579361284834925671612487593
060700000403060000210804050000006300702500908030900042007002010608001500054008703,865729431473165289219834657981246375742513968536987142397452816628371594154698723
061003804005041060020000007004029005096870000030056700300460020000908003807000910,761293854985741362423685197174329685596874231238156749319467528652918473847532916
190304600002007301500100084000601097307090200000008406050002100030040065086000009,198354672642987351573126984824631597367495218915278436759862143231749865486513729
100009400080000027325480000079020050010003802400865900043700065690000084000001000,167259438984316527325487619879124356516973842432865971243798165691532784758641293
000000218500080006070910340020040070900005002630000901463001000200470009000203680,349567218512384796876912345125649873987135462634728951463891527258476139791253684
000009857007300010106408000028000390040105670000090002200006030070900084090047000,432619857987352416156478923528764391349125678761893542214586739675931284893247165
004536000620080410090010500000042890070800001060000720900070000012309604800400930,184536279625987413397214568531742896279865341468193725943678152712359684856421937
080360910200400000500900803053620100002080654000001007810007590900040078006050020,487365912239418765561972843753624189192783654648591237814237596925146378376859421
000060180197500600000300000580104309300090050400000806005720901002903400008600075,253469187197582643864317592586174329321896754479235816645728931712953468938641275
069000240000100000000360508006540100740080605032000900803901400200058007010007009,369875241458192763127364598986543172741289635532716984873921456294658317615437829
298100500004900000100002806981000607500080030000507200070039028402070003030006040,298163574764958312153742896981324657527681439346597281675439128412875963839216745
037000690000801500400070020610003900509064007008250000000097001000620380200300045,137542698962831574485976123614783952529164837378259416853497261741625389296318745
804000007900010050010376000059060700203580406000700093620001300700902000008050041,864295137937418652512376984459163728273589416186724593625841379741932865398657241
700098205004360000000007600001700090073150008900240003000010804095030720082005010,716498235524361987839527641641783592273159468958246173367912854195834726482675319
600900010017085900203000600040809160305007020000002740020074080004100000001036500,658923417417685932293741658742859163365417829189362745926574381534198276871236594
080500090200430000500190807904620000000000301328710009650004070409000260002970100,183567492297438516546192837914623785765849321328715649651284973479351268832976154
070030950050896070002001003030000519600014200008750006500900004417200600000000038,876432951351896472942571863734628519695314287128759346583967124417283695269145738
063000010750006080000345200600080001090052004008137900080079050401000790005000003,263798415754216389819345267632984571197652834548137926386479152421563798975821643
004002057000086002019000800000900000005014730020830604906500000300601409780300200,864192357573486912219753846438967521695214738127835694946528173352671489781349265
730000006809200705100609000000908304086500210000421000013040600070000050005102907,732854196869213745154679823521968374486537219397421568913745682278396451645182937
000000240807010006390800000906007034100009800024305060010006059005098702470200000,561973248847512396392864175986127534153649827724385961218736459635498712479251683
000807200210900830009060010560200000070045003903700056007106005300000090640030078,435817269216954837789362514564293781178645923923781456897126345351478692642539178
150000680043900000000025400060080043009400862000009005600008190700560008204300070,152743689843916257976825431567182943319457862428639715635278194791564328284391576
310540009700010046604870002028000900000000001405003070890450623070000850000620000,312546789789312546654879312128764935937285461465193278891457623276931854543628197
090007264400603190801000005530009070002805903004000602203910000000300510700048000,395187264427653198861294735536429871172865943984731652253916487648372519719548326
019002800400010650602000094075308401008700020390000080053049000000205007004001006,519462873487913652632587194275398461148756329396124785753649218861235947924871536
000624900007000000800900325003002170002081506500040030701050090659070004008006002,135624987297835461864917325483562179972381546516749238721458693659273814348196752
000300015089000000006450208030800600007000029005742000720080090900010053100076400,472368915589127364316459278231895647847631529695742831724583196968214753153976482
940067100060009070830510600010000082000230017008090400002004009650800000070026053,945367128261489375837512694713645982496238517528791436382154769659873241174926853
000007820400010090903020005600042039007089506090703010800000670050306080310400002,165937824428615397973824165681542739237189546594763218849251673752396481316478952
010003824006070900800500700300098500050000012047030608501620030020400070009051000,715963824236874951894512763362198547958746312147235698581627439623489175479351286
740290500200006000069070000000102300016004009005030080090700604530020807001050920,743291568258346791169875432987162345316584279425937186892713654534629817671458923
010000602006080040954003800087940050100570000000301090800695300540002006020000170,718459632236187549954263817387946251192578463465321798871695324543712986629834175
036000200700300954095007600000510009020800006041230080100020007000048500602705010,436951278718362954295487631867514329523879146941236785154623897379148562682795413
000149500020000890500000001490005007780200006056083000030920400004078620078050900,867149532321567894549832761492615387783294156156783249635921478914378625278456913
090780102007000900400310050028004060704250030009070004050060028200090071800400300,395786142617542983482319657128934765764251839539678214953167428246893571871425396
210800700050000063786094000030900001900065000870020040000081025000240030102007906,213856794459712863786394512634978251921465378875123649397681425568249137142537986
008604001309020070150008400090000605000001047720403000030800010002050060060007398,278634951349125876156978423491782635683591247725463189937846512812359764564217398
000020500600708004002003809908300001010004030700062058520940100173000000040500060,387429516691758324452613879968375241215894637734162958526947183173286495849531762
009007085005132004614090000400800263060040000158000070000000901730005800900380002,329467185875132694614598327497851263263749518158623479586274931732915846941386752
490000000070008530502060080000600203305214090040870060603905001001000024080007300,498532617176498532532761489817659243365214798249873165623945871751386924984127356
100002057000610900389040000032086100908200004070003500600700320050001090040860700,164932857725618943389547261532486179918275634476193582691754328857321496243869715
000050008380002060079061500000023004710500309020900870501000200200048006096070140,162357498385492761479861532958723614714586329623914875541639287237148956896275143
051907800003004070060030000100005290000320000809006054470000025000048960005071030,251967843983154672764832519137485296546329781829716354478693125312548967695271438
470509600100003050000200903506800001030090004002004760260010079804702030000000508,473589612129463857658271943546827391731695284982134765265318479894752136317946528
401900030089300025000000070230704006504060000710005009005820093960001800007030400,471952638689347125352618974238794516594163287716285349145826793963471852827539461
310020780065408000000005002900700300020500400008390156402610030506000090070000804,314926785265478913897135642951764328623581479748392156482619537536847291179253864
597000004100000000040109205001006438050072060309800000076050090003400100200083006,597628314132745689648139275721596438854372961369814527476251893983467152215983746
790860050000007002306510080070204090003106800408000007000095100200030004104700063,792863451815947632346512789571284396923176845468359217637495128289631574154728963
190542000803000000240830906008790600060003040030460107907080000620000074000001250,196542783873916425245837916418795632769123548532468197957284361621359874384671259
001409000070030908005086030169000000050600071048302000300750860006801047400000025,831479652674235918925186734169547283253698471748312596312754869596821347487963125
070900030006002180204035900300540200000680009700000060050060020180000007090120304,875916432936472185214835976369547218521683749748291563453769821182354697697128354
904010002032090500610803070007000024403000901009056000200067140000089067050002300,974615832832794516615823479587931624463278951129456783298367145341589267756142398
003940065500007090002008100900200004805003700700060310080004000061500002400120908,173942865548617293692358147936271584815493726724865319289734651361589472457126938
000709000340061005082000600001370080057046230206800900960020004078500000000030100,615789423349261875782453619491372586857946231236815947963128754178594362524637198
000601040041000780308090002100027009080009530706400010073500004000203605004008000,527681943941352786368794152135827469482169537796435218273516894819243675654978321
007604300002050401000380600701002030094070008080916050036000007509400010020000009,817624395362759481945381672751842936694573128283916754136295847579468213428137569
096740801800300970007020500000001024503070000040803100301062090009500000705180400,296745831854316972137928546978651324513274689642893157381462795469537218725189463
000910580860007900070502000007041308080020009301000070402060005050094602003000010,234916587865437921179582463927641358586723149341859276412368795758194632693275814
070009108005700920004020030500604200800000096109080740093070002600308500000010063,276439158385761924914825637537694281842157396169283745493576812621348579758912463
000094503002100000407000601080500900000003007701620000356807102104006800009205400,618794523532168749497352681283571964965483217741629358356847192124936875879215436
059004308001700200640800000000312870300405900005000001006020100070100009028690004,759264318831759246642831597964312875317485962285976431496527183573148629128693754
096720180000609004000050070500006230810400009000580700140800590203001000068000003,396724185785619324421358976574196238812437659639582741147863592253941867968275413
400000508839100407000000010310407090095002000000906021258070003070004806006530100,421769538839125467567843219312487695695312784784956321258671943173294856946538172
002054007100090000706000809239600015050071000000000284403109000078023600960000400,392854167185796342746312859239648715854271936617935284423169578578423691961587423
105703002072000060039000015900800201000697803000042000008510607400080000006300450,145763982872951364639428715964835271521697843783142596398514627457286139216379458
006200004009073056002004030600400082080097040017000500300502109070800000500019360,736285914849173256152964837693451782285397641417628593368542179971836425524719368
920008600300920070058076100000007004800590000003600210001000742084060090509100030,927418653316925478458376129165237984842591367793684215631859742284763591579142836
300001068700250003090803500004705010100300270000009300070000940208100000509406700,352971468786254193491863527934725816165348279827619354673582941248197635519436782
002000070400970800030804906065000190319020400070003000500046308140700260000018000,982361574456972831731854926265487193319625487874193652597246318148739265623518749
900300000041080300000004570080500620020000009704903100390401007002609850605270004,957362418241785396836194572189547623523816749764923185398451267472639851615278934
000246050000000003860005019102867030590001800007030004030082500900000072070054006,319246758725198643864375219142867935593421867687539124436782591958613472271954386
034006901890000200500408600070020009010070050400600018007503004065000003200781000,734256981896317245521498637378125469619874352452639718987563124165942873243781596
000709063795002000001084020000270800802360045030000100407000308050000000610490007,284719563795632481361584729149275836872361945536948172427156398953827614618493257
067100850800200010930004600058000300610490020000000086500023100002700009004815007,267139854845267913931584672458672391613498725729351486576923148182746539394815267
002000034095310000760002180304700010600000209080401700007530002950080000000090406,812675934495318627763942185324769518671853249589421763147536892956284371238197456
000000023200015080459800706560200900800307001070001640003004005080620000907080100,718496523236715489459832716561248937894367251372951648623174895185629374947583162
067009000200070054540206030050000270009015008034800006080001000603708009000902013,367549182298173654541286937856394271729615348134827596982431765613758429475962813
