702003800050009400013085060060100350490060002000900700500004018008070924620000000,742613895856729431913485267267148359495367182381952746579234618138576924624891573
200005060007801400010340890000420000038007602040008750400506001009700030650003904,284975163397861425516342897765429318938157642142638759473596281829714536651283974
050009067290000400600750300360010800408003070019004005802041090030075080001000026,153489267297136458684752319365917842428563971719824635872641593936275184541398726
604005000290000037000100008102807050000010060830259000007900004000306290300084010,684735129291648537753192648142867953975413862836259471567921384418376295329584716
100050907068030400500400061300021090000900200009860035240005018900002700607380000,134256987768139452592478361376521894851943276429867135243795618985612743617384529
002300001080204030609700400870400069000080500913005080040176302000000057021090008,452369871187254936639718425875431269264987513913625784548176392396842157721593648
709400005060002080180030902030170000900500400006003700005816007270904360000000041,729481635563792184184635972432179856917568423856243719345816297271954368698327541
070400200006000975290000380000097000003106008150802040900203801030780409502000060,378459216416328975295671384864597132723146598159832647947263851631785429582914763
400005289002060000300007140000070000058000093120900405069004308783021000001000602,476315289812469537395287146934576821658142793127938465269754318783621954541893672
041806005300490000090032600180900000050020079600005002008050300904700801000109047,241876935365491728897532614182947563453628179679315482718254396924763851536189247
900760003240901000000035800010000360300010907780092450605000040071008000090470600,958764123243981576167235894519847362324516987786392451635129748471658239892473615
406000002079004160520890304700018000600500980310620500080065000100000403000107020,436751892879234165521896374795418236642573981318629547284365719167982453953147628
059008010100029734200630000000075400643000805007000092000004009480017000025860100,359748216168529734274631958892375461643192875517486392731254689486917523925863147
230000070060098450000762100050040001402500000780019340304000006600100520090800000,239451678167398452845762193953647281412583967786219345324975816678134529591826734
007003020100004087906201540402000056700038000098050300000120900305087064000005000,547863129123594687986271543432719856751638492698452371874126935315987264269345718
000080092070009860500460701604700300003910007080504000900800003106000070000003215,461387592372159864598462731614728359253916487789534126925871643136245978847693215
018200000000009300605070042700504100920017008000320690402000980800050076060000534,318245769274869315695173842786594123923617458541328697452736981839451276167982534
000700900000010034026800700280090150003040007901023600039000580840000301107002060,318754926795216834426839715284697153563148297971523648639471582842965371157382469
060510920080007005700023000400080603006400071159000080090050040001800259003260000,364518927982647135715923864427185693836492571159376482298751346671834259543269718
009001600600200530308000097006000403000170860475308001100700209007405000080029004,759831642641297538328546197816952473932174865475368921164783259297415386583629714
300000080064000007907380012000150008080030200210000965500046000136025004090800070,321567489864291357957384612649152738785639241213478965578946123136725894492813576
906700104004002003201060700000087350050030649060000080700400000048013500092800006,936758124574192863281364795429687351857231649163549287715426938648913572392875416
130000006800900070702000108004800069060075030307000021090000002205609480008540000,139758246846921375752364198524813769961275834387496521493187652215639487678542913
020009705310002600060030010703406250090850000006001309240060070971040000005000108,824619735317582694569734812783496251192853467456271389248165973971348526635927148
009200060300094010700801403010007045000130020000065800030086200024300007607000109,149273568358694712762851493816927345475138926293465871931786254524319687687542139
309040061050201000070090400120087940006500018000000003400809000503002600860003107,389745261654231879271698435125387946936524718748916523417869352593172684862453197
416500003000470208002009000981204305053701006040800900760000000509000002000003860,416528793395476218872319654981264375253791486647835921768142539539687142124953867
000008906000230700924500003050370408610080009038000210700005000002604001190700805,375148926861239754924567183259371468617482539438956217743815692582694371196723845
060020903900000002803504007000001354016300009002048060094603100008000005500782000,165827943947136582823594617789261354416375829352948761294653178678419235531782496
900210000037006204005000760091000580023409070000005003100090046002700058600804100,964217835837956214215348769491673582523489671786125493178592346342761958659834127
600905001087031020005008006402070000060000907090400280100256030830000700500000069,643925871987631524215748396452879613368512947791463285179256438836194752524387169
000053601000806900004000053023004095001700000070089020089560200010907080607030400,298453671135876942764192853823614795941725368576389124489561237312947586657238419
049060108200000076006938000700200800000005069083410050001340000020080710390600400,549762138238154976176938524765293841412875369983416257851347692624589713397621485
200435000010007402090020075007008530900061000430070608320000000680950004000600190,276435981513897462894126375167248539958361247432579618329714856681953724745682193
002400035360072000490000700006708002010950008043001009078010690000090200000530041,782469135365172984491385726956748312217953468843621579578214693134896257629537841
016700395230400000008000060300105700040060203509028100907200000000009578600001004,416782395235496817798513462362145789841967253579328146987254631124639578653871924
000285006032710050708000000007900805300070010196003420040308700260040000000520190,914285376632714958758639241427961835385472619196853427541398762269147583873526194
907002300001306020004507806102003509700400000530960200003270040080050010000000680,967842351851396427324517896142783569796425138538961274613278945289654713475139682
006048009002700503900600010310000090040501080705890000030002106500080007200470300,156348279482719563973625814318267495649531782725894631837952146564183927291476358
890002001100076402006300000004020090000030746009760508030080009025041030070500010,897452361153976482246318975764825193582139746319764528431287659925641837678593214
507060000630910008201035000006000504005603092900100070040090310800500007009072006,597268431634917258281435769316729584475683192928154673742896315863541927159372846
040090025007160000890004000900045007010070200002006308150030070034700090060002810,341897625527163984896524731983245167615378249472916358158639472234781596769452813
005940080030060009200810300000006040980500730073080501006004852400092070010700000,165943287837265419249817365521376948984521736673489521796134852458692173312758694
900058700003000410001000082000605000800900604240073005010300000002096830050207900,924158763583762419761439582197645328835921674246873195619384257472596831358217946
100200090083041005407060000500907100090050074060080300340002000010490082200605003,156238497983741625427569831534927168891356274762184359349872516615493782278615943
001050739736000010500000280090008020420067908100090003060032000800470005050900400,281654739736829514549713286695348127423167958178295643964532871812476395357981462
050100079000860000092050006109003045600200807038040000080600301510020000007004020,856132479471869253392457186129783645645291837738546912284675391513928764967314528
089450006725008100004900003050009004201000500000710080000180030068300701040020090,389451276725638149614972853857269314291843567436715982972186435568394721143527698
910800063605070208000010000720000090801450000006090400079300080400100000530260007,917824563645973218283516974724631895891452736356798421179345682462187359538269147
009200800100067005002540001000026007040000903503100680600081070437009000090000504,759213846184967235362548791918326457246875913573194682625481379437659128891732564
030094257020610009800005000503002001000086090946000030200730040017500000000401068,631894257725613489894275316583942671172386594946157832268739145417568923359421768
600007400000083070090600130002046009010500000003198520207039600040050280301200700,638917452125483976794625138572346819819572364463198527257839641946751283381264795
010700004000003060092501003508049000200306501000200806309600078040000010006870902,613798254785423169492561783568149327274386591931257846329615478847932615156874932
071200098005000304840906500406005070500000002030192000083400705090010043000760001,371254698965871324842936517426385179519647832738192456183429765697518243254763981
460070900200400800005009006030060018020003000000805470600058301903014025700000600,468571932219436857375289146534967218827143569196825473642758391983614725751392684
700280401040010030803090050409560800000000270380040000052401300000009605900800027,795283461246715938813694752429567813561938274387142596652471389178329645934856127
008060002714000300300007159090823740070000295006050001001904000400600080020030900,958361472714295368362487159195823746873146295246759831581974623439612587627538914
937000106400710500001000000000079800048050620050600030016090050300048002200506980,937825146462713598581964273623479815748351629159682437816297354395148762274536981
200000180531000006078006300400502000000090001892040007000610040009078005006059732,264735189531984276978126354417562893653897421892341567725613948349278615186459732
006900072740003006090000150007304610000005000024001809100070320002006004030580700,356918472741253986298647153987324615613895247524761839165479328872136594439582761
800000700020600003000082140078306050000500916100040007006025300509000008237001490,894153762721694583653782149978316254342578916165249837486925371519437628237861495
061080300000060010052190007090400070408030290003000805204900008700200460009007501,961782354847365912352194687596428173478531296123679845214956738785213469639847521
091052830000081007600700900002096005074100000900405080009030010250000076800004203,791652834345981627628743951182396745574128369936475182469237518253819476817564293
032000800006071004000508300004002100300800059501400072608940030093067008100000700,732694815856371924419528367964752183327816459581439672678945231293167548145283796
001094260070008003056020041085610094000009000204800700300206000019703008000000035,831594267472168953956327841785612394163479582294835716348256179519743628627981435
069008002300406050208000130006007020132000800050190000010083604700900005003705010,569318742371426958248579136496837521132654897857192463915283674724961385683745219
000000050002460070086050003013200405400100300695008007800039020079010006030007108,347981652952463871186752943713296485428175369695348217861539724279814536534627198
003150070600084500000072004080410000090000053201907006500020309739006200004000008,843159672672384591915672834386415927497268153251937486568721349739846215124593768
008009056050170000023046000009020518700060003030004000006082090002003807010090304,178239456654178932923546781469327518785961243231854679346782195592413867817695324
200083700000001009874050030000310902008570040960000100000400000700200093305008260,219683754536741829874952631457316982128579346963824175692437518781265493345198267
530100020000008000497000008006250700002400019980007040750002601604930000003071005,538164927261798354497523168146259783372486519985317246759842631614935872823671495
720000003000000501010025080109000260004790308070063045046200009200680004980370000,725816493698437521413925786139548267564792318872163945346251879257689134981374652
307090628040300150509008000400809302000054900001000006020760090800000003600500407,317495628248376159569128734456819372732654981981237546124763895875941263693582417
000000000540013200100825900020000047006501800300007190405600080078000039609730002,982476315547913268163825974821369547796541823354287196435692781278154639619738452
100900007702400306000803400090520000040089205070006030560010028000000050019030064,134962587782451396956873412398527641641389275275146839563714928427698153819235764
090017506000000000107205840031900085740000039000701200008060002604800090052304010,893417526425683971167295843231946785746528139589731264378169452614852397952374618
004009170007005092000160305060430900020010650908700001400800500106090008070023000,354289176617345892289167345561432987723918654948756231492871563136594728875623419
500098027000470060403020018001246090280109030065007000027000000000000304608500009,516398427892471563473625918731246895284159736965837142327984651159762384648513279
000003500000106009018900203601042700900060300803700045090570802002001070304000106,269483517735126489418957263651342798947865321823719645196574832582631974374298156
500007610700006042208010705140050000000009000003062580090085367006040200800090001,534827619719536842268914735142358976685479123973162584491285367356741298827693451
000052041070900000342078500500081003090040050607000004000003018430000097089006200,968352741175964382342178569524681973893247156617539824256793418431825697789416235
049085700010007042306002005080790504000236090007000160500108430130000008000640000,249385716815967342376412985683791524451236897927854163562178439134529678798643251
603020000087300415040700000020017500500000198304050200192008030000003002000960070,653421789287396415941785326829617543576234198314859267192578634768143952435962871
000200030036001098708500400900408000010000280065100004003006007480005029020070150,541289736236741598798563412972458361314697285865132974153926847487315629629874153
031050207080200001004030080006080920005460100700900004509076000000009050302001708,931658247687294531254137689416783925895462173723915864549876312178329456362541798
000079140057000008009180060610040802003001090970000005040007200008600039000325600,862579143157436928439182567615943872283751496974268315346897251528614739791325684
050007400400019006006500082210308000030790050008264030300000810005002004907006300,851627493423819576796543182219358647634791258578264931362475819185932764947186325
000800043710040900068193005094051806050004000000920030087600000006005301200008097,529867143713542968468193275394751826652384719871926534187639452946275381235418697
000020708900430000056091020380060470010905000060000219002050100008607000470200053,143526798927438561856791324389162475214975836765843219692354187538617942471289653
001049036030000004050270890108000005002030070403600010006800509700090603200050040,821549736937168254654273891198724365562931478473685912346817529715492683289356147
004100308600708520023400090071029000390010800005600400000060007040005900902000005,754192368619738524823456791471829653396514872285673419538961247147285936962347185
060400500708005203510208400200600004370080600080009000057010060400000957600003000,962437581748165293513298476295671834374582619186349725857914362431826957629753148
004890102070002009005160000090300200001056080807900054050084001400070800002000306,364895172178432569925167438596348217241756983837921654653284791419673825782519346
012600098003090700060807003000000502008063041450009000600014389107008024300000050,712635498843192765569847213936481572278563941451279836625714389197358624384926157
078041206630007051004300890300900180510060002020000040005280000000703904000004000,978541236632897451154326897346972185519468372827135649465289713281753964793614528
008002000500004069709080504001000236000058700074360000030479000902100005000000603,468592317523714869719683524851947236396258741274361958635479182982136475147825693
004389000709001503000600000020008190600700000500090632045000201280900040007450860,154389726769241583832675914423568197691723458578194632945836271286917345317452869
000007496010050803204800007027041600903002500050003080508090002000360040090708010,385217496719456823264839157827541639943682571651973284538194762172365948496728315
003006205140800370620001094930000602000520000080073000710048009000900100008305400,873496215149852376625731894937184652461529783582673941716248539354967128298315467
087205030510006004402710000000061040906300510000070008005000007700038960009400320,687245139513896274492713856258961743976384512341572698135629487724138965869457321
