007600500008030196020910040064008250510060004700003009009001008205007300030420000,197684532458732196326915847964178253513269784782543619679351428245897361831426975
060002870000100320400009005098050002000473008350020006102040097009010500530806000,961532874875164329423789165798651432216473958354928716182345697649217583537896241
090803000020670508170042030015900004009080000230064000000050180600001709700300042,596813427324679518178542936815937264469285371237164895942756183683421759751398642
670019000002840000000007504106035490058000002390000600800270100010060745009003020,674519283532846917981327564126735498458691372397482651865274139213968745749153826
005900102107002000000000430003820065006100003040670820000009207070438006801060000,435986172197342658628751439713824965286195743549673821364519287972438516851267394
010008635030600002207090800006000020400701500098023701002500049709040080000086000,914278635835614972267395814176859423423761598598423761682537149759142386341986257
300000900000080276042001050900304000078006000050020167021940030500608004760500019,387265941195483276642791358916374582278156493453829167821947635539618724764532819
930000208085000047604800900209504003300680025000010400072460010000000560410390000,937146258185932647624857931269574183341689725758213496572468319893721564416395872
030000408100290063065840002008009070006510800270000504000080207007600930091030000,932176458184295763765843192518429376346517829279368514653981247827654931491732685
301490500080000090450720008900000030670009004502860010040080602020300945700006100,361498527287653491459721368914572836678139254532864719143985672826317945795246183
200040570800003014090001200083029000470600039610000750000050006105068400307090100,231946578856273914794581263583729641472615839619834752948157326125368497367492185
400000850203006000000715400124080090000570000067921000316002007000090002800300014,471239856253846179689715423124683795938574261567921348316452987745198632892367514
870903201490005070001060040080530004000070826000006700000409600204080105039020000,875943261496215378321768549687532914953174826142896753718459632264387195539621487
700001839504002706083000000600004000010080050200900360002319005060507208409060000,726451839594832716183796524635124987917683452248975361872319645361547298459268173
007100905005207138000000040000090714100006002080705006800903000320048509004500600,237184965945267138618359247563892714179436852482715396856973421321648579794521683
805000010000290007000806049180030060009520030000007400260903000071040800504001026,895374612416295387723816549187439265649528731352167498268953174971642853534781926
000960500600000934300008001950300700002046050006001342400050093710004060000020008,241963587687215934395478621954382716132746859876591342428657193719834265563129478
000500200049607003000029060800073001306001008702908400060040012007000580005036940,683514279249687153571329864854273691396451728712968435968745312437192586125836947
001040527030000080009807006500900000326005700080030410000026049000580601070100300,861349527735261984249857136514978263326415798987632415153726849492583671678194352
250009070700830006006054000000900080009173200340500600000000800601280090508061300,253619478714832956986754132125946783869173245347528619472395861631287594598461327
310029607009400010500670030901086300040902000002700081000000046085000000100050072,314829657769435218528671439971586324843912765652743981237198546485267193196354872
000501400300907080001024706054600000200100978007032004008000031723008050060090000,679581423342967185581324796854679312236145978917832564498756231723418659165293847
050970630800604000020018904090536010173000200000000089740000021082005096000067000,451972638839654172627318954298536417173489265564721389746893521382145796915267843
003060890079250040001087003037400060500020001610000050008040730000002005040391002,253164897879253146461987523937415268584629371612738954128546739396872415745391682
006008100500240098000137004740360080098000700300700059010002000000800027083900605,436598172571246398829137564745369281198425736362781459917652843654813927283974615
480097001100005009500400820670030000008061500000000072005240030020009010030058067,482697351163825749597413826679532184248761593351984672715246938826379415934158267
010200004053640809008000670000590108800007090102300400030869005609000012007003000,916278534753641829428935671374592168865417293192386457231869745689754312547123986
097043000000060095541002600080400731700000002063150004000610300800070050002900806,697543218328761495541892673985426731714389562263157984459618327836274159172935846
039000070605100804000067050090008000500090062120400300000071408014820006000309700,239584671675132894481967253396218547548793162127456389953671428714825936862349715
320004009000002070640810005000605083910040006030178000190750030000000097085300460,327564819851932674649817325472695183918243756536178942194756238263481597785329461
250000300003070026016803009060410700079002065002009030000050014400600208805900000,254196387983574126716823549368415792179382465542769831637258914491637258825941673
040060005200001307107305086580003400900520000004079001750002910820090000000008630,348267195265981347197345286582613479971524863634879521756432918823196754419758632
002003080069200140000100500000500890045036007800074060010087000470000601096402030,152743986769258143384169572637521894945836217821974365213687459478395621596412738
009076010470000020300804076025010900800600000000900045240000053700320008050108062,589276314476531829312894576625413987894657231137982645248769153761325498953148762
408000026005008000000794000890400001300200600006350290007006080100070534200130009,478513926915628473623794815892467351351289647746351298537946182169872534284135769
150030790000000008400785010300004201005600070900070630080401052069000000014090003,158236794637149528492785316376954281825613479941872635783461952569328147214597863
018060090009007250070050301000108004001200508023500700700000000094000863080403102,518362497349817256276954381957138624461279538823546719732681945194725863685493172
400021038701030500080009040170090002208046900060300810900500407002000603050064000,495621738721438596683759241174895362238146975569372814916583427842917653357264189
980057000042000100007600980403108052000040630710000090800021040050009307026500800,981457263642983175537612984463198752298745631715236498879321546154869327326574819
090370500200000090501000708600507800004008001000930052840090105060021930000406007,498372516276185493531649728623517849954268371187934652842793165765821934319456287
050780402000106000037050960780010000024003805000640009578000600200000154040300020,156789432492136587837254961789512346624973815315648279578421693263897154941365728
500000069009650210032008700005030600000800002103907405000240090040301008070000306,514723869789654213632198754895432671467815932123967485358246197946371528271589346
001030005900004300000680201068050000300829004200000570500040600470003010832706009,681932745925174386743685291168457923357829164294361578519248637476593812832716459
010003074000179500062080000004007200250040900890300061406200000073065080100008003,519623874348179526762584319634917258251846937897352461486231795973465182125798643
200007608098000003037690200046820010950000402000030070000004865100060030509700100,215347698698251743437698251746825319953176482821439576372914865184562937569783124
150800000079410860002070500000000091000032005480600003000009000691007240247008300,154826937379415862862973514723584691916732485485691723538249176691357248247168359
004093100008060000030700450100320009006500000090008370800150040940000026720000830,574293168218465793639781452157324689386579214492618375863152947941837526725946831
004679000000200650200801034090140008800060300050020791645000010370000009021503000,534679182189234657267851934793145268812967345456328791645792813378416529921583476
601804000700030109040070020125900806360000057800000200030080790900053002050002061,691824573782536149543179628125947836364218957879365214236481795917653482458792361
326400090000000070050100063002001400800603902694500100068000025010902008000075000,326457891189236574457189263532791486871643952694528137968314725715962348243875619
097310000030000740102068030004200609000036100028500073780009500001040000050000280,597314862836952741142768935314287659975436128628591473783629514261845397459173286
040007000270000510506908300003600950080300106007201040030010060005740200490002008,349157682278436519516928374123684957984375126657291843732819465865743291491562738
008004010709002053002010009600000080000490000040873020500200001030008602094700030,368954217719682453452317869673125984821496375945873126586239741137548692294761538
740200001008569040590100600087040102209630000300000070060008057005300200400001800,746283591128569743593174628687945132219637485354812976961428357875396214432751869
000000400900005070064820301006000000108500706002910503523008600040702008010040090,285371469931465872764829351356287914198534726472916583523198647649752138817643295
037001008000900005061000270840200006000000020200650890306040507050830010002560049,537421968428976135961385274849213756615798423273654891396142587754839612182567349
907080001040000000513000720085000247000430059002000000700096100830240005061058030,927583461648127593513964728385619247176432859492875316754396182839241675261758934
709000060600100005020098004200049003053200800008703091000500478040067000510000300,789435162634172985125698734271849653953216847468753291396521478842367519517984326
000081020007460080400570009001030000050000092670805100005027630980100004003600015,569381427237469581418572369891234756354716892672895143145927638986153274723648915
075630000000702100400000038084320000209006041001500007000480600600057920030009010,175638492893742156426915738784321569259876341361594287912483675648157923537269814
704206030800100900090000052000000006503079800912508400005642000008005704600030010,754296138826153947391784652487321596563479821912568473175642389238915764649837215
008001000340000709090060200050203900704800020200040150000005310470002000080976500,628791435341528769597364281856213974714859623239647158962485317475132896183976542
085006000000070690029300405003502007400090160010704080000059010076408200004000030,785946321341275698629381475863512947457893162912764583238659714176438259594127836
051020300006070004320900000000500210067003098140000005200005076093160800000890100,751624389986371524324958761839546217567213498142789635218435976493167852675892143
158007002000016309000245007060000580089030004400070100002054008094000070300900061,158397642247816359936245817761429583589631724423578196612754938894163275375982461
048002006070058010000370405160023007200045800809001300306000900005609003000000028,548192736673458219912376485164823597237945861859761342386217954425689173791534628
000000369030570000129600000000000080076910020084007095007021000400850012060003804,745182369638579241129634578912345687576918423384267195857421936493856712261793854
000960571000807030900010024200003600790002000431000009058600700000040105040701098,823964571514827936967315824285493617796182453431576289158639742379248165642751398
003201786000300200840070005078004390059600004100029000060000408027090050000000071,593241786716385249842976135678514392259637814134829567961753428427198653385462971
090260010100000562004300000500080003003040050046500920300020007201004008080609000,795268314138497562624351789512986473973142856846573921369825147251734698487619235
000100090306008057500047200082000009700090601100352040004000300027460800005071060,278135496346928157591647283482716539753894621169352748614589372927463815835271964
000037514004920800760008000093100007002053060610804002085006940009210008030000000,928637514354921876761548293593162487842753169617894352285376941479215638136489725
430100700000500002020076058709005003000900561306000080163040000800000020040781009,435128796678594312921376458719865243284937561356412987163249875897653124542781639
090001037010750090000630008073040009568000002200000780400910063600200000005306810,896421537312758496754639128173842659568197342249563781487915263631284975925376814
003005407070160520900804006390000008205007000601490300520601700009208004400030000,163925487874163529952874136397516248245387961681492375528641793739258614416739852
003060000146000007870001300010004920005006804020590030500907180030080702400030560,253769418146853297879421356618374925395216874724598631562947183931685742487132569
010000600070809400803050029500036000009004500100980072030001206406200003090400008,915342687672819435843657129527136894389724561164985372738591246456278913291463758
010207030560081000400000800005309704030650080601804002800000910007090603020060070,918247536563981247472536891285319764734652189691874352846723915157498623329165478
000009072600040300010003580000432000207905400039780010503000006094507003080000109,348159672675248391912673584851432967267915438439786215523891746194567823786324159
082509004000000301009070008800200010073006209900803050500304070714900006000018000,182539764657482391349671528865297413473156289921843657598364172714925836236718945
000007024080906100103804065090008002026500019507000030410000007700100580960030000,659317824284956173173824965391468752826573419547291638415682397732149586968735241
200601800300892070005000000960030050000740100430000098800367910004005020790200600,279651843346892571185473269967138452528749136431526798852367914614985327793214685
009000405200060000078020019006003870001970040450200063004050106512084000080700000,169837425245169738378425619926543871831976542457218963794352186512684397683791254
090000000816390040034060078900285000050000106007604000570800091000032000600100287,795428613816397542234561978961285734458973126327614859572846391189732465643159287
980000005003906014070230080400000698620000507835070040002304000761000000000100209,986741325253986714174235986417523698629418537835679142592364871761892453348157269
006759008800000700002000349000470090010803004075006020900000056068012000034060900,346759218891234765752681349283475691619823574475196823927348156568912437134567982
900500170050904020060073504800100000694005700700092005001400900509800036030000080,942568173357914628168273594825147369694385712713692845281436957579821436436759281
000450000607038000490100002002000079010046800368005001001300720000009013004670508,183452967627938154495167382542813679719246835368795241951384726876529413234671598
800010400200005097901200600050037000304000800090060004080629700060041302407050001,875916423246385197931274658658437219314592876792168534183629745569741382427853961
400000000020900080070150694300047000006000809008500032030010060105000043080026750,459683127621974385873152694392847516546231879718569432237415968165798243984326751
008005096079200300500060018100073069064000000005000820000802150320900004807410000,218345796679281345543769218182573469964128573735694821496832157321957684857416932
360050000708200030050010400049082000000509120085601007000070394070006280401300060,364957812718264539952813476149782653637549128285631947826175394573496281491328765
907002003030014000080075004004000258720030109800006030001800906090701020650040800,947682513536914782182375694364197258725438169819526437271853946498761325653249871
070013840008900001430070500100042000006307002350600090000008010000760030289005400,975213846628954371431876529197542683846397152352681794763428915514769238289135467
080040020000058003721000008503076400090000010600904085200407900060089030400100057,385741629946258173721693548513876492894325716672914385258437961167589234439162857
850039000004050006000807109007200815600400700023001060230000000080520400046000092,851639247974152386362847159497263815618495723523781964235914678789526431146378592
200000400070034080900670032004000850601098070700302100500100790003900045000860301,236589417175234986948671532324716859651498273789352164562143798813927645497865321
000006253070040680900030001709000020080620007001084000140008500002007038003051046,418976253375142689926835471769513824584629317231784965147368592652497138893251746
406000000315709080000450020100980005890300007000041000080002014709803002060000730,426138579315729486978456321134987265892365147657241893583672914749813652261594738
000007310090200050070618004001005037036000400800009002780400600500920800020081000,462597318198234756375618294241865937936172485857349162789453621514926873623781549
