800207560970000004604000001081000002050038470000900013007364020030002005002801090,813247569975613284624589731381476952259138476746925813597364128138792645462851397
058400023630020015000600700960708002007039000082010400590080006040000000001005800,758491623634827915129653784965748132417239568382516497593184276846972351271365849
006703001012000004080060700900408000041072039000010508090601023000350090600040070,456723981712895364389164752965438217841572639273916548597681423124357896638249175
900800400507090000200160708329000600701000040048023000060059801000470206000012050,916837425587294163234165798329541687751986342648723519462359871195478236873612954
000000060020519700379020081085002003100370000207405600056040000000000049000781300,541837962628519734379624581985162473164378295237495618856943127713256849492781356
030000097700604500584100003003000968000820045051000000400002030028090700609008014,136285497792634581584179623243517968967823145851946372415762839328491756679358214
709082160600000000200130890563000000008000329040710005005420700090000040000365000,739582164681947253254136897563298471178654329942713685815429736396871542427365918
001070908000002600074360020020800050093001040005090080032007400600050010089130007,261475938358912674974368521726843159893521746415796382132687495647259813589134267
010305900290010000360800040000008100029003064401009057006000510800050076007400009,714365928298714635365892741673548192529173864481629357946287513832951476157436289
008600200910020570000097004150900000030000420076000058300501090200803000004000037,748635219913428576625197384152984763839756421476312958367541892291873645584269137
081060000509027600070400005900040061027000500410089030060800720200600904000053080,381965472549327618672418395953742861827136549416589237165894723238671954794253186
094100050205007000300020001800350002703914000006000400160805004002700390500090086,694183257215647839378529641841356972723914568956278413169835724482761395537492186
709000650085000002640000907034025000200100006001978040002061780010259300050840000,729413658185796432643582917934625871278134596561978243492361785817259364356847129
000406200108070000540002079000005010030020098000397004305000040600039802700510006,973456281128973465546182379269845713437621598851397624395268147614739852782514936
500021300040000029100907800020000090307080000609045200080070000436800071200560040,598421367743658129162937854824316795357289416619745283985174632436892571271563948
071480050030900600800023010000060003084090570700100098050037420602005000040200000,271486359435971682896523714529768143184392576763154298958637421612845937347219865
470230090800001035009005060730080040006940103020500600150060972003008000600100008,475236891862491735319875264731682549586947123924513687158364972293758416647129358
003000678967000001180400000000080569000702800530004017040321000200970304070006050,453219678967538421182467935724183569691752843538694217845321796216975384379846152
100200084700300092059000160800401000005070000003062009070840005060097030340005010,136259784784316592259784163897431256625978341413562879971843625562197438348625917
070060830004209100050017000130050604200003957000000008800001000500784206049306000,971465832684239175352817469137958624268143957495672318826591743513784296749326581
401870203600503007008000460043700900010030042790080000000057001000620800265100000,451876293629543187378219465543762918816935742792481536984357621137624859265198374
068709000049163205100004000000000709021400000005020430000000608084090500592670100,268759314749163285153284967436815729921437856875926431317542698684391572592678143
037006400000009702000058910890000000006405030541930006010000070002874600400010350,937126485185349762264758913893261547726485139541937826618593274352874691479612358
008006004250403106000750300000000861901007000003500902005010048060002003039640000,398126754257493186416758329572934861981267435643581972725319648164872593839645217
305001820026000004070008396001070060030900405400020000640800070057300081200590003,395641827826739154174258396581473962732986415469125738643812579957364281218597643
000010000004305060207090008900000734045760001800200009090420180008030245006001007,659812473184375962237694518962158734345769821871243659593427186718936245426581397
280000406300260010950100007010906030400057890030000205025840000047000509000071000,281793456374265918956184327518926734462357891739418265625849173147632589893571642
910002706060090845000030020081000009750204060000070500023506100005003004670980000,918452736362197845547638921281365479759214368436879512823546197195723684674981253
750000060063001049009370002001640030002009100504027800800060005495008000000700910,758492361263581749149376582981645237672839154534127896817963425495218673326754918
820050700907401050030006000096000003300608140000705090700002609050180032004009510,821953764967421358435876921596214873372698145148735296713542689659187432284369517
401007080008620000050904007016005300300000571700200040004060028060108903509030100,421357689978621435653984217816475392342896571795213846134569728267148953589732164
200378090006150040070609000005960074043025600080000300000001000800400023901087005,214378596396152748578649231125963874743825619689714352462531987857496123931287465
200035600098100040030090070004058109050620480071300006960400003000010250400070008,247835691598167342136294875624758139359621487871349526965482713783916254412573968
900000012100026807004750093037000409608005020020030700002840056060003000000062108,976384512153926847284751693537218469698475321421639785312847956865193274749562138
000531000600009700253000080008015090030097210400300060802000004079002800005806300,987531642614289735253764981728615493536497218491328567862953174379142856145876329
009180042074500910080000000601020000048000003390000685400205036005076200900001700,569187342274563918183942567651328479748659123392714685417295836835476291926831754
005000708000083012810509004050600070040002100691000800709005060003028900100067300,435216798976483512812579634258631479347892156691754823789345261563128947124967385
460078020290600100108000300500320090000045030000007801050000000037010204020490760,463178529295634178178259346586321497719845632342967851654782913937516284821493765
000306500270005080100400020000003198050280003000094006906100700420650001000047900,894326517273915684165478329742563198659281473318794256986132745427659831531847962
006009400021000008308201005073068002000000940045070030080134060039020710000005000,756389421421657398398241675973468152862513947145972836287134569539826714614795283
956000004000030800007405100500002093030800406400017500200560900801070000000090072,956781234124936857387425169518642793732859416469317528273564981891273645645198372
000040800640820107030069025010007904025100008008053002003010700090002003500004060,752341896649825137831769425316287954425196378978453612263518749194672583587934261
741200008806130009000000700014600805003082060000900240508060904062098001030700000,741259638826137459395846712214673895953482167687915243578361924462598371139724586
600300908390007060082010400000090085100004279007201003040600050800030020065020004,674352918391847562582916437426793185138564279957281643243679851819435726765128394
090240307003006000540800069050090800600020931008067042400000003017050000800001204,196245387783916425542873169251394876674528931938167542425689713317452698869731254
006100004090080000000040192708620400005013006002400038054070360100300020870001005,526139784491782653387546192738625419945813276612497538254978361169354827873261945
000000120000869705054000006000080530310276890009150000020400307900530060480017000,698745123132869745754321986267984531315276894849153672526498317971532468483617259
009703201502006040000900706008600004400058910000002003901034078000100000634500090,869743251572816349143925786398671524426358917715492863951234678287169435634587192
000001093079500640030800200000047020000600589126900000093080000200060308050204017,562471893879523641431896275985347126347612589126958734793185462214769358658234917
000072850003940002017000400001608039080100004360090080009050076026000000040003005,694372851853941762217586493471628539985137624362495187139854276526719348748263915
000008604600910050032450700070030129028109036000000000009700000005602408807040010,751328694684917253932456781576834129428179536193265847249781365315692478867543912
050300790000008200138009006003010000600700321070000960806005000507400009004920680,452361798769548213138279546943612857685794321271853964896135472527486139314927685
060402301807001400020000050050600004903000600006057018005040020400163007070900803,569472381837591462124836759758619234913284675246357918395748126482163597671925843
002050041001000700500900608345706000006040900090328000030000050010082407004031209,962857341481263795573914628345796812826145973197328564238479156619582437754631289
000208060096053070200000304640001000030090802100500009900080120010074003503010087,357248961496153278281769354649821735735496812128537649974385126812674593563912487
006100409004307005010690200300000000060008750042060810290070001000823607007005340,836152479924387165715694238378541926169238754542769813293476581451823697687915342
840069000103004007070503002004180520620007030000000064007000903065000040090235100,842769315153824697976513482734186529629457831581392764217648953365971248498235176
006043800000800020370200900002000105109706030040950270001000004600430502080017060,926143857415879623378265941762384195159726438843951276531692784697438512284517369
800062005000400600003180040560034900100850074007201060902007000430009810050000003,874962135215473689693185742568734921129856374347291568982317456436529817751648293
906810000020004307000930800008005406300140502150070000002600005480000020000009703,936817254821564397547932861278395416369148572154276938792683145483751629615429783
008001000400060020510090647200300000050004900630512080300007019007020053000908406,768241395493765128512893647274389561851674932639512784386457219947126853125938476
004100053730200060000000048100924007006001000903005801080030000062809504001650002,824196753735248169619573248158924637276381495943765821587432916362819574491657382
009587360002600000070000150008952704000400600010030085060040230907200500003070090,149587362352691478876324159638952714795418623214736985561849237987263541423175896
200004031090802050450060070300026980680000300007400000039000600000519040701080002,276954831193872456458361279315726984684195327927438165539247618862519743741683592
005020047000015000806000103080070000000601720060408509103904860059003001200000305,315826947497315286826749153981572634534691728762438519173954862659283471248167395
604050700003241800000009000800100603005097104300008079019080320480005006006002500,624853791973241865158679432897124653265397184341568279519486327482735916736912548
501600093000310702700800500020907000000000000940250068603000007005003041870029030,581672493469315782732894516326987154158436279947251368613548927295763841874129635
003007000000400920760019004059000100180056000000078006800030250920040703075000801,493287615518463927762519384659324178187956432234178596846731259921845763375692841
040000298800050310002009000900080056000062001307045000250076080070301900104000072,543617298896254317712839564921783456485962731367145829259476183678321945134598672
300007406002900013580060097600153024070080050100000000030600900050400800207010065,319527486762948513584361297698153724473286159125794638831675942956432871247819365
680107050052080003100400000048000032003040970001950600000002009305006027076000180,689137254452689713137425896948761532563248971721953648814572369395816427276394185
200040057400000609070301080520700036000085490910060000000698503060020000007000102,281946357453872619679351284524719836736285491918463725142698573365127948897534162
070002000600508001084310590093780020007040918000600004020065480008100700300020000,175492836639578241284316597493781625567243918812659374721965483958134762346827159
000290867300040020096800100503980600407001000000000501030005080905070200860420003,154293867378146925296857134513984672427561398689732541732615489945378216861429753
695004030000090145000072000100008900800260010004750080060023408010000600037085200,695814732782396145341572869156438927873269514924751386569123478218947653437685291
590000200018040003600038900805006400060917002021000030700080049000003506000192370,593761284218549763647238915875326491364917852921854637732685149189473526456192378
000000015067048900030200000408300002095004078200065000900052004301900000002010680,824639715167548923539271846418397562695124378273865491986752134341986257752413689
008400061305002000007903080640059720080704000902010500030601002000000043054008970,298475361365182497417963285641359728583724619972816534739641852826597143154238976
085064000400300070790050060001500002300407000050208340006000807810003520000801039,185764293462389175793152468941536782328417956657298341236945817819673524574821639
800060090000200700705049100080000970031005026609812400200008500900003010000056083,814567392396281754725349168582634971431795826679812435263178549958423617147956283
008206710941700030000003804073050000090001006520470090007000085080034100000090040,358246719941785632762913854173659428894321576526478391437162985289534167615897243
570008000004200001200610490010040502800950046060800700320100070700030608000780024,571498263694273851283615497917346582832957146465821739328164975749532618156789324
000920500008001306700056020900000150406010000000073209509004870370800040010000600,643928517258741396791356428937682154426519783185473269569134872372865941814297635
910800200000030010004702905803090004006501003027000006009060050031200080060350700,915846237672935418384712965853697124496521873127483596749168352531274689268359741
007000080009065100040209007900001450502090006460300001030402800000010032700008604,657143289289765143341289567973621458512894376468357921136472895894516732725938614
090702048360001000000400035109060700240100000075009803007508902000070000010920450,591732648364851279728496135189365724243187596675249813437518962952674381816923457
040201078001375260000600009106840000093007000800503907300700040000012005200008600,645291378981375264732684159176849523593127486824563917319756842468912735257438691
005000963809036005040000017000005600980070020002480301300008090010054000006320400,125847963879136245643592817437215689981673524562489371354768192218954736796321458
800050103002007400500006008007310085690400000001200970040780060009040510163002000,876954123912837456534126798427319685698475231351268974245781369789643512163592847
002807010900603008001450009000000030540028007069040100007001824050030060210700000,432897516975613248681452379128976435543128697769345182397561824854239761216784953
080705000000003900370820000005900068410037002607200310002089400000000056051004070,184795623526413987379826145235941768418637592697258314762589431943172856851364279
000097010478002000000030402947050600100008950005700003250601039700320061003000080,362497815478512396591836472947153628136248957825769143254681739789324561613975284
400090600286001307539007000960025080000360405000708000050002019800100020700050004,471293658286541397539687241967425183128369475345718962654832719893174526712956834
002984000010600070000000680003700060008002095100049007301050040540107820620008300,762984513815623974934571682293715468478362195156849237381256749549137826627498351
300600019000020005875009060104000070900860432008300090020400180006905304000017000,342658719691723845875149263134592678957861432268374591529436187716985324483217956
000100508030024000791600004006090007103070250000008400040250010508760000200001030,624137598835924671791685324456392187183476259972518463347259816518763942269841735
401802009730910400000060530100340006085000000000576020004609803300004060802000700,451832679736915482298467531127348956685291347943576128574629813319784265862153794
470000600103000208020600490000079501006203000904068070008010000200340080500007930,479582613163794258825631497382479561716253849954168372638915724297346185541827936
070208560001090200803560070097400030400050000000173006310900050640030901050080020,974218563561397248823564179197426835436859712285173496318942657642735981759681324
000500900020090460068040001032000005000020098104300007300460209005002070040781006,473516982521897463968243751832679145756124398194358627387465219615932874249781536
