620300001401086700039004600005060200003908067000403000007000000800009502002170049,628397451451286793739514628985761234243958167176423985597842316814639572362175849
000004006050860009000709280006000100020015400048632500902000805087001030360270010,879124356251863749634759281596487123723915468148632597912346875487591632365278914
000080006000030475402100000860950300905800207010467000090700001700001900038000002,379584126681239475452176893867952314945813267213467589594728631726341958138695742
070008500009500412005060007000030000020906780801004029008400061400397050253000000,372148596689573412145269837967832145524916783831754629798425361416397258253681974
106083020009004605402050701908007100000320000700190304003001006000006548500070000,156783429379214685482659731938467152641325897725198364893541276217936548564872913
000704005010093000870560040260385100049006000100000307002950008450001020000400603,926714835514893276873562941267385194349176582185249367632957418458631729791428653
200018040040000029006700005008003206069004130120000070000307000850020903004596700,235918647741635829986742315478153296569274138123869574692387451857421963314596782
002400900930010005040003806090350002003806070186047000000509007060020100709030504,672485913938612745541973826497351682253896471186247359814569237365724198729138564
000708065009000023700096004904000058037800601200519000092134000006000030470200800,341728965689451723725396184914673258537842691268519347892134576156987432473265819
200000730005310420006008005472500001008967200003040000500700860001090004090430050,219654738785319426346278915472583691158967243963142587534721869621895374897436152
002078350160302780000400069000500006037040100258030040000080093080001070094200500,942678351165392784873415269419527836637849125258136947521784693386951472794263518
965081030000700080007030090200350000490200100083000067020007506009000004710640300,965481732132769485847532691271356948496278153583914267324897516659123874718645329
070003965030070000102080030007640000500000809920000140060708300004205090005031002,478123965639574218152986437817649523546312879923857146261798354384265791795431682
900604000050001043040850200080000615605000000130020908360100090008732050002409807,923674581856291743741853269289347615675918324134526978367185492498732156512469837
070000386010002000008400100020030041095600070000007508900104607530008029400900005,274519386619382754358476192726835941895641273143297568982154637531768429467923815
600010300003000040900470026200800150005090070701640080050300269804100700090052400,642518397573926841918473526269837154485291673731645982157384269824169735396752418
000027031060800000520619000200400703806300490007000020030100007004065009958040010,489527631761834952523619874295481763816372495347956128632198547174265389958743216
708904002400153000600002901000600105185000004309000200000200080000501709024038006,718964352492153867653872941247689135185327694369415278571296483836541729924738516
290008500070005364000031002300640807009000100605000090067083029004520710820900000,293468571178295364456731982312649857789352146645817293567183429934526718821974635
000700900040583200030000018309064080026000007015037020650402003080059001100000400,568721934941583276732946518379264185826195347415837629657412893284359761193678452
108000600030028040050009037092050010084700005000406200001030059470000000003560178,148375692739628541256149837692853714384712965517496283861237459475981326923564178
702010003000002850003894000001600409400000061059300007100057020005908604240000700,782516943914732856563894172821675439437289561659341287196457328375928614248163795
000040000800270650006800910040701800007023006000000205030950420290004000170000003,759146382813279654426835917542761839987523146361498275638957421295314768174682593
001800530500040000290001067000120476400080200070005098627500009080039002003000610,761892534538746921294351867859123476416987253372465198627514389185639742943278615
308010000090000030024805010030142009207009041000680500072000300001760850600400090,368914275195276438724835916536142789287359641419687523872591364941763852653428197
201060008070001300000407009430020980082036510000000600340050000120004050600908040,291563478874291365563487129436125987982736514715849632348652791129374856657918243
061005030900230060800400501078160009000980072400003000200000680507009040030010007,761895234945231768823476591378162459156984372492753816219347685587629143634518927
400075061013000200500080007900300000020409800004760050009000402081504730300601000,498275361713946285562183947975318624126459873834762159659837412281594736347621598
910830005050000306000002079160070500309100200005004810000008040680007002072591000,917836425254719386836452179168273594349185267725964813593628741681347952472591638
060001009403000820190402700700900400000050080006240035080500003021086570304000160,562871349473695821198432756735968412249153687816247935687514293921386574354729168
006090001090200050807006309009053020408060107012004900600400080000031406030080700,546398271193247658827516349769153824458962137312874965671429583285731496934685712
004501200900000030100620408310090050040700006867004900000080000090007025058240107,784531269926478531135629478312896754549712386867354912271985643493167825658243197
001600080053000700000032049004201607600083012090005000006974100020508000007000405,941657283253849761768132549384291657675483912192765834536974128429518376817326495
068207130090060007700504020002010600400300000003820075040038002306050800907000051,568297134294163587731584926872415693459376218613829475145938762326751849987642351
700600040402008051850010020090040508075009200200070306080300009103060000064085700,719652843432798651856413927391246578675839214248571396587324169123967485964185732
000800003720401080530027004000000519000700060004065300806900200143200907007000046,461859723729431685538627194672348519315792468984165372856974231143286957297513846
007240038600009405300060120060007900520430080018000040005600013040180000900072000,197245638682319475354768129463827951529431786718956342875694213246183597931572864
507206000809100003001000457010007098700050160020010000008060004600038509000702030,537246981849175623261389457415627398783954162926813745398561274672438519154792836
902076508503000640070100000405601003008400050700003980604700030000032009200000801,942376518513928647876145392495681723328497156761253984684719235157832469239564871
008020300001500096950000402069014030070030800830007010002700900600080075010350060,748926351321548796956173482269814537174635829835297614582761943693482175417359268
000508094000302700604000830002000060013027000540183007030010080780000615000090200,327568194198342756654971832872459361913627548546183927235716489789234615461895273
518400600000002080009700504072380000951000003800040021604905017003000260700030000,518493672347652189269718534472381956951267843836549721684925317193874265725136498
010072043800401600003000150708006002590000004000053098200095070040100005907860000,619572843875431629423689157738946512592718364164253798281395476346127985957864231
200600100040980600090235000350000427906040013700000000005710004130009875000020060,283674159547981632691235748358196427926847513714352986865713294132469875479528361
000042010060000300045800920900010548002094701700600000058009000400001036021703450,873942615269175384145836927936217548582394761714658293358469172497521836621783459
450700000080230600200010038015098040690002083000005007140000090030960750070000861,453786129981234675267519438715398246694172583328645917146857392832961754579423861
700000291902001300064003080600080005030096810090050740009405000010800050008269000,753648291982571364164923587627184935435796812891352746379415628216837459548269173
004062010003008207050900080790001500000034608000800002307010009240500060600070023,874362915963158247152947386798621534521734698436895172387216459249583761615479823
700300092130068700200000680620409001000080430500071809070000005890100047400023000,786345192139268754254917683628439571917582436543671829371894265892156347465723918
008502004000900700097640803070008016800005070160007200342000901010000600500209030,638572194451983762297641853973428516824165379165397248342756981719834625586219437
058700203640000009090052081280006000007031900000890406000920030004300700501000002,158769243642183579793452681289546317467231958315897426876925134924318765531674892
400008600009700082103526009900030070006907010050204060600053020072000435040800000,427398651569741382183526749914635278236987514758214963691453827872169435345872196
102900000090004572500030940000068120870000364300701000009052038710400006000690000,142975683693814572587236941954368127871529364326741859469152738715483296238697415
100670340006400009007009508700000200004830607830000050052900014000000030910705800,195678342386452179247319568761594283524831697839267451652983714478126935913745826
801090400073000080000021630500700200090460500704009301000084902605070000008000046,861397425273546189459821637536718294192463578784259361317684952645972813928135746
500060207470500000001043000094001083005030006700809120000420010006010090300007005,539168247478592631621743859294671583185234976763859124957426318846315792312987465
003400001400726000007010200105070800090580037020009060300001095086000400070305602,263458971419726358857913246135674829694582137728139564342861795586297413971345682
001020073000005600890040000042000900000590360039000501060014708100800000003700405,451926873327185649896347152542631987718592364639478521965214738174853296283769415
109008047070000002840000010300400260095160080000307004000005370008090005052040096,129538647576914832843276519387459261495162783261387954914625378638791425752843196
060800001005300860000010705890040206607001000050072109000130904002059000008204030,769825341145397862283416795891543276627981453354672189576138924432759618918264537
010704006020100900807000350090018000503600002601400098039050070400360000002001800,915734286326185947847296351294518763583679412671423598139852674458367129762941835
000209010305080700940071003090640280086050004003000100050307090008000040200064570,867239415315486729942571863591643287786152934423798156154327698678915342239864571
107050800900860300020000100060307000400590007300000640048012050003604701702930000,137259864954861372826473195269347518481596237375128649648712953593684721712935486
080003012000400700095020600030640000000907265000081009010005403452060801078200090,684753912123496758795128634539642187841937265267581349916875423452369871378214596
500300600100920403003008700690012040007000528004035001080050200900000076401007090,549371682178926453263548719695812347317694528824735961786159234952483176431267895
600003025008067900904510006100000000000020390400358060020000000570140208000089701,617893425258467913934512876163974582785621394492358167821735649579146238346289751
308700020076002000504036019063084090700350000000009041280900005007043082005100006,318795624976412853524836719163284597749351268852679341281967435697543182435128976
800700036301002050970061002000010007039078060400900520040005000200040080100803904,824759136361482759975361842682514397539278461417936528748695213293147685156823974
007001508014005670006039120360080000750200400008090000000400716000000049021006830,237641598914825673586739124362184957759263481148597362893452716675318249421976835
000720930800014206040006005300000080006805047100670000001903700270001350090280000,615728934839514276742396815357149682926835147184672593461953728278461359593287461
031000007004018006060073020010804900000000050050902040000205030749000500000001869,531629487274518396968473125612854973493167258857932641186295734749386512325741869
924000050000000907035010080390004200000700004087025100000506400009087060058300019,924678351816253947735419682391864275562731894487925136173596428249187563658342719
000800056089004010031705200200008700000061034004000090070030509100000600320509081,742813956589624317631795248213948765957261834864357192478136529195482673326579481
500139400010000096000206308000502000000367021008090700160048053904010007050000060,586139472213874596749256318371582649495367821628491735162748953934615287857923164
300800000002140006008300970900017500065030000000005234076500090020090840801020003,319876425752149386648352971934217568265438719187965234476583192523691847891724653
010802030000053670097000008054019003206007090100500006860730004900001500000400082,615872439428953671397164258754619823286347195139528746862735914943281567571496382
170309800004650301000020064807590000021003006090008540068004020930102000000700000,176349852284657391359821764847596213521473986693218547768934125935162478412785639
020970040107580060950006007000000010004730806700610509090001300308050400000098002,826973145147582963953146287639825714514739826782614539295461378368257491471398652
000006400000300508104270000000820070786430001231060009073900600060080195000005002,398156427627394518154278963945821376786439251231567849573912684462783195819645732
856000007070050030020410800001003000900000280203096504400800609010029070000504001,856932147174658932329417865541283796967145283283796514432871659615329478798564321
073506012950007300000080060002050038060721005094008700000002006605094100007300040,873546912956217384241983567712459638368721495594638721439172856625894173187365249
000014620003060807200000000800007300004090000600850190107500983030182705060009400,785314629913265847246978531891427356354691278672853194127546983439182765568739412
012000600706001035009000008000820050650140270400703009390002700085060090007300014,812935647746281935539674128973826451658149273421753869394512786185467392267398514
002060057400002003197080004700019200030040800906300700010030000250900410804005060,382461957465792183197583624748619235531247896926358741619834572253976418874125369
050198200700400500098027060030005106062009000000012094083060040500083000910000803,654198237721436589398527461439875126162349758875612394283761945547983612916254873
032091040050200080600400037098060000320007160007805400900010600000070005001084320,832791546754236981619458237498163752325947168167825493983512674246379815571684329
700001005042080009006250830009004520310009080000000701480700610020003047001062000,738941265542386179196257834869174523317529486254638791483795612625813947971462358
670200900300009020090745080510608740900034100080000005000852076004001000002000390,675283914348169527291745683513628749927534168486917235139852476764391852852476391
600040185041000002900006700004017609250800000060000030700005004000309826300420090,673942185541738962928156743834217659259863471167594238792685314415379826386421597
074003015090076800003020000080000073200468090516000000000001720001840000360052049,674983215192576834853124967489215673237468591516397482945631728721849356368752149
600394000001006708205000090706008020420000301000400057300082100098700045000001060,687394512941256738235817496756138924429675381813429657364582179198763245572941863
150980030000061704009003005042000003700640200805007060000092180910008007003100500,157984632328561794469723815642815973731649258895237461574392186916458327283176549
049050070050039200000600850370020940000380000400900306086502007020410690700000001,649258173851739264237641859378126945965384712412975386186592437523417698794863521
500000100346000002000354080090600451050079000102008006910402007000010903470806000,589267134346981572721354689897623451654179328132548796915432867268715943473896215
020005074900000800500601000340070008800009006075104200006410032230007000008350100,123895674964723851587641329349276518812539746675184293756418932231967485498352167
806500001010400650097001000000200300300095470000780092630000204082960530004310008,846539721213478659597621843971246385328195476465783192639857214182964537754312968
002401908450007000009206050020900003000038170160024005001060000900570040030000687,672451938458397216319286754827915463594638172163724895741863529986572341235149687
274003801003008000010600050007040000450090130090860002009500200680130007100020906,274953861563418729918672354827341695456297138391865472749586213682139547135724986
009800301408700900060200005500001009903000100040305760030902007001006840620007000,259864371418753926367219485586471239973628154142395768835942617791536842624187593
000006083050190020704000901896000200000001040400250700030640000209700506080923000,921576483358194627764382951896437215572861349413259768137645892249718536685923174
