000060000700005400400003528390007840002100076000294001270900605036070100050080090,825469713713825469469713528391657842542138976687294351278941635936572184154386297
100084020207600005000010390806390700090000030005760041018006000603102500900070004,139584627287639415564217398846391752791425836325768941418956273673142589952873164
010602000004300800086500730309000458008209000070000060001007005900100380450060209,713682594594371826286594731329716458648259173175438962831927645962145387457863219
401009300000030460007001020845010000209300006060572900506083210008204500000000087,481629375952837461637451829845916732279348156163572948596783214718264593324195687
100280009004006300030700015020000003009604072087005460002360097050008000670090080,165283749794156328238749615426817953519634872387925461842361597951478236673592184
300600010002040008005170604600000831070580000009004250090002040008050190400700006,347628915162945378985173624654297831273581469819364257596812743738456192421739586
690032001007180492000500006800040030206300045300090200402950700001700800050064000,698432571537186492124579386819245637276318945345697218482951763961723854753864129
070010600009083000600005209000530401200006073801004900042050080007001004903060502,375912648429683157618745239796538421254196873831274965142359786567821394983467512
500300760071400083090002000040009010800670005200003904002801030037020400406000050,524318769671495283398762541743259816819674325265183974952841637137526498486937152
000480005007120080040003009950000370000092008203706014400000596800070000002910000,329487165567129483148563729956841372714392658283756914471238596895674231632915847
350000008200300490940060020000830005570041000068002071800470100010200900032050064,356924718287315496941768523129837645573641289468592371895476132614283957732159864
090730010200460050003080007064000001805300000700520036000047065001690480008002900,496735218287461359153289647364978521825316794719524836932847165571693482648152973
001080507089307200006000000508610090043270001000049008000062030020004769300100800,231986547489357216756421983578613492943278651612549378894762135125834769367195824
007000860010048093930602000093065070800100200270000030020010007060904081009703004,547391862612548793938672415493265178856137249271489536324816957765924381189753624
009002301006307000004006097701000045050000020420010603800903000300400089090780002,579842361186397254234156897761238945953674128428519673847923516312465789695781432
206010090004000385003007006600078200710003600005201000307004000090530000000002410,286315794174629385953847126639478251712953648845261937327184569491536872568792413
209570400608003100001000000700410903300087020000300006020096004953008010010205807,239571468648923175571864239765412983394687521182359746827196354953748612416235897
500030900009000847000028010070100054630572000000800002040005608201390000906004001,518437926329651847467928513872169354634572189195843762743215698281396475956784231
805600207210038000700540000490080006000000500030014090001050062604000300052007819,845691237219738654763542981497385126128976543536214798971853462684129375352467819
000900050030041002196020070000190240500800060704500309067050010008603007200000800,472986153835741692196325478683197245529834761714562389367258914948613527251479836
306080400000000100087095000000002000002600847934007025009100062200000080051063090,326781459495326178187495236678542913512639847934817625749158362263974581851263794
793206010802019040000070000400050090630001500017030004000800901960020050204000067,793246815852319746146578239428657193639481572517932684375864921961723458284195367
059074300014000690700080020008045700000810402603200000070060050000009100465003008,259674381814532697736981524128345769597816432643297815971468253382759146465123978
280010000005060090000000604004093008108600520630100000029054010340900807507030900,286419735475368291913572684754293168198647523632185479829754316341926857567831942
500200000086701000030090680395040201600000700007100340068300400000009070014685920,579268134486731592132594687395847261641923758827156349968372415253419876714685923
500004807080002941700900002005010400423605000001803720030060008000000090600591003,592134867386752941714986352875219436423675189961843725239467518157328694648591273
008300405030280000400057200001002070042106030009078006800600009097000300560009041,278361495935284617416957283681532974742196538359478126824613759197845362563729841
700030021108045900635009070000063190400500006000001804046017200000206000300800005,794638521128745963635129478857463192419582736263971854546317289981256347372894615
027010000006200810800050049000070523070003106001002900050400630008097000402380000,927814365546239817813756249694178523275943186381562974759421638138697452462385791
008000201000028000510073000040002030070065018109030070307050906600000000050480007,738549261496128753512673894845712639273965418169834572387251946624397185951486327
006003958500109700023007000300040100840700209001006080492085007057002094000000006,716423958584169732923857641369248175845731269271596483492685317657312894138974526
020053040003060190000702580302640001080100600050207400740000300600090050000801900,821953746573468192964712583392645871487139625156287439749526318618394257235871964
005007004780109300130020009000008030410060500897000002060740810000290405001300000,925637184784159326136824759652478931413962578897513642269745813378291465541386297
320701090040602080070000300400507000001080009093000405087024030600000020005069001,328751694549632187176948352462597813751483269893216475987124536614375928235869741
002003070040150630650004908917302006030600401200080000006205083000090000008400100,182963574749158632653724918917342856835679421264581397496215783371896245528437169
090731004800600000020000530100304205045000001000900608087209100053007069600000700,596731824834652917721498536168374295945826371372915648487269153253187469619543782
036000080007000005800123007040780090090002006000036510004050032970001608063090040,236574189417869325859123467641785293395412876728936514184657932972341658563298741
035069040000001850020000706760803010090200003000005290900076500000430001401000068,835769142647321859129584736762893415594217683318645297983176524256438971471952368
004007052050600100309800000748500006000021340000080090060000830002310465005004701,684137952257649183319852674748593216596721348123486597461275839972318465835964721
500230000060008549100096000000081003720600001000000460401000250208403006950007800,597234618362718549184596372645981723723645981819372465431869257278453196956127834
020034050009001804070500360200070040087029001901003006600047210300906000005800000,826734159539261874174598362263175948487629531951483726698347215312956487745812693
805009301006000094400030000008400003004700029710028050007300608060080002200104700,875249361136875294492631587928456173654713829713928456547392618361587942289164735
507308490200050308400060010000100807000283041060500200003700000702049000009000065,517328496296451378438967512324196857975283641861574239683715924752649183149832765
003105700008040006050073910000400120002097000560001403700020090940600050300000608,293165784178942536654873912837456129412397865569281473786524391941638257325719648
602000097940700120053002800100009306060205000800400250089000705000040000200038010,612384597948756123753192864125879346364215978897463251489621735531947682276538419
000590400200800170067040308708126000300000050040930207000008709001002006682070004,813597462294863175567241398758126943329784651146935287435618729971452836682379514
603800040000004015010270080500320704920107006060000020708005900050608001000000003,693851247872964315415273689581326794924187536367549128738415962259638471146792853
097000000140000580600400203950601800000003067708002001509200700200308010036050490,397825146142736589685419273953671824421583967768942351519264738274398615836157492
570000004064501000000706038900008076800020400051400009025390087700200000090060051,578932164364581792219746538942158376837629415651473829125394687786215943493867251
080032060052000410701000908540070000000508609063091700470800000000410002020009350,984132567652987413731654928549376281217548639863291745475823196396415872128769354
060900370400005000092036810076109200030060040080200907001084009008007056300000420,865912374413875692792436815576149283239768541184253967621584739948327156357691428
200041000039006000000300726375000819001000430820000005040270061056004200100095007,267841953539726184418359726375462819691587432824913675943278561756134298182695347
503060000010000400067051308975400130000200000080710540030009806008047090206130000,523864971819372465467951328975486132341295687682713549734529816158647293296138754
800040090002608051703000400008572064095360080070801000400000006100009270000120300,851247693942638751763915428318572964295364187674891532429753816136489275587126349
030000804205900130079018600000005000008400070503007912020040056061700000000290700,136572894285964137479318625792135468618429573543687912927841356861753249354296781
060038000897400036500009002000280090210060005930000400704002100600005084001700050,162538947897421536543679812475283691218964375936157428754892163629315784381746259
006300089040001726070800100000195830018040260500006000395000000002600510400072000,156327489843951726279864153624195837918743265537286941395418672782639514461572398
230100008040900070109830052500210090700000840096000001000705230804093500007000600,235147968648952173179836452583214796712369845496578321961785234824693517357421689
604008072020046300000705800362000509908010004400003000000387900701060008009050060,654938172827146395193725846362874519978512634415693287546387921731269458289451763
093074050081000000000100207008002063009010528500063004010240070367090000000036905,293674851781325649456189237148952763639417528572863194915248376367591482824736915
000000620042108500530002070001890005000005403800064900720050001360000000900007840,187539624642178539539642178471893265296715483853264917728456391364981752915327846
903020000800903607000160004020090000104500060309074205700845130610000802000000750,963427581841953627257168394526391478174582963389674215792845136615739842438216759
507002160340800005080009000001600900050020470029753006000070030004100009803406501,597342168346817295182569347731684952658921473429753816915278634264135789873496521
503902670069000020400003150000087300900050000020000846004130000007006501006098200,513942678869571423472863159641287395938654712725319846284135967397426581156798234
070050000900400086000306700006080240812000009000015063503900407001040900200870015,674158392935427186128396754356789241812634579497215863583961427761542938249873615
827010040000000500650009107000902060480700290100036700004500810300074005009600300,827315649941867532653249187735982461486751293192436758274593816368174925519628374
900030201060978000043005000100893050500001002007200063050002700000040809078610004,985436271261978345743125698126893457534761982897254163459382716612547839378619524
000045008960003100010000732086000070230098450100200000701506090040982000805010300,372145968968723145514869732486351279237698451159274683721536894643982517895417326
060500000090174060021009008800067004000020507903000000600350700400200001015006089,764582913398174265521639478852967134146823597973415826689351742437298651215746389
010904800008070400090100756300607090700008501102409000800205603006000070004030028,517964832628573419493182756385617294749328561162459387871295643236841975954736128
702806000090030000560000304203001005005024009480007100006108020040092807000050010,732846591194735268568219374273981645615324789489567132956178423341692857827453916
087960520900005040005030800102070600500000208060500097040009300718400000009620001,487961523931285746625734819192378654574196238863542197246819375718453962359627481
000090068108000507000300020500100200016007300900486000050270600630001400074903010,342795168198642537765318924587139246416527389923486751851274693639851472274963815
007086403450300009100050000000000060080205730703010800060890000000400102920071086,297186453458327619136954278512738964689245731743619825361892547875463192924571386
300870020104090500020003006050410700079050480000600009000760940901008003005000208,396875124184296537527143896853419762679352481412687359238761945941528673765934218
007900350010080000069104200090003800051020007082750140000605702000370096004000580,847962351213587964569134278796413825451829637382756149938645712125378496674291583
150273000000060005092010380700320050004150730020900600000548001800000079260000040,158273496437869125692415387716324958984156732523987614379548261841632579265791843
001080009976502000300000700702040830008007006054130020500409100009026400060001003,241783659976512384385964712792645831138297546654138927523479168819326475467851293
060000400800040079500001200001792300030100600950080004000005020087309500410807006,169278453823546179574931268641792385738154692952683714396415827287369541415827936
230080079001009050409006200005342000900500021000800006070050802060070403804100700,236485179781239654459716238615342987948567321327891546173654892562978413894123765
802001703400580000000002006061004000000903050500068079080079402314000060090100035,852691743436587291179432586961754328728913654543268179685379412314825967297146835
090078054408100270000620900600000001307900560004002380570000020103089000040703000,296378154438195276751624938625837491387941562914562387579416823163289745842753619
008024050000710200074006900060000403302009000851400060000590070913200008500308106,138924657695713284274856931769185423342679815851432769486591372913267548527348196
000063040908005000070810020305900700060058430020000901041076500090402060003000070,152763849938245617476819325315924786769158432824637951241376598597482163683591274
401090800930006070060380040059001006040000200702000058300027001286040005005069000,421795863938416572567382149859271436643958217712634958394527681286143795175869324
000005020087300004320009657700060300100000082090001500014000008002903000650840900,469175823587326194321489657745268319136594782298731546914657238872913465653842971
200300750300004090180700306000408672029005004008001000040500820030100900650902003,294316758376854291185729346513498672729635184468271539941563827832147965657982413
302000074100070520060009000890023600020900013500407000070034005008006049006500001,382651974149378526765249138894123657627985413513467892971834265258716349436592781
001080700090000520085036040004070009002008036030604150063015800010002394040700000,421589763396147528785236941654371289172958436839624157963415872517862394248793615
002408067000500240930000001070605300085000090010207806501070409700300020048021000,152438967867519243934762581279685314685143792413297856521876439796354128348921675
372000000800006590000043000210038406004650008090700351067009000000500180009010047,372195864841276593956843712215938476734651928698724351167489235423567189589312647
340005000908002050700190002001079045020040160500800000400601090060080310009300200,342765981918432657756198432631279845827543169594816723473621598265987314189354276
009004070300000425000560308900000000540090807602103000081700604706001952000032000,859324176367918425124567398918475263543296817672183549281759634736841952495632781
006050001300001980008047205003000008740900100600020390502480000009070400000600072,426859731357261984918347265293716548745938126681524397572483619869172453134695872
307005029100300000002080074010090008608004205075026030490130500000400617050008000,387645129149372856562981374214593768638714295975826431496137582823459617751268943
000824007206000000085003010000402673709500020000380900350700400040006180801000032,193824567276159348485673219518492673739561824624387951352718496947236185861945732
000004061012970080407005000200109800350800006070020009064500023001400000000001905,935284761612973584487615392246159837359847216178326459764598123591432678823761945
120050300039410506005000800902001003560809040000067000003000679001005002400920008,128756394739418526645392817982541763567839241314267985253184679891675432476923158
000301004501060072082590000000702400390000000020940861007010200040005608009800050,976321584531468972482597316618752439394186725725943861857619243143275698269834157
806004570004007900039520006000050060043719000100002793507090010000083000000100420,816934572254867931739521846972358164643719285185642793527496318491283657368175429
