094160020000098400100020706600534000720000003009000005810600530050200900000703084,594167328276398451138425796681534279725916843349872615817649532453281967962753184
001004300050000080207590006300060901009020070705800600000001568620003407014000003,891674325456132789237598146382467951169325874745819632973241568628953417514786293
000023080503008704009010062892100030004000000600700298001349000700200500040605100,167423985523968714489517362892156437374892651615734298251349876736281549948675123
030081570800600140000002009180050604004108250290007000650720030010034980000000005,436981572829675143571342869187253694364198257295467318658729431712534986943816725
045090671030018000070040030004061008310200700206000500580003090000000207900570400,845392671632718945179645832754961328318254769296837514587423196463189257921576483
001607800006320900079008002264500007000000003007041250700086045095070010080104000,521697834846325971379418562264539187158762493937841256712986345495273618683154729
090050800030040001608000025200701060005380700040600009800200003004500076176009000,492156837537842691618973425283791564965384712741625389859267143324518976176439258
070420000310090240005007009064002081000501400020009076900078150050300700001000032,679423815318695247245187369564732981897561423123849576936278154452316798781954632
000005009042307010509608300470002080361000900020500007090701045006000020700083100,837145269642397518519628374475932681361874952928516437293761845186459723754283196
300000054009010073065400009590040001200570040401603000000987200128050000000000360,312769854849215673765438129596842731283571946471693582634987215128356497957124368
072030050000608003040009600900052084120000005807001900001905072785063001003400000,672134859519678243348529617936752184124896735857341926461985372785263491293417568
008500017273800000000300400300090284807006900504000000000127005000054630010003090,948562317273841569156379428361795284827416953594238176639127845782954631415683792
000709300405006179000000085008100004249030500507000060600002730800407020001980006,186759342435826179972341685368175294249638517517294863694512738853467921721983456
091000400007002060030697000100400083005003607080026190700060538500000024240980000,691538472857142369432697851176459283925813647384726195719264538568371924243985716
009647080100005070000000245090023006600009800872000100306902000000480530204300007,529647381148235679763198245491823756635719824872564193356972418917486532284351967
490602100003000040010000702008710003526004900071005680000000000700421050600509408,497682135263157849815943762948716523526834971371295684154368297789421356632579418
000010700009583004014600009490030800067000003280001045500708102020095068000002030,352419786679583214814627359495236871167854923283971645536748192721395468948162537
680000009409007001000200080002039675000051340360000000000013094010560200807004050,683145729429387561571296483142839675798651342365472918256713894914568237837924156
007400029600100304500060800028006040003027090710300080004001205370090001000750030,137485629689172354542963817928516743453827196716349582894631275375298461261754938
920506300000000500056204700001470000000080063300600109140000080700009200230048010,927516348413897526856234791691473852572981463384625179145362987768159234239748615
000460750010928000030700002500000460003005087046090200091206000407010600800500013,289463751715928346634751892578132469923645187146897235391286574457319628862574913
000960002007030010560010480000780630080003504102004079408029007603800000090000140,341968752827435916569217483954782631786193524132654879418529367673841295295376148
736009080058100020009040007004003000070680034000000715021050006900001502800007190,736529481458176329219348657594713268172685934683492715321954876967831542845267193
060094000204600013030200008007019030600008500098400027002000070300157200059030640,861394752274685913935271468427519836613728594598463127182946375346157289759832641
730005900004600200209300040000530000010020607007096080000408591800010002600000730,738245916154689273269371845486537129913824657527196384372468591895713462641952738
007106290000748500050000006100207630270060480590000001304070008000019000620805000,837156294962748513451923876148297635273561489596384721314672958785419362629835147
700020100090504003203600500400100080006085700020907010002350600100008307040006098,754823169691574823283691574437162985916485732528937416872359641169248357345716298
801005040900000705040020063253010084010058000070360090000006970306780002087004100,831675249962843715745129863253917684619458327478362591124536978396781452587294136
500100702607009040020806030740068100010000008000305900004000390850000007096041205,589134762637259841421876539745968123913427658268315974174582396852693417396741285
500732008000001020300004700690850400270000003051400070000200106108009054040600830,516732948487961325329584761693857412274196583851423679735248196168379254942615837
030060821028400000070500630480073090900005000017090065006809700043000019000000200,534967821628431957179582634485673192962145378317298465256819743843726519791354286
800407300030090070405610200000900420010078000360500790290000040158060000000020065,829457316631892574475613289587936421914278653362541798296385147158764932743129865
002480001405190000038000600000057100009604080070010032907000560603029004040300900,792486351465193278138572649384257196219634785576918432927841563653729814841365927
060700021230800000000001804080952600700100090520040003090586400650209700000003900,468795321231864579975321864183952647746138295529647183397586412654219738812473956
000914002070000081300807000710406000040002057080300200009261400025003108000000309,658914732274635981391827546712456893943182657586379214839261475425793168167548329
301007060029108007450000000208009015006080720000000340910060200500740090000201036,381457962629138457457926183248379615136584729795612348913865274562743891874291536
390000087407002060020050104700006000800193400006008513004070351000204090169030000,395461287417382965628957134731546829852193476946728513284679351573214698169835742
000060409020800000163900007014206000706010300900480500000001050050004072297300100,875162439429873615163945287514236798786519324932487561648721953351694872297358146
090360780805027010000400500400076190068090000700043002007000050200009036030152900,192365784845927613376418529423876195568291347719543862987634251251789436634152978
001000040002040675570008900000080000650304290048560010210400009730001020006079053,361795842892143675574628931123987564657314298948562317215436789739851426486279153
200781040009060080000204300460010050092000031001400907800000700030027500100905006,253781649749563182618294375467319258592678431381452967825146793936827514174935826
260100040031042006700005900605890004024600100000000078000083060097050802400000057,269178543531942786748365921675891234824637195913524678152783469397456812486219357
630108000007300104580070002010009008300840205200005690806400007092600000070092040,634128759927356184581974362715269438369841275248735691856413927492687513173592846
700039860001700902300002007010000380083500006002060409400605701050841000009000000,725139864841756932396482157614927385983514276572368419438695721257841693169273548
600502000000000048097600003050130060201000709000807010049308000800790050306004081,638542197125973648497681523754139862281465739963827415549318276812796354376254981
900005060035710000000209400020000004056100290000470008061000020004053170803000509,942385761635714982187269435728596314456138297319472658561947823294853176873621549
006087400008050030000903801500078002079000040184006003600501000320064079000000210,936187425418652937752943861563478192279315648184296753697521384321864579845739216
080140700020000846053607000900570620008064009200001003030058000007000050006309107,689142735721935846453687291914573628378264519265891473132758964897416352546329187
300650410570090000000780300100300009650940002007020630092005108006200004400060700,389652417574193286261784395128376549653941872947528631792435168836217954415869723
003000105605901004081063007020600830039072040000080001060400008904005070050290000,293748165675921384481563297127654839839172546546389721362417958914835672758296413
000008500809406020003290010408039005060020870057060400000180006295000700000000043,672318594819456327543297618428739165361524879957861432734182956295643781186975243
030502000010040600290017480740059100051600027803700090005003070000280046000000908,438562719517948632296317485742859163951634827863721594685493271179285346324176958
030802090502040301004003000100600078008059000063200400706000000200007153040980002,637812594592746381814593627125634978478159236963278415756321849289467153341985762
010000685900702300008600700004030290280007000600019040001006053400520068003040000,712394685956782314348651729174835296289467531635219847821976453497523168563148972
610750200090004608704000010300000002400006751070805039200040080030019506005003000,613758294592134678784962315359471862428396751176825439261547983837219546945683127
400350801030120960200007050604000190057400000921800000708010540090006370000208000,476359821835124967219687453684732195357491286921865734768913542192546378543278619
040009720000670300070105008810000506006700030250010900902000000004060851100830004,641389725528674319379125468817293546496758132253416987982541673734962851165837294
007003006302401700005009480000784109000500648020010007109000500063090002050047030,947853216382461795615279483536784129791532648824916357179328564463195872258647931
920080037600400010380950060430800690009301700000002400007060005850000020240039008,924186537675423819381957264432875691569341782718692453197268345853714926246539178
008004795009830100600000000013700000007940026000028500902005007800160900060007430,328614795759832164641579283213756849587941326496328571932485617874163952165297438
004080370397060001002009405000000080800230506056000102000014000903650000010800700,564182379397465821182379465231546987879231546456798132728914653943657218615823794
002801560560700100080004009037000800100000025400069007009017000605023740023080050,972831564564792183381654279237145896196378425458269317849517632615923748723486951
049080075000030400601005000297800060003917200050003080002040390000021708070006010,349182675785639421621475839297854163863917254154263987512748396936521748478396512
009000310002570000050098040008200070060801400040060900600015720790030008500004693,879426315412573869356198247138249576967851432245367981683915724794632158521784693
800420007003060000056703401720050309005102000040080560190348050080006790000000000,819425637473861925256793481728654319965132874341987562197348256584216793632579148
263800070004000351050090000090005830301600002540720006000000900810000064000017205,263851479984276351157394628692145837371689542548723196725468913819532764436917285
000100054040067001021900003000742300000000500608310090910000070307590046406008000,869123754543867921721954683195742368234689517678315492912436875387591246456278139
000070061700204800090010005050080070042500030003900046010806000085032019906000200,528379461761254893394618725659483172142567938873921546217896354485732619936145287
000060254240000009815090700100008025007024308000306400500003906309700010008000007,793861254246537189815492763134978625657124398982356471571283946369745812428619537
092030540100206000703840900908400001300500700000620080000700208004000079010008063,892137546145296837763845912958473621326581794471629385639714258584362179217958463
062070053000008049901000000500701804006043000037205900013024000790100008000300406,862479153375618249941532687529761834186943572437285961613824795794156328258397416
190000008050130420000760503002014037008050006900006000036002900700000080410070650,193425768657138429284769513562914837348257196971386245836542971725691384419873652
070350800080017050900006010002501003500200601047090082006409000200000904003008760,671352849384917256925846317862571493539284671147693582756439128218765934493128765
470003059060000108000900320800100000000004905290078006780209030020500004603081700,472813659369752148518946327846195273137624985295378416784269531921537864653481792
000000002008610034005309000170002600026075940040908010300701005001040080960500700,637854192298617534415329876179432658826175943543968217382791465751246389964583721
000000500002067480639500100098020000410005090070090613000000020041089007003106850,784912536152367489639548172398621745416735298275894613867453921541289367923176854
380007004006000090057103002000309016079005208400080900000060307030028560501000000,382697154146852793957143682825379416679415238413286975298561347734928561561734829
008065003050004020000130047000507900916002000020800000100000470073089050490020806,748265193351974628269138547834517962916342785527896314182653479673489251495721836
017409028082030910506000070070010034000600507004203800823500000009004000000160009,317459628482736915596821473678915234231648597954273861823597146169384752745162389
280400503060057900090080070500300008003028400120560090004096152000730000006100700,287419563361257984495683271549371628673928415128564397734896152912735846856142739
007309040640070010000002008090008006350406070006020380700000005029010004180203600,817369542642875913935142768291738456358496271476521389763984125529617834184253697
009052030760400020800109400040080700500070061900015200280600500007003608003040910,419752836765438129832169457341286795528974361976315284284691573197523648653847912
800600573004020960005710080040390008030004120091068007009400300026000040000050002,812649573374825961965713284247391658638574129591268437759482316126937845483156792
083001070490025080006700230020040913070600005100500000900280400050970120000004008,283461579497325681516798234625847913379612845148539762931286457854973126762154398
400050600027008053600290081001000009050600870074830000900005342003000010082001500,498153627127468953635297481861574239359612874274839165916785342543926718782341596
000005000782001004409873010030054920008600005001090030104700500000000470200306890,316425789782961354459873216637154928928637145541298637194782563863519472275346891
206703090093065004001002000004201780302080450000000000007030809010004070500100206,246713598793865124851492637964251783372689451185347962427536819618924375539178246
820065000060904102000030060009006408504207900006500003710008000000700234900050001,827165349365974182491832567279316458534287916186549723713428695658791234942653871
903050008006098340000302006069400210500000007802105000001860450370009600040000020,923654178156798342487312596769483215514926837832175964291867453375249681648531729
920060530013050400040890001050000907001000083060470000000602300700081005692700000,927164538813257496546893721258316947471529683369478152185642379734981265692735814
060074000000300108002090040071060980050200000306850007089600703030001462004005000,863174529495326178712598346271463985958217634346859217189642753537981462624735891
000760403089500160004003002600040001013009580200306070040902000070001639001050000,125768493389524167764193852697845321413279586258316974846932715572481639931657248
002560700507003100038000902064002300059040007700800040000074500000090068010306209,192568734547923186638417952864752391359641827721839645986274513273195468415386279
090020107500106000304000900000000200078003010201400875009601302780040060060508040,896324157527196438314785926645817293978253614231469875459671382783942561162538749
600900458524000039000001000070080000300700094405000720008570002009340610706020500,617932458524867139893451276971284365362715894485693721138576942259348617746129583
008570630010402907540600200000200760200030000030009501690000400853700000400025080,928571634316482957547693218189254763265137849734869521692318475853746192471925386
083005670970000100200830040000206000100050020008400753004002009050140080702060510,483915672975624138261837945537286491149753826628491753814572369356149287792368514
056003090104700200080145070500030001207000905000501480070400620301200800009068000,756823194134796258982145376548932761217684935693571482875419623361257849429368517
105093600004001080930004002006800007052000001400700950000056130860900040003020700,185293674624571389937684512396815427752349861418762953279456138861937245543128796
020907080500040700901500020006084002350600001040050970067001053000003408009800060,624917385583246719971538624796184532352679841148352976867491253215763498439825167
