000900000630100800140300275580060704076030090302000500007090420904025360000801000,728954613635172849149386275581269734476538192392417586857693421914725368263841957
007008009032000806600300140108030200070005900300020015004100090000560008590004070,417658329932741856685392147158937264276415983349826715864173592721569438593284671
020500807900030000470620010040000500201005400058071003800000605009200040010096702,123549867986137254475628319347962581291385476658471923832714695769253148514896732
630002050098105406010700009700601030000004068001050000050800203002000084904020700,637492851298135476415768329749681532523974168861253947156847293372519684984326715
908001364021000500600400008060807003375000402000500010009020006200053700003610090,958271364421386579637495128162847953375169482894532617519724836286953741743618295
600007150800060700042508009028905000000020003100034080005700296906100840000400010,693247158851369724742518639328975461564821973179634582415783296936152847287496315
000000076109520000802364100700000060001000438306950000004030092090086007580010003,435891276169527384872364159728143965951672438346958721614735892293486517587219643
800102007052907060009600030020085000367000800040060791000374000690000500170000204,836142957452937168719658432921785346367419825548263791285374619694821573173596284
304005001080009070000070082060207050120050430090080016500063948009142060007000000,374825691281639574956471382463217859128956437795384216512763948839142765647598123
002000007400915306009040080027001904300790800010600002081020000700050048060300050,152863497478915326639247581827531964346792815915684732581429673793156248264378159
020708000609200000070560140040001798000026310530080000050090603100000429804000070,425718936619243857378569142246351798987426315531987264752194683163875429894632571
060050300009704100207680000000900260105030078080000403031502090074000800500047000,468159327359724186217683549743918265125436978986275413831562794674391852592847631
020150706700360008090008030300070094408000000075820003100500420000030010654290007,823159746741362958596748231312675894468913572975824163137586429289437615654291387
200036500401000608500070190039652000806007000700400301000203000080001479004080050,298136547471925638563874192139652784846317925725498361957243816382561479614789253
490708200860000003705100000023010690600500100007000830250069070010007428004000009,491738256862945713735126984523814697689573142147692835258469371916357428374281569
001340008480020050003076190060054907902038600000000012509000203004613000800000470,691345728487921356253876194168254937972138645345769812519487263724613589836592471
960003015800000903000081000000094071359007400004250060073005200042100008500060004,967423815821576943435981627286394571359617482714258369173845296642139758598762134
260000090400392100010060035120089070006070004080006510000450680008001002750000003,263815497475392168819764235124589376596173824387246519932457681648931752751628943
000307600609005204208090050000150000002408300064070009900080006745000001010002935,451327698639815274278694153387159462592468317164273589923581746745936821816742935
800201000005940070402076000053000180607010029000002360010054000096003850004807601,879231546165948273432576918253469187687315429941782365318654792796123854524897631
601070000850906020004000130000007008980030054030209061206005003040102900570040000,621374589853916427794528136162457398987631254435289761216795843348162975579843612
500280004000100690300604502007020009080703205600098030401060000000000087009047020,516289374742135698398674512137526849984713265625498731471862953263951487859347126
089050403000020057600000000075104900023600170401900800040007026000048000092501300,289756413314829657657413289875134962923685174461972835148397526536248791792561348
540670300070000000860009025051700400004500096280000000090010680000903200307460100,549672318172835964863149725951786432734521896286394571495217683618953247327468159
400600091183900750002000003090000020035018000000407600200065800010002049078040360,457683291183924756962751483794536128635218974821497635249365817316872549578149362
020907000104300690098005042000800064075006183300000000200500000530061700060029400,623947851154382697798615342912873564475296183386154279247538916539461728861729435
500030497060290000087000003230600508059080200600700010103005064400008700000023900,512836497364297185987514623231649578759381246648752319123975864495168732876423951
000602507008000000070000190005016049600003050903058002480300000009201738000090026,194632587358179264276584193825716349647923851913458672482367915569241738731895426
001200070380007609040090000070004008600000310005329700120960405400500080060002100,951246873382157649746893521273614958694785312815329764127968435439571286568432197
800000600260050070007023080009134200000000001040067053002006107051040090693008400,835479612264851379917623584579134268326985741148267953482596137751342896693718425
001072009045000030900500160080009000672300000030628041700846500200100098000000370,361472859845961237927583164184759623672314985539628741793846512256137498418295376
098206100070051040000000308006073052300040007750020600000400096500009020120000480,498236175673851249215794368946173852382645917751928634837412596564389721129567483
370000806025903010006005300000304002900008504060720000000187005001006730480000900,379241856825963417146875329718354692932618574564729183693187245251496738487532961
028030100000600398700014000010005000307200460265008070006020009470100050000900684,628539147541672398793814526914765832387291465265348971856423719479186253132957684
006045010800300600047100050703000009092601008000080005270009430001806000050037200,926745813815392674347168952783254169592671348164983725278519436431826597659437281
080060021000200000000100853052870019009405200673000005060510908040000000100094036,584369721731258694296147853452876319819435267673921485367512948945683172128794536
000379000005081032008000400400230650106000070000040980700900000042650007901700305,214379568695481732378562419489237651136895274527146983753914826842653197961728345
060805079007000008000046000028610300090304105000009067830100006205000000040970200,162835479457291638983746512528617394796384125314529867839152746275463981641978253
800926000003000590704310008600049087007000605128007300000500002000073010010062004,851926473263784591794315268635249187947138625128657349476591832582473916319862754
014700020003002409000030050070851006600900005140006800080605030006004082902100060,514769328863512479297438651379851246628943715145276893481625937756394182932187564
002503406031004700090006020320708005500020600004030001000900067708040090050000104,872593416631284759495176328326718945517429683984635271143952867768341592259867134
020010385705980014000006007100053702007800160043020090090040006300100050500070830,926417385735982614418536927189653742257894163643721598891345276372168459564279831
090204060200100304750060000908020107600009405000073006030000001810605009402080000,391254768286197354754368912948526137673819425125473896539742681817635249462981573
006501902000080000041600070005037020090800030730450601400063580070100009602708400,386571942927384156541629378165937824294816735738452691419263587873145269652798413
140270809800060572005000006600003000003850000072410003000700000050090410490031067,146275839839164572725389146684923751913857624572416983261748395357692418498531267
005780009700000061640903250490000002010570600000302008081094000006051003200000016,125786349739425861648913257493168572812579634567342198381694725976251483254837916
506800700900501004000009620042000100008076003065213040000300876000057090400020001,536842719927561384814739625342985167198476253765213948251394876683157492479628531
090003200300200480508004030002506100060800009807040060010052800400609000030070051,694783215371295486528164937942536178163827549857941362716352894485619723239478651
306800000050234009009070201004002650070691308030000000201900000700060405480703100,326819574157234869849576231914382657572691348638457912261945783793168425485723196
002010080900037000510090420006700508001000040008620017040500900070004632060073050,632415789984237165517896423326741598791358246458629317843562971175984632269173854
006000870317006000840001900520004100000090065600870029003200040904300510000500700,296453871317986254845721936529634187478192365631875429753219648984367512162548793
500008396900075000023010000700600800690037012001040057064000178070002500008000903,517428396986375241423916785742651839695837412831249657264593178379182564158764923
014038700900002013500000060703000096008400005120986000000000902060021074300540080,214638759986752413537194268743215896698473125125986347451867932869321574372549681
015624030800100005609050004072300900980000210030000080004701560100406000300200700,715624839843179625629853174472318956986547213531962487294731568157486392368295741
000054000013900270200003006092000180570006304040100500037600058900007001865030090,786254913413968275259713846692345187571896324348172569137629458924587631865431792
000051040010760093000400602470215008500004020038000004780000900103020000605980070,926351847814762593357498612479215368561834729238679154782146935193527486645983271
800040293903205000060010400750809600680030075001700024000100309000360000400002087,815647293943285716267913458754829631682431975391756824528174369179368542436592187
400013087002040590910500060006000029300700806000051400190230005250060030080400700,465913287732846591918572364576384129341729856829651473197238645254167938683495712
006000000359010080010507320002000700007905008630400095480023019000100000700860034,276348951359216487814597326592681743147935268638472195485723619963154872721869534
037004902200050387900000000000576010000080509300010260002600000080190600041037800,137864952264951387958723146829576413416382579375419268592648731783195624641237895
003098074094060802702500003060172500019400000007050080000930060040000010300705040,653298174194367852782541693468172539519483726237659481871934265945826317326715948
049003078803000020060504003000290060080400207300015040405007190000002000710000685,149623578853971426267584913574298361981436257326715849435867192698152734712349685
807010200034007800002950300000270030000800019956040000300086907140000500060004082,897413256534627891612958374481279635273865419956341728325186947148792563769534182
400060900700903805002710006000007050004021000608004070510002009890050204003800060,435268917761943825982715346129687453374521698658394172516432789897156234243879561
000290806604730090019000200000103470000000503052004008086907000400060000730085009,573291846624738195819546237968153472147829563352674918286917354495362781731485629
401050007906008000280000040000693500604071300010020080003200070500309021860400003,431952867976148235285736149728693514654871392319524786193265478547389621862417953
200010004008060700600059030407000016031007845000900200300000097056300000089504002,293718654518463729674259138427835916931627845865941273342186597756392481189574362
506740000089000010000590003060007301200634075800020009017006008050002490304800000,536741982789263514142598763465987321291634875873125649917456238658312497324879156
045000982090700103001000640300560020820000000054380706017240008000809005000036009,745613982698724153231958647379561824826497531154382796917245368463879215582136479
407002009001900063095430210000810000063020500000000704000000000210075000058601390,437162859821957463695438217574813926963724581182596734346289175219375648758641392
003609001000040350876001009005800904301000000680090007050080460000007502002930018,543629871219748356876351249725816934391274685684593127957182463138467592462935718
050000180090402060700080504006004075470209003910508000020000600300901400108030020,654793182891452367732186594286314975475269813913578246529847631367921458148635729
000081007300250000019007028900060400045302090008500070004100300032040081570020009,256481937387259164419637528923768415745312896168594273894176352632945781571823649
000820503000400090300005670506007109007610300092000000801004002200000956700530040,974826513615473298328195674536247189487619325192358467851964732243781956769532841
800020000006500000710043050230005048005800900040070600507306100004297003089000060,853729416496518372712643859231965748675834921948172635527386194164297583389451267
007004003001056400400010029570038600040601050000020080090700000300905810068042900,257894163931256478486317529572438691849671352613529784195783246324965817768142935
490000020010020743000680050620400000073050890000910000000005900201007036058300071,495731628816529743732684159629478315173256894584913267367145982241897536958362471
005400007000501309100062000307010000041080032600900705702003906090000840480650000,235498167864571329179362584357216498941785632628934715712843956596127843483659271
200007169000406000085090040178059000000000050049002076003015700400800005000260098,234587169917426583685391247178659432326748951549132876863915724492873615751264398
209000040030750600087030005070802054900000700041000083400026009003005002060408031,259681347134759628687234195376812954928543716541967283415326879893175462762498531
050200000080561300400003060107804003002000047640097100000409570003080001000605208,356248719789561324421973865197824653832156947645397182218439576563782491974615238
040000970200530100000900054097300000120050093400000008018072600700890205030000040,345681972279534186681927354897346521126758493453219768518472639764893215932165847
250078000008045003000900004300060020600200108402000007000007095169000080007806401,254378916918645273736912854381764529675239148492581367843127695169453782527896431
001850070090206010006107009009000100003500204870904053200000900000603008048000530,321859476794236815586147329459362187163578294872914653237485961915623748648791532
090300000000940605612000400500002068030095010001008009000060804274100000008570200,495326187387941625612857493549712368836495712721638549153269874274183956968574231
003705008620009004000608100100000370090001802450032006705000001840007020030960500,913745268628319754574628139182496375396571842457832916765283491849157623231964587
003820100600000500027010006501407080090008034700300600004209005080070210960580070,453826197619743528827915346531467982296158734748392651174239865385674219962581473
400981500900000208703400000002890005005600300610020800504060001070340029060000003,426981537951736248783452916342897165895614372617523894534269781178345629269178453
047850003000900405580001000000100740760090000093000620900600800078430002600508104,247856913316927485589341276825163749761294358493785621954612837178439562632578194
070034500150860000000010008002409000803020607095000401200600070000008004061750309,978234516154867932326915748612479853843521697795386421289643175537198264461752389
192007068500040700040008000000001090003200087670053001030000900009306020204800015,192537468586142739347698152425781693913264587678953241831425976759316824264879315
007400006360020710021060008500900000043010650080034027100795000954600000200000080,897451236365829714421367598512976843743218659689534127138795462954682371276143985
400863000315000000020050700900005006076002103002097800009000001801340600200708450,497863512315274968628951734984135276576482193132697845749526381851349627263718459
001076300003001065000024809070030420028090000650000007405009001090103604706800500,981576342243981765567324819179635428328497156654218937435769281892153674716842593
060020300805060001090100780080057030370610040004000009030000260009804507010200400,761928354845763921293145786986457132372619845154382679437591268629834517518276493
091000007200000803008672905057020086060037000040900100600085030029060400005003200,591348627276519843438672915957124386162837594843956172614285739329761458785493261
010080900803007006000004507050030090098070105006200004680000000405100320020940060,517682943843597216962314587754831692298476135136259874689723451475168329321945768
000007300006150000701603809007010000009300648050004020628040900095200710100030006,582497361936158472741623859467812593219375648853964127628741935395286714174539286
760403000400070016093800000900000000040009520030286700000050297005104060080320004,762413985458972316193865472927541638846739521531286749314658297275194863689327154
054720006002600305100084000007300962000175000040000000603000014025800007800096020,954723186782619345136584279517348962269175438348962751693257814425831697871496523
