000109000010020689780403500002000017300070800060501490156002000030907046000008003,625189734413725689789463521542896317391274865867531492156342978238957146974618253
205600030093700160070003408561009800700051002030004070000020004600080019410900050,245618937893742165176593428561279843784351692932864571359126784627485319418937256
210000809098032000040108760000710203600009470000203058050000900402900100061054000,216475839798632514345198762584716293623589471179243658857321946432967185961854327
000020530906008104042500008708030061105706000000000000029180003007600000010452700,871924536956378124342561978798235461135746892264819357529187643487693215613452789
620037500090210083103000700400508600006700009050000140004009276800064000500100030,628437591795216483143985762431598627286741359957623148314859276872364915569172834
407003060038010000126000809000752400003000007900361058002900076040070000000805001,497283165538619724126547839681752493253498617974361258812934576345176982769825341
000100700240809000760000100020700300004205009905018046052000600038040905000030018,583126794241879563769453182826794351314265879975318246452981637138647925697532418
001004006050680107080010920020103000040560039906020700005370608209000005870000400,791234586352689147684715923527193864148567239936428751415372698269841375873956412
026000801008900003700014500903080040200060000041507020060250180094030007510000906,426375891158926473739814562973182645285463719641597328367259184894631257512748936
030090008700208003510740000050070406070019020002450900493600100800530000000000807,236195748749268513518743269951372486674819325382456971493687152827531694165924837
000305000409007260300090018520086900647000800001002005006250407080460002010900000,168325749459817263372694518523186974647539821891742635936251487785463192214978356
094000002307000508500204030001765080080300710030020069400006007009000156210800300,194583672327691548568274931941765283682349715735128469453916827879432156216857394
004007001000000760007093850090450000806000002100082390700238400031600900250001070,984567231513824769627193854392456187876319542145782396769238415431675928258941673
035001800720308040000720000009000207003105080408069100946030005100004000080007690,635941872721358946894726531519483267263175489478269153946832715157694328382517694
906000300170030002002050861059100004030860000000304708710000900608009500003420107,986241375175638492342957861859172634437865219261394758714583926628719543593426187
003008700006040028200100050000420901010005040407860032900000076020093010058600004,143258769576349128289176453365427981812935647497861532931584276624793815758612394
870030002090000105006009070600005400080074231403890000250000600900200380004106500,875431962392768145146529873627315498589674231413892756258943617961257384734186529
000543800870001200903200050317005002060000374000008600030004061006709000200150009,621543897875691243943287156317465982568912374492378615739824561156739428284156739
030006800001400009087300024000108362520730400000000090008941000900500701060002040,439216875251487639687395124794158362526739418813624597378941256942563781165872943
004600170060204009008053200195007003300001500400900020800706000000080436002000057,234698175561274389978153264195827643327461598486935721853746912719582436642319857
937050400204003086008200000009370158010000000040560207080090362006002070000400910,937658421254913786168247539629374158715829643843561297481795362596132874372486915
070002809000580060150000007500601020023470001690800400004300082082700506000040900,476132859239587164158964237547691328823475691691823475914356782382719546765248913
003005041070240090089300062856009020000060005004021007000000009520803010041070800,263985741175246398489317562856739124712468935394521687638154279527893416941672853
204100000030900208000076305002301900409050070060090100800400000501080097040007006,254138769637945218198276345782361954419852673365794182876429531521683497943517826
010072040000800300008604019079060008000900560205301704030090001520000007400708600,913572846642819375758634219379465128184927563265381794837296451526143987491758632
030089007000002680600004100069700243203000015005000060570301000000200400490856002,134689527957132684628574139869715243243968715715423968572341896386297451491856372
082396400700004000003870010026000090070050800400610005839700026600002081000000309,182396457765124938943875612526487193371259864498613275839741526654932781217568349
050973204132000000000010086001058093080320005070000400006004570315009000900082001,658973214132846957794215386261458793489327165573691428826134579315769842947582631
060100039800900150050072400030804001900000826607200000005091600000700003208053790,764185239823946157159372468532864971941537826687219345375491682496728513218653794
000020706604900501790050400020107040005403000109060008260000000000830619080540030,518324796634978521792651483326187945875493162149265378263719854457832619981546237
000504002476009300100670080007096004000380075012000600000700900090002038360045100,983514762476829351125673489537296814649381275812457693251738946794162538368945127
029070400800051000007900063000000906301080040500709012000805370640000050080302001,129673485836451729457928163278514936391286547564739812912865374643197258785342691
040901300026750010800000000007618000050300069208090700030570004001004090480002503,745981326926753418813246957397618245154327869268495731632579184571834692489162573
001280000409007085000300609200670090004020008070001300010045020908000000640930070,561289437439167285782354619253678194194523768876491352317845926928716543645932871
800609300007004605630020080054701806389005040061000090000040710000500003190803200,842659371917384625635127489254791836389265147761438592523946718478512963196873254
000940000050060134120080000700602093091070500000305800248000901037000040006058002,673941285859267134124583769785612493391874526462395817248736951537129648916458372
309200007000070020005006080406081970000520300013009000900640102760030800004800050,349258617681473529275916483426381975897524361513769248958647132762135894134892756
032000085600007091050600400001020730400031006008765002200490000013000500006010927,732149685684357291159682473561824739427931856398765142275496318913278564846513927
008090700406032000100000328000000910030000005050786400709041060000600804002000059,328195746476832591195467328864253917237914685951786432789541263513629874642378159
043008027100900040208750000000872004004300081057060200900100000062000093000040568,543618927176923845298754316319872654624395781857461239985136472462587193731249568
050030700087060023002400860206300009003025070040000001805007902000103048160900000,651238794487569123392471865276314589913825476548796231835647912729153648164982357
010090020082003607605800034300060005040200800100907000904100702056040380070000060,713694528482513697695872134327468915549231876168957243934186752256749381871325469
092500000430060080006710002970300006005800790000006420009030040201090050300027100,192583674437269581586714932974352816625841793813976425769135248241698357358427169
030009060624070010007050800008001003506400009001680700102037000450800000000060521,835149267624378915917256834248791653576423189391685742162537498459812376783964521
010700308706058000004000620120000530080002940609010800390000004008504100000023090,912746358736258419854931627127489536583672941649315872395167284278594163461823795
100364070200000534000800000000490807643000002900050100005048000017002006460019080,159364278286971534734825619521493867643187952978256143395648721817532496462719385
900000460060420580004500300675901008400200000102080030310060000000305907027840010,953178462761423589284596371675931248438257196192684735319762854846315927527849613
350007028069008003000000100100700956206104000003090200708602390002500710940000080,351967428469218573827435169184723956296154837573896241718642395632589714945371682
009305100050020834620100007010060003040007950800400006030050000590046020701900080,489375162157629834623184597912568743346217958875493216234851679598746321761932485
007068009810090000040002050000200610406053000195000040030084760900700304080001002,257468139813597426649312857378249615426153978195876243532984761961725384784631592
805100070001020006029530400006000809400200000710000063980300020060048035004070901,845169372371824596629537418256713849493286157718495263987351624162948735534672981
043070008000009001500080230764200000950400070000008065080341007000006319200050600,143672958826539741597184236764215893958463172312798465689341527475826319231957684
000070020800341500607000094009003006050760000010200078400090600008005000900800731,541976823892341567637582194789413256254768319316259478423197685178635942965824731
007046002000009500920018300600075049009000816084000700500002030370000001140090020,837546192461239578925718364613875249759423816284961753596182437372654981148397625
008500076679020040030000200700009000005030164240801095090000400000240080051078030,128594376679123548534687219716459823985732164243861795892316457367245981451978632
080093100102007004090500806800230000060014205000706900071050400504009030900602000,786493152152867394493521876849235761367914285215786943671358429524179638938642517
000380009100020806570109002004000030207006105000532000380704050900010700060000084,426387519193425876578169342654971238237846195819532467382794651945618723761253984
025700400000510002730600090004901000098020003000060005100000200302008607860004130,925783461486519372731642598574931826698425713213867945159376284342198657867254139
000406005038000000007300019070002930946001200001750080200510006050200040000973020,192486375538197462467325819875642931946831257321759684283514796759268143614973528
300400200570906480001057906618023040050010027000000000960000053003800700000094010,396481275572936481841257936618723549459618327237549168964172853123865794785394612
046002750000048000020709010085003094003160007007004060102507300030000680054900000,946312758571648932328759416685273194493165827217894563162587349739421685854936271
193580007000970803500020100000300472420750060010006900740090200600400009005000008,193584627264971853578623194856319472429758361317246985741895236682437519935162748
408090500002603041000025073340000002000076090806000000090017000104900350507804600,438791526752683941961425873349158762215376498876249135693517284184962357527834619
000008094060040010002600750001205400008710069703906000305000007904150200810070030,137528694569347812482691753691235478258714369743986521325869147974153286816472935
000000280097042003065300100750000069400006520020094308000070806001058000670010040,314965287897142653265387194753821469489736521126594378532479816941658732678213945
100040000000002900874005300000000100630087002052603080405800010000700009300090456,129348675563172948874965321748529163631487592952613784495836217216754839387291456
890000402005600308000000710317980020006002500000304000703156009400820050100079800,891537462275641398634298715317985624946712583528364971783156249469823157152479836
030010006002300008008096073960003001005001260000700040010800732020047105509000000,734518926692374518158296473967423851345981267281765349416859732823647195579132684
003200610540000200006030807070004008300890000009361005900180340825000009100072000,793258614548716293216439857671524938352897461489361725967185342825643179134972586
741080009000000546000039080005200078000150300080906400600004020097802000052307001,741685239839721546526439187165243978974158362283976415618594723397812654452367891
000020167080079003032100094005830400190000070070061020306700000800590600004002005,549328167681479253732156894265837419198245376473961528356714982827593641914682735
000091007084600190006800230020000078000013050695004300502040000030070680170920000,253491867784632195916857234321569478847213956695784321562348719439175682178926543
902005000700000609080310070810056000206070045000903100007042090009600482000001730,942765813731284659685319274813456927296178345574923168367842591159637482428591736
040006079016400008800902504092000036000070200500038007000504080430000090600800012,245386179916457328873912564792145836384679251561238947129564783438721695657893412
060000048109800760005420000030070200620040039080000005003050090008062001400901300,362197548149835762875426913531679284627548139984213675213754896798362451456981327
704010900100030060082907001560003208009600540000008000000081020400705000370420680,734816952195234867682957431567143298819672543243598176956381724428765319371429685
900500100081700005607042900004000002100800600036950078008090020040307096300080004,923568147481739265657142983894673512175824639236951478768495321542317896319286754
240900300090540120056080070005200490009160008820003000062051000004030700710004600,247916385398547126156382974635278491479165238821493567962751843584639712713824659
020700083009063100450190200108006004000000039006520000000430070807005000210007350,621754983789263145453198267198376524572841639346529718965432871837615492214987356
001072000080004306090060078000001082630000090710580000000020061050090400804300057,361872549287954316495163278549631782638247195712589634973425861156798423824316957
000200040000591800010008957400600010007020006809040230680005300341760080070000020,598276143734591862216438957423659718157823496869147235682915374341762589975384621
003200100000500029004671008047010290010000073908006500020030685300900004701004000,853249167176583429294671358547318296612495873938726541429137685385962714761854932
006050010380720906000106047003870600000503009048600705017000003620009400000280000,476958312381724956259136847593871624762543189148692735817465293625319478934287561
090000050600900107008043200056700300803200900010006020004671000320009008500080794,492167853635928147178543269256794381843215976719836425984671532327459618561382794
120000049900040036007305000085410007070009080301060200000050098800706005034002600,123678549958241736647395812285413967476529183391867254762154398819736425534982671
042073000005002080700060014000028900000100060370049008430000050960300700051084630,142873596695412387783965214514628973829137465376549128437296851968351742251784639
007000051012009608630520000004003000290804060006052700000438507000607013400000090,947386251512749638638521974754963182291874365386152749169438527825697413473215896
008605070450800000160030002840700300200500980300060047609007230730009004000020001,928615473453872619167934852846791325271543986395268147619457238732189564584326791
600070308345000000000409100036854702800006000000710000108600903400200070079001450,691572348345168297782439165936854712817926534524713689158647923463295871279381456
150000040060017000892630000073001900900000102000480006080063009200900070400025801,157892643364517298892634517673251984948376152521489736785163429216948375439725861
050048000000000784010000209706103000040027090030050602082035000004009063590701400,257948136369512784418376259726193845845627391931854672682435917174289563593761428
080230009136050070092040008200304010000580000309601050070820306860709400000000000,584237169136958274792146538258394617617582943349671852471825396863719425925463781
030741809000950070040020003006000900300690001029078005050100480002007000608032150,235741869861953274947826513576214938384695721129378645753169482412587396698432157
050002014308704009029810000002000400100460032700085000090000570506103000030097061,657932814318754629429816357962371485185469732743285196291648573576123948834597261
001009740700830002069450001050072090000000030004503028400010653023096010080000000,831629745745831962269457381358172496612984537974563128497218653523796814186345279
408050030013097204090600000000320006900010480002000017080072100560004700021006903,478251639613897254295643871147328596936715482852469317384972165569134728721586943
020801000070003009409002601030500490006000700750000086800027103002060050900430200,623891574571643829489752631138576492296384715754219386865927143342168957917435268
750043180002009063000120009800000000040790000006012090080036020100008056063050870,759643182412589763638127549895364217241795638376812495587436921124978356963251874
000030698204001007000500400000763050708400003400000020603802900015307000820005041,571234698264981537389576412192763854758429163436158729643812975915347286827695341
000510002006070000080043900508002013400000206067009408030600504009820600001307000,974516382326978145185243967598462713413785296267139458832691574759824631641357829
