084201003190080026000097000053000084000000100620074300702103009049020650000900000,584261973197385426236497518953612784478539162621874395762153849349728651815946237
001005209000034850600270001800040000719500034035006002002003160073090000100780090,341865279297134856658279341826347915719528634435916782982453167573691428164782593
040000070300005100580210940030000860070193000402706009000800632900040000000671005,241938576397465128586217943139524867678193254452786319714859632965342781823671495
090501006850000012040702800780000105003008000029300070270010009000060400410009380,392581746857634912641792853784926135563178294129345678278413569935867421416259387
020690500930580704007002008780030409040010070003004000050903060870000002002400015,428697531936581724517342698781236459645819273293754186154923867879165342362478915
160080020070401900840090057035069000007005061000042000080000300300200004920304075,169587423573421986842693157235169748497835261618742539784956312351278694926314875
060504010849000030000060207005108920000970501003200400304097080710080306080020000,267534819849712635531869247675148923428973561193256478354697182712485396986321754
059406200080010000060002037093000014000030802000057600000700060610580400804020105,359476281782315946461892537593268714176934852248157693925741368617583429834629175
002003008400918000907056000700004039005120800860000007500432010609500270013000000,152743698436918752987256341721864539395127864864395127578432916649581273213679485
520300080708000001000062900040078002100400000800501630007005009090006143030240057,529317486768954321314862975943678512156423798872591634487135269295786143631249857
005806300400790002028000007600049050000010200300205609004000870080950026003470100,975826341436791582128534967612349758859617234347285619594162873781953426263478195
006023000000001079702540030000815020400900508010204000960007800508000301003060007,196723485354681279782549136639815724427936518815274693961357842578492361243168957
000560100108004005003007096750102040090670003002800060000720009280050070401003000,927568134168394725543217896756132948894675213312849567635721489289456371471983652
600408709000019062000320500800091040052000108043070050009065800005003010406200000,621458739538719462794326581867591243952634178143872956379165824285943617416287395
090840000052076908400000102140000050086053704000900000200001075060390800007400306,691842537352176948478539162143768259986253714725914683239681475564397821817425396
070900056900704800104350000000000520508090003793200060060100974030587010200000000,372918456956724831184356297641873529528691743793245168865132974439587612217469385
700005020092000700600000843010030090800004200000021604180790000900106005346080001,738465129492318756651279843214637598863954217579821634185793462927146385346582971
914030702070000390602050040300609000080072000007000405008000910100028003540001600,914836752875214396632957841351649287486572139297183465728365914169428573543791628
000083002600510908500290400000045800039000700406800001042000190010037006700000504,194783652623514978587296413271345869839162745456879321342658197915437286768921534
200080014700269030058000090031007062000453000000600000073008005900020100426500007,269385714714269538358174296531897462692453871847612359173948625985726143426531987
003400070208036000001508600400000710000064009059070830010000402796102080020395000,563419278248736951971528643482953716137864529659271834315687492796142385824395167
090580006400001200580740300200030009006000150004679800009000010703058004600400070,391582746467391285582746391278135469936824157154679832849267513713958624625413978
003107890020008005075602040030470006009000170080001053090006028240800000500000630,463157892921348765875692341132475986659283174784961253397516428246839517518724639
070902006850040100000030070004600580020480009960001007300050040001078060095100300,473912856852746193619835274134697582527483619968521437386259741241378965795164328
802500000600040725090007630000010370019006400053279000080030046040801200127090000,872563914631948725594127638268415379719386452453279861985732146346851297127694583
009001000200050786070024300025900000003587009600000010100000003007032045064070908,839761452241359786576824391725916834413587269698243517152498673987632145364175928
700800030080631050062070400004000000190250047030009020028500079070398060000006001,715842936489631752362975418254187693196253847837469125628514379571398264943726581
500070103012068004084000009948050021000000030050206800000080070027094006601300500,569472183312968754784135269948753621276819435153246897435681972827594316691327548
501000049090080030708100602407600005080520001060040208004000000000790523009301700,531276849692485137748139652427618395983527461165943278374852916816794523259361784
003406020020510070600070403050800090804000300900624050002090860309007005006000100,793486521428513976615972483257831694864759312931624758142395867389167245576248139
740003026305071080009240070000560304008900002100000000602004900900100705570300060,741893526325671489869245173297568314438917652156432897612754938983126745574389261
010508097078130600600000000002006701000340028409002060900850400150403000807090032,314568297278139654695274183532986741761345928489712365923857416156423879847691532
506048009001090603004700000700050308200609175000200000400030506008100290607800400,526348719871592643934716852769451328243689175185273964412937586358164297697825431
400206800000080705000090430010625080305800960007010200582079000600002100030400090,473256819196384725258791436914625387325847961867913254582179643649532178731468592
050070820801309006760050004007261090009000105400080300090502010600000000004700583,953674821841329756762158934537261498289437165416985372398542617675813249124796583
250801000030009000601000597000040702806090004004300080000705400073000050040206309,259871643437659821681423597395148762826597134714362985962735418173984256548216379
001300060007210830900007200820400190010020750760050000500641008003900024000000005,241398567657214839938567241825476193314829756769153482592641378173985624486732915
200010000600070394009000200436000500000930601070502008062490005504008000183007000,247319856618275394359846217436781529825934671971562438762493185594128763183657942
000007260600080459900300008790000500025960007030200014010008000007524800580000630,158497263673182459942356178791843526425961387836275914219638745367524891584719632
130009580900000640040035007060510000000020801850040290000003020702600108500800460,137469582925781643648235917269518374374926851851347296486193725792654138513872469
650081000007000004380209000008305007120090600903068000042000060010070493000010850,654781329297536184381249576468325917125497638973168245842953761516872493739614852
008010009203007045609050020790300806820004070000060000000509200060870300541002007,458216739213987645679453128794325816826194573135768492387549261962871354541632987
020580000070061000000009041081900200350800670006350400900230800008007003605040920,124583796579461382863729541481976235352814679796352418917235864248697153635148927
805900300349002050000000804900200001010006530030805649062073010100560070090008000,875941326349682157621357894956234781418796532237815649562473918184569273793128465
604000050120067009870540003016090200007200008300010060000408002050100430090020107,634982751125367849879541623516893274947256318382714965761438592258179436493625187
009107000160080427005043000000519070400000209000700063026000930010098050700302006,249167385163985427875243691632519874457836219981724563526471938314698752798352146
000800903020015004805006070200164090049750028000000300918070005430008002050030600,164827953327915864895346271283164597649753128571289346918672435436598712752431689
007080095019200800005307006200810507080009100600040000000050030046103008500600921,367481295419265873825397416293816547784539162651742389172958634946123758538674921
008050200130690000704001008090007360007020005500409001020806470806000030010300050,968754213132698547754231698291587364647123985583469721325816479876945132419372856
006100007000800605050040020900607100300090500017203084004500063009008741032700800,286135497493872615751946328945687132328491576617253984874519263569328741132764859
480002500001090840075010006000020000706400200850003097900300104043080760060509020,489632571631795842275814936314927685796458213852163497928376154543281769167549328
600030100040002007073080020000010204780500090009604050501007980900001432020309700,692735148845192367173486529356918274784523691219674853531247986967851432428369715
003000947047005020200006030070080004605010090000207500008400600301092008400800253,563128947847935126219746835172589364685314792934267581728453619351692478496871253
054301000070200308000000006010500007807034900200608004032490701001000600906002050,654381279179265348328947516413529867867134925295678134532496781741853692986712453
060080240000700900300005067509001006600002378003040000700259810040000000021360059,167983245452716983398425167579831426614592378283647591736259814945178632821364759
010700409860002030057080000009030704502090600000640800300164200000500060170300905,213756489864912537957483126689231754542897613731645892395164278428579361176328945
040000085009400100800067000704500268090030570018000300901003000000002600300708024,146329785279485136853167492734591268692834571518276349921643857487952613365718924
601409070020000906705000081000103790053620040008040200010008030036700500509062000,681459372324871956795236481462183795953627148178945263217598634836714529549362817
960700000002004095004093172750300010000060804400002056600009308093000040005801000,961725483372184695584693172756348219129567834438912756617459328893276541245831967
100000580090060203000082067086130000705800300201007050000040900470600010528700400,162374589897561243354982167986135724745826391231497658613248975479653812528719436
001480900002100583090020000006700002008004035079030410185006009300005240000078000,651483927742169583893527164436751892218694735579832416185246379367915248924378651
530970080807030000010060002306000500280500460400100039009200050000600940158000700,532971684867432195914865372396724518281593467475186239649217853723658941158349726
020001590000370000563900410100000002600203850050004000730010060200809704048006000,827641593491375286563928417189567342674293851352184679735412968216859734948736125
013800200020060489060000730704200018300940027000508000005309000601050090008000304,413897265527163489869425731754236918386941527192578643245389176631754892978612354
100604300030089060068050000010400027005090000290710008004000000007200619000073052,179624385532189764468357291816435927745892136293716548924561873357248619681973452
890000670040020301305090008001360000268905000009807400700450900023000500000081060,892134675647528391315796248471362859268945137539817426786453912123679584954281763
020001570609000100000485020007020390000308002100060008300016040874030000060907005,428691573659273184713485629587124396946358712132769458395816247874532961261947835
007005008004003000302100970950000740000060853000027601600009000703650210810030004,167295438594873126382146975956381742271964853438527691625419387743658219819732564
500802070098100003700000052020000000006500148010967300400306219030004506089000000,563842971298175463741639852325418697976523148814967325457386219132794586689251734
048903002090640000003007005302100090400050136076000008800001760000200004000589013,548913672297645381613827945352168497489752136176394528825431769931276854764589213
000900007400085609103060480029806001510020300300009706908000000007103004000400052,865941237472385619193267485729836541516724398384519726948652173257193864631478952
200004560061003708500170000007302150000040090096507820038000019009000400400820070,273984561961253748584176932847392156152648397396517824738465219629731485415829673
000671030030040000407008905900000000025300408006107293701080050500003002002960140,259671834638549721417238965973824516125396478846157293761482359594713682382965147
020750001703009000000200400070040806100000950950076230061003702804600090000010080,429758361713469528685231479372945816146382957958176234561893742834627195297514683
400089000650070008020100530090005804300200006075004910001600490008913067000007000,413589672659372148827146539196735824384291756275864913731628495548913267962457381
000100270340076009060000005803005100001490003600002058520040090700983004000007601,985134276342576819167829435893765142251498763674312958528641397716983524439257681
040000001078460520360200009107020600400019007600508004000090105250040080000700300,542937861978461523361285479197324658485619237623578914736892145259143786814756392
490570200008000053001809070030061094200050008605040030060730000904080000000006127,496573281728614953351829476837261594249357618615948732162735849974182365583496127
036000090090600284000001500009026005700409018005710300300005900412903000000840006,236584791591637284874291563189326475723459618645718329368175942412963857957842136
000004300407960020012070000003008504075000906008016000200050170060040098000281040,896124357457963821312875469623798514175432986948516732284659173561347298739281645
210970056005020070030008020074031008809704002023050600080000104900607030000015000,218973456495126873736548921674231598859764312123859647587392164941687235362415789
000001265800640010070050900000005780310090050004320006700000800602038004050900031,943781265825649317176253948269415783317896452584327196731564829692138574458972631
408069500070010000906000403800003000030027100002540008050070010104256900690004080,428369571375412869916785423841693752539827146762541398253978614184256937697134285
005900002601540300703020840200050060040860070000300209060090000307081006000007458,485973612621548397793126845238759164149862573576314289864295731357481926912637458
004089003000007600190020007000040080000630029020178504240890150508000032063001400,674589213832417695195326847756942381481635729329178564247893156518764932963251478
000642300608070009000500100070006085402090000160030007034010206000008090759003004,591642378628371549347589162973126485482795631165834927834917256216458793759263814
500807000600000094209603081900700016030004050804200900706005000098006300010470200,541897623683512794279643581952738416137964852864251937726385149498126375315479268
008070000205600004000309810007042900010700000006080040000000296080054701379000050,138475629295618374764329815857142963413796582926583147541837296682954731379261458
653000001080007945070200000030780000015903027400006030049068100000002890000510064,653894271182637945974251386236785419815943627497126538749368152561472893328519764
100000375068007021309500400200004800000075000730006012800629000005080060090400030,142968375568347921379512486256134897981275643734896512813629754425783169697451238
042000000000070163600095048010403090009082500708000020091340000807001000020068750,142836975985274163673195248216453897439782516758619324591347682867521439324968751
420008000507400800009600700005006302043790010000013007000900000860021500930580104,426178935517439826389652741175846392243795618698213457751964283864321579932587164
000081070047600800001090230070008009000002504300500010080024700900306000004010062,593281476247653891861497235475168329619732584328549617186924753952376148734815962
017900060000850040904602803100000095020001000003005704500743900230008050006000001,817934562362857149954612873148376295725491638693285714581743926239168457476529381
370152800004086900100030020080000270090040006600897105000000030016009400520001700,379152864254786913168934527485613279791245386632897145947528631816379452523461798
300008509210009000000470006003100020052093001860040070105630804974010060000020007,347268519216359748589471236793186425452793681861542973125637894974815362638924157
010052900030009704700308500402060000000070156000905000007500420106400800008023070,814752963235619784769348512452861397983274156671935248397586421126497835548123679
023070610060008094709001000000360508004510200002090073471020030038006001500000000,823479615165238794749651382917362548384517269652894173471925836238746951596183427
000902004060800010307050060040020100020708500986000073000501008210009000078046090,851962734462837915397154862745623189123798546986415273639571428214389657578246391
008005300504100002000690180096040001000070030170300000609010027407089600030400058,918725364564138792723694185396842571845971236172356849689513427457289613231467958
