180205097030080540000109020600802730010050000400900060200067008050400002069000410,186245397932786541574139826695812734317654289428973165241367958853491672769528413
405007020000000091600598000009003007800100060502640100000050783010006240003284009,495317826387462591621598374169823457834175962572649138246951783918736245753284619
060000097200380601000050800890060070000007250040921300003004080900035000571600002,368412597257389641419756823892563174136847259745921368623174985984235716571698432
050000107720300000090270080405100603370908004006003800200094001030000460100800200,853649127721385946694271385485127693372968514916453872268594731539712468147836259
000208000009040030040705100003000005890000604025914700004001020301002978750060300,136298457579146832248735169413687295897523614625914783984371526361452978752869341
700602900005041060023090000080057031000800004172000050001985740960000500000320008,714632985895741362623598417489257631356819274172463859231985746968174523547326198
079034100000900000001008063500281600703509040006007009040006052005100080020000701,879634125362915874451728963594281637713569248286347519147896352935172486628453791
043000602000030501080695000400700300270910005600408010801000046020500009907802000,543187692796234581182695734419756328278913465635428917851379246324561879967842153
207300004001020050040000670030980200008400136004560000900005000063207008015009307,257396814681724953349158672736981245598472136124563789972835461463217598815649327
800729004509046200600500030030800059904000010001000643420060100000072008107050000,813729564579346281642581937236814759954637812781295643428963175365172498197458326
005000046703120000869000700400500000001607050008093470120900800000430090900081025,215879346743126589869354712472518963391647258658293471127965834586432197934781625
002800000090000052168003470501900703300025000800070060200008004004060100007190520,752849316493617852168253479521986743376425981849371265215738694984562137637194528
060021008820400390100307000004700005900060100000095046708600054200003700491000080,563921478827456391149387562614738925985264137372195846738619254256843719491572683
007000680009400052046003701851000040000780003000509200604008130200006009730095400,327951684189467352546823791851632947962784513473519268694278135215346879738195426
680090000000500094040231007100000758006100240020053000900304620005010009007020380,681497532372568194549231867193642758756189243824753916918374625235816479467925381
900070600051008300840603029000300750006020010280400006590801200000000094703005800,932174685651298347847653129419386752376529418285417936594861273168732594723945861
030200175105000008480000062700004010209070000000620340601405003000060080800107094,936248175125796438487513962763854219249371856518629347691485723374962581852137694
754000008806347010020900000300072000010600500070509304040735089900001000001800620,754126938896347215123958746365472891419683572278519364642735189987261453531894627
500800730060290018010004065300908001006350020400020000050000309081060007207000040,549816732763295418812734965325948671196357824478621593654172389981463257237589146
070800500030420009908050602805930400090010706207000000300506000001004205600070983,172869534536421879948753612865937421493218756217645398329586147781394265654172983
010003000200610059503087020865100400000708000094030201080000000620095003007400910,916253874278614359543987126865129437132748695794536281489371562621895743357462918
470100009000200008910036002807000200006090050300520001200064930090803007005010040,472185369563279418918436572857641293126398754349527681281764935694853127735912846
400936200057810090600000100030000048170000000002590360000000030080472900920600405,418936257257814693693725184539261748176348529842597361764159832385472916921683475
070300000008420015530098700020700004300261900089000600000056080057030206904000100,472315869698427315531698742126789534345261978789543621213956487857134296964872153
278500001040006090500000320001023500050860000309704000017680000000090208400315700,278539641143276895596148327861923574754861932329754186917682453635497218482315769
900420030100080002007103085574009010008004203090600000000000861040750000201006400,985427136163985742427163985574239618618574293392618574759342861846751329231896457
060930800100000709703008205020564000900001040075000680209600073384090000050400000,562937814148256739793148265821564397936871542475329681219685473384792156657413928
400060500102090703936501000724006000013905406000710308000002050690380102008000000,487263591152498763936571284724836915813925476569714328371642859695387142248159637
200050000000708000009410530090540002608900100041006307000800740004023600850000001,216359478435768219789412536397541862628937154541286397162895743974123685853674921
000840300003000780970052000860509200000764001010000000004030002005006130020978056,156847329243691785978352614867519243532764891419283567684135972795426138321978456
005200090010804000042069015030000000800403502400021007070600008300005600060740230,685217493913854726742369815237586149891473562456921387174632958328195674569748231
300000094005003260062840107000500000500709081104200300013460009000070042708050000,381627594475193268962845137837514926526739481194286375213468759659371842748952613
000070005600240080391000000040051000286000000009600347805006023100080090002307054,428179635657243981391865472743951268286734519519628347875496123134582796962317854
050074930010000040903020001000890050000000684570001300104038005630700000009065200,856174932217389546943526871462893157391257684578641329124938765635712498789465213
002000004704200030900308701000000008049130050000859400100060005030500260250400807,312976584784215936965348721573624198849137652621859473198762345437581269256493817
010009000030020070578100006204010500050940600803607000701860230005400008000091040,612789354439526871578134926264318597157942683893657412741865239925473168386291745
060030702050006040081007900506209100074080306000070020003000051900002408047801030,469538712752916843381427965536249187274185396198673524823794651915362478647851239
504600020007800601600079080300580000295004800000031207036007100040026000700000040,584613729927845631613279485371582964295764813468931257836457192149326578752198346
009803467005260000007041003304000950100005008060000702840020605000400290903010070,219853467435267189687941523374182956192675348568394712841729635756438291923516874
050081004700400513900600000640005809030200000001000635009310070080027000003940206,352781964768492513914653782647135829835269147291874635529316478486527391173948256
152089060000470003007005020006000090040021700900030008200010905008604001301050080,152389467689472513437165829716548392843921756925736148264813975578694231391257684
008000050004830002900002603807000020020450100060073908000000800410006097503094001,238617459654839712971542683847961325329458176165273948796125834412386597583794261
700106009060500108200009730000300010000094605580060920820970304036082000050000000,748136259369527148215849736692358417173294685584761923821975364936482571457613892
470360009002000081005000300180079400000040073900605028001700500029004030060803002,478361259392457681615982347183279465256148973947635128831726594729514836564893712
060800300001000009594360801800900000200706040019002507030000096006245100100030070,762891354381524769594367821847953612253716948619482537435178296976245183128639475
090030821270000050001000003800095002005080760009602400030710040006004098108006200,694537821273861954581249673867495312425183769319672485932718546756324198148956237
000128500425063800000000076600000317807002400500901008100280000730000900060390040,976128534425763891381459276692845317817632459543971628159284763734516982268397145
000003400005080010000040625800900204012050970360007000100065000500230809086700000,621573498945682317738149625857916234412358976369427581193865742574231869286794153
500026093207950000000007501010040000600003809753200010070308040108590002040010006,581426793237951468496837521819645237624173859753289614972368145168594372345712986
000700080801039065640002000003086704007500120500000009906370000050024010310950002,239765481871439265645812397193286754487593126562147839926371548758624913314958672
105800000000090780690240001037508009200460005000001420000300540840002030950000602,175836294324195786698247351437528169219463875586971423762319548841652937953784612
408002005060005730005000060000390084134708050200060001720800900500100006090003010,478632195962415738315987462657391284134728659289564371721856943543179826896243517
280016907509008003010000408001907030700600002000305040006859000375000009800002100,283416957549278613617593428451927836738641592962385741126859374375164289894732165
020500300600703094030080507000400016708600000004001205170064002000390008905007000,827549361651723894439186527592438716718652439364971285173864952246395178985217643
009340005051002068800000700000100904960400050003000027520700006004601000700095080,679348215451972368832516749285167934967423851143859627528734196394681572716295483
160005420340000008080063010290700005600080070004200009000592030000010094005607100,169875423347129658582463917291736845653984271874251369418592736726318594935647182
508000200000907804100023076002100058900030020705400003009006180460570000030001005,578614239623957814194823576342169758986735421715482963259346187461578392837291645
000103000540000070009040026210078400703050002086930000020500091904800060068020740,672183954541296378839745126215678439793451682486932517327564891954817263168329745
000907015000010620070246900801000060360000500040708091708002004050830200009500030,623987415984315627175246983891453762367129548542768391738692154456831279219574836
310940000060700000974250006780000090200504038006009207009100300040008060050000102,318946725562781943974253816785632491291574638436819257829165374147328569653497182
600035009907180005402000000070508103060000020000624708380006010000009032001000490,618435279937182645452967381274598163865371924193624758389246517546719832721853496
750006003000800091069002800607080530002004000590603040900017054000040900003500207,758196423324875691169432875647981532832754169591623748986217354275348916413569287
040080057500604000019030002300100090900560700058207400000072008005000023630009100,246981357573624819819735642367148295924563781158297436491372568785416923632859174
001007503040309108020040000700001060000804009902050000408000076005093080109070230,691287543547369128823145697754931862316824759982756314438512976275693481169478235
000700682060942000015000007000000325104008000029567000046805030000600470800013090,493751682768942153215386947687194325154238769329567814946875231531629478872413596
009000020070103060658400000130070009907002400006058100042506007000009032000080005,319865724274193568658427391135674289987312456426958173842536917561749832793281645
301000002007890000400036800005060000026749005070508010510200608060004070039080201,381457962657892134492136857845361729126749385973528416514273698268914573739685241
100002005540070910070600080938000006002006300010090027400530700090007001000208504,183942675546873912279651483938724156752186349614395827421539768895467231367218594
000600350060097000070200068710060092580910070000084003009008000800530109236000400,928641357365897241471253968714365892583912674692784513159428736847536129236179485
040080270009000008570120400304060520700049001050070006023600009600007300080205600,146983275239754168578126493394861527762549831851372946423618759615497382987235614
034052001060400020170096008003020000010030675400087090900500800600001700020079040,834752961569418327172396458793625184218934675456187293947563812685241739321879546
000095076024860000000000100900180057068020940501030000810700290200940600050600003,183295476724861539695374128942186357368527941571439862816753294237948615459612783
060908020504027000010340078900000006030750010001006080620539001700000009000000805,367918524584627193219345678972183456836754912451296387628539741745861239193472865
509470020610000070040060008001002305004090080087000002025003096800600004000127003,539478621618235479742961538961782345254396187387514962125843796873659214496127853
000008002700906350000010409040300806007050010030821700900470080201009604058000200,594738162712946358386215479145397826827654913639821745963472581271589634458163297
010000847090200365730004010000520003058010000400708091000060000289050670103900200,612395847894271365735684912971526483358419726426738591547862139289153674163947258
080536200070820010900000000005907800001000604836000090020740150400001763300050040,184536279573829416962174385245967831791385624836412597629743158458291763317658942
560010790700002030049000508070000640300091800000007001050004260100570004006309050,563418792718952436249763518871235649324691875695847321957184263132576984486329157
603500000042001873007004009700609004000000210064013007051490000920078030000300060,693587142542961873187234659715629384839745216264813597351496728926178435478352961
020000069730000100005084007000501080076000240580020701300908010900602004060700803,821357469734269158695184327243571986176893245589426731357948612918632574462715893
000000304870960005501002900040300009008470620290001000000015003603008540720600008,962157384874963215531842976147326859358479621296581437489215763613798542725634198
020050600308000270700600009509800060170003040004091003816000400200040857050230000,921357684368419275745682319539824761172563948684791523816975432293146857457238196
003060004180000020670948003007200180000634095050000000300795061005001948200000000,593162874184573629672948513437259186821634795956817432348795261765321948219486357
850900074070040201002030090093850000400200600508014000100009043006000020920300180,851962374379548261642137895293856417417293658568714932185629743736481529924375186
056000904100305700000000008200000406009084510031006200094503600002060007300910000,756821934148395762923647158285139476679284513431756289894573621512468397367912845
210840067000000530095000020406023709000070850000109003060050400102900070308004206,213845967674291538895637124486523719931476852527189643769352481142968375358714296
005012600007000003020539004704100900800000006053008012280001005000090030000046807,345712689197684523628539174764123958812957346953468712289371465476895231531246897
000267500500000048306040702051006900007095080260000000020410009600079400048000130,184267593572931648396548712851326974437195286269784351725413869613879425948652137
907006035003704000000230400001520074020300080080471060070900026608000000400080109,947816235253794618816235497361528974724369581589471362175943826698152743432687159
203051007000039100070800050000600089105200000300070204502107040700048005608090300,263451897854739162971826453427613589195284736386975214532167948719348625648592371
000300206001002900009700408002607080400010000800090735050106000207045801060000029,745389216681452973329761458592637184473518692816294735958126347237945861164873529
130008000206000700897340500080006004702000096004001020370020980060900470000500013,135768249246159738897342561983276154712435896654891327371624985568913472429587613
500403072064070000000910080103520800007000410650700000090060200206890103080300090,519483672864275931732916584143529867927638415658741329395167248276894153481352796
057160009900050000203008071070510036034006020100280040009000603005040800008700092,457162389981357264263498571872514936534976128196283745749821653325649817618735492
500401308002005600000089071040000000000708005090130760307000910008650040400000807,579461328182375694634289571743526189261798435895134762357842916918657243426913857
980306070204007009007940150800690012000004067000020900360050000040100025001408300,985316274214587639637942158873695412192834567456721983368259741749163825521478396
178020900600000450054007001002405109800003002000690580200830700700006000039040060,178524936623918457954367821362485179895173642417692583246839715781256394539741268
030860020907003004018200095009002406200075000060030700300700041054001069006058000,435869127927513684618247395579182436243675918861934752382796541754321869196458273
075900401600000007008240000503100268700084103090000500000098006307002050009360040,275936481634851927918247635543179268726584193891623574452798316367412859189365742
460800905000000230008010600910002460000053000703004800081900040050060192204300500,462837915179546238538219674915782463846153729723694851681925347357468192294371586
