600010003070040002039800450903000501084009007200503600000450020001600790008702004,642915873875346912139827456963274581584169237217583649796451328421638795358792164
970020030003060420050100086001005040400003600690270001002791800010000500069800704,976428135183569427254137986731685249425913678698274351542791863817346592369852714
020103050650900380001075004508060000070804100000250090800030200016020007700009600,429183756657942381381675924598361472273894165164257893845736219916428537732519648
360012007005000000127009080008006704500184900000720003030507290006000031080340000,369812547845673129127459386218936754573184962694725813431567298756298431982341675
090620070000700234050000800008040500007800460930001002005070040100003600806409001,493628175681795234752314896268947513517832469934561782325176948149283657876459321
030560010106407892009008000002045007010306045600900030900002400503700000700100029,238569714156437892479218356392845167817326945645971238981652473523794681764183529
087060340000805060590020007005736020020940000600000401002390100450000000070250083,287169345314875269596423817145736928728941536639582471862397154453618792971254683
062804090040030780050070001006900000400005370590081002301490000000150028000006030,762814593149532786853679241236947815418265379597381462321498657674153928985726134
900084530100309000002060014506498203009006050870203000601070000000001809420000007,967184532145329786382567914516498273239716458874253691691872345753641829428935167
000006091015000008380090420250000003109302060004800750000740006700060089002005140,427586391915423678386197425258674913179352864634819752591748236743261589862935147
701008029039000081500060007010040800400259700006007003004680390000170064302005000,741538629639724581528961437917346852483259716256817943174682395895173264362495178
002000740650080000090175000036004090901500280085003001300026104009700600100300002,812639745657482319493175826236814597941567283785293461378926154529741638164358972
000040000309000100100702059002050970007100034035809020000000306200017000946005200,528941763379568142164732859612453978897126534435879621751294386283617495946385217
050004001204670080600010000920100003005830206030400000090000805080209430007305010,853924671214673589679518324928156743145837296736492158392741865581269437467385912
200500040608070009000632700000003810010200036090004000435089100700100480002006007,273598641658471329941632758527963814814257936396814275435789162769125483182346597
040107900092054006300020080800703050200085100009600000701009003083060070065000214,648137925192854736357926481814793652236485197579612348721549863483261579965378214
000905000680004920007010300270400056506020049100008070005860402013570008000309000,324985761681734925957216384278493156536127849149658273795861432413572698862349517
300780290502030001097050034000040000060200080130805000000001900026004700940370560,314786295582439671697152834278943156465217389139865427753621948826594713941378562
080060004690508000000702003051800702700900080004001906076400205008010030100305070,287163594693548127415792863951836742762954381834271956376489215528617439149325678
201930087000820035090050601004209000560000008020070143479003002000000000600148050,251936487746821935893457621314289576567314298928675143479563812185792364632148759
500000002090406007001007083120908050900310700030024060480530200013000090006870400,578193642392486517641257983127968354964315728835724169489531276713642895256879431
086001700700830002020560190007403060009720405001006000060090804004000931300000020,986241753715839642423567198857413269639728415241956387162395874574682931398174526
450009360800002700710006508003100000001007006080050190090640070070090085000083004,452879361836512749719436528923168457541927836687354192198645273374291685265783914
042009037000060920000003810920035000630120040705800000006040790070056302800010000,142589637387461925569273814924635178638127549715894263256348791471956382893712456
000802750107900006240060030700385900601040200009000470005203098003006010000100007,396812754157934826248567139724385961631749285589621473415273698873496512962158347
050000007908013460401600895003706501000098300024051009100420600502030000000000078,256984137978513462431672895893746521715298346624351789187429653562837914349165278
006010420920800050007000003002500094045009806300076000070130045834205007200600008,586713429923864751417952683762581394145329876398476512679138245834295167251647938
090005004003140078005000903109006030000020800020780491050370000070000209614500000,791835624263149578845267913189456732437921865526783491952378146378614259614592387
009507060000140000008630174867000405000000890000450600002001009056004003130090280,419587362673142958528639174867913425345276891291458637782361549956824713134795286
420500700600001050001009062030005600800002019000400008014830070007200003280050496,429568731678321954351749862132985647845672319796413528914836275567294183283157496
004760300500091000600400980000070024200005000095030060003010049000603805102840007,914768352528391476637452981381976524246185793795234168863517249479623815152849637
030250090100700200085000304702401008003009060046520010000040803000000007954307006,437258691169734285285196374792461538513879462846523719671942853328615947954387126
503090600960400010008002500030007060015000208800006004090200081700003405402708030,523891647967435812148672593234587169615349278879126354396254781781963425452718936
001000007050003280680400050016002040040591000007060309300080600400235901002700005,231658497754913286689427153916372548843591762527864319375189624468235971192746835
780050003000673902009000004200180605046200000190000308500400010014002057607008000,782954163451673982369821574273189645846235791195746328538497216914362857627518439
030072050940638170706000000053006700000010420480900005800005000007200630012004009,138472956945638172726159843253846791679513428481927365864395217597281634312764589
700408090001020340480095002009010035030000200000760910540070020006802700090300400,762438591951627348483195672679214835134589267825763914548976123316842759297351486
040813070700050100060400020078006200500900014030020007087100402019038005600090000,245813976793652148861479523178346259526987314934521687387165492419238765652794831
004250007086041000200603050000079034108000020703004560020906100805000000400017083,934258617586741392271693458652179834148365729793824561327986145815432976469517283
060070002409010603801002050030000090000723005600490008204160009005080040390005780,563974812429518673871632954132856497948723165657491328284167539715389246396245781
318020000704805000000009000000001487460007203000900060180034006009152070040000305,318426759794815632526379148953261487461587293872943561185734926639152874247698315
032105800000800490018070000290010060700069045001740300000006050300920007060300210,432195876576832491918674532294513768783269145651748329127486953345921687869357214
000700500004083109000025736005810002902050401370006908060000040810000007000938000,236791584754683129198425736645819372982357461371246958569172843813564297427938615
050004930060003001001058060903000042000200070007000308002070059090060400084305000,258614937469723581371958264913587642846239175527146398632471859795862413184395726
024009000000000197000510840000800230075060001680290400040003750060908000700000629,124789563856432197397516842419857236275364981683291475941623758562978314738145629
750034006000060208000001005500340000098507100030000097300002069069050420401008700,752834916143965278986271345517349682698527134234186597375412869869753421421698753
050617040014890600070004002002070900000920803081000005060200001000030490807041030,258617349314892657679354182532178964746925813981463725463289571125736498897541236
630090020500007300890010064000045102270030000001006008305020406140083000000900000,634598721512467389897312564963845172278139645451276938385721496149683257726954813
700600840100700203080094000038061000200408950015200000500007030049800702006103004,753612849194785263682394175938561427267438951415279386521947638349856712876123594
070010608630005710049008050800100070096000000503900862007020309000406000052700040,275314698638295714149678253824163975796852431513947862467521389981436527352789146
506100000124500008030042095048000020000807016600495000300010980009206000000008603,596183274124579368837642195748361529953827416612495837365714982489236751271958643
025040063300006817000109020700060001094000002003820705001080309060510040000007000,125748963349256817876139524782965431594371682613824795451682379967513248238497156
900501003002400178040200600000030741150000060603000809027904500009008204000306080,986571423532469178741283695298635741154897362673142859827914536369758214415326987
008001207260300180403208900000010570000507002009004003076005000020600041030090060,598461237267359184413278956342916578681537492759824613876145329925683741134792865
190020007007490358000800000000710040402050093076302005083070620600100804000006009,198523467267491358354867912835719246412658793976342185583974621629135874741286539
170900008000030506652000900000009017830045020040007000004000063009064850200810700,173956248498231576652478931526389417837145629941627385784592163319764852265813794
010000307000902650020036089230065700600700030470008105008240000000501940350090000,916854327843972651527136489231465798685719234479328165198243576762581943354697812
900051040021400600500702800000100034785300009000020760009860200047003000036090015,978651342321489657564732891692178534785346129413925768159864273247513986836297415
008005002602900078570600430090500100400003200105080040000017000031004709080209006,318475692642931578579628431893542167467193285125786943956317824231864759784259316
900000740010360000203004050490025068001400200000893007006708520050012000080000036,968251743514367982273984651497125368831476295625893417146738529359612874782549136
001002000750800100048360009160030508004900607030025090000003070006750210002040300,691572843753894162248361759169437528524918637837625491415283976386759214972146385
600400250500106000079830004000059300934002070001000600120080700080000092000063800,618497253543126987279835164862759341934612578751348629125984736386571492497263815
009064302500000010804315007067490080380020000000507603000200100092700004173000005,719864352536972418824315967267493581385126749941587623458239176692751834173648295
000530000409080070000002086504809007060014200000603000938000004002075018701000962,186537429429186573375492186514829637863714295297653841938261754642975318751348962
004005300500600928280003001100400800700029000003007409000070000351900004800010256,914285367537641928286793541195436872748129635623857419462578193351962784879314256
629007500005290310070800600204050106000010040800009000300004700700903002000060805,629137584485296317173845629294358176537612948816479253368524791751983462942761835
030006050402700009950400317070800402008030090060102000000209005190004006700000038,837916254412753689956428317371895462248637591569142873683279145195384726724561938
601400007059000030000801520040002189130070650000000000097038014080200300200547000,621453897859726431374891526745362189138974652962185743597638214486219375213547968
009700300020500008140020006008000090062040007300009512007600080096003251400980000,689714325723596148145328976518237694962145837374869512237651489896473251451982763
040000000000540900700090023059300700680204000003100568291060050008007000300800196,942731685836542971715698423159386742687254319423179568291463857568917234374825196
038940006000070015000002000070005034469020081800000600000084200207090000601000493,538941726924678315716532849172865934469723581853419672395184267247396158681257493
804090603600027001051040000162400090090000804000300050000105000900000786327006000,874591623639827541251643978162458397593712864748369152486175239915234786327986415
700906034005080009200000100090067250070004000530000008080052761000093000104000002,718926534345781629269345187491867253872534916536219478983452761627193845154678392
060003050703200106090000708080104009905030020006050300070000604004905280008016070,861793452753248196492561738387124569945637821126859347579382614614975283238416975
200150083000030704670094020800506000000001900052940000000000107060308059045000260,294157683581632794673894521819576342436281975752943816928465137167328459345719268
000470000306900027094302080468503100000010090039040806510600000080000203000028900,821475639356981427794362581468593172275816394139247856512639748987154263643728915
804205000000700029003041700200010640100508000090470015010036090400000280650000300,874295163561783429923641758285319647147568932396472815712836594439157286658924371
020000518890601027000004030300005000740802000100060902005037006930000804006400150,624379518893651427517284639362945781749812365158763942485137296931526874276498153
062050009000009400470008050003094870200710000050302060501600030800000047090030001,162453789385279416479168253613594872248716395957382164521647938836921547794835621
300490000084000007000260013001900200206100708075000060020005800590301040408700300,312497586684513927759268413841976235236154798975832164123645879597381642468729351
010060800009400700000003451300570090720030000406108005003006004078902000000001680,514267839839415762267893451381574296725639148496128375153786924678942513942351687
060008005002470000480900003900503017504010208036200900000891040807306001600000002,769138425312475869485962173928543617574619238136287954253891746847326591691754382
004509600700000091500023780040000050000680132080710000170250006060900070235400000,814579623723846591596123784641392857957684132382715469179258346468931275235467918
007060530602100009003802001006745010080093050720000004000006083041508900000009470,817964532652137849493852761936745218184293657725681394579426183341578926268319475
000059702000400000900730086090045003840000620251080079020600000108020300035091004,386159742572468931914732586697245813843917625251386479429673158168524397735891264
230506070000090100070800005002700000980000400450009816016000300008053090004010752,231546978845297163679831245162784539983165427457329816516972384728453691394618752
008010052090040700705603000000500419000102030580030000040250003037406080209008006,468719352392845761715623894623587419974162538581934627846251973137496285259378146
056010003800007910900054200390000056640103008070200000000400800003020071010080594,756912483824637915931854267392748156645193728178265349569471832483529671217386594
590700000000030265016480000008350006004012809600000072070149000800000010040260037,593726481487931265216485793928357146734612859651894372375149628862573914149268537
300001068209480005807009003000060040708005000096300250100500700000200006043890000,354721968269483175817659423531962847728145639496378251182536794975214386643897512
000032000971080030800700640000005020306010004208000715009003000034670008560040900,645932187971486532823751649417895326356217894298364715789523461134679258562148973
090037800407609015130020000900061020780402000000000050205008197301700006000000034,596137842427689315138524679954861723783452961612973458265348197341795286879216534
000020070007004863080503900510268030000100029400005000103709004000600081720050006,394826175257914863681573942519268437836147529472395618163789254945632781728451396
520008300003901408000700096001087625200009000406300100065000081048003900000010003,529648317673921458814735296931487625257169834486352179365294781148573962792816543
000190060005607043082000790300000970004532000060010200009385600100004328070000000,437198562915627843682453791321846975794532186568719234249385617156974328873261459
005009300410600082002040600036005070008901003000700098047002000060170050300860009,685219347413657982792348615936485271578921463124736598847592136269173854351864729
085009070900030000001400560003004280090720006560080007370100050004603001050000420,685219374947536812231478569713964285498725136562381947379142658824653791156897423
062000007503700000000401020980056010700208906000070304008000609005020138010903045,162835497543792861879461523984356712731248956256179384328514679495627138617983245
400005207900060800730400050000021094009300500800507630361009080040600009000084002,486935217915762843732418956653821794179346528824597631361279485248653179597184362
504000002900001630000805901090600804207300009085200300040006000800004267073090010,514963782928471635736825941391657824267348159485219376142786593859134267673592418
