200069030003005140084001000000100006056030480120740009090000500040800213007020908,271469835963285147584371692439158726756932481128746359892613574645897213317524968
000940073040020018091003500800095200069100040030200807403010050010807006756009000,528941673347526918691783524874395261269178345135264897483612759912857436756439182
000100006500090120020750004046001700030500000000403069374008002650020901001000873,487132596563894127129756384946281735732569418815473269374918652658327941291645873
000008010000012305304750060629800400000000081050400907000200090095004000708506032,562348719987612345314759268629871453473925681851463927136287594295134876748596132
007030000039600720500100046065009000240000100700003058100080092304020800020570060,617432985439658721582197346865719234243865179791243658176384592354926817928571463
400837050060020100809000074000685002090003010004100700012000080957400300308070096,421837659765924138839516274173685942296743815584192763612359487957468321348271596
000002000309450600024790300102000008008170090000206407845300000007000905930000180,751632849389451672624798351172943568468175293593286417845319726217864935936527184
400003650000920431000800009078100060005080000901076820050607300002050000600240910,429713658786925431513864279278139564365482197941576823154697382892351746637248915
000746010080003270403002509800904001000060700309010000700809006016000023240000050,592746318681593274473182569827954631154368792369217485735829146916475823248631957
980050160040003078000002004006074230001560007800000950000020080705100000260090403,983457162642913578157682394596874231321569847874231956419326785735148629268795413
001400065090600173800050000000025400103007020700840306600000082308700904405008000,231479865594682173867153249986325417143967528752841396619534782328716954475298631
000700200604030019120408500019000002300509400058020307073000060090600875006010000,935761248684235719127498536719384652362579481458126397873952164291643875546817923
000000180027004005090360002054031060860007900300020007003608700000450830201090600,435279186627184395198365472754931268862547913319826547543618729976452831281793654
050098000061050834007640002040060209080003760006019080095000307070200010308000020,452398176961752834837641592143867259589423761726519483295186347674235918318974625
009306000800050730004200109245100000000700416600009580030602900408003000790000250,179346825862951734354287169245168397983725416617439582531672948428593671796814253
090308500070091060300070800859002700006940020001600300005006004010800007020050981,194368572578291463362574819859132746736945128241687395985716234413829657627453981
070090800063802070009600500700010042238006901500009000000200634080407000010030007,475193826163852479829674513796518342238746951541329768957281634382467195614935287
076400008050172090040030050000780002009010370230605004065000100001028603400000007,176459238358172496942836751514783962689214375237695814865347129791528643423961587
000719050005020008941600003610080200300004809070205060020090040086000301007341000,238719456765423918941658723614987235352164879879235164123896547486572391597341682
030001408540070020002609000400700603908050100000100087120408059600230004300005070,739521468546873921812649735451782693978356142263194587127468359695237814384915276
150900807300050060064307500000000008007490000030800129000609200820730401510040300,152964837378152964964387512691523748287491653435876129743619285826735491519248376
000102697023006008009850400080900072100040500075063000000074080800000006204509030,548132697723496158619857423486915372132748569975263814391674285857321946264589731
006050210340900000000870409030000076001560043500049800004030100890100705012600080,976453218348912657125876439439281576281567943567349821654738192893124765712695384
930400570050038240010020003095600080400807300600000429107500000080003004000009016,932416578756938241814725693395642187421897365678351429167584932289163754543279816
409710000380060020200080601906050182040000007005006390500290070000103200708040003,469712835381564729257389641936457182842931567175826394513298476694173258728645913
506000900108004052940005003690001008000800016002570340000000001370049800080102690,526317984138964752947285163693421578754893216812576349269758431371649825485132697
040290000000000500120087030090500007370010402560804100000000619006043070009120008,643295781987361524125487936491532867378619452562874193234758619816943275759126348
600090470019800005000201800800000002026540300540710068400020050030600090297003000,682395471319874625754261839871936542926548317543712968468129753135687294297453186
010096070000400001956000080090520007470009200002030060008060025300007014005801900,814396572237485691956172483691528347473619258582734169148963725369257814725841936
130050690020900000670030054007300040800071200250009310004105076090604003500000080,138457692425916738679238154917362845843571269256849317384125976791684523562793481
003001800052003067816020000070389046000002000030600519460000070000500038009400002,743961825952843167816725394571389246694152783238674519465238971127596438389417652
780300020006510090300006804100050003437002005005001080004903001000280670690000000,781349526246518397359726814128657943437892165965431782874963251513284679692175438
020000040801900037506080000000210000000490208010053600637000085054030901009740002,923571846841962537576384129498216753365497218712853694637129485254638971189745362
008001900094500003000400258480032607000068000701900030029853006600000000050070109,578321964294586713316497258485132697932768541761945832129853476647219385853674129
908700000500042008126030000203000401600405079090008060000061805402080907005900030,948756123537142698126839754253697481681425379794318562379261845462583917815974236
002013000950047000030609800004060009001324070063000520086100450400000201000008030,642813795958247163137659842824765319591324678763981524386192457479536281215478936
490300001206040900300608500025000170060010004009720000071080029080509403000060007,498352761256147938317698542825934176763815294149726385571483629682579413934261857
080600710000530089000047000090000508345000900600200004402173005079050002100980600,584629713726531489931847256297314568345768921618295374462173895879456132153982647
063120405200090103000605280000240000135008000009000076004006030790010040080070510,863127495257894163941635287678249351135768924429351876514986732792513648386472519
000002370702900000613004008060700100000049805485300200900007506001000030300820400,598612374742983651613574928269758143137249865485361297924137586851496732376825419
040700050056003209070105080003901800001040000704800120902000010805607340000200006,348729651156483279279165483523971864681542937794836125962354718815697342437218596
010000238070000009069304010500060400000027086800530072004650900902100000030900804,415796238378215649269384715527861493193427586846539172784653921952148367631972854
008600470003051080007004061020300900600010000000570024950400003804020097106803500,218639475463751289597284361721348956645912738389576124952467813834125697176893542
003645907007020600010800020000580400650109080020000130005000004040003060108076009,283645917597321648416897523371582496654139782829764135965218374742953861138476259
005064007100090002038010500006020090080040000710300040050602900304005176079000800,295864317167593482438217569546128793983746251712359648851672934324985176679431825
201000089008047005000000000000650901579300062000870030030905400710003206900060008,241536789398147625657298143483652971579314862162879534836925417715483296924761358
018400300204609080000020407520360900403000005007850010050003160706900004000080032,918475326274639581365128497521367948483291675697854213852743169736912854149586732
018000005400002391600070420000040000020506073039008050306900800900301040052600007,218439765475862391693175428561743289824596173739218654346957812987321546152684937
720900600400000070500068342000000960007023051801004007002009016098105400000030500,723941685486352179519768342235817964947623851861594237352489716698175423174236598
980000001000600075570083062740001090000570103008026000602098407100005630004000020,986752341423619875571483962745831296269574183318926754652398417197245638834167529
500810000009004008001903402000050010200000705607301900800609241030700680004000503,546812397329574168781963452493257816218496735657381924875639241132745689964128573
020000060600150409498060010060248003500007008304610700701800000040039000030000026,125984367673152489498763215967248153512397648384615792751826934246539871839471526
640500879002000106050000430087003000003261005000740900010005600900604027520090040,641532879372489156859176432187953264493261785265748913714325698938614527526897341
000083090020000001590040802002009010045600030006471028000052047817300006000006900,671283495428965371593147862782539614145628739936471528369852147817394256254716983
380100700700608051002900004100000090605000408030245000060090572009460010070032000,386154729794628351512973684147386295625719438938245167463891572259467813871532946
006002100008970030194680000000004000023057410900006805560030000007200940030018020,376542198258971634194683257785194362623857419941326875562439781817265943439718526
050700002080900134203000000701609850000810620060003000402005090500308000910074060,154736982687952134293481576721649853345817629869523417432165798576398241918274365
036420900720058430000600100050030070017000002300096000005200640800007090269004008,536421987721958436498673125654132879917845362382796514175289643843567291269314758
700500900006204100804970000009003045300050720120008000950010060401002087087060300,712586934596234178834971256679123845348659721125748693953817462461392587287465319
002009040050020910008650700090300500400078020037060000016584070009200056000000301,172839645653427918948651732891342567465978123237165894316584279789213456524796381
090860000058001030300020760080195000720000015000000043004687002570004000009300001,297863154658741239341529768483195627726438915915276843134687592572914386869352471
069003802020704053050000000307085001208006400540000970000067500130800020000012009,769153842821794653453628197397485261218976435546231978982367514135849726674512389
562300000000000000003124600000040371700009502014500080050280100400030700987060005,562398417149756823873124659695842371738619542214573986356287194421935768987461235
105009248027050010600080053900201000008700000410035600500000180040000002000364079,135679248827453916694182753976241835358796421412835697563927184749518362281364579
006093200420000900380015000091300078648000020700060001010500002800009700250834006,176493285425687913389215467591342678648751329732968541914576832863129754257834196
103000500000500097200069040000800154001003000007042608580900200000030006609218070,193784562468521397275369841326897154841653729957142638584976213712435986639218475
800713040740000800002500000100600090300000002207084560008006300406030150901002008,859713246743269815612548937184625793365971482297384561578196324426837159931452678
200000396465010070900027400000096005010048000630000200002009038300050107008100640,271485396465913872983627451824396715517248963639571284142769538396854127758132649
000000070042005300380600940900086500003740106000150000000004002506970003130000897,695431278742895361381627945917286534253749186468153729879314652526978413134562897
400050009002001807060000030107800000940037208050040300009200060710003000023795104,471358629392461857865972431137826945946537218258149376589214763714683592623795184
456900800080005007010400300009050008000023170302080400008000720700092560604000003,456937812983215647217468395169754238845623179372189456598346721731892564624571983
005032007060000001980065300000207006500000800601009052014706000003010700700820049,145932687362478591987165324438257916529641873671389452814796235293514768756823149
600100530009060800512800000000000007180030006000002390075016040020049063904070020,648127539739465812512893674293651487187934256456782391375216948821549763964378125
407000250020007160005089004809514000000090700261708900030000006508006030100023500,487361259923457168615289374879514623354692781261738945732945816598176432146823597
503009200000604030000020061200900170410305090006070408004567800070100305908000000,563719284821654937749823561285946173417385692396271458134567829672198345958432716
004030029900800400010070600070302000006000375095006180028104050030007060100200890,784631529963825417512479638871352946246918375395746182628194753439587261157263894
210070000004860023900054006000406081301008000650000309897100002000009470005320008,216973854574861923983254716729436581341598267658712349897145632132689475465327198
020009008070245900103600500005100720400800369302004080800703400040060000006090051,524319678678245913193687542985136724417852369362974185851723496249561837736498251
000000000906800205051400900100060030003000809807230460530670000000004026082109370,428597613976813245351426987145968732263741859897235461534672198719384526682159374
030000146005300000009826003000702008504000090200010300008065074096004500001908000,832597146675341829149826753963752418514683297287419365328165974796234581451978632
000004000015009007700008246107020009300040008860100030206030805000650400030907010,628374951415269387793518246147823569359746128862195734276431895981652473534987612
002015063500000100080000900253060001100003076608490200000307000009002540410650080,942815763536974128781236954253768491194523876678491235825347619369182547417659382
109300000000057040006000813020046050000080700473009006800430065001605070000001902,149368527382157649756924813928746351615283794473519286897432165231695478564871932
093005001072080300000601709000000002305000860460500900701350000200049030008700640,693275481172984356584631729819463572325197864467528913741356298256849137938712645
008035200002680091090400006305060000600001903010000700900820507021053080000090400,168935274542687391793412856375269148684571923219348765936824517421753689857196432
009031600018207005523408000000000930901004002046083500705600080000000091080070000,479531628618297345523468179857126934931754862246983517795612483362845791184379256
140000080000038004900050617050820000027009003003716050060005800009600420002084070,145967382276138594938452617651823749827549163493716258764295831389671425512384976
302007901780031504450000320925008040000004000000106705100892000540700000003000608,362547981789231564451689327925378146617954832834126795176892453548763219293415678
070830005164070003300000069000100000608050240410008590700049180250000000009702006,972836415164975823385421769527194638698357241413268597736549182251683974849712356
062000500005000039080031000000304870700006000040900152010063040500700218924800760,362497581175682439489531627291354876758126394643978152817263945536749218924815763
000416050000720040009003600790060000000058760004300982020000800850600073970805200,287416359635729148149583627798264531312958764564371982426137895851692473973845216
008569021000300090050010400300001780000600040021008003080907605009003800704050000,478569321216384597953712468345291786897635142621478953182947635569123874734856219
430090001705086200060307008800000310020704060900000504003508042042000705000100900,438295671715486293269317458854629317321754869976831524693578142142963785587142936
061040025020930007700000800000809100607500900004026050308200410050000280010003006,961748325825931647743652891532879164687514932194326758378265419456197283219483576
000400700030002150104900600800000200060097480021050070200870040050060900046001030,582416793639782154174935628897143265365297481421658379213879546758364912946521837
190000003000006008278005010700431090950208370000000062000100954030507006081090200,196872543345916728278345619762431895954268371813759462627183954439527186581694237
009740065801200004000005302002003906540080070076100030034060100200004007608920500,329741865851236794467895312182473956543689271976152438734568129295314687618927543
800005917006203508004079060070060100020900004158030200961004070000000000300058020,832645917796213548514879362479562183623981754158437296961324875285796431347158629
306098170004700050080403900401209760058040000297000000009000502000061843100000000,326598174914726358785413926431289765658147239297635481869374512572961843143852697
090000000000037164001280009300070205206001800000503000800052700710800400025014603,697145328582937164431286579349678215256491837178523946864352791713869452925714683
