007850090190074050500000300000010070004690200602008140300500620809043700420100080,237856491196374852548921367983412576714695238652738149371589624869243715425167983
050000040768001000010389000500090620000200304840763100400500700000040260300128090,953672841768451932214389576531894627697215384842763159429536718185947263376128495
006800021070500900900010703060751800025009000000480600400060087002304500107000040,536897421271543968948216753364751892825639174719482635493165287682374519157928346
901005030360074000000080600009230070050409200002000160080061490070300850005700002,941625738368174925527983641819236574756419283432857169283561497174392856695748312
007000200040009050690328007001964000000015306000000020100050800023700504008690173,817546239342179658695328417231964785789215346564837921176453892923781564458692173
000270986680000002050090104560100800020400097304050060210684000843007020000030000,431275986689341752752896134567129843128463597394758261215684379843917625976532418
070802390500060200080100070009000027200089450030001000003425080100070006057608000,671852394594367218382194675849536127216789453735241869963425781128973546457618932
803500002204100600500007034000050009709603800142000050000090160301802007080700400,893564712274139685516287934638451279759623841142978356427395168361842597985716423
600300079300010200504090061172900030000700005080634000001000050030075400209080006,618342579397516248524897361172958634463721985985634127741269853836175492259483716
080090040003507060570001008020030900100072500097004081200340010800010609006809000,681293745943587162572461398425138976168972534397654281259346817834715629716829453
420000093806050201503140600008300000000014307060209000100007980005000002907608004,421786593876953241593142678718365429259814367364279815142537986685491732937628154
080430020700560031090008000250706000009100040403005002000870610804301005020004009,581437926742569831396218457258746193679123548413985762935872614864391275127654389
594001300070050069006000700018096004400508030030072010080100050200000408009800670,594761382873254169126983745718396524462518937935472816687149253251637498349825671
005020007630008100280600300090100580300004002020730090810000905009403070400500001,945321867637958124281647359794162583356894712128735496813276945569413278472589631
309000026670250140040070300005800000000520970400930008007060500503401800160000003,359148726678253149241679385795816432836524971412937658987362514523491867164785293
600094000010028706007000320008109054050032000271800003006407090400000010082006005,623794581519328746847561329368179254954632178271845963136457892495283617782916435
200056008480020753090000100800461900070000802100200005007003000500940001340078069,213756498486129753795834126852461937674395812139287645927613584568942371341578269
800700000400008097300005104001000002075060800908203500000020046060931000702400005,819742653456318297327695184631859472275164839948273561183527946564931728792486315
000402061015060072040500008032080000001300095607100000008090057000800200790001604,879432561315968472246517938932785146481326795657149823128694357564873219793251684
508003010390040600006920007401000009060300058002670300080106000975002080010000402,528763914397841625146925837431258769769314258852679341284196573975432186613587492
602305000410800020000040007275010904098000010040000200001006573700090080003052401,682375149417869325539241867275618934398524716146937258921486573754193682863752491
005140007001320060648000200073600082900000000860010470100860003409030005020009700,235146897791328564648975231573694182914287356862513479157862943489731625326459718
103640002000001007064000008007080400920007000030560090000079065082050300095306010,173648952859231647264795138517983426926417583438562791341879265682154379795326814
502960000403500607900001000006080703004600020800703001000032008071009046050400910,582967134413528697967341285196284753734615829825793461649132578271859346358476912
070053024005406070810009000200070180000000463053010000600040057040802009192000300,976153824325486971814729536269374185781295463453618792638941257547832619192567348
875041003001069070004000000020004090307008506600000328090050804000100002752003600,875241963231869475964375281528634197317928546649517328196752834483196752752483619
700530000000100042109024700030200060005009007000360289046050930300810005507000600,724538196653197842189624753938271564265489317471365289846752931392816475517943628
009075400060001092108004500000000279010028300090000060005467010730010004000082600,329675481564831792178294536853146279617928345492753168285467913736519824941382657
062010000003000097800500630409000080000070021050020064070062840980004003010390570,762913458543286197891547632429631785638475921157829364375162849986754213214398576
001002300002901700300060021003050007086490005250700800064300000100007509500029068,691572384842931756375864921413258697786493215259716843964385172128647539537129468
070000010084200000500401670810000004600019025009305000200080509400600030060573001,376958412184267953592431678815726394643819725729345186237184569451692837968573241
000009502108700090560008400040002019001903700057000206490020308006040000370006050,734619582128754693569238471643572819281963745957481236495127368816345927372896154
069040100000003050210700000403052700900300068007108402030000870002060014708500009,369245187874913256215786943483652791921374568657198432136429875592867314748531629
028050010190600000650004702000300158009800030006005204004001070001067500300289000,428753916197628345653914782742396158519842637836175294264531879981467523375289461
030010079009078600060300504000090163082007000100546000040200800900000402058000017,834615279529478631761329584475892163682137945193546728347251896916783452258964317
000004013062309800000080000078040060931007002400008071040090600205000008003051940,859624713762319854314785296578142369931567482426938571147893625295476138683251947
006003201024009058350100000500000020070361400608507009209000040000008907031040800,896453271124679358357182694513894726972361485648527139289716543465238917731945862
090170500005000200703806001000000050604093002050081674000000000160300789038720040,496172538815934267723856491281467953674593812359281674947618325162345789538729146
206000000075000381030009025400205000091803700000067009000010046603902017800004500,286531974975426381134789625467295138591843762328167459759318246643952817812674593
095080076000361800000000001080000020270410030300870900003007050060920400419603002,195284376742361895638795241984536127276419538351872964823147659567928413419653782
004000072790060501050400630670000000300001490009230850010389000520070300000620084,864513972793862541251497638675948213382751496149236857416389725528174369937625184
061320007705006000090004010516940030002600050000070009030502081000007906409800300,861329547745186293293754618516948732972613854384275169637592481158437926429861375
000800040200057006010000735003002050400000981109604007030025000001030092007098460,375861249294357816618249735783912654462573981159684327936425178841736592527198463
201503086006400020504070093350000800040002000000048210813900700000000061605000300,271593486936481527584276193352619874148752639769348215813964752427835961695127348
079060200520034008000000963900100006400073800062000401000050104830007650001409020,379861245526934718148725963983142576415673892762598431297356184834217659651489327
057400000004000806060001900006002009100370620009080710040800051370650290008203000,957468132214935876863721945736142589185379624429586713642897351371654298598213467
001000009860501034240086000057000000000090870030024006090063020406007100012000507,571432689869571234243986715957618342624395871138724956795163428486257193312849567
070003190018760400200009050060018000009040205400030700530200060006001540004800009,675423198918765423243189657762518934389647215451932786537294861896371542124856379
006508090001006720480007050300200010007804300659031000210000005903400006000970400,736528194591346728482197653348269517127854369659731842214683975973415286865972431
050001200007640300086000090300080907200109004000570082704300001030008640001900050,453891276927645318186237495315482967278169534649573182794356821532718649861924753
002006800009703500510092030000905410684300090000070300300200147900500060206018000,432156879869743521517892634723985416684321795195674382358269147941537268276418953
006001050082006390400370002750040800004095030009207100060000200000009581000830064,376921458182456397495378612751643829824195736639287145968514273243769581517832964
014007062800010000070204905501903080080060700000020003400000009009805301032706500,914357862825619437376284915541973286283561794697428153458132679769845321132796548
601090800045000001902000300100000080090870624000235100000600900300502007708043065,631794852845326791972158346127469583593871624486235179254617938369582417718943265
403500108005000970090621000000003050089062030007904200010830060050007004302010000,463579128125348976798621543241783659589162437637954281914835762856297314372416895
009020508400007000500610003000040060740580200308201009970800050600492000030070026,169324578483957612527618493291743865746589231358261749972836154615492387834175926
042008061360004500095370002000013008020400000600200905007005210001030609000900083,742598361368124597195376842579613428823459176614287935937865214481732659256941783
000905407040086250100740300360407090089000004500200030400009068010360700052000000,826935417743186259195742386361457892289613574574298631437529168918364725652871943
040069780803050010029100030000006403086740900790000200205010800010007005030900026,541369782873254619629178534152896473386742951794531268265413897918627345437985126
003049000600050002097603001010000840830096500060800000405000023000704980001320670,153249768648157392297683451719532846832496517564871239475968123326714985981325674
600400090072609800000027130008041002907008000300000605004180000050000360010953700,683415297172639854495827136568341972927568413341792685734186529859274361216953748
031070890000061050900040002004200010560800700089030420000000980003687000045003206,631572894428961357957348162374259618562814739189736425716425983293687541845193276
003607900200400030010000045090050800100700063304208001057030420806000009000092056,543617982269485137718923645692351874185749263374268591957136428826574319431892756
108000000000690073930048205640085007027060000000900034000030040501007009463500082,178253496254691873936748215649385127327164958815972634792836541581427369463519782
014080070000527010509006803008702300050003960097000048401000005700960000023100004,214389576836527419579416823648792351152843967397651248461238795785964132923175684
420300000061029300807000009340800051090570640000060002005436000080950203000001060,429318576561729384837645129346892751192573648758164932215436897684957213973281465
000070090035200607700003045009804006480001002012030050300006804807300000920005710,264578391135249687798163245579824136483651972612937458351796824847312569926485713
600003040030890017010000820084706000000000584021000030960480300052600000000170209,678213945235894617419567823384756192796321584521948736967482351152639478843175269
000040520050903008869000007200009001030081600085207030000800706070500000300016490,713648529452973168869125347246359871937481652185267934594832716671594283328716495
060002003809035400040080070105000806080100090702000500000341009000860021370029600,567412983819735462243986175195274836486153297732698514628341759954867321371529648
000000720400030600908006015180070000000290008309001472210800003030059060607400051,563918724471532689928746315182374596746295138359681472215867943834159267697423851
259003800083007020400060009060020001004109705095004038010000500007538600006040007,259413876683957124471862359768325491324189765195674238812796543947538612536241987
080571090006048705100000030064029100001400000030085609050006002040007050207000308,483571296926348715175692834564729183891463527732185649359816472648237951217954368
002800005090610803730009200070450009160070040004206010000023750000900006300000024,612837495495612873738549261273451689169378542854296317946123758527984136381765924
793500200002030610050084000080700001009640320007005046000400070134009000200016008,793561284842937615651284739486723951519648327327195846968452173134879562275316498
076030005000908140040000396001002508890006020700504000024070030300105900600020700,976431285253968147148257396461392578895716423732584619524679831387145962619823754
094007008008060030201008009060000057900040000000500164050009701700020080086304200,694237518578961432231458679463812957915746823827593164352689741749125386186374295
000340800180002000465079001200006900000407080900120600007000350030260007009008020,792341865183652749465879231274586913316497582958123674627914358831265497549738126
010700650070860490008009000580091070001030000349008020030000062407050000002610503,914723658273865491658149237586291374721436985349578126135984762467352819892617543
030060021060901000002004850501038600000040507300006080096000710070250400400010003,734865921865921374912374856521738649689142537347596182296483715173259468458617293
032007000500900800001006490400500170700030086086020050009301200040090031000082560,932847615564913827871256493493568172725134986186729354659371248248695731317482569
000857000070000230106040009004001050809000004002005603031000042600023085008970060,293857416475619238186342579364291857859736124712485693931568742647123985528974361
204003106090608000500042300060400500801070030037900001008500697705000400040010020,284793156193658742576142389962431578851276934437985261318524697725869413649317825
743005000210030579080102600070020010800600205500300007400090002009450036300000080,743965821216834579985172643674529318831647295592381467468793152129458736357216984
610047003900000570020900000400015000091030602000060084340500096070082300508004007,615847923934126578827953461486215739791438652253769184342571896179682345568394217
249760005003020600800501090730050420000903500001040060006000710002600008100870340,249768135513429687867531294738156429624983571951247863486395712372614958195872346
000401080780096000009000270042030060037000105800050900095800006100004030620305700,253471689781296354469583271542139867937648125816752943395827416178964532624315798
000901500564300020201000007003000784080670300400002005800105000312008009900040600,738921546564387921291456837623519784185674392479832165846195273312768459957243618
000000807030749005102080004006000010400100308050026070060090050097005203003402980,945261837638749125172583694786934512429157368351826479264398751897615243513472986
046030200108000075000002009003009000419250000700006018090427600200083100537600040,946735281128964375375812469683179524419258736752346918891427653264583197537691842
000008620002750090308406100100000305073000080060509010080010004050370009406080270,745198623612753498398426157129867345573241986864539712987612534251374869436985271
500096004002507000106230009000948300000600007030000080200701093450000801009002506,573896214942517638186234759721948365895623147634175982268751493457369821319482576
090800000500000138000016904130002047024000580050609000002108073008063000040920060,491835726576294138283716954139582647624371589857649312962158473718463295345927861
020040013095082600408060090809200400030000760700910280103805000064090320000000007,627549813395182674418367592859276431231458769746913285173825946564791328982634157
850700900003600004020000718100050600000281030072900500480000009000006040915003020,851742963793618254624539718148357692569281437372964581486125379237896145915473826
710500008436070000802006009000300000000069231090014650007093500960000470008050012,719542368436978125852136749671325894584769231293814657127493586965281473348657912
000270000900000026106000305000420709005010032008903000703001084000060510502704060,354276198987135426126849375631428759495617832278953641763591284849362517512784963
000030007450100200730084000500000003000276080009000160360001458820700009010065070,691532847458197236732684591586419723143276985279358164367921458825743619914865372
180000067009000300500040200004029070096031024000700930001602500420097010863000000,182953467649278351537146289354829176796531824218764935971682543425397618863415792
950200000100000069000380040690000050045098021000004073002507800060010034783040000,954261387138475269276389145697123458345798621821654973412537896569812734783946512
