209643000100007090380000500630000009700820050020001074860039021000050067000104000,259643718146587392387912546631475289794826153528391674865739421413258967972164835
064007031000000850905002700030285004001000008000049007052906100103000960008320005,864597231327614859915832746739285614241763598586149327452976183173458962698321475
084061000070053010201000800000024590003000000020907480058700931000096000740010052,584261379976853214231479865867124593493685127125937486658742931312596748749318652
410000320039020810700500006000005000270930654680007130000601470890000200000780000,416879325539426817728513946943165782271938654685247139352691478897354261164782593
000139000408007500079504006500020309007010025360000048001900060050006710280070000,625139487438267591179584236514628379897413625362795148741952863953846712286371954
000800019000002560030097002017500080005000004802960300600135200180040607200080430,426853719798412563531697842317524986965378124842961375674135298183249657259786431
065000420102000000000390000450801702009506301070004008083010060000000904200768100,965187423132645879748392516456831792829576341371924658583419267617253984294768135
051200043600000080090060501005320000040008000209100067100600900008004730503907012,851279643637451289492863571715326894346798125289145367174632958928514736563987412
009003104850000023060100900670205000090041060300000840000709230002600701007810090,729563184851497623463128975674285319298341567315976842146759238982634751537812496
018002030500010600600890040020708500904003020700000410100400062003209000040530780,418672935592314678637895241321748596964153827785926413159487362873269154246531789
520300010300056047107890500050080702400009100908005000090260800001074000260000003,526347918389156247147892536653481792472639185918725364794263851831574629265918473
050400020900100706326008005080070000090806003000920410000530060704000300002017980,157463829948152736326798145485371692291846573673925418819534267764289351532617984
400200058060090400001003070047328060300900007208056010900100500020087000013560040,439271658762895431581643279147328965356914827298756314974132586625487193813569742
002530700060090085800406001001609002240070390070000506705200040019800000003004800,192538764364791285857426931531689472246175398978342516785263149419857623623914857
100380020008001005023960100940700300000400506060000072001028900006090057580003240,154387629698241735723965184942756318817432596365819472471528963236194857589673241
160700024870056000009300080401000809080010005390602040500003906002100070000974300,163798524874256193259341687421537869786419235395682741547823916932165478618974352
003800000690007408200000531000509604104020000057306100801070360030001205000290000,413852796695137428278964531382519674164728953957346182821475369739681245546293817
100030000400800726097045800009001080000906005020074130050293470080100000300000501,168732954435819726297645813549321687713986245826574139651293478984157362372468591
008352004000400010050076002370000420640800109000710035700935000000600807914000000,198352764267498513453176982371569428645823179829714635786935241532641897914287356
006040009300017500200500608500290000648703002000001700032006801160080090007000340,756842139389617524214539678571298463648753912923461785432976851165384297897125346
107400090004290007380060540530000008090670003008002610000700030002301805460050200,127485396654293187389167542536914728291678453748532619815726934972341865463859271
004200065610045009070030020000090180003007000050480700080900030006000014709006200,934271865612845379578639421467592183893167542251483796185924637326758914749316258
900200610104780050030000904050300001200176040609050080306010420020040097008005000,975234618164789352832561974457398261283176549619452783396817425521643897748925136
903600002007002380860005010001400003050000904008730050700001020020094607604000005,913687542547912386862345719271459863356128974498736251739561428125894637684273195
520760800008105003046030009050004900700300012084001070035200100607500080000090060,523769841978145623146832759251674938769358412384921576435286197697513284812497365
090010000304000780000304250040097100200000008800405036006700002530001040010082690,795218364324659781168374259643897125259136478871425936986743512532961847417582693
930056000406000700005203060300410890000000057540087100090032001100004602087000009,938756214426198735715243968372415896861329457549687123694832571153974682287561349
000040307030500080700902016080001005521680040970200000000000253304007000602000800,265148397139576482748932516483791625521683749976254138817469253354827961692315874
109000800000023070000600000031004700500200048002087005068079100000000460240150903,129745836684923571753618294831564729576291348492387615368479152915832467247156983
020031700000408050503090002001200946900080300754060010030607094870000500000053600,428531769697428153513796482381275946962184375754369218235617894876942531149853627
806000000700002890120580000007900102001006730305007480900075043000000200400813070,836791524754362891129584367647938152281456739395127486918275643573649218462813975
004050006013002904002309570089610000300500020070000408600008000020070013900106805,794851236513762984862349571289614357346587129175293468651438792428975613937126845
100800009230090045006000007000350060000007512840106070600200308980070000510940020,157864239238791645496532187721359864369487512845126973674215398982673451513948726
090070016300809020072100000007000900060500083900241000830400107005900800206030400,498372516351869724672154398527683941164597283983241675839425167745916832216738459
500006008109408070602170009050000700000620045040930100400010280807504030090700000,574296318139458672682173459256841793913627845748935126465319287827564931391782564
060524000090701540000900208008009760000800000007130904100002035740600020005000401,861524397392781546574963218418259763936847152257136984189472635743615829625398471
000093800290100045000405360005000010040078906070302000320600070008040000567001092,456793821293186745781425369835964217142578936679312584324659178918247653567831492
070008200002054080900001640068010003000506000201790500057600004804020700300000109,475368291612954387983271645568412973739586412241793568157639824894125736326847159
700589600008603007002000350310000040000008009006740102085096000073010500049307001,731589624458623917962471358317962845524138769896745132185296473273814596649357281
820010976005200000604700080040000030308040001190650200200300000009067100006008405,823415976975286314614739582542871639368942751197653248251394867489567123736128495
009020400500708300036001009200007090040015807600830240400000970081052000002600580,179326458524798316836541729258467193943215867617839245465183972781952634392674581
390000026802005740004076000000390800075804960000007002030010075059000130001600208,397148526862935741514276389426391857175824963983567412238419675659782134741653298
891500000306002018000400630000000097270040000000103450000217940003058076910000200,891536724346792518752481639134625897275849361689173452568217943423958176917364285
100002000070501904800604205003200500090080603001003070902005840050700060060400100,145892736276531984839674215783246591594187623621953478912365847458719362367428159
069018002002450000100700050038260000650001007020080039400000380016003000007690041,569318472872459163143726958938267514654931827721584639495172386216843795387695241
500289000893600500021703000000000600082045001107008302060801030350020009009000740,576289413893614527421753896935172684682345971147968352764891235358427169219536748
950040800102603790000801600007000010000560023000024908041300000608200000070009105,956742831182653794734891652427938516819567423365124978541376289698215347273489165
040072090030610007001008500000000610600485000903001082005093040700056901008000200,846572193539614827271938564487329615612485379953761482165293748724856931398147256
200409100870003026005007003067040801023000040900010050090068300004700592301000000,236489175879153426415627983567942831123875649948316257792568314684731592351294768
740230006300041000008509000500000800061820000902003004105070608630900170000004053,749238516356741289218569437573496821461827395982153764195372648634985172827614953
090170002283004060005068030409700500000900087020015000008000300036050120910800040,694173852283594761175268934469782513351946287827315496548621379736459128912837645
520006083010400950000380102307090501200004030608001400009802000000570060405060070,524916783813427956976385142347698521291754638658231497769842315132579864485163279
208601543070000000000009210650700001430000050900103402000560070804000300025084090,298671543173425689546839217652748931431296758987153462319562874864917325725384196
900030500060800004100207008000070840450060209007008130531090000090120760006400000,982634517765819324143257698319572846458361279627948135531796482894125763276483951
360000700000600081000012903090350010076009805100000200703000002802906007009204050,361895724927643581584712963298357416476129835135468279743581692852936147619274358
010048003026700009840600107984070050300005010100060290000013600070400800605020000,719248563526731489843659127984172356362985714157364298498513672271496835635827941
870329060002070080310806004020095000000000506905104203030040001580200940006000800,874329165652471389319856724723695418148732596965184273237948651581263947496517832
800070030200005009004602100035020804009010000070006025500400397041700006063080050,896174532217835649354692178635927814429518763178346925582461397941753286763289451
001009020009073005040601083054000060300042790080000001100200506200906030003080200,831459627629873145547621983754198362316542798982367451198234576275916834463785219
070500043600072000009460201760000350004095080001008006000020004005810060200304700,172589643643172895589463271768241359324695187951738426817926534435817962296354718
305047008067010000020000009200060013600302700070094820000970650900000300001058400,395247168867519234124836579248765913619382745573194826482973651956421387731658492
102540070409300002000070000600950803800001700095020004004680390007002040308000015,132548976479316582586279431641957823823461759795823164214685397957132648368794215
097300061008612700000000400001008530703290000860000002400153070006004000502870109,297345861348612795615789423921468537753291684864537912489153276176924358532876149
703019200000083006200400050005090007030120048800600920046700090900030600107000430,763519284594283716218476359425398167639127548871645923346751892952834671187962435
600009418000018000003750290708006000400200001010090002204530089090402305050080600,675329418942618537183754296728146953439275861516893742264537189891462375357981624
056800070100075024000000003083906000007000100910450060400601800200730059030042000,356824971198375624724169583583916247647283195912457368475691832261738459839542716
031004008902000710000690042000050609070006000580930020100328007060400085004000900,631274598942583716758691342413852679279146853586937124195328467367419285824765931
960100703080005200400320010270000040005062080006040901008403095010050600000008070,962184753381795264457326819279831546145962387836547921628473195714259638593618472
000050092083002070500600001070004009904018600000060305002070000140080250896300004,761853492483192576529647831675234189934518627218769345352471968147986253896325714
420070500030006001007090360060054003000120048710600900800700050500403092002089100,426371589935846271187295364268954713359127648714638925893712456571463892642589137
103620000084059002500401009020000054607008900800230100070063000006700300900510470,193627548784359612562481739321976854657148923849235167475863291216794385938512476
002006410096043000807590000010702604005000170000030005900084500653900002008000060,532876419196243758847591326319752684285469173764138295921684537653917842478325961
003570001150006007200080400890305000007604809301000250085000940009000712000730000,943572681158946327276183495894325176527614839361897254785261943639458712412739568
000674050080000702600200003010005090800003004035900208251840007040160900070500080,123674859584391762697258143712485396869723514435916278251849637348167925976532481
071000000062005903043200108690004080080067002007109005020050047400093206000800000,571938624862415973943276158695324781184567392237189465329651847458793216716842539
006000005500706000013400900090030002400180070702904013200068004080500720009001030,976813245524796381813425967198637452435182679762954813257368194381549726649271538
000087306069435800070200004095000402020509100001340000008900605700004031010003070,542187396169435827873296514395718462427569183681342759238971645756824931914653278
020000089009706400140080000000301008670500001080420350000015020560003090300900067,725134689839756412146289735254361978673598241981427356497615823562873194318942567
700804600600050023040000010053009070002380900400007305060470000000100208914020006,721834659689751423345962817853649172172385964496217385268473591537196248914528736
000200089650700000003051200540000003300800096708160400009070041074009050200610008,417236589652798134983451267546927813321845796798163425869572341174389652235614978
900830057500004200014200600030000005201040070708100046397002008000060090600057304,926831457573694281814275639439786125261549873758123946397412568145368792682957314
009035004100207850000000020903102070700040380051600402000351000402000700080000069,279835614164297853538416927943182576726549381851673492697351248412968735385724169
908560001040000300060108570700904620082000010000870003600095000809230060024000100,978563241541729386263148579735914628482356917196872453617495832859231764324687195
004000078000010090700052000430900006018006400020508010006700132000004589289030000,154693278862417395793852641435971826918326457627548913546789132371264589289135764
002050700509708000001063008107345200000006030800100409420080900600900013000007640,382459761569718324741263598197345286254896137836172459423681975675924813918537642
001050080009106304070004060000000605600902100034070008010540720005200009803019000,461357982589126374372894561297481635658932147134675298916548723745263819823719456
002000540030600800900250076000000020000708150001520603600040700310900000075060201,162387549537694812984251376853416927296738154741529683629145738318972465475863291
004020600590708000000500073379000000002901005080360402003604007800090510421000009,734129658596738241218546973379452186642981735185367492953614827867293514421875369
600028059030700080700090402070104060002900000564000003086510074000069010100403800,641328759239745681758691432973154268812936547564287193386512974427869315195473826
005040006000071800023009040300090700006180594000020081940006030050000008100850670,715348926469271853823569147381495762276183594594627381948716235657932418132854679
050030210018620090000008000000700059000001432064003000409010700083205006006084120,657439218318627594942158367831742659795861432264593871429316785183275946576984123
507000090100067003083902005020600180005000070930800000600020407041000052009403610,567348291192567843483912765724635189815294376936871524658129437341786952279453618
000200407030600009980013005012057300008420000400800706001004800000079050046000010,165298437237645189984713265612957348378426591459831726591364872823179654746582913
100800605000004030059003824300270590700040001092056000530020067006900000021030400,143892675287564139659713824314278596765349281892156743538421967476985312921637458
030000500900204078008100296070021084100056900600080007060009003020048010857300000,236897541915264378748135296573921684184756932692483157461579823329648715857312469
600208009070031000005040370002003000786000200950004180200080007060002030018950004,631278459479531862825649371142863795786195243953724186294386517567412938318957624
003045086901632050000010000006781000200000900007059300070420809040003001030008075,723945186981632754564817293396781542258364917417259368175426839849573621632198475
074601200010305700000090005182000000306700051057030840098504006600900180000002090,574681239219345768863297415182459673346728951957136842798514326625973184431862597
300004600401980020059000407576002000800040700000006351004605008690703005020000130,387254619461987523259361487576132894813549762942876351134625978698713245725498136
002301000001079032004800905040090580180400070600103200300050700050008640000700009,592341867861579432734862915243697581189425376675183294316954728957218643428736159
