020004310008000090306270500040601030200040800061900700004708005000053600709106080,925864317478315296316279548547681932293547861861932754634798125182453679759126483
480020605230095047950100020000704200300002710060000030000410000010000863809063000,481327695236895147957146328195734286348652719762981534673418952514279863829563471
009010802030006010007039500740320090800000700090605000076002340410700050500804006,659417832234586917187239564741328695865941723392675481976152348418763259523894176
002300001654009300030400680000790800173000004960004200040056090000000020080173065,892367541654819372731425689425791836173682954968534217347256198516948723289173465
090813700040006010063200005000900600052000030006041509000405008527008906001760002,295813764748596213163274895314952687952687431876341529639425178527138946481769352
400030019073400086061000000200643500040020900307108000000000605092701003508200007,425836719973415286861972354289643571146527938357198462714389625692751843538264197
070000195000004286020908000508070000130020059006003700080091003005407001410030800,874362195953714286621958374548179632137826459296543718782691543365487921419235867
005092300000410097047680120100069500500000009200074810006300000000020078408050206,615792384832415697947683125173869542584231769269574813726348951351926478498157236
012300060097040000000705900000002873020036104908000250304260000800400605000017030,412389567597641382683725941146952873725836194938174256354268719871493625269517438
023070100500004087004100065002300009490010006800540702050020000207030400001607900,623875194519264387784193265172386549495712836836549712958421673267938451341657928
003800004508701092400006070000035010070020603090100000900564700200000406050008100,713892564568741392429356871842635917175429683396187245931564728287913456654278139
705001060900005102260070403007000000020000086300204095008030640503700920000849001,735421869984365172261978453857693214429157386316284795198532647543716928672849531
000064070210830900800050006030600010000008204900071000047902301003000008109500620,395164872216837945874259136438625719751398264962471583647982351523716498189543627
960007050010005804200800067070002000094078002002300401700609300050100098830000200,968247153317965824245831967673412589194578632582396471721689345456123798839754216
005081706093000024006023090210000065008006009040070100002049000000500017850062000,425981736193657824786423591217894365538216479649375182372149658964538217851762943
003002180600000049197050000420003000050600008039010076000724010008001260000386005,543962187682137549197458632426873951751649328839215476965724813378591264214386795
000005006968040105150700903004001700080460020203508000370000800000010500049032600,437195286968243175152786943694321758785469321213578469371654892826917534549832617
189006200070051300300200670000500002407008000013027090800970130000000045690014000,189736254276451389354289671968543712427198563513627498842975136731862945695314827
000070983007040260000109000100860070400005006032000590920400100801350000705020804,514672983397548261286139745159863472478295316632714598923486157841357629765921834
000050270006800401500049030000093002087106040000470900020387090071000520340000800,438651279796832451512749638164593782987126345253478916625387194871964523349215867
780035004104000600600210000800027090030040500002809703090000150500060002040073980,789635214124798635653214879865327491937146528412859763396482157578961342241573986
009002560008003002007018903000860201503000407800074650030029000096500000002400190,319742568648953712257618943974865231563291487821374659435129876196587324782436195
471300006050020090930800040003008659504000310006100000820000000000401907000692038,471359286658724193932816745713248659584967312296135874829573461365481927147692538
000009200004026035098070410400307180080240003015008020601000000050000647032900800,563419278174826935298573416426357189987241563315698724641785392859132647732964851
702100000000090008108602053400003106001080000570000090234057900060009070000326405,752138649346795218198642753489573126621984537573261894234857961865419372917326485
020000750900010003460230901780001040000904002140000006005309008000060500010078029,321896754958417263467235981789621345536984172142753896275349618894162537613578429
001040029400027500068000030002000764900001803356000002010080090709500000830400106,571348629493627581268159437182935764947261853356874912614783295729516348835492176
210500403000900600000034800070408002420060000509370006008210000356890010000000750,217586493834921675965734821671458932423169587589372146748215369356897214192643758
007059030950100080006080002001040600480060075600200003000021058190308004240000007,827659431954132786316784592531847629482963175679215843763421958195378264248596317
402080090005000730930100054090000126307050040080406500000870019000003200028540000,472385691815964732936127854594738126367251948281496573653872419749613285128549367
062907840930006010000000200743500060008049001090200005380015009000000700026708004,162957843934826517875134296743581962258649371691273485387415629419362758526798134
024317500000000000360005074256000900900400001000060708530004200010800007608930010,824317569795648132361295874256781943987423651143569728539174286412856397678932415
750300080000091005006004070010007600009250004803000020090800740060003000584602031,751326489438791265926584173215437698679258314843169527392815746167943852584672931
700160580385009016600002004501078000002401000800920030106035020000000093000004800,724163589385749216619582374561378942932451768847926135196835427458217693273694851
006000001000002095000479000013607280060035007809040600007910008925003040004000730,296358471748162395351479862513697284462835917879241653637914528925783146184526739
080050700703000020402103900008037600010200084930600050240000006009540130001008090,186952743793864521452173968528437619617295384934681257245319876879546132361728495
082040900043750060000920007108006020020000850076000009000215043365870100000009008,782641935943758261651923487138596724429137856576482319897215643365874192214369578
003065480049010000200000173000690005450008000006700320700020058098003004004900700,173265489849317562265849173317692845452138697986754321731426958698573214524981736
030600080050912400100070500089104000000320700002000946500000000640798001090406037,937645182856912473124873569789164325465329718312587946578231694643798251291456837
007000003800900065200035078000003090390080010015240800509670020003004000780010400,957861243834927165261435978478153692392786514615249837549678321123594786786312459
069217000005900030280600000700000650020078409091500003040006705810030000600800020,369217548175984236284653197738491652526378419491562873943126785812735964657849321
300802006004001527000600001750000000086023050013008009200930700090045080600100042,371852496864391527529674831752419368986723154413568279248936715197245683635187942
070000009208064070040290061050002600400008017000300580780006003016405000003070090,671583249298164375345297861859712634432658917167349582784926153916435728523871496
083005700040060001107200089406190052500000100000030060700300620009800000000421307,283915746945768231167243589436197852592684173871532964714359628329876415658421397
002007063003910480740000009000105026000030800075200031000890002004006105690004070,912487563563912487748653219839145726126739854475268931357891642284376195691524378
000009020248050001710804053000018000360000005500060279032705060090600180070040000,653179428248356791719824653927518346364297815581463279132785964495632187876941532
400005200830010095690020070009258000300070080750431062000087000240090003006000019,471965238832714695695823174169258347324679581758431962913587426247196853586342719
082500100000209037000160090006005080450080009710304500030020900509001074640000028,982573146165249837374168295296715483453682719718394562837426951529831674641957328
500208460034100000800060500002000605053010080006390720001904807200701000908030040,519278463634159278827463519192847635753612984486395721361924857245781396978536142
008000700102300005074962000000150080010020357360000200200074003050809060906005001,638541729192387645574962138427153986819426357365798214281674593753819462946235871
010206503504000072030009010006010900081070045000080000009425087400301000020000036,817246593594138672632759814746513928981672345253984761369425187478361259125897436
600003047000006200780400610300050000010090080090870024072100065863900070400200900,629513847134786259785429613348652791217394586596871324972138465863945172451267938
809020003000801940650007200206900000030045000080706410000060037520003109100500800,819624753372851946654397281246918375731245698985736412498162537527483169163579824
050070340300862007079000001802040010900200800064001053000300905000016000407500006,658179342341862597279453681832645719915237864764981253186324975593716428427598136
453090600080000000190274000000000930500480001304060205002100096070008410600005073,453891627287356149196274358768512934529483761314769285832147596975638412641925873
807000090060050000504008170200910003070400050650003002020587010309020000080001604,837146295162759438594238176248915763973462851651873942426587319319624587785391624
531060080400001079060428000000004307040200900907150060005007213013080000600000500,531769482482531679769428135156894327348276951927153864895647213213985746674312598
700050300001348009096007000070020008140700500003960102410090003000106084008035200,784659321521348769396217845679521438142783596853964172417892653235176984968435217
300107500800600210005038604097203050003000000104009007060800401051000890900406020,346127589879654213215938674697243158583761942124589367762895431451372896938416725
306209000002008001000430007004900056038060200090704108800000500050690043010050070,376219485942578361581436927124983756738165294695724138869347512257691843413852679
100067380230900057064503000070002008009400000580000109050010032000020876306009400,195267384238941657764583291473192568619458723582736149857614932941325876326879415
940050201002600030036100905000507046500004800600008702400300108890025003007090000,948753261152689437736142985289517346573264819614938752425376198891425673367891524
306080002000009051000204807600003094000705000810000500000120030580007106420300700,376581942248679351195234867657813294932745618814962573769128435583497126421356789
000009700305004100071250800508100490760000001003428060009006000080030002136580004,842619735395874126671253849528167493764395281913428567259746318487931652136582974
300020019049300500008604020081000600000005800600047031007900304150480097002050006,376528419249371568518694723781239645934165872625847931867912354153486297492753186
063000000500490063702050100000600831007080029000205400420900307098000052006010080,963821745581497263742356198254679831637184529819235476425968317198743652376512984
130000000607800043042009080400900206260071300089005000000054017753000400000620900,138546729697812543542739681471983256265471398389265174926354817753198462814627935
093008000520060003700500490200057000100802067000600980460305700032080050070040100,693478215524169873718523496286957341149832567357614982461395728932781654875246139
306005480800107239000040007020098006050000300900004100012309500469700000008006002,376925481845167239291843657123598746654271398987634125712389564469752813538416972
000000002200100048063407900950080460702060001048500003000300580105809070009006020,514698732297135648863427915951283467732964851648571293476312589125849376389756124
010003700000714080096080000002600000308200590000078140205090830430005000000406007,814963725523714689796582413142659378378241596659378142265197834437825961981436257
054000000000000029180090006420007001001060380803509002070050200009406503006370010,954628137637145829182793456425837691791264385863519742378951264219486573546372918
070900820502006001390805070000010007005648200206500403000700906000203100458000000,674931825582476391391825674849312567735648219216597483123784956967253148458169732
028501047000063000001704900406080205070100300900000060560002030839005001000900700,328591647794863512651724983416389275275146398983257164567412839839675421142938756
750608000000050601402091000080900010030507040600400398810200500903000060007003400,751628934398754621462391857284936715139587246675412398816249573943875162527163489
307094810501000009200800300000200450940060083020400007603005100000108700809027000,367594812581372649294816375736289451945761283128453967673945128452138796819627534
300080016000400800015600049053002008104700500600009100087530020000026007402010090,349285716276491853815673249753142968194768532628359174987534621531926487462817395
091500000002960003603000407408020030030070046000003105187000900020080651009042000,791534862842967513653218497418625739935871246276493185187356924324789651569142378
000040000518072600430005028000050807073060900002083001097000046601900073200000100,729846315518372694436195728164259837873461952952783461397518246681924573245637189
015000023030010079000008060798020500000405000024600018300060751400390002670001030,915746823836512479247938165798123546163485297524679318389264751451397682672851934
400006000070100098302090700003820400000060509105930060089004617051000300000700080,498276153576143298312598746963825471827461539145937862289354617751689324634712985
006010480008070905197400000000601009500002700030080021080000060240007003013890500,356219487428376915197458236872641359561932748934785621789523164245167893613894572
020030060901006704500017903005000340080072001109300008608001000000409857004200600,827934165931526784546817923275198346483672591169345278698751432312469857754283619
000780405000210090046000000780029060900403007051000020005300800000507310620840709,219786435537214698846935271784129563962453187351678924175392846498567312623841759
190730500002006000560009078080000309000540080607000104041360000008020010930005207,194738562872456931563219478485671329319542786627893154241367895758924613936185247
000106090480097002090080000700065040308020050006704200105000004002009037900300861,257146398483597612691283475729865143348921756516734289135678924862419537974352861
050008700002100058300420109896050002004067005007800030061290000000500601900006003,159638724642179358378425169896351472234967815517842936461293587723584691985716243
980036001200000806050000904600500700004380200005701003000090040102008050090075680,987436521241957836356812974639524718714389265825761493568293147172648359493175682
007462105820500340001000000403007000100300908080000200050870060600100090000049052,937462185826591347541738629493287516162354978785916234259873461674125893318649752
005007001000020340960100057072035000003006980500800000008750009400008602217090000,325467891781529346964183257872935164143276985596841723638752419459318672217694538
206074900053108000010200008000007005602053740001000809704095086030041020000000004,286574913953168472417239658348917265692853741571426839724395186839641527165782394
800095201067001030000080540708000390001506080030000002010840000200009005009100473,843795261567421938192683547758214396921536784436978152315847629274369815689152473
000072004087059600060800350051003002206000190030400760370200008008045030000100409,513672984487359621962814357751963842246587193839421765374296518198745236625138479
700108002900030070205000360030016200000000905008702040070040809064850001001300450,743168592986235174215974368439516287627483915158792643572641839364859721891327456
050074091070000060000230058904000007000089310063000000002906005400310072810050904,358674291271895463649231758984163527527489316163527849732946185495318672816752934
000029600030005700709000408400100000075460210008900000002000006601270095850001300,584729631136845729729316458463152987975468213218937564392584176641273895857691342
000007068407810000320506900900000740000000032531400006804090005090050170670100300,159237468467819253328546917982365741746981532531472896814793625293658174675124389
070010045006000009184002007300080016000074520802091030065000800719030600000507400,973816245526743189184952367347285916691374528852691734465129873719438652238567491
000620070070005800003090102500901000106400003394080205018070309000060001240008500,851623974972145836463897152527931648186452793394786215618574329735269481249318567
002900000064051030570340009203000005006230401000796800040000710800400000301008902,132967584964851237578342169293184675786235491415796823649523718827419356351678942
