008006103137204090020000000094180050000400782006003000800900000902071400405002870,548796123137254698629318547294187356351469782786523914873945261962871435415632879
071008000002000094003209005000000506300014870057003020700960300049080010600740002,971458263582136794463279185194827536326514879857693421715962348249385617638741952
050068024600700189010020600581004000740006000000030015009000503430970008002300070,957168324624753189318429657581294736743516892296837415179682543435971268862345971
030890000180000305000060041200080070001450008300109600590200003000074062640500017,435891726186742395729365841254683179961457238378129654597216483813974562642538917
004260000000008027000071503010059080907006350025000070830400060046305902100090400,574263891391548627268971543413759286987126354625834179839412765746385912152697438
800200000504003007017050003009040010403010605000768090060079042000520106005001080,836297451524183967917456823679345218483912675152768394361879542798524136245631789
009080010003020096020004500600930704008107000300050081700000060580072000040065302,469583217853721496127694538615938724298147653374256981732419865586372149941865372
098620001000009300146007000563400700000030420700086050012903045000000280659000000,398624571275819364146357892563492718981735426724186953812973645437561289659248137
051000700060080020709100054500004001006390480902000075030000200010860900408020063,851942736364587129729136854583274691176395482942618375637459218215863947498721563
000090750078020003300084600230000800089670400506100290004805000720003000050000916,462391758978526143315784629237459861189672435546138297694815372721963584853247916
407600020050703100180500060209010006030000040800900070000307002010804935005009700,497681523652743198183592467279418356531276849864935271948357612716824935325169784
601000000400507000820000930050740806080010070030090214009402603000300001007081520,671938452493527168825164937152743896984216375736895214519472683268359741347681529
206543000700092000050060090000800317305206400004000500000309000002010763401007008,296543871748192635153768294629854317315276489874931526567389142982415763431627958
107020006080510924000908007500090001074000230009003680002006000030200570048730100,197324856386517924425968317563892741874651239219473685752186493631249578948735162
030006070045020100010800024087935000000000501002060080900502006400090038028010700,239146875845729163716853924187935642364278591592461387973582416451697238628314759
090300850650097100001000002900005243400600001807020090002403570000850006063000020,294316857658297134371548962916785243425639781837124695182463579749852316563971428
100007265060040310200050008090000050006810009507300000700003002002094501804601073,148937265965248317273156498391472856426815739587369124719583642632794581854621973
000003064104700300090200800900002705310000002508010040060009000085370200000084107,872193564154768329693245871946832715317456982528917643761529438485371296239684157
060800020400709006052000801803406100009030000000500042706001095000653708180040200,367815924418729536952364871823476159549132687671598342736281495294653718185947263
100892000307040000004007025000500946005230000790000000630004087009180200801026530,156892473327645891984317625213578946465239718798461352632954187579183264841726539
070000500132008006008340120004020000805097040600000079900480003001075200040106080,479261538132758496568349127794823651815697342623514879956482713381975264247136985
000040000065002190007390204019600030270000400006017005800003700000250016030401089,923145678465782193187396254519624837278539461346817925851963742794258316632471589
700060320850700900106003004007500036000410780904006002002035000690000010030008000,749861325853724961126953874217589436365412789984376152472135698698247513531698247
002310075004000681870000020706020004100806090903150000000049052000001908050700030,692318475534297681871465329786923514145876293923154867318649752267531948459782136
900080310040076000700200900083000000017004206000060500030047690029030051100520080,962485317341976825758213964683752149517894236294361578835147692429638751176529483
240060030000008500008390007601043009080700002500001040009000100700820600003509074,247165938396478521158392467671243859984756312532981746429637185715824693863519274
200067500007000401009540070310000092590008703704006010000804260000031000065020008,243167589657983421189542376318475692596218743724396815931854267872631954465729138
750623900009400600100007030002508000000009054000040370004280003907001006060900810,758623941329415687146897532472538169831769254695142378514286793987351426263974815
048009001300080096090002005079605002002400070050001060607820400000100300205007018,548769231321584796796312845479635182162498573853271964617823459984156327235947618
000078093910400200300060570030010009040000850605900020004056700001042008020800060,456278193917435286382169574238517649149623857675984321894356712561742938723891465
000008000692000000045000716000020430000007589030849600100573004480090003050000920,713468295692751348845932716978625431264317589531849672129573864487296153356184927
500904260470000030061000850200051000040820000000300790058002006700130480090607100,583914267472568931961273854239751648647829513815346792158492376726135489394687125
500009041000250670078040030420605000800700009065300000300902050041030820600001700,536879241194253678278146935429615387813724569765398412387962154941537826652481793
070030940039002008481006000500009700904080231017060000000120080000700650802045003,275831946639472518481956327528319764964587231317264895756123489143798652892645173
000710020300405010580000700060104800030070009070809102009060080056300901200080540,694718325327495618581623794962154837138276459475839162749561283856342971213987546
580040903009020010004600507207800059000103070308000100020097000065008000703010402,582741963679325814134689527217864359946153278358972146821497635465238791793516482
900006007027810003005000809010960400000270006030005010096050200071024030008300500,983546127427819653165732849712963485854271396639485712396158274571624938248397561
900000200010004700005178004028600900690000003001700060400900306060002800080503472,974356281816294735235178694528631947697845123341729568452987316763412859189563472
041030070070009204508020006002070095000600080064800001030000700007041503916700002,241536978673189254598427136182374695359612487764895321435268719827941563916753842
074600005900023600080000270120079003005280000407056100500090030006002800030004750,274618395951723684683945271128479563365281947497356128512897436746532819839164752
090001750004830600506040080201900000000000139070403002000250046402006910307000500,893621754724835691516749283231968475648572139975413862189257346452386917367194528
009608050000000001370051904080915020600800000002040007060079530008003210030500076,149638752825794361376251984487915623693827145512346897264179538758463219931582476
105008963790002401040006020300270840004000000900080106010030002600400000008900750,125748963796352481843196527361279845584613279972584136417835692659427318238961754
000382010629010030000400705010005000200006087470000069100000308703090400850001092,547382916629517834381469725916875243235946187478123569192654378763298451854731692
001080006327100009089000000000005210008703005060800400003000504140508307506020900,451289736327156849689437152734965218218743695965812473893671524142598367576324981
036094200000073090501800004850000000409600703070210800000708900040302067320000450,736594281284173596591826374852437619419685723673219845165748932948352167327961458
900000170043000600700050003029000060001984305800706010092400008060802000504310000,958643172243178659716259483429531867671984325835726914192465738367892541584317296
730806200890500730002000810100405000006030070945200060000018500000950040600003120,731896254894521736562374819173465982286139475945287361427618593318952647659743128
760105400002060030005080010030020060284003001001400070003902005040850390000006087,768135429412769538395284716937521864284673951651498273873912645146857392529346187
060700103900010870037004002540000080006030004010052690000000000400091258050800716,865729143924316875137584962542967381796138524318452697681275439473691258259843716
900000805020140000306008009060800931800006070057002000082035400000070290010204703,941763825528149367376528149264857931893416572157392684782935416435671298619284753
300410028670008400008200900090005070006380009041920080280630047100050003000000650,359416728672598431418273965893165274726384519541927386285639147164752893937841652
000500000002003018901042703100000020085097600007601054030008405000029000060405190,873516249642973518951842763196354827485297631327681954239168475514729386768435192
094003610751009800008502000300000090000147002502000160000080030803005041470600009,294873615751469823638512974317256498986147352542398167129784536863925741475631289
000850600048009070560007010700200150000040902013060080900080400625100003400300027,172853649348619275569427318794238156856741932213965784937582461625174893481396527
000400000092005000400800697070008014903050800850206003509000001630001409080063700,768419235392675148415832697276398514943157826851246973529784361637521489184963752
040000090005301800010700430650092043007100005200007600008006020039085007162000900,743628591925341876816759432651892743397164285284537619578916324439285167162473958
609001800070800050004230960001400600008102007300000204250070009003005040497600300,639541872172896453584237961721453698948162537365789214256374189813925746497618325
080640030490002760006519002002003080540801000000700000000000300063400275708100600,281647539495382761376519842612953487547861923839724156954276318163498275728135694
204000000090800617001590000080004036040027509500030000709000801050000003612700490,264371958395842617871596342987154236143627589526938174739465821458219763612783495
040000650320090040006010300200030005001400007600005231700083000050200090410607800,147328659325796148986514372278139465531462987694875231762983514853241796419657823
080107004500360100000020908009000705402906030800501006608003010041000502900704000,286197354594368127713425968169832745452976831837541296678253419341689572925714683
019000000000095004250600037608200000090138650100007403803040200000700009040810075,319472568786395124254681937638254791497138652125967483873549216561723849942816375
002180005804009010037050600009810003200090000060700001500960020900300587401002300,692187435854639712137254698749816253215493876368725941573968124926341587481572369
010000703400000206062980005050006870280041000390000050000250901073010000000809640,815462793439175286762983415154396872287541369396728154648257931973614528521839647
800900300150700090400258710980005000000601002076803040524060003000007209030000160,867914325152736498493258716981425637345671982276893541524169873618347259739582164
087396200004000650013000007000030000406027080090010035050972140200000078060058009,587396214924781653613245897175839462436527981892614735358972146249163578761458329
708502600500093002043000000026078450100206090970000200030800700000009060850400130,798542613561793842243681975326978451184256397975134286639815724417329568852467139
000030005680000000902400078873004096004090207050001030000500000026087013490060502,741836925685729341932415678873254196164398257259671834318542769526987413497163582
005900100002036008800040063700060451900007026608210070070580000401000980000003002,365928147142736598897145263723869451914357826658214379279581634431672985586493712
001800090500006020302500406030060010700940605005000907400358200000107080090020001,641872593579436128382519476934765812728941635165283947417358269256197384893624751
016000390890650007754000000020308074405002608060405100900006010030097002007100080,216784395893651247754239861129368574475912638368475129982546713631897452547123986
007018240100604059000200000900000100000870360750003400300402806690001070002005030,567918243128634759439257681983546127241879365756123498375492816694381572812765934
102340060006105004000008390308020700060001005590700630004610000050090008700003240,182349567936175824475268391348526719267931485591784632824617953653492178719853246
000460120130007050500002008850900000079300600600048017008650009004200030290010004,987465123132897456546132798851976342479321685623548917318654279764289531295713864
007000009190005460800000130200873040040100050309600200000060300480009501050740680,537416829192385467864927135215873946648192753379654218721568394486239571953741682
490053020003001090051860000149300008007090000000605470006080200020000104300007056,498753621673241895251869743149372568567498312832615479916584237725936184384127956
760000000050007492400135000004890305900000060000250078001308600039020800007060140,768942531153687492492135786274896315985713264316254978541378629639421857827569143
040063905100000700063009480208000006015027000090100300507041000000870090004200500,842763915159482763763519482278394156315627849496158327527941638631875294984236571
060040007100003009029050308700690032080015000002000601040030090608029005900700040,863942157175863429429157368714698532386215974592374681247531896638429715951786243
706000200590600008100009030060000817070200059000180040905403001000006500032070080,746318295593642178128759436264935817871264359359187642985423761417896523632571984
830407005106000200700501009500780000092000080470000563000100300060950120240600007,839427615156893274724561839513786492692345781478219563985172346367954128241638957
080003210005200003420019006290800700001000004370096000900430087008700059000001360,789643215615278943423519876296854731851327694374196528962435187138762459547981362
600030000492105000305800260070049650001050003000600080006970800803400702040002100,687234519492165378315897264278349651961758423534621987126973845853416792749582136
004097500123005004000000068900310075800054020006700100061008002009601400470020030,684297513123865794795143268942316875817954326536782149361478952259631487478529631
540072013300500060010840002090086000001900057420107090069001000000090034830000029,548672913372519468916843572795386241681924357423157896269431785157298634834765129
000052109531900720008700060020083006070540300003009004904607080000420001100000500,746852139531964728298731465425183976879546312613279854954617283387425691162398547
308970002006008103040000000600000250510804070000200408000730910270059800403006500,358971642726548193149623785684397251512864379937215468865732914271459836493186527
000000003400872005010095204520000600079051008300000100054003020000680007706004390,295146783463872915817395264521438679679251438348967152954713826132689547786524391
500306900080000420700500000070935010103020080460710000901407008050000006002000730,524386971386179425719542863278935614193624587465718392931467258857293146642851739
050002091200840050706000003500030900009006007004200018013069020070150600800004009,358672491291843756746915283587431962129586347634297518413769825972158634865324179
097030040045002086610000203000001325050000090006028007070060000823970100001000059,297836541345712986618459273784691325152347698936528417579164832823975164461283759
750003180068200300000000407170805030003074006900000008012090070000050040380761090,759643182468217359231589467176825934823974516945136728512498673697352841384761295
000006259065040080108097000002050003600709020000802470307000610006004500890010030,473186259965243187128597346782451963641739825539862471357928614216374598894615732
086000000701320000050007209100042860905030001000500030070164500008000706040705023,286459317791328654453617289137942865925836471864571932372164598518293746649785123
218400000057008006300970020070060900860020405004807010400300500090600108003051090,218436759957218346346975821172564983869123475534897612421389567795642138683751294
002403000081209700700500009029000001000050083600001072043086000270930050098000600,952473816381269745764518329829347561417652983635891472543186297276934158198725634
006009805408170902070200040900020008010700060063050007004538600002400059031000000,126349875458176932379285146947623518815794263263851497794538621682417359531962784
600003080002790351010020000307108006500070030080002109009504010250900047000060800,675413982842796351913825764397148526521679438486352179769584213258931647134267895
009840002570006000400201903907000140000020080038075060000960700703000820060008501,319847652572396418486251973927683145645129387138475269851962734793514826264738591
