000103000070020089200890100127005900680700045400086010040270030050040002900300006,598163724371524689264897153127435968689712345435986217846279531753641892912358476
900502004100070608002081500005003089703158000046000000070906200600000070400730010,987562134154379628362481597215643789793158462846297351578916243631824975429735816
050048320020600019317005080005000006890002000700300048000406050003900700082007091,956148327428673519317295684235814976894762135761359248179426853543981762682537491
005002049100006500090740031087400900020357080000060020600000310003089007400010205,765132849134896572892745631387421956926357184541968723659274318213589467478613295
000800271201304008000005004020569300006000500097003020050108000400600003078002410,345896271261374958789215634124569387836721549597483126953148762412657893678932415
659030800007298003000060410475000320080040501000002090006000007008954006230100000,659431872147298653823765419475619328982347561361582794596823147718954236234176985
506709000000100370030024001162007050070810400005003900407006020020090080981500000,516739248294158376738624591162947853379815462845263917457386129623491785981572634
000008000800009036030270100004100702507804360621090004006300049750000000003081205,165438927872519436439276158384165792597824361621793584216357849758942613943681275
657000010000507008403090000104870050000000001020036700000603080901020560005710203,657384912219567438483291675194872356376945821528136794742653189931428567865719243
080005490020006007004900201506400070017062300009300580000003600402000005075000018,681275493923146857754938261536489172817562349249317586198753624462891735375624918
300001900900063570002780001048930060037008005605200000020040108004107020500000006,376521984981463572452789631148935267237618495695274813729346158864157329513892746
006050490274008031590000060300780002801003000020900006000060853040001000738020004,186352497274698531593174268359786142861243975427915386912467853645831729738529614
004000080050720630900018075000031560670090000008000204020300001000065900103007800,764953182851724639932618475249831567675492318318576294526389741487165923193247856
008503000040010690900020000001684000005100300802000071070000064100700520026348700,618593247243817695957426138731684952495172386862935471379251864184769523526348719
000300914400795003000002060837010045009000108020006000006570032540680090710004800,275368914461795283398142567837219645659437128124856379986571432542683791713924856
000070689020450001800003020900530860530000904710600000060090000004700502190084300,453172689629458731871963425942531867536827914718649253267395148384716592195284376
000000009701090540059300860000502038030700050260430090008000002190604070670051000,386145729721896543459327861917562438834719256265438197548973612192684375673251984
000840107096001020400700003050008604100060030028300059045100000310000200200059080,532846197796531428481792563953278614174965832628314759845123976319687245267459381
058001206020054310000700900400109020305020080010000070203098400600070805009406000,758931246926854317134762958467189523395627184812345679273598461641273895589416732
032017908080300060005806000097608420100200700043090500850900103000004072000000800,632417958481359267975826314597638421168245739243791586856972143319584672724163895
000001605009470010086020400501602807023580000040003900037000001000900246400008090,374891625259476318186325479591642837723589164648713952937264581815937246462158793
004600917009402300600710008832900004500000706000001020790200000300074500005308602,284635917179482365653719248832967154541823796967541823798256431326174589415398672
700006004000810390090200050150080400806100900000004201073090860210000003060052000,785936124624815397391247658152789436846123975937564281573491862219678543468352719
742090003010020504000810007580000000070140802900370006000600030058000010063009748,742596183819723564635814927584962371376145892921378456497681235258437619163259748
004105060000280093850000000100097004080020900530000276000300015720040600006009408,294135867671284593853976142162597384487623951539418276948362715725841639316759428
800600520100047900760980000000390601004100000000002793503710408001560000006004030,849631527135247986762985314257398641394176852618452793523719468481563279976824135
070649008001370000900000506000050000009804702006002841007500630402090000538010007,275649318681375429943281576824157963319864752756932841197528634462793185538416297
020806700000740900040030016419020300500000029600400170000278050060000800703095040,921856734356741982847932516419527368578163429632489175194278653265314897783695241
600800051000637009097040300460502070030900085200010000080296000170300904005000008,643829751512637849897145362469582173731964285258713496384296517176358924925471638
001200570047009003000850041035002400904070080260010057096000000800301000000640208,681234579547169823329857641735982416914576382268413957496728135852391764173645298
070208000089470305500006180005800902000340701063109000107000059200000600940002070,371258496689471325524936187415867932892345761763129548137684259258793614946512873
900700020304910800007002100000008607601509004405000003000060532130270400800400060,918754326324916875567382149293148657671539284485627913749861532136275498852493761
080003900052060400000100603001006050540890007007400300030009081700381206600020700,186243975352967418479158623921736854543892167867415392234679581795381246618524739
690000000038000205452010060706304008800069040000807012000070824904005000000603090,697532481138496275452718369716324958825169743349857612563971824974285136281643597
009100645000800700367020000408000032570004100602030008030050000020001009804900017,289173645145896723367425981498617532573284196612539478931758264726341859854962317
006090008250000107301200500100030400700460005980702600040510209003900040020300800,476195328258643197391287564165839472732461985984752613847516239513928746629374851
003870000206401090180095020005010708000320610604500200400000003000700186809060050,943872561256431897187695324325916748798324615614587239461258973532749186879163452
500009046700014000012306090320068907059030010801000200000002008008470530040050021,583729146796514382412386795324168957659237814871945263135692478268471539947853621
090203005700000000008709140200800006103004090560002700300060051057401209000008430,491283675735146928628759143274895316183674592569312784342967851857431269916528437
300609001000008907004000080572800000000100040600590038010000002700004506903067010,387629451165438927294751683572843169839176245641592738416985372728314596953267814
000800070190053000080470053705010080269004007003065000000000069030100208008240100,354829671197653824682471953745912386269384517813765492421538769536197248978246135
000090070107002040408000305040006090000010760030905810605820000800631009003070100,352498671167352948498167325241786593589213764736945812615829437874631259923574186
000007210060031000000960000704026009390450001000003800820000050150042060900800720,439587216568231497271964385784126539392458671615793842823679154157342968946815723
400900026000038100000206738170080000080090602009325000320760400000400010050013009,438971526267538194915246738172684953583197642649325871321769485896452317754813269
004720560259600010003001089061004000000570320000098700805000600020310074000000090,184729563259683417673451289761234958498576321532198746815947632926315874347862195
060070192500026030470900000000001000209000760007209801004630000180500900003008054,368475192591826437472913586845761329219384765637259841954637218186542973723198654
172980000005071200600504090009300005010007063580400120900100506000006879040000300,172983654495671238638524791769312485214857963583469127927138546351246879846795312
600000080043027100001000604000035020004861500007490003000509060700004951008300007,695143782843627195271958634189735426324861579567492813412579368736284951958316247
009800430000705000608020095003600140821007000400080200100503000200001807500040006,759816432342795681618324795973652148821437569465189273186573924234961857597248316
071502000600000050200400309002078006900230507030600014804305060060900800507010400,371592648649783152285461379452178936916234587738659214894325761163947825527816493
004000650000280170030009002070003060100060000900501004890100036410035020005076408,284317659659284173731659842578493261142768395963521784897142536416835927325976418
500009023008700506020081004107025908930400200040067030009000001010053000706000080,571649823498732516623581794167325948935418267842967135389276451214853679756194382
930780620000904570600001000090000804041502000300070000020043710060100935700050048,934785621182964573675231489297316854841592367356478192529843716468127935713659248
800670050100000407090425030052300010701069040360007002000503600510802900009010004,843671259125938467697425138952384716781269345364157892478593621516842973239716584
053410028800005400007009050002070034060080705019030800900002003020000640005690010,653417928891325476247869351582976134364281795719534862976142583128753649435698217
090800004034025070000300029061409050900070800840600100200040060670501030050006700,592867314134925678786314529361489257925173846847652193213748965678591432459236781
004000718030706500920000030000100050001000972000593400600027100005408000809010046,564239718138746529927851634496172853351684972782593461643927185215468397879315246
490005230050100860000070900040090001027063008380000050008016023030000000506208740,491685237753129864862374915645892371127563498389741652978416523234957186516238749
809005000010070006050140320078410003600809050000006040241300900907500200060000708,839625471412973586756148329578412693624839157193756842241387965987561234365294718
270098100000004000609000542420100003003026700005300008016800000000037050008050264,274598136351264987689713542427185693893426715165379428516842379942637851738951264
800170506600090000402003800090002058506000010203010079300740060000020904010305007,839174526651298743472653891197432658546987312283516479328749165765821934914365287
208000500070301009090402007530800010000060904026017000007000400310009870060205003,248796531675381249193452687539824716781563924426917358957138462312649875864275193
850030410000000050476000809040500000100079006090810020507001090003046100900002308,859637412321498657476125839742563981138279546695814723567381294283946175914752368
000250604060000800000080230800010005090003070073400920502700401049031000008600500,387259614261374859954186237826917345495823176173465928532798461649531782718642593
010090760080000205400670010028005100700830050006024907090000400360050020102400039,213598764687341295459672318928765143741839652536124987895213476364957821172486539
028000195700100000040090230034068002080050006000940750850300079010020603600400000,328674195795132864146895237534768912987251346261943758852316479419527683673489521
008500310050086902041000050029300004700090000504708060003021076000030421600400000,968542317357186942241973658129365784786294135534718269493821576875639421612457893
020096001003280560000070042070000100060900030300051790006400950107300008584020000,428596371713284569659173842975632184861947235342851796236418957197365428584729613
640190007002003000005700310004008006508036400700500020820400001300607900090020560,643195287172843695985762314234978156518236479769514823826459731351687942497321568
205900010816700230030060700009107004502006070060504900400000002100050680090800300,275938416816745239934261758389127564542396871761584923458673192123459687697812345
870900305009008040020156000030800010008045020000000906100000207657300001490501008,871924365569738142324156879236897514918645723745213986183469257657382491492571638
200000008090007600047980012000306040030010860709020500004052003000008005508140970,253461798891237654647985312185376249432519867769824531974652183316798425528143976
001004800047000050960070210300068700000200090590041620000006309600010080025300400,251694837847132956963875214312968745476253198598741623184526379639417582725389461
030607051020030700900015408080009024700000560090026300050000000100340070049508603,834697251521834796976215438683759124712483569495126387357961842168342975249578613
378024010000900048006015007060000050130060000700050409200001800059308200017200030,378624915521937648496815327964782153135469782782153469243571896659348271817296534
700000300016000050080714290090030605062800000103052000051023009400071000020006403,749265381216398754385714296894137625562849137173652948651423879438971562927586413
900400026403610500010058000100200007706091008050040002507060030000530800098000070,985473126473612589612958743134285967726391458859746312547869231261537894398124675
010000250000900007640000018092085004050007031800006900008600040500000193127430000,713864259285913467649572318392185674456297831871346925938651742564728193127439586
000000600007230080039850100602400005005000300004170090216090004058320000040000507,821749653567231489439856172692483715175962348384175296216597834758324961943618527
000007000856090301400000208590083406061900020080701500700020040002030095035600000,123857964856492371479316258597283416361945827284761539718529643642138795935674182
007040008000905160219300000900700000004082039500600470000029503000400810040106007,657241398483975162219368754936714285174582639528693471761829543392457816845136927
017063000000008050302407000624010009100900020503000180040200003900040006000750098,817563942469128357352497861624815739178934625593672184746289513985341276231756498
000080041640200500378050000160000009009001270500060034002005000900410708003807690,295786341641239587378154962164372859839541276527968134782695413956413728413827695
010006408520700060400930700000008029084050000600100003103600007200800915070009000,317526498529784361468931752731468529984352176652197843193645287246873915875219634
007200964000801000536400000001603200309000070040109650005720000820050190600004008,187235964492861735536497812751643289369582471248179653915728346824356197673914528
300004000798000020020006307205038000019500680000140700003000001000790508650002034,361274895798351426524986317275638149419527683836149752983465271142793568657812934
300089672650200000007100009081400000000097120760000040240001006506830700000904053,314589672659273481827146539981425367435697128762318945243751896596832714178964253
000089000007400360005670812036000180500130000090708005200005000080900600701340200,613289574827451369945673812436592187578134926192768435269815743384927651751346298
040080090006005020509034700050070640762000800000100300084050001020807400300019006,247681593836795124519234768153978642762543819498126357684352971921867435375419286
002045701000030400030009065003902100706013020090480056080050900510020040000601007,962845731175236498438179265853962174746513829291487356687354912519728643324691587
824300000001040003900506010000078000760900400002604950010050720540207600009003100,824391576651742893937586214495178362763925481182634957316459728548217639279863145
010030020020005007000480009007600201681000040952007300370090508000060002045801060,519736824824915637763482159437658291681329745952147386376294518198563472245871963
001004009300089020009520008150030400008092070702060031000006014807000250560010000,281374569345689127679521348156738492438192675792465831923856714817943256564217983
163000000000501006040097380710000000002768090094020050027005860300200900000386420,163842579879531246245697381718459632532768194694123758427915863386274915951386427
008467000016000700024900005000530024000800060092010003009340870200009000050620301,538467219916253748724981635871536924345892167692714583169345872283179456457628391
500000000042090730008120906200600517001008003030050020700940600096013205800700004,569387142142596738378124956284639517951278463637451829723945681496813275815762394
004097000638000020720300000860050210090008004001023700203041560405809000000500081,154297836638415927729386145867954213392178654541623798283741569415869372976532481
800036000791000000063087090050040029109500703020700860200403080006020001070690300,842936517791254638563187294657348129189562743324719865215473986936825471478691352
000902506028005400640000003702604000000700390500291007107000065009070004060083000,371942586928365471645817923792634158416758392583291647137429865859176234264583719
070000900001670380200090560604023010000008290308900040800051000530800002047030006,476385921951672384283194567694523718715468293328917645862751439539846172147239856
