040605037807300901020001000580009070704003100006000405000002603065407800108050020,941685237857324961623791548582149376794563182316278495479812653265437819138956724
300060407004100030800000005001004503602008070039000006067012040920800000000530900,315269487274185639896473215781624593652398174439751826567912348923846751148537962
023000040609503100000070509390406802007189050000020004080000000700001260005234001,523918647679543128418672539391456872247189356856327914182765493734891265965234781
050083200008004003600900400907050010040002806030409050001300908072600041500000007,754183269298564173613927485927856314145732896836419752461375928372698541589241637
061800057002600408097040200200130005080006130000050946030064700500920083000700000,461892357352617498897345261246139875985476132713258946138564729574921683629783514
010860300000070182020000040900018427060000001000054800309240010100007005700590600,514862379693475182827139546935618427468723951271954863359246718146387295782591634
070630000950020130020010504109708050002093000807000090003062410000001805000400670,471635982956824137328917564139748256562193748847256391783562419694371825215489673
380100000000000530065470000020530090014080006800600475070026800000700240039005600,382159764947268531165473982726534198514987326893612475471326859658791243239845617
679030000020900045140208000030020000407001920000700180200006090510000374000054800,679435218328917645145268739831629457467581923952743186284376591516892374793154862
900300050004089030001046208500890072027100600400070100000000000069005010378020064,982317456654289731731546298516894372827153649493672185145768923269435817378921564
010235004200090080400006310075000040902010050003400607001700095060001000700040260,816235974237194586459876312675382149942617853183459627321768495564921738798543261
080000040000170600200934750607003900500800210000410003004702009100000005802560030,789625341435178692261934758617253984543897216928416573354782169176349825892561437
500000163610000020382040007296085040700060098000001000040050070007200005800790306,574829163619537824382146957296385741731462598458971632143658279967213485825794316
030590100800076304204300070300000060008000500045708910400102000070059026060800090,736594182891276354254381679317945268928613547645728913489162735173459826562837491
000405009004080160083001007140070500006020901970030000009000748000318000250900600,721465389594783162683291457142879536836524971975136824319652748467318295258947613
300000681004070000628900000060800409900000073401200005030019007050302040002005908,397524681514678392628931754263857419985146273471293865836419527759382146142765938
020000009000060580301900600480705300063002050009010048940100700200307000007850012,826534179794261583351978624482795361163482957579613248948126735215347896637859412
000000100301207050000000783027060010148300005000080940014028039690005000000003674,475836192381297456269451783927564318148379265536182947714628539693745821852913674
002080090090700000008205603800900040003100562400020870009403005250070100067000080,532681497691734258748295613826957341973148562415326879189463725254879136367512984
000000580706010023210930070670250040408006009093001000040700000859040006000890012,934627581786514923215938674671259348428376159593481267142763895859142736367895412
090720400260093080005600003709580030000047050004300100000070095007100200308002060,893725416261493587475618923729581634136247859584369172612874395957136248348952761
605000000028400090000132006081057003304910000070000800019070205050806071046000900,635789124128465397497132586981257643364918752572643819819374265253896471746521938
800200001056040000270603080400801020003050000000090470300006700085100304961700802,839275641156948237274613985497861523623457198518392476342586719785129364961734852
000802103405910070000000096506700001029005800078060040090001305600280700002093000,967842153435916278281357496546728931129435867378169542894671325653284719712593684
070000093000195000200038600600004105023600900401083060058070000060001200700000504,175246893836195427249738651687924135523617948491583762958472316364851279712369584
008104003751600094009020600000009050060348700040700801200935060507000082010002000,628194573751683294439527618873219456165348729942756831284935167597461382316872945
000000002700294300500071000001460037024008509650003800000089014008600900403050020,849536172716294385532871496981465237324718569657923841265389714178642953493157628
100460508030000060008015720805903000600072410002001090001500009709080350300204000,127469538534728961968315724815943276693872415472651893281537649749186352356294187
000612580000300001600549020000060007500100608009703142104005000786090030030000900,347612589952387461618549723421968357573124698869753142194235876786491235235876914
001706000000520036670000102045000908020810500007900060089002041004050020730004090,251736489498521736673498152345267918926813574817945263589672341164359827732184695
097100008008500030030609500000032170050406003800010406300900024409008060012007000,597123648168574932234689517946832175751496283823715496385961724479258361612347859
041006057000020000689003001020058006005000034006002570700040190900307040300061082,241896357537124869689573421423758916875619234196432578768245193912387645354961782
020007000951200076406000083107006904000850020030900000540030001000040630009702000,823467519951283476476195283187326954694851327235974168542638791718549632369712845
804509000760002053000060040107024060000803079390017000400000001602308007530100008,824539716761482953953761842187924365246853179395617284478295631612348597539176428
801007050000601930600000800025003000000029610104700090008500360403000002200800579,831297456542681937679345821925163748387429615164758293798512364453976182216834579
850000000120500496003706000200401000060008001904300580001090037040070960070802050,856249713127583496493716825238451679765928341914367582581694237342175968679832154
037019005900008403000060000080003600265090301004800070090642708600500002403007100,837419265956278413142365897789153624265794381314826579591642738678531942423987156
360000107045910200001634800070290000190008050002700360004005003200060000008023901,369582147845917236721634895573296418196348752482751369914875623237169584658423971
050930020020061500803007090000485600400000310079016002600009007201000804034500000,156934728927861543843257196312485679468792315579316482685149237291673854734528961
040100050002000806900507003760240001030006004005039070300920400000000095106400027,643182759572394816981567243768245931239716584415839672357921468824673195196458327
040005900200000070700803162004600783803900020012700400360400000000001805981000006,146275938238196574759843162594612783873954621612738459365489217427361895981527346
600070002080201040400809607009010830730042000050000209903008750006003100010650000,691574382387261945425839617269715834738942561154386279943128756576493128812657493
609830000507000040020007500000006100000089056800710300081040020002058470090600001,649835217537261948128497563973526184214389756856714392781943625362158479495672831
000000275407203000609100008002709006500040910030800000210068007003510090005300640,381496275457283169629175438142739586578642913936851724214968357763514892895327641
043071008000009600501302400476000800000040507005030010000800096802060700034590002,943671258728459631561382479476915823319248567285736914157824396892163745634597182
000074610000089200815000000300052070090603004152000080080060003470300109009740060,923574618647189235815236497364852971798613524152497386281965743476328159539741862
360000540100007900008040003730019000005004780042056000600008035070500002001290400,367982541154637928298145673736819254915324786842756319629478135473561892581293467
004630001105002006009805270506070309000004008210060700900700010063501080000049052,824637591175492836639815274546178329397254168218963745952786413463521987781349652
520180000000000780003040002100006000007010290056009340700400800018030650042900030,529187463461293785873645912194326578387514296256879341735461829918732654642958137
503108040070039008000200059108040000000020035036900070017000003004756100920800004,593168247472539618861274359158347926749621835236985471617492583384756192925813764
043780500000500900120000000001020080206900057059000046000240093700006000004351800,943782561867513924125469738471625389286934157359178246518247693732896415694351872
805000904001690002000504080002071000040000078003900160070210003300700420096003500,865127934431698752927534681652871349149365278783942165574216893318759426296483517
600010040000058900021300650834570000060034009507200000405006000000000780009720010,658912347743658921921347658834579162162834579597261834475186293216493785389725416
100400309005730602002095040200000071009861000000070905000609080050000100368002400,187426359495738612632195748246953871579861234813274965721649583954387126368512497
017000040600900020000871900395080000800050604060207030700040001021009000480300509,917625348658934127243871956395486712872153694164297835739548261521769483486312579
005098170030000006067020400800000052006410390000075000080007009720561000401000200,245698173138754926967123485814936752576412398392875641683247519729561834451389267
000000020000504100769020080500486090000300500208007300431800007906035004070200009,154678923382594176769123485513486792697312548248957361431869257926735814875241639
000200400046000320900800075500307102834009000000050000002710064605000809001590000,758263491146975328923841675569387142834129756217654983392718564675432819481596237
000860005064002001810300700000703950080004002005010086071520490003090028090406000,937861245564972831812345769126783954389654172745219386671528493453197628298436517
000041020308007005062500000003260040916300500000198070025000608701030009000800400,597641823348927165162583794873265941916374582254198376425719638781436259639852417
508703060020045307900610000007500009080000040400900006800007002050020014300468905,548793261621845397973612458267534189189276543435981726894157632756329814312468975
270300096619070058000000000000000900560410037002085040021040500090001072003860400,274358196619274358385196724147623985568419237932785641821947563496531872753862419
000900085002004700390050006700802400415003900080001003007008500006470002840600390,174936285652184739398257146763892451415763928289541673927318564536479812841625397
000820704900004050700001003003900216800005047006400009180000020004107030509602000,315826794968734152742591863453978216891265347276413589187349625624157938539682471
760000003200175004009030080800206000003700492050010600070900846100400030080060107,761894253238175964549632781897246315613758492452319678375921846126487539984563127
500830004067040809001020060000009302040570010956000008020001435800203007600090000,592836174367145829481927563178469352243578916956312748729681435814253697635794281
079030048000210503100080060981300200052040300040000090403000005006500089028700001,279635148864219573135487962981376254652948317347152896493861725716523489528794631
030040010500802090104036700059403000700000600008750200420180307000000104300020058,832947516567812493194536782259463871713298645648751239425189367986375124371624958
503010060074000051096230400002096030010002090700300005000004206000789040805000010,583417962274968351196235478452896137318572694769341825937154286621789543845623719
060129085000400000080500720300902008098000170510003049070068004034000600001350000,763129485152487936489536721347912568298645173516873249975268314834791652621354897
802000540003040106061502000900000083008901050534007000000060072000024039076008000,892613547753849126461572398917456283628931754534287961349165872185724639276398415
080600230503270008140008000310046000009050407000900560200000001700102804000307009,987614235563279148142538796315746982629853417874921563298465371736192854451387629
120070004389010700600500030003108240050400003008039060004086920070040086000001000,125873694389614752647592138763158249952467813418239567534786921271945386896321475
000050009280001607600900140154200006000190080020007300006400502030600700590832400,341756829289341657675928143154283976763194285928567314816479532432615798597832461
300007008008650007057302600400190502060200810010030000890570306205060190000004000,326417958148659237957382641483196572769245813512738469894571326275863194631924785
070009100805001000000460075041008950903002406200000007300120004010307060609050030,476589123835271649192463875741638952953712486268945317387126594514397268629854731
500701360071036409009000000030258040090000008004300627006020100005007090000840270,548791362271536489369482715637258941192674538854319627786923154425167893913845276
810040700090000406306017008003001060005090200400280005200003907760400100008500002,812645739597832416346917528923751864685394271471286395254163987769428153138579642
000200006070004901190705840851003002000000384040690010008100070620807005005032000,384219756576384921192765843851473692967521384243698517438156279629847135715932468
610200000900560031000700509840000070003070400062850000007130002020080917480000006,615293784974568231238741569849312675153679428762854193597136842326485917481927356
000064020700001800304200010102850096009006200050070080006140370007009050280500040,918764523725391864364285917142853796879416235653972481596148372437629158281537649
009143500071900004000700080060058003000000120904306700213000060800607000090020045,689143572571982634432765981167258493358479126924316758213594867845637219796821345
090030061270000405100562000300201090400000500060094807903810000050700100008920046,895437261276189435134562978387251694429678513561394827943816752652743189718925346
500008003000006420018090006102860000037040050400701900029300010006507230050009080,564278193973156428218493576192865347637942851485731962729384615846517239351629784
300500800009001520012000960030084010476030000000020006000900007957006408840350000,364592871789461523512873964235684719476139285198725346623948157957216438841357692
001002093890003400630500070006000200050901000740308650900205804020040000500076030,471682593895713426632594178316457289258961347749328651967235814123849765584176932
200500014809003000007900020000100087074090600060004390002010506050307000403020008,236578914819243765547961823925136487374892651168754392782419536651387249493625178
700048003060719000802600000308000400071050230020004005095000318030000067600190020,719248653563719842842635791358921476471856239926374185295467318134582967687193524
002006000004050900780390500503000027201765390000001460000010700090020034608007001,952176843314852976786394512563489127241765398879231465425613789197528634638947251
009001064086020500040900370054600003300005206100007400025014008970280100000309000,239571864786423591541968372854692713397145286162837459625714938973286145418359627
096001420104080503030670000000400852540010070028090100009020000000830006700500308,896351427174982563235674981917463852543218679628795134389126745451837296762549318
060050400090100000703920600006000007050804130009001042071503000800060301000702059,162357498598146723743928615416235987257894136389671542971583264825469371634712859
082004060050000009090300180068507900000010320401062000005600704300001000920840005,782194563153286479694375182268537941579418326431962857815629734346751298927843615
800100600040036020210000908500000016080965042702004800000053107070098003400070050,853129674947836521216547938594782316381965742762314895629453187175298463438671259
400098020103560000070200605700049100540000036060300080080003004005000290600820710,456798321123564879879231645738649152542187936961352487287913564315476298694825713
500309062082104090004002003600000370070000001108500000000070800040096005793810020,517389462382164597964752183625941378479638251138527946256473819841296735793815624
201050008400000520900300700035008690080904007704160000306000901000620800017003005,261759438473816529958342716135278694682934157794165382326587941549621873817493265
006003209000720000507109000902070350000531008008900600400080700030006041080400506,146853279893724165527169483912678354674531928358942617461385792735296841289417536
003600071000004300528001000605900000000028900070000504940012005801070000730009806,493685271167294358528731649685947123314528967279163584946812735851376492732459816
094080050000015800800003097030200500007039002601400000200800400705020060960070013,194782356376915824852643197439267581587139642621458739213896475745321968968574213
