008000003250080090030507240000018000074900006109400020090001307725603800400805000,648129573257384691931567248562718439374952186189436725896241357725693814413875962
700001054090030607024058000060185023000300019008200500100006705270900308040000090,783691254591432687624758931967185423452367819318249576139826745275914368846573192
048020090056900870007080032000600180000240009630100005500000003710004000900701426,348527691256913874197486532425639187871245369639178245564892713712364958983751426
009600804413000060007000020060401007000800309008020051500108072090060000801347500,259673814413982765687514923965431287172856349348729651536198472794265138821347596
500697008800004000460080300000001890300865700010240605002006040607500009930000170,523697418871354962469182357256731894394865721718249635182976543647513289935428176
018004502000005930506007008030160020007200019900000600400980067700030400082040005,318694572274815936596327148835169724647253819921478653453981267769532481182746395
006097502009010000400500000008002000740008003023046098035480206002700009070069310,316897542259614837487523961698372154741958623523146798935481276162735489874269315
009040100260508030070062050000290006800304005095006070001007004742030080050000390,589743162264518739173962458317295846826374915495186273931857624742639581658421397
038490500502000406040000000090307008701060305024001070007630900050900801800050002,138496527572813496946725183695347218781269345324581679217638954453972861869154732
600700030183005400004089100740000800502018009000630002000024050421093006008000900,695741238183265497274389165746952813532418679819637542967824351421593786358176924
700016500000900742089005600005400800060001030820307059300800020510690480490000000,743216598651938742289745613135429876967581234824367159376854921512693487498172365
002057013580000006061040500000760008006030100079000020020075080100000049937008005,492657813583192476761843592215764938846239157379581624624975381158326749937418265
502000008060050000100090206040013700080000020930600005600089001007004930009572600,592736418468251397173498256245813769786945123931627845624389571857164932319572684
000050230090800700503009040702100590800060000001004067480076910036980005020001003,618457239294813756573629148762138594849765321351294867485376912136982475927541683
002790000004008691800504070008107500340000000567003200009032180000940003200005006,132796458754328691896514372928167534341259867567483219479632185685941723213875946
000800650000030000970002108032704500150203009000010060004001302063047800017005090,321879654485136927976452138632794581158263749749518263594681372263947815817325496
570043190040200000283006000310000400800000075007905000609070240000680930100030500,576843192941257386283196754315768429892314675467925813639571248754682931128439567
090003008804000017007600900000000000610947002085100003100809504042510080900700630,591473268864295317237681945429358176613947852785162493176839524342516789958724631
000008003902500400005730109018400000004060530026379000000080940400102060600900075,147298653932516487865734129318425796794861532526379814253687941479152368681943275
090062040742080009013700000080407160000050000900000025400803010061005007850010092,598362741742581639613749258285497163136258974974136825429873516361925487857614392
005402010080000003730106009008507030010040602006090000600800007240010050097053120,965432718184975263732186549428567931519348672376291485651824397243719856897653124
280400013000920000601070059000010090035002870094500000050086001000703480060000527,289465713573921648641378259726814395135692874894537162457286931912753486368149527
006041070100000306300082000504200001000010907890400050000750630605000080002930410,926341578148579326357682194574293861263815947891467253419758632635124789782936415
100890004730001080090062005006700009000420010270058600600000002524000730009000508,165897324732541986498362175846713259953426817271958643687135492524689731319274568
201300090060007510080009203106003004037860000020000009090705600000002407504100080,241358796369427518785619243156293874937864125428571369892745631613982457574136982
000032005010708900304000007030210400000900250065004800450001009602407310800600020,789132645516748932324569187938215476147986253265374891453821769692457318871693524
500100080000030602097006300000764920000803007080290500106002094042008030005300010,563127489418935672297486351351764928629853147784291563136572894942618735875349216
090000402100903506000087000208009100400000950570406030005178040340020010060000000,793561482182943576654287391238759164416832957579416238925178643347625819861394725
200000305070090460040008007008002600000040501005613090901020000760500030380074100,219467385873195462546238917198752643637849521425613798951326874764581239382974156
200073090059000780300008205003000406060409001507020800094100050000097602008350000,286573194459216783371948265913785426862439571547621839794162358135897642628354917
098300007076090400000510060800200003400009010029030780000650100250004600701008000,198346527576892431342517869817265943435789216629431785984653172253174698761928354
060500480000900003154370000090700000008040206500000170016097800370080020205610004,963521487827964513154378962691752348738149256542836179416297835379485621285613794
309800700860039004020001900000060035740003010080052000050040371206008500000790060,319824756867539124524671983192467835745983612683152497958246371276318549431795268
000160240208070003090000010030059027042830056000000800064017300005490000107500000,573168249218974563496325718831659427742831956659742831964217385385496172127583694
020100007109000000065398400090085203002000078074600050000007900308010060010264300,423156897189472536765398421691785243532941678874623159256837914348519762917264385
030609080700580030026000090001004200500000000482017050600890700308020140000143069,135679482749582631826431597961354278573268914482917356614895723398726145257143869
007000010405302080930700600006970200053020908000105040200004805089510000060030007,627849513415362789938751624846973251153426978792185346271694835389517462564238197
500600027001049300080507000060390010702000806090008502007021048400030970000400000,549683127671249385283517469865392714732154896194768532357921648426835971918476253
005009360007300089000000704060001008008970406200805970000502010014630205030008000,485719362627354189391286754769421538158973426243865971976542813814637295532198647
090006508010327600704800000005460720841500900002031000000009240009680050350000060,293146578518327694764895312935468721841572936672931485186759243429683157357214869
020300090709068400034105082070400000005089006000006947108050000040620030290070001,821347695759268413634195782976432158415789326382516947168953274547621839293874561
600080090000053400014000360003807500701025003090034807207090050008700000060018200,635481792972653481814279365423867519781925643596134827247396158158742936369518274
700080030938500407024100900600070008359060020010002040200090100000045062076008300,761489235938526417524137986642371598359864721817952643285693174193745862476218359
000006985008371460240009000000000008400725013630000509000900007107080020500160000,371246985958371462246859731715693248489725613632418579864932157197584326523167894
000607009609080310300410820021000050903200064400950000007190400586000200000820003,812637549649582317375419826721364958953278164468951732237196485586743291194825673
200000704000050083097108605040001200805320090700000561030005040081960000009832000,258693714164257983397148625946571238815326497723489561632715849581964372479832156
005006910403080200060402008904000706728049530030000020010008040000067800096320050,285736914473981265169452378954213786728649531631875429317598642542167893896324157
506000300002075180810020070700090000030650000091400005004001803003280640600040209,576814392342975186819326574765192438438657921291438765924761853153289647687543219
050070603080006002006201500000007429410600007800059000392800040001000300700004095,254978613183546972976231584635187429419623857827459136392865741541792368768314295
000820004703600090600004700408002305120930080306005009051760203000018070900000500,519827634743651892682394751498172365125936487376485129851769243234518976967243518
009750006200000140000482003950000600080030450014006080306090007007100908001005030,439751826278369145165482793953814672682937451714526389346298517527143968891675234
000020000140300078308600900070200840600019002500406107050800600000004001807900530,795128463146395278328647915971253846684719352532486197453871629269534781817962534
702400030690700008038005090810000020003002014000030605205064900000050403006109700,752498136691723548438615297817546329563972814924831675275364981189257463346189752
098004000060027308000630100002089645005300000081006007000705902200000071409061500,398514726164927358527638194732189645645372819981456237813745962256893471479261583
950003007002087900000000416020304170700060050085900000016040800403025000008100090,954613287162487935837592416629354178741268359385971642516749823493825761278136594
000090086300070104642500030027600500008740900090001000073002040010903607005080000,751394286389276154642518739427639518138745962596821473973162845814953627265487391
800000190571200300000040000014006003206050800000703460080900017603005280000604500,842367195571298346369541728714826953236459871958713462485932617693175284127684539
806000090000780300071002400008100234500090000037206080009050620010000009002600817,846513792295784361371962458968175234524398176137246985789451623613827549452639817
320000086000020003006041590000800004560090070800205109090013820230576000074000300,321759486459628713786341592912837654563194278847265139695413827238576941174982365
890720000050006020000030104000068002400000530207301400006940070083015009100002650,891724365354186927672539184935468712418297536267351498526943871783615249149872653
000100203405080000120096005084003060090000087206000300970400001608057400500061020,869145273435782196127396845784513962391624587256879314972438651618257439543961728
004905300805064120010800000390206000008000036000500407500001803201000750700003900,624915378875364129913872645397246581458197236162538497549721863231689754786453912
061002980030075014800006050700308400000200078450910200600009001045000023007000060,561432987239875614874196352712368495396254178458917236683729541945681723127543869
050008037100060080000247105900700002608003900030014006000630000070050021204800090,456198237127365489389247165945786312618523974732914856591632748873459621264871593
600500100050308060200000307008100970017056804000090002735002400006910700100045080,673529148451378269289461357528134976917256834364897512735682491846913725192745683
009547001206009053070030840000960030000070006801000002020090608500300490007104000,389547261246819753175632849752968134934271586861453972423795618518326497697184325
259300074000000600763004080300065208024900010000013057002007000010000905090840002,259386174148759623763124589371465298524978316986213457432597861817632945695841732
030000700206005000740029008360080090800001070000602405092070806100006040070548120,539864712286715934741329568365487291824951673917632485492173856158296347673548129
201504890000020100000807305960070000502600704070235001498000000050300000000196000,231564897785923146649817325963471582512689734874235961498752613156348279327196458
700460200091803050060025000046790003000000008800304109025900004007082000003001670,758469231291873456364125987146798523539216748872354169625937814417682395983541672
080070150000209043470005009005000806160403000300060200009850020500017900010902370,983674152651289743472135689245791836168423597397568214739856421524317968816942375
060000000500200709302019050010070208970030010620580040000000400804057160030600095,769845321541263789382719654415976238978432516623581947256198473894357162137624895
406000000080130504005700083019200308000009047740500160060078002003000890000002015,436825971987136524125794683619247358358619247742583169561978432273451896894362715
401830000600002071900000402000070038503096200274500060002000810310000950095460000,421837695658942371937615482169274538583196247274583169742359816316728954895461723
902000080760400500508070400300089260000350004090100830005027000001004009400061057,942615783763498512518273496354789261186352974297146835635927148871534629429861357
600720001300608700008053940010500008062080017709000500930001602020030800050040039,695724381341698725278153946413567298562389417789412563934871652126935874857246139
080072901507000000010400300900601270025300408070080600800000190103050740040039000,384572961567913824219468357938641275625397418471285639856724193193856742742139586
050630400020010087800004009009040002300802054100007890013750000705000016460029030,957638421624915387831274569589341672376892154142567893213756948795483216468129735
600000400050010007094507013012004586000908000030020700006270009305006208009043001,671389425853412967294567813912734586467958132538621794186275349345196278729843651
003910000080000614704006002860009007400080230090125060009768500200500700000400001,623914875985273614714856392862349157451687239397125468149768523238591746576432981
000095002040600703502107080008000600200500004700012009905480007070006108006030200,687395412149628753532147986358974621291563874764812539925481367473256198816739245
405270000000001850030006049004008010200300700810590000502740980090060002007080300,485279136629431857731856249974628513256314798813597624562743981398165472147982365
000904080830107500027003000100730040058000039200096001690000800000600175401200000,516924387834167592927583416169735248758412639243896751695371824382649175471258963
007900300080002000410065090095700201003601009040003500000020050800040060056009087,567918324389472615412365798695784231723651849148293576974826153831547962256139487
000000003502600041000830060070100400600583009800097020340000170005060030097042008,768214593532679841419835267973126485624583719851497326346958172285761934197342658
089610020400070001300005006010009003000500172030760480600000000095207038278030050,789614325456372891321895746817429563964583172532761489643958217195247638278136954
670300504109060702000000800010703009504180003800204010060400000085020040003079056,678312594149568732352947861216753489594186273837294615761435928985621347423879156
300097004702800001000062300004306007008210400001050090100043650050000789906000000,365197824742835961819462375294386517578219436631754298187943652453621789926578143
000008642790001500804003000003200907075400061906000003620015070000390080100060200,351978642792641538864523719413286957275439861986157423629815374547392186138764295
007051006000060435004002800508003040270900050900000107006040318300610020002708009,837451296129867435654392871568173942271984653943526187796245318385619724412738569
036009074000300000590001806150007023004000000080400659205900080041820907900006200,836259174417368592592741836159687423624593718783412659265974381341825967978136245
000070604010908000075034000000000002530007100940060507003026091020480030086190400,398271654614958273275634918867519342532847169941362587453726891129485736786193425
369800020400005130080240607800000009004560003000470800502000470071300005900001060,369817524427695138185243697856132749794568213213479856532986471671324985948751362
200070090007010086830090400000605700709800200003000018620400001015700003004089050,246378195597214386831596427182645739759831264463927518628453971915762843374189652
204600090630500008008900401000004700002050080971030506080300927120060003500080000,214678395639541278758923461865194732342756189971832546486315927127469853593287614
970020006086300701100500280300009800000742500564000070008001020090060030030000495,975128346286394751143576289327659814819742563564813972458931627792465138631287495
005006931980000052023001000000800104000962083067003290500027406400050070300019000,745286931981734652623591847239875164154962783867143295598327416412658379376419528
056700200900000084007020106800091000500040370004000002030075900000210608209630500,156784293923156784487923156872391465561842379394567812638475921745219638219638547
003105049400002086901700000000920800000003015027508030010004620050000478608037000,263185749475392186981746352534921867896473215127568934719854623352619478648237591
030005008906401072080009001100007030064000500008030049007050200200010093090204600,431725968956481372782369451129547836364198527578632149617953284245816793893274615
