003060405050073020290008000100050006084902051000700830302400070879000100001300900,713269485458173629296548317137854296684932751925716834362491578879625143541387962
307000080000090600120400300204001906008000070063025000700084062059100004800563010,397216485485397621126458397274831956518649273963725148731984562659172834842563719
603070000020005049000864700080247035010058900004100002009000000200586000007090251,643972518728315649195864723986247135312658974574139862459721386231586497867493251
083902000107040200400070530000000006046310000592006170000120057315060040000008090,683952714157843269429671538731295486846317925592486173968124357315769842274538691
200000406000509008109800200010060789600450023000001000064035001570000030080190004,258713496746529318139846257415362789697458123823971645964235871571684932382197564
000000030140000968870340000900036100600204095002017800020070000401602089008000053,295168437143725968876349521984536172617284395352917846529873614431652789768491253
609000007025000149000801020703600004002050936940000050001260000000700800208034070,619542387825376149437891625753689214182457936946123758571268493394715862268934571
009050004400260300300018050604000509015900027037000816000002781002700003060140200,289357164451269378376418952624871539815936427937524816543692781192785643768143295
758060000000004105049703000800900000000006729025010306070040002006005904300028600,758261493632894175149753268867932541413586729925417386571649832286375914394128657
703200040050006008902008170000040720009507004100090306097004000040060901800020030,783219645451376298962458173538641729629537814174892356397184562245763981816925437
750030206000400073080020009900004315600280400470903000109007800032501700000060000,754139286296458173381726549928674315613285497475913628169347852832591764547862931
039200501050047800800000006106000400570089602000130000710020050008075030090804200,439268571651347829827591346186752493573489612942136785714623958268975134395814267
650000080071300020280000749000280570100006034095043000007001000030970806004500000,659427183471398625283615749346289571128756934795143268967831452532974816814562397
000690008651080000040070023483260000210509004007001300905400000320000091070000586,732694158651382749849175623483267915216539874597841362965418237328756491174923586
060592030300010000750806240004207800100460000200000053003040095007600001819000600,468592137392714568751836249934257816185463972276981453623148795547629381819375624
000007000007300690020640500000060078381020900040050010105000200003200040072839005,634597821517382694928641537259163478381724956746958312195476283863215749472839165
004700050020030000170000863500602490700800600080053002061020000900048300000905174,394786251826531947175294863513672498742819635689453712461327589957148326238965174
500269000000000809460038700700940620020003405801000090210006074090800231000500000,587269143132457869469138752753941628926783415841625397218396574695874231374512986
730000508512000006600204001800906072000420080103005000090530400000090003050701060,734169528512387946689254731845916372967423185123875694296538417471692853358741269
000609050000003201358007004034000079706801005002090800100040000925300706460200010,241689357679453281358127694834562179796831425512794863187946532925318746463275918
089007526010502098000060400350080647940020000070600000000400003803090010020106050,489317526617542398235869471352981647946723185178654932591478263863295714724136859
080090170700304000025100093070001854009040000000538020910670500000000200460020030,384296175791354682625187493273961854859742316146538729912673548538419267467825931
071036000060040319500028000937000500600010020004605980080200006329700040040053700,471936258862547319593128674937482561658319427214675983785294136329761845146853792
700080004014020090080015300090600000301702600042098005405000008060009100039004257,723986514514327896986415372897653421351742689642198735475231968268579143139864257
000006040300079061050280009072001506583002900104030000000490082006050400000008007,297316845348579261651284379972841536583762914164935728715493682826157493439628157
382001904000000006140000370570023010204900500060078040013800000409030802000650000,382761954795384126146295378578423619234916587961578243613842795459137862827659431
080700506004690100002048030600980007408105023200060005730050004006010000000400970,389721546574693182162548739653982417498175623217364895731859264946217358825436971
000981060507306000009700012001007500400600000030002198008403927004090000600105030,243981765517326489869754312921837546485619273736542198158463927374298651692175834
006401800080520400750000000007802300000956000900043010002060009068107530310000046,296471853183529467754638921647812395831956274925743618572364189468197532319285746
074000501800005000920810030009680140000047008030020790006002005002190400040300069,674239581813765924925814637759683142261947358438521796396472815582196473147358269
901000002080000570005609840010040037706021904002500080004360005300100600800057000,941785362683412579275639841518946237736821954492573186124368795357194628869257413
320500680100000509705804000800107060900603401007040200069750003230001000000200090,324519687186372549795864312843127965952683471617945238469758123238491756571236894
093200000807309120200760009000000534708530000006001080000050810034080096009020050,493215678867349125215768349921876534748532961356491782672954813534187296189623457
084001000500000700719600083900700005000980604675002910400020060001000032003498000,384271596526839741719654283948716325132985674675342918457123869891567432263498157
051208400000004706064000080576000000030016002000503049320000050000709031908040200,751268493893154726264937185576492318439816572182573649327681954645729831918345267
900001742000960001003070800000000050640020370820500009790030005480700060030804100,968351742274968531153472896319687254645129378827543619791236485482715963536894127
001560047040902005230008006400800030800624001067000000609030802318000500020007900,981563247746912385235748196452871639893624751167359428679435812318296574524187963
002730000075018309480000200820060005009100064500070190040080000100605003000340976,912734658675218349483596217821469735739152864564873192346987521197625483258341976
095376001070000000004005830018720096000018000030000020200084709100230000407900052,895376241371842965624195837518723496942618573736459128263584719159237684487961352
003009600098070000000403025300502800649010000020740103080200060000064010570900084,453129678298675431761483925317592846649318752825746193184257369932864517576931284
502090000140050027080003400030070098006100300870006102000005040610800039790400006,562794813143658927987213465431572698256189374879346152328965741614827539795431286
003000800060813007041056000020000700698007001100938050007001305000000290509680004,753249816962813547841756923325164789698527431174938652287491365416375298539682174
080504000169080300004009072700010680000200000503600107076000009900040001030005200,287534916169782354354169872792413685618257493543698127876321549925846731431975268
080040095600725010004600000076008040010500908028031000700010503390804002000002070,287143695639725814154689237576298341413567928928431756742916583395874162861352479
900050106000000078210000450429700301600300005007980020003074960890100000000006003,974258136365419278218637459429765381681342795537981624153874962896123547742596813
600302985070800020000491030001500000067008240020060307190200400305000800000040019,614372985973856124258491736431527698567938241829164357196285473345719862782643519
000057008200003010050200409710000802060092170308005600001080725590400006003006000,934157268286943517157268439719634852465892173328715694641389725592471386873526941
007104092502078006600050308048000200309002760100705400081000030000040005060930010,837164592592378146614259378748613259359482761126795483481526937973841625265937814
000008060920103508804070190300286001045000020100000007201704900007005306000930040,713598264926143578854672193379286451645317829182459637231764985497825316568931742
940007200500030078006010040020400003079050060401060005300870010250100006008005090,943687251512934678786512349625491783879253164431768925394876512257149836168325497
406921000000060109200830407709000006080207050305000002508000000000010673060340900,476921538853764129291835467729153846684297351315486792538679214942518673167342985
004501000007000081005020906030076400960304205002910000076409000020850030000000008,684591327297643581315728946538276419961384275742915863876439152129857634453162798
020006508900003670470000023050100002008400906041067000300805400060071050007020081,123746598985213674476589123659138742738452916241967835312895467864371259597624381
105700000000304086004259030080000409000806700310005002743901600090000008620003041,135768294972314586864259137286137459459826713317495862743981625591642378628573941
680900100704080030000007000009006250560830001108400003090500800007002040230140069,683954127754281936921367584349716258562839471178425693496573812817692345235148769
027850000004069070950000320800140063009007208236000010580300000001090400000720081,627853149314269875958471326875142963149637258236985714582314697761598432493726581
400000289030070460500200000000490700078016000300002500064000300190030072000851090,417365289932178465586249137651493728278516943349782516864927351195634872723851694
060300009095010380087005040600000010000260004010509072700480093458002007000100000,164328759295714386387695241642873915579261834813549672721486593458932167936157428
160038004000290070000450280309004000047020008050007600400000931970000002001062050,162738594584296173793451286319684725647529318258317649426875931975143862831962457
608000000090000047000053100047009306509020004800170020070610093065038000100407002,658741239391862547724953168247589316519326784836174925472615893965238471183497652
807004300000006905904002008130700000400105630090080070020300501500697200086050000,857914326213876945964532718132769854478125639695483172729348561541697283386251497
046000009209000513705000000600010020008640001070305980010402005504870030300091700,146253879289764513735189264653918427928647351471325986817432695594876132362591748
000306520080520010000080904200000106050014003930000070704001200006095080800700309,179346528483529617562187934248973156657214893931658472794831265326495781815762349
901000600000070294000300070007060420360504080089700500200003761140890300050026000,971245638835671294624389175517968423362514987489732516298453761146897352753126849
400078000065000007000300148200507800081002900309004560090105703000460010052000090,413278659865941327927356148246597831581632974379814562694125783738469215152783496
765000830000300071010020460000040008490502700070100604603910520020604000008000100,765491832284365971319827465531746298496582713872139654643918527127654389958273146
005204906008731450300000000670140009400570000021309008030000200290006017007000084,715284936968731452342695871673148529489572163521369748836417295294856317157923684
403200580080010090009006000060421039007300020030609800070950060500000204108004050,413297586682513497759846312865421739947385621231679845374952168596138274128764953
200038900400160085350700062700900420000001000009476030005009000060280704000300058,216538947497162385358794162781953426634821579529476831875649213163285794942317658
900520000000306095208000067100000006730205080004709010070800930040001800002940070,963527148417386295258194367195438726736215489824769513671852934349671852582943671
207400005065000004090860003072500406010009000503780020800910002400020761000000930,287493615365172894194865273972531486618249357543786129836917542459328761721654938
012360070000184630000000000070018200003700865005609004940200080506000009027403050,412365978759184632368927541674518293193742865285639714941256387536871429827493156
100060302029007800080015007300000904096500201710028060000400630005700009468000005,147869352529347816683215497352671984896534271714928563971452638235786149468193725
010026950800300146970004003000000000003009018601500720500740030049080001008000072,314826957825397146976154283487612395253479618691538724562741839749283561138965472
000009086010035200208460009051600304400507008060020700007083050023000001104700090,345279186916835247278461539751698324432517968869324715697183452523946871184752693
060092007000804002005300010803029500040600090070430000720140000400078031090206800,164592387937814652285367419813729546542681793679435128728143965456978231391256874
006005900001900480700840000650070008000002370090608020400020800010050032000103609,846235917521967483739841265652374198184592376397618524463729851918456732275183649
300058062000409800502703400005094001008500930007206008000000190170000024090670000,349158762761429853582763419635894271428517936917236548856342197173985624294671385
708120000030086100120074090407000020006900008080765900000000300059003080003600514,768129453934586172125374896497831625516942738382765941841257369659413287273698514
004705031105093000720600000050900260080234009009000007016008003000400970002060500,894725631165893742723641895351987264687234159249156387916578423538412976472369518
708900306030650208400030007586000004900003780000010090007021509610094000200500000,758942316139657248462138957586279134921463785374815692847321569615794823293586471
091007608002000703030960050200500840005219000067040000070400980000000136100035200,491357628652184793738962451213576849845219367967843512376421985524798136189635274
010903400400000860302080005090006300600271090045300070006459030807000100000810200,518963427479125863362784915791546382683271594245398671126459738857632149934817256
780006590000380760002049030090002100800000005005160400010090208304570000960400300,783216594149385762652749831496852173871934625235167489517693248324578916968421357
090154700200030904500096010063000200700000040000081609840075000930000160002000078,398154726216837954574296813163549287789362541425781639841675392937428165652913478
000009400800350700906107002205400083060020040087000000004010520100260309700098010,572689431841352796936147852215476983369825147487931265694713528158264379723598614
018409073000100090060870002301000940070030000082600500005008060700020004043700051,218459673437162895569873412351287946674935128982614537125348769796521384843796251
050000361001000000090070080087603400004050020230081009300006500008249700476000100,752894361841362957693175284987623415164957823235481679329716548518249736476538192
097800063600001500500020078120903000085000400003074000000067004400209810012050690,297845163638791542541326978124983756785612439963574281859167324476239815312458697
800930705003001620902050000400210860070090050320005040000006100504070008189004000,846932715753841629912657483495213867671498352328765941237586194564179238189324576
004500619300820700751000000000052103020004070006010904470000008002380050015209060,284573619369821745751496832947652183128934576536718924473165298692387451815249367
300400168006020007057030040090360020014005093670000000800001900042570000000098530,329457168486129357157836249598364721214785693673912485835641972942573816761298534
209007501050000080040160903070030058002091300160040070006052794800304002007000000,239487561651923487748165923974236158582791346163548279316852794895374612427619835
600200300002050078507080460005106209001930800400000051000071900000500784304002000,648217395932654178517389462785146239261935847493728651856471923129563784374892516
900005032803400000240107800080090750005043001702008009500000000079600014060001327,917865432853429176246137895184296753695743281732518649521374968379682514468951327
980420300340000705102076008403800000070560180010200090600001000000083204005000607,987425361346198725152376948463819572279564183518237496624751839791683254835942617
320400070005708016010059800000030400090100002007084560409000150200500048600001007,328416975945728316716359824562937481894165732137284569489672153271593648653841297
600308500093050420100490800002000654008009001005047000049001060000000703706280090,624378519893156427157492836972813654468529371315647982549731268281965743736284195
702609001300000000900108043004305006270900830050810097000764020006000009180000050,742639581318457962965128743894375216271946835653812497539764128426581379187293654
400021070800609010060000905700054103043000800980700062500900040010378020002000006,439521678857639214261487935726854193143296857985713462578962341614378529392145786
