081000037095010000460500010008306050700090480002400009000102006000005890024630070,281964537395817624467523918948376251756291483132458769579182346613745892824639175
420009378007030060680000409370800906000053001902000040504002090000140500018007000,425619378197438265683275419371824956846953721952761843564382197739146582218597634
000000004000048630051006800200600040340009700610037058008900500000200961030071002,863752194792148635451396827287615349345829716619437258128964573574283961936571482
010090030285360000000501004006700100009026070400100609037000040000980002062005807,714298536285364791693571284326749158159826473478153629837612945541987362962435817
100200005320890700008006901006902470730005000041030802800003546200709100000040000,169274385325891764478356921586912473732485619941637852897123546254769138613548297
200000875500409060007002100706081000008630500043700200030900000000103940010068020,294316875581479362367852194756281439928634517143795286832947651675123948419568723
004038500000005240203100709007092054000801000080340910902000076075000300100026000,794238561861975243253164789317692854429851637586347912942583176675419328138726495
600000705070104098003070000106007050050001200090208030504006902000830004819000600,641983725275164398983572461126347859358691247497258136534716982762839514819425673
040050000690031008087002043000000237000608001421070090000080070500740610062503900,243857169695431728187962543856194237379628451421375896914286375538749612762513984
500300798000015230900400000000008310001056007070009602002001046040070501006820000,514362798687915234923487165265748319391256487478139652732591846849673521156824973
020000000105070004400050368008600017012048000040309002000500900604201703307900800,823496175165873294479152368938625417512748639746319582281537946694281753357964821
500000026000600700420837001070029430040000160390560080009005000860700050100400803,587941326913652748426837591678129435245378169391564287739285614864713952152496873
000870002105090300000003490872019040600084010009250703040000106020600907300000050,934871562165492378287563491872319645653784219419256783748935126521648937396127854
000829070017000000830001402103000050000406190068000000000740018500030209400915600,654829371217364985839571462143297856725486193968153724396742518571638249482915637
002080000700000314540090600000002930096004000251006080408607190900000702630020005,162483579789265314543791628874512936396874251251936487428657193915348762637129845
000050090007413800408902000080000709015036000003094015020107064750000300001060002,132658497597413826468972153684521739915736248273894615329187564756249381841365972
009027030005600004000503000403050270057064310100008090000090800304102050806070009,649827531235619784718543962483951276957264318162738495571496823394182657826375149
308001005000827000600300070060049057107000020054000630802076100509400002000093004,378961245495827316621354978263149857187635429954782631842576193539418762716293584
007900020050040001100802070300000600064078050820504093600007310009000040040201508,437915826258746931196832475375129684964378152821564793682457319519683247743291568
050000406001076000200390800029600005107950004060280130934000007000120500000004060,753812496891476352246395871329641785187953624465287139934568217678129543512734968
001400503803600090000270400090340026600050100070000000000091000069000750504002380,721489563843615297956273418195347826632958174478126935387591642269834751514762389
030002900928060100006780050007000600204508009100470305000010067002803400841090000,735142986928365174416789253357921648264538719189476325593214867672853491841697532
050000709416078000307240006000134007000050900230000081065000023048009000000061400,852613749416978352397245816589134267671852934234796581965487123148329675723561498
190874500260130000000002003300950068001000750007600004840001090502000070010380000,193874526265139487478562913324957168681243759957618234846721395532496871719385642
004000000800070269070305100000000605001248007390106008650720800009000040102080306,914862753835471269276395184428937615561248937397156428653724891789613542142589376
056004003070902104120000080087240050000570006000003020609001005540080017000060390,956814273873952164124637589387246951291578436465193728639721845542389617718465392
400507800089020400603900010004610208070890105800002006102004590000060301300700000,421537869789126453653948712934615278276893145815472936162384597547269381398751624
750000020120003809003700400000580902005062003800049060040905030009670104008000600,754891326126453879983726415361587942495162783872349561647915238239678154518234697
400360000201089070050004309802000010600040905097030008100695000000003146008070002,489367251231589674756214389842956713613748925597132468124695837975823146368471592
507403080800005000000900036006540907290030800001200400400060000010000275023807010,567423189839615742142978536386541927294736851751289463475162398618394275923857614
002006100080000400407501060060807000000032050895600700600020008000093014071000590,952346187186279435437581269263857941714932856895614723649125378528793614371468592
800050072030201000004030960010405208306700050020900000900000510003040000075108690,891654372637291485254837961719465238346782159528913746982376514163549827475128693
004700300200030019059002000000096700068040290105008030640007085001305040087061000,814759362276834519359612874432196758768543291195278436643927185921385647587461923
000030210206001890500000007009800000040053700081026003070102308400009006008074520,897635214236741895514298637359817462642953781781426953975162348423589176168374529
300090270045000083000700610071400500400005829000386000080054060650002007032010000,316598274745261983298743615871429536463175829529386741187954362654832197932617458
500704300690500010001090402309605074000070080005000230000001890960320000048007000,582714369694532718731896452329685174416273985875149236253461897967328541148957623
010700008305040000060080010879400003003009205000600040008510609190003070400027030,214796358385241796967385412879452163643179285521638947738514629192863574456927831
040790600060014500120000030006001908074802306800000054005008000097000002000360190,548793621763214589129586437256431978974852316831679254615928743397145862482367195
000000000040003275500701608006072030309804050000600104050000012090426007070095003,967258341841963275532741698416572839329814756785639124654387912193426587278195463
016304000004650000000090067060230090070860001132000005305042100000000928900780040,716324859894657312253198467568231794479865231132479685385942176647513928921786543
103095602720600530000000004832040001006920703000060000009000020060730080504001006,143895672728614539695372814832547961416928753957163248389456127261739485574281396
280053100000000569004701000100504002000096300302070050600000400090080207037400018,286953174713842569954761823169534782875296341342178956628317495491685237537429618
050009600000410079300708002064090003201607500700841000900100024002003007186200000,457329681628415379319768452864592713291637548735841296973156824542983167186274935
608000970503091000020507010000003004100600000807409020000204590004070083060980100,618342975573891462429567318296713854145628739837459621781234596954176283362985147
107060058040370001000208007019050000004002703760400500300040000008000692900500080,137964258842375961695218437219753846584692713763481529326849175458137692971526384
170600002062079005009080400040507100080020043905100006007000020003495700810000300,178654932462379815359281467246537198781926543935148276597813624623495781814762359
010000098800040600056002001007009030300480010000057286109500020002060400470903005,214635798893741652756892341687219534325486917941357286169574823532168479478923165
000410005309020000016005087070009050048600902061040030000030870002051640000700009,827416395359827164416395287273189456548673912961542738695234871782951643134768529
063500900400006003008207000020700030100405670506010090000080057095004801200301400,763548912452196783918237546824769135139425678576813294641982357395674821287351469
008050100005000039032706408059380700604000021070024900000479000001002507800130060,468953172715248639932716458259381746684597321173624985526479813341862597897135264
090004150084020000600508070709080200326000047800003006002701000100300005005062930,297634158584127369613598472759486213326915847841273596932751684168349725475862931
060020070070005134015083900043090601800430092006507400000200000100000807500370060,369124578278965134415783926743892651851436792926517483697248315132659847584371269
036214500005003902080900000020050310009007408600090000300508670001700250407060000,936214587175683942284975136728456319519327468643891725392548671861739254457162893
058000700109063400030700650080005000207010089060490170093040006000002805004001000,658124793179563428432789651981275364247316589365498172593847216716932845824651937
070400020532009000490560001816000300000017500020603008083040000004906070200085109,671438925532179684498562731816254397349817562725693418983741256154926873267385149
300007402010230006078060000004000937007001005560908200000090001032800040690520070,356187492419235786278469153184652937927341865563978214845793621732816549691524378
020693001040500083005200700093107508002030904060450002130000007007008609609000030,728693451946571283315284796493127568572836914861459372134965827257318649689742135
809506300034000092701000800000050010307004608500697030000002900002130007460700005,829546371634871592751923846246358719397214658518697234175462983982135467463789125
000140790390000080000089200057200036040013050020054800071060004000827160200000500,582146793394572681716389245157298436648713952923654817871965324435827169269431578
007930000281700040040120560010402000809001005406000073002000030000009706060580910,657934281281756349943128567315472698879361425426895173592617834138249756764583912
030200070905400680007008510094080300800600051010072800600500000080001900709040026,138256479925417683467938512294185367873694251516372894641529738382761945759843126
620000040070806012503090000800600730400205000006040008009020870001000300205301096,628157943974836512513492687852619734437285169196743258369524871741968325285371496
607000300090050040800067521002093800700020109340006070060504080978100006005000003,657241398291358647834967521512793864786425139349816275163574982978132456425689713
930002000100850090072106540000030600009578000054900000067400130000017402008000006,935742861146853297872196543781234659629578314354961728267489135593617482418325976
000903800100060094070104605090020000007509008800300001204007003008000762061008500,426953817185762394379184625593821476617549238842376951254697183938415762761238549
605070080790043000000805009043020001507001900201500006100030640300607100000019502,615972483798143265432865719943726851567381924281594376159238647324657198876419532
001400052000068100005300000050837094020140805304090710600080003007002009900050620,861479352293568147475321968156837294729146835384295716612984573537612489948753621
009040007205109040000287150630010000090002000100900680567000803080030020400700510,819345267275169348346287159632814975798652431154973682567421893981536724423798516
001000000032910480600050039500240006003600208008300701000009020840007900109003507,951834672732916485684752139517248396493671258268395741375169824846527913129483567
000002048580390002010704903920600005040000200708021000001007530000940060405013700,379152648584396172612784953923678415146539287758421396891267534237945861465813729
903040200070001400008750006500200000704506028009083000010405370067800040000020060,953648217276931485148752936581274693734596128629183754812465379367819542495327861
000700460019060050700008320008100500000390002030504070361070008085009040970032000,823751469419263857756948321698127534547396182132584976361475298285619743974832615
503000080060109400471050900000207000800000162904015030085300040100400708000090006,593724681268139475471856923316287594857943162924615837685371249139462758742598316
008007200009030000560029801206140005380070002004000309070002046002508903010060500,138657294429831657567429831296143785381975462754286319875392146642518973913764528
300000604004735000019000008080200905290803067000041000508009000000507032137060500,352198674864735291719624358483276915291853467675941823528319746946587132137462589
071900500003047001690208000000100030000062708024053000002800063010004070050670409,471936582283547691695218347567189234139462758824753916742895163916324875358671429
970800051008560040003200007000004790302096080400180005100005000030000006609401023,976843251218567349543219867861354792352796184497182635124635978735928416689471523
000900603270005000800160700400500100790020005063819002010400090020080036000003840,145978623276345918839162754482537169791624385563819472318456297924781536657293841
000300006908200000032006750257080400100000630000195000010002094005070300604001800,571348926968257143432916758257683419189724635346195287713862594825479361694531872
800603921210070006005000304100900580000205040007046103602000005008304000030090700,874653921213479856965128374146937582389215647527846193692781435758364219431592768
030607024740008603100000580080096302007240000600100049008029000009500100304070005,835617924742958613196432587481796352957243861623185749518329476279564138364871295
000050367307040000051800009208460001000020790060005004080700400520013000009080012,842951367397246185651837249278469531415328796963175824186792453524613978739584612
605487030029005000400000016036090100791030040040700053000009870207641000003200000,615487239329165784478923516536894127791532648842716953164359872287641395953278461
048900600500000307900016004706051008300400200820030006002095080000040705003180002,248973651561824397937516824796251438315468279824739516472695183189342765653187942
000720006058410907201900300140009580507000000069302400300000140000568003090000000,934725816658413927271986354143679582527841639869352471386297145412568793795134268
000006300987010005002508070509000800100680002030021040010340609806000020000007054,451276398987413265362598471529734816174685932638921547715342689846159723293867154
004901203020600090008003700791008605080250300500007004250006009000030860007400001,674981253325674198918523746791348625486259317532167984253816479149735862867492531
400000072789400100015800900300950001000048209006002503907030000030105000140070020,463591872789423156215867934324956781571348269896712543957234618632185497148679325
020600084003892050001074006567030009400150630000000800105040098900020740000003001,729615384643892157851374926567238419498157632312469875135746298986521743274983561
020090500801000720064000008007234009035000001000170800300900005400001060906850203,723498516891563724564712398187234659235689471649175832372946185458321967916857243
080090000700640010900300856100050002090700140004120083670400090052010600000003508,386591427725648319941372856137854962298736145564129783673485291852917634419263578
201560309000000050940000680608100700320075000000690043003908010510700400070400200,281564379736289154945317682698143725324875961157692843463928517512736498879451236
007000029930070801001200470000087060620501000709400030108306002340009008000100590,467815329932674851851293476513987264624531987789462135198356742345729618276148593
040201005009070380301800040003904700700005069506000002070600000000018900410500800,847231695259476381361859247123964758784325169596187432978642513635718924412593876
000168007040500026130004090057000810020300600080400072064739001002000350009002000,295168437748593126136274598457926813921387645683415972564739281872641359319852764
853920010100000069020074000370090800506240091004058020000000600098007002000800045,853926417147385269629174583372691854586243791914758326235419678498567132761832945
003008900000501007405900630000720809200000700840306002390450208010200004700080506,173648925962531487485972631631725849259814763847396152396457218518269374724183596
007000000002906450450801006680140090000000103900705080000004820100067930530090060,867453219312976458459821376683142597275689143941735682796314825128567934534298761
300040001079600200840950600900400030001207008060008907000100580405006009020030710,356742891179683245842951673987465132531297468264318957793124586415876329628539714
000054601180600407002000000059870000430092000800001002500003914000020005076400038,793254681185639427642187359259876143431592876867341592528763914314928765976415238
