050060480400000100002053070060090040340008902007100300610042000025706800870500010,759261483436987125182453679268395741341678952597124368613842597925716834874539216
030070608900000000046509001290805040004300980000001007060130502082000000001400036,135274698928613754746589321297865143614327985853941267469138572382756419571492836
700000102030004050080279004090000730400050080003001600070600900100830406060912008,746583192932164857581279364695428731417356289823791645278645913159837426364912578
006900254802050300040001080308007120050069000090200000000105603780400002013700800,136978254872654391549321786368547129251869437497213568924185673785436912613792845
100007600000090004000658092900000807803006040004300200720001069095074001301000058,159247683286193574437658192962415837813726945574389216728531469695874321341962758
800500013034010090500047002100060580005003049072000030026408070700029008000030600,867592413234816795519347862193264587685173249472985136326458971741629358958731624
005008710870015200030400680307081002090306800400002050250070009006000407001000000,625938714874615293139427685367581942592346871418792356253874169986153427741269538
082900006160045903300001075650300000704090028000704000090810300000002410000060057,582973146167245983349681275651328794734196528928754631495817362876532419213469857
800001027705480000090000050300000086287900000040010300900820460400073210630090500,864351927725489631193267854319542786287936145546718392971825463458673219632194578
067350820100000090509800400000400003290000086030278010870034500001620070006900000,467359821183742695529861437718496253294513786635278914872134569941625378356987142
803010500001023009460709080035000826004007010900000007000096200180500700050400063,893614572571823649462759381735941826624387915918265437347196258186532794259478163
207500000800106005051040300000070520602009087100803090004900030000200700089065010,267538941843196275951742368498671523632459187175823694524917836316284759789365412
000004100001560070048002036970401005306090800000003027600000203190000740003800050,569734182231568479748912536972481365356297814814653927687145293195326748423879651
100000605800320007970800201040005860300609000010200074050000348000018000620004100,132497685865321497974856231249175863387649512516283974751962348493518726628734159
000010403001200890506008700000000070029641000040580609007004206360790001852003000,278915463431276895596438712685329174729641358143587629917854236364792581852163947
694080302010000045800030000080093020050000190002641507741800006000020009300706400,694185372213967845875432961187593624456278193932641587741859236568324719329716458
010250806000001700000746900400062070526400100008300000700580309931000005804010600,317259846649831752285746931493162578526478193178395264762584319931627485854913627
046030050823006100000780000200040875008500310004100020900000640060307000501200709,746931258823456197195782463219643875678529314354178926937815642462397581581264739
500304020980006000070018460000070300200600580130902000800000005641850007009031000,516394728984726153372518469468175392297643581135982674823467915641859237759231846
165090004004030058000400609928000000000200070003051060080604105001900020079002300,165798234294136758837425619928367541516249873743851962382674195651983427479512386
019030000860210400500000078280304010004090005000701600050060800701002930000409050,419837562867215493523946178286354719174698325395721684952163847741582936638479251
500018030600070010089006500408001000762800090000740003010200478090000065000453900,547918236623574819189326547438691752762835194951742683315269478294187365876453921
004000510020470300196020000701500004509006080042800050067083090000000820000619703,374968512825471369196325478781592634539146287642837951467283195913754826258619743
001960007900000500200075103570400000803002006010090480100700040426010708008003250,351964827987231564264875193579486312843152976612397485135728649426519738798643251
007045930032006001800000050040000720085090000906210004009307200610009005003500406,167845932532976841894132657341658729285794163976213584459367218618429375723581496
400703580080000109003010000000302904508090260900050070060170003002908000015264800,491723586287546139653819742176382954538497261924651378869175423742938615315264897
768000000005980704000020065200001307010800940039500080006070401190300000400050629,768415293325986714941723865284691357517832946639547182856279431192364578473158629
030001650100400002890506000000045830600907010000630000017302005050800079428000100,734291658165483792892576341279145836683927514541638927917362485356814279428759163
904000070560002100000650320007004000032800659608000000800300945010400083009570000,924183576563742198781659324157964832432817659698235417876321945215496783349578261
015970000000100706030054800280001460007008009500000003602049030100630004049000075,815976342924183756736254891283591467467328519591467283652749138178635924349812675
060500100000931046080604007807040039600800500930002000001470200200050081070006094,469587123752931846183624957827145639614893572935762418391478265246359781578216394
500080100170000234060000950280607000030845007006930010090004063000700002450309700,529483176178596234364271958285617349931845627746932815897124563613758492452369781
009040150200081000070602003006010540028005000004738090400000920800000607350920010,689347152243581769175692483736219548928465371514738296461873925892154637357926814
000600000076042008419000000287006009000009034300157062000900340142800050005700000,823691475576342198419578623287436519651289734394157862768925341142863957935714286
890034207671208003000000050900500000407062810060000032380005040002017006006800900,895134267671258493234796158923581674457362819168479532389625741542917386716843925
307905004080000109200084000009820005061050800800000930650740300000000602042013050,317965284584237169296184573739826415461359827825471936658742391173598642942613758
030089105001200400200107093074800600603050200000063001050490008790002060000000050,437689125981235476265147893574821639613954287829763541352496718798512364146378952
009008032070015000000240501030054900601020000800000040017000690003600000906473080,159768432274315869368249571732854916641927358895136247417582693583691724926473185
000030008024107060000659000800500004067000105900370200091006702048010690700203000,679432518524187369183659427832561974467928135915374286391846752248715693756293841
130400960090810002470030005025000700000002003600178000300006200000750098809200100,138425967596817432472639815925364781781592643643178529317986254264751398859243176
090700000208060017603050009000905024740830690010200030024018500300000001005000460,491783256258469317673152849836975124742831695519246738924618573367524981185397462
042000130080700000103840000200510080630470200007069050001000605008000094079300020,742695138986731542153842967294513786635478219817269453321984675568127394479356821
702600500890030001036000004060008390000250000510040082400012900980500047003007000,742681539895734621136925874264178395378259416519346782457812963981563247623497158
350070010000029406094103080502006000100007009000000268400601000017000043080090500,356478912871529436294163785532986174168247359749315268425631897917852643683794521
600000900080020031500630204070002480300009060000847005009080040006700503230100007,623471958487925631591638274175362489348519762962847315759283146816794523234156897
200060400047503008008700302080072001013600009950400000406000020000014806020300750,239168475147523968568749312684972531713685249952431687496857123375214896821396754
008070130503800040071020005000000970700906403020000001090500800086704002402030006,248675139563819247971423685634251978715986423829347561397562814186794352452138796
630000020002701030000500406740002090090800310508009000009106048020305007160040900,635984721482761539971523486743612895296857314518439672359176248824395167167248953
590200001002063000400705028106072094900600500038000000087900005005000036010034007,593248761872163459461795328156372894924681573738459612387926145245817936619534287
340085000090302040000700209006104900008030061400800527701029000500000600600070108,342985716197362845865741239276154983958237461413896527781629354539418672624573198
068000500200105640004920017043051009506000000000073080800760100029004038000200000,168347592297185643354926817743851269586492371912673485835769124629514738471238956
010000047080025900600190030090050600307080005200704003005060402060008010038940700,519836247783425961624197538891253674347689125256714893975361482462578319138942756
000059080410000069580070300800041006030000000206800700050960001300708020100002904,623459187417283569589176342875341296931627458246895713752964831394718625168532974
208000701000000985005041000310906000006007890000020007600032500972500104040010068,238695741164273985795841326317986452426157893859324617681432579972568134543719268
013076500060300000084102007000000928152000000007064050600008470400050300920040001,213476589769385214584192637346517928152839746897264153631928475478651392925743861
008000000900857603000206107342000096000040308010709050000000004604520800083900570,768413925921857643435296187342185796597642318816739452159378264674521839283964571
097605230300041000800092706200803109060174508000000000040560007050000810000209004,497685231326741985815392746274853169963174528581926473142568397659437812738219654
340002810785090630002000070108030207000980040060000000007100095800340000420059060,346572819785491632912863574198634257273985146564217983637128495859346721421759368
900700001008400265006030000500083140000176028000200009034600980709001003802004600,945762831378419265216538794527983146493176528681245379134657982769821453852394617
000000310100065089360908500042070900003406078005200003076009004000040100090082007,859724316124365789367918542642873951913456278785291463576139824238647195491582637
080240030302180900700009006005720610000000507800061000600030148900010375004005009,589246731362187954741359826495728613216493587873561492657932148928614375134875269
030700000604003180705090603009000000401800005800009742307568090000020061020430008,132786459694253187785194623279345816461872935853619742317568294548927361926431578
090061500004300000108005230306008105085009002400000080960020004000600800002503017,293761548654382971178945236326478195785139462419256783961827354537614829842593617
700000800008000159504020600100090070000064000802703040060900308415300000300271005,731659824628437159594128637146892573973564281852713946267945318415386792389271465
000000740900140500020907080407002900080000076300600020005803100010450068290006003,831265749976148532524937681467382915182594376359671824645823197713459268298716453
958000004200700130000065000007032089001900070300840600030000500020078906009020810,958213764246789135713465298567132489481956372392847651834691527125378946679524813
000049000000706082900530640080300020054007806200000153076058000040200001003961000,762849315435716982918532647681395724354127896297684153176458239849273561523961478
500900087080000031006001500007050490400009063230060000845207000010834700070600002,521943687784526931396781524167352498458179263239468175845297316612834759973615842
800600500007200964490007100030408700600025010080000006940000000705010820010090053,821649537357281964496537182132468795674925318589173246943852671765314829218796453
540200001006801700002630090000120080009075003020000064310009008090740010000008450,548297631936851742172634895453126987689475123721983564314569278895742316267318459
700030804050009206030620010005004063010072000084900700120405000090083000600000108,762531894851749236439628517275814963916372485384956721128465379597183642643297158
000980040400002500001000609980500702020041305003000080002036000000100907678450001,267985143439612578851374629984563712726841395513297486192736854345128967678459231
006800754000061908200000000120050040000704030970200805800509100741003002060007003,316892754457361928298475361123958647685714239974236815832549176741683592569127483
908260350002050409500001600000083070490600080203090504800000001045000030061702000,918264357672358419534971628156483972497625183283197564829536741745819236361742895
000170800090502004501643009025000600709000000308704010400020305000001208072900000,234179856697582134581643729125398647749216583368754912416827395953461278872935461
020064080604150090030092500003076004080000201005830070067009010400000005100080963,529364187674158392831792546913276854786945231245831679367529418498613725152487963
004703090008420600371008000100260059000010060450000008000940070930580200002007005,264753891598421637371698542183264759729815463456379128815942376937586214642137985
174300052003500800020000160006000070000049015039072400000068000007010020268037090,174386952693521847825794163416853279782649315539172486951268734347915628268437591
600200075000013400004000918000730501850009200000000006006002000291506040043980007,618294375975813462324657918462738591857169234139425786786342159291576843543981627
200009701105300000049670000007062908000700504320005000080000600450900300060104892,236549781175328469849671253517462938698713524324895176981237645452986317763154892
890000460000001570006090002201300080570042000000508007010067304460029050002003190,897235461324681579156794832241376985578942613639518247915867324463129758782453196
006032090080400060100700500020080000407053800000170403004009086072000900603010050,746532198285491367139768542321984675467253819958176423514329786872645931693817254
000030004014000030230970000090100785056720010000008609005800046047090100300056207,569231874714685932238974561492163785856729413173548629925817346647392158381456297
816002500570013400002000070004091002050200107090600008907030000008045960360008010,816472539579813426432569871784391652653284197291657348947136285128745963365928714
001207600080000005923000104090400008730600900406908730205040000070810000000360290,541237689687194325923586174192473568738651942456928731265749813379812456814365297
027500810000004900900300070040200530230090107710008090403150200006700000050080006,327569814561874923984321675649217538238495167715638492473156289896742351152983746
024009073500102890000060000300000005850007901760014080007300600100000208006980450,624859173573142896918763524341298765852637941769514382487325619195476238236981457
206040501190380007043600900500920008070010040309800206000007003628005000000290010,286749531195382467743651982564923178872516349319874256951467823628135794437298615
098000003010403098600020501900050030072004105103000070080700050004068000760500900,498615723215473698637829541946157832872394165153286479389741256524968317761532984
080403501406500000103020900000716200090004000647980000000000865900038002002100370,789463521426591738153827946538716294291354687647982153314279865975638412862145379
080030795002000100005891400000070920203040006610500008409250000071680000500000634,186432795942765183735891462854376921293148576617529348469253817371684259528917634
900800076001009240062000500050607300070200901038504020005300419004080060000001005,943852176581769243762143598259617384476238951138594627825376419314985762697421835
168005000730980100900027006480002300071043090005000002000304025009010400000050780,168435279732986154954127836486592317271643598395871642817364925529718463643259781
600407001504000080009018020120056007000800600003942000000603800051000009930000074,682437591514269783379518426128356947495871632763942158247693815851724369936185274
000003005087000002020040617906500000400610530000070109760051400100380000053900800,641723985587196342329845617916538724472619538835472169768251493194387256253964871
002000800480300007750048016000060001030000785100900600070100900603070204204035000,362751849481396527759248316827563491936412785145987632578124963613879254294635178
208700004007062500400038200810020000009000063070501040006080057040009010305070600,268715934937462581451938276814326795529847163673591842196283457742659318385174629
600780900910000006008003520000802070041060000005009462000210840096054017000070003,652781934913425786478693521369842175241567398785139462537216849896354217124978653
800006007004390560015008020007200004206000050000610300008140070900030400501002809,893526147724391568615478923187253694236984751459617382368149275972835416541762839
007054309108060270900120040870900020006080003003206150019700000600000000052003400,267854319148369275935127846871935624526481793493276158319748562684512937752693481
