020100560597300008006000409931400000004507980080001020043006100000900005000002637,428179563597364218316285479931428756264537981785691324843756192672913845159842637
300108007054000280008942000430070000000400096017200350980305001000001020070800003,392158647154637289768942135439576812825413796617289354986325471543761928271894563
600092010940100600035600008710200006200060809000049005890007500001003702500010040,678592314942138657135674298719285436254361879386749125893427561461953782527816943
400060009050003710002407050020804090010000040008210307000608005900030078304005126,437561289856923714192487653623874591719356842548219367271648935965132478384795126
800000037009472801005630000106000200058900003090056100002000004047021509030080700,824195637369472851715638942176843295258917463493256178582769314647321589931584726
280000670000002053000410809007009001160058400429030000500060000706021530000800040,281593674974682153635417829857249361163758492429136785598364217746921538312875946
007109300060070000000360025009020437400690100053000680002930010095740200100008004,527189346364572891981364725619825437478693152253417689742936518895741263136258974
000065920500100040038024070102580004057000016900000300096000000800600201403078000,741865923529137648638924175162583794357492816984716352296351487875649231413278569
000040000050960304800501000004007250200490801316002900030079100560080020007035090,691743582752968314843521679984317256275496831316852947438279165569184723127635498
310008920800903604007050100400020057005000096038076000006300040703082000000040201,314768925852913674697254183461829357275431896938576412126395748743182569589647231
005690003910400020008002450320070000080900036600031804000500701031068090000020040,245697183913485627768312459324876915187954236659231874892543761431768592576129348
300500780006020400705890021002400036000015000013670090800004500100007068000150370,321546789986721453745893621572489136698315247413672895837964512154237968269158374
067030020900806000804090017001008094000063750050002801209000030000020406000517000,567431928912876543834295617621758394498163752753942861279684135185329476346517289
089074005630800020027050001973002040054006000000040730040560002001300670002001800,189274365635819427427653981973182546854736219216945738348567192591328674762491853
002459310800007005000860000050002000003005197060173002710020054400006703080090600,672459318891237465534861279157942836243685197968173542716328954429516783385794621
092057000100900257800400601020060030941302800003000700070000010300048500280609304,692157483134986257857423691728564139941372865563891742476235918319748526285619374
810073400004000230090800600000004890062030070000651040600319005500400083079002000,816273459754196238293845617135724896462938571987651342648319725521467983379582164
009072680708065004000100000035218000620300005001000090000006100096004708480090003,359472681718965234264183957935218476627349815841657392573826149196534728482791563
730600089002000500806900030009201040280007000301005007000000100050406890040073056,735612489492738561816954732579261348284397615361845927623589174157426893948173256
280037000075900600000100980902004001500700300046203000000001239600089074401000050,289637415175948623364125987932854761518796342746213598857461239623589174491372856
230000108900700604056800070105040002020900380003056901000190000070605020860032000,237564198918723654456819273195348762624971385783256941542197836371685429869432517
059100000400827056000000008203500490000010000760003020905070200007604030300095071,859136742431827956672459318213568497594712683768943125985371264127684539346295871
003005469000800700471920000060000500002003084304780010500000000108300092930012070,283175469695834721471926358869241537712563984354789216527698143148357692936412875
008471000012950700090006008300800926020704010005060003009103540000090201070002060,538471692612958734794326158347815926926734815185269473269183547453697281871542369
000400006120070000807090103050310090708006020043800500009008750600500408001002039,395481276124673985867295143256314897718956324943827561439168752672539418581742639
140300870032006000008007006410630090060091050820000001000500060590400702003800900,146325879732986514958147326415638297367291458829754631284579163591463782673812945
426000030800009005700100048000602000978000000302005071010703080093460510600500024,426857139831249765759136248145672893978314652362985471514723986293468517687591324
000504700083000006000820943010309580006700020945010000068070031002400600170050000,629534718483197256751826943217369584836745129945218367568972431392481675174653892
320009000060500041091070500010008032543000080209060007008031090074082000000400076,325149768867523941491876523716958432543217689289364157658731294974682315132495876
046700080910060300020093000002605403094300157000100006030020709070410000805007010,346751982918264375527893641182675493694382157753149826431528769279416538865937214
004092830793008000200060001007000910600970240840000006000000004002013700015026000,164592837793148652258367491527684913631975248849231576376859124982413765415726389
500390100004006003108000970060109300000035804810200005902060008007040050000807060,576398142294716583138452976465189327729635814813274695942561738687943251351827469
450103900738006002000050006000800090003090701520610040007405060000000300802000107,456123978738946512291758436174832695683594721529617843317485269965271384842369157
000600509704090006008025003000163002100007000900800750063470010005008090270010400,321684579754391826698725143547163982182957364936842751863479215415238697279516438
001700405400035001908010700000500003230009680006420050800002009694800000020067100,361798425472635891958214736749586213235179684186423957817342569694851372523967148
345008000900000102002075040807010000000300906010542000490001203000006004583090070,345128769978463152162975348837619425254387916619542837496751283721836594583294671
008090001000005070710002390000100200904637018005400003002964000060000984007080030,358796421249315876716842395673158249924637518185429763832964157561273984497581632
097080430000700650000002000000403708102008340800607090715039800003500019260000000,697185432328794651541362987956413728172958346834627195715239864483576219269841573
760000005002090001403572000000030064540007108081600020900843000028000000000015709,769381245852496371413572896297138564546927138381654927975843612128769453634215789
000600510030010900790032000000050800406029000000704690900800174317000006800200050,248697513635418927791532468179356842486129735523784691952863174317945286864271359
020000430180500000000690805800720091201083007603900008000007069400100000057008020,529871436186534972734692815845726391291483657673915248318247569462159783957368124
790002400680975000003008000409000301000400005100790002072860000001030580300104029,795312468684975213213648957429586371837421695156793842572869134941237586368154729
001029704000307900000080026008005000200400300090006075080090460370000059500761280,851629734624357918937184526718935642265478391493216875182593467376842159549761283
000000006098001000000020731075000009301600200080004050410089000006040002032570048,123457896798361524564928731675832419341695287289714653417289365856143972932576148
008060107031209540450003090040375002000002900003000071000400700902608000600000825,298564137731289546456713298149375682867142953523896471385421769972658314614937825
000086092570000000900710034005100820000030900004200071000400087720309000061020350,143586792572943168986712534695174823217638945834295671359461287728359416461827359
000037000576000000029540018100079280904300006000800050000460000602003507058001093,841237965576198432329546718135679284984352176267814359793465821612983547458721693
000503008080070100036908200604090700003040902801700005200150004010400000509020060,172563498985274136436918257624895713753641982891732645268159374317486529549327861
430610800700005100006492007000850200009004000103070059070000064320001080560003701,435617892792385146816492537647859213259134678183276459971528364324761985568943721
378020900040006000000503740100260500005008024630705000000034105900080062001900087,378421956549876231216593748184269573795318624632745819827634195953187462461952387
520008003007405008100000900400800610019600040800700095906502400350010206000007080,524198763697435128183276954435829617719653842862741395976582431358914276241367589
005070400006130089800500713053900001609300007080026000140200608900040350002090000,315879426276134589894562713453987261629315847781426935147253698968741352532698174
000230180308054000010000400090000650030010720240603890020709060680000007900000510,459237186368154279712896435197482653836915724245673891521749368683521947974368512
005908000180042050090000076803000040000025100000407069050001600402039010910600008,735968421186742953294513876873196542649325187521487369358271694462839715917654238
600000078030906020540073009300650000890030000000089407007095100080001002023040950,619524378738916524542873619374652891891437265256189437467295183985361742123748956
000080504400003001210000078000402053028009600370006910090004700157600020000090036,739281564485763291216945378961472853528319647374856912693124785157638429842597136
000132000570060802000000000007005300100600090038200740004309620260417500810000009,486132957571964832392758164927845316145673298638291745754389621269417583813526479
900002600300007028002530000480906300006020074020100500010000400007890005038750160,971482653354617928862539741485976312196325874723148596519263487647891235238754169
042703006000400030703190002600000001801500940000902500160300020005000080007258609,542783196916425837783196452659834271821567943374912568168349725295671384437258619
090003020286050030100600904840000001000709580709018003001020000300065200450300870,594173628286954137137682954845236791613749582729518463961827345378465219452391876
013000680860049000000001307472580009601003002050000070500204000086950040700000910,913725684867349521245861397472586139691473852358192476539214768186957243724638915
609000000080004012702056400807900003300208700100600005236080500000000091050073008,649321857583794612712856439867945123395218746124637985236189574478562391951473268
350701000240060790800420010008009260009006005100240300003000608000150007970008400,356791842241865793897423516738519264429386175165247389513974628684152937972638451
709020006060000018002305900600000483800010000570094600258006007000200009010407350,749128536365749218182365974691572483824613795573894621258936147437251869916487352
060500304008791050200000010700640090041050003003807006900300008017004205304028007,169582374438791652275436819782643591641259783593817426926375148817964235354128967
520041900907530008060200003000000000091680002200007854700310200084000010600700039,523841967947536128168279543875423691491685372236197854759314286384962715612758439
070004001290530080003020700000100340050749008800050920030910000007008010045200006,576894231291537684483621759769182345352749168814356927638915472927468513145273896
400018020083700001070600400940520710000000000265800390001900503800207060506000800,459318627683742951172695438948523716317469285265871394721986543834257169596134872
015000034620000080008094000490001570700205000030080006000507100069008052200900043,915872634624153987378694215492361578786245391531789426843527169169438752257916843
840037600020040000900100503430910700650004000007260000060008092395000086010000305,841537629523649817976182543432915768659874231187263954764358192395721486218496375
005002370040060012900003000001900060020805004000070850083600100704500090006041720,165482379348769512972153486851934267627815934439276851283697145714528693596341728
045900008900070300230104007100203460060408009090500031807006104050000000600020070,745932618981675342236184957178293465563418729492567831827356194359741286614829573
021400306060001700005098004600019020013000009400700080006000005050230900079050860,821475396964321758735698214687519423513842679492763581246987135158236947379154862
804630000300004790500021008000079125040100600000800073002005000410006830063000017,894637251321584796576921348638479125247153689159862473782315964415796832963248517
008390601001040790500002800009056100040000250003201048764800000080100360002007009,478395621231648795596712834829456173147983256653271948764839512985124367312567489
010609084803500020700040300900060400027003001001800507209175003600000009035090000,512639784843517926796248315958761432427953861361824597289175643674382159135496278
401050800060000005970800410000710608300209000040506900050030120708000090209671004,421357869863194275975862413592713648386249751147586932654938127718425396239671584
000020000283070000594006170000000480069250300700901000002400060300710900071800540,617529834283174695594386172125637489469258317738941256852493761346715928971862543
820601000003000900006037050080043105700200346100090000000105070040069008050800623,829651734573482961416937852682743195795218346134596287368125479247369518951874623
903000205005002000007806010200090540000700309010420080006018400000300007591007600,983174265165932874427856913278693541654781329319425786736518492842369157591247638
500000804090260350000004027800005603600120000710093000000010000004870206230406098,572931864498267351361584927829745613643128579715693482986312745154879236237456198
000100063065902800003700400090020000807605002100003085302080091000040620070010030,789154263465932817213768459594821376837695142126473985342586791951347628678219534
038920000049307051600000300000600502003504970060872040580009017002080490000400000,138925764249367851657148329471693582823514976965872143584239617312786495796451238
000000070390020640508009300000010807010500230460800009100905000750002006040603580,624351978391728645578469312935214867817596234462837159186945723753182496249673581
006057000002184600105003002070540000009000085034006200001300097900000836860900100,346257918792184653185693742278549361619732485534816279421368597957421836863975124
900200570052000600000900004400150086007096200015082400000070902086000003790004010,964231578152748639378965124429157386837496251615382497541873962286519743793624815
006078020509001083003900104190802056000060002040000700020700065000003040008500391,416378529579241683283956174197832456835467912642195738324719865951683247768524391
007005360016020400000017008028400607000700050040300900900038000504096710601000020,297845361816923475453617298128459637369782154745361982972138546584296713631574829
020400000074000800500016290005072060000800300382060910810007640006059703700008000,921483576674925831538716294195372468467891352382564917819237645246159783753648129
470023500002060008900570040000100609006050070043000800200840360080009002650200901,478923516532461798961578243725184639896352174143796825219845367387619452654237981
006321000704800060290007508000000210007060040003175900500030000079004803018206700,856321479734859162291647538965483217187962345423175986542738691679514823318296754
300060100007008040008952000100000098009300006065004703070001204803700600500020009,392467185657138942418952367134276598789315426265894713976581234823749651541623879
045000029009106008000050700020008910006502803790301400800007105030600000201049060,145783629379126548682954731523478916416592873798361452864237195937615284251849367
803006700600080021000040000010700009250300040907020506780000014094051600002009803,843216795679583421521947368418765239256398147937124586785632914394851672162479853
802040069700819000030050000001090400900703001256180003600500140023000075040000020,812347569765819234439256817371695482984723651256184793697532148123468975548971326
060900008705000021891300405002060000450027000000500013100700600040009302086045070,264951738735486921891372465912863547453127896678594213129738654547619382386245179
006201009009375020570000800030007610020400080700060040800003204010506300400900075,346281759189375426572694831934857612621439587758162943895713264217546398463928175
070000341900004060500800002130902000800036000026070500605390014000000078042601003,278569341913724865564813792137952486859436127426178539685397214391245678742681953
950080000302400000010503600000002503070010900483000007100240750007609820806001039,954186372362497185718523694691872543275314968483965217139248756547639821826751439
430958000000030902700001480080640200203005001006003070001076004090002805560000100,432958716618734952759261483185647239273895641946123578821576394397412865564389127
