320086100007000006000930027280059040709010038010008500800005070005400010630020004,324786195197542386568931427286359741759614238413278569842195673975463812631827954
000905700007280000430016002090062070070009301800004200008000005903500040021007836,682945713157283694439716582395162478274859361816374259748631925963528147521497836
000028650150070084002000390070046000089005030004002108038059002907000065600100000,793428651156973284842561397371846529289715436564392178438659712917234865625187943
907001004036802709500060000700200100004005003603070800421050607000007518000900030,987531264136842759542769381758293146214685973693174825421358697369427518875916432
010004700003090062406500080000068530004020607905700000080307124700100050300009800,218634795573891462496572381127468539834925617965713248689357124742186953351249876
800000400060085290537900001600070300010009040700148002000250809021036070005400000,892613457164785293537924681649572318218369745753148962476251839921836574385497126
060043710208090400001750800000038104030400060019000058790501020600009000053020007,965843712278196435341752896526938174837415269419267358794581623682379541153624987
950000003060190802017043000009601500100920030030008700006200000720080904890570060,958762143364195872217843695479631528185927436632458719546219387721386954893574261
510200004080095200003007080037008009000031700620700010009850021401000360060000007,516283974784195236293467185137528649948631752625749813379856421451972368862314597
087600030401270950600000400003400500050002087200509100108040060009006000000903024,587694231431278956692351478813467592954132687276589143128745369349826715765913824
000620800000300004980051023570000006003060091020980050038014009001000700602035040,314629875265378914987451623579142386843567291126983457738214569451896732692735148
000008000004000350512009078080074100061000003350020409000702006940060200700543090,673258914894617352512439678289374165461985723357126489138792546945861237726543891
050200670908000100073069004306000500190040008002016003004001906025000740000870020,451238679968457132273169854346982517197345268582716493734521986825693741619874325
015040000600008023300970805000600000450030709000020140047009000090052306006107900,815243697679518423324976815781694532452831769963725148547369281198452376236187954
030008546000910000007504010201380009000000007050620430670030000900040028080102065,139278546564913872827564913241387659396451287758629431672835194915746328483192765
000790030105008000040652000004000093920800100000370208036040010080010057702003009,268791534195438726347652981874125693923864175651379248536947812489216357712583469
300001000608030904040090570080000100009708046003015700100207405024000080050609030,395471862678532914241896573782364159519728346463915728136287495924153687857649231
900300500076001002200504106000805030090617405140000007301002080607090000020708000,914326578576981342238574196762845931893617425145239867351462789687193254429758613
000009200001300075620854001080030000963780520004902700309600000200013960050000408,835179246491326875627854391782435619963781524514962783379648152248513967156297438
300412000701500080000009600200000005830006190470850062140070900000028036002300050,368412579791563284524789613216937845835246197479851362143675928957128436682394751
080000704020807615605030090010020003509040260460700080000014000093200100007006520,981562734324897615675431892718629453539148267462753981256914378893275146147386529
002071085030000000700900403005000890970030024281006500000780002000500310694020000,462371985539648271718952463345217896976835124281496537153789642827564319694123758
005307001090020407000050280600180740000004500008700326200016000043800090006039002,825347961391628457764951283652183749937264518418795326279516834143872695586439172
030060500800401002607300049023050000006004750070900601000008230000102000590730084,234869517859471362617325849123657498986214753475983621741598236368142975592736184
270900050000710306090058100603000000084070520059040080500000408400005019018300700,271936854845712396396458172623581947184679523759243681562197438437865219918324765
060050040400007092509400071030860050600000204012005003040901820108020006007300009,761259348483617592529438671934862157675193284812745963346971825198524736257386419
354008900080210073000050060800400097006800010290006400705609008930570000001002000,354768921689214573172953864813425697546897312297136485725649138938571246461382759
003070108095003000170904003000042000000800607012790034500200009038000500069050740,423576198895123476176984253387642915954831627612795834541267389738419562269358741
000539000024600005700000008210070090500910804006003200080000340100068700970205100,861539427324687915759124638218476593537912864496853271685791342142368759973245186
080010903000054160200300000010087309450900020078403000030792400000608001009040607,584216973397854162261379854612587349453961728978423516136792485745638291829145637
000900050003205890010064203890000010021000065700603008070000009005480000432009700,287931654643275891519864273896542317321798465754613928178326549965487132432159786
200004000035000070740603100000100200806025040300000908000781490009506032060300501,291874653635219874748653129974138265816925347352467918523781496189546732467392581
480500900009007501005600320190080005007002060040703200030005087870009100006100000,483521976269837541715694328192486735357912864648753219931245687874369152526178493
000069070100000005520001830090800062004100007700053004930400500007086000061230090,843569271179328645526741839395874162684192357712653984938417526257986413461235798
003080040004000156290001300708200500500003901600000027450018002000760003087409000,163587249874932156295641378718296534542873961639154827456318792921765483387429615
070800040000012000506000213903100000040200005800604930009050806160009700402008000,271836549394512678586947213923185467647293185815674932739451826168329754452768391
010000008560010720002030409000604000490080000650200370070420195100870630320005000,913742568564918723782536419237654981491387256658291374876423195145879632329165847
850000037010650092960304000100020006300005020040706008030010040000807000427900015,854291637713658492962374581185429376376185924249736158638512749591847263427963815
100070008060200740408001930000300875006042010300050006019800600580017004020935000,132479568965283741478561932241396875856742319397158426719824653583617294624935187
007602450090300008608000021340210000010097032000008060764800900021004000900075000,137682459492351678658749321345216897816497532279538164764823915521964783983175246
650804002008005490300010007000000000009402070260078504401000008500340900002601300,657894132128735496394216857745163289819452673263978514431529768586347921972681345
000630270609007000000005830004206700097040000000019402500300001320908560046000380,485631279639827145712495836154286793297543618863719452578364921321978564946152387
902080006007300004810050900400010070050006310096800502000190007600032000209504800,932481756567329184814657923423915678758246319196873542345198267681732495279564831
000040075006093100030700009900670001008002054005804703260001000007500080084000002,892146375756293148431758269943675821178932654625814793269481537317529486584367912
070003859090010060284060700060000300100000042458000001000004000300709105700256008,671423859593817264284965713962541387137698542458372691825134976346789125719256438
840520000560003000200010087050034720120870039006100000089200006030047005700000940,847529163561783294293416587958634721124875639376192458489251376632947815715368942
900010760001003090782005430040500002005130800890070106000004527608007000400920000,934218765561743298782695431146589372275136849893472156319864527628357914457921683
002000480503201000090063020005040208080000041000930567104802750000007030860000900,612579483543281679798463125375146298986725341421938567134892756259617834867354912
503006008010000020000184037020005690890010400004700000901200000600090753740608010,573926148418573926269184537327845691896312475154769382931257864682491753745638219
087160290620008100005030000900004005003520010002000786000897000409053007000601030,387165294624978153195432678961784325873526419542319786236897541419253867758641932
006720000000900703290540100700008030503290061002104500470060012600305079000000000,386721945154986723297543186719658234543297861862134597475869312628315479931472658
900402058012800370403005600040289061009000002000604005607000200000000010800703490,976432158512896374483175629345289761169357842728614935697541283234968517851723496
200003004054009071800200600000000000005497060080160705070020000630010092010056830,261573984354689271897241653746835129125497368983162745579328416638714592412956837
020750400300080009085604000900020004200000937600140800001400600007010002000836050,129753486346281579785694213958327164214568937673149825531472698867915342492836751
400805009072004310006710802100078290000030000058600004014000000060109050300040970,431825769872964315596713842143578296629431587758692134914357628267189453385246971
070006205086002901504800000000014739000900000400500608067020010003007500810609002,179346285386752941524891367658214739732968154491573628967425813243187596815639472
083054007002009004100000680000070120200063095504908060607000002009000301030580000,983654217762819534145237689396475128278163495514928763657391842829746351431582976
100087030040010608009250000200000947091000000608003250305604000702001090000070015,126487539547319628839256174253168947491725863678943251315694782782531496964872315
230070015006501020000040800609050201800902706103700900740820090000000040085036000,238679415496581327517243869679354281854912736123768954741825693362197548985436172
007000081903040520061890000040600000608002070090031200010200650000009030524760800,457326981983147526261895743142678395638952174795431268319284657876519432524763819
014826003900013060008450700001060095070048002006500400802000100060300040350170000,714826953925713864638459721481267395573948612296531478842695137167382549359174286
700201900900083010000000063249010050038409070000050200300564800070000106820037040,763241985954683712182975463249716358538429671617358294391564827475892136826137549
006002000020090308054170090070526410009000860000810023708004001500007000030900506,986432157127695348354178692873526419219743865645819723768254931591367284432981576
409031000000408900003006720536007000020580060100002400080700005000090208650000130,479231586265478913813956724536147892724589361198362457982713645341695278657824139
008000157050300096000000008730152400804007030920040000469200005001096800000710000,348629157157384296692571348736152489814967532925843671469238715571496823283715964
000406020796008000003079050870093000000000106500010090050002480409300700010750230,185436927796528314243179658871693542932845176564217893357962481429381765618754239
950800370410057006000060020080203007009500400030090105090002000108070640300601050,956824371412357896873169524581243967769518432234796185695432718128975643347681259
007803190040029035060010070800030027000581003900004000053000042704050000290000806,527863194148729635369415278815936427472581963936274581653198742784652319291347856
000390540030010000917000200820009006500000004009065310000106037074000620350024090,682397541435612879917548263821439756563271984749865312298156437174983625356724198
800200045002003000056800009400610090100005007307004081070000028010460073290100000,831296745942753816756841239485617392129385467367924581674539128518462973293178654
410800006092500700007090130700100905300602008140008000960080040000000850005304020,413827596692531784587496132728143965359672418146958273961285347234769851875314629
003072080005080012600100900300065704900300025008900600700200003816004000004096050,193472586475689312682153947321865794967341825548927631759218463816534279234796158
032000970840000056000270031700300890065000003900004020026001000500802004090703010,132645978847139256659278431714326895265987143983514627326451789571892364498763512
000004000108560000046072090065301200210080503000900067090000371570003008802400000,957834612128569734346172895765341289219786543483925167694258371571693428832417956
890070020400106000000203870000009007658000300030040215004820501920501060000060030,893475126472186953516293874241359687658712349739648215364827591927531468185964732
900800143380000002000190060000005094070004680102900000057300810006027000000680700,965872143381456972724193568638715294579234681142968357257349816816527439493681725
000057300400300000023000187060401500008902470007080096912006050000800040600035700,896157324471328965523694187269471538358962471147583296912746853735819642684235719
040801703009270000003009060020900850380405002700000100200780009150000620060050048,542861793619273485873549261421937856386415972795628134234786519158394627967152348
090010000038970650007803001080041030000000005006007024942080000003050709050400006,694215378138974652527863491285641937479328165316597824942786513863152749751439286
436700050109205004008610700000100030007080210000050947080001060095023000000040829,436798152179235684528614793942167538357489216861352947284971365695823471713546829
090300260008400309700010050020060008465080000003700510059006047000204005006107030,594378261618425379732619854127563498465981723983742516259836147371294685846157932
019200308508070020300109006070600950601002080040008003400306200000000701002950064,719265348568473129324189576873641952691532487245798613487316295956824731132957864
000500108105002040009061300060900800030024007500380000000017605400290081070600029,623549178185732946749861352264975813938124567517386294892417635456293781371658429
007463010090280400503070000360057040000900580080014006001000062002030009600090170,827463915196285437543179628369857241714926583285314796951748362472631859638592174
004010003070800260000290000506001920000056010480300700960570040058004009107002030,824617593379845261615293487536781924792456318481329756963578142258134679147962835
050000130406000070320708006004006309080300002000459000610570800002603910500200400,857962134496135278321748596174826359985317642263459781619574823742683915538291467
410050780000000400009004263050306800030805091006007000083021000941000050000030078,412653789368972415579184263154396827237845691896217534783521946941768352625439178
010430092603920000004005160000002006095307004400510000106078030080000000207003501,518436792673921845924785163731842956895367214462519378156278439389154627247693581
490000520000400000130760980200047310000600800073085060750010000062090031010208009,497831526628459173135762984286947315541623897973185462759316248862594731314278659
060900000020010008403072001000409005010230000897060300005008079200005460006140052,168954237729316548453872691632489715514237986897561324345628179281795463976143852
000500100360708040400020009007000094100306028530092000006030001081004002240060057,872549163369718245415623879627185394194376528538492716956237481781954632243861957
000080670000904103071050800020000000683700240054068009000000530096107020800420001,945381672268974153371652894129543786683719245754268319412896537596137428837425961
610430002008260047000009030000370209409100800020000053080001560062040000007098001,615437982398265147274819635856374219439152876721986453983721564162543798547698321
000720008000049230021650000037008005500136079100000640070005010305000907908010400,493721568756849231821653794637498125542136879189572643274985316315264987968317452
000020040200019080013040076320000510600005000075980000007050023090003461004600800,758326149246719385913548276329467518681235794475981632867154923592873461134692857
130400200000100004080090060700040026061570009000006507405710080820050090007809030,139465278276138954584297163758941326361572849942386517495713682823654791617829435
300700040510803600020010903400075002006300009109006350700000004005100000902648010,398762541514893627627514983483975162256381479179426358761259834845137296932648715
504087106000006030027053000090401007250000000000000690403090080100060200970508004,534987126819246735627153948396421857258679413741835692463792581185364279972518364
200700930000208704019005600051900063904100000300040008073004200080600071105002000,248761935536298714719435682851927463964183527327546198673814259482659371195372846
170005024640900005000000806900500200060090130032071040053206900480000600090087000,179865324648923715325714896914538267567492138832671549753246981481359672296187453
