100893024600004500000700010000089000026040001900600407790000105005301082008050043,157893624639214578842765319574189236326547891981632457793428165465371982218956743
021600090003080000857001004000905820000014053006030400015803006000026700708040100,421657398693482571857391264134965827982714653576238419215873946349126785768549132
000490002080003604920007000039210075007050800016000030400000916008904320600072040,365491782781523694924687153839216475247359861516748239472835916158964327693172548
006000000004068013230705009301507000780001206000089700000100024100000690005943080,516394872974268513238715469361527948789431256452689731897156324143872695625943187
053047100000900208809000004024030007070604000508100603910700002000006350005089060,253847196147965238869321574624538917371694825598172643916753482782416359435289761
509010007070328005010000064200790000734200010005006080001009038020003050850040900,589614327476328195312957864268791543734285619195436782641579238927863451853142976
100700000005340000020006000092030500406092013000804007600000180053001960208059074,184725639965348721327916458892137546476592813531864297649273185753481962218659374
004700000000032100056009020070200009802150403400090068200000950540018000031600700,324761895789532146156849327673284519892156473415397268268473951547918632931625784
700063085100400930805000104508000300390582006014000002000040690000026048000971000,749163285162458937835297164528614379397582416614739852273845691951326748486971523
002870039009000704350000006000004281500609000200100000690032540800000007030418060,462875139189263754357941826976354281518629473243187695691732548824596317735418962
830010060605400009000307050090000205008090137002538040000600001049150008007024000,834915762675482319921367854396741285458296137712538946583679421249153678167824593
300001098800500200020067003041006970095200080000000006503702010080010004074030560,357421698816593247429867153241386975695274381738159426563742819982615734174938562
005801064301206700000030001000500019007180200000063008206970050138000040079004000,725891364381246795694735821863527419457189236912463578246978153138652947579314682
020300000500007910000640078800901004406050300090060500600090045307008060140070002,728319456564287913931645278875931624416852397293764581682193745357428169149576832
502000810060003005090020370040007930009604000275000000000041080780500004100390620,532476819867913245491825376648257931319684752275139468926741583783562194154398627
400530820070020036090604100062000080000093000380700501500000307049006208000071050,416537829875129436293684175962415783157893642384762591521948367749356218638271954
060918000705000040301004620000420007200000130038007050607580000150602009000300400,462918573785236941391754628516423897274895136938167254647589312153642789829371465
400000001057000009806530000090304008103080200270051040031008060900000854000690020,429867531357412689816539472695324718143786295278951346531248967962173854784695123
200000754000090100650007030592008000070609302460000008900070000038204005700080261,219836754387495126654127839592348617871659342463712598926571483138264975745983261
305060800069408050010070300084250010006007035007001902400019600203500047000300000,345162879769438251812975364984253716126897435537641982458719623293586147671324598
500004900060201035007000020945070080008030402703010000080003640471806300000900000,532784961864291735197365824945672183618539472723418596289153647471826359356947218
000010708609280050480009360903060020007094605040700010305000009000107040000025801,532416798679283154481579362953861427127394685846752913315648279298137546764925831
007504008910000030080631009000140005509020170040000820076850000400073090002006500,637594218915782436284631759823147965569328174741965823176859342458273691392416587
900020000004036180020008000500007460001060230400500009109040507030800040600205310,918724653754936182326158794592387461871469235463512879189643527235871946647295318
508200100730010000000053094004001003120800050903600400000027540380005076000906002,548269137739418265216753894864591723127834659953672481691327548382145976475986312
007928030040067100000100508030000024080796050601003000008052907000001260304000010,517928436843567192296134578739815624482796351651243789168352947975481263324679815
064100850000060200710090003400000980208507006031920000900400500006000310045003607,364172859589364271712895463457631982298547136631928745973416528826759314145283697
007036009000001050028005406670009240009080370050003600982007010401500800000400003,547236189396841752128975436673159248219684375854723691982367514431592867765418923
040000108057009320930062000825030700000000064001590000203780900000000003006450081,642375198157849326938162457825634719379218564461597832213786945584921673796453281
056002000081009703300408095268000000700030048000100962070064039000500000040090801,956372184481659723327418695268945317719236548534187962175864239893521476642793851
009230804680070500401000039830150000000006270005900008070600140040005900302810600,759231864683479521421568739837152496914386275265947318578693142146725983392814657
800290000093050067200004050045031000100607009709000003308060401060800725024000080,857296134493158267216374958645931872132687549789425613378562491961843725524719386
002090375000000046650031200001000802943080000070059000007200064006508901310004000,182496375739825146654731289561347892943182657278659413897213564426578931315964728
038000964007600280010004003000009076103560090900710800020030000064087500850400010,538271964497653281612894753285349176173568492946712835721935648364187529859426317
700100045010462003080900000050731006000000328640000050001520780009004001872000060,726183945915462873384957612258731496197645328643298157431526789569874231872319564
071002009320008600009007053400000000000906708050830100830749010005000020960100034,571362489324598671689417253498271365213956748756834192832749516145683927967125834
080006351000908004254070080879000000502107030031200006000860100040000905306004027,987426351613958274254371689879643512562197438431285796725869143148732965396514827
017000003090006040000052800600003500084075090000900021305020910060080704800307060,217849653598736142436152879629413587184275396753968421375624918962581734841397265
004610000009008024200590170006000039700800206041030008100005007080100590003920040,374612985519378624268594173826751439735849216941236758192485367487163592653927841
000006130105700009347000002000003000009870065608900704026005008700408010400260093,892546137165732849347189652574623981219874365638951724926315478753498216481267593
000000100904600050870902000060357090001020500400000308023509016040008200006001070,632475189914683752875912643268357491391824567457196328723549816149768235586231974
000010040017003600004800027030008419000730500605200700900180006200000050170950380,529617843817423695364895127732568419481739562695241738953184276248376951176952384
004800293000590001006104000060029030501000006070001480005060020709003508030480700,154876293387592641296134857468729135521348976973651482815967324749213568632485719
041080060520000009003765000008012006037954200010000400200000001005896320000500807,741289563526143789893765142458312976637954218912678435289437651175896324364521897
070000010090300805100592070200005100406000380780600059513240090004807006000000400,375468912692371845148592673239785164456129387781634259513246798924817536867953421
100600093076908000002040800400500012600003000098020076000060100005230089000109254,184652793376918425952347861437586912621793548598421376249865137715234689863179254
091052708000140000020007036308090600040008002060400900070013009902000500405600007,691352748783146295524987136358291674149768352267435981876513429912874563435629817
040610300030007690980023040000054008007000001650280700000900003100075020005108004,742619385531847692986523147319754268827396451654281739478962513193475826265138974
802060715000907400060000020006070503200003000005491800031040090700580100040039200,892364715153927486467815329916278543284653971375491862531742698729586134648139257
004080500582067000300200001200030060009000730007694005000401680170000490603029000,714983526582167349396245871251738964469512738837694215925471683178356492643829157
004300800701602503609000047300250004000980025000030160040005670508107000102000900,254379816781642593639518247396251784417986325825734169943825671568197432172463958
000097002000040380048010600790500000010600874002003005009030100503100429460000008,136897542957246381248315697794581263315629874682473915829734156573168429461952738
000000710203050800100267009307000080056734001010905000040800230925000060008001097,569348712273159846184267359397612584856734921412985673741896235925473168638521497
000000450201503070094082006000607000300020800907000014405079200602105009010000380,873916452261543978594782136148697523356421897927358614435879261682135749719264385
900170060000309401307000002600000040020053000005042708001064500479008300806007090,942175863568329471317486952683791245724853619195642738231964587479518326856237194
058002010093085000000914080000260001071050690060090050200047060000000409610000378,458372916193685247726914583945268731871453692362791854239847165587136429614529378
317062000005000062000901040400000800800090620270036054039540000000080005080003710,317462598945378162628951347496215873853794621271836954139547286762189435584623719
681000000200800703000000150010094807300057402970300000800069000050200340049010000,681735924295841763437926158512694837368157492974382615823469571156278349749513286
005083970020005006700490001009028060410000000008970053600040020030050607002301089,145683972923715846786492531359128764417536298268974153691847325834259617572361489
150029047000100000703000028810206000460005030900007500006000001000400709209680400,158329647624178395793564128815236974467915832932847516546793281381452769279681453
700900103600005002004001800200003780030008209109000006370800901040600005500072040,728946153613785492954231867265193784437568219189427536376854921842619375591372648
010098030008060940000004065400809000560032000003000127080976004000000306170450280,614598732258367941739124865427819653561732498893645127382976514945281376176453289
950000600000302001006400380070820090004053000200914030708000500500007049060031002,953178624847362951126495387371826495694753218285914736718249563532687149469531872
003680970508004100290100800020005700041070030600013004000720608105900400000006009,413682975578394162296157843329465781841279536657813294934721658165938427782546319
005090000010004060700308920000960007003720580600000139030010804054807000009042700,325196478918274365746358921581963247493721586672485139237619854154837692869542713
007100000006003780040000359000702100000490605692050000001030042500600807379800010,937185264256943781148276359485762193713498625692351478861537942524619837379824516
300001000570200090040708206900503002020010803000607100480060007700040005001309004,362491578578236491149758236914583762627914853835627149483165927796842315251379684
018000040700080203000950068900500700020040005006728000000230019001006004043100670,518362947769481253432957168984513726127649385356728491675234819291876534843195672
080590100300080007006132050540200730020706908800000000000869020032000600010005470,284597163351684297796132854549218736123756948867943512475869321932471685618325479
692800003040069180000000070080300005507004060000901020800000034906003050005120007,692817543743569182158432976289376415517284369364951728871695234926743851435128697
000030608809450000050270003080691040205003010900000007003800500704000062060920100,472139658839456721651278493387691245245783916916542387123864579794315862568927134
400069800803002097006530001270000005001080060004250300960100740020000500108070002,412769853853412697796538421279346185531987264684251379965123748327894516148675932
037000000000046050042900860008012000050030608000600941100050430204800007370090200,637528194819346752542971863968412375451739628723685941186257439294863517375194286
052004086090076000400000305105490002000050008900031700300100029206007010000080460,752314986893576241461829375175498632634752198928631754347165829286947513519283467
028040700003091205900800006001007042534060900000510000700053020040080100006000078,628345791473691285915872436861937542534268917297514863789153624342786159156429378
000006700407820050950000240201004000000730010390050870000200300560108004810490060,128546793437829156956317248271984635685732419394651872749265381563178924812493567
103080000008507310070032009300060950905000140002400000800023700400010560000704820,143986275298547316576132489384261957965378142712495638851623794427819563639754821
070000004400603005001709680000080370900150026060000401002005140807004090530070008,276518934489623715351749682125486379943157826768392451692835147817264593534971268
000604010035000000200030970800063090091080003050002047009048020360910450078500000,987654312135279684246831975824763591791485263653192847519348726362917458478526139
706004002420018739090002004009020605000091340087050000001060028008000506050007010,716934852425618739893572164149723685562891347387456291971365428238149576654287913
069000000510200040003010502001020000050030078407600901000807300030190487002006095,269574813518263749743918562381729654956431278427685931194857326635192487872346195
904006078800903050000200104007000080100000205298004006603870000700100409510030000,924516378871943652365287194457621983136798245298354716643879521782165439519432867
200000500430000796600809201521008400007690000390042000004780105050000670000106030,219467583438215796675839241521378469847691352396542817964783125153924678782156934
700004000069010030050900018400007651002050400810000009040360097030071020000805006,781534962269718534354926718493287651672159483815643279548362197936471825127895346
700009500016700094350400006000062080001050000062090431040580060090000003008001702,724639518816725394359418276473162985981354627562897431247583169195276843638941752
300004008015070200008950013001302000700540009400690830000200500076000190020008064,367124958915873246248956713691382475783541629452697831134269587876435192529718364
000508190014006003659070000000800000360095407200003600030050010040709800076100032,723548196814926573659371248495867321361295487287413659938652714142739865576184932
500030040004010079670002080006000001080309004702008960307400690000500000010206508,591837246824615379673942185936724851185369724742158963357481692268593417419276538
701000000000004076030008021000000080014093500503000700040087010060002350002351608,781269435259134876436578921697425183814793562523816794345687219168942357972351648
840000970002000300000932500700345860080100000095607020007006003400700091200008650,843561972952874316176932548721345869684129735395687124517296483468753291239418657
016034900400000003020185070062000087083090240507001000004506038000200561000000009,816734952475962813329185674962453187183697245547821396294516738738249561651378429
650013800028000300010700504001076008060190703430250090000009040582060000000500201,654913872728645319319782564291376458865194723437258196173829645582461937946537281
008002070010069200600070540700843902290000060005000417340007005009050000002001380,958432671417569238623178549761843952294715863835926417346287195189354726572691384
600000500900604003107980060030210980008040000510000007090426005005001020806007034,643172598982654713157983462734215986268749351519368247391426875475831629826597134
020400000870050136901080400040760905000024070063000080005078042002600001130900000,326417859874259136951386427248763915519824673763591284695178342482635791137942568
401090306000004580930000000864000105005060247007009003702056000000183000000002401,451798326276314589938625714864237195395861247127549863712456938549183672683972451
000003096043600000706045002000000048600190050027080130800350700209070803000002910,582713496943628571716945382195237648638194257427586139861359724259471863374862915
001000800450009030000507020030065004890010200006002070720930601300006400508000092,971623845452189736683547129237865914895714263146392578724938651319256487568471392
700080000800050926092041000003920405040000860001005072069000280530800601400700003,756289134814357926392641758673928415245173869981465372169534287537892641428716593
000006050042090080680470003000380065001002004430700900300000601105039007970608000,713826459542193786689475213297384165851962374436751928328547691165239847974618532
