050100240008000001009402063972001600000208109000075004200003008003700500140096700,356189247428637951719452863972341685534268179681975324267513498893724516145896732
000002780108905000005040021060800002093000460010007503050000300940023017300794000,439612785128975634675348921564839172793251468812467593257186349946523817381794256
907004003160700000000800609520409080003060000700030245089210507300005068010000020,957624813168793452234851679521479386843562791796138245489216537372945168615387924
049860070235040000000100903700000020000930106500084000300000509016052004807001630,149863275235749861678125943793516428482937156561284397324678519916352784857491632
500008700019000036060021000052403000008000093096000105000730980000604020475200000,534968712219547836867321459152493678748156293396872145621735984983614527475289361
000010600040582100087900003001295400659004000030700800004170060000000305260008901,925317684346582197187946523871295436659834712432761859594173268718629345263458971
008403021070900045004600000600034010000100200200578904007005000450092003190700800,968453721372981645514627389689234517745169238231578964827315496456892173193746852
080600014015080960000500003300076090240000605007000008009002047100305820060417000,783629514415783962926541783358276491241938675697154238539862147174395826862417359
091050003008009520700006008920807104500062030003040007300500006147000900600784000,291458673468379521735216498926837154574162839813945267382591746147623985659784312
000004207710080000030060009006010030304900102008500790000028360201430508040007000,685394217719285643432761859976812435354976182128543796597128364261439578843657921
207800030056070900080000024000209600160040050020503009400380100000050367090100040,247891536356472981981635724534219678169748253728563419475386192812954367693127845
030170000005098324600000080100000030000006002523080910490000700000200001801735040,238174695715698324649523187176952438984316572523487916492861753357249861861735249
003970080410230700900005600006100075300020000502004390080000506004709108000400020,653971482418236759927845613846193275391527864572684391789312546264759138135468927
600080103002079000000104070051000400087400206000020085005310028006502047309700500,674285193132679854598134672251867439987453216463921785745316928816592347329748561
000400000050070082200000413600030097800002306045900000780510009030089650060240078,913428765456371982278695413621834597897152346345967821784516239132789654569243178
040007009008000463000050100800100900060092035057030020003200086004013700205806000,146387259578921463329654178832165947461792835957438621713249586684513792295876314
090200008003047000040095601007386500000000040839000002001050320000601007278009050,195263478683147295742895631427386519516972843839514762961758324354621987278439156
632000000001008560500407200017650082009000300480030007900080410065200700000019003,632195874741328569598467231317654982259871346486932157923786415165243798874519623
700000031002160004048900700070040810000008009506000200004030070200005693090712050,765824931932167584148953726379246815421578369586391247854639172217485693693712458
050170000004008030900002805070590023020800410091060000000023076030000941605700002,853176294264958137917342865478591623526837419391264758189423576732685941645719382
200060300007001900084005000700094005043870000910600200605300082000089160031400007,259768341367241958184935726726194835543872619918653274695317482472589163831426597
200130000805007090091586403000600500400000807000713000080900075060000004309004012,246139758835427196791586423927648531413295867658713249184962375562371984379854612
008105029000000708391700000500270001439080600000060480070932050000006040612000800,768145329245693718391728564586274931439581672127369485874932156953816247612457893
049607000320809006001050800056003091000002503080070020002000050100300940007048360,849637215325819476671254839256483791714962583983571624432796158168325947597148362
304000016001002587050090000700905402012000090600008030030100000209506048048070003,324857916961342587857691324783915462412763895695428731536184279279536148148279653
005803010090400702070000050004900006309160080000020501068010203950700000001200060,245873619896451732173692854514987326329165487687324591468519273952736148731248965
056000092007621000400000800501408030002000407300970006000200103830706905000049000,156834792987621354423597861571468239692153487348972516769285143834716925215349678
000067903400500126302010080000090600907001500530702800020870050001403000000000497,185267943479538126362914785218395674947681532536742819624879351791453268853126497
000000004650071002809305000200060130007059040080710900560098000700000000013420806,371682594654971382829345761295864137137259648486713925562198473748536219913427856
057004008400360002000108900006009540013070060080005027045700003200083000609200700,157924638498367152362158974726839541513472869984615327845796213271583496639241785
950030214004700006020009870500104903010000000802597600765002000300000000000056480,957638214184725396623419875576184923419263758832597641765842139348971562291356487
020085609000700200680003010400000793000170085009300060830000000706004050100096040,321485679945761238687923514418652793263179485579348162834517926796234851152896347
007903000030100027068540000043210098000006100005090003879300600000402010400080305,517923486934168527268547931643215798792836154185794263879351642356472819421689375
200000300015070080864053009000430006040000023108007095900010000020608140070005060,297846351315972684864153279752439816649581723138267495986714532523698147471325968
500803604000200000980014503102000070040706000003920006006005002000390408078060910,521873694634259187987614523162548379849736251753921846496185732215397468378462915
008002010500600900030040027816009300000200090000053408700900005000706100924530800,678392514542617983139845627816479352453268791297153468761984235385726149924531876
090200010004050307080749000006500239005090700000030480300000028700001006241006500,597263814624158397183749652876514239435892761912637485369475128758321946241986573
501900007020010080000603420400008203930006100700500006080341500105070040090200000,541982637623417985879653421456198273938726154712534896287341569165879342394265718
000078502640090080000100006005000009800030067017402030080056013200049050030201900,193678542642593781758124396365817429824935167917462835489756213271349658536281974
640000302090002050008070040860004090010500700003219008030097400029060183004001006,647958312391642857258173649865734291912586734473219568136897425729465183584321976
420080030000497008010000705000049270032150690600300000004036509800700060105020080,427581936356497128918263745581649273732158694649372851274836519893715462165924387
004200075050086003001900824000060009020001340409720100002030060013000708080159000,894213675257486913361975824175364289628591347439728156942837561513642798786159432
060000009405087030297004015684010050000008901000650002300700028000042670001030000,863521749415987236297364815684219357532478961179653482346795128958142673721836594
900280435000001007200403006503079002000300000879000100020540000008100060304096080,961287435435961827287453916513879642642315798879624153126548379798132564354796281
420970030007000105500308000008004760136009082000000901800560020290083610000007000,421975836387642195569318274958124763136759482742836951874561329295483617613297548
950000826060075000108000030032007000580040001600090400004020317010080062020309540,957431826263875194148962735432157689589643271671298453894526317315784962726319548
604070803032090010501002600275000006400000090000510780800400007900608230000039050,694175823732896514581342679275983146418267395369514782853421967947658231126739458
006000470200300000090520001804010006009004050320680900605009103010000087040800520,536198472271346895498527361854912736169734258327685914685279143912453687743861529
500030800018007040020006100000800209600540000703092015009008034061000570000460020,576134892918257346324986157145873269692541783783692415259718634461329578837465921
020008074500603109089000500041000020360092007000704061000037000800500006295040000,123958674574623189689471532741365928368192457952784361416237895837519246295846713
000900080047001600960020053006048030030200700512076000470030805009010000600495200,125963487347581629968724153796148532834259716512376948471632895259817364683495271
020008050097300010005970083040000009000086300003702601409050002650000700200613004,324168957897325416165974283746531829912486375583792641439857162651249738278613594
830060070679001048020009350387200400000095060000300800000004109968073000001050000,835462971679531248124789356387216495412895763596347812753624189968173524241958637
006080940090603000015007002000840310003000070902001086200700038001006405600950100,726185943498623751315497862567842319183569274942371586259714638871236495634958127
360050100075000090008400003000061250900007001030802046102000607000015008084703000,369258174475136892218479563847361259926547381531892746152984637793615428684723915
270000106008700020340802905000168004050034600000009010090040000001905030730000240,279453186518796423346812975923168754157234698684579312892347561461925837735681249
000200084300700602010008009007890000438000010650034007091062000800005090005001703,976253184384719652512648379127896435438527916659134827791362548863475291245981763
000001406002750000189600000350000260608000300040009007006930005700580031000047080,573891426462753198189624573357418269698275314241369857816932745724586931935147682
800070000605041030070902006157030000000084009004500020010306500090005862000000071,849673215625841937371952486157239648236184759984567123718326594493715862562498371
000073840056090030000201067007002500090500016004980200049068701000040020183005000,921673845756894132438251967367412589892537416514986273249368751675149328183725694
020604000700050910085003070013000420600007130007400608900500080340019002060002700,129674853736258914485193276813965427694827135257431698972546381348719562561382749
000060700063204085972800000000000301730006000250010098819003040000500000046790120,485169732163274985972835416698452371731986254254317698819623547327541869546798123
000030000960028340230165800020000085050074000100000290340906020081000007000300016,718439652965728341234165879423691785859274163176853294347916528681542937592387416
621000009008009514500087000200500030700906100009078040030601020010040076005030800,621453789378269514594187263286514937743926158159378642837691425912845376465732891
002109008690803014000004370000041800500380000900026047070600091061000080340000502,432179658697853214158264379726941835514387926983526147875632491261495783349718562
009004205016030900450060100800900706020071080000005020002010093030008010065002004,379184265216537948458269137841923756523671489697845321782416593934758612165392874
310080209900600715670000040060050038000702100540390000009030487200415006030000000,314587269928643715675921843762154938893762154541398672159236487287415396436879521
002046970390052001007008630485100000630800500000090040150003009008060020000470100,812346975396752481547918632485137296639824517721695843154283769978561324263479158
045370100000021309200000006308204600600510002007008090400000081002869740073000005,945376128786421359231985476358294617694517832127638594469753281512869743873142965
900001860000007305051040000200608037000350400608094020002103008164000700070000092,927531864486927315351846279245618937719352486638794521592173648164289753873465192
701403900000000032900620007236070001850300096000540280600200008000009154085001000,721483965568197432943625817236978541854312796197546283619254378372869154485731629
000065090078040100003900820405036000082000035100000400020009001064370900000052760,241865397978243156653917824495736218782194635136528479327689541564371982819452763
904000000501902830000057201850700106000008050032016000400035960090000000600100347,924381675571962834368457291859743126146298753732516489417835962293674518685129347
900400000508016020763208000406809005810000790007000003000032100050700830002000400,921457368548316927763298541436879215815623794297145683684532179159764832372981456
000005000129000030304201076005680020400702609700300048201007500080100904090008002,876435291129876435354291876915684327438712659762359148241967583587123964693548712
060309847400150090230070600196000200004003508000400000000007100308500006005260470,561329847487156392239874651196785234724693518853412769642937185378541926915268473
450007080006003921002060000030041700608000205020000390000300800904576000700092406,451927683876453921392168547539241768648739215127685394265314879984576132713892456
080054076000320010204900038540001802398006057000000600060010900150072004000580000,983154276675328419214967538546731892398246157721895643867413925159672384432589761
390045600108900247002080000004007902020010050070620081600800030739100000000000504,397245618158963247462781395814537962926418753573629481645872139739154826281396574
000000290781900060040630001007080340000200005093070620050060700316040080904100000,635814297781952463249637851127586349468293175593471628852369714316745982974128536
023600005400092800001430070000000100000507049007910658790080030800004006500060201,923678415475192863681435972359846127168527349247913658796281534812354796534769281
000034050500000008400700091012008600600300800070409002704020100050000063091056047,189234756537691428426785391912578634645312879873469512764923185258147963391856247
027100030004080290000036500940700850002005703060823000259000046000410080010609000,527194638634587291891236574943761852182945763765823419259378146376412985418659327
805000004730012000096008200040053900970400068000600301000260007300109020050074006,825936714734512689196748253641853972973421568582697341419265837367189425258374196
179060000000590400003082007005001020740350100630020700200900008090004016500630090,179463852826597431453182967985741623742356189631829745264915378398274516517638294
020609013300840050070000209900008004008031006050060090005084700430100002201000060,524679813319842657876315249963528174748931526152467398695284731437156982281793465
000400507003000020802600400380905000607300001004010068900002030075800004400156200,169423587743598126852671493381965742627384951594217368916742835275839614438156279
700005000208700093004200060000006020600359000030107085056010430807090016020004900,713965842268741593594238761175486329682359174439127685956812437847593216321674958
045002980908004300120070060831900006000001504250730008306400000090050070000003201,645312987978564312123879465831945726769281534254736198316427859492158673587693241
001950076030000801007306002600009000085040030092500040040200007003005920010064500,421958376936427851857316492674839215185642739392571648548293167763185924219764583
008040319000600500000071026090063052060100040241008000305004700700210090004700000,678542319132689574459371826897463152563127948241958637325894761786215493914736285
304000200062000805700190000001700089020005730900046010630007100010280300005030047,394568271162374895758192463541723689826915734973846512639457128417289356285631947
000005809076020500094308620000006000450091002020050710300960007700800043001000280,213645879876129534594378621137286495458791362629453718382964157765812943941537286
503107409000058200807009030060000902090745061000000058974080100300010000086200004,523167489649358217817429635765831942298745361431692758974586123352914876186273594
800102000090700103430006070502800030000004060080090500075020900600500002300461800,857132694296745183431986275562817439913254768784693521175328946648579312329461857
090000063100027000000010057760150300400980000030070814040005021800400500023060908,297548163156327489384619257768154392412983675935276814649835721871492536523761948
000198070060024001500370400090000260005000800020031504009000030346900002712650008,234198675967524381581376429193845267475269813628731594859412736346987152712653948
450907000016000070207030006100400960089000003040002500060300015000054328002108000,458967132316245879297831456125483967789516243643792581864329715971654328532178694
100000062706000000089004530000800405010023600507010008300600974000308200405079000,143985762756132849289764531632897415814523697597416328328651974971348256465279183
005204003000060400093080001020100540809530102010090080200003907050600000708040060,685214793172369458493785621326178549849536172517492386264853917951627834738941265
