700020901068000200000504008906700054002060800870430009000950400013806000095001007,754628931168397245329514768936782154542169873871435629287953416413876592695241387
100004008000600209054907030600000800820301090031400502709000300000750000080002604,196234758378615249254987136647529813825361497931478562719846325462753981583192674
008700645400019703032000100000630080805200010060085000103400907500167200004000000,918723645456819723732546198247631589895274316361985472123458967589167234674392851
005078100000900407008010095000040000000029610123007900060200004081004200049380750,935478126612935487478612395896143572754829613123567948567291834381754269249386751
000009104010587060237061080752000003046702009300854000008010056000000200169000030,685329174914587362237461985752196843846732519391854627428913756573648291169275438
030070050007809043058601092170002004000005031006040080080307000010090000025000670,931274856267859143458631792173982564842765931596143287689327415714596328325418679
009021000000740302070300014030050480090003061100980500007005840802600703060090000,349521678681749352275368914736152489598473261124986537917235846852614793463897125
050070860320000000007149003035000107402600900001835020978003000000000604000051070,154372869329586741867149253635294187482617935791835426978463512513728694246951378
700400002319000046600030070008250001020004050103090000504980060000071000200006809,785469312319728546642135978468253791927814653153697284534982167896371425271546839
702000040564000830090010006073000090000002158800906200100400500639705002020009000,712638945564297831398514726273851694946372158851946273187423569639785412425169387
150000003070018620308500090641070000000006480097002000004050160020900300903047200,152769843479318625368524791641875932235196487897432516784253169526981374913647258
000790260170000300009025040000480020905030600324001000001970005400000180803604090,548793261172846359639125847716489523985237614324561978261978435497352186853614792
170800006054060009000000132029001050007409600408056017860030200093000470000020005,172893546354162789986547132629371854517489623438256917865734291293615478741928365
010500030600004200472090800060001000080730950250008001000302570097060000001800340,918527634635184297472693815769251483184736952253948761846312579397465128521879346
840067010001008500060200300084030200005490001009002070702600090090003620130005080,843567912921348567567219348684731259275496831319852476752684193498173625136925784
900578000002300009001000863000089375070103000600004020005010900010006047040200630,936578214482361759751942863124689375578123496693754128365417982219836547847295631
450690081070080900100002640006500000000008207317409000080930050000000830005010002,452693781673184925198752643826571394549368217317429568284937156761245839935816472
070520000000007050108090400800002006560400201043700080020048590910006074000000060,679524318432817659158693427891352746567489231243761985726148593915236874384975162
096070150800000200005630070900700406004800002000050930300504008240000000067902001,496278153873145269125639874951723486734896512682451937319564728248317695567982341
600008000072010038100570090020700400900003070340056020560902000080367100003100240,659238714472619538138574692825791463916423875347856921561942387284367159793185246
000635400970800000603090120005000307040080090002703064006002001520014080701000500,218635479974821653653497128865249317347186295192753864486572931529314786731968542
004603085100000203096000000000078090057109004200030608030981700640500000000000102,724613985185794263396852417463278591857169324219435678532981746641527839978346152
070300090109060003003010048005007600048026001200800570307089000500630020020400060,472358196189764253653912748935147682748526931216893574367289415594631827821475369
005003690200890405040207010060500800000004039107080000080000203902700104403605007,875413692231896475649257318364579821528164739197382546786941253952738164413625987
081600237000200580000030900009820470503004020400500603016470800004050010002009006,981645237637291584245738961169823475573964128428517693316472859894356712752189346
000426008061370540308009020000000692030905000700061400050000017004082305100700900,597426138261378549348519726415837692632945871789261453853694217974182365126753984
000205790008341500260000000050008023040700850009034610002090004307000906600100070,431265798978341562265879341756918423143726859829534617582697134317452986694183275
100500060300072009784001000000039002005460010910007086000025000002300850047980300,129543768356872149784691235468139572275468913913257486831725694692314857547986321
500030690003260000080000502007090000010006074090320806009870003700001050246050001,521438697973265148684719532867194325312586974495327816159872463738641259246953781
800060910073000040060205307002000001009007806300859000004090728500310000600002050,845763912273981645961245387782634591459127836316859274134596728527318469698472153
090600820005008003706304900059416000070009001043000590004207000000850062000000380,391675824425198673786324915259416738678539241143782596834267159917853462562941387
300040060087030410004900250700500020600080700059020600000400008042800170031706900,395241867287635419164978253718569324623184795459327681976412538542893176831756942
804002500500480061000070002010000305620100049008905070900004200206050030031090007,874612593592483761163579482719846325625137849348925176957364218286751934431298657
005000060960200407100709000000074052800030004009000310400150000586040970320800600,275483169968215437134769528613974852852631794749528316497156283586342971321897645
030000920004513600681700000000000580097600040200009730049080005006020010850140300,735864921924513678681792453463271589597638142218459736149387265376925814852146397
540020003000000069072308500030079006004500071085064000000900007107250040820010300,549621783318745269672398514231879456964532871785164932453986127197253648826417395
000854006230000009005000080000070060053206100710500400070102604000009013320400007,197854326238617549645923781482371965953246178716598432879132654564789213321465897
300507004826300500040096030070064305000800010002010096900008602005400701781020000,319587264826341579547296138178964325693852417452713896934178652265439781781625943
000943007010005602000100080056000003031076590820004010087020300602010040000650009,268943157914785632375162984756891423431276598829534716587429361692317845143658279
918000040040238000500190670420000007060800012300050000806400000003006520000371900,918567243647238195532194678429613857765849312381752469896425731173986524254371986
002000104495200080170090006900017300000000007080430025600100032009020500000875040,362758194495261783178394256924517368536982417781436925657149832849623571213875649
000437002009000450030506108406072001890010007100804020027005090600020000010008006,581437962769281453234596178456972381892613547173854629327165894648329715915748236
004805000030070000000362940920410805760000210000000300090700020140200630070681050,214895763639174582857362941923416875765938214481527396596743128148259637372681459
001600093000000000070495600408057030010030052020009800002006089600508007047003501,581672493964381725273495618498257136716834952325169874152746389639518247847923561
003510000600008704590260830008000627720009000140030500071000306000840000350000290,483517962612398754597264831938451627725689413146732589871925346269843175354176298
006000305000901084005623009600070900020500000807400016000090708130005000092304500,916847325273951684485623179641278953329516847857439216564192738138765492792384561
063009002004100070500008003000704569000850010710062000109200400080300795040006800,863479152924135678571628943238714569496853217715962384159287436682341795347596821
490108000001000020008065903600300008700040090024710005006507100000630070950200430,493128657561973824278465913619352748735846291824719365346597182182634579957281436
040000020600380170003090800010009650086740309005100004190500000370062000004008207,841657923629384175753291846417839652286745319935126784192573468378462591564918237
000207009076900058403001020000504207820030090900080601109005460030010000705600800,518267349276943158493851726361594287827136594954782631189375462632418975745629813
205007000070001693010840070000000009900204067034000801800010500053070042002390010,265937184478521693319846275726183459981254367534769821897412536153678942642395718
060000003090010802005704009209640087080190060150003020000080576000459000003000400,461928753397516842825734619239645187784192365156873924942381576678459231513267498
380010605007050024090400003070086002061000000900000000102803900809602750040005000,384217695617359824295468173473986512561724389928531467152873946839642751746195238
001082003903001250080059000009030700000064020008000046070090502810700060602840030,751482693943671258286359471469238715137564829528917346374196582815723964692845137
005700900070840005603020000002600709030014500568007200080050120300002408109030007,845763912271849365693521874412685739937214586568397241784956123356172498129438657
080360500100280304005000206200040038010000700047609100790800000008400050060193070,982364517176285394435917286259741638613528749847639125791852463328476951564193872
001090070000003652003240080900020700030600405740350010076900001500014003000800290,281596374497183652653247189965421738138679425742358916876932541529714863314865297
070400800005000710106000302007680200030904006002705009010503900000040031900068450,379412865285396714146857392597681243831924576462735189614573928758249631923168457
410000030003008457008050100500980620002003009070206003000490700200031080946002000,415769238693128457728354196534987621162543879879216543381495762257631984946872315
020700009089010360700590210040000073090600500100047080038254000005160408000003600,421736859589412367763598214846925173397681542152347986638254791275169438914873625
094020350530470001018000000905300702060950008071000004040002907600014200000890600,794128356536479821218635479985341762462957138371286594843562917659714283127893645
080010405006000900510470080073601008000000326020045000400090007030700090001052604,387219465246538971519476283973621548154987326628345719462193857835764192791852634
916040500002801007030020940803604000090300270500010000070908006004052090180000305,916743582452891637738526941823674159691385274547219863275938416364152798189467325
327600090106800400080002360401000650000030007000150049500040820000700000603900010,327614598156893472984572361491287653265439187738156249579341826812765934643928715
000000050630097800480025010020630070009870430000041008901086004000900000063200905,192468753635197842487325619824639571519872436376541298951786324248953167763214985
700102084568030007000600900002790000300008290000004015620001540090000870001045302,739152684568439127214687953152796438347518296986324715623871549495263871871945362
809060030230109005006004087305800200960030400000501700010072000004903001700000526,849765132237189645156324987375846219961237458482591763518672394624953871793418526
020009070740850600056001040071500008090430060008000309000170280200364501000000004,123649875749853612856721943371596428592438167468217359934175286287364591615982734
020574806000010037059000020400003000008050040002800160083005900100460072007009005,321574896864912537759386421416293758978651243532847169683725914195468372247139685
040500009000700612106009003283070004001400800900603071800006320400208090000010050,342561789598734612176829543283175964761492835954683271815946327437258196629317458
000800720010004030072906008000092040008760250005018006586000390940000087100300004,654831729819274635372956418761592843498763251235418976586147392943625187127389564
070042030000090400208601750000308004002010300650200010004060891090087020035100600,579842136361795482248631759917358264482916375653274918724563891196487523835129647
014000635000004000500060708906710004007083090021000006302059000040008219070400080,214897635768534921593261748936712854457683192821945376382159467645378219179426583
409630500001700609003000240000471820520089001070000090000103000602000400930564080,489632517251748639763915248396471825524389761178256394845123976612897453937564182
050120008010607500407000030390006870100530002000900400000209056930000004080054100,659123748813647529427895631392416875174538962568972413741289356935761284286354197
500400610014050309907300002000802700060017980030040050000000005056093400209700000,523479618614258379987361542195832764462517983738946251371624895856193427249785136
310604705062010000080009002030700020000080309047003100100045000020970400075038006,319624785562817943784359612938761524651482379247593168196245837823976451475138296
009051300081240700065700409006980000023570081000003040050000860000002000978000130,749651328381249756265738419516984273423576981897123645152397864634812597978465132
000906470041207009000310800002470300038000005070001060806040200005009680307500090,283956471641287539759314826962475318138692745574831962896143257415729683327568194
700013080080500260043000501000300007068042090405890006020007059900250400016009030,752613984189574263643928571291365847368742195475891326824137659937256418516489732
060400300005080970007006010420000500070013094600590080004732800000008250030009100,961475328245381976387926415429867531578213694613594782154732869796148253832659147
900600745480500300307201060002009001010064089030000070500000004060803100098072050,921638745486597312357241968642789531715364289839125476573916824264853197198472653
007600304050080001190250068000030076002800000080564090003900500270300040069000102,827691354356487921194253768945132876632879415781564293413926587278315649569748132
007040809043069007210030060000870104590600000001004520000900002070000350060210078,657142839843569217219738465326875194594621783781394526138957642972486351465213978
000480900503010000874900002230095060061030070000104080107020450045006300006000007,612487935593612748874953612238795164461238579759164283187329456945876321326541897
002900034005012000704080060340000007801070003009005608010306470000059012020040800,182967534635412789794583261346298157851674923279135648918326475467859312523741896
800407930070000105029060004100000082764000050005349000030100000010254700902008060,851427936476983125329561874193675482764812359285349617537196248618254793942738561
004800060060072008500600190417030000006410005900000020208590004109360700070000830,794851263361972548582643197417235986826419375953786421238597614149368752675124839
004908056502400070900530100060004908000007060105020030200680013007019800000000000,314978256582461379976532184763154928428397561195826437249685713637219845851743692
708062001000000740051800003800654002003008600020379000090000817610903400205000090,738462951962135748451897263879654132543218679126379584394526817617983425285741396
840000370207900150000006004003060085500002007006308290005047800910000040000103062,849521376267934158351876924123769485598412637476358291635247819912685743784193562
005089300040100078900006415004910050630005200007020800003004000019730020260000030,175489362346152978982376415824917653631845297597623841753264189419738526268591734
058006090302100000607009500060705410029300806500028900000000040000512003100463070,458276391392154768617839524863795412729341856541628937236987145974512683185463279
700680009001002700008403005020100067030000400090004830603010090470060020200508600,752681349341952786968473215824135967137896452596724831683217594475369128219548673
000901345000840026001005700028000001006070402703600089007154900600030000935700000,872961345359847126461325798528493671196578432743612589287154963614239857935786214
740001005001320040900007306008096700590800004307102050100000608056000020200030090,743961285681325947925487316418596732592873164367142859139254678856719423274638591
054000000800070906090240150500801320309050000010600008046003210000009063205004080,754916832821375946693248157567891324389452671412637598946783215178529463235164789
000005980020160400085000000009017000000040136260800004100009005800030270407500813,614375982923168457785294361349617528578942136261853794132789645856431279497526813
089012006006500007100009380000927000308400060040036210401008050092000408000705900,789312546236584197154679382615927834328451769947836215471298653592163478863745921
000000000327006400600071058000003709003000020800009065400950800071208046002010903,158492637327586491649371258265143789793865124814729365436957812971238546582614973
