004600018000023000092084750000500467300060900008000021080300000070000594401072006,734659218815723649692184753129538467347261985568497321986345172273816594451972836
005803700400001005300700980000000001249010670056908042091006000027040863000500000,965823714478691235312754986783462591249315678156978342891236457527149863634587129
300090006080000073100074280004050001030640500509203060001009850020400037000812009,372598416485126973196374285864957321237641598519283764641739852928465137753812649
065307000100500870000000203401060089009070015070001300907020060500090402840100500,265387941193542876784619253451263789329874615678951324937425168516798432842136597
400002300009030000200050071104570060903080500070906000000060089001300600580004210,457812396619437825238659471124573968963281547875946132342165789791328654586794213
301009002860200009000007150000300000040600271600045890100004908970103064025000000,351469782867251439294837156789312645543698271612745893136574928978123564425986317
045008000000105000910030082200000143006800070500009600700000059089400210100703004,645928731823175496917634582298567143436812975571349628764281359389456217152793864
090070000001604000430050802050009426800010003247000080600200301008090540000537060,592873614781624935436951872153789426869412753247365189675248391328196547914537268
600010580050670014304080000803000002560400700002300960109520300040006070000809005,627914583958673214314285697893761452561492738472358961189527346245136879736849125
010000050007610980042800067200500008000079420063000010051704000008100300309205600,816947253537612984942853167294561738185379426763428519651734892428196375379285641
200709300000002860460100005050308901700405003008010700900000000507004020014030006,285769314173542869469183275652378941791425683348916752926851437537694128814237596
053290040010507290200030800000005009030480760401920008008010037007840500006000100,753298641814567293269134875682375419935481762471926358548612937197843526326759184
701000430000604950006005000090000600060473005070890102239007000004360010000500008,751928436823614957946735281498251673162473895375896142239187564584362719617549328
015006000030000890704800000070500020001730004008049360650300270002001950000090036,815926743236417895794853612473568129961732584528149367659384271342671958187295436
000000240014820906070000008063401000250008001000370569080507000530000704009160300,895716243314825976672943158963451827257698431148372569481537692536289714729164385
080069200700002060009458000003000507100300082070590100008004923030200016406000000,381769245754132869269458371643821597195347682872596134518674923937285416426913758
970620050015073040000800300638200010001000092200050000000009030060740120750130068,973624851815973246426815379638297514541386792297451683182569437369748125754132968
007000025608510930043089000002961500060400109000700080209600000100030400030002057,917346825628517934543289761782961543365428179491753286259674318176835492834192657
030680100006002000700341009010000095020009030048750020000470083094018070005006200,439687152186592347752341869613824795527169438948753621261475983394218576875936214
030050401000400080009070602100300809248000005500602007007200500000001036905830010,632958471751426983489173652176345829248719365593682147317264598824591736965837214
001007026008951007350460008000840009040100250039000010600030901020790460000005000,491387526268951347357462198512843679846179253739526814675234981123798465984615732
052081004000000709068903020000004000001305070007600092140027603500000010203050008,952781364314562789768943125695274831821395476437618592149827653586439217273156948
809040730060200094500003000000807100402000080700600305000790800080502061351006002,829145736163278594574963218635827149412359687798614325246791853987532461351486972
400300002008007000270041036950006300046850070300400010000275004610908500000000083,461389752538627491279541836952716348146853279387492615893275164614938527725164983
700000030040009258000123000000450023005800600296001040500360007081040090670000000,762584139143679258958123764817456923435892671296731845529368417381247596674915382
000005932200100065970060040043007800500006000007013290016040080390000401800700000,461875932238194765975362148143927856529486317687513294716249583392658471854731629
400760500002005809603010070700038421030090000806000000004120050010006900528070030,489762513172345869653819274795638421231497685846251397964123758317586942528974136
756000000900080040204630005000263010070508209000010430015002900009850701800400006,756124893931785642284639175498263517173548269562917438615372984349856721827491356
006017008000302006250600470008051060700408029139000000500000307001295080004000090,946517238817342956253689471428951763765438129139726845592864317371295684684173592
345060020069510080000003700600900840008706001050200300080050004007120000403000905,345867129769512483812493756671935842238746591954281367186359274597124638423678915
000207930030080040601000500080601204007000053920305100004100870015890060062000400,458217936239586741671439528583671294147928653926345187394162875715894362862753419
700090406008100000340070520006030800005207040090850100062000035013740900080005000,721593486658124397349678521176439852835217649294856173462981735513742968987365214
980006541005079060120000030400001306690803010000050480030000070070064002800920000,987236541345179268126485937458791326692843715713652489239518674571364892864927153
604013050952000007000700609095040060040821000217506080003070500080000920000104300,674913852952468137138752649895347261346821795217596483463279518781635924529184376
004280003096003400070095061908007020430008076000000040000100500302050007560304980,154286793296713458873495261918647325435928176627531849789162534342859617561374982
029500080600100794000078600560030800080009032000804100305402000070000406940001003,729546381658123794134978625561237849487619532293854167315462978872395416946781253
060900580400070032000210004040000003705430610103098000008020009002061007500000100,267943581451876932389215764846157293795432618123698475618724359932561847574389126
001409067296000050050032000000004100800210030030000874700090601508700020000806040,381459267296178453457632918675384192849217536132965874724593681568741329913826745
920750430500000800100462070000596007204103000000000510390080020670200390080001006,926758431547319862138462975813596247254173689769824513395687124671245398482931756
027050000003109008400000960060031409700005106008000700834600007105008020070093040,927856314653149278481327965562731489749285136318964752834612597195478623276593841
309280100200430608050000007400000800001020060730190004040706900108000500002009031,369287145217435698854961327425673819981524763736198254543716982198342576672859431
046720005008901060300005700200406300050000800060093100080200470005017092009000001,146728935578931264392645718217486359953172846864593127681259473435817692729364581
006007219700150300098006000410000000003610980080402050000204006507000003060080041,356847219724159368198326475415798632273615984689432157831274596547961823962583741
030094020002080030670200000340900860108030004506000001705040210009501600000002590,831694725952187436674253189347915862128736954596428371765349218289571643413862597
405030000009500731020600008050020016000900470208001305004207900803006000010090054,475138269689542731321679548957324816136985472248761395564217983893456127712893654
980050000037604001001300920010002870096000000408706300000100245040008103050029060,984251637237694581561387924315942876796835412428716359879163245642578193153429768
005360402800090000700002195960100800070009040200000003000210650003004278500800010,195367482842591736736482195964135827378629541251748963487213659613954278529876314
456801000000300000390050700008400019102090003570008006000710250800064390000005041,456871932287349165391652784638427519142596873579138426964713258815264397723985641
069005210070400580304000007000752001006030002030000950095240806400060000007901430,869375214271496583354128697948752361516839742732614958195243876483567129627981435
802000153030040079709000800008090500050704030310002060094103000003007020200085006,842679153135248679769531842428396517956714238317852964694123785583967421271485396
570006340000000009184053200030070010000564700200090860040000002302700008908105030,579286341623417589184953276436872915891564723257391864745638192312749658968125437
009820300780000060020103009610007000800069504040350000000010720590700086000045031,159826347783594162426173859615487293837269514942351678364918725591732486278645931
008094207073000050600053410030000000500900064006120980200510300000807100904000005,158694237473281659692753418839476521521938764746125983287519346365847192914362875
014700060006580090509040200107800040002000000030069105080450300200000704700026901,814792563326581497579643218197835642652174839438269175981457326263918754745326981
400030860015040029896000005080090000570600103000702500040300010069027000700008942,427935861315846729896271435681593274572684193934712586248359617169427358753168942
600043080005090042310080700007804035002009100900507600506000800090300000800061209,629743581785196342314285796167824935452639178938517624546972813291358467873461259
304050000600020090007061805000000071069003040405009203092000780000085020073000104,384957612651328497927461835238546971769213548415879263592134786146785329873692154
253000060060091502000000800000003100027408009000670030005020010078006405040705096,253847961864391572719562843496253187327418659581679234635924718978136425142785396
000013008500709004230000059000080000902040070704005312020100090007408060100002503,479513628568729134231864759613287945952341876784695312825136497397458261146972583
000020063980307400003006500009000150020080970740100000300700080850069002160500700,475921863986357421213846597639274158521683974748195236394712685857469312162538749
107060250050100043006008009040002001600007580089300000001000020008206394900030700,197463258852179643436528179745682931613947582289351467361794825578216394924835716
700009803802500060100020004000640000641080500085700090300006900460057301000003072,754169823832574169196328754973645218641982537285731496327816945469257381518493672
002000107800130069600804000100006245070010800406509000720090051003000000008657300,342965187857132469691874532139786245275413896486529713724398651563241978918657324
049008065700030000005706320037240080050017200008900040006000000020450100000080493,349128765762534918185796324937245681654817239218963547496371852823459176571682493
900200300670008004004013060210900030007020500500806270045070809790100000060080050,951264387673598124824713965216957438487321596539846271345672819798135642162489753
560002730080070041400103006000010900040206050702000800000569002190000400203740080,561492738389675241427183596635817924948236157712954863874569312196328475253741689
007102306000090080409006501030700600050001007062908130870000040001000005300679000,587142396613597482429836571138724659954361827762958134876215943291483765345679218
500780200049000000000193600174320060602000504000008100700500018208409000035000907,561784293349256781827193645174325869682917534953648172796532418218479356435861927
000093001860005400000840027205008039703000602090001000006500010382100004059480300,524793861867215493931846527245678139713954682698321745476539218382167954159482376
300100090600054300008009720000002460402093800051800007010070903090600500037020040,325187694679254318148369725783512469462793851951846237216475983894631572537928146
028001000500003067900254000801000020049020730700906450000100800005089040207400906,328671594514893267976254183851347629649528731732916458493162875165789342287435916
050600100407020003000917800930002500082090016065804000003700645000030708600009200,859643172417528963326917854934162587782395416165874329293781645541236798678459231
260407105001000680000005029450069800000000070138200000002840503005706040090030061,269487135541923687783615429457369812926158374138274956672841593315796248894532761
300009208600014030005030001080400007201003500900500620020108050406072009000060700,314659278672814935895237461583426197261793584947581623729148356456372819138965742
030900081098015030000000006027480000060700200045090060500800047002004190970360005,236947581798615432451238976127486359869753214345192768513829647682574193974361825
007000200005030617001094000000048706096001000020050380070080002608003075400510900,387165249945832617261794853153248796896371524724659381579486132618923475432517968
090040032003790400605000001780034000000070560052009003000060208320050916009801000,897145632213796485645382791786534129931278564452619873174963258328457916569821347
906005800000040519001082730000008020305460000000071600504020097790000001162300005,936715842278643519451982736617538924325469178849271653584126397793854261162397485
096080030000309605240000097780050000005430010000708060030015080008020309629000004,596287431871349625243561897782156943965432718314798562437915286158624379629873154
000900007007850240090006000300000910521008076000040500108402005032700100405060803,253914687617853249894276351346527918521398476789641532168432795932785164475169823
003104207700580040060020308900005030400270060058000001300000600016400905270890000,583164297792583146164927358927615834431278569658349721349751682816432975275896413
000053200038000761109070000010209050207008096000600403950304000002005308006701040,764153289538492761129876534613249857247538196895617423951384672472965318386721945
050000023006704008000306701461005090207009310000080200300091006005000400940503070,754918623136724958829356741461235897287649315593187264372491586615872439948563172
000300100003205064860007090021004600009000005700806002912070800408090300070010500,247369158193285764865147293521934687689721435734856912912573846458692371376418529
708206030320005140950800000060530890000004000010000527502108070170000306004090000,748216935326975148951843762267531894895724613413689527532168479179452386684397251
290300001010004800703500902500007090000861700308200000000040000046000105000692380,294378561615924837783516942561437298429861753378259416832145679946783125157692384
908000001020700063000012970807400650004006000103280400380097140500000080009640200,978364521421759863635812974897431652254976318163285497382597146546123789719648235
500060370307009002062001805900308710150006009084002000070040100801000000209800053,598264371317589462462731895926358714153476289784192536675943128831625947249817653
030206000000000057160040230500000009000820740086703010003062070204000805009470100,738256491942381657165947238527614389391825746486793512813562974274139865659478123
020070100603190400000403020764200003098060001050004080100680094870000000500709300,425876139683192475917453826764218953398567241251934687132685794879341562546729318
240008900107900853003560100006000408000106705310000090000780002500030600490002070,245318967167924853983567124756293418829146735314875296631789542572431689498652371
900006030204009050060400807000030400008002915002180000640000080009010300735000049,917856234284379651563421897156937428378642915492185763641793582829514376735268149
006520100900618043500049000020960008000007010309200007000375024030080001460000800,846523179972618543513749286721964358654837912389251467198375624235486791467192835
100002670004060005950008031302000010000009400890250067400976000530801000007000082,183592674274163895956748231342687519765319428891254367428976153539821746617435982
005000000090086351070400609000090008607030045380002107000001024004059000210870000,865913472492786351173425689541697238627138945389542167958361724734259816216874593
000025043200900006007410020070600000809070102004090850012708009900001005065300000,196825743248937516357416928571682394839574162624193857412758639983261475765349281
003405700090068300465000001007000096030010800106750020050800009240000608000903014,813495762792168345465237981527384196934612857186759423351846279249571638678923514
680000070200700130530090004490300800706040250000051000000205049000813006002060710,681534972249786135537192684495327861716948253823651497168275349974813526352469718
009230000800071020001004703703090015065010482040600090000800001400705800290060070,579236148834571926621984753783492615965317482142658397357849261416725839298163574
070000023009700050820500100100490008000020070350876400006000040095103000703080096,571648923639712854824539167167495238948321675352876419286957341495163782713284596
