024057080890004001100300400900010624060900007000028350086030700050002030017500000,624157983893264571175389462938715624562943817741628359286431795459872136317596248
005068100034070002000020930010600820603051070000090603907034000501007090082000004,295368147834179562176425938719643825623851479458792613967534281541287396382916754
000057000080420000050090132820100700090700408400000560006040070070902000903008015,162357984389421657754896132825164793691735428437289561216543879578912346943678215
900350070017090002480000010003020004708540060206000530500208040600470309000910700,962351478317894652485762913153627894798543261246189537579238146621475389834916725
003405007806200010790810020300070050008000601019640003000009805000730060241000700,123465987856297314794813526362971458478352691519648273637129845985734162241586739
600008210030040700970102300201690008000254600003007000007000925094000063800500100,645378219132945786978162354251693478789254631463817592317486925594721863826539147
007043900300605408800090605002587001009100020500200800000010060238400000040900700,657843912391625478824791635462587391789134526513269847975318264238476159146952783
000100980000006507700900006010020305036410000008050091690802070003007840080300002,362175984849236517751984236914728365536419728278653491695842173123567849487391652
018000590039002670260000304087600001004001000000509703501930020600200040070006000,718364592439152678265798314987623451354871269126549783541937826693285147872416935
078036050004000200000890000600700020000004913910050400500083000000260008060501072,278436159394175286156892734643719825785624913912358467527983641431267598869541372
040100703080794000602005900534200006700460102000807009100008207060030000023000508,945126783381794625672385914534219876798463152216857349159648237867532491423971568
008000001100002067070904200061400000050007300940053020739600500000005608005231040,428376951193582467576914283361429875852167394947853126739648512214795638685231749
008317000974005001005000080780002015000700200390040760060003540200008039010029006,628317954974865321135294687786932415451786293392541768869173542247658139513429876
050800071021309000604000002070051400308706000019000000807004026000010039030098050,953842671721369548684175392276951483348726915519483267897534126465217839132698754
005000803000008000000364907302500060801002490450709100009070020620100004103405070,965217843734958216218364957392541768871632495456789132549876321627193584183425679
050002006039400100002070040000009350080000004064380927140050073007210800800700090,458192736739465182612873549271649358983527614564381927146958273397214865825736491
001003008020908005070600031080090400100000073062405000507040060900281000030570904,451723698623918745879654231385197426194862573762435189517349862946281357238576914
950010300046500071000608002804000000007821400300000620000035907080402053001700040,958217364246593871173648592824356719697821435315974628462135987789462153531789246
057106020001000003300904070820003000006210095093500006002009704080450600010070800,957136428241785963368924571825693147476218395193547286532869714789451632614372859
008079004050100209002050130791000000060408005580096300040301060600000020300807500,138279654456183279972654138791532486263418795584796312845321967617945823329867541
000046819490020005003080700900500302004000070501004060070000093020860400005001006,752346819498127635613985724967518342284639571531274968876452193129863457345791286
027690003350078042001000600002035080060000109730060400400800000010300067009002050,827694513356178942941523678192435786564287139738961425473856291215349867689712354
024680000308000470700090201000075000400000137010000609500013004000560008860009320,124687593398251476756394281639175842485926137217438659572813964943562718861749325
045100760601005038000609000106080200007010080080927500700450003028000001000000479,945138762671245938832679145156384297297516384384927516769451823428793651513862479
000000000406050023050042760000000501040089007302410600001024390230007050060900800,827396415416758923953142768698273541145689237372415689781524396239867154564931872
300200056006900071180604009402300000005001967060078020500009083010000000090705040,349217856256983471187654239472396518835421967961578324524169783713842695698735142
630850900001007040058009070200040136000080200705010000500260008070400010192000004,637854921921637845458129673289745136314986257765312489543261798876493512192578364
000600324104007006025090180000035000782000630010700002000370000009508040047002018,978651324134827956625493187496235871782149635513786492851374269269518743347962518
009070540620305000010028000580100903040200070900063100300004097201000035007000806,839671542624395781715428369586147923143259678972863154368514297291786435457932816
501704039000905082790600000028070040000108000307040150603000070000050406204001005,581724639436915782792683514128576943945138267367249158653492871819357426274861395
000089000390160280410000500002008309060072005805604100000007030100230400580040607,256489713397165284418723596742518369961372845835694172624857931179236458583941627
064080100930004670080050009027801300400600005000000920376200000050307084002010000,764983152935124678281756439527891346493672815618435927376248591159367284842519763
009070300700630802060104050000000024640000103302000980490750000001208007080900561,129875346754639812863124759915387624648592173372416985496751238531268497287943561
070084090604501020000670000000050018856000004090730006100900580305200009240000170,572384691634591827918672345723456918856129734491738256167943582385217469249865173
800640050706002490100000008005003079030000200200961000310008060090075834004020900,823649751756812493149537628465283179931754286278961345317498562692175834584326917
049300060000008502100902000600000003320401670007050010000017900070200405036800001,249375168763148592158962347614729853325481679897653214482517936971236485536894721
905080100810056002047000003000061040009203608050790000000004270360002015080010409,925387164813456792647129583238561947179243658456798321591834276364972815782615439
006102048790030026100040000068053001000400052920071000070005080000600305800020090,536192748794538126182746539468253971317469852925871463673915284249687315851324697
700000306680035400900800052050001604370002090009057000420900037800060001013200000,745129386682735419931846752258391674374682195169457823426918537897563241513274968
800060573301000002020908040608403010000800005037009206096007100000205300000040058,849162573361754892725938641658423719912876435437519286596387124184295367273641958
104800093900405270080060005000032906490001502006500080070003100600070009201040007,154827693963415278782369415518732946497681532326594781879253164645178329231946857
410900050087045160009270300700003205092006000000010400020000501300509008068030000,413968752287345169659271384746893215192456873835712496924687531371529648568134927
200000006769080420041000900080095001094600500300001200007430108530200604000750300,253974816769183425841562937682395741194627583375841269927436158538219674416758392
005406102060001040000580700080000009176050308000007500750640201910020003002093000,395476182867231945421589736584312679176954328239867514753648291918725463642193857
006000302705400008000050010530700029008000700470690031810034206000900000090180004,146879352725413968389256417531748629968321745472695831817534296254967183693182574
800710500002050160030008049100800006000576080009032000000400203364090005705001090,896714532472953168531628749157849326243576981689132457918465273364297815725381694
010000650030691007040700093100020080005980000097000302300800006072010804600040205,719234658538691427246758193163427589425983761897165342354872916972516834681349275
080510006021007800900030705439008001075900200800076040004000060360080000200103490,783514926521697834946832715439258671675941283812376549194725368367489152258163497
004006309090284700050370010070050608800000200401630050000920480906000000240701000,784516329193284765652379814379152648865497231421638957517923486936845172248761593
000004039103050000670000802002900005008206704060400010001070300700500900489120006,825764139193852467674391852342917685518236794967485213251679348736548921489123576
106508040700030009200004050007020800095000013300905407000240600003006000908071500,136598742754632189289714356647123895895467213312985467571249638423856971968371524
028007610500900004390604000231000040000080056000492070050001007970800300060300800,428537619516928734397614582231756948749183256685492173853261497972845361164379825
005600089004032100060004730807000040001706005520100000700503000409010803010090027,235671489974832156168954732897325641341786295526149378782563914459217863613498527
000006230084005000001280900060710080700008054040000069002601000090830570305079000,957146238284395617631287945569714382723968154148523769872651493496832571315479826
097530064000006070600480002008060007005709100010004020100300900040000005800902043,297531864584296371631487592928163457465729138713854629172345986349678215856912743
600000009901602054000800270002000045070106030800350000000009061205018490300400820,627543189981672354453891276132987645574126938896354712748239561265718493319465827
362080000007000285900001000000760010801509003020038704010307000030020159058000060,362485971147693285985271436493762518871549623526138794619357842734826159258914367
095026400070054000106007003054601080020089301003000050080000910000900205700200860,395126478278354196146897523954631782627589341813742659582463917461978235739215864
000400053709051060020006008100920800058000012300005076893007000060019000000208430,681492753739851264425736198176923845958674312342185976893547621264319587517268439
801320500007001000060500890020050043000000675300106980700680030400900006590037200,841329567957861324263574891629758143184293675375146982712685439438912756596437218
060500870402060000900002034600480000038200090109070500000700100573140200000006085,361594872482367951957812634625489317738251496149673528896725143573148269214936785
070905000800002010290086000020001730140050008008790005005009340300000209000340076,471935862856472913293186457529861734147253698638794125785629341364517289912348576
005400076009502300014080002090367008500001030006200104100705200000000089020006400,235419876869572341714683952491367528582941637376258194148795263653124789927836415
000809000406007900800000243701900020002700804000301005240008000060000500930502071,523849167416237958879615243751984326392756814684321795245178639167493582938562471
200901005080060400703000020004080060900634007018002500032500790109800036060000008,246971385581263479793458621374185962925634817618792543832516794159847236467329158
009000006400705390080300140100208005006040870530070010700090602002010400693400000,379184526461725398285369147147238965926541873538976214714893652852617439693452781
000146003520000940000000708300072010058003400070400059705901000060080000040060290,987146523526837941413259768394572816158693472672418359735921684269784135841365297
004710000520000003006209410109600300780030004000085970002070060007104002900060500,894713256521846793376259418149627385785931624263485971432578169657194832918362547
020018090038790060600530200900400570407860000005300100092100003740000820000006049,524618397138792465679534218983421576417865932265379184892147653746953821351286749
009087001051006000002350490006079080304000500000400270190702003000003160080500027,439287651851946732762351498526179384374628519918435276195762843247893165683514927
002900705900008310080605004250180009000030061300004070701059000038060200040307000,462913785975248316183675924257186439894732561316594872721859643538461297649327158
036080004002040000590010370408300205700400006003698000020000050000137940000950081,136789524872543169594216378468371295719425836253698417921864753685137942347952681
500001008003000090019057200000006100026090084457083000065078000800520930230000070,542931768783462591619857243398246157126795384457183629965378412871524936234619875
690004800800090710020105030540071090080460000003209006062300957050010008000000043,691734825835692714427185639546871392289463571713259486162348957354917268978526143
300006000097840005600912700003281940008030050120400006905700320870090104000000000,381576492297843615654912783563281947748639251129457836915764328872395164436128579
004000000030008500008209710900710240103002007600050900007300680800906020020405109,214567398739148562568239714985713246143692857672854931497321685851976423326485179
710960000030021506000700003040300000070010890200058047960500134003490020820006000,715963482439821576682745913548379261376214895291658347967582134153497628824136759
090080060007043000502670009018000400050012076000500003200006700940050210003408000,491285367867943521532671849618739452354812976729564183285196734946357218173428695
093100450005080036200400900950800010070060508006042300040058090700300000000090102,893126457415789236267435981952873614374961528186542379641258793729314865538697142
800071500100006247506000091043009008001200000900315006700508000008630900000047000,824971563139856247576423891243769158651284739987315426762598314418632975395147682
100802003520640000073090080004000056000300102900157000406000009000030870037025040,149872563528643917673591284314289756785364192962157438456718329291436875837925641
907104003035007006600200800300800070070023900059400000010058420003000010820090605,987164253235987146641235897362819574478523961159476382716358429593642718824791635
030600079704900020081004500148000000600003052050869001020050000007002630005780000,532618479764935128981274563148527396679143852253869741426351987817492635395786214
090058600003200074008001900020000003007002189400700560501004000300960007006100200,794358621153296874268471935825619743637542189419783562571824396382965417946137258
000060010851700060094008000016205800703000602900003470000050003370046000048010290,237564918851729364694138527416275839783491652925683471169852743372946185548317296
507029060008100003900305000001580076000010020002700094040098200105070040060000837,537829461628147953914365782491582376376914528852736194743698215185273649269451837
000030290000802060053607408001006580920005000400080079002019037637008000000000004,786134295194852763253697418371946582928375146465281379842519637637428951519763824
000090380000506001280301050006108900820005047301029000500700026064000090730000800,615297384943586271287341659456178932829635147371429568598713426164852793732964815
007010802004506970200030040003008000406150090901043027059700001000000080060201005,637419852814526973295837146523978614476152398981643527359784261142365789768291435
700690803305000000000080700620007031008560400040901002900000075401300060053200009,714695823385724916296183754629847531138562497547931682962418375471359268853276149
008040006230009501046007980803200065500098302700000490300060020010070030000001804,958143276237689541146527983893214765564798312721356498389465127415872639672931854
000050298000906704003004050410020000008609000002007589200708000950010003700003642,647351298125986734893274156419825367578639421362147589234768915956412873781593642
760000280100000009080520013603800000040007000020319065300600800918002500000004071,765193284132478659489526713693845127541267938827319465374651892918732546256984371
350070062000109480000000705160000000000090800074003016600034920502800047803000000,359478162726159483481362795168745239235691874974283516617534928592816347843927651
540060829300790604000000010400020030950006001026089000700040098080000503690030700,547163829312798654869254317478521936953476281126389475735642198284917563691835742
800074160003200005090000040060007521400890000037601009300000000106400800020080907,852974163643218795791563248968347521415892376237651489389725614176439852524186937
307080610090650720040000000920047000001090402000306050400810030502003860070009105,357982614198654723246731598925147386631598472784326951469815237512473869873269145
008709400037060500090008010050904702210003600304000090780200006063490008000001000,128759463437162589695348217856914732219873654374526891781235946563497128942681375
000490080007060925001008000002930000380506002000070001509240630706000504000001070,263495187847163925951728463172934856384516792695872341519247638726389514438651279
690400000000390071081050002000500407508700010003060009905074006402006800010020030,697412358254398671381657942129583467568749213743261589935874126472136895816925734
