073000010800702006200053004000501000604090800090004572029100400580000000010608903,973846215845712396261953784732581649654297831198364572329175468586439127417628953
095000030406051780000607000020000348301400906009870100103040050058019007000002000,795284631436951782812637594527196348381425976649873125163748259258319467974562813
002003086100270900070004500060519004530600097001000008007050409040780205320040000,452193786186275943973864512768519324534628197291437658817352469649781235325946871
260081000070000013080059004000290005050067300002004700008400602100003509503076400,264381957975642813381759264637298145459167328812534796798415632146823579523976481
400008002809000600010930705000507008937040200508210409000760804240000010001050030,453678192879125643612934785124597368937846251568213479395761824246389517781452936
070100030080405210420360009004010058095074000007800002160908470003000800000500001,579182634386495217421367589234619758895274163617853942162938475953741826748526391
017050000305002070006804000090000080400093006072510300061200009200630540500987020,817359462345162978926874153193426785458793216672518394761245839289631547534987621
500400083006702000009060500300009002150040700070835400000010048240083106701000090,527491683836752914419368527364179852158246739972835461693517248245983176781624395
000405000009062570048003009600530010000070903210600000070920005081000047025180300,762495831139862574548713629697538412854271963213649758376924185981356247425187396
040060100000537800506090020005900000071200608820014730200085000903000001010000046,347862159192537864586491327635978412471253698829614735264185973953746281718329546
054020000300080950978300102005062700090000846700910200623750009000036007000004010,154629378362187954978345162835462791291573846746918235623751489419836527587294613
600070200001809000004000689000500800043001500706230000100980052009053470030706010,698475231321869745574312689912547863843691527756238194167984352289153476435726918
240060809075000043800905200780431000000000980056009070100000030000010402630257100,241763859975182643863945217789431526312576984456829371128694735597318462634257198
607010894025000003000034005908067040300000902000100578002000000000046007804705036,637512894425879613189634725958267341371458962246193578762381459513946287894725136
100800600009067080500430090010080206090520003340001050007000560800003402200010039,173895624429167385586432197715389246698524713342671958937248561861953472254716839
143800007000015090090200600000300902260408050079000001000050480006032070517000039,143869527628715394795243618854371962261498753379526841932157486486932175517684239
000009870068100000753200006002700913106040000000900002807021050040003008500807340,214639875968175234753284196482756913196342587375918462837421659641593728529867341
004068790001200003803700065609470008070090120500001000900605002000040380000123007,254368791761259843893714265619472538378596124542831679937685412125947386486123957
740021500903000080002590740070600000004800107026043900500000009030076020080105004,748321596953467281612598743875619432394852167126743958567284319431976825289135674
900074005006001904500230080007020609000400000053008017030850061008090030260100700,981674325326581974574239186817325649692417853453968217739852461148796532265143798
001900870086040030239006001070000904000264010050089020010020045300000760008350002,541932876786145239239876451672513984893264517154789623917628345325491768468357192
430705000700001042006800053013400280209080001070009005020100090008026010900304006,432795168785631942196842753513467289269583471874219635627158394348926517951374826
080500070020034050010060000050083020700650803000100900001046007003908260408020390,384591672627834159915267438159483726742659813836172945291346587573918264468725391
603002000009040700070050080092800360704001002850000900000607023005009401010530000,683792145529148736471356289192875364734961852856423917948617523365289471217534698
804060900300000470021007305950021000000806002006570004030090017000080650102003800,874365921395218476621947385953421768417836592286579134538694217749182653162753849
400000018000930600567002004080006005004805100250003069930060072700520090100000400,493657218812934657567182934389216745674895123251743869938461572746528391125379486
004100007370095100018060300000400230907000406600930058801500600060007002053082000,594123867376895124218764395185476239937258416642931758821549673469317582753682941
087040060300095400000000251104030020060500007208107009720083506009000104800006030,587241963312695478496378251174839625963524817258167349721483596639752184845916732
000703042600815090907006005001007900289060004000400830062900010003002070508030000,815793642624815397937246185341587926289361754756429831462978513193652478578134269
600059702001600004008012350100007240405008930090200000002000560000001003540790000,634859712251673894978412356186937245425168937397245681712384569869521473543796128
000407000025010030600850700002080006869040500001709042050600001014320600300000900,198437265725916438643852719472583196869241573531769842257694381914328657386175924
604502800030000100100003720700030500080900074020061009500040060008050230260098001,674512893832679145159483726796834512381925674425761389513247968948156237267398451
205007040040100000000602930060081000892000500400320760087004051004730620000900800,235897146649153287178642935763581492892476513451329768987264351514738629326915874
063000570920007300000900402275000004400003090000080100006014008000670003018250700,163842579924567381857931462275196834481723695639485127796314258542678913318259746
000500973320180000000960000006002150080310000014050300600090527201046809807000004,168524973329187465475963281936472158582319746714658392643891527251746839897235614
300000096008070010000802007036900005705080032204100079010460008009710540000035000,372541896958376214461892357136927485795684132284153679513469728629718543847235961
450009080080260031006800009079006040800400702005038010500970004000050370031004000,452319687987265431316847529179526843863491752245738916528973164694152378731684295
607000093003600040080092001025900700906037180000104000800000050450206307701400900,617845293293671845584392671125968734946537182378124569832719456459286317761453928
035096007140000083000400200000700390008154060620080040053007009070028000002310805,235896417146275983789431256514762398398154762627983541853647129971528634462319875
000720810020809034506000000060147090350006000074000208048030009900000600007058102,493725816721869534586314927862147395359286471174593268248631759915472683637958142
900080001003400502008000040780004300000072059400061000106530804030100700295000060,947285631613497582528613947782954316361872459459361278176539824834126795295748163
001754600048030005702000000000640729000203060500080100409560000017009000200001803,391754682648132975752896341183645729974213568526987134439568217817329456265471893
740000100012030006800709300084590000060008007205040900501000400020350709000860053,743286195912435876856719324184597632369128547275643981531972468628354719497861253
001046900070001534000370080309000000500200607400618090000004860090005000206730001,831546972672981534945372186369457218518293647427618395753124869194865723286739451
863000042000000001210690700179025800500180409000037000005014003306058000000000027,863571942957842361214693758179425836532186479648937215795214683326758194481369527
020001400900050007475030900500010600000280740000396028067500000009847103030060200,328971456916452387475638912582714639693285741741396528167523894259847163834169275
000000002097068041103940600040300120200010079050700080300002000489670005070501900,864135792597268341123947658748359126236814579951726483315492867489673215672581934
907100450034709000100300008690200700003005006010040000001000845250060090700038201,987126453534789612126354978695213784473895126812647539361972845258461397749538261
170200000000030100082600490050307006000009320906080051001025604600090287003840000,179254863564938172382671495258317946417569328936482751891725634645193287723846519
000504009013800002090360700108006020005007300006952007400000000739010480602000590,867524139513879642294361758178436925925187364346952817451698273739215486682743591
301009070690300000000408010503020060902136800000000100040981203000000786025070000,381259674694317528257468319513824967972136845468795132746981253139542786825673491
600201000000054002005000830000180090008000746537009080700060000043502019290400003,684231957379854162125796834462187395918325746537649281751963428843572619296418573
002600940000000360040028015008104590010005807760209000056030070030000400109702050,572613948891457362643928715328174596914365827765289134456831279237596481189742653
680403000000200000052008079179054060008600930020000050093000081004700026700010003,687493215931275648452168379179354862548621937326987154293546781814739526765812493
040209807910050030800760040003900270050020000609080000005800023000103905070000461,546239817917458632832761549483915276751624398629387154195846723264173985378592461
000609340003000965050800000801304250096000007300270000007530100034008070000010690,712659348483721965659843721871394256296185437345276819967532184134968572528417693
036000010080050907290800630000380004700200800060401000023900051005006009140070080,536729418481653927297814635952387164714265893368491572623948751875136249149572386
600007005080400010000851920203095800840100003709000060004009200500060700102004030,621937485985426317437851926213695874846172593759348162364719258598263741172584639
030007004026100908040095630600010700803409000050080001075030040009204050001700309,938627514526143978147895632694512783813479265752386491275931846389264157461758329
002908053000001840090000000030004070760520100450090300105609000046050082900030006,612948753573261849894375261239814675768523194451796328125689437346157982987432516
800149005592000000000062030000000070015038400967021003150000007003010086040300290,836149725592873614471562938384695172215738469967421853159286347723914586648357291
730460002600130709405007010000902050006004001009078020800000200040020108500096007,731469582628135749495287613374912856286354971159678324863741295947523168512896437
900082410030560000027309080090000100804090057063010029502000040001007300000004268,956782413438561972127349586295678134814293657763415829582936741641827395379154268
000001007100090564060204100720080006008150790300000010037600940850030020400900008,984561237172893564563274189721389456648152793395746812237618945859437621416925378
000000016432005000091370020070510048005080260800009003000004100308620009020907005,587492316432165897691378524273516948945783261816249753769854132358621479124937685
301064000067300010090500007900000000000079301705002048802003705000006480536400002,351764829267398514498521637983145276624879351715632948842913765179256483536487192
530000070004502000890170050610005047003790000008000306260014008000608509001300020,532469871174582963896173452619835247423796185758241396265914738347628519981357624
000000007006040825052018040004050009070230000018600400005027010340100260900000703,483562197196743825752918346234851679679234581518679432865327914347195268921486753
080603070000500403096070508000005019602708050904012000070040090000231800008000602,485623971721589463396174528837465219612798354954312786273846195569231847148957632
030000600400510780709004023501000000000160002046709010800346001270000090000200540,138972654462513789759684123521438967987165432346729815895346271274851396613297548
000001067200004503086000290003509700070800041900060000009240050302150000408706030,534921867297684513186375294843519726675832941921467385719243658362158479458796132
041050000920008000008030216060000000005720803392014007700000050006905041100002930,641257389923168475578439216867593124415726893392814567789341652236985741154672938
400060105053008270200900000180704000000000009700352060002007004000080302034600980,478263195953148276261975438186794523325816749749352861892537614617489352534621987
028000140050602300000150070081000000003080467000790030070000600304006002900814050,628937145157642398439158276781463529593281467246795831875329614314576982962814753
900400208000530600473600905000003580200810063000040001105907004060002070029080100,956471238812539647473628915641793582297815463538246791185967324364152879729384156
057040030000901720010060004100480200806500009030009076740630915580000000003200400,957842631364951728218367594179486253826573149435129876742638915581794362693215487
030100052802400010760205003040000900003756000080003076090600001500008749100002008,439167852852439617761285493647821935913756284285943176398674521526318749174592368
000090030200604090007103605460000009003900106090207840004580000081070350700012008,516798234238654791947123685462831579873945126195267843324586917681479352759312468
500001700309070060600040029006905001042067000090003870000000000010800400407210305,524691738389572164671348529736985241842167953195423876958734612213856497467219385
050780106204000005000012030009078000030906002700100084000630097600021300025000040,953784126214369875876512439149278563538946712762153984481635297697421358325897641
300840900980005020025060078070001006200604530053007010810000042700009100000030060,367842951984715623125963478478351296291684537653297814819576342736429185542138769
020309800016080053000000090080067002300400510002500907040090600538002000607810400,724359861916284753853176294185967342379428516462531987241795638538642179697813425
100030500068000000009805060080029703000000610904700000871340002006200300052018470,147632598568491237239875164685129743723584619914763825871346952496257381352918476
970030020002500940005008106061004000080092000200603704038070010100080507090006230,976431825812567943345928176761854392483792651259613784638275419124389567597146238
052007038008002500701009460340080000005600009020700140590010080000000306003024710,452167938968432571731859462349281657175643829826795143597316284214578396683924715
000006284408100076970200050140900302000007000300024000809060700030500600001830025,513796284428153976976248153147985362682317549395624817859462731234571698761839425
050030204607059003000007006040800502030060190008023607019046000305100080070905000,951638274627459813483217956746891532532764198198523647819346725365172489274985361
002006574064078000030000009050083610100200000000709208403050090620800000915020700,892136574564978321731542869259483617178265943346719258483657192627891435915324786
002000800001250067000693000500000016068007209037010540003765004020800000900001305,652174893391258467784693152549382716168547239237916548813765924425839671976421385
700400600105030000802050973007091000004003086503800020050008300000600094901007508,739482651165739842842156973687291435294573186513864729456928317378615294921347568
050700890000010000792400005004090072007240030600008510083000041206001000100920306,451762893368519427792483165834195672517246938629378514983657241246831759175924386
067035009008970650000000000000000470902001506346200900000709240400083001010500860,267435189138972654594168327851396472972841536346257918683719245425683791719524863
609508010047920000002106403008000574004002030090060000080004701300705600000010028,639548217147923865852176493268391574714852936593467182986234751321785649475619328
081609020370000800056000004000008300149005006530060012200701000700890450014030007,481679523372154869956283174627918345149325786538467912295741638763892451814536297
020400598001700204096500100810009650000020900062000083030010079007036800050040010,723461598581793264496582137814379652375628941962154783638215479147936825259847316
702300609100040000096057030000000015407008200903106000380000090000015040064002007,742381659135649728896257431628473915417598263953126874381764592279815346564932187
005000007060530410007402800210000004000609080398004050609800070470025600003001902,945186327862537419137492865216358794754619283398274156629843571471925638583761942
000038490000000760006079050000490800035700000200080076740005302609001080051000009,572638491913254768486179253167492835835716924294583176748965312629341587351827649
000526001007480030006010902531070040040900000008000150190000023820047006005002000,389526471217489635456713982531678249742951368968234157194865723823147596675392814
040060029073005006000200800020730150006010907300900040004509060860004005901000700,148367529273895416695241873429736158586412937317958642734589261862174395951623784
