000000123000418000075060000037090614009670800080200050008024700010000305560130009,846759123923418576175362498237895614459671832681243957398524761712986345564137289
000800670002054000059036100510402308068001004900000000000000080083200901100500723,341829675672154839859736142517492368268371594934685217725913486483267951196548723
074903100600500098000260500030109820002700046900000003053007001807000050419608000,574983162621574398398261574736149825182735946945826713253497681867312459419658237
832700004019008507000000200005103006100040890000056403570092000408030079000800100,832715964619428537754369281945183726163247895287956413571692348428531679396874152
100000600200900803000347009000009010867000005050802304730200000018065900609480070,193528647274916853586347129342659718867134295951872364735291486418765932629483571
000054630370000000041900000619005802008070150700082460050217040200036008000400300,982754631376821594541963287619345872428679153735182469853217946294536718167498325
600400008008600290254070100870050063005160900006003000107090082009204005000310040,693421578718635294254879136871952463435168927926743851147596382369284715582317649
000001060002300050100007804608014072070263100500090040096000020703040008050809003,387451269942386751165927834638514972479263185521798346896135427713642598254879613
028409075005000002300010600500000801609040020000601003200090138930508040076000200,128469375465387912397215684543972861619843527782651493254796138931528746876134259
075406000060810020000903005004200760038000100001500090206007800980040070050009013,875426931369815427142973685594231768638794152721568394216357849983142576457689213
007090000050608910120070003080002406000003020630010008048035009006700080900200154,867391245354628917129574863781952436495863721632417598248135679516749382973286154
430501209000030001250000060108070900020000007700640010007863540002009080300104000,436581279879236451251497368168375924524918637793642815917863542642759183385124796
100640090200508403037001000803205640019000000000060087060807300040090078050002001,185643792296578413437921856873215649619784235524369187961857324342196578758432961
062804000800073010010600409000305821006000070530000904020401053790020000054008006,962814537845973612317652489479365821286149375531287964628491753793526148154738296
000004021608050030043078090301090608800200059070040000050600304002001000930005070,795364821618952437243178596321597648864213759579846213157629384482731965936485172
027004800000870000006050091300692005019000024000005030050409062004306007803000010,127964853935871246486253791348692175519738624672145938751489362294316587863527419
008600209409070001760802400206000040150900007890000000007256030300040082040001005,538614279429573861761892453276135948154968327893427516987256134315749682642381795
600000015314000870002097060070053400005009002960082000000860703040030500530000981,697348215314526879852197364271653498485719632963482157129865743748931526536274981
710000500000046180304090027039001000008004069000062308070000240005008071900520006,716283594592746183384195627639871452128354769457962318873619245265438971941527836
801420005090008004304900060402600008050003010600875000000001000000780936907300052,871426395596138724324957861432619578758243619619875243263591487145782936987364152
050009070000827560042000008005036401200008030060502000803904000001003740070050009,658149273139827564742365918985736421217498635364512897823974156591683742476251389
850009200400080070100306908590000030200904605000870400306100040000020000002050701,853719264469582173127346958594261837278934615631875429386197542715428396942653781
041007280007360000000080060910700400300004502000536900582000001400010009006243007,641957283857362194239481765915728436368194572724536918582679341473815629196243857
014870000003005600506400009050040200009200814070300960008000500600923700100000023,914876352723195648586432179851649237369257814472381965238714596645923781197568423
010003960806250013009006408050400000704060305300002601480305100000100020005000009,517843962846259713239716458651438297724961385398572641482395176963187524175624839
401020069006000517000030840900000025070004000304281000700400001005060983809005600,481527369236849517597136842918673425672954138354281796763498251145762983829315674
406753000519006300000800406000090500870301020204060003000005700308102000020900080,486753291519426378732819456163298547875341629294567813941685732358172964627934185
003940072500080900107200040009450130080007000004030800000010053258006009900020006,863941572542783961197265348629458137385197624714632895476819253258376419931524786
801050900000804003372009000700590000050200400109030780430015096000620008005000301,841352967596874123372169854784591632653287419129436785438715296917623548265948371
004050900100008050380209000070180030000600894240000007002003001601470003007560400,724356918169748352385219746976184235513627894248935167452893671691472583837561429
040030701200050600000819050761004008000086002003900000050291003680700010009500407,945632781218457639376819254761324598594186372823975146457291863682743915139568427
200700001059060008040109600005406002000218009480050000700000085068002917500003000,236785491159364728847129653915436872673218549482957136724691385368542917591873264
090003071570000940600800200005301094030500167008049002009670010007020500400108000,892453671573216948641897235725361894934582167168749352289675413317924586456138729
004017080320000000060200050500079031007504008039000004000040020680901300070603105,954317682328456719761298453546879231217534968839162574193745826685921347472683195
408000070060080030000360102070408015052070000304029000003100650600090800029000047,438215976261987534597364182976438215852671493314529768783142659645793821129856347
000500000840000069270039010400050008310040700060813090093086004000100920750000000,931568247845721369276439815429657138318942756567813492193286574684175923752394681
700000520000140000630500007020080090068010400001693070000258003490000600200004001,719836524852147369634529817327485196968712435541693278176258943495371682283964751
080010270405006300001300006004007502600090008900854100532400007000180030000500409,386915274495726381271348956814637592653291748927854163532469817749182635168573429
053900007400680590007000004108035200090100000600420038500800740010002006204300901,853914627421687593967253814148735269392168475675429138536891742719542386284376951
930005060100002004450780100079850200000000080020030006800407590010009048000020630,932145867187692354456783129679854213341276985528931476863417592215369748794528631
040507010090082047060000500006700830200105090574000002000000400003900071701203680,842537916195682347367419528916724835238165794574398162629871453483956271751243689
590304107010072000000960580005600008207000430000400790008013020700800051063009004,592384167816572943374961582945637218287195436631428795458713629729846351163259874
304700010010020508020060430700030100602107004080205009006004200090080056030009800,364758912917423568528961437749836125652197384183245679876514293491382756235679841
600037192200108005500060400301072840070000060080051300000400730000025014890000000,648537192239148675517269483351672849972384561486951327125496738763825914894713256
080054700010200003302108900400007000000010507960003140005600800006001020723900060,689354712514279683372168954451897236238416597967523148145632879896741325723985461
790420001003010007500000890000900402000057180920604730040306000100800506078000200,796428351483519627512763894857931462364257189921684735245376918139842576678195243
010400090200000108690200530006097042005026310800003607340000080007050000002910700,713485296254639178698271534136597842475826319829143657341762985967358421582914763
038000016200100507000496000001080700600027940059000008070205839300070260040000100,938752416264138597517496382421689753683527941759314628176245839395871264842963175
000002906040390000057000010800059071621000500000004083100260400003908720580040000,318572946246391857957486312834659271621837594795124683179265438463918725582743169
000069000070520001803000500009016005207900340560047200040630090001054003020008700,152869437674523981893471562439216875217985346568347219745632198981754623326198754
701850040050003020400607008320000000080200470007006300090720600810009030006040105,761852943958413726432697518325174869689235471147986352593721684814569237276348195
080060241000048005007905300000502030065700100030080009910630700002001000400079806,589367241326148975147925368894512637265793184731486529918634752672851493453279816
650002100407905038000003400120400850070090000008520006061000000309070020200080601,653842197417965238892713465126437859574698312938521746761254983389176524245389671
001062008403800070500030200034000590609700801078209600060520900000070402000901000,791462358423895176586137249234618597659743821178259634867524913915376482342981765
830000070000060000710050463050046930060910204002700005000009100070004058045130009,836491572524367891719852463158246937367915284492783615283579146971624358645138729
006040080015300700800900034260000070009120000030070250003007529000860000051003046,396742185415386792827951634268534971579128463134679258683417529942865317751293846
760109304100200009000050080049000018013000650000820900020500061054300007080460200,765189324138246579492753186249635718813974652576821943327598461654312897981467235
040100597600002000801700640000007960000030010493006080207080400060370028910500000,342168597679452831851793642125847963786935214493216785237681459564379128918524376
090087460300006000002030719003601080060042150007090000059000004400050638000028000,195287463374916825682534719543671982968342157217895346859163274421759638736428591
002046039009500600051020700000480102000639004780000000430800005006015080010790003,872146539349578621651923748963487152125639874784251396437862915296315487518794263
000020089003105000700680043025060900610900804490700060000008030201070000060410075,146327589983145726752689143325864917617932854498751362574298631231576498869413275
000507160001300050920040000090470000800003412306008000700000006000896027203050980,438527169671389254925641873192475638857963412346218795789132546514896327263754981
100600807080001000540720009030140600700000205062090040600009500001003002208005701,129634857387951426546728319935142678714386295862597143673219584451873962298465731
500100430004702001120080609070001006308005000960000800030027015000600243450009000,587196432694732581123584679275841396348965127961273854836427915719658243452319768
002084170000000004460900580506001800007600900010702003800020630050067240009300010,392584176785216394461973582536491827247638951918752463874129635153867249629345718
000006000008001534200074100300900000004020768017005093069008000182300005700610009,541836927678291534293574186326987451954123768817465293469758312182349675735612849
930600005400010780060002001070124308000007600010830490000045023058900000003000009,931678245425319786867452931679124358384597612512836497196745823258963174743281569
900205004100007006602009830080000209040306500060081007800140700023000091007503000,938265174154837926672419835381754269749326518265981347896142753523678491417593682
006384000000005001350007020400600902030091700085030004700020160008000090210506480,126384579897265341354917826471658932632491758985732614743829165568143297219576483
216003000000075300000046290800320400005094001407000000039061004608000059000750080,216983547984275316753146298891327465325694871467518932539861724678432159142759683
019370005000405006007009002360108090000004008502096010090003780700020500130860400,619372845823415976457689132364158297971234658582796314296543781748921563135867429
890005607024680001005030090007900054400001000060058003000003170306004002280096000,893145627724689531615237498137962854458371269962458713549823176376514982281796345
046000107020314508000500000000406050067001090430072000001780304380040001970000600,546298137729314568813567249198436752267851493435972816651789324382645971974123685
200540008548700063090260000300805102401000905000030870600100000072000000000972051,216543798548719263793268514367895142481627935925431876659184327172356489834972651
049085060300000804000071302094020080500000100807009005430600007010042000005903026,249385761371296854658471392194527683523864179867139245432658917916742538785913426
006520008983006020000000004098034100150070000000009682810007040204010070065090003,476521398983746521521983764698234157152678439347159682819367245234815976765492813
006400017007008090259000300008007502090040070012500060030905800021030006800600040,386459217147328695259761384468197532593246178712583469634975821921834756875612943
520100780078000230001000400100090000005600023900052046600701000080320000000040857,526134789478569231391278465162493578845617923937852146654781392789325614213946857
010030400024800000000602059001005640460009037008300000040070820907006010035010076,619537482524891763873642159391725648462189537758364291146973825987256314235418976
500000037800160290000004008070008009600543000020710050008030000290056400004207601,546982137837165294912374568175628349689543712423719856768431925291856473354297681
000041070800000406930600280715902000600470500080010000000005092307000060560238007,256841973871329456934657281715982634692473518483516729148765392327194865569238147
604001070005920008001037690000852007403000800020060019906000000018700204030000050,694581372375926148281437695169852437453179826827364519946215783518793264732648951
000025034930006020002700801025000407400670580700001060007168003050000008190403000,871925634934816725562734891625389417413672589789541362247168953356297148198453276
000080004098501000050970061040200300026090070800136009004000028100043500760020000,617382954498561732253974861941257386326498175875136249534719628182643597769825413
049200080060001425050030067501000000020600008000007149080470006200005090003902704,749256381368791425152834967591348672427619538836527149985473216274165893613982754
028000050500601700719030080000006000070200540304098201000140306130000070060025908,628974153543681792719532684291456837876213549354798261985147326132869475467325918
050000209000064000701800004905702000004300100020080600080041002002930070600050810,456173289298564731731829564965712348874396125123485697387641952512938476649257813
000800074009001026036040005502009010310200000000603008040000967000957000080004030,251896374479531826836742195562489713318275649794613258145328967623957481987164532
650000403807000001210905006701308200060470000000052040005001060003200509900083704,659817423837624951214935876741368295562479138398152647485791362173246589926583714
006900005800007200034010000780600001005070604061200809010060090023045700008000153,176982345859437216234516987782694531395871624461253879517368492923145768648729153
000001009508009203009400760207508600004930008030060005060153400040000512000007090,476321859518679243329485761297518634654932178831764925962153487743896512185247396
009520700080490060020038014901002050340600001000073400130000097000000008064087032,419526783783491265625738914971842356342659871856173429138264597297315648564987132
006004000180070000040103820200000030000941005900350748073200059005069100010005680,396824517182576394547193826254687931738941265961352748673218459825469173419735682
090028600034570902000401703300802070081900000420060010672004300000007860005000000,597328641134576982268491753356812479781945236429763518672184395913257864845639127
800005104000680050650901030301500000097100002200040300002400700570009000140038900,829375164713684259654921837381592476497163582265847391932456718578219643146738925
800900006000000240004723000060030510009406007005071004103060078520000960700000305,832914756971685243654723189467839512219456837385271694193562478528347961746198325
002000036900050740860003000020800001305014600071200803000097502507006000040080090,752148936913652748864973215629835471385714629471269853138497562597326184246581397
126003050900008004000900710080000090090014600705002300070081435003405026200060007,126743859937158264548926713481637592392514678765892341679281435813475926254369187
000007030730040001001680900000065040084000670027008105069270300800301000005000014,298517436736942581451683927913765842584129673627438195169274358842351769375896214
030400080004800706180602030803000090400006020509201400010000005007008200600935007,736459182294813756185672934823547691471396528569281473918724365357168249642935817
