800003062007050901690200400080001090000004370400060008200709016035610000009048007,854193762327456981691287453582371694916824375473965128248739516735612849169548237
600803900000400076078002100100280340030010507490060008005000000910500000083109020,641873952329451876578692134156287349832914567497365218265738491914526783783149625
590006004604900750300052800000201043000093017730605000002000098006100200480000100,598716324624938751317452869869271543245893617731645982152367498976184235483529176
010783000905000300700200401204079030000100600001006250080034000603810900097050040,416783592925461387738295461264579138359128674871346259582934716643817925197652843
002094701400500023170000000007050490260031800005720000706000105001800904930060000,652394781498517623173286549317658492269431857845729316786942135521873964934165278
578402009010007040002190000000058203026900005000000064100370500090060001300204800,578432619619587342432196758941658273726943185853721964184379526297865431365214897
006050230408207000000001090050079004600003080804020710200504309300086070009000001,916458237438297156725361498153879624672143985894625713287514369341986572569732841
500809400300010702269000000000080907100700000070104560080600100020430005400070308,517829436348516792269347851634285917195763284872194563783652149921438675456971328
000270800090015027003406905080100309604007000359000001020048050100623000007000046,561279834498315627273486915782154369614937582359862471926748153145623798837591246
200003060007200485800700000104650800370000046005900702000492000060800193500010000,241583967937261485856749321124657839379128546685934712713492658462875193598316274
040700030920030800005102000300008504010000009680090070003005460400960701200810090,846759132921436857735182946379628514512347689684591273193275468458963721267814395
042680000003000005510049700900004083051900067020060100060730500030002078400500900,742685391693271845518349726976154283851923467324867159269738514135492678487516932
980240105700080002000503600000090400020301807836000009000402001074005006150807030,983246175765189342241573698517698423429351867836724519698432751374915286152867934
030500200000300004645700108200601040070002809003080500906800003002046700750090001,839514276127368954645729138298651347571432869463987512916875423382146795754293681
006050320004901600805420000000070582009140000000003009152008403700000005003060870,916857324274931658835426917341679582589142736627583149152798463768314295493265871
105030004000006020004090800008500300050028107076340900342600051000074000081000096,195832674837416529624795813918567342453928167276341985342689751569174238781253496
040020008083500040109300060860030950900800074005160000700405130210090580000070000,547926318683517249129348765862734951931852674475169823796485132214693587358271496
497002006061070003350090040000000030003508490009010807000180250008300001075006004,497832516861475923352691748286749135713568492549213867634187259928354671175926384
037001056000700000050040280005200190120070008406003000010500049090014530003820000,237981456864752913951346287375268194129475368486193725612537849798614532543829671
081900040042085000000601023095010000070300502800000601963250007500400030000070006,681932745342785169759641823295816374176394582834527691963258417517469238428173956
000400831000080209500001000009700460030209010710063000028000047490306008003820500,967452831341687259582931674259718463836249715714563982628195347495376128173824596
010600250206000089059010070003800645085340001090000700004003000970058400130020000,317689254246735189859214376723891645685347921491562738564973812972158463138426597
790000630504000800600070105060197400002380009000500080045260070009401000830050001,791825634524613897683974125368197452452386719917542386145268973279431568836759241
018023007509000080200057000005090001000100406063008020890060052007000304000012690,418923567579641283236857149745296831982135476163478925891364752627589314354712698
400375000003060008090008001800009026250100030069030400070000200010084507005200680,481375962523961748796428351834759126257146839169832475678593214312684597945217683
200000789050702010006000002300201408029070000010068070400500300085403061000090005,243615789958732614176849532367251498829374156514968273491586327785423961632197845
000490021203010809006005030354700000000302700010040580809264000670500000400000090,587493621243617859196825437354781962968352714712946583839264175671539248425178396
006058003030001708025000001073000420100470800058090060560210300009060000200540000,716958243934621758825734691673185429192476835458392167567219384349867512281543976
000680940003000150060013000435070019009000028080560007210847300000000070040052060,721685943893724156564913782435278619679431528182569437216847395358196274947352861
073048090640790100000200050000000000320960000915000064001003500700620081039450002,573148296642795138198236457486517923327964815915382764261873549754629381839451672
008097005064300021750000000200008053090046002000900470080023060071000000520604809,138297645964385721752461398246718953397546182815932476489123567671859234523674819
000503700003080006091020004208904130040805090900060000802100560604007019030000007,486593721723481956591726384268974135347815692915362478872149563654237819139658247
006007830400810025020300000040780201507040060830105009065400100000030786000029040,156297834473816925928354617649783251517942368832165479365478192294531786781629543
070009368039400020500026007800043500190070000243000800006105003000800709901030002,472519368639487125518326947867243591195678234243951876726195483354862719981734652
000002851000400070090030600350028400000000008104759200708005060400013029210040300,643972851521486973897531642356128497972364518184759236738295164465813729219647385
000200090500009008602301500043528060708006030000070100070000204401600003035102900,387254691514769328692381547143528769758916432269473185976835214421697853835142976
908300000100600470000025008530002004860904021000007600004800090600050007093010052,978341265125698473346725918539162784867934521412587639254873196681259347793416852
070200809100065020006800001400070600019048050500000930200781000004600003790053200,375214869148965327926837541432579618619348752587126934263781495854692173791453286
000000803001809600020540007005098030100720500960001004054006000070000061008037209,597162843431879625826543917745698132183724596962351784254916378379285461618437259
020803007700900400094501620203000090000600070507000301906008034010005008000362050,625843917731926485894571623243157896189634572567289341956718234312495768478362159
004600000070009340956200070600300502501000700082000031040970825000503010700018900,314687259278159346956234178697341582531862794482795631143976825869523417725418963
902450100800009000546080000000507046000900370350008200204160003701000050080023090,972456138813279564546381927129537846468912375357648219294165783731894652685723491
093058040620400007040000830080902001007006900004085203000200075005030100160070098,793158642628493517541627839386942751257316984914785263839261475475839126162574398
105070040600080253020000600000000017010406890092003400309105000060000009004320080,135672948647981253928534671456298317713456892892713465389165724261847539574329186
601000094039700008204010600790200003020057000406008500000086007050902080003400019,681523794539764128274819635795241863328657941416398572942186357157932486863475219
170000000043098060260000905800003700000004050092600810005827001720100003000356040,179562438543798162268431975854913726617284359392675814435827691726149583981356247
030000420406020300150600907960830001314090200005007000020005890000100050090074060,839751426476928315152643987967832541314596278285417639721365894643189752598274163
003020800040900107900164000807000604000056002001009050030201900485000000209700036,163527849542938167978164523857312694394856712621479358736241985485693271219785436
009507060104600080070001050080090100500300000340005720810004506000709000020060374,239587461154623987678941253782496135591372648346815729817234596463759812925168374
002050174500200080040900300004000069700060400800503200180090602206071050003008000,932856174571234986648917325314782569725169438869543217187395642296471853453628791
050300080100064002709008300080027104310400900200005076940070008500009763000012050,452391687138764592769258341685927134317486925294135876946573218521849763873612459
002375800080000600700106302539040000800500000060092004200008490016009003070001250,642375819381924675795186342539647128824513967167892534253768491416259783978431256
050003604000070800628010007100006035049027080000300200087004900093000021506900700,751283694934675812628419357172896435349527186865341279287154963493768521516932748
000000500903028000086405901600000005020080470705932000300610009004000600001090324,417369582953128746286475931638741295129586473745932168372614859894253617561897324
080000401500900036010472000601050800029700103000090070008500090003080004754100260,987365421542918736316472985671253849829746153435891672168524397293687514754139268
450062310008040000020130050803021090001700260600590040000008900200400007730000106,457862319318945672926137458843621795591784263672593841165378924289416537734259186
630009008700010020540780019180000670000035400006001002309020004000400000270560103,631259748798314526542786319183942675927635481456871932369127854815493267274568193
800540060020003905690008007000010502000067143900000070710400309080002010030050600,873549261124673985695128437367814592258967143941235876712486359586392714439751628
046000102530000090000470680000852000820300500000600400092001003007009060100038940,746985132538126794219473685674852319821394576953617428492761853387549261165238947
000600200839042000600019500200400960004000007050031002020305601500080000013700480,145673298839542716672819534281457963394268157756931842428395671567184329913726485
030005904060300020700210500850020010106040002004860307402008070010679000080000139,231785964568394721749216583853927416176543892924861357492138675315679248687452139
004500002590030410002900860700000000010806020005040936020300050000008670809710003,674581392598632417132974865746293581913856724285147936427369158351428679869715243
800201900731060000500003400003700041009005003678030020164080000000902005020010870,846251937731469258592873416253798641419625783678134529164587392387942165925316874
002010000560028400180607902305002007070004030009060185400500703901000000800009506,792415368563928471184637952315892647678154239249763185426581793951376824837249516
090073100001058643000120080076080002580409300000000006950006200407300000260700901,894673125721958643635124789376581492582469317149237856953816274417392568268745931
005000010600750420300104009190002800500069700738000006000040080070006902004280603,425698317619753428387124569196372854542869731738415296263947185871536942954281673
604800070708901052025000000090060430070284106100000000050630009000007028300409560,614852973738941652925376814892165437573284196146793285251638749469517328387429561
010002054570460890030000001906070300320008000000509082008103506200900000450000170,619382754572461893834795261986274315325618947147539682798143526261957438453826179
200060380190300600004020075080000900030780010741900000000570091807103240600008000,275461389198357624364829175582614937936785412741932568423576891857193246619248753
070290016000504080900000200390800400500067030021030070040005120830700600050923007,475298316263514789918376254397852461584167932621439578749685123832741695156923847
930060204040070008000000593200948010079023000004001600607200030001500040000800702,938165274542379168716482593265948317179623485384751629657294831821537946493816752
010024035508300200400007081000956400200008067300010900007643000060080070000005390,619824735578361249432597681781956423295438167346712958957643812163289574824175396
070230050000090000852640001015008604704502000003000070927100460000000300130980005,479231856361895247852647931215378694794562183683419572927153468548726319136984725
205000030034000670061804000000065009009700426000201850170049500002050360800607000,285976134934512678761834295328465719519783426647291853176349582492158367853627941
908600100134800000000093002803000000010005084607020500002061070070009401500070269,928647135134852796765193842853416927219735684647928513492561378376289451581374269
140090000052830700000050390500608001091007820030000040007001560000400082810200009,143796258952834716786152394574628931691347825238519647427981563369475182815263479
500000016230907040800030700003025000060800237001004008090050104040260000007100980,579482316236917845814536729783625491465891237921374658392758164148269573657143982
700016900042805037960000004200309800000027000439000001300000750015700006000080023,753416982142895637968273514271349865586127349439658271324961758815732496697584123
009203000500060800004000071000320050020001098100057604090006500008400703230810006,819273465572164839364589271946328157725641398183957624491736582658492713237815946
875030100090000042000060500540900803300007020260081004980054600004018000006200007,875432169691875342423169578547926813318547926269381754982754631734618295156293487
600050804009674000300900000420000708000001523008760010103800006070390250900045000,617253894289674135345918672421539768796481523538762419153827946874396251962145387
080007000000394060302680190058000014000020000671003500809000730004070005005108002,986217453517394268342685197258769314493521876671843529829456731134972685765138942
070165020009000450031400807200803000050079000403600090740000039000080600905027008,874165923629738451531492867297843516156279384483651792748516239312984675965327148
109000000023740605400530800905000070030000004781020009090050402002016030000800067,159268743823741695467539821945183276236975184781624359698357412572416938314892567
380700090502034670061000008000408503006073400000090020005000000479510800100006002,384761295592834671761259348917428563256173489843695127625387914479512836138946752
000200900010096003020301708150702390600015000400908050809000600030040802007100040,386274915715896423924351768158762394693415287472938156849527631531649872267183549
000050000084200030370000204000804106102700500630100090490060052000070000520901308,216453879984217635375689214759834126142796583638125497491368752863572941527941368
000600058874200060100039004029715000640028000000000030080003600701060409005004072,293647158874251963156839724329715846647328591518496237482973615731562489965184372
002006108000072304100403096850904061720030000049050000090807002080000400306000507,432596178968172354175483296853924761721638945649751823594817632287365419316249587
007640000000003907908000020000060052001400300030105090509807006100920045206010800,327649581415283967968751423794368152651492378832175694549837216183926745276514839
709560040580300170030000002240790500900002860071030000410070000805209010000008406,729561348586324179134987652248796531953412867671835294412673985865249713397158426
801500004040200306200780001014009000529408000307006200000000058000035060906000107,891563724745291386263784591614329875529478613387156249432617958178935462956842137
210040080000900470040000609021008007067025300800700050006003015008090030350014090,219647583683952471745381629521438967967125348834769152496273815178596234352814796
700060095003007128010803004840005003000020060006000000501309700090400830000700200,784261395963547128215893674842675913359128467176934582521389746697452831438716259
204090000160008270305060004001070050040802096000143008090004302030017000600000500,284795631169438275375261984821976453743852196956143728597684312432517869618329547
040897005001024608200310090504080300307602800000700021900000100000460507050003060,643897215791524638285316794524981376317642859869735421976258143132469587458173962
003500042809010500700002010047089060508000703000065820390120006006090000000004070,613578942829416537754932618247389165568241793931765824395127486476893251182654379
032810409507020000000009006021005060008090073005400810040076200010350000006000008,632817459597624381184539726321785964468291573975463812843176295219358647756942138
407006590000000001030250480001580709800023100640001028008000240200370000090000076,487136592952847631136259487321584769879623154645791328718965243264378915593412876
060008030809047610045020008204000000037006580000900107650070000108204000002103090,761598234829347615345621978214785369937416582586932147653879421198264753472153896
