010970004054001290006000850093042006700080430080030000007006005020008100530290070,218975364354861297976423851193542786765189432482637519847316925629758143531294678
003000210170009504204830000010000806300004759980700040502070600060005300700092000,693547218178269534254831967417953826326184759985726143542378691869415372731692485
608500900902007400050190070301960040000020050000408160009004286020030000867000010,678543921912687435453192678381965742746321859295478163539714286124836597867259314
700150603030672500040080000008900740060700920200008010987005100100200039600000000,792154683831672594546389271318926745465713928279548316987435162154267839623891457
700280090060040050280019000510700960006400000400005302109023006008050703020600800,753286491961347258284519637512738964836492175497165382179823546648951723325674819
060001500417300900000700024000900402032010090800053600071006008305080700620490001,269841573417325986583769124156978432732614895894253617971536248345182769628497351
002007010001803005630090080095300708020100460300200000079406032006005107400000500,852647319941823675637591284195364728728159463364278951579416832286935147413782596
000916502709020800000500300400000030002100060861007409900040085008350120070601000,384916572759423816126578394497865231532194768861237459913742685648359127275681943
006000814812400056053000700609300070000725001001006402008250900040010007030890000,796532814812479356453168729629341578384725691571986432168257943945613287237894165
004500100000098070903064200010059306090003854400020000052000640000370000180000902,824537169561298473973164285718459326296713854435826791352981647649372518187645932
800000010006074000003000905100006740080095020002080003054321800270500006901700004,829653417516974382743812965195236748387495621462187593654321879278549136931768254
120406003050027009000000810075300084410090030008070050600950700900008600047012000,129486573853127469764539812275361984416895237398274156682953741931748625547612398
004010007370405800056003904000900030000004075002860090009780000210006000080520100,924618357371495862856273914147952638698134275532867491469781523215346789783529146
000601300008040057965300200750000006300005124409800070812900000500032008000007900,274651389138249657965378241751423896386795124429816573812964735597132468643587912
005090700783020060001304502109200000042060050000003097600080000200045613500009004,425896731783521469961374582179258346342967158856413297634182975298745613517639824
002700000430080005005002049180500600040009270007060001009205308060301400300670012,892754136431986725675132849183527694546819273927463581719245368268391457354678912
004100576000390100200000000360500087040970001050002940620080300100006004000005062,934128576576394128218657439369541287842973651751862943627489315185236794493715862
800120640070380000601000000010560084700200160000407932340000010006709500259000000,893125647475386291621974358912563784734298165568417932347652819186749523259831476
009010075820090300007305600200604000040270009006130080500820010063500700000007403,639412875825796341417385692298654137341278569756139284574823916963541728182967453
006037000504109080310856020000201306007980100040000050000000400000578090821600000,286437915574129683319856724958241376637985142142763859795312468463578291821694537
607048001190500200050030460020010076400020030006300802002903008000700050870051009,637248591194576283258139467325814976489627135716395842542963718961782354873451629
000004230019000000200000896058000007003048900074900602000260058061003000000157400,786594231319826574245371896958612347623748915174935682437269158561483729892157463
200306591000208074940005000000001030073000050150470009000034000890600002500020786,287346591315298674946715823629581437473962158158473269762834915891657342534129786
000018600900500007701096300030000926800009100060204008427300000308100005005087040,243718659986523417751496382534871926872659134169234578427365891398142765615987243
002170300300000900410069085000200790280400000095006140009643050070080020030750600,952178364368524971417369285643215798281497536795836142129643857576981423834752619
700040016000600903300108070406030000001209750050810002009520040203000007580903060,795342816148657923362198475426735189831269754957814632679521348213486597584973261
000508304062900070503070019310200000809037200000040006070080000120090560005100048,791568324462913875583472619316259487849637251257841936674385192128794563935126748
200050001486000002017008600908010065000007030350000940062085010100620079003040000,239456781486179352517238694978314265624597138351862947762985413145623879893741526
000830005014005200900002780200000500000086001003700040040160038069000004170940000,726839415814675293935412786281394567497586321653721849542167938369258174178943652
800600409900002507700004028008400951000008030530960704060030000040017602009500100,823675419914382567756194328678423951491758236532961784167239845345817692289546173
600000010005000007047903002903068020104009003058070160090482500006700204030000080,629547318315826947847913652973168425164259873258374169791482536586731294432695781
010040002000158600430700900008035097000409800020070046964002050100000003700080010,816943572297158634435726981648235197371469825529871346964312758182597463753684219
000040000506970208012053400001005023239800070700100006090300180084000700000006059,973248615546971238812653497461795823239864571758132946695327184384519762127486359
000036502900000000732009100200890604400002008080450073001000069307100000064027080,148736592956214837732589146275893614413672958689451273821345769397168425564927381
380069000904300000000074200037000508005000010801000647000106930620003400100920705,382569174974312856516874293437691528265487319891235647758146932629753481143928765
970460800200000534005000700000130000408059006500070912000008003309640250127000000,973465821261987534845312769792136485418259376536874912654728193389641257127593648
000009018045083002001000093000000205180054700074020080720600004009001000008075936,237569418945183672861742593396817245182354769574926381723698154659431827418275936
000000200680500030590030184007040000800000962231005008000900047000367000308210005,713489256684521739592736184967842513845173962231695478126958347459367821378214695
104005080000000701700630905307068500041000600050902100600420009008070230093006000,164795382539284761782631945327168594941357628856942173675423819418579236293816457
080000706001080000976000500002398000100007050008615003030060902609020400045001038,384159726521786394976432581452398167163247859798615243837564912619823475245971638
870000400006005810021900003500309007017004009200610500049506300300200070000000048,875132496936475812421968753584329167617854239293617584749586321368241975152793648
031009507060030400200001090009800050615907300002004009040710008700005006000406020,831249567967538412254671893479863251615927384382154679546712938728395146193486725
000100400600008079159300020005030900000059607706200004200910048007040563008060000,872196435634528179159374826485637912321459687796281354263915748917842563548763291
070164009192700600003005807000000000809020160601000043057013000900450008004900020,578164239192738654463295817735641982849327165621589743257813496916452378384976521
030700002040268900700050100801096503000000209079005086090340800206001300400000000,938714652145268937762953148821496573654837219379125486597342861286571394413689725
000700060450008000000419008703900040200005016008006903001060004300807020026130095,182753469459628137637419258763981542294375816518246973971562384345897621826134795
800600000052071406074000000060057218020100003000048090900002004037015000000830502,891624357352971486674583921469357218528196743713248695985762134237415869146839572
000075038000000420973040000007830600260001000045000009012050006700906013009087005,421675938586319427973248561197834652268591374345762189812453796754926813639187245
060000002098030450540006030207109043000020610800070000100007008905602000073054200,361945782798231456542786139257169843439528617816473925124397568985612374673854291
005800029400060000380021400002400600000700154500080070700050030000910806960003005,615874329427369581389521467172435698836792154594186273741658932253917846968243715
306052004000800090020704100900048016570020080604003000000305900790000201105000368,316952874457831692829764135932548716571629483684173529268315947793486251145297368
003580006916002000480010700000005879094300015607800030300009200000060001020070904,273584196916732548485916723132645879894327615657891432361459287749268351528173964
000800601700403820020591740009000070100004000503007098037156000048020000050000936,394872651715463829826591743489635172172984365563217498937156284648329517251748936
304900000000000708067050400513200000090040183000060002200008009800427506751390004,384971265125634798967852431513289647692745183478163952246518379839427516751396824
030900548042086019010000000600510080305204060000008400900060200100490057027003100,736921548542386719819745623674519382385274961291638475958167234163492857427853196
000005638506000094420009010052004806007801040009060003018027060300508700000400001,791245638586173294423689517152934876637851942849762153918327465364518729275496381
095000004600008000007940201062034000513060700000001800908020060400685920050100070,195372684624518397387946251862734519513869742749251836938427165471685923256193478
000900000053000080006507324000700000209803061084061007002400508010009246600100790,421938675753642189896517324165794832279853461384261957932476518517389246648125793
900067801000039520507004030230650000000000000485001900190080203000043070070200006,923567841846139527517824639239658714761492385485371962194786253652943178378215496
030091064200008530005003807004000900570000046109706005040300028600020709700600010,837591264296478531415263897364815972578932146129746385941357628683124759752689413
160080090000305080507040002800090700700400913014670000090002058300100060625000400,163287594249315687587946132832591746756428913914673825491762358378154269625839471
980000037004086200000007001508400300037500004002039000053004078600001000000050690,986215437714386259325947861598472316137568924462139785253694178679821543841753692
005710020003009000800302960164000032700006500000204800900600047310080000027950001,695718423243569178871342965164895732782136594539274816958621347316487259427953681
061300529704000008002890410100000002080965040009100380000500103000023006500007000,861374529794251638352896417145738962283965741679142385426589173917423856538617294
200003147003010809860007050020000003500479008140000000700200630094800021010060000,259683147473512869861947352928156473536479218147328596785291634694835721312764985
016000500020509400080060007039004000270801600008900071400750290000042756000300080,916487532327519468584263917139674825275831649648925371461758293893142756752396184
009080630007010200430005007600572000300000700040090081053609074120008000000004850,219487635567913248438265917681572493395841726742396581853629174124758369976134852
201300400004090060076005000097500610000719305002000080000407950080060140409002803,251376498834291567976845231397528614648719325512634789123487956785963142469152873
069140000270006014500809300402010007180037000005900200040000082000003609627508000,369142758278356914514879326492615837186237495735984261943761582851423679627598143
012095000500600008008034072400300000307000065180450020009700806004001000000026903,712895634543672198968134572425369781397218465186457329259743816634981257871526943
020008005105070000060000394008100000500829000319046700004903260000002048650001007,423698175195374826867215394248137659576829413319546782784953261931762548652481937
009620001502007890000030007000000000051064230087503004040072683090000050003408700,879625341532147896416839527364281975951764238287593164145972683798316452623458719
008015000930002067700000458500060000060070390080451000201900073006000204470100009,648715932935842167712693458527369841164278395389451726251984673896537214473126589
000060000308027005042905801105074006009308504000000013203186000470090200500002000,957861342318427695642935871135274986769318524824659713293186457471593268586742139
029040070840005900100007300904030806005000127000001000073960008000023005291078040,329846571847315962156297384914732856635489127782651439573964218468123795291578643
009476030800900050710800602350007004002018000000500203070030105160000040203090008,529476831836921457714853692351267984492318576687549213978634125165782349243195768
094500016000002058700001300000200030305700601068005009000403000106020047027100980,894537216613942758752681394971264835345798621268315479589473162136829547427156983
080000000400180520023400076008659100060003900500040307900200004731000080002901600,685327491497186523123495876378659142264713958519842367956238714731564289842971635
690400030008760005020531000070600080002005090461082070050390002013000946007200000,695428137138769425724531869579643281382175694461982573856394712213857946947216358
000020900490701080083950017042007001500000830001090004070040056000036400000108293,716823945495761382283954617942387561567412839831695724378249156129536478654178293
020008015008000930407090006002650097070003002006200580090001260050300409804007100,629438715518762934437195826182654397975813642346279581793541268251386479864927153
020730000608050000009081506010304070986000005030008102000270040754600008001009300,125736984648952713379481526512364879986127435437598162893275641754613298261849357
018000007500072060042506100000048600350900002004600009073091050000200300060700984,618439527539172468742586193927348615356917842184625739473891256895264371261753984
008270050603100800000005390090036720072000008000000041029408000300700200105090060,948273156653149872217685394491836725572914638836527941729468513364751289185392467
080063100050700600039080042000046200105020003700900050004018009900300080360209070,287463195451792638639185742893546217145827963726931854574618329912374586368259471
806049003710030580050010000060300025000021079300700000074960008001002000900008042,826549713719236584453817296167394825548621379392785461274963158681452937935178642
004010302000308090008006041900182700400005000700030156003970200200050019060801003,694517382125348697378296541956182734431765928782439156813974265247653819569821473
605902000081000002700040380049300050008000060300025410900410006007030001200560937,635982174481753692792641385149376258528194763376825419953417826867239541214568937
004008002900005410820700093009004006002037100050860370300100040065000080000259000,514398762973625418826741593739514826682937154451862379397186245265473981148259637
086700094000003001750290000100040076029070500004060302900408000007036000240050089,386715294492683751751294863138542976629371548574869312965428137817936425243157689
063507900201030070009000304000004208437080050600100090098000702000090540500312600,863547921241936875759821364915674238437289156682153497398465712126798543574312689
100680000009002700820010004003001405072590830060300070094000302050700096300800500,145687923639452718827913654983271465472596831561348279794165382258734196316829547
790800400000000052801005006600040000072900000930261080000004010000610375203080904,795826431346179852821435796658743129172958643934261587567394218489612375213587964
000000843000267905910000000500008007023006000890310200086031409000700056104002730,672159843348267915915843672561428397423976581897315264786531429239784156154692738
000490030001063804204701609406000000780050206090008100000379000600200078350040900,865492731971563824234781659416927583783154296592638147128379465649215378357846912
003800097700060002201590400040039600050000203008406001009008104070005360604020008,463812597795364812281597436147239685956781243328456971539678124872145369614923758
190004650050300107004060398006580210042030005700600030080710020307000000000200900,193874652658329147274165398936587214842931765715642839589713426327496581461258973
803000061007804509000015070000900258409070000062300000100203640040067082900050100,853729461617834529294615873731946258489572316562381794178293645345167982926458137
100400080002030017804100300060000900379060002001704503500007800000320006700509204,137452689652938417894176325465213978379865142281794563523647891948321756716589234
043090605900805300710000000060100904400087030082600007279050018100024000000010509,843291675926875341715463892567132984491587236382649157279356418158924763634718529
