600500810010008000800140300090006045302010007540002080005079020030000906027084000,674523819213968754859147362791836245382415697546792183165379428438251976927684531
000639000420007050600000981002000100800460709096051020000003504070580000013720006,185639247429817653637245981342978165851462739796351428268193574974586312513724896
020040308004902700005610900000003670300150004102007090470001020081006050906080000,629745318814932765735618942598423671367159284142867593473591826281376459956284137
900070080046958070010030005004509230263400500080600010098062000752301000000000004,925174683346958172817236945174589236263417598589623417498762351752341869631895724
160020095004000700700849020000400072000906503853000000500703080091050040380010600,168327495924561738735849126619435872472986513853172964546793281291658347387214659
400860007027001408530040120000510002080007600940003050001005000390000800006970300,419862537627351498538749126763514982185297643942683751871435269394126875256978314
050431902307000000000006805180000060403058090600002703009000300008005140010970050,856431972327589416941726835182397564473658291695142783569814327738265149214973658
870050000009060020400203900290370800050040100000001630006124750307000006010600098,872459361139768524465213987291376845653842179748591632986124753327985416514637298
000900456600280090003000000007005060540670002801000740070420008098051003020030500,782913456654287391913564287237145869549678132861392745375426918498751623126839574
260003700007500000040009081000000560005036009001708040029045010030820054100900803,268413795917582436543679281372194568485236179691758342829345617736821954154967823
700080050020095007100000403040006780080450900605000120002003560000608009300017200,793184652426395817158762493941236785287451936635879124872943561514628379369517248
710004500006002041300601000180700004050009630002040090960107080000003725003080006,718394562596872341324651879189736254457219638632548197965127483841963725273485916
700140000080703960056080104041020000035407000870000509090005603003069020200010800,729146358184753962356982174941528736635497281872631549498275613513869427267314895
000910530900200108006507020080305000201004800037020046003060204700001095400000370,842916537975243168316587429684395712291674853537128946153769284728431695469852371
090300820070010900436009500940070080008001642000005107000000003564200010087046050,195367824872514936436829571941672385758931642623485197219758463564293718387146259
002017040480500003001480605503008000007031908000200060900706200800000734010020500,652317849489562173371489625563978412247631958198254367935746281826195734714823596
081700000709500430040006208500801000603000090090304007028607045000052009107000360,281743956769528431345916278574891623613275894892364517928637145436152789157489362
000007038300201009809060024000102870050490000018603005032004500640500001005000903,521947638364281759879365124493152876756498312218673495932814567647539281185726943
106000532007201406800000090672008050040900000903070008000435020081060300005102079,196847532357291486824653197672318954548926713913574268769435821281769345435182679
320700600016000080948000035530070490000902300600103008007609000004020156000005200,325798614716534982948261735532876491481952367679143528257619843894327156163485279
010700602040850090007400010890200406301000700000006005276080900003005001000003874,518739642642851397937462518895217436361548729724396185276184953483975261159623874
179000050560708003008400000057020000800106200000003409702001006046250908010600030,179362854564798123238415697457829361893146275621573489782931546346257918915684732
004900001135007020200000780680050300000028675700000410000019060308400200906300000,874962531135847926269531784681754392493128675752693418547219863318476259926385147
000047000083050046007100230004600103900730000600008000890201054020005970400090601,269347815183952746547186239754629183918734562632518497896271354321465978475893621
300080500040205008001007009400830700026900000003064150090000060507090230208106040,372689514649215378851347629415832796726951483983764152194523867567498231238176945
050089010006040800904200000801002007400070583070060900000097002047006030010350068,753689214126743895984215376891532647462971583375468921638197452547826139219354768
000100075570090002200000349900061000648307000305000080003000468106078203000900100,839124675574693812261785349927861534648357921315249786793512468156478293482936157
008500409000006150720490006040005000051003980000602003013200600206070090090308004,168537429934826157725491836342985761651743982879612543413259678286174395597368214
050040907001070305400100000002005893805000000107360000063980520008400000900036001,356842917281679345479153268642715893835294176197368452763981524518427639924536781
704005000200900680060103009470650020800009403010000070000000250050071000600090304,794865132231947685568123749473658921825719463916234578149386257352471896687592314
060008001089700006004390020020070600090801300300540000630420905000005008510000740,763258491289714536154396827821973654495861372376542189638427915947135268512689743
690028703000709600000050048702000406500300100308001007006040050001007800850036209,695428713483719625127653948712985436569374182348261597976842351231597864854136279
000054070060100089403600020305400017070080906029030004006800300001002095700540000,218954673567123489493678521385496217174285936629731854956817342841362795732549168
700002903016039400300800050000060100003008074050270009809500001470000290005104600,748652913516739428392841756987465132623918574154273869869527341471386295235194687
001800430900052000760009100003006015126000007000004800480390020070008501600725080,251867439934152678768439152843976215126583947597214863485391726372648591619725384
050048100021005703970020006000371000640000000000690802800010030200859070005007490,356748129421965783978123546582371964649582317713694852897416235234859671165237498
000000294900057100603004800000360050000000420007089060190040083708100600546230700,875613294924857136613924875481362957369571428257489361192746583738195642546238719
005080006060700291940300000103204057002006008400010300807050900020079080030600004,275981436368745291941362875183294657792536148456817329817453962624179583539628714
030079020054680000910502300840000900502300070000010506076050004080400003000900107,638179425254683719917542368841765932562394871793218546376851294189427653425936187
002346800050002036000700009901000280000970040036080051070009000620015000500800304,192346875857192436364758129941563287285971643736284951478639512623415798519827364
902085640010000030078309050023890000860000700509010063000063591004008000000700200,932185647415672938678349152723896415861534729549217863287463591154928376396751284
600000001070000830340517009900081600050930040120600003080350002010028090005090370,692843751571269834348517269937481625856932147124675983789356412413728596265194378
000150002000023580600008040030210650006030809002004071007000000050740900841600037,384156792179423586625978143738219654416537829592864371967382415253741968841695237
340509100010420805000000090062001530901007008000060702004080960000350007807100400,348579126619423875275618394762841539951237648483965712534782961196354287827196453
090300870008005000100072094203008009057000130940506020510647002300100050700000960,492361875678495213135872694263718549857924136941536728519647382326189457784253961
139065002800100000020049308390200050000058036008006700000520040901000023500400100,139865472874132965625749318396274851417958236258316794783521649941687523562493187
031009056900000802007250001306740010000010080070605900820100500000364000600080749,231879456965431872487256391396748215542913687178625934824197563759364128613582749
020470905890000000004501028041060030030005072000009510019830004000002600367000000,123478965895623147674591328541267839936185472782349516219836754458712693367954281
490000306006500210000830000003200070000048000170069548901007063030010004720000950,495172386386594217217836495843251679569748132172369548951427863638915724724683951
504080100301600790000002060000040000030509042100273600605300001000700200087460905,564987123321654798879132564952846317736519842148273659695328471413795286287461935
430100500005600109008320070010408900670000080009050002007061050003002700200903046,436197528725684139198325674512438967674219385389756412947861253863542791251973846
040000600609073021710009030400500300050930076200807400000062980025040000108300000,543281697689473521712659834497526318851934276236817459374162985925748163168395742
901300000020000065057008900300000010500836400796001020030205008000400190008069307,961357284823914765457628931384792516512836479796541823139275648675483192248169357
329004070040006005700308010012000008060702540507000960805060000090040000000190603,329514876148976325756328419412659738963782541587431962835267194691843257274195683
000700001020034600815000370002840009008902100603000002000005700036090008009216050,364758921927134685815629374172843569458962137693571842241385796536497218789216453
093800070004600028072045600010069700000104003020030501000080000061973040700002950,693821475154697328872345619315269784987154263426738591249586137561973842738412956
060030090204507600000004710078000000501080324000049008300010006050002000980060130,765831492214597683839624715478253961591786324623149578347918256156372849982465137
030080400600200100090400257000010080304600090016007500900070000075030012081940603,532781469647259138198463257729514386354628791816397524963172845475836912281945673
200504300806300705700018490054000023070060100103000080000000070009850006500492001,291574368846329715735618492654781923978263154123945687482136579319857246567492831
200040007800100690094830000700008502030962010000000460007056003010790800040300006,251649387873125694694837251769418532435962718128573469987256143316794825542381976
000940000600030200100070985700065400082007003900000102008304607007809310041000050,825941736679538241134672985713265498482197563956483172598314627267859314341726859
004200908209075400503004060000010072900800601000003540002090005000048700730006100,674231958289675413513984267356419872947852631821763549462197385195348726738526194
500040002210009670007000190004360000020400080003905007049603020060002500050710008,596147832218539674437286195174368259925471386683925417849653721761892543352714968
008000050000060249400913607960800403700002160053700008000405090240007006030000800,698274351371568249425913687962851473784392165153746928816435792249187536537629814
600534002009600050070000804010306090000820001300007600205001000040950010090082730,681534972429678153573219864812346597967825341354197628235761489748953216196482735
504020100000080640078100093003004958100900006082700000401003000000060539050002070,534629187219387645678145293763214958145938726982756314491573862827461539356892471
203004070490006050000870230000027500060000702000105803018000690500098001002360000,283514976497236158651879234834627519165983742729145863318452697546798321972361485
840030000003001005560008072007409050120006000405070600019804007000200089200095160,842537916973621845561948372637489251128356794495172638319864527756213489284795163
009270050700080100028001004004903801860400003500000000900100032630009700045002000,419276358756384129328591674274953861861427593593618247987165432632849715145732986
000000319096017050230045000009072100000003060520080040018700600045009730000056008,754268319896317254231945876469572183187493562523681947918734625645829731372156498
037801090000040020200509000086000007000906301400052009005164000029305180300000670,537821496198647523264539718986413257752986341413752869875164932629375184341298675
026583000400600008001700020000098010005060209340000007900000301030024570604100080,726583194493612758581749623267398415815467239349251867952876341138924576674135982
060004109000100800580073020970040083103000964000020000600800040200007601304290050,762584139439162875581973426975641283123758964846329517697815342258437691314296758
908072000004000000000083150860004072107300600250009800001900087000040006700215930,918572463534691728672483159869154372147328695253769841421936587395847216786215934
008003450000009063790004800300040901170000005800160020010000508005370000406820090,628713459541289763793654812362548971174932685859167324217496538985371246436825197
040025718907080026000001000034000000580006309009200140000800000250019600601403007,346925718917384526825671493134597862582146379769238145473862951258719634691453287
800500020025060001030420007980000000061030080007001359004003900700004600092870040,876519423425367891139428567983745216561932784247681359614253978758194632392876145
067100095820940007051080000000720068086003000205001300009500203348006100000090040,467132895823945617951687432134729568786453921295861374679514283348276159512398746
000140603090007005084605000006030902043050000200800030060070810100009500075201046,527148693691327485384695271816734952743952168259816734462573819138469527975281346
250830004000500780000012390590041000036050020004003071705000018300009000081600040,259837164413596782678412395597241836136758429824963571765324918342189657981675243
009140070504070300080903002007009086326004150100005000600500908010068003070200500,239146875564872391781953642457319286326784159198625437642537918915468723873291564
800020053009608200000010009090100002041250008057000460020500040005306000064090130,816429753579638214432715689398164572641257398257983461923571846185346927764892135
309400070000028400600000905400605012901002000050030600140370080008061590006004700,329456178517928463684713925473695812961842357852137649145379286738261594296584731
050000980000340200200860400610004800702900003009006001043000070806570000090012000,354127986968345217271869435615734829782951643439286751143698572826573194597412368
530040007002007000040901850605002049020780300170405000407800002000060908000003061,539648127812357694746921853685132749924786315173495286467819532351264978298573461
300520000400003500206104790097001400580600000000070260003008070801050002040960031,379526184418793526256184793697231458582649317134875269923418675861357942745962831
035904000000080010860032004309000071200005000000700508080407023040050090001860705,135974682492586317867132954359648271278315469614729538586497123743251896921863745
000498102000060300096001570200800000085070600070900410009003005104200730360045200,537498162412567389896321574241836957985174623673952418729613845154289736368745291
021003940900170000060000805700804206040200050800067130039700000400001060050090302,521683947984175623367942815715834296643219758892567134239756481478321569156498372
410000080260009430000730010502006870830072040000580900700450000009060307080100060,413625789267819435958734612592346871831972546674581923726453198149268357385197264
900200070078540001035600900000018090004005627300400000153002000080097360000000802,941283576678549231235671984526718493814935627397426158153862749482197365769354812
000039000781002090060004572500090000038100200970300406803005600026000705000021080,245739168781562394369814572514296837638147259972358416893475621126983745457621983
000507090309102006002400801000300007040006250180079030930000460650008000407005010,814567392379182546562493871296354187743816259185279634938721465651948723427635918
600900300700406901350002070000089400836000002002060107040078005080590010007100040,614957328728436951359812674175289463836741592492365187941678235283594716567123849
068700400040008720030940005107032008400009300000005249000000060050010907209083010,568721493941358726732946185197432658425869371683175249314597862856214937279683514
002108940705009680000000003500060020007040001098073460230510000806002010400007039,362158947715439682984726153543961728627845391198273465239514876876392514451687239
200030067010000408300060950900048710060500200405190000000206803508007009002300000,259834167716925438384761952923648715861573294475192386197256843538417629642389571
502000090000003068008019037310850029000000456490700800750036000069200001100007000,532678194971423568648519237316854729287391456495762813754136982869245371123987645
100009370203000906700805000600018002001300098040070600809406001002083500005200047,184629375253147986796835124637918452521364798948572613879456231412783569365291847
400090350038001900006705000052000090000300510000027004609800071207046800300102400,471298356538461927926735148852614793764389512193527684649853271217946835385172469
