030210068500007092070608500000401070200900304001000800486050007019030400005760000,934215768568347192172698543893421675257986314641573829486159237719832456325764981
008301000941000600700940005435807001000002860006130000800290000600073090002000574,568321749941785632723946185435867921179452863286139457857294316614573298392618574
003007800890400030516030007002390500070000906085600010000908000009001402400260701,243517869897426135516839247162394578374185926985672314721948653639751482458263791
268040009300080010009507003040010000005902800870000096600075308020000540001034007,268341759357689412419527683946718235135962874872453196694175328723896541581234967
480600507020410300076090002007320018040500639009004000203080054000701803050000060,481632597925417386376895142567329418142578639839164275213986754694751823758243961
807000004200070650000009081900020003106803072000064905020106000508040100040302007,897615234213478659465239781974521863156893472382764915729156348538947126641382597
972004800600530010003070206000709502000000081809006400020000354408060000705300020,972614835684532719513978246341789562267453981859126473126897354438265197795341628
700000080090070100002530009006054301200006000035900807501800600043210700009603002,754169283398472156162538479986754321217386945435921867521897634643215798879643512
000035070087600000000104200900001060000080754304200009010506900002700430046090805,429835671187629543635174298978451362261983754354267189813546927592718436746392815
094560080100200004000030621036070100052090070470005908700600009348009000000013700,294561387163287594587934621936478152852196473471325968715642839348759216629813745
500002908097060040806014053108500070000007200205300600000600031030050400409100820,514732968397865142826914753148526379963487215275391684782649531631258497459173826
000570302013800005000062980309000850008459000400000007720000010904020036000708500,896571342213894675547362981369217854178459263452683197725936418984125736631748529
200795030001800602000060005004500060000340007910070800040003000802010096760020450,286795134591834672437162985374581269628349517915276843149653728852417396763928451
002060390083405000760000100930000080048100700005800061017006920590003610000007004,452761398183495276769328145931674582648152739275839461817546923594283617326917854
500904800020001060964700030102000703000815090000070400409030107075020609006400050,531964872827351964964782531152649783743815296698273415489536127375128649216497358
642000500090050000300900670000069001760003040004700200080132900259004100003800006,642317598897256314315948672528469731761523849934781265486132957259674183173895426
094000105200900030800021700089067000470300006600005800060052080000013560102008047,794836125215974638836521794589267413471389256623145879367452981948713562152698347
820700000009006350000010800503248010001600540900030060600820107738005600400000900,826753491179486352354912876563248719281679543947531268695824137738195624412367985
410700200000050030325600800942070508000008000860200901000000045100026009597003010,418739256679852134325614897942371568751968423863245971286197345134526789597483612
020050001000690407903080600700013204460800000000700500016009305097500026240100800,624357981581692437973481652758913264469825713132764598816279345397548126245136879
002700004580002060000081095003040009096003402400106070070604350030029001801050000,912765834584932167367481295753248619196573482428196573279614358635829741841357926
260800094070100200030004060305090002100650009040002780600705800408200900002006003,261873594574169238839524167385497612127658349946312785693745821458231976712986453
000026008030700100501009074870200406400031950100600000390570600700460302082000000,947126538238754169561389274873295416426831957159647823394572681715468392682913745
082500400030060180501840000940037062008050009100200700000000906320090570700316000,682571493437962185591843627945137862278654319163289754814725936326498571759316248
008100079005036002240050610004000180010704300593008000900283400060000950007500000,638142579175936842249857613724395186816724395593618724951283467362471958487569231
090005078138002009470090000006008000000600023200100054900046100050000730001587092,692415378138762549475893261546238917719654823283179654927346185854921736361587492
051209400007000058326000007280060005000340910000000080003100006000800740040792500,851279463497613258326485197284961375765348912139527684973154826512836749648792531
000109278710600000005804030100060040089020000030987010407000350051300907920000600,346159278718632495295874136172563849589421763634987512467298351851346927923715684
005402903700050460201300000600080291009004050000130008052910800000060570300008000,865472913793851462241396785634785291189624357527139648452917836918263574376548129
300579400400800570008200060070001645000300008900007003560000000100048200024703910,316579482492836571758214369273981645641325798985467123567192834139648257824753916
107049008000600320064050071000900006630070512045000800580060009700401060010002003,127349658958617324364258971871925436639874512245136897582763149793481265416592783
002080100013060705006009020059700084000000300120040006090300040060095802000001570,942587163813264795576139428359716284684952317127843956295378641761495832438621579
004005002060800010510073600020080000100790050946002001080250076007600439000000800,874165392369824517512973648725481963138796254946532781483259176257618439691347825
010600085038002704700390100080570000920001607500904003400000902072000031006015000,219647385638152794745398126183576249924831657567924813451783962872469531396215478
200637009005080004061900720806000070092745030040200001400000103007801005500000690,284637519975182364361954728856319472192745836743268951429576183637891245518423697
190508407600041900028000000009003000080006725561200008000069040005100806700000030,193528467657341982428697153279853614384916725561274398832769541945132876716485239
800700030040609508020000906900000300000508060700046029004005200005800793380102005,896751432143629578527483916968217354432598167751346829674935281215864793389172645
400070080000000219951600040036200000000908051090400703000005400074301068602790000,423179586768543219951682347136257894247938651895416723319865472574321968682794135
000015860580900007007030009600071400093204080120600050070008941009000230210000008,932715864581946327467832519658371492793254186124689753376528941849167235215493678
750060000041073080003000450200001009075039000180050020020097003004008090600040012,752864931941573286863912457236481579475239168189756324528197643314628795697345812
057030804800000970006100000903004007005210690000050301160002080074608050020070009,257936814831425976496187235913864527745213698682759341169542783374698152528371469
810040060025000300006598000507200109048006073100000500000000914200901000700083002,819342765425617398376598421567234189948156273132879546683725914254961837791483652
009061570501430000630002900105020600007908140480003000820007005000000490000005807,249861573571439286638572914195724638367958142482613759824197365753286491916345827
400207903000610050208030000310800004000150080006400200097000308002396710005000406,451287963973614852268935147319862574724153689586479231697541328842396715135728496
400006070007094310050280600380941000009600001600000050510070260800050490072003000,498316572267594318153287649385941726749625831621738954514879263836152497972463185
000095060007801400020000380840000703010000090006703820300058102100602040090040005,481395267637821459529476381842569713713284596956713824364958172175632948298147635
001450830007032019900000006000008403530710000082060000005900102008007000624003095,261459837847632519953871246716298453539714628482365971375946182198527364624183795
900040107300070069008100000700001086005926000004500030020098001609300200087010400,956843127341275869278169345792431586835926714164587932423798651619354278587612493
008900070250000000307020891010008003604510720800736500020000000500300109400607050,148963275259871436367425891715248963634519728892736514923154687576382149481697352
000029453002010080006400700040008000507040390080032107803051000070960000000003026,718629453452317689936485712341798265527146398689532147863251974275964831194873526
058009600000057092009302000710508300306000049000400010003020870540080001097600050,258149637631857492479362185714598326386271549925436718163925874542783961897614253
038000600000024005560000009000300071453180020600259080890010700000875090041060300,238591647179624835564738219982346571453187926617259483895413762326875194741962358
004000670003049080051603000000300791000050000079108204600500900030001062425700300,294815673763249185851673429586324791142957836379168254618532947937481562425796318
702060930000780100513000700008602000609134050000000040450090086027400000390025010,782561934964783125513249768148652379679134852235978641451397286827416593396825417
900200300002007059517008600060072510040630020000000030008460007300700480009025100,984256371632147859517398642863972514745631928291584736158463297326719485479825163
025018000970002000000005409050340006100509248600000370008000630203706500004020190,425918763976432851381675429852347916137569248649281375798154632213796584564823197
120007005078030140050008039400060010080702900096500800007904006305001000000000200,123497685978635142654128739432869517581742963796513824217984356365271498849356271
100050700003840950902000600860710009000008400020300015280001067700005100004690003,148956732673842951952173648865714329391528476427369815289431567736285194514697283
700405800284600000051027003000003210009004050007500900402000081300000006008951400,763415829284639175951827643546793218829164357137582964492376581315248796678951432
970010300103020058058600002000082060000900084020004103031540009600009800000360070,972815346163427958458693712394182567517936284826754193731548629645279831289361475
002031050804000010050008072008096030020005094600420000000060000301500860509300001,972631458834257916156948372418796235723815694695423187287169543341572869569384721
000072006060590300075060901003006805900040020801300607107005000002134000030900508,319872456468591372275463981743216895956748123821359647197685234582134769634927518
010004290000650003037800000004067005908325100703000900000089060805000304002510700,516734298289651473437892651124967835968325147753148926371489562895276314642513789
050009230000850400691003000402108500307020068009070000130000604070035009008002007,854769231723851496691243785462198573317524968589376142135987624276435819948612357
304008250005034700060970080850000060001000593093020000020007001000600840700493600,374168259985234716162975384857349162241786593693521478426857931539612847718493625
107508020600010030005400000082000001300600549500090700010074000760209003400301008,197538624624917835835426197982745361371682549546193782213874956768259413459361278
000006704208970001060320900000000109410000500020809030005008200900450017603100040,391586724258974361764321958836245179419637582527819436145768293982453617673192845
700029100008060504600803090314002008065010270900600000002470900130050060000001005,743529186298167534651843792314792658865314279927685341582476913139258467476931825
028005004190000056703106900060804203040600000009300000200030015000527809080000070,628795134194283756753146928567814293342679581819352647276938415431527869985461372
000100020960030007400000805048760019007800003590000000030090008280340600015207000,853174926962538147471926835348762519127859463596413782734691258289345671615287394
480050006000760302007021090000600008600319250940005070050834100029000080030100560,482953716591768342367421895215647938678319254943285671756834129129576483834192567
001000004850300000300402908000083092200601700605079030040006017008020060109750200,921865374854397126376412958417583692293641785685279431542936817738124569169758243
000000080005010360496300500700001625100047800009520007070250400803000000004090012,317465289285719364496382571748931625152647893639528147971256438823174956564893712
320068050060020809090401000030080040500003200108050907756010000200097006004200010,327968154461325879895471623632789541579143268148652937756814392213597486984236715
003000070009280000020400986004100800250000019010706450406002500890030002570091040,183965274649287135725413986364159827257348619918726453436872591891534762572691348
000670230502000098009085700950100003063040109000008050210000000400030060080762010,148679235572413698639285741954126873863547129721398456216954387497831562385762914
000016054200890001506000900907630020005070080000041093009407500062000000000280037,893716254274895361516324978947638125135972486628541793389467512762153849451289637
041005000800200130095806270000500890006420000720030050000600507008000621000741009,241375968867294135395816274134567892586429713729138456913682547478953621652741389
050932001810500600730000040170020000000354012200008069400000000006013900000706580,654932871812547693739861245173629458968354712245178369497285136586413927321796584
703040502000908000040570600060000325090701000408000079300060010800205060600390400,783146592516928734942573681167489325295731846438652179359864217874215963621397458
100060500040002006070038100009053002403001980000470000804000005310200860625900040,132764598548192736976538124769853412453621987281479653894316275317245869625987341
060020840500100060870050009040600001100003007029004630000900200600035180083740050,961327845534189762872456319348672591156893427729514638415968273697235184283741956
201043900005200640300050001008630500090018027000000080004070009983460000702300005,261743958875291643349856271128637594496518327537924186654172839983465712712389465
000709040219400008500000306040503009098007620156008000001020700000000960460081053,683759142219436578574812396742563819398147625156298437931625784825374961467981253
010009430420510900007200605500400007000005109002080063850704020006000800090630001,615879432423516978987243615539461287768325149142987563851794326376152894294638751
306200008000600495000704000503009000020070601160500730001080324700050080094026000,346295178217638495985714263573169842429873651168542739651987324732451986894326517
090210007700050904106080503308070000200305000010096050005001280924000700030700600,593214867782653914146987523358172496269345178417896352675431289924568731831729645
807000020050073060034180700900210000060008510705309400009001006020400350003520070,897654123251973864634182795948215637362748519715369482579831246126497358483526971
007000004009006020010325007500914000043000080976500100020051063030702010800040005,267189354359476821418325697582914736143267589976538142724851963635792418891643275
000003904000510600027008100905200060634005008080040007006137050009060000308400000,561723984893514672427698135975281463634975218182346597246137859759862341318459726
508000610730090000010000087800050009002130070000700156000040000065300028480025391,598274613736891542214563987871456239652139874349782156123948765965317428487625391
820090705000050410001306002500200001073400200680709004004038029030901807060000000,826194735397852416451376982549283671173465298682719354714638529235941867968527143
500740800206105403070003009000050002003000190000602784800009036004020000100308507,539746821286195473471283659748951362623874195915632784857419236364527918192368547
020300074040800500100900230370460800500008106004010090800205901000007000469000002,928351674743826519156974238371469825592738146684512397837245961215697483469183752
600000100390080405008900007000310240056200700100046908017020360500003002002864000,675432189391687425248951637789315246456298713123746958817529364564173892932864571
081046030600007054700900008200300086006058109500090070000075060000809002347200000,981546237623187954754923618279314586436758129518692473892475361165839742347261895
079130000400290003010008006000821050080050740000400300500040061800000900301709004,679134285458296173213578496734821659186953742925467318597342861842615937361789524
000486000205000400070000309600293000480160250007000001100030080098002105006710040,913486527265379418874521369651293874489167253327854691142935786798642135536718942
000026000300007140607350800069074302015090080000800007028000501100500003000600490,981426735352987146647351829869174352715293684234865917428739561196548273573612498
004283005000090081902106000000015420500600109200907068030000070008400900650002300,174283695365794281982156743896315427547628139213947568431569872728431956659872314
