073000002209004800080000195000150706050003080302008004004076901600020047005019600,573981462219564873486237195948152736157643289362798514824376951691825347735419628
300507008056000090004081020740900006039200150005060800000003000090126007180040305,321597648856432791974681523748915236639278154215364879467853912593126487182749365
028010705930008100004069300470000003050092806002400070500803009006050000301640502,628314795935278164714569328479186253153792846862435971547823619286951437391647582
000001800857046000006720003000015009038900507400000021000037000060250098240600700,324591876857346912916728453672415389138962547495873621589137264763254198241689735
462000030007001006150800240000009400970060025084050700001070090300015004020003580,462597138837421956159836247215789463973164825684352719541678392398215674726943581
600004780030850006008109005950040000027003060410500020080001000500096800004700013,695234781132857496748169235953642178827913564416578329389421657571396842264785913
000000024400001670070300901850926700100040002003800060069037000047509000080400500,915678324438291675672354981854926713196743852723815469569137248247589136381462597
006708290000600040014005008005007320080200160670903000050082030901400705003000400,536748291798621543214395678145867329389254167672913854457182936921436785863579412
400006097690008423050000008160000300005003040709410200001500002280300700070809060,418236597697158423352794618164982375825673941739415286941567832286341759573829164
800012503702650000000000006500034090004000800069820105045063201100900704008000000,896412573732659418451378926587134692214596837369827145945763281123985764678241359
000800074500601290003050001036120080980060305075030040800007050020049600104200700,612893574548671293793452861436125987981764325275938146869317452327549618154286739
000408005510003600603100270004905100029806000006070004201000780900002050000310906,792468315518723649643159278874935162129846537356271894261594783937682451485317926
094007201100080006003502400057203080009005300060970004000100905042000000080350670,894637251125489736673512498457263189219845367368971524736128945542796813981354672
008001035093800600705200090002070000160590300000106402257008000040030218000400000,628941735493857621715263894582374169164592387379186452257618943946735218831429576
000008020000407950416009030900032071075000400002000008030800740090000600040153080,759368124823417956416529837984632571375981462162745398231896745598274613647153289
029048000100090000008105670060200031030070008504601020400000080092453010750002300,629748153175396842348125679967284531231579468584631927413967285892453716756812394
009306400000050000008900762001079300304800010020100006050000040006083905047210080,179326458462758139538941762681579324394862517725134896853697241216483975947215683
900000000000016800030740020021890640053002900000450370002007560160000008804300009,916238457247516893538749126721893645453672981689451372392187564165924738874365219
063020708907500031000008600002410380000007050409002000300060010018750064040900520,563129748987546231124378695672415389831697452459832176395264817218753964746981523
073810490000009803090370002004007021015900600260050000020106000008000014730040908,573812496142569873896374152984637521315928647267451389429186735658793214731245968
000000306206500007890004500020315409004002000005070108019047200087003060060800031,751298346246531897893764512628315479174982653935476128319647285587123964462859731
008001304200350019000700008010085400490000200072060130000014500060823070109000000,758691324246358719931742658613285497495137286872469135387914562564823971129576843
600000009800000417000435020020060085000790034370008000005070006008002090409083100,642817359853926417197435628921364785586791234374258961235179846718642593469583172
068014030940050070000090105000000209096072410000600300080040001470008690200307080,568714932941253876732896145857431269396572418124689357683945721475128693219367584
702080001046307900950460300000042508000000100089006023000010406801900050320075000,732589641146327985958461372613742598275893164489156723597218436861934257324675819
052106000900420000804005609000081003005600800400207901700000008003709450060030210,352196784976428135814375629627981543195643872438257961741562398283719456569834217
080052100002000879000940006100200307700560002200090680503600700007030900940001050,689752134452316879371948526165284397798563412234197685513629748827435961946871253
359000200060002807000004960580601003020940610000307050002010004107050300890000020,359768241461592837278134965584621793723945618916387452632819574147256389895473126
380170004400006200007805900060009008204003071001020360000400006008000030150907002,389172654415396287627845913563719428294683571871524369732458196948261735156937842
310040060042508700800003025200709800500004006038010094006900530007080000900000100,315247968642598713879163425264739851591824376738615294486971532157382649923456187
700006400305780002020000000040250180017600203068003054009012000800000061054309007,781526439395784612426931578943257186517648293268193754679812345832475961154369827
000007480210095000047260000000950600070800043936720010800000000023001005005300764,659137482218495376347268159481953627572816943936724518864579231723641895195382764
246018000500040080080700500100902000005680071027400600930000008000030016004095703,246518397579346182381729564163972845495683271827451639932167458758234916614895723
400800500069034820720000000100076080005000300093010006010760000000400790300502040,431827569569134827728659134142376985675948312893215476914763258256481793387592641
076103008100000502004069070002075001080932600050000904048207009000000080300601240,576123498139748562824569173962475831481932657753816924648257319215394786397681245
000210500068075030000003024400190850030080600096300007700020040109500008002040071,374219586268475139915863724427196853531784692896352417783621945149537268652948371
700601082006470009030059070200040013900008050504700006020900360000105000081024000,749631582856472139132859674278546913963218457514793826425987361397165248681324795
070102093690000007200500800400301759000608200010070004023009060708004015540000000,874162593695483127231597846486321759957648231312975684123759468768234915549816372
001094087040203100806050000500070602400105008900030700000026000035907001007008360,351694287749283156826751493513879642472165938968432715184326579635947821297518364
010006009708000032430000607000025004000400010050307908090140503800069720120800000,512736849768954132439281657981625374376498215254317968697142583843569721125873496
900300010060082007071049203010004690003005040805090000020560704700001560000073008,982357416364182957571649283217834695693715842845296371129568734738421569456973128
007003004004000137000500620800610940000028700190007052049701008003062000568300000,627193584954286137381574629872615943435928716196437852249751368713862495568349271
200000790807030560000100004108050000090410230060908000912067080500000300006540070,251684793847239561639175824128753649795416238463928157912367485574892316386541972
000000000753001860400027900006030501801205030009106074100640008000702090020009053,912568347753491862468327915276934581841275639539186274195643728384752196627819453
090008000754060002300500901000409086400003270230080015020000000907010000016702593,691238754754961832382574961175429386468153279239687415523896147947315628816742593
008904500960801300013000007036007804080600091792000000000042008001050030040100260,278934516965871342413265987136597824584623791792418653659342178821756439347189265
100030026207098300000105040004907080600000000039000501018350400002060730090002000,185734926247698315963125847524917683671583294839246571718359462452861739396472158
001900000507002000008130506600740308010065009740000600200001045030400700000076920,361954287597682134428137596652749318813265479749813652276391845935428761184576923
009403060007210059401076300300000100706800045020190800000500278805000090060004003,289453761637218459451976382398645127716832945524197836143569278875321694962784513
003910200004208360059030007400000501671500400030400082090806005007023046000000100,863917254714258369259634817428369571671582493935471682192846735587123946346795128
037001000008020970040600201890000003706540090510780600450090080000015020600400000,237951864168324975945678231894162753726543198513789642451296387379815426682437519
000096087508304009016000200620089030003000056100070000209465000701000805000008490,432196587578324619916857243627589134893241756154673928289465371741932865365718492
400063092000008000030205740004680035208004000070900600050070008901302460600010020,415763892729148356836295741194687235268534179573921684352476918981352467647819523
000030008100806040006700020601050280040019070500002906807200400002000130035970060,724135698159826743386794521691357284248619375573482916817263459962548137435971862
000904007006000280790036510000403090501080000083702450005200001800007630024091000,158924367436175289792836514267453198541689723983712456375268941819547632624391875
006820390007400080043010005410308560000000027068095000000901050530000601270004900,156827394927453186843619275412378569395146827768295413684931752539782641271564938
401008003002094005000603801040000027790010060008005000070080450605200309300901700,461578293832194675957623841546839127793412568218765934179386452685247319324951786
000910020040006003100270508608030700000500290901407006837000105409080000060700300,586913427742856913193274568628139754374568291951427836837692145419385672265741389
704006200001983004950000080090000002100425037030008640070000005206070010005304009,784156293621983574953247186497631852168425937532798641379812465246579318815364729
032601008010820540008003620004000259080407000060300000109200007043705800000060100,532641978716829543498573621374186259285497316961352784159238467643715892827964135
350000100410206703802400005900080040700004600000310502260879400080500009000000030,356798124419256783872431965921685347735924618648317592263879451184563279597142836
400082300709050080200006001104023709800900006005400000030670204907540800001030005,456182397719354682283796541164823759872915436395467128538679214927541863641238975
100509830200130700004008060020000005080074006031902400960003070005000000700680120,176549832298136754354728961427861395589374216631952487962413578815297643743685129
760080000049003860050900410004007053105000002023600780800079040030002000000005231,761584329249713865358926417684297153175438692923651784812379546536142978497865231
000508300307006004020409081100027050256090070009604008500083609074100000000000120,491578362387216594625439781148327956256891473739654218512783649974162835863945127
412900000350004980068500030000000400001803250290006007020307001605040000030200079,412938765357614982968572134586721493741893256293456817829367541675149328134285679
002504080604200305900030001083007042000000069000108570405870910106050000000609000,312594687674281395958736421583967142741325869269148573425873916196452738837619254
520060001009018403800902060670000100010007392030450008007000050204893700090200000,523764981769518423841932567678329145415687392932451678387146259254893716196275834
910006800005070040060001075004200300600038100021000008040900067503000009800057203,917546832235879641468321975784215396659738124321694758142983567573162489896457213
000094032850701600090050710000030401200006080006000205600000849109002300305087000,761894532853721694492653718578239461214576983936148275627315849189462357345987126
860000004079800260240506030107043000050100000000208900092001007003000610400070582,865732194379814265241596738127943856958167423634258971592681347783425619416379582
070600280052000104001300057039800000405270001800069040000000372793000000240001060,374615289652987134981342657139854726465273891827169543516498372793526418248731965
075001300400007006001985004100609000800700005790053420003090700040306908020000060,275461389489237156361985274152649837834712695796853421613598742547326918928174563
001309806002040100000800005000006000908072004700504201800050400430010982217090600,571329846682745139349861725124936578958172364763584291896253417435617982217498653
900780301036209040000000250090870020621003700407010006300400980008100000040000605,952784361136259847874631259593876124621543798487912536315467982268195473749328615
250070800000402300003010609040960000108200005000050264090300570706089030300040010,259673841681492357473815629542967183168234795937158264894321576716589432325746918
907020006680000430052008000729000100010500603006140820100004000008007054090030070,947321586681795432352468719729683145814572693536149827173254968268917354495836271
000068020809070600057029000000030914106800203003002050701005000030090007062007580,314568729829173645657429138285736914196854273473912856741685392538291467962347581
200034670000802130010070009006019000950047003074506020000000300708001042695000008,289134675567892134413675289826319457951247863374586921142758396738961542695423718
000003205082049007000580060614000020000007010070800009301904006090200540805061300,469173285582649137137582964614395728958427613273816459321954876796238541845761392
400020500009107620060905043804092010501006709036000054105004000700200800000010030,418623597359147628267985143874592316521436789936871254185364972743259861692718435
400290701010306008000010540900450002020009800706080390005000060000073200039060105,468295731517346928392718546983457612124639857756182394875921463641573289239864175
060087014900000580020300790030160420047009600100020000700010060083672009004000302,365987214971246583428351796839165427247839651156724938792413865583672149614598372
000008740010092060008060005003900106805014200029006003600051030307000501500280009,956138742714592368238467915473925186865314297129876453692751834387649521541283679
075030901000920060120050084007504630986070005000000100802000400000300050034016702,675438921348921567129657384217584639986173245453269178862795413791342856534816792
040008002001900000265040003010300069980005400007006051620017000090200004003480700,349658172871932645265741983512374869986125437437896251624517398798263514153489726
209081306600003000008004510000230900500068042070095001017000060900000480300702005,249581376651973824738624519164237958593168742872495631417859263925316487386742195
068547000040002900002000680000700026206018000574300800015009000000005193003800402,968547231341682975752193684189754326236918547574326819415239768827465193693871452
090030040003020085100000069270400000301500000006080020010700500052100730400009600,895631247763924185124875369279416853381592476546387921618743592952168734437259618
204070000100096058050010300006002000700350009030900041005701204920000067410000805,284573916173296458659814372596142783741358629832967541365781294928435167417629835
508002009039701000240059800000370004001040680060000205496500300700100020005803900,518432769639781452247659831852376194971245683364918275496527318783194526125863947
009046005010802000280507090036900001100000050007018402740000608000073020092001340,379146285615892734284537196436925871128764953957318462743259618861473529592681347
902500700061420000580090030008017400640030070090800620070140950000000801206005000,932568714761423589584791236328617495645239178197854623873146952459372861216985347
040980000008500290350000067000000708090140005021068009004070102600800500700312040,246987351178536294359421867463259718897143625521768439934675182612894573785312946
201000000000000470005800629804906200007000004300071050930065000402090005010004308,291647583683259471745813629854936217167582934329471856938165742472398165516724398
002006700000400018910800230050901026030064981000080000300000090008725003745109000,482316759573492618916857234854971326237564981169283475321648597698725143745139862
059020006030001800060937010702000040010000509300864700000300257800790064000042030,159428376437651892268937415782519643614273589395864721941386257823795164576142938
201307000059800000470065920060739040008050001340008500700900065002600100000020430,281397654659842713473165928165739842928456371347218596714983265532674189896521437
609300007085270604000508300402000509061093008000000040018046000903801006000000201,629314857385279614174568392432187569561493728897652143218746935953821476746935281
000000170065090380080052004200800930006007010809406000100008009070300050904271000,492683175765194382381752694247815936536927418819436527123568749678349251954271863
