301500068006090007470001300103000009000608010540020700080003450200400903900075080,391547268856392147472861395163754829729638514548129736687913452215486973934275681
900700000100080300350460209800307960020004805000590010000002570001036008048100600,982753146164289357357461289815327964729614835436598712693842571571936428248175693
506030000208500010310000490000004187002060000750108300070020060000016704400309008,546931872298547613317682495639254187182763549754198326873425961925816734461379258
923000000000670000000042018108200700002700609600058003540090001037065800010400350,923581467481679532765342918198236745352714689674958123546893271237165894819427356
230400600004278010070000500052040060900360081100900050008592430000010007690000000,231459678564278913879136542352841769947365281186927354718592436425613897693784125
000938070450000600090060213000621700801004005007000460000000300600580092170200046,216938574453712689798465213549621738861374925327859461982146357634587192175293846
400008000016000080079000324038709051004600200500200048001500003900360700650001092,425938176316427589879156324238749651194685237567213948741592863982364715653871492
000600200270090405500003198004072000059401000800000600400017030601050007000280901,918645273273198465546723198164872359359461782827539614482917536691354827735286941
003007060095100340070200108006005002000374080000000790369502001802096500400800000,183457269295168347674239158736985412921374685548621793369542871812796534457813926
910003000060408070070002136005009001001050720200630400300080940040000008008007360,912763854563418279874592136435279681691854723287631495326185947749326518158947362
060009420035000000000320086509008000070034050004060172016500000090817600803002007,168759423235486791947321586529178364671234859384965172716593248492817635853642917
000000653090475008100230740000600580500004010041009302204500070600008001073000090,427981653396475128185236749932617584568324917741859362214593876659748231873162495
010007300008095060302000000900001608805003072000260090750082010640500807000100403,516827349478395261392614785924751638865943172137268594753482916641539827289176453
408071069700403850120000000540090027000000008000630100250007314861050700000009000,438571269796423851125986473543198627612745938987632145259867314861354792374219586
360012790000000000059807400001093020030008570500020809100000300870065040004300108,368412795417956283259837416781593624932648571546721839195284367873165942624379158
075200004003050910821003000040305207096000350000820100050001600600000489300090000,975216834463758912821943765148365297296174358537829146759481623612537489384692571
050000040060001073100002500409060301023000007080203600906008400700040980200150000,352687149864591273197432568479865321623914857581273694936728415715346982248159736
003060040002000907060409038008190006200308500100040070370850602050020300804001009,983762145412583967567419238738195426246378591195246873379854612651927384824631759
540900060067040000308020501000060005910005408820094370400008903053000200100207000,541983762267541839398726541734862195916375428825194376472658913653419287189237654
900642380030070490000008000058100000201064005040700100072000050009310064100090070,915642387836571492427938516758123649291864735643759128372486951589317264164295873
001500800300004001260080570074020019190000002608000300007908000050132040030040096,741596823385274961269381574574823619193657482628419357417968235956132748832745196
600089200030701005049000060890030607000020014004500000002000701560800090010240830,651489273238761945749352168895134627376928514124576389482693751563817492917245836
700039000560700000200040160108000500400902006090004780802003001003050409005170003,781639245564721938239845167128367594457982316396514782872493651613258479945176823
070000900920005703100003020430080007290400005701906208000200030000150600860007502,673824951924615783185793426436582197298471365751936248517269834342158679869347512
400081009100000560078002000063040980000056200904030017309700000520300004001805002,435681729192473568678592431263147985817956243954238617389724156526319874741865392
073010006290600050800400300000167020065000009400008031002005900301000472049300800,573819246294673158816452397938167524165234789427598631682745913351986472749321865
092057036007000800540810009700000560010089004030005010080300002206001400004600791,892457136167932845543816279729143568615789324438265917981374652276591483354628791
860405300000000004059300781302950000900200008080706190200010965048000200100007003,861475329723189654459362781312958476976241538584736192237814965648593217195627843
240560008000700342700000000002600000583401000000000019005008903107900500090204076,241563798856719342739842651912687435583491267674325819465178923127936584398254176
500009023007084900000200600020037100070105800304090050003608002690500701108000040,581769423267384915439251678825437169976125834314896257743618592692543781158972346
030084120500000704000650009860019400250300000409072053900703001620000080000100506,736984125598231764142657839863519472257346918419872653985763241621495387374128596
003014002450900310920000500000301060008602007590080100300800075640000230080009040,863514792457928316921763584274351869138692457596487123312846975649175238785239641
004095130001400008305006007900160700020500600000047200700000062850200040000081509,284795136671423958395816427943162785127538694568947213719354862856279341432681579
005809002019040060064072005050004018000306700080700296100200073000001000302050480,735869142219543867864172935657924318921386754483715296146298573578431629392657481
098301006040000705267500000800002054003860100100000063930084000000705209705200000,598371426341926785267548391876132954453869172129457863932684517684715239715293648
090520300010076050003100800701000040200040790609085002060003401000809000005000260,496528317812376954573194826751932648238641795649785132967253481124869573385417269
802001003000400529350600070000070050560032740049000100126800000030007600008090205,892751463617483529354629871283174956561932748749568132126845397935217684478396215
006000048700543000901008250060800079300200001004050600085001300010790020290000064,536912748728543916941678253162834579359267481874159632685421397413796825297385164
360400900080700230001890604000100000635000040002067800100005789009020001800001350,367452918984716235251893674798134526635289147412567893123645789579328461846971352
132000000008400070060508010010750849400000503903200060300001084000006295029040007,132697458598412376764538912216753849487169523953284761375921684841376295629845137
400007090000809600051000480060910200000003050074086000302500001010030008690720003,486157392237849615951362487863915274129473856574286139342598761715634928698721543
000010690040562000070800000800740060310000004000650081430100902005024700089300040,528417693943562817671839425852741369316298574794653281437186952165924738289375146
090200500700060800006587000020700080004896002300050019085900040030000001060145370,893214567751369824246587193629731485514896732378452619185973246437628951962145378
020100470075060309103008500930080001000400700062005000056890140000006090008730020,629153478875264319143978562934687251581429736762315984356892147217546893498731625
000650813010930070280704000902040000805000031040000600000020069037506028009107005,794652813516938274283714956962341587875269431341875692158423769437596128629187345
300200904045008001010000607902014700008630000000570090426300100750900320003007006,387261954645798231219453687932814765578639412164572893426385179751946328893127546
050020040637080000002930610003600009509002400080507021068470000000001080010050296,951726843637184952842935617123648579579312468486597321268479135395261784714853296
004380001305006900709400230020930015140050307000008000806007009070200640000001700,264389571315726984789415236627934815148652397953178462836547129571293648492861753
100003002609040705028907043000530607010008000700600029300002098407100030005080000,174853962639241785528967143842539617916728354753614829361472598487195236295386471
000008070984700600306002105005000040000063200730190800853020060010050490600071002,521638974984715623376942185165287349498563217732194856853429761217356498649871532
050104070040070805061059200480000060003200090016035000000060002800900100005318907,358124679249673815761859234482791563573286491916435728194567382837942156625318947
000840675045071090008000000060350000001000007900100452703009080290060700010032040,129843675645271893378695124462357918581924367937186452753419286294568731816732549
107086020400003000060004591000000702071050840005602009003800000000907003689200010,197586324452193678368724591936418752271359846845672139723841965514967283689235417
007086050500100020010007000004000030006905401380620000008450003200001807093072064,437286159569143728812597346954718632726935481381624975678459213245361897193872564
010300706090002450008000900403010820709600045050070000300400000086597030002060501,214359786697182453538746912463915827729638145851274369375421698186597234942863571
030006040000045018600070005100692000070080032950000000008253006000008057024900100,835126749297345618641879325183692574476581932952734861718253496369418257524967183
900006200720300400041800090502010080009675002400003907308059000000000016154700000,983546271725391468641827395572914683839675142416283957368159724297438516154762839
001000980000060205503408000085340602679020008040700100900010000750902001006075004,461257983897163245523498716185349672679521438342786159938614527754932861216875394
090534000020007500006020903840092160705008002000600080030080000270319008601005400,197534826328967541456821973843792165765148392912653784539486217274319658681275439
600024018030070940005600002096530001002908400307100600000083095150000020008001700,679324518231875946845619372496537281512968437387142659764283195153796824928451763
140890003000500069002030807579040080000080352000000700800002100010056040630910200,146897523783521469952634817579243681461789352328165794895472136217356948634918275
007104850050600090020080704800520410309000000000010007000039000503000076000800021,637194852458672193921385764876523419319467285245918637162739548583241976794856321
000000753760023000100400090010208540800090307090064008350016000200009010000570604,429681753765923481138457296617238549842195367593764128354816972276349815981572634
050003280906400001007090460003080070200100040081005903008570002415300000600009000,154763289926458731837291465543982176269137548781645923398574612415326897672819354
201070000090008520000930006000700600407009030105624009503401002982000040000005873,241576398396148527758932416829713654467859231135624789573481962982367145614295873
001200070024900685000843900000090040060702000580060390000417050070000830902005100,891256473324971685756843921213598746469732518587164392638417259175629834942385167
004008905039040700020130000948300010105002300000005068001000200006094000350670809,614728935839546721527139684948367512165482397273915468491853276786294153352671849
400000000050003180700290364800000700020410050096307000032708405140509070000000820,463871592259643187781295364814952736327416958596387241932768415148529673675134829
604029003003005100000067080007801350900000200450000007100690000005208061090003700,684129573723485196519367482267841359931756248458932617172694835345278961896513724
406800070007400502390120004001006020980700000000000308038009040270530810650010900,426895173817463592395127684541386729983752461762941358138679245279534816654218937
005300080060050007810002460400601009009230000000704620708000150102009803050007040,975346281264158397813972465427681539689235714531794628798423156142569873356817942
100500030002700405490000160023018900007030504001607008000800003608020750050390200,176549832382761495495283167523418976867932514941657328219875643638124759754396281
098060000452300001300407920005900870270004056000002140830009005060080000001040603,798261534452398761316457928145936872279814356683572149837629415564183297921745683
009030027010009804628000100170004000004657008005300009206500040300740000090108506,549831627713269854628475193172984365934657218865312479286593741351746982497128536
503400000206809000079001320600040000094300506050700800842900170100070690000504080,583427961216839457479651328628145739794382516351796842842963175135278694967514283
600001004030700010080004360060040200002560090100390750590000870003080100800209005,657831924439726518281954367965147283372568491148392756596413872723685149814279635
600180740002000600000094001900500002480010539300060080090703200510000004067900800,639182745142375698758694321971538462486217539325469187894753216513826974267941853
670008001005630002000100094840020109003800040200097035002004076030050000504016000,679248351415639782328175694847523169953861247261497835192384576736952418584716923
001490000002006058000203004605008073090300601700000080207510040034702005900000210,861495732342176958579283164615928473498357621723641589287519346134762895956834217
051043000000860002006000007300905018609700020020010700090100863400300000007080504,751243986943867152286591347374925618619738425825416739592174863468359271137682594
000805007900640000750900600006050000201480003530201400620070341400009050000300082,364815297912647835758932614846753129291486573537291468629578341483129756175364982
026307080008650304700910060402700006000000028860105000003800095200001000075094010,526347981918652374734918562492783156351469728867125439143876295289531647675294813
030400200085700900000025031000090165091048000302006800700052400840310009500900007,137469258285731946964825731478293165691548372352176894719652483846317529523984617
000086007001300094605100000026007805070020930090841700064090002200710308000008050,932486517781352694645179283126937845478625931593841726864593172259714368317268459
038020000500009060470100283004706001000081506000940800803070109710500004060300020,638427915521839467479165283284756391397281546156943872843672159712598634965314728
901003200075000080860100009300809701400007506000005390010406070004290000630058004,941583267275964183863172459356829741498317526127645398519436872784291635632758914
130600900090080124004005080370490010900028043000057200003000008810000670250000000,138642957596783124724915386372496815965128743481357269643271598819534672257869431
045030086180020300006500000007000008030081007000600594200007060098005010070394000,745139286189726345326548971967452138534981627812673594253817469498265713671394852
500907304146030000070050018030500920000602050080001007804000706009060400700800035,528917364146238579973456218637584921491672853285391647854123796319765482762849135
001000000007000023000861090100092005003740006600005840000003059408010207320409600,941327568867954123532861794184692375253748916679135842716283459498516237325479681
050009030087040000300010400020407190003902600006050087900536001800000005040100072,154829736287643519369715428528467193713982654496351287972536841831274965645198372
607003852051000900000609030100700320040008005500260087803072069000001000200030400,697143852351827946428659731186795324742318695539264187813472569964581273275936418
000030600300105980090040001285000400100620050070000003400801036639050700002007504,721938645364175982598246371285713469143629857976584123457891236639452718812367594
392006500001800070006005040805470009130090700600002004000910807540003600000000032,392746518451839276786125943825471369134698725679352184263914857547283691918567432
805040360000010978070000000400790050600132040087600100034000002021300684000005003,895247361342516978176983425413798256659132847287654139734861592521379684968425713
020590001031002670860030400608100290000084500740000000000007053910068000004259008,427596381531842679869731425658173294192684537743925816286417953915368742374259168
260300408000700000900086130016027009009001280520430000001000040730600010000040605,267315498183794526945286137416827359379561284528439761651972843734658912892143675
000203000580001076936500041360470009000000700400092080000010062090308015024600000,741263598582941376936587241368475129219836754475192683853714962697328415124659837
020800000051009024040070306070002569800901030000060080402100007009006000010543000,326814975751639824948275316173482569864951732295367481432198657589726143617543298
002000140700008053400200009800130700006042530000905602030070080160000470508690000,682359147791468253453217869825136794916742538347985612234571986169823475578694321
