001003407085040000390005001900021080426300700100700903007010300630800002000009506,261983457785146239394275861973521684426398715158764923547612398639857142812439576
020517800030024000005000006302000405008946000670000108460008230050703000700000019,926517843837624951145389726392871465518946372674235198469158237251793684783462519
000800020000039800000650007680023400500000031004591700300017045090080102067200090,916874523752139864843652917681723459579468231234591786328917645495386172167245398
009057400206100070100203008070000560605008004000300200000001006002930050481076920,839657412246189375157243698378412569625798134914365287593821746762934851481576923
080093000000408060509610040005300219600027000800100300204800701301200090070000430,486793125127458963539612847745386219613927584892145376264839751351274698978561432
908020050400068000060700009080000074000250130142003006570080040000310700610040020,938421657457968312261735489385196274796254138142873596573682941824319765619547823
830900000060007905200341000002460007089570001046008020000005370010000400500280069,837956214461827935295341786152463897389572641746198523924615378618739452573284169
160700000300890750000024800096005400204001006080007209070602000005310080009000304,168753942342896751957124863796235418234981576581467239873642195425319687619578324
900002600200043007870006090706800010004600783000590000059300062102009305000010008,945782631261943857873156294726834519594621783318597426459378162182469375637215948
500243006006800020800070945400900813000050000062300000007000000008700264030182509,519243786746895321823671945475926813381457692962318457297564138158739264634182579
910000000000075200000300487001800503806092000020034960049000006270006001503480700,917248635384675219652319487491867523836592174725134968149723856278956341563481792
800042000056080430027095000300020096060001300100800075030470509008006001270009060,813642957956187432427395618385724196762951384149863275631478529598236741274519863
000008706780200930001036040050000210000460800400800095093500060074093050002140000,345918726786254931921736548658379214219465873437821695193582467874693152562147389
100523800973000000080004600028097005600400080007105306001050040000068092230700000,146523879973816254582974631328697415615432987497185326861259743754368192239741568
000007083930260700504900010069050008410006007200400050000093501001000064807000029,126547983938261745574938612769152438415386297283479156642893571391725864857614329
700610028002030500360000970040000050000890001086042009009004000420005063008721400,754619328892437516361258974943176852275893641186542739519364287427985163638721495
018040930005080071407300200062900005500000000003607040049010000700802360800000009,218745936635289471497361258162934785574128693983657142349516827751892364826473519
000300100070625090080170642068502000754093000100000089002040001009000758010006300,296384175471625893385179642968512437754893216123467589532748961649231758817956324
001009008302000005070506030100004600084070150069002000400028090500010803003900407,651239748342781965978546231135894672284673159769152384417328596596417823823965417
040010006390420501007095048200300700054089100010000029001000005000037980830006000,548713296396428571127695348289361754754289163613574829971842635465137982832956417
600000010000700456453080000002906700070030102001005890020007509900120003030800040,697542318218793456453681927842916735579438162361275894124367589985124673736859241
710900002080020340045000081000000174000896005350004600820560000006071800094003050,713948562689125347245637981968352174471896235352714698827569413536471829194283756
003905408098710052100000300000007039085006000340080006064500070020008004009620100,273965418498713652156842397612457839985236741347189526864591273521378964739624185
907015008100290000030607200008000007004700853502001900000060700809302415040900060,927415638186293574435687291398546127614729853572831946253164789869372415741958362
040037098000600500600109004006718040900050130500000007190005760800200009072060003,241537698739684521658129374326718945987452136514396287193845762865273419472961853
190870004053000020000054006030000291000940058007100600040206300065009180312007000,196872534453691827278354916534768291621943758987125643849216375765439182312587469
001940500900060427000700300030200769008057000024001000087400002060000008410032605,271943586953168427846725391135284769698357214724691853587416932362579148419832675
000050920093080000401600007280010045060890370040200080700026500950003204000000001,876451923593782416421639857289317645165894372347265189714926538958173264632548791
980017630600000500031400000403601009009500200520078000200085710000002408160090000,985217634642839571731456982473621859819543267526978143294385716357162498168794325
100000200083000009200085067300007010000300905706410800964051002007006000501742000,175693284683274159249185367398527416412368975756419823964851732827936541531742698
300190076150006003090070004008504709004602000005030800083000000720900050060841200,342198576157426983896375124238514769974682315615739842483257691721963458569841237
600005400080402970070800005026190000031008007000003040107900802002050000500004091,619375428385412976274869315426197583931548267758623149147936852892751634563284791
270300008090050000608407309500004600000802017030960002001000980009516700403000025,275391468394658271618427359582174693946832517137965842751243986829516734463789125
604802003030000000801970050000590080148060000200304107003700900907006210000050008,654812793739645821821973654376591482148267539295384167513728946987436215462159378
690004002000020010470000350508903000000086030200040607780050004305002098000710000,691534872853627419472891356568973241147286935239145687786359124315462798924718563
070205009400000516031060008100098250004006070720043800000009000206070400910480030,678215349492837516531964728163798254854126973729543861347659182286371495915482637
030086090260740050701900030008000700010050920040301600500017042806094300000002000,435186297269743158781925436358269714617458923942371685593617842826594371174832569
000200008603009070950300006302705009007000210800001003500014802006003001100890050,741256398623189574958347126312765489467938215895421763579614832286573941134892657
050010300301004009080600507009027080400096003012850000200000491005000028007240600,756918342321574869984632517539427186478196253612853974263785491145369728897241635
060093720070015000000000086290700604000900310058004072620040090003070105400380000,564893721872615439139427586291738654746952318358164972627541893983276145415389267
010600009004023070006570080040090060208064057000302000790000810000089200503006004,317648529854923671926571483145897362238164957679352148792435816461789235583216794
020900400003601057006407203200300904067000020500072008000080010051090006934700000,725938461493621857186457293218365974367849125549172638672584319851293746934716582
020490070900006050180700000300070800005002964090051200000000103673800002801040090,526498371937126458184735629362974815715382964498651237249567183673819542851243796
004029000705003069018057000000030047600800350000006910001900800030074200402010070,364129785725483169918657423189235647647891352253746918571962834836574291492318576
002800030000060510430000008860090000100400007500702190080059300006170002790300465,612845739978263514435917628867591243129436857543782196284659371356174982791328465
008000700035000041000601005700040060020350090941080000010908002460700030500020007,198534726635872941274691385753149268826357194941286573317968452462715839589423617
700006290068002007000010030000685020004001509602390700900058004071260008300000010,713846295568932147249517836197685423834721569652394781926158374471263958385479612
600009730002080504001057800005060380107003002300028010009415000704006000000000090,658249731972381564431657829295164387187593642346728915869415273724936158513872496
407000106056010000300900020008004900000000873795000002000709408210803005804601000,427385196956412387381967524638274951142596873795138642563729418219843765874651239
009804000050030006010700320092007040860020009400016005003002071070050430201300008,329864157754231896618795324192587643865423719437916285583642971976158432241379568
052603007007008096000120340900700560100305000040000708006000870081240003500009002,452693187317458296869127345923784561178365429645912738296531874781246953534879612
100708500465230000000060009027004060800000004090012307040000800306091700002057010,139748526465239178278165439527384961813976254694512387741623895356891742982457613
507983001026000094108000007430000070089007230002005009000030910060870500000402000,547983621326751894198624357435298176689147235712365489874536912261879543953412768
005090001000003608200008930034902050006040090100056207670000004041075300050100082,385697421419523678267418935734982156526741893198356247672839514841275369953164782
002040803003007010600008047007000501006930008800025060090000030000192004040580602,172649853483257916659318247937864521526931478814725369298476135365192784741583692
079400005020000040001060800305020016004030500860000097040001702050702000000093160,679418235528379641431265879395827416714936528862154397943681752156742983287593164
910000002800007040000623000400009013026800050100350720605180900708405060000090004,913548672862917345574623198457269813326871459189354726645182937798435261231796584
001600700030740090806590002010005000608003904004200008009810020042000800500006103,491632785235748691876591432913485276628173954754269318369814527142357869587926143
700093540100080007963007000001038052200506100090070608856000700000000020307014900,782193546145682397963457281671938452238546179594271638856329714419765823327814965
040107060701050280009820003050000010600305840082000900106070000000002350390406000,248137569731659284569824173953248617617395842482761935126573498874912356395486721
008000600935004000400812300150080406020000090060309270002140780300005000007900005,218593647935674812476812359159287436723461598864359271592146783381725964647938125
950304001006790050710000230000002780000060004100005060090610807640058002030040090,958324671326791458714586239469132785573869124182475963295613847647958312831247596
010300007045007380600894020006003000001500040380600009400100200700062901020078500,812356497945217386637894125596743812271589643384621759469135278758462931123978564
000306040036800000075290000000402008018009030290000500062070014040105890009030007,821356749936847125475291683653412978718569432294783561562978314347125896189634257
005400001019072046200009700000016280506000007000830090062350008004097010730008000,675483921319572846248169753493716285586924137127835694962351478854697312731248569
075018006409000000620000503750063800001070039000480200000120078200090060036000004,375218496419635782628749513752963841841572639963481257594126378287394165136857924
301720608080059020900000340217000060090003500040080070000090000824060901000100450,351724698486359127972816345217945863698273514543681279135492786824567931769138452
038001029006025070510009600923000800001006035050000710000870400040053000280004006,738461529496325178512789643923517864871246935654938712365872491149653287287194356
050300100000980070090072000800003617027004085006000092002065000410000008603028004,758346129264981573391572846849253617127694385536817492982465731415739268673128954
709031000040600002031080000020073108600400907908050200006010030350800000082005006,769231584845697312231584679524973168613428957978156243496712835357869421182345796
080300600076049800300050091035208004200000000004960057009000503760430020100002078,981327645576149832342856791635278914297514386814963257429781563768435129153692478
007100095090873002260004000300200078006090000482360000070410800040005021003600050,837126495594873162261954387359241678716598243482367519975412836648735921123689754
060809300001540002507006490000030070205000006000604800700280010913070060004900035,462819357391547682587326491648132579235798146179654823756283914913475268824961735
050008200406000800307520000000910500070040010208070930040006091002400308095081400,951768243426139875387524169634912587579843612218675934843256791162497358795381426
000000902050690400012805607809237000100009000300500840096001270578004010000060000,684173952753692481912845637849237165165489723327516849496351278578924316231768594
006018240000504060130009007501000008092100000300260700205070094460300000780090150,956718243827534961134629587571943628692187435348265719215876394469351872783492156
009010200600087300403000015105900000360021400002403086904000608000009073050206000,589314267621587394473692815145968732368721459792453186934175628216849573857236941
000456701100020000904001203206743009050008006000000800009617080003200905048900060,832456791175329648964871253286743519357198426491562837529617384613284975748935162
030106507690005041500080900000540008860970012301600090004302006070000000000014380,438196527697235841512487963729541638865973412341628795984352176173869254256714389
040380000070090062100057900000000030587002001032400007000900540928005600300061700,249386175875194362163257984491578236587632491632419857716923548928745613354861729
035400000070060820100003409500004706010200030307900005000109000824605001050000078,235498167479561823186723459592834716618257934347916285763189542824675391951342678
008002060010070042003509700921030850800000400000750100005016070400080000009400503,798142365516873942243569718921634857857291436634758129385916274472385691169427583
000030402000018369006207050030000716007090005010400900020051080641002000809700200,185639472472518369396247158934825716267193845518476923723951684641382597859764231
030028064006007900082100000023004506001530002490002070704083000010400603060090050,537928164146357928982146735823714596671539842495862371754683219219475683368291457
680003590001670203000001700000290004054030080020047100912580000830000409006000020,687423591591678243243951768168295374754136982329847156912584637835762419476319825
006105380289006070000700006071008000900003400050240090390800050607054030008010900,746125389289436175135789246471698523962573418853241697394862751617954832528317964
009715600020400750010860090970000023200008000004603905800206407035004008000000010,349715682628439751517862394976541823253978146184623975891256437735194268462387519
100002004002010060050930080030506007980700005720009043060001958070060020804000700,198652374342817569657934182431526897986743215725189643263471958579368421814295736
130098400290001007008450030000074060650810000400005201800320005006000072300000610,135798426294631857768452139981274563652813794473965281817326945546189372329547618
560400203109050000030076008070009540000600001312005070600718000058200300400000900,567481293189352764234976158876139542945627831312845679693718425758294316421563987
000008501020400007090207360038560170160003400009000000503900048007014009006800200,374698521625431987891257364438569172162783495759142836513926748287314659946875213
010806005002090470843050000900670850000420160000000003100000932060037001005208006,719846325652391478843752619921673854538429167476185293187564932264937581395218746
120000097709030085060004230904000500000903070001602900600510024300479006085000000,123865497749231685568794231934187562256943178871652943697518324312479856485326719
000201408004300690500070003720803501840000000103709060000020000005407210060050970,637291458214385697598674123729863541846512739153749862471926385985437216362158974
500000000000850301040030026620900000805270040009508100471600009006000800302091075,593162487267854391148739526624913758815276943739548162471685239956327814382491675
507048000060007030400000002090510280000036140104000900730109008002400506009005070,527348619961257834483691752396514287278936145154782963735169428812473596649825371
006570003802000600073008940015302006000009000000400371040060009300107850087093000,496571283852934617173628945715382496634719528928456371241865739369147852587293164
070809000010003650602004073008956300507000400000040020000008501000020060196700200,375869142419273658682514973248956317537182496961347825724698531853421769196735284
400382010090000054200000007080010005006470000010903602640100009900800360105020070,457382916893761254261594837389216745526478193714953682648137529972845361135629478
750060000008100062000500400602008710300297008005004003910020300004031900260000087,759462831438179562126583479692358714341297658875614293917826345584731926263945187
