030004680008010007900607500006100079592000030000200804700025060000900400240030091,137594682658312947924687513486153279592748136371269854719425368863971425245836791
810000900030450600200008075007064010542109003090200000001600020400007500608032740,815726934739451682264398175387564219542179863196283457971645328423817596658932741
250004018000100400600098003009070002001060834000305001005040079893520000040006000,257634918938152467614798523389471652571269834426385791165843279893527146742916385
002008016000030080054900002300080000047062090601400507010025030790040000000809150,932758416176234985854916372329587641547162893681493527418625739795341268263879154
200054030000020708806100040052900006104002003700603100400005091001030250009780000,217854639945326718836197542352918476164572983798643125473265891681439257529781364
001290300060000900902004018050820007000000091183060040070305400800072060304080500,741298356568137924932654718459821637627543891183769245276315489895472163314986572
021900004706005300804600279400007060180020000009000830000503000600009540570010086,321978654796245318854631279435897162187326495269154837948563721612789543573412986
050007038320010009064050000071200000600000902500436000003085074700140205900700100,159627438327814569864359721471298356638571942592436817213985674786143295945762183
002139000600007020003050840100070000056084002908005630530090068000023007040700001,482139576695847123713652849124376985356984712978215634537491268861523497249768351
000005000402730000060200907050090402007601800308000006096040003005006210010357080,179465328482739561563218947651893472947621835328574196896142753735986214214357689
000073004810000700004006289072108040390400000508092060180700005000000390000241670,269873514815924736734516289672158943391467852548392167186739425427685391953241678
310080005009270003006004100008105407972000010004690002400000030700053028060809000,317986245549271863826534179638125497972348516154697382485762931791453628263819754
002700846090006000500013207700035604006000105301020080800000000020807950914060000,132759846497286513568413297789135624246978135351624789875391462623847951914562378
400000306001075980009061007000004009360000104290080700086502000100709050503840000,457298316631475982829361547715624839368957124294183765986512473142739658573846291
904005063310802700070064002005046007000070249090100080002009000040001035803000000,924715863316892754578364192285946317631578249497123586152639478749281635863457921
600053408094020060570060009300500000200080103001042000700004502000790800089000046,612953478894127365573468219368571924247689153951342687736814592425796831189235746
097020005850300620001800304020006001080040000640190080006070500000905007002000193,397624815854317629261859374729586431183742956645193782936271548418935267572468193
600000200003940001574001600000400090089070150000380007040050060208700300010200708,691537284823946571574821639732415896489672153156389427347158962268794315915263748
020000000000941860000807500010580700705000308009060000901000403308050021640300907,824635179537941862196827534213584796765192348489763215951276483378459621642318957
098005002037109000000400053100300007004006800650890000020000501010042609900560700,498635172537129486261478953189354267374216895652897314726983541815742639943561728
705300860480000297001020300360900002000700010008405700970614080050090004100500006,725349861483156297691827345367981452549732618218465739972614583856293174134578926
005360900047009300008040061000000700120904056500823000700002008960780020030100504,215368947647219385398547261489651732123974856576823419751432698964785123832196574
802790001459002003070400080004203006010078004500900300020010000008560170065000098,832796541459182763671435289794253816213678954586941327927814635348569172165327498
500701038000050001003000400010520040004063090902008005001906007738200960090040020,546791238289354671173682459317529846854163792962478315421936587738215964695847123
000076581006409007205310060030060100700805000009007824100000053594020700000090000,943276581816459237275318469438962175721845396659137824162784953594623718387591642
490060520005908001020007060072300940004270000310500080859000600003010000060804703,497163528635928471128457369572381946984276135316549287859732614743615892261894753
054608072009010000020090806090803160008071400300000005040000500502060008071204030,154638972689712354723495816495823167268571493317946285946387521532169748871254639
102060700059004006004813200000030100006082050273190060001000340500020089900007000,182569734359274816764813295895436172416782953273195468621958347547321689938647521
580000230006000000000294005008050020730900040004070980095063000401008600020700100,589617234246835719317294865968451327732986541154372986895163472471528693623749158
900003410060489050030720008100090240007006035000070000002008301700100086800560900,978653412261489753534721698186395247497216835325874169652948371749132586813567924
050017602030600000100050087004030705009002040010709008005006904900320000067408100,458917632732684519196253487624831795879562341513749268385176924941325876267498153
009800007805710090200040050340570001057908000028000006000000104703056800600280700,439825617865713492271649358346572981157968243928134576582397164713456829694281735
005091030800000001040200059200980640000506870000040103700804000960070020120030500,675491238892357461341268759217983645439516872586742193753824916968175324124639587
030070918004000003900600052008040100523160000060500027072830006000200080085014000,236475918854921673917683452798342165523167894461598327172839546349256781685714239
980040017010000800006200045300601020000004703079050080003800096200095100005063004,982546317514739862736218945358671429621984753479352681143827596267495138895163274
604300200070014003300760090050000810046901000027800400790200560002008900008005030,614389275279514683385762194953427816846951327127836459791243568532678941468195732
003400000071080002400002607006045970900730200000008500800306750327090108040010000,263479815571683492498152637186245973954731286732968541819326754327594168645817329
000000070894010006000284003386402105520000000007090300400509700701000460060100502,213956874894713256675284913386472195529831647147695328432569781751328469968147532
047000050020008001918206300050090603001070200030005080500120470000489006093000100,647931852325748961918256347754892613861374295239615784586123479172489536493567128
100070005093408200274009010001030500705801040008760003000000802000596000060302900,186273495593418276274659318621934587735821649948765123359147862812596734467382951
000000508070400039096005170700003810030100402904026000000761000103090260500208000,341679528875412639296385174752943816638157492914826753429761385183594267567238941
000040006300900187015000300046080020070000490500700001000601009030075008201300600,728143956364952187915867342146589723873216495592734861487621539639475218251398674
100000930002508004706200500005009001830006070000840090600001200070030080901004600,158467932392518764746293518465379821839126475217845396683951247574632189921784653
090210700600040100504007002000908030840600075005000200050090008209003000107006340,398215764672849153514367892726958431841632975935174286453791628269483517187526349
800060002001204096009000530300500410080001007500087000060819005040032600078600009,854963172731254896629178534397526418486391257512487963263819745945732681178645329
070068002000907065430010000000001040769400200201500680004100038052730104000090000,975368412128947365436215879583621947769483251241579683694152738852736194317894526
006010803340006000005020700070590031200071004900308002602800000430000296007004310,726915843349786125185423769874592631253671984961348572612839457438157296597264318
100507003040010800700009020090700605000200408005390010070008346002100000809065200,128547963943612857756839124294781635317256498685394712571928346462173589839465271
000430095504002008080000100800601400063057009790200000900060820000725030107000600,216438795574912368389576142852691473463857219791243586935164827648725931127389654
400050002008700350050196000002000040310420080507080039906005008700300600100904700,471853962698742351253196874862539147319427586547681239936275418724318695185964723
000652000302001040065008000000000060970006503510073800800900726000100300740200980,497652138382791645165348279238519467974826513516473892851934726629187354743265981
005870906700060000103900805010009407009030050600008200004500060270001008080240030,425873916798165324163924875312659487849732651657418293934587162276391548581246739
900060000002970504536010807007008030400091750020004000040030608090200000083506021,974865213812973564536412897157628439468391752329754186245139678691287345783546921
000200070658007004000863000007009005105700030900106280020000003010030950009608402,391245876658917324472863591267389145185724639943156287824591763716432958539678412
706823900810050600300100047004009030000002169600080000100930480003000095027040000,746823951819754623352196847274619538538472169691385274165937482483261795927548316
065710038000200050172000009201008903090000407800406000600002004958600002000301500,465719238389264751172835649241578963596123487837496125613952874958647312724381596
900485060300000500086000702005096007870003000102070803000319620008600900000250004,927485361341762589586931742435896217879123456162574893754319628218647935693258174
003004082270008015504000603010900860008063097050407000600001020032000009090705040,163574982279638415584219673317952864428163597956487231645391728732846159891725346
052704083030260000600000910005001200003000700700800056090500004820003170006048300,952714683138269547647385912465971238283456791719832456391527864824693175576148329
500000800010003020000874060006738009200900050030600407040000100002095030890210700,564129873718563924329874561456738219287941356931652487645387192172495638893216745
060000980908502000351070400000900057420000000800721603100630009030040076500208000,762413985948562731351879462613984257427356198895721643184637529239145876576298314
200040950700120304900063010030702000850000000000098460000004030021005800480901507,213847956765129384948563712634752198859416273172398465597284631321675849486931527
010007500000050027200300960520609078000030005391005040000008013106020000003940680,618297534439156827275384961524619378867432195391875246942568713186723459753941682
803709020004003605000000008927014000005800400010000060100370000340500200052060091,863759124294183675571246938927614853635827419418935762189372546346591287752468391
007103004020050300000420090053980020461000008080605100300890000600007049008216570,597163284824759361136428795753981426461372958289645137375894612612537849948216573
000824070005001086090050103030016407409008000060030520081700004200000760306905000,613824975745391286892657143538216497429578631167439528981762354254183769376945812
920060100060003080071409200000047000500301902008200354090810000300000560000002007,923768145465123789871459236239547618546381972718296354697815423382974561154632897
504900000700400002020006380050100020000093076407020103280074605100800000073010009,534982761768431592921756384356147928812593476497628153289374615145869237673215849
050400127360090000702800090000050008000721000019006405003040086070030900100608502,958463127361297854742815693637954218485721369219386475523149786876532941194678532
003900160000073000400802003200000410907630000681000070002017008060040500150080290,873954162526173984419862753235798416947631825681425379392517648768249531154386297
008037096050806000000190200260010040000400530015009070739050100000040307601200008,128537496954826713376194285263715849897462531415389672739658124582941367641273958
702000000098204007000830500010045802003600040250090010047980000325010090100000360,732159486598264137461837529916345872873621945254798613647983251325416798189572364
000700000540600910907020580390040000008010060460830120620500390013400605000000800,186759234542683917937124586391246758278915463465837129624578391813492675759361842
480006007000005090010030480020514960936708004100000008002000000068300510000672030,485196327273485691619237485827514963936728154154963278392851746768349512541672839
050400020008070009940280530160000003207090840005003060300850900000100206400007001,753419628628375419941286537164528793237691845895743162316852974579134286482967351
201009800700000090005106023050080104020705900000030600080060000309200400607301005,231579846764823591895146723953682174426715938178934652582467319319258467647391285
006010900070358602230000001040830106900005003007020400008000009000100070425670300,856214937179358642234796851542837196981465723367921485718543269693182574425679318
501204060060008400002750009706430001010070000059000302000047203200103590080500006,531294867967318425842756139726435981318972654459681372695847213274163598183529746
600900000080007510400302060092000050000800300075620900700080240060040001210073008,621958473983467512457312869892734156146895327375621984739186245568249731214573698
050206000803000090400580270706030409005070106031002000300057000090000704002640810,157296348823714695469583271786135429245978136931462587314857962698321754572649813
000605090705490008003200105500010009408900037000080604260000070309702401000843000,841635792725491368693278145576314289418926537932587614264159873389762451157843926
007900518609000000000832000540000009002708043006010005790060004400307020801590360,237946518689175432154832796548623179912758643376419285793261854465387921821594367
700030009019760008802405070000874300504000010007900600000016250040000903600500080,756138429419762538832495176261874395594623817387951642978316254145287963623549781
870100240004020703500003069750030002026080000430001096000400000960007300001059008,873196245694528713512743869759634182126985437438271596387462951965817324241359678
000000602008405010200678000970800200305090008046000701590004000100032009780001043,457319682638425917219678354971846235325197468846253791593784126164532879782961543
090402003306000701005070080800500006200004090000901352010008600007030920463050100,798412563326895741145673289839527416251364897674981352912748635587136924463259178
600008102000000700095020830020690000403000570010504306901080040000067013700009250,674358192382941765195726834527693481463812579819574326931285647258467913746139258
050008002020004300400200057500109400830056020009703600900000080704030001062010904,657398142128574396493261857576129438831456729249783615915647283784932561362815974
080050906050270000320406010607890402000000870092340001000900000930001560401030007,784153926156279348329486715617895432543612879892347651275964183938721564461538297
600007038005000007003652000052003004309000610070040800000406100298031000001095072,624917538915384267783652941852163794349278615176549823537426189298731456461895372
047950003000100080009600720706300410120008600050000902085010006200030000300870045,847952163632147589519683724796325418123498657458761932985214376274536891361879245
206900000530007028049350010000068794400000000000170360300026070090000430684090002,276981543531647928849352617153268794467539281928174365315426879792815436684793152
350040900260010080701890200100003050025069000400200708000176405000000060070008309,358642971269317584741895236197483652825769143436251798983176425512934867674528319
000073200030008405000940061910030004065180000200000900001000092702504006500000800,154673289639218475827945361918732654465189723273456918341867592782594136596321847
009070000031008009200090630608020004043700502000001870000060001054302900700945080,569273148431658729287194635678529314143786592925431876392867451854312967716945283
007060900060903005020014800200030540050100007009008061396200000800006402100785000,517862934468973125923514876281637549654129387739458261396241758875396412142785693
000200090030061700250708010600090030071040600008500007400003028926080004000400005,167254893834961752259738416642897531571342689398516247415673928926185374783429165
003205006009600050080300104900100370050048900001000005430529007100076400027000080,743215896219684753586397124964152378352748961871963245438529617195876432627431589
070010000406900020000060859250004030008030160090072000060300400905800000324005610,579218346486953721132467859251684937748539162693172584867321495915846273324795618
008307140005024706090068030609002003700090500820001000000000068103009002040005070,268357149315924786497168235659742813731896524824531697572413968183679452946285371
