900041075008609010043008002000000000700010526002954700060200054480030000010000608,926341875578629413143578962851762349794813526632954781369287154485136297217495638
007008420350612000900300000090007010000080360020950800060049100531000040700005280,617598423354612798982374651893467512475281369126953874268749135531826947749135286
900360020805049010006000700040200009310076080000000503008900200201003607750000048,974361825825749316136825794547238169319576482682194573468957231291483657753612948
270016003050090610600000902006038140300060007087002050405070090930100000002850400,279416583853297614641385972526738149394561827187942356415673298938124765762859431
094035800208060500060020071600100005540006097010073006000090043000800200700054600,194735862278961534365428971687149325543286197912573486851692743436817259729354618
004001005095300027702008000600907000200034000130050690000103500000000861080709042,364271985895346127712598436648917253259634718137852694426183579973425861581769342
100020059750098026004000308060300540000671000097002000600054190030000800800006204,186423759753198426924765318261389547548671932397542681672854193439217865815936274
800400109005000040030610850190000380067280010000360902600807000024050060001000530,876435129215798643439612857192574386367289415548361972653847291924153768781926534
080400075010096000002800006600310500854000901009000027093650008000002400500173200,986421375315796842472835196627319584854267931139548627293654718761982453548173269
010609804700002006050800013100070028300000090468905000509004000070036500042000087,213659874784312956956847213195473628327168495468925731539784162871236549642591387
007920300000000500039005740870000002005004071903600800401380090002050060006007485,547928316168743529239165748874591632625834971913672854451386297782459163396217485
020003005670000040900608207000030128800005904149070000004200063085410090200000050,421793685678521349953648217567934128832165974149872536714259863385416792296387451
003069571020004000096108002260010409070000000908006035041300050700800200000047900,483269571127534698596178342265713489374985126918426735641392857739851264852647913
910000600060050804000009030470600200008092100000005049603870010201030085090000400,915348627362157894784269531479613258538492176126785349653874912241936785897521463
000560407010004030030000962400170805800020000906300040090810000708002050002905703,289563417617294538534781962423176895851429376976358241395817624748632159162945783
002050010074008905090431000060900703050007021400320580009080300080670002001000064,832759416174268935596431278268915743953847621417326589649182357385674192721593864
076095040100200030025801900030700080001086000050000206000900071407003000002604058,876395142194267835325841967639712584241586793758439216563928471487153629912674358
093060070002480050506009300200830190100000807060705400307100026000090500008040003,493561278712483659586279341274836195135924867869715432347158926621397584958642713
002936080090400000760010030035200900009004578004800100027008065100020000400605007,542936781391487652768512439835271946219364578674859123927148365156723894483695217
000060310200105098740000000003820007860019000524000000308700240000080956019400800,985267314236145798741938625193824567867519432524673189358796241472381956619452873
903580704006070000800302901040607003290000050067010800050091000104200009700800206,913586724426179385875342961548627193291438657367915842652791438184263579739854216
050100060780030042403200900200000057540908310006040008000803100079060000830750000,952184763781639542463275981298316457547928316316547298625893174179462835834751629
000209740060300010809004000080450630210000007030026080705030006021980004000007500,153269748462378915879514263987451632216893457534726189745132896621985374398647521
071000000000060321020095600007500016900401003050320080300700904065003800702008000,671234598549867321823195647237589416986471253154326789318752964465913872792648135
602000100050002963900308004700240390480050000000070000020409005009600021360100070,632594187854712963971368254715246398486953712293871546127489635549637821368125479
781302004060509700002000003010040000430900861008005090000203570100700206209004008,781362954364589712592471683917846325435927861628135497846213579153798246279654138
030000608420603500009500210002005700000801004361402000000080000706900100504030096,135729648428613579679548213842395761957861324361472985293186457786954132514237896
600500000090203607007008029070905000081000000050041308900170036100009040028600500,612597483894213657537468129376985214481326975259741368945172836163859742728634591
001200000530480100692307045906500080080001039000040070008120004250060000310900007,841295763537486192692317845976532481485671239123849576768123954259764318314958627
000023456009080002005604010600000190500700003800052047080030020100006070304015800,718923456469581732235674918627348195541769283893152647986437521152896374374215869
003000402094320080050800600200010058030745201060000300019407006080006097000108000,873569412694321785152874639247613958938745261561982374319457826485236197726198543
480002301000034020100500004009070105061900078058006000503700200006801040070260009,487692351695134827132587694249378165361925478758416932513749286926851743874263519
530700820000001050006032900004000013005610000208900047967020008800400100042360090,531796824729841356486532971694287513375614289218953647967125438853479162142368795
720085006009100080460090007900300040080050210073004090006042300005700064000018500,721485936539176482468293157952361748684957213173824695896542371215739864347618529
200906000007040300500007400400610209390820050010709000001000004980002507004300826,248936175167245398539187462475613289396824751812759643621578934983462517754391826
006403090001006500530070400080040000004007213007901050010020946020010000308005700,876453192491286537532179468183542679954867213267931854715328946629714385348695721
020400000900050060085026009310600004400790500008210300001000607700140032004000058,623479815947851263185326479319685724462793581578214396891532647756148932234967158
500080070023009000960003001309400800600201405050700030100864009000000600470015302,541682973723149568968573241319456827687231495254798136132864759895327614476915382
000521000500000236070004090005000870040900600103080052080070420000063100901805007,639521748514798236872634591295316874748952613163487952386179425457263189921845367
029601007001020840300095060000370905807200013530000400700000082004100500905060000,429681357651723849378495261146378925897254613532916478763549182284137596915862734
500006420008090601020034000650010097090500210000080306072040530304700000100008009,519876423438295671726134985653412897897563214241987356972641538384759162165328749
095704000020500009804006300008000001960035047030901806003020090402060018070000600,395784162726513489814296375548672931961835247237941856683127594452369718179458623
308070900025108604100024000000003080069400030700000502051200000090605708007310060,348576921925138674176924853512793486869452137734861592651287349293645718487319265
087960240010050000006020710100200600000700384050840009802004000365000008070003960,587961243214357896936428715148239657629715384753846129892674531365192478471583962
300007004090020008180060730700840053500001040020005690050700009078000120200900306,362587914497123568185469732719846253536291847824375691653712489978634125241958376
040807920200400050380069100004031080638020001500000400051700004002006009900005070,146857923297413856385269147724931685638524791519678432851792364472386519963145278
030205001000430070702080940006012450080090300010800006045367020600050000900000800,439275681168439572752681943396712458284596317517843296845367129621958734973124865
000600009620080700010093480700005090063701000008409300200010004085000103000500820,834657219629184735517293486742835691963721548158469372276318954485972163391546827
201800703000009068500000100000006200760050084004900350170030402609104000048000007,291865743437219568586743129953486271762351984814927356175638492629174835348592617
020300640700900000305016080007000800800200951090061003050009024600050010034078006,921385647786924135345716289417593862863247951592861473158639724679452318234178596
506401709000980000100206300821000004600000005040193000200350010003004086007020500,586431729372985641194276358821567934639842175745193862268359417953714286417628593
706084100008500402020069030095300720041006090800005000100070080203600004000090305,736284159918537462524169837695348721341726598872915643159473286283651974467892315
002310640001000800043009070530000900090200168000600030600105007079480502120007400,752318649961742853843569271536871924497253168218694735684125397379486512125937486
070094160000300205009568004030800009008750010006023040840000670001002000305610080,573294168684371295219568734137846529428759316956123847842935671761482953395617482
010800490030020150020007008700001000540300806300080720089603004000400005006092000,617835492834926157925147638798261543542379816361584729189653274273418965456792381
608094050009700800005060023206180095003000007090000140701940000004018200000305006,638294751129753864475861923246187395513429687897536142761942538354618279982375416
003006000650080710700001406008050973970000000320040005090475080800010200010230004,143796528652384719789521436468152973975863142321947865296475381834619257517238694
000650700029000104000010320308025040000803561040069002700008000510470080204090003,431652798629387154857914326368125947972843561145769832796238415513476289284591673
060040001070302800429700050001090604000510073032008090046807000010650000800000507,368945721175362849429781356751293684984516273632478195546837912217659438893124567
100300409058002000600087002060029070800000601300000054706043900009200103010095840,172356489958412736634987512461529378825734691397861254786143925549278163213695847
009407003201050000000008060530070006000604820400920001600502097003080150740003002,859467213261359478374218569532871946197634825486925731618542397923786154745193682
701900000020000080300002504456000001000026000080014730009705200060030008504081609,741958362625143987398672514456397821173826495982514736819765243267439158534281679
001500092439700000260000708000016503970000180000000006028075400000032015104680000,781564392439728651265391748842916573976253184513847926328175469697432815154689237
007402080069030100018500074900840000000300015504007029005000600670900030000001240,357412986469738152218596374921845763786329415534167829145273698672984531893651247
800700009960085024001300000720000500045621087080400006402003098000006103007019000,854762319963185724271394865726938541345621987189457236412573698598246173637819452
106270008009000170300005260080430000720060309004010705093600420000089500567000000,146273958259846173378195264985437612721568349634912785893651427412789536567324891
700000003006000400080573600009010836108900200620400005900840100012005709005290004,791684523356129478284573691549712836138956247627438915963847152412365789875291364
038000700076004903100000820000200000005691040900058210002007600560900007300100080,438529761276814953159376824681243579725691348943758216812437695564982137397165482
000900508530040000870305260004100007950800026700096405200700180068002040000001000,416927538532648971879315264624153897951874326783296415245769183168532749397481652
052300007004219800300047090030028400006100000070000089100850360400030070600000201,952386147764219835318547692539728416846195723271463589197852364425631978683974251
500096000070005026009714003020850070001003005940100008002900087600008030003060412,538296741174385926269714853326859174781643295945172368452931687617428539893567412
050082060380400710009000400040057100020910005008306090062074000400003670700060800,154782963386495712279631458943257186627918345518346297862174539495823671731569824
504670921100500400000002083015920000009040006800300070400006800270000035300000710,584673921123589467967412583615927348739841256842365179451736892278194635396258714
042105063900460502070000000031908007000700100098000026005873040427009030000210000,842195763913467582576382914631928457254736198798541326165873249427659831389214675
480600013600000480002009507000206100096107000035000000070002834000703290800010075,487625913659371482312849567748236159296157348135498726971562834564783291823914675
060940102803000070290170050300010020000060401059700800405200030080406700001590000,567943182813652974294178356346819527728365491159724863475281639982436715631597248
407000209000509300030080010002907608605230000000010405509700064000140700200608100,457361289821579346936482517142957638685234971793816425519723864368145792274698153
070090651045720090100006200091080530006004018003009700080000002000640070900312000,278493651645721893139856247491287536726534918853169724384975162512648379967312485
009100048031060000802500700400000097517900000020350061000000089006704230000013000,659172348731468952842539716463281597517946823928357461374625189186794235295813674
065000000003084900902100607020370040006905700030060000071040062608200053000000109,865792314713684925942153687129378546486925731537461298371549862698217453254836179
080040072005190430306070108801400000700620900023000650000000809010032000407501200,189346572275198436346275198861459327754623981923817654532764819618932745497581263
635700800820001500000000360000800105008090076004250080417300000300506094000078200,635742819829631547741985362973864125258193476164257983417329658382516794596478231
030290500700600000091000640005003000109070080860000725900450068200087190080061000,638294571742615839591738642475823916129576483863149725917452368256387194384961257
100940200000006070480003906200460085090070000607005320005200090010087000003500864,176948253359126478482753916231469785598372641647815329865234197914687532723591864
809000000140090207000503004207100003060780450090600000003050020920070815700061009,839427561145896237672513984287145693361789452594632178413958726926374815758261349
050206008014030900070000650000020009890047260105680000006091407030400095000008300,359276148614835972278914653467123589893547261125689734586391427731462895942758316
020001000605820709300504200001009806502300010408000005950048000007200060000910034,824791653615823749379564281731459826592386417468172395953648172147235968286917534
000240000070009320900036810000005689023080500005601000004160090760400003100708200,381247965576819324942536817417325689623984571895671432254163798768492153139758246
900080053610075000030200860800960720741800005009000300120000000000034200007050419,972486153618375942435219867853961724741823695269547381124798536596134278387652419
407008250610200700000600098000080070201503040305079001803004002009031005004000300,497318256618295734532647198946182573271563849385479621863754912729831465154926387
097000100200609570508040000003020650940380702100005000070960080006002301020103000,697538124234619578518247936783421659945386712162795843371964285456872391829153467
900800001406002005025036400730000509040000780682900000000384010100079304000060200,973845621416792835825136497731428569549613782682957143257384916168279354394561278
080002510002007304009060000240050700351000002906040008010400075705930060600100080,487392516562817394139564827248651739351789642976243158813426975725938461694175283
908004000030000507100650000003820640800700203060035009574002081000000302010009060,958274136436918527127653498793821645845796213261435879574362981689147352312589764
080050003001300540040190600368500120090000870005210006900400008250007960007060030,689754213721386549543192687368579124192643875475218396936421758254837961817965432
910008070050610304260050000000070953080006000000341002007400206400020098005900700,914238675758619324263754189641872953382596417579341862197485236436127598825963741
840003007270000650506092030030500120904800060001400003000080000402005870007060591,849653217273148659516792438638579124924831765751426983165987342492315876387264591
690147080703020500020090000001006902400050000850009064000060031010530006200800400,695147283743628519128395647371486952469253178852719364584962731917534826236871495
580002710000000406304067000610050084040008072750300000027800059009000608000041030,586492713271583496394167825612759384943618572758324961427836159139275648865941237
000806401000430908002017005384700600600250000090000130009078200500060004021009000,953826471176435928842917365384791652617253849295684137469578213538162794721349586
