710020008020005730605380000070030802040000090006940001109400200004068510800000063,713624958428195736695387124971536842342871695586942371169453287234768519857219463
075602000904507020010030700000104900061050400020006030002801007037040180000900056,375692814984517623216438795753124968861359472429786531592861347637245189148973256
754900080002008009000615700060000015345007208890060000080040607500030000000006320,754923186612478539938615742267384915345197268891562473183249657526731894479856321
600000020895030600000700019076900508080042090140080000020850000300000400051304706,617498325895231674432765819276913548583642197149587263724856931368179452951324786
040800000107304060002007390610005023000010070059240001306080009480071000900006057,543869712197324568862157394618795423234618975759243681376582149485971236921436857
060000000014200057007800000009640002250301040040000198000006370300180025725009600,562974813814263957937815264179648532258391746643752198481526379396187425725439681
008004026100900308005080000000000000301005640006738050740301000000060092050040730,938174526164952378275683914597416283381295647426738159749321865813567492652849731
080000031900702400402603007160400500005000980300050000000104050003090708749500106,687945231931782465452613897168429573275361984394857612826174359513296748749538126
003600080000392000027000190082001030104250060060004500008000009090730021005180400,943617285851392647627548193582961734174253968369874512718426359496735821235189476
040906000108030025706000000000100398054290060000607200507308410080020700369000000,245916873198734625736852941672145398854293167913687254527368419481529736369471582
070001030000040600104508020000297160050100890000053000007300000091076050806900402,978621534325749681164538729483297165752164893619853247547382916291476358836915472
400060082018079005020508073070690300000123500009007060690000400001005000205410000,457361982318279645926548173572694318864123597139857264693782451741935826285416739
070036500901407060052890000007003800486010090000009040108025007300000006049000120,874236519931457268652891374297643851486512793513789642168925437325174986749368125
070040309140007820060050010000630087090002600005091402001800503400500100708300090,572148369143967825869253714214635987397482651685791432921876543436529178758314296
920008060040000007703590000417005090030002000000300841000906328005027600600010405,921738564548261937763594182417685293839142756256379841174956328385427619692813475
001870000860030152900006084000000460750083000300429000020067509090000030470200018,541872396867934152932516784289751463754683921316429875128367549695148237473295618
850000302070092048006013700063020500004008070000951006010600800020074053900000004,859746312371592648246813795163427589594368271782951436415639827628174953937285164
700080301020400009040601205806045000000000037150090080472003600500870900600020010,765289341321457869948631275836745192294168537157392486472913658513876924689524713
410320000008000500000589470070200063800070000030148009260004300980016040500900010,415327986798461532326589471174295863859673124632148759261854397983716245547932618
019003005070204800006000290003800700800009061001060504600025040040700008900018030,219683475375294816486157293563841729824579361791362584638925147142736958957418632
070030250050690030401000008002050804843007000500100026000420760309080100020300005,976834251258691437431572698612953874843267519597148326185429763369785142724316985
001003000000062403080540007017005009203000510890400300070300094060807200002090058,421783965759162483386549127617235849243978516895416372578321694964857231132694758
009063200060102057130807040900230060070500008804000900200906010006014070080700000,759463281468192357132857649915238764673549128824671935247986513596314872381725496
007193004280040305000000067100200080465000000809031000040007600500009700002600918,657193824281746395394582167173265489465978231829431576948317652516829743732654918
001407006080005290005802000049050003020013460000600908807240030300000010092070050,231497586486135297975862341649758123728913465513624978857241639364589712192376854
063950200000003907010724800070800005002000410801090000640507009000000003095280600,763958241284163957519724836476812395952376418831495762648537129127649583395281674
600239000000500810002400000200306007901048050007050043054010620109000030000870400,618239574493567812572481369245396187931748256867152943754913628189624735326875491
800001360309807014000020000000500000000070480021600537095102006007006140030048002,872491365359867214614325798748513629563279481921684537495132876287956143136748952
000000000360000014040760820090520006000907105005040070580004039002009760170032008,258413697367298514941765823794521386623987145815346972586174239432859761179632458
080060534005003010001048060300206009000010728004009003260005000050070090809002470,982167534645923817731548962378256149596314728124789653267495381453871296819632475
020500000090048013003012005475000020006000100810790064000805030300009708000300942,124537896597648213683912475475186329936254187812793564249875631361429758758361942
400000087007061090395002001942800000050290130070006000008300405000000900620104300,461935287287461593395782641942813756856297134173546829718329465534678912629154378
410200008083004009057000000500060104060807290300021050049508020000900030800170006,416295378283714569957683412572369184164857293398421657649538721721946835835172946
000004500500190630062080070040500081051760400390200060876403000010002000900010300,739624518584197632162385974647539281251768493398241765876453129413972856925816347
095020107300000045200016090080630000000001702040090080410053008008940670900000300,895324167361879245274516893782635419659481732143297586416753928538942671927168354
080090070001000020000014608090302010058709360040600500204908003039005000670003100,583296471461837925927514638796352814158749362342681597214968753839175246675423189
004130000000000007003097026270086900085400000609070501906001008020000050150004073,764132895892645317513897426271586934385419762649273581936751248427368159158924673
009107308570903002001560000008600200105030070200001043046090001000025780800000900,629147358574983162381562497438679215165234879297851643746398521913425786852716934
903015002006090400081060070040008007027300000609000040300704500098100020000052680,973415862256897431481263975145628397827349156639571248362784519598136724714952683
002007360070026005051400920080043500006000013009050870900081400020000050730090600,492517368873926145651438927287143596546879213319652874965781432128364759734295681
904030006000008230100576008005010400060204097023600005000705010000380074009000820,984132756657948231132576948795813462861254397423697185348725619216389574579461823
006823010090016050803400070000500604000391000972000000040208900021005380000060500,756823419294716853813459276138572694465391728972684135547238961621945387389167542
040300080307005060100209704700050218090083006000024050001000007983007000500000140,649371582327845961158269734734956218295183476816724359461532897983417625572698143
380020000001409603407058010090031850000007004002600970000084100000000592570900060,389126745251479683467358219794231856615897324832645971926584137148763592573912468
508100034000500200730826000001203970080000000360008501200047009009010420605900700,528179634196534287734826195451263978987451362362798541213647859879315426645982713
010980000005007060423100009100502083080003142040000007008430090070008504600000200,716984325895327461423156879167542983589673142342819657258431796971268534634795218
000690000708301400000020905020506041000700200613000008001034050309000800084260010,452698137798351462136427985927586341845713296613942578271834659369175824584269713
300010040000580096901060302760900010009420500025000089002000007608097405570030060,356219748247583196981764352763958214819426573425371689192645837638197425574832961
007506000598000000040087000000321690020008510003000040201090084076030250054070009,317546928598213476642987135485321697729468513163759842231695784976834251854172369
030700050000089027800000004005007000041060700970005238090400080400010603060352019,639724851514689327827531964385297146241863795976145238193476582452918673768352419
300050609060020508084000030030904001050032070601007400800091000703800105900000204,372458619169723548584619732237964851458132976691587423845291367723846195916375284
070069040058040001900080537000001800005800300023670009700410605600003020014200080,371569248258347961946182537467931852195824376823675419732418695689753124514296783
420000600003070189100390005012700400008005002060019700000000524006030070905004803,429851637653472189187396245512783496798645312364219758831967524246538971975124863
900076840400100007003508000600080300005607901020059070800004605069002030000000210,951276843486193527273548169697481352345627981128359476812734695569812734734965218
009150000080009127060042003530706800090000002700000640041003080008960700003004509,329157468485639127167842953534726891896415372712398645941573286258961734673284519
008100300054300720070095060700002000010950043000438200609043008000700900100020056,268174395954386721371295864743612589812957643596438217629543178485761932137829456
600020300004005008500064017029006003170900000003540200900010760030070805046008009,697821354314795628582364917429186573175932486863547291958413762231679845746258139
604057000019400603008100000000096500700240980000703000050080020460902150100000706,624357819519428673378169245241896537736245981895713462957681324463972158182534796
005006070001000480600002105200890507090100300380057001070040093002071004400960000,835416279721539486649782135216893547597124368384657921178245693962371854453968712
010004000057098430309006700001800000900050870072430056780105204006002013000900000,218374965657298431349516728561827349934651872872439156783165294496782513125943687
063000021250000030090080070009070004500603100820504090047830056000106300002400908,763945821258761439491382675319278564574693182826514793147839256985126347632457918
009003800847200000300000019000046300450700960230010008010087405070109600000560020,129653874847291536365478219791846352458732961236915748612387495574129683983564127
109730020200000800040506070980010504700260003003045000500100200000004019000980607,169738425275491836348526971982317564754269183613845792596173248827654319431982657
080170006030009580012060340300840090069000400108207005490000000700604210000035060,584173926637429581912568347375846192269351478148297635496712853753684219821935764
407005318000800200006000095061050804700080000059032001005201009924000030000063040,497625318513894267286317495361759824742186953859432671635241789924578136178963542
100300090020160004000085003419020006870004302300700500000870060501000208006059001,158342697923167854647985123419523786875694312362718549234871965591436278786259431
046800000100000082009000305350700200400530016067400800500180007000090000073020041,246853179135976482789241365351768294428539716967412853592184637614397528873625941
000080920005000061060057000200509370007003019001060004090140530004800007386000040,473681925825394761169257483248519376657423819931768254792146538514832697386975142
200050008007009160106070205000706300705200090080015004041300080500100002302040600,234651978857429163196873245429786351715234896683915724941362587568197432372548619
000000070360040008008300501017409060020710300480020000100000290002063485006052000,954281673361547928278396541517439862629718354483625719135874296792163485846952137
004280006000304020080000059860401090003007608019020003021000070407065300030900100,154289736976354821382716459865431297243597618719628543621843975497165382538972164
506000000040201970200067030001000025000095800305604000000080190908402360000039400,576943281843251976219867534491378625627195843385624719734586192958412367162739458
000010400900302870756004020003760200480905003002000005040030010007500000060008904,328617459914352876756894321593761248481925763672483195849236517137549682265178934
700030260400001307000006098001290005050000421004500780609070540000300000320008910,718935264496821357532746198871294635953687421264513789689172543145369872327458916
001800650530460800000509007009000304003020108720080000042007006070630200810005090,491873652537462819268519437189756324653924178724381965342197586975638241816245793
006200013400809020705043600300600000097010000610708002049002030000080007002406508,986257413431869725725143689358624971297315864614798352849572136563981247172436598
004009012750310000090020067080500671500038004009002035300040000076000098010060200,634789512752316489891425367283594671567138924149672835328941756476253198915867243
900420030000050700041308090600900400820003910050680073080001040017005600302000008,965427831238159764741368592673912485824573916159684273586291347417835629392746158
000908067208000900000356400309000000026840501041007086100700605000430009073060200,435928167268174953917356428389615742726843591541297386194782635652431879873569214
700016830300009000020085710200000300860071200045630000004000608901000072000498000,759216834318749526426385719297854361863971245145632987534127698981563472672498153
017060280800030070060200904000008490150003006000912037036800000490000050028701000,917564283842139675365287914273658491159473826684912537736895142491326758528741369
500640180108070000030002095023000006040008500701490200060901800000080300907003010,572649183198375624436812795823157946649238571751496238364921857215784369987563412
700006005082190040004000023320000050009080600807024901090000017000859000040061300,731246895582193746964578123326917458419385672857624931698432517173859264245761389
040020000270030950600007410300498001000001048000200570005316000420900083009800700,541629837278134956693587412357498621962751348814263579785316294426975183139842765
900610030027800005000000009610309008000008520405000000004503090003407601056020074,948615237327894165561732489612359748739148526485276913174563892293487651856921374
024000000097003628800010005783029000000007100900405800009000406000030050201058739,524896317197543628836712945783129564465387192912465873359271486678934251241658739
091800520060710040800009003000050602017400000305900400940002107008030095500007800,791843526263715948854269713489351672617428359325976481946582137178634295532197864
008010050240300067003570290100040800050200004070098020060030940002001300407006001,798612453245389167613574298126745839859263714374198625561837942982451376437926581
210900630704100000800265007406859200000007003907001050000400010020000780500080902,215974638764138529893265147436859271152647893987321456678492315329516784541783962
603020400059310000200005810060508009347060000080402000731009050000006302400700000,613827495859314267274695813162538749347961528985472136731289654598146372426753981
230104900000200016040090020600840701009060008020007300195300004008000000000470589,236184957987235416541796823653842791719563248824917365195328674478659132362471589
038700040500200000600319000180000072079500063000000415010030700004002380760094051,238756149591248637647319528185463972479521863326987415812635794954172386763894251
081520030009870106640090000530108700006007300000200005900000568052003904007000010,781526439329874156645391827534168792296457381178239645913742568852613974467985213
000000040038009602607043001306500710000090000002067083700120009940005070200004065,129856347438719652657243891396582714874391526512467983765128439941635278283974165
700010040004009080060302097005030106180600000420900053000500000092064700318007400,759816342234759681861342597975438126183625974426971853647583219592164738318297465
002780000060002040700900031213000085097400600004328000538060090000030002006574000,142783956369152847785946231213697485897415623654328179538261794471839562926574318
050260000000005108021039000900070006080904007030056840560402030008000904310007500,857261493693745128421839675945378216186924357732156849569482731278513964314697582
000409006080052103007800500400230010590076200300005000804090000001000057060301002,253419786689752143147863529476238915598176234312945678824597361931624857765381492
000001304081050200200900005420380700508000000009415000075006980040000002000073106,957821364381654297264937815426389751518762439739415628175246983643198572892573146
960201500023000840000070000006510030100420700480090060357080200000709405004000010,968241573723965841541873629276518934139426758485397162357184296612739485894652317
