400800020000906008000150700805010640207400800100080039750090002020003094310200506,461837925573926418982154763895312647237469851146785239754691382628573194319248576
702600130000910800060004009006093427000080000075400006020805300034060200910070005,792658134453917862861234759186593427249786513375421986627845391534169278918372645
000827010075001600920050004030000497008400061002076085080300920040000003600590000,364827519875941632921653874136285497758439261492176385587314926249768153613592748
089210000000004053506070100430002000012500007058003004020900740700800605003000928,389215476271694853546378192437182569612549387958763214825936741794821635163457928
040001005702604080108590607000007900460000200201008034003705000090200400500389010,946871325752634189138592647385427961469153278271968534613745892897216453524389716
203058097000002000071490050009805070034007080500030600306000002048013900050064100,263158497495372816871496253629845371134627589587931624316589742748213965952764138
008470350000060204070539006081000430203015008900000720600000800509300600004021007,168472359395168274472539186781296435243715968956843721627954813519387642834621597
742000100800450930300780006005106098016000520000039000598270060020000000000690450,742963185861452937359781246435126798916847523287539614598274361624315879173698452
008090005034017002070002010000000050060285100090004003009730008082049070150600309,218496735534817962976352814821973456463285197795164283649731528382549671157628349
600800010507040029023075000010090450050204000002600803000000700400007068900368001,694832517587146329123975684816793452359284176742651893268419735431527968975368241
400087061300940050072105004025800000000500107040096030001000400060270803907003600,459387261316942758872165394725831946693524187148796532231658479564279813987413625
100087690027000003803002400000005084032000010400079005090504100008090006005061027,154387692927416853863952471679135284532648719481279365796524138218793546345861927
008000327270600090001003085000120800900037000104508030035090204600804900700010000,568941327273685491491273685357129846986437152124568739835796214612854973749312568
009754000180690004560000730090007400000160278000800001042008600600032007300010950,239754186187693524564281739891327465453169278726845391942578613615932847378416952
300901000078500409010000306000007240600050987590200000004300720085000100100068004,356941872278536419419872356831697245642153987597284631964315728785429163123768594
720890005600030000039067800003210064560000000008600907807000300204001090000975040,721894635685132479439567812973218564562749183148653927897426351254381796316975248
000530702010004306509000000060017080008090004102800930800069400300720010070300520,486531792217984356539672841963417285758293164142856937825169473394725618671348529
001063005028040007300507000700031040059800102600000970005608000006010093800024001,971263485528149367364587219782931546459876132613452978135698724246715893897324651
160004230000700908300050006602010000805009307003205040280070190000908003009400050,167894235524736918398152476642317589815649327973285641286573194451928763739461852
039018507560000240001000800620009000000030104000074050105040706390001080070280003,239418567568397241741526839624159378857632194913874652185943726392761485476285913
000046008000100902620083500004000100000060093793005240200030700381079000009428600,915246378438157962627983514864392157152764893793815246246531789381679425579428631
100020050000017806030604700207386090005000000040090200008730009302500601050209040,176823954524917836839654712217386495985472163643195287468731529392548671751269348
230014000800700410090005030001053206400209800005060900049501007300800605070000004,237914568856732419194685732981453276463279851725168943649521387312847695578396124
507090034062000000300008079850000400009030510001802067090360005003000102040079080,587196234962743851314528679856917423729634518431852967298361745673485192145279386
573006000000008031000790602006204080800070204040001593001060000492010070700030905,573126849629548731184793652936254187815379264247681593351967428492815376768432915
008200070000065040002097386076003950000000060300010400043002700007040590029081000,968234175731865249452197386876423951214579863395618427643952718187346592529781634
000079862930800500000065300080520107000004020560000000204030019700001080008497003,145379862936842571827165394489526137371984625562713948254638719793251486618497253
000010480100620050702904100010008306008400500609005020000300204305000071000769000,963517482184623957752984163517298346238476519649135728876351294395842671421769835
080065104300090060002003000900710500004600201270000980890400005056008020000071090,789265134345197862612843759968712543534689271271354986897426315156938427423571698
390000207806057910700004000107043008050080000000500096000810450920600380001030002,395168247846257913712394865167943528259786134438521796673812459924675381581439672
000009062501200073402005000070040900300600000000800056209106830605007014800300005,783419562591268473462735189176543928358692741924871356249156837635987214817324695
001060300200500000850200047010080409420090186000700002790030050040807600503900008,971468325234579861856213947315682479427395186689741532798136254142857693563924718
004000120803020000570063000000002006000730409190800700005608000041005900689340057,964587123813429675572163894437912586258736419196854732725698341341275968689341257
000580340304012080002003070079641000800090000005000206023000100060007500401006039,617589342394712685582463971279641853836295417145378296723954168968137524451826739
903005108040120000006000720807003002290607034050001970000000000000039650018406003,923765148745128369186394725867943512291657834354281976639512487472839651518476293
036092081004500920009081060003610000000800040401057002000009810050308000960040003,736492581814536927529781364293614758675823149481957632347269815152378496968145273
069700085240008010001500090010065072703020006000840900002901048000006503057200000,369714285245698317871532694914365872783129456526847931632951748198476523457283169
700200004904000730000450010010068002003700050805030140580040906009620000300009520,751293864924186735638457219417568392293714658865932147582341976179625483346879521
200510049049300701750008060000061082100000070480000300000780006030094120020005098,263517849849326751751948263375461982192853674486279315914782536538694127627135498
007005000180097000406300902070400300620008000004060185069170050302000049000003008,297645831183297564456381972578419326621538497934762185869174253312856749745923618
004010008020536900090020003851000000600400020030695070007060049040208100500709600,364917258728536914195824763851372496679481325432695871287163549946258137513749682
200060800050409000607205000380010040040003900001007023008006750520030190109020064,294361875853479216617285439385912647742653981961847523438196752526734198179528364
005000009000600700019030084006704205024100000800003006001090508073400000090502170,645871329382649751719235684136784295924156837857923416261397548573418962498562173
004070080010000020080123504070004005008039002602000700056000098000406103190500070,264975381315648927789123564971264835548739612632851749456317298827496153193582476
050021407230980000001060080002003100009056030076009004900005006000730902840000051,658321497234987615791564283582473169419256738376819524923145876165738942847692351
000007890876030502409006100200100387060002010001408009080000634030000000000510920,513247896876931542429856173294165387768392415351478269185729634932684751647513928
000861000984000200500000007000504030600320904002010050070640003001207405205039806,723861549984753261516492387198574632657328914432916758879645123361287495245139876
170020080006800005020049610000004000580930002690000507060051720700000300009206048,173625984946813275825749613237564891581937462694182537468351729712498356359276148
500010000080040237009600000000290078000007540208006301106900800300025006004300759,532718964681549237749632185415293678963187542278456391156974823397825416824361759
010006308603040900000901050480010007205007086000305000102070000008009025006023490,914256378653748912827931654489612537235497186761385249192574863348169725576823491
108000900056002007020980041090607032000050070600003850400069000001500208070100460,148735926956412387723986541895647132234851679617293854482369715361574298579128463
500700900940300000008000026010402078002050069005008000060037210071804005004009600,526781943947326851138945726613492578782153469495678132869537214271864395354219687
000000050301082600094107800920401007107506090060000203210005046803000700570040009,782364951351982674694157832928431567137526498465798213219875346843619725576243189
301076002005100000007250080060001409100097060902800350040000830050009600800405020,381976542625148793497253186568321479134597268972864351749612835253789614816435927
950000000201040709040300080804507006002030001097006200089700024600098100070001030,958672413231845769746319582814527396562934871397186245189753624623498157475261938
590000020004002001081540600029034010000007406800010037070306048000209003608000950,597168324364792581281543679729634815153827496846915237972356148415289763638471952
009005070027600350030008010005010204000876005910040730400380901306000000870209000,689135472127694358534728619765913284243876195918542736452387961396451827871269543
904350020030061005001908060240000000090040287076010003080073000600200709000005001,964357128832461975751928364248739516193546287576812493489173652615284739327695841
010002080000063005065190000000607920008010004746800001023000450100900070900054603,419572386872463195365198247531647928298315764746829531623781459154936872987254613
005700860409008020030612050052000080100230074300000100070024000600803900080165030,215749863469358721837612459752491386198236574346587192573924618621873945984165237
000980250080076940003000000491020065008004070350100000005003017006805002020047008,674981253582376941913452786491728365268534179357169824845293617736815492129647538
090000080028069510400100037600004758700300000010890600250400009003005400000072360,197543286328769514465128937639214758784356192512897643256431879973685421841972365
401200000060001085090730600806020340300094000500003070072806430100000820004010900,451268793763941285298735614816527349327194568549683172972856431135479826684312957
028000030300510906006070050050300091040062000700050800000129700630400000290700580,528694137374518926916273458852347691149862375763951842485129763637485219291736584
859670000020009001040030060005013829000000407703004500000208090001045070638100004,859671342326459781147832965465713829912586437783924516574268193291345678638197254
420805106507000000003906052090003000016080004805102700000060830200709001004000095,429835176567421389183976452792643518316587924845192763951264837238759641674318295
030090000020000495500674008004009060001000952000820701805703200060008030097510600,438295176726381495519674328274159863681437952953826741845763219162948537397512684
040006902003000800085109040036580207092073000070400001200045000007000500000017360,741836952923754816685129743436581297192673485578492631269345178317968524854217369
020100800090003045800706030402609070000020160000037509901050087003004600270000900,327145896196283745845796231452619378739528164618437529961352487583974612274861953
708500030001040002020869000070280400083000090500003700106900000000650024094000061,748512639961347852325869147679285413483176295512493786156924378837651924294738561
706000000290004050140936000830020009050000001004098200010700063407000580029605400,786251394293874156145936728831527649952463871674198235518742963467319582329685417
200000193040005000071803004000028700100604802006000050004060007380500006009102300,258476193943215678671893524435928761197654832826731459514369287382547916769182345
950000020020001000804900006402053009300006708000040052080002670007095003010600400,951364827726581934834927516472853169395216748168749352589432671647195283213678495
010053072090061000008002004000070105420900700006008039700510380065000000030286040,614853972297461853358792614983674125421935768576128439742519386865347291139286547
000034008207090006000010070064000092720008000390002610085100700609540000000009530,956734128217895346843216975564371892721968453398452617485123769639547281172689534
800006053000150470004200000710002000509830001600004900060009302307405098408000060,871946253236158479954273816713692584549837621682514937165789342327465198498321765
064003210007400935090170006008010600200000079000580040086090504350006000900020300,864953217127468935593172486478219653215634879639587142786391524352846791941725368
002800530007001008960000700005640020000300004100002950204500107090070640080130090,412867539357921468968453712875649321629315874143782956234596187591278643786134295
179000300050000060400130200047001020003908000591406007060000080208040073000089056,179562348352894761486137295847351629623978514591426837965713482218645973734289156
020950406003648000900002080000020690080001700095006302010007830370400009006800150,821953476753648921964172583137524698682391745495786312519267834378415269246839157
247006000800000540600930000008000095030507020074000603005701400760308100009020080,247856931893172546651934278128463795936517824574289613385791462762348159419625387
240003050601000009800947000000201590080000074305000680104052700000609030006410000,249163857671825349853947216467281593982536174315794682194352768528679431736418925
028000007015734020000001930003000049500960002002050860006289700487500000000000106,328695417915734628674821935863172549541968372792453861136289754487516293259347186
004000967050470000930026000005001072029048300008000000000800214700503680001090000,214385967856479123937126548465931872129748356378652491593867214742513689681294735
128006070004007008305400201500071002907800350000039040000002090769040000830060700,128356479694217538375498261543671982917824356286539147451782693769143825832965714
900075240002380501010900008006009350100000700590604002080067000003800000040020106,968175243472386591315942678826719354134258769597634812281467935653891427749523186
080100500090800037706000290200010485000003060579080010830025004000640003054070900,382197546495862137716534298263719485148253769579486312831925674927641853654378921
009003000208007005470096200395000108700008063040200000617400030080010900000605004,159823647268147395473596281395764128721958463846231759617489532584312976932675814
002053140060090000508607003070008500020046090003000080950020610000900704180700030,792853146361492875548617923479238561825146397613579482957324618236981754184765239
000903085760080010000105402081009300570026009092040070010500000349000050000032600,124963785765284913938175462481759326573826149692341578216597834349618257857432691
402700015800009200006000700003690001008030650090100400000002000000374062500001084,432786915871549236956213748743695821218437659695128473364852197189374562527961384
400069000325804600007000100030080019000003000804107205940000028006900470708005003,481769352325814697697352184532486719179523846864197235943671528256938471718245963
040800715000007400092000060807400102060700000500093800001046007905080000006001253,643829715158637429792154368837465192269718534514293876321546987975382641486971253
700050012640930080820040000090000000004760300510009620003800009000400065068071040,739658412641932587825147936396214758284765391517389624453826179172493865968571243
002850070090001460801000900100026000907000040040030805308500107050002000000790023,462859371593271468871643952185426739937185246246937815328564197759312684614798523
074002060609008205000009310087045031090000600000103002538000000006301078040200000,374512869619738245852469317287645931193827654465193782538974126926351478741286593
690000080007800003010700654400037060032510000005002090003690705029001800800040030,694153287257864913318729654481937562932516478765482391143698725529371846876245139
012004003780006049000090210000100007240500000530009801000025004095048670600000380,912854763783216549456793218869132457241587936537469821378625194195348672624971385
009002500080470091750100036008200004210750000063001082000090003600000910400603007,149362578386475291752189436978236154214758369563941782821597643637824915495613827
081043000002009005700000010840610920200090040030050687690702008000460700507000300,981543276462179835753826419845617923276398541139254687694732158318465792527981364
