084000003000890056002637100070905040001020800590010000705100309030002400106370008,684251973317894256952637184273985641461723895598416732725148369839562417146379528
090058600200970004078400030005006040030800572000037900000600003053004010401020085,394158627216973854578462139785296341639841572142537968827615493953784216461329785
090004502070000016602010398018090000400601230300200007501009800006008040700350000,193864572875932416642517398218793654457681239369245187521479863936128745784356921
900020600870006100401780003500000320000090080040013007059170002380009006020300540,935421678872936154461785293596847321713692485248513967659174832384259716127368549
400730090600105080018000020509006000170400060080002479007009200000681057000050803,425738691693125784718964325549876132172493568386512479857349216234681957961257843
080040900620500041000900053930480000007002100000075008060200000043009075001760302,385147926629538741174926853932481567857692134416375298768253419243819675591764382
108003000600090002000406705009040500003801060410700208200530100390020407076000800,158273649647195382932486715869342571723851964415769238284537196391628457576914823
301809000004010005800042306057030284009000500100064030900006008013000079700000420,361859742274613895895742316657931284439287561128564937942376158513428679786195423
090001040860902000103040000402005006030074090005316070010607084026000005000020300,297561843864932751153748629472895136631274598985316472319657284726483915548129367
008601070060000030020097104907420800030000007000080350009500040600049200580300601,498631572761254938325897164957423816836915427142786359219568743673149285584372691
004900002073480090200013607907800010000009500180024030006701003040050906050000820,514967382673482195298513647967835214432179568185624739826791453341258976759346821
054190000270050030600008047520000610800005924000860700700230000130004890090600005,354197286278456139619328547527943618863715924941862753785239461136574892492681375
000300140800000076150062308000047650072001000400590200060053800900800010208170400,697385142823914576154762398389247651572631984416598237761453829945826713238179465
090005007607100230200040800400007300009060150865300009016900040080620000970003010,198235467647189235253746891421597386739862154865314729316978542584621973972453618
000040070094030500032801906009162307800007000001500060105009700006050000000308002,618945273794236518532871946459162387863497125271583469185629734326754891947318652
008600035029000107040010080050023401000761000000840090500300004000009762107082900,718694235629538147345217689856923471934761528271845396592376814483159762167482953
040000190081070050000300064005007000830020006019050008200700001064908270500006430,346582197981674352752391864425867913837129546619453728293745681164938275578216439
005980000400030086071000200200040950067008002050001063792006300000204091000350700,635982174429137586871465239218643957367598412954721863792816345583274691146359728
026504003000600015040870900050000074609005002008200100200087000700300098103960500,926514783837629415541873926352198674619745832478236159295487361764351298183962547
000009003420800001003001270006004100000050030079200056050060800287010000061470920,718629543425837691693541278536794182842156739179283456954362817287915364361478925
030502009047010008800700610096000005002040800500201004109036700060800030700009500,631582479947613258825794613496378125312945867578261394159436782264857931783129546
007340020080000910001002006350094100000000408010060037400806053025407000806020700,697341825283675914541982376358794162762153498914268537479816253125437689836529741
000080002100409050093010086600050720578900100924600000060702000005090003007046208,456387912182469357793215486631854729578923164924671835869732541245198673317546298
530200490800007006024001078056709040400000000001038625000100000092060000000004387,537286491819547236624391578256719843483652719971438625348175962792863154165924387
036420080792000001000500000005140039200008700340090060000857400061930205007006000,536421987792683541184579623675142839219368754348795162923857416861934275457216398
006080057300120008190005300870600031003078004060400070400807200001340000005006090,246983157357124968198765342874692531913578624562431879439857216621349785785216493
000050238000400000127009000040030509003004060890060007008597100201000005600018470,964751238385426791127389654746832519513974862892165347438597126271643985659218473
070026000000005009539700080100470093080000064020089100490100028056300400700250000,871926345642835719539741682165472893987513264324689157493167528256398471718254936
200300090800940006005071300903610040480000600070800052000063710009027000000108503,247386195831945276695271384953612847482759631176834952528463719319527468764198523
008905040457200001620003007506000070003658109090001000081007900000030000000064832,138975246457286391629413587516392478743658129892741653381527964264839715975164832
040500301021900760000064080370000049896203000000006000005070018009002530010005072,648527391521938764937164285372851649896243157154796823265379418789412536413685972
060001902010365070708000030045090603102400080000000520370500001000009800904702005,463871952219365478758924136845297613132456789697183524376548291521639847984712365
008002090010030006603574000200807100000000064480390005007060082006051903950200070,548612397712938456693574218265847139379125864481396725137469582826751943954283671
060400780200005040040920005005009301108006570090003020070080030602010090010007204,569431782281765943347928615425879361138246579796153428974582136652314897813697254
020001030000800907406570000060300014237000005801060000004608250005019470300007809,728941536153826947496573128569382714237194685841765392974638251685219473312457869
400060370000708000205100900706240000300005091580009600904013200060020840000000053,418962375639758412275134986796241538342685791581379624954813267163527849827496153
050983001100060080030002004040000230009500408700010065007608090200350000860720100,456983721172465389938172654541896237629537418783214965317648592294351876865729143
400070010003600820061000507300040001809030050050280006500724903040500000007809200,485372619793651824261498537326945781879136452154287396518724963942563178637819245
060057900040820001300409000104593700002640890000080003025100670009070040800000052,261357984947826531358419267184593726732641895596782413425138679619275348873964152
001604000000027054062089000947006805500008140000300002208000007005070461000901300,751634289839127654462589713947216835523798146186345972218463597395872461674951328
000046800061230790234000005008097060700000259305000180080069301010002006009410000,957146832861235794234978615128597463746381259395624187582769341413852976679413528
910746003006008000085000720100064200800090350009005014040020079000600000723010000,912746583376258941485931726157364298864192357239875614648523179591687432723419865
008600007400050690000302140107000400905280036003000200810730000560008900300540020,298614357431857692756392148127963485945281736683475219812739564564128973379546821
906001320080000040001807900628703000500109007000400035700020804009000500400000193,976541328385296741241837956628753419534169287197482635713925864869314572452678193
300005490007060000600900705000008523080710600402030008840620010760003950200100000,318275496957364281624981735176498523583712649492536178845629317761843952239157864
000000079008005026607310000000500904240080030010930280005602043000750800090003001,451268379938475126627319458873526914249187635516934287185692743364751892792843561
300802000060075800102000004590200300030004207807600090000000008050900046006710530,375842619469175823182369754594287361631594287827631495213456978758923146946718532
076008025000907080100542000809010007007200501405096030064000009301000860200053000,976138425542967183183542976829315647637284591415796238764821359351479862298653714
800005040609010307504930002700092160060008030003060700000400215040100800980203000,837625941629814357514937682758392164162748539493561728376489215245176893981253476
208000403900130205000009060780602000053400001004500600060350000302070018590000700,218765493976134285435829167789612354653497821124583679867351942342976518591248736
304900705000710002010002380060400820209000004007051060003000090080095006405870001,324968715958713642716542389561439827239687154847251963673124598182395476495876231
000004000543800700079000206000640503100207000060008009018002950407300600250710080,621974835543826791879153246982641573135297468764538129318462957497385612256719384
951006030000300040000725180008000590103060200040078006380407900500003067020090000,951846732872319645634725189768132594193564278245978316386457921519283467427691853
000004003600020780401090005060087100539010000070500206002006840017038000000050090,725864913693125784481793625264387159539612478178549236352976841917438562846251397
034500009071008000502007040280600500005000106007004038090170205003092060100060007,834526719971348652562917843289631574345789126617254938496173285753892461128465397
607000001000037094095108600002083700010520080400090000030000927050070000208004360,647259831821637594395148672562483719719526483483791256134865927956372148278914365
900058004500600301740010009000307000015020080602000403007542900403970105000000600,931758264528694371746213859894367512315429786672185493167542938483976125259831647
000530420970000005000012009020104700681007290500000038004020800003671000206003500,168539427972468315435712689329184756681357294547296138714925863853671942296843571
300060810805400000160970002608100009009820001200050007700204093000000260000630045,397562814825413976164978352638147529579826431241359687756284193413795268982631745
080600324520900000000407800100308040300000700960001008001256070407000280030000901,789615324524983167613427895175398642348562719962741538891256473457139286236874951
003200080907305602061000700000087504500120000010600009002041308800769105070000000,453276981987315642261498753326987514549123867718654239692541378834769125175832496
460800000003005900008030071320570100040003060000609020000000207185240306700910004,467891532213765948958432671326574189849123765571689423694358217185247396732916854
005400901038000070790600400020000050000903180000751002809340600017098200300000005,265487931438219576791635428123864759576923184984751362859342617617598243342176895
105000890000030060200609047000000509070006402089040300050200001403901700007380600,165427893794138265238659147642813579371596482589742316856274931423961758917385624
000000200041930050802564093098206001700000046005300007907050680000601300500007000,359718264641932758872564193498276531723185946165349827917453682284691375536827419
014087060007002310950100020031705006006004002500009070000060000872001009309000540,214387965687592314953146728431725896796834152528619473145963287872451639369278541
030002908000050167906040320100394000024006090050070800041700000807005006060128000,735612948482953167916847325178394652324586791659271834241769583897435216563128479
407026500005007100680035000002000094700069002310700000048390206000058043020000800,497126538235487169681935427862513794754869312319742685548391276176258943923674851
000061027901040083060000000030074510807100930002080004450608000100520000090000306,385961427921745683764832195639274518847156932512389764453698271176523849298417356
036100570900003040007560802015008790000000004080270015308004000000020060600890120,836142579952783641147569832215438796763951284489276315328614957591327468674895123
490031070006005200000674009050097300008000010340010005082000003030050091700068502,495231678176985234823674159251497386968523417347816925582149763634752891719368542
740000160080300020001806045012050009008000700406903010009504003100709050020630000,743295168685341927291876345312457689958162734476983512869514273134729856527638491
004007100063840005108005306010609004380072900000080027627500010000030090500004008,254367189963841275178925346712659834386472951495183627627598413841736592539214768
501400000008207054060008390037800006009031040100040702006950080040006000002080071,571493268398267154264518397437825916629731845185649732716952483843176529952384671
070600100006024000050070032503080400760100200001905080820030005004000806010200074,372659148186324597459871632593782461768143259241965783827436915934517826615298374
000000081050486920070005600003500060007020014169800000920740000406000032000001008,694372581351486927872195643243517869587629314169834275928743156416958732735261498
000902507004030800200580001040025060390064200001000000003006405007800109850009076,186942537574631892239587641748125963395764218621398754913276485467853129852419376
001700000905010670400006530130029800050108004020000300206300740800900120000074080,361752498985413672472896531134629857759138264628547319296381745847965123513274986
050300126000801004907000005080200500705009200036004018600003001020700030400610870,854397126362851794917462385189236547745189263236574918678923451521748639493615872
900600403002090570400001006007480009000050060038120750810002090000003200040700135,981675423362894571475231986527486319194357862638129754813542697756913248249768135
006043080010092000035000007371050006600210009050034008000106470008009651002000000,926743185817592364435861927371958246684217539259634718593186472748329651162475893
050007000000200860100364027007000030090045010600910004038002156540800003902000070,256187349374259861189364527417628935893745612625913784738492156541876293962531478
300800197009100008400700350800007040005000002200954600708030060152008904000020001,326845197579163428481792356863217549945386712217954683798431265152678934634529871
600300000900080047030051602080940035070600020204070180005000000309427500710800009,627394851951286347438751692186942735573618924294573186845169273369427518712835469
500807000400290860620001307070600001009700030840030050050000000000040182900106043,593867214417293865628451397375684921269715438841932756154328679736549182982176543
015000630000000047930840250000700810200905000060031700003500006026370004704018009,415297638682153947937846251349762815271985463568431792893524176126379584754618329
087050006030907100600100005053049000900010200800206030710000000005080024090320701,187452396534967182629138475253849617976513248841276539712694853365781924498325761
000009860070130005462000001104250000500700020008360904001900070250000080083040602,315429867879136245462875391194258736536794128728361954641982573257613489983547612
800100025001090000000650907002000083930200400054803006047000630106709500000420000,869174325571392864423658917612945783938267451754813296247581639186739542395426178
000000035051408007600072090000300580302045109700009006104020000079000600068090024,827961435951438267643572891496317582382645179715289346134726958279854613568193724
193860500500009020080405010600540100050300070007006830370290400040070009026100000,193862547564719328782435916638547192259381674417926835375298461841673259926154783
040001000008597300605200079200003600903050204000100850004600000870900021310074060,749361582128597346635248179251483697983756214467129853594612738876935421312874965
060400030842003760000010908007629000301007000020000450093005000500082019608700300,169478532842953761735216948457629183381547296926831457293165874574382619618794325
870300000010020307905007026100084050300900600060001249090875000000040008700003165,872369514416528397935417826129684753347952681568731249691875432253146978784293165
000109700364000000700843060003008210600000050080027640091502070000910800026004003,258169734364275981719843562943658217672491358185327649891532476437916825526784193
100009574007000080480520930000041200753000000041006090000290705608030000020070013,132869574597413682486527931869341257753982146241756398314298765678135429925674813
100080004700000602085409700410075208200100009000030060572098000004001000060250307,123687954749513682685429713416975238238146579957832461572398146394761825861254397
002060301463005700500702000109080500020000070080004006007206903001053400600109080,972468351463915728518732649149687532326591874785324196857246913291853467634179285
809001307004006010002407096010000482076000000000352000300600900040200650080974020,869521347734896215152437896513769482276148539498352761321685974947213658685974123
080300602009020800057006013000080200790040006600109750402013008015000040030700900,184375692369421875257896413541687239793542186628139754472913568915268347836754921
