053600047070400900208100350000340700120507000009006010300200870010005200000008509,953682147671453928248179356586341792124597683739826415395264871817935264462718539
130050800470602350600070000500040960000100204908006017050700000006004032003028040,132459876479682351685371429521847963367195284948236517254763198896514732713928645
081600070690000050000280030500709140138060900007002060260047085700000000010350002,381695274692473851475281639526739148138564927947812563269147385753928416814356792
200030401009106030700809002030650040407002180020007000000008670105000003064200005,286735491549126738713849562938651247457392186621487359392518674175964823864273915
000143708003005000006028090015300000000419300079006002020080907804090100500600020,952143768783965241146728593415372689268419375379856412621584937834297156597631824
039015000072090540100008036548030020000604000000070089905000760000253100010900008,639415872872396541154728936548139627297684315361572489925841763786253194413967258
030109000706000500501020038000860004000900801980003750040030007605200000213680900,438159672726348519591726438157862394364975821982413756849531267675294183213687945
008040070037006150205090803500800001000020798009730040000403600400000219100052000,618345972937286154245197863574869321361524798829731546792413685453678219186952437
342060000090048700000109500008500913100800004420003000210070080006000209075300001,342765198591248736687139542768524913153897624429613857214976385836451279975382461
095083000043502109000600070289005001160020097000000040000031800500407002020009063,795183426643572189812694375289745631164328597357916248976231854538467912421859763
608049203004830975000010000900603108040120000000050007057000802100490000306700400,678549213214836975539217684925673148743128569861954327457361892182495736396782451
090140006003900005204008000000305290012800573080090060051203000700000150800600704,598147326173926845264538917647315298912864573385792461451273689736489152829651734
000000005289065003004927060071030950006000300020006407050000000460200070703054180,617348295289165743534927861871432956946571328325896417152789634468213579793654182
906004080053009007047803200005000609000007420080010030030261070000000900200798051,926174583853629147147853296375482619691537428482916735539261874718345962264798351
507004003613000000000018050000701009395400006040060308006290070130005400802000905,587624193613957284924318657268731549395482716741569328456293871139875462872146935
000000400956001027000359010060084000004000836100730209003092004478060050509000100,831627495956841327247359618362984571794215836185736249613592784478163952529478163
000001082006480907000009305078604000503700100000003400800000026001092830054000090,495371682326485917187269345978614253543728169612953478839147526761592834254836791
703800000009006075006205000100360507040900800070041069801054390020000600004002018,753819426289436175416275983192368547645927831378541269861754392927183654534692718
000000060093000208176300000008005003020160700000028450604001000750004896209750000,842519367593647218176382945918475623425163789367928451634891572751234896289756134
000000000058090401406002005080405900275100800000076032800003240039060070702910006,927541683358697421416382795683425917275139864194876532861753249539264178742918356
000034009070120000100000080520010900306500870947600050600308020450700300000009146,265834719879126435134975682528417963316592874947683251691348527452761398783259146
906000243000060005728000100302400069075000020800003001030049050000210034090807000,956781243143962785728354196312478569475196328869523471231649857687215934594837612
001700009900084003800300672000000000003005400507400061005901306100020980420060500,361752849972684153854319672248196735613275498597438261785941326136527984429863517
008050940014609800020010057005400209040500030802730000360000400000006705209100080,678253941514679823923814657135468279746592138892731564367985412481326795259147386
090008013620097450008000200310009072500210006000045800200130009843000000070050060,795428613621397458438561297314689572587213946962745831256134789843976125179852364
803005001900007002200039400078000910530000046001008500000902300040106070006400089,863245791954817632217639458678524913532791846491368527185972364349186275726453189
906008000020051006080400107100609200038700094040023005050062000301900050700030001,916278543427351986583496127175649238238715694649823715854162379361987452792534861
260047008040006900007085002004000070080000065103070800408500100309020450000310009,261947538845236917937185642694853271782491365153672894478569123319728456526314789
625004108000030092010060700000670040538000006400509200200008007040010009073200001,625794138784135692319862754192673845538421976467589213251948367846317529973256481
004000160000005087000390040700510900306000000409000658020450000060120075900708203,534872169291645387678391542782516934356984721419237658127453896863129475945768213
004053108870009050093600070000046003008902067410000900005000000030007002602105089,264753198871429356593681274927546813358912467416378925785294631139867542642135789
002834600001600000940700050003206007018000020000089104300040200604050803080002709,752834691831695472946721358493216587518473926267589134379148265624957813185362749
019000000520047001083920650000015400000009362094073800800050000630008007001000203,419536728526847931783921654368215479175489362294673815847352196632198547951764283
030000270754009080018065000009800603083401009020090740002300050500020401090007060,936184275754239186218765394479852613683471529125693748842316957567928431391547862
006300081000200597500917000000170408400006300902840065301702006005000902000480070,796354281134268597528917634653179428487526319912843765341792856875631942269485173
009124005700900810000300006200003004090056100100000528070081050060000000004590203,689124375743965812521378946257813694498256137136749528372681459965432781814597263
000010098000540207200039060037006402904800001051000700000900146096057003080200000,745612398369548217218739564837196452924875631651324789572983146196457823483261975
008005610006702804009030057920004300067053009030070020500008002040060908000007001,278495613356712894419836257925184376167253489834679125591348762742561938683927541
067001020549006700000390040130060050002000008050820070004050000270410690000900380,367541829549286731821397546138764952792135468456829173984653217273418695615972384
020039004070860003006002000004050609001200500007000830890501270160700050040608390,528139764479865123316472985284357619931286547657914832893541276162793458745628391
800040006600300240200508137004000005001200803500710000400036090008000074053071002,837142956615397248249568137324689715791254863586713429472836591168925374953471682
000070105001423060679000000908000406400035070052800003000040007020100804804290030,243679185581423769679581342938712456416935278752864913195348627327156894864297531
400006503000102008097500040000007001835600200001430060100825009063700050080009007,418976523356142798297583146649257381835691274721438965174825639963714852582369417
400060509503071200100008006004007805009320060617000020086400007000100930230005080,478263519563971248192548376324617895859324761617859423986432157745186932231795684
900004701075009800010020003000870306837900010200500000500060000084301200002050179,923684751675139824418725693159872346837946512246513987591267438784391265362458179
005208079001053002800607004602040100740030000038000906086901020300000700090080050,465218379971453862823697514652849137749136285138725946586971423314562798297384651
000000000790108002805097030003000084150003070070802010009004005000261900480075360,341526897796138452825497136263719584158643279974852613619384725537261948482975361
050000870100480320900607000600870035000500210300209400006040001008361500204000090,452193876167485329983627154621874935849536217375219468536942781798361542214758693
004810005050200090071309200000520460700000010003640908005003020802100607960000300,294816735358274196671359284189527463746938512523641978415763829832195647967482351
006320001000090400100700080000800027037005049809470006670280900304000650010050308,546328791728591463193746285461839527237165849859472136675283914384917652912654378
080500000001034708409000200600002890010403000700690050560201003800005407003070006,386527149251934768479186235635712894918453672724698351567241983892365417143879526
048100206003520009009007100010450000320000004095860070000704010000390407600010800,748139256163528749259647138817453962326971584495862371932784615581396427674215893
050009002380700400097085000500160008062000040400000709000840013610500084000302650,154639872386721495297485136579164328862973541431258769725846913613597284948312657
070012006096570008008003540010380450400960002059000000700040380003700201200106000,574812936396574128128693547612387459437965812859421673761249385943758261285136794
408090002032000060006700490500078201029540000000060008310004600600020730090000085,478396512932415867156782493563978241829541376741263958317854629685129734294637185
006030900500007030190000045400002068061490200075016000004085070908304000300200010,746531982582947631193628745439752168861493257275816493624185379918374526357269814
000290300400507209062400100006700400307060090090053080021080004803601005050040070,175296348438517269962438157586729413317864592294153786721985634843671925659342871
200000150300890064076401030540300000000640903007009002008006007021000000960508020,294763158315892764876451239549327816182645973637189542458216397721934685963578421
086002000540070290702416000007934000000060003000200814100040030003000508905700020,386592147541378296792416385817934652254861973639257814128645739473129568965783421
300000250009060080040071903604029800000003007250104090008405030090000100163807000,376948251519362784842571963634729815981653427257184396728415639495236178163897542
010605008003700040985020000000009030200008104070040890390200001801004207060007950,714695328623781549985423716548179632239568174176342895397256481851934267462817953
800000620010025000204901008002000307070092840405073000600504130090016200008030750,859347621716825493234961578962458317371692845485173962627584139593716284148239756
020043000005710800601509007000860030260005001004001970030096000507020609080400200,728643195395712864641589327179864532263975481854231976432196758517328649986457213
010009700000600082089703006004000128006407593000000004805016000207090050430000200,612849735743651982589723416374965128126487593958132674895216347267394851431578269
050780432004000100000109780190650000020070008608490507000000020040035000703010006,951786432874523169362149785197658243425371698638492517519867324246935871783214956
340010802080900016007008000960000003250300040400020950000650070020103008630009024,346517892582934716197268435961475283258391647473826951814652379729143568635789124
200040307000102809009085000006000005050000160743050008810209403600070201370004090,281946357567132849439785612126498735958327164743651928815269473694573281372814596
400100009230009800061052070000601903100500060070000008093000407050068200000497600,487136529235749816961852374528671943149583762376924158693215487754368291812497635
005070008009360204240905000000280000413090800000001076700050030050600409006034017,635472198179368254248915763567283941413796825892541376784159632351627489926834517
000000004034100502620050830060080000900601070205940308092500001000702400750800006,579328614834176592621459837367285149948631275215947368492563781186792453753814926
143800006070406093008000020207000000000042905600050180809060500010904060000705300,143829756572416893968573421257198634381642975694357182839261547715934268426785319
013460008009002000000900475087040020025001800400205013900038150604070300800000900,513467298749852631268913475187346529325791846496285713972638154654179382831524967
040009805006370209201060007020100080107008006080023000002900301509000040000401700,743219865856374219291865437624197583137548926985623174472986351519732648368451792
020503040300801900704000008000094802400720010690005030030200470058000601100609200,829573146365841927714962358571394862483726519692185734936218475258437691147659283
610000000800540120007090005730080000001430208580027096079802060040010000000900030,615278943893546127427391685732689514961435278584127396379852461246713859158964732
000003005605000237100709604006890050000002040703140009481060970020010000000308002,874623195695481237132759684246897351918532746753146829481265973327914568569378412
000090700600300001053000680104700205032609800007400000010004007026973008090250040,841596732679382451253147689164738295532619874987425163315864927426973518798251346
096140700040068023000500010030000807710004006500920000000009038003000500204086009,396142785145768923827593614432615897719834256568927341671259438983471562254386179
814600020029008000700001049500000178007206000040080900000130506690750003205000004,814695327329478651756321849562943178987216435143587962478132596691754283235869714
060010850029040300300708400016003000004809002005074603000000180190056000073200004,467312859829645371351798426916523748734869512285174693642937185198456237573281964
905000000204000703000670004700009640003020908500861020008700206390000000406538000,975143862264985713831672594782359641613427958549861327158794236397216485426538179
093001000200038007050200004000005400605010300310070609079600082008900500530004000,893741265246538917751296834987365421625419378314872659479653182168927543532184796
091040005062100940000007800406002030000030207007098100000050001300070058008024706,891243675762185943543967812486712539915436287237598164674859321329671458158324796
852074060100090003000108500020400090040607130080050004709015000560023708000000009,852374961176592483493168527627431895945687132381259674739815246564923718218746359
030008602000091408085060030000020005947006000006100900061405007300700200098010043,139548672672391458485267139813924765947856321526173984261435897354789216798612543
530090027004000050600180000208050046070630000050001709890003100700000502000024030,531496827984372651627185493218957346479638215356241789892563174743819562165724938
700030140340600005082009000050071092400000510006900004900308001035000206078205000,769532148341687925582149367853471692497826513216953874924368751135794286678215439
108300029052701680960000100005108004700650002030024050040560001306000070000002890,178346529452791683963285147295178364784653912631924758849567231326819475517432896
860105000090043008500600032480019357000800090320006401700000004010000070052007900,863125749291743568547698132486219357175834296329576481738951624914362875652487913
090006002705000184080070000100450009409020300000087500940100800036002005000300926,394816752765239184281574693178453269459621378623987541942165837836792415517348926
098006070000050800120037040803400002000070001040023509089004100305009004670015090,598146273437952816126837945853491762962578431741623589289364157315789624674215398
026390100010702009009006054030000801004630005761205000082040390000008007900100400,526394178418752639379816254235479861894631725761285943182547396643928517957163482
800302109057100480030040020000069000009800700620000031000005876180027000406900000,864372159257196483931548627713269548549831762628754931392415876185627394476983215
000703040600910503002060098400000602100450900080001300920000470560840000003005001,895723146674918523312564798457389612136452987289671354928136475561847239743295861
002019705800400006410030800000164090005008100600200003020600000090700034034002008,362819745859427316417536829283164597945378162671295483728643951596781234134952678
050020070900000180820690000000906000007430500240801300680010023090005041304000706,453128679976543182821697435538976214167432598249851367685714923792365841314289756
000000300390000071600058042080200095007100260040006000008907010250604009700035004,824791356395462871671358942186273495537149268942586137468927513253614789719835624
630700001004600002070052000050167020390200400000904068005091006900408070801000043,632749851584613792179852634458167329396285417217934568745391286963428175821576943
080007060450209000301040080000100506060008270042700093900603708025004010008050000,289317465456289137371546982897132546563498271142765893914623758625874319738951624
004800050300006010002573000008609400700001080105000326600020005020047900001900007,964812753357496812812573694238659471746231589195784326679328145523147968481965237
