304008012001000807000005600007200085906010030200409060500734100093020050042906000,374698512651342897829175643417263985986517234235489761568734129793821456142956378
027018000004703800910560300030600000700302054000005906005091070100000048460800209,327918465654723891918564327531649782796382154842175936285491673179236548463857219
700043000005108370001000900800509000056080402000002035907000060010200004680307100,768943251495128376231675948842539617356781492179462835927814563513296784684357129
650002804400090031800070090704500000002000680500031700000820307003004010970060002,659312874427698531831475296794586123312947685586231749145829367263754918978163452
000008506203004000760350400040000078000016342082900010510700000004009703600020091,491278536253694187768351429146532978975816342382947615519783264824169753637425891
012760380000000590000085620601007400005491000780020003003600140079100208020000005,512769384368214597947385621691837452235491876784526913853672149479153268126948735
090085040000400230601903080004090007702060500010800000000030604975000001006270008,293785146857416239641923785564392817782164593319857462128539674975648321436271958
037506002500400007864000010000060590698002004001380700040001000002900070010023049,137596482529418367864237915273164598698752134451389726946871253382945671715623849
100030020980002300700001900620740039004068000570000008000600090050017084403500001,145936827986472315732851946628745139394168752571293468817624593259317684463589271
003504296000061830000900000270600000030040060006059120605870400048100700190020003,713584296952761834864932571279618345531247968486359127625873419348196752197425683
501008200080000904009500610158600040000000300270849000000063007406270001900100530,561498273782316954349527618158632749694751382273849165815963427436275891927184536
000001037000052068006830905095000300040379080280000010004160000507400200310900650,852691437439752168176834925795218346641379582283546719924165873567483291318927654
000210460001000305976300000024078009000100608100504073007002000050007082830960000,583219467241786395976345821324678519795123648168594273417852936659437182832961754
960003007340018060705200000150006040000054090008000026600090800020007000004030159,961543287342718965785269413157926348236854791498371526613495872529187634874632159
073801040006500800050402003080907350900040000010000067004080600060050192001300070,273891546146573829859462713682917354937645281415238967724189635368754192591326478
102078040000002039000590700068015072307609004450003000009000050704000086600230100,192378645576142839843596721968415372327689514451723968219867453734951286685234197
009700000200603809073100005000009200100000008605000030008070601340026907050004002,569748123214653879873192465487539216132467598695281734928375641341826957756914382
000036200914005760000000810000000570008910000006074030060007400059460080207801090,785136249914285763632749815493628571578913624126574938861397452359462187247851396
000502060508940000000000803870030040000600012019750600900060004103000590054010307,731582469568943271492176853876231945345698712219754638927365184183427596654819327
005470800870061050060500003610040200039200000000908410900000600700003102500607048,395472861872361954164589723618745239439216587257938416983124675746853192521697348
070080000460000190300714006004500768005230000190008020802009003900073400010600500,571986234468325197329714856234591768685237941197468325842159673956873412713642589
902007050000080004847105002400590103780006000309000500000009026003700000560420910,932647851651982734847135692426598173785316249319274568174859326293761485568423917
000000003060209080047510900090321000501060209870040000009083601280000054006700300,928674513165239487347518962694321875531867249872945136759483621283196754416752398
750610020081020060000004003814030056005000700620908000000243005390800210000000007,753619428481327569269584173814732956935461782627958341178243695396875214542196837
039061008012580000040203010000000023056007940401095800078600405000700036000010000,739461258612589374845273619987146523356827941421395867178632495294758136563914782
080702034005008021001040000034650100500004087060009000200800700009000360640573009,986712534475368921321945876834657192592134687167289453213896745759421368648573219
004080062600075810100003709200000907940050300038102004000009130500200006407036000,374981562629475813185623749251364987946857321738192654862749135593218476417536298
400100005602009003107380960530070602000040070068900000805006340001790050920000080,493167825682459713157382964534871692219643578768925431875216349341798256926534187
000004900380070102460900000075090800200601007904300000000260570501008300000105084,157824936389576142462913758675492813238651497914387625843269571521748369796135284
010000803007520006540068000750640920008000005000900130002150009803007004000004760,216479853387521496549368271751643928938712645624985137472156389863297514195834762
060900007003600080820704503000506201090030004705020900040200008050801692001000700,564983127173652489829714563438596271692137854715428936946275318357841692281369745
006054080580000904000002706830216000967000003040030805102003000090475100300800007,726954381583167924419382756835216479967548213241739865172693548698475132354821697
091603700080071256050008000034000090105300807000067010000026403800400960000800502,291653748483971256657248139734182695165394827928567314519726483872435961346819572
071002000806000040030800900108050700065200019040630005000470620007360800090000503,971542368856793142432816957128954736365287419749631285583479621217365894694128573
002405070080006002709120408100060020020000003504790001000508000093040100007010634,312485976485976312769123458178364529926851743534792861641538297293647185857219634
081004002700039045000070960200058004000200090050710803860300001090007200574600080,981564732726839145345172968237958614618243597459716823862395471193487256574621389
020000080000080391080074005806150400540700030000060008069540000700600500001030072,925316784674285391183974265896153427542798136317462958269547813738621549451839672
005304006000010030000000487060070290037050041040090005420087063100209850003100009,785324916694718532312965487561473298937852641248691375429587163176239854853146729
704300980000060500010950700260010070000008302003075160038140200672000400090080005,754321986329867541816954723265413879147698352983275164538146297672539418491782635
620040900009000008034700000000090003510000020068001574000624007045108300700053012,627845931159362748834719265472596183513487629968231574391624857245178396786953412
001080300260005090800900056510340000020501800003000070090708604406003005070014200,951486327267135498834972156518347962729561843643829571192758634486293715375614289
700036090200000800056200001009080700032000580400050062010607000085340020000098304,741836295293415876856279431569182743132764589478953162314627958985341627627598314
082075090060030104400002070004100507950008000300026000019300000005000206836000041,182475693567839124493612875624193587951748362378526419219364758745981236836257941
004020050030480760020900000009607100361002080070000430600100043208075001090000008,814726359935481762726953814489637125361542987572819436657198243248375691193264578
500260800090010705087400020310009604400732008008100050003000912705080000009600000,531267849294318765687495321312859674456732198978146253863574912725981436149623587
700080006100000047046010020000700010805301069490020700053006090080092570000004000,729483156138265947546917328362759814875341269491628735253876491684192573917534682
001708002600010400073020080009005348200003090008046005004800679090300100500407020,451738962682519437973624581169275348245183796738946215324851679897362154516497823
006200009790005000008100273400001800075040006600597000000010090053000024020300081,316278549792435168548169273439621857275843916681597432864712395153986724927354681
960010800004000050701430006000050400007060093309001080010900200403680007200005069,962517834834296751751438926186359472527864193349721685615973248493682517278145369
801020090005038007067000010090005370600900400078002060402080000309401250000050008,831726594945138627267594813194865372623917485578342169452689731389471256716253948
010850400600009007032406500008030210005100009060002084081060750903700008000001002,719853426654219837832476591498637215325148679167592384281964753943725168576381942
052070000003600480100805300017900000200040096090080140006300800500004200009020657,852473961973612485164895372417936528238541796695287143726359814581764239349128657
608005040039070160210090000000900850006053209001008073703026000502100486000000000,678315942439872165215694738327961854846753219951248673783426591592137486164589327
280100000500406720003000008400930160006208507907005300060090040000700035310850900,284173659591486723673529418458937162136248597927615384765392841849761235312854976
020081000500040206706003010300007501007054082009008307000010603690002405400970000,923681754518749236746523819384297561167354982259168347872415693691832475435976128
000850703700940268100000000000090435048002009060070020010720090502400100690083000,429856713753941268186237954271698435348512679965374821814725396532469187697183542
240690730980045061001002000570903100000070840030004005610200000008309500000000092,245691738983745261761832459574983126192576843836124975619257384428369517357418692
003700040000209008217000905061900407005080006940100000002001800570004300084360509,893715642456239718217648935361952487725483196948176253632591874579824361184367529
004000310100574800806090000900142580210008070000050006083029450700000000400065207,574286319139574862826391745967142583215638974348957126683729451752413698491865237
806004270013690000570000000700580036305002080409060010000030090002908600000100705,896354271213697854574821369721589436365412987489763512647235198152978643938146725
005060972000800006410020000039600051000000800760013004092100300070249005540070600,385461972927835416416927538239684751154792863768513294892156347673249185541378629
500070496400006102003900000200040960700000025080097301906108000070050603014000000,528371496497586132163924758231845967749613825685297341956138274872459613314762589
607000100000074608050209300090582000480000006203000500070005000000403210930610840,647358192329174658851269374796582431485931726213746589174825963568493217932617845
004020003350007002020800610809050040042009036500700180006004908170093005000600000,684921753351467892927835614819356247742189536563742189236514978178293465495678321
203000001080706309094008020006097080045200000070000530000305400059060700800014206,263459871581726349794138625326597184145283967978641532612375498459862713837914256
074001000300600702000030109400000005980742300167085000020094601890013000000800090,674921538319658742258437169432169875985742316167385924723594681896213457541876293
100030002000010459050487030000000020085900007091300640069002000703005000004000861,146539782378216459952487136437651928685924317291378645869142573713865294524793861
030860000001040700000007045057008093016032400800900050402000000090700206300090870,734865921521349768689127345257418693916532487843976152472683519198754236365291874
007630100805910200203008007000090408026700003540000020000021900170046050000800340,497632185865917234213458697731295468926784513548163729384521976179346852652879341
005008496809602000100050700490800160082700030000043050207000800060100003300204000,725318496849672315136459782493825167582761934671943258217536849964187523358294671
000072036050600020200000801300080960607035100084190000701560008009000002400803700,148972536953618427276354891312487965697235184584196273721569348839741652465823719
079000008800690050000014200002083907701900030000501400695700003030000062000308504,179235648824697351356814279562483917741926835983571426695742183438159762217368594
002003041501700890740600000008000502290060000000087610070021000016300204904850030,682593741531742896749618325168934572297165483453287619375421968816379254924856137
204001003000600081070290500500160349006025000980007050002800107790400000005030096,264581973359674281178293564527168349436925718981347652642859137793416825815732496
015000004000800370800060001048002095603500710000079000080020003504130080100904056,315297864462851379879463521748312695693548712251679438986725143524136987137984256
530040000902850016006003008051060409000072030000000850800731000367900000205004900,538146792942857316176293548751368429489572631623419857894731265367925184215684973
040000000003027610678000005002010060130004890095800300027940000800500407010006083,241685739953427618678193245782319564136754892495862371327948156869531427514276983
000050010800207005069040230001000052030000480005964300042015700000802006070096000,327659814814237965569148237491783652736521489285964371642315798953872146178496523
005800041000050000100670590207000600010039000004200738000040380098306054060010002,675893241349152867182674593237485619816739425954261738521947386798326154463518972
000049057714008000060000820806007000243060090000020045000000076002530900489016000,328649157714258369965371824856497213243165798197823645531982476672534981489716532
050008064407600010000300809300402098000005020002000507298060100504070000010083200,953128764487659312621347859375412698869735421142896537298564173534271986716983245
001000804830020657050000030500310020609500400000079000100004000083100260706850900,261735894834921657957648132548316729679582413312479586195264378483197265726853941
379050001000309002050040070400006008005800090087030264701000040960001700040260300,379652481814379652256148973492716538635824197187935264721593846963481725548267319
000096000008010053040007102074005020100204900500830040980100567601000400030009008,215396874798412653346587192874965321163274985529831746982143567651728439437659218
027500000000008926008049500400027000003004180600090032040002751800000060009130048,927563814534718926168249573481327695293654187675891432346982751812475369759136248
200386005087090000905000100030200010509070084804009360008052040003001790600704000,241386975387195426965427138736248519519673284824519367178952643453861792692734851
041200006000005730500008004800460001200000090310097205020080407050903800008720900,741239586682145739539678124895462371274351698316897245923586417457913862168724953
230000007016054200800000530902160740057802160000090000008003000073040050004726001,235689417716354298849271536982165743457832169361497825628513974173948652594726381
000100090870600002002879036583002000940300015020064000030091048607050000400000509,364125897879643152152879436583912764946387215721564983235791648697458321418236579
002040070857930000000108000203500019170000052000020407001080043060250080709300006,912645378857932164436178295243567819178493652695821437521786943364259781789314526
301000005000010234720080600400395080008002940070000060006104098030900000804750001,341269875689517234725483619462395187518672943973841562256134798137928456894756321
702000018050000400009457006900020040061003007078069050306805000804070000520010903,742936518653281479189457236935728641261543897478169352316895724894372165527614983
000000000380007940040150263175800000002009300009200180700300026050940070610070400,526493718381627945947158263175834692862719354439265187794381526253946871618572439
007640095900078200204000306002900703030400100000805060876000000503001920009500047,317642895965378214284159376452916783638427159791835462876294531543761928129583647
400370200701000009050080000000760005003000800070538620028600704090001050300200160,489375216731426589256189473812764935563912847974538621128653794697841352345297168
000002694024100030800930500760200080301080000090051406600098700000700105530000028,153872694924165837876934512765249381341687259298351476612598743489723165537416928
050010046200580030087090100009000600504700001000940523000123007306008000470050010,953217846241586739687394152129835674534762981768941523895123467316478295472659318
000413006035000000000600780002090008480750030003002071070280060061007090950060020,827413956635978412149625783712396548486751239593842671374289165261537894958164327
800052000070004060206900040004190307000063029500700000010300950409007038002080100,841652793975834261236971845624195387187463529593728416718346952459217638362589174
000076085009020001305800060704009000806003109000200300200958000103064002040000057,412376985689425731375891264734619528826543179591287346267958413153764892948132657
