008403005075098003600070100000002080402300060391080400030509020806700500100020704,918463275275198643643275198567942381482351967391687452734519826826734519159826734
716000000050130920900060050400008297507001000300200004080040100040705802000082060,716529348854137926932864751461358297527491683398276514285643179649715832173982465
002008107305094000060003040720005604600100308008900010409020805080057900003600070,942568137315794286867213549721835694694172358538946712479321865186457923253689471
000080090074500208092003500068400000100007030409000706600020400050906010003718020,516284397374591268892673541768439152125867934439152786681325479257946813943718625
003000210070000400005019006780005300300067005021308090000450000050703180409206000,963574218178632459245819736786925341394167825521348697837451962652793184419286573
801000027007006541000003000200014095080605073300800160405700209003940000000502610,861459327937286541542173986276314895189625473354897162415768239623941758798532614
390000040004001207100460035905012800000509001070040060000300452800007003560090010,398725146654931287127468935935612874486579321271843569719386452842157693563294718
100670009007048010040300500050100027820500001760000930610000082000980300005002004,138675249597248613246319578954136827823597461761824935619453782472981356385762194
030045900020000508600290730079800300000300405010020060091603000804950070000071600,138745926927136548645298731579864312286317495413529867791683254864952173352471689
008000059070005080103408000000670302060921005490003700004300000501002006680107204,248736159976215483153498627815674392367921845492583761724369518531842976689157234
005800070008010200304067000900043600600089145002000007000692000010570490800000506,165824379798315264324967851951743682637289145482156937543692718216578493879431526
070060980048005610100007002407030001005900000010420060032000040000610800900080503,573162984248395617196847352487536291625971438319428765832759146754613829961284573
903008000600000105020106300270809000041020000850610070004200001038704206000080094,913458627687932145425176389276849513341527968859613472794265831138794256562381794
100000002270100648054090070090503800080004000025071009000080060903050701700600025,136748592279135648854296173497523816381964257625871439512387964963452781748619325
400050007280019605007300210006800904030500000020071000070640080815000030009003700,461258397283719645597364218156832974734596821928471563372645189815927436649183752
600005109083000005020809074005040002190006030070080500060104028450072900700300000,647235189983417265521869374835741692194526837276983541369154728458672913712398456
802000060031007500004260008020900007387006100060030480000540700590102003003000010,872354961631897524954261378425918637387426159169735482218543796596172843743689215
009004108000000500104860970260003001000000047035780002058320000902508000600170000,579234168386917524124865973267493851891652347435781692758326419912548736643179285
030400050007006100060508302005307804620940003000800090804600000090000527201003080,132479658587236149469518372915327864628945713743861295874652931396184527251793486
105027084003009200800040030701005006060000093902060800078600040400580902050002100,195327684643859217827146539781935426564218793932764851278691345416583972359472168
503046900820075060000020810002001700900200400000380006080400170071630009405000003,513846927829175364764923815642591738938267451157384296386459172271638549495712683
000800050057000800400260010060050900005926008003410500391000740048790260200003000,132879654657134892489265317864357921715926438923418576391682745548791263276543189
060920000100080060004000705008270043250409010700300029300006451006130002905000080,567924138139587264824613795698271543253469817741358629372896451486135972915742386
020803004003020010001460050610007030400000007007590008002004970350000400800901062,526813794943725816781469253618247539495138627237596148162384975359672481874951362
000004750850003401207800063510026007600081342000940000708050100090002004060000009,931264758856793421247815963514326897679581342382947615728459136193672584465138279
800050309047900060000420800020060080300000200498001005051090076030005028009702010,862157349547938162913426857125369784376584291498271635251893476734615928689742513
820350001905042000030000060009000027004203086016009500048070300100020049700001000,827356491965142873431897265389564127574213986216789534648975312153628749792431658
040000091503009200020030807070018039006907000009306012700005000002080560410200008,647852391583179246921634857274518639136927485859346712768495123392781564415263978
300005007001900300080060192040600800006104075200039000705803010400006020809070040,392415687671928354584367192147652839936184275258739461725843916413596728869271543
008060719075800000004920000500040080103700902090000061302005078000200400060018030,238564719975831624614927853526149387183756942497382561342695178851273496769418235
400002300053000090090607100001000850028400703060093000080009007070321004030040516,416952378753184692892637145341276859928415763567893421184569237675321984239748516
470009002090004381013650000000460010031020700700300508005080200000010874600002000,478139652596274381213658497852467913931825746764391528145783269329516874687942135
002090010730100000900006350060400870000085004000620091010002405084030720509007006,852394617736158942941276358265419873193785264478623591317962485684531729529847136
007100800050004023043002600001065090602300007400010080029030150006807400800950000,267193845158674923943582671381765294692348517475219386729436158516827439834951762
107008030980020040000679000409000023750210000006905000302080094040000008008340762,167458239985123647234679815419867523753214986826935471372586194641792358598341762
800005060730400012010290400000004003058109070490803250500006000070000100264700085,842315769739468512615297438127654893358129674496873251581946327973582146264731985
000700100608259000500430680306900000027580010091007300000020098730005000002106004,243768159618259473579431682356912847427583916891647325165324798734895261982176534
020475000640900108093006020006040005010083000300020879000000497008060030005207001,821475963647932158593816724286749315719583246354621879162358497978164532435297681
800210000041006700630050820050009000027000460080320009004060370390008054000005100,875213946241896735639754821153649287927581463486327519514962378392178654768435192
000089600300100080100620009007000205020048300405760001050010930869050100000004007,572489613396175482148623759687931245921548376435762891754216938869357124213894567
503007008010320400004609010840070006002105009097002043601000005200001090000080270,523417968916328457784659312845973126362145789197862543671294835258731694439586271
005007001009340600200050000901008030307609200400000000080090006146803005000102708,635287491879341652214956873961428537357619284428735169782594316146873925593162748
004510060000300809072406000008020000160007005050800490045160000001089300309000007,934518762516372849872496531498625173163947285257831496745163928621789354389254617
301002060700950820080600007008000010024300580007005009000006291605003400490070030,351782964746951823289634157538469712924317586167825349873546291615293478492178635
050000001209360080700420560005610070840000003002009100907003008008500004030702906,456978321219365487783421569395614872841257693672839145967143258128596734534782916
105409030000200860080000004900300100013002750204000086040003000697015020008760905,165489237439257861782136594956378142813642759274591386541923678697815423328764915
602010080000904001004067050009605000000300870070000062903781020810050300506409000,692513487758924631134867259289675143461392875375148962943781526817256394526439718
080100309406970005100058020005084006670300004040002970300091000090005008250640100,587126349426973815139458627915784236672319584843562971364891752791235468258647193
301040800000300004200050710160702039008009067090005400050120048009000300027803006,371246895985371624246958713164782539538419267792635481653127948819564372427893156
230800700005000804090062000007000060500100000004025071006090030380047905100280000,231854796675319824498762153917438562523176489864925371746591238382647915159283647
005180030093070000000204509032805010040000006806000205908310040620040700070000098,265189437493576821187234569732865914549721386816493275958317642621948753374652198
010003750500042600096800000000620030928015000400700015800400070009006001031008902,214963758587142693396857124175624839928315467463789215852491376749236581631578942
200080109036050400040000670090036780800201000704008060000003952005740000080120000,257684139136957428948312675592436781863271594714598263471863952325749816689125347
000300005000970310204100607306500420001008000900047000010056200780021950600090074,197362845865974312234185697376519428541238769928647531419756283783421956652893174
090002370010050260430000010560003190001040820800007000300001509000600080047980002,695412378718359264432768915564823197971546823823197456386271549259634781147985632
108000406032050090500170003080000900006903740701045020000000002800039600460018570,178392456632854197549176283384721965256983741791645328915467832827539614463218579
200940061600002900304070000700400800001008075060190032070005306030060084050020090,285943761617582943394671258723456819941238675568197432479815326132769584856324197
070030010850160400400200786000006008004010230790500040100095060930000000082700305,276834519859167423413259786321476958564918237798523641147395862935682174682741395
084603900100500030060090800001068000050000724037002000200079006009020413508040070,784613952192584637365297841421768395856931724937452168243179586679825413518346279
006200009007063001900850200068030100073590004400701053800600400020045070000120060,356214789287963541914857236568432197173596824492781653835679412621345978749128365
070289000540600803000000000102800900607002084000003050406300105800570002000901630,371289546549617823268435719132854967657192384984763251496328175813576492725941638
080030061001000500200006004000500090769000800018207046005014039190703020076080000,987435261641829573253176984432568197769341852518297346825614739194753628376982415
000948005030002000908350007576000038040030051300690000000409016702001400600700002,167948325435172869928356147576214938249837651381695274853429716792561483614783592
080000050003045200010809604009710000500060100600092300164003005070200030000470891,486127953793645218215839674839714562527368149641592387164983725978251436352476891
090860057830000000001002040000010720000004309508907006000705901400300008600000200,294863157835471692761592843943618725176254389528937416382745961419326578657189234
805640000090502400060730010003005601018270900700000042000010080500900360326008000,835641729197582436462739518243895671618274953759163842974316285581927364326458197
700082006005460000030500904610809000400250073003000810000004008304170502190000030,741982356925463781836517924617839245489251673253746819572394168364178592198625437
007400689800700300900150002010800030206005000005976008004000070390000025501093004,157432689842769351963158742719824536286315497435976218624581973398647125571293864
690030000001502004080010935478200000002008706000150020120600009003400080006003507,695834271731592864284716935478269153512348796369157428127685349953471682846923517
006020140030700000590400807000803000410260005709010006000090402051040090008600300,876925143134786529592431867625873914413269785789514236367198452251347698948652371
009003401500270003008106070830000900000080250600007040200610000067500109093040085,729853461516274893348196572832465917974381256651927348285619734467538129193742685
001600074900718000506200003600040000080005107002009080704901205100020690008030000,821653974943718562576294813617842359489365127352179486764981235135427698298536741
600810300305700200000030095000146030008050062400000700190002086004500970807003100,629815347345769218781234695572146839918357462436928751193472586264581973857693124
600093008570064200009000001002910000000030005390007006706400100010800549050020080,621793458578164293439582761862915374147638925395247816786459132213876549954321687
010090000009520074507008003040000067250000400008360012600871095900040300825600000,412793658389526174567418923143952867256187439798364512634871295971245386825639741
500091670090004028300007004000702095058043061006100400100000340000050007732009000,524891673697534128381627954413762895258943761976185432165278349849356217732419586
000820060154700090800001007030000520009506000070402006480090702006310450900007003,397824165154763298862951347638179524249536871571482936483695712726318459915247683
005100020000030408008004039050073040704010850301205600002089100096400000000600072,435198726967532418218764539659873241724916853381245697572389164196427385843651972
000001075003050904910708060074930020600014000000520086009400050000069007140200603,426391875783652914915748362874936521652814739391527486269473158538169247147285693
004036018070040500503010000086007000450000000032090106000204009600170305207800040,924536718871942563563718492186327954459681237732495186315264879648179325297853641
018000470500001900720300008200540080000020009900670053080000100403000065007096020,318952476564781932729364518236549781875123649941678253682435197493217865157896324
040009100502064000100502003070003041610805092089000570008016900060340008703000000,846739125532164789197582463275693841614875392389421576458216937961347258723958614
709010004058000000004002030300008040060007001902351070100703005080065720520900600,739816254258439167614572938371698542865247391942351876196723485483165729527984613
003654008001087405000300700500102004209070080000590016478020000000000009090001320,723654198961287435854319762586132974219476583347598216478923651132765849695841327
000580620020907300154030090007000401080004000003690780006002000500800209870010503,739581624628947315154236897967328451285174936413695782396752148541863279872419563
900000000800634070004900536010009000309520060086703059005800107100040290400070003,963257814851634972724981536517469328349528761286713459635892147178346295492175683
000050342002760590900010007070006900500008006090024000307205408080300120405000700,761859342842763591953412687278136954534978216196524873317295468689347125425681739
170490000003050060000280109000100200002045300407030816096000702080009630030007054,178496523923751468645283179369178245812645397457932816596314782784529631231867954
490002360000013008008950070000501020023670900010000407604809150302000600081300000,495782361267413598138956274749531826823674915516298437674829153352147689981365742
020500730800400000009081026002030070704008090600900010010042500508090003003007960,421569738867423159359781426192635874734218695685974312916342587578196243243857961
000090045106043780200000106000007800004000590305060021090600004007021000008534002,783196245156243789249785136921457863864312597375869421592678314437921658618534972
010780054403090860000000020070005900096300072120004000080030000730009041005260780,219786354453192867867543129374625918596318472128974536681437295732859641945261783
740286000000310008001000900020405306490068007005000010830000420560030109002507000,749286531256319748381754962128475396493168257675923814837691425564832179912547683
008060019500410060000009200240000300035001094600080705003026008700053140920700000,378562419592417863164839257247695381835271694619384725453126978786953142921748536
300901008090028006000460050014000600005704090708300041041000000060000287070050030,356971428497528316182463759914285673635714892728396541241837965563149287879652134
420010670018090000005000103000205701730046020000001090509300004060080530007002060,423518679618793452975624183896235741731946825254871396589367214162489537347152968
500019700007000904026080035005060010790005200643070000008001500400320070000604390,534219786817536924926487135285963417791845263643172859368791542459328671172654398
301006098900000206204000710000300020053900070608714005000095080000203409007800300,371426598985137246264589713749358621153962874628714935432695187816273459597841362
760005000009400382004100050430007008800060700106240900021300009000680020350000140,763825491519476382284139657435917268892563714176248935621354879947681523358792146
100400026080000009507000030005000001004682007300905640600208700040590208090371400,139457826486123579527869134265734981914682357378915642651248793743596218892371465
