604105030030080020009400605006000013070500000892070000040000802700810040300906500,684125937537689124219437685456298713173564298892371456941753862765812349328946571
547600390900700008080310005860403010035078042020000030001054706000890000600000020,547682391913745268286319475869423517135978642724561839391254786472896153658137924
090800007080020060102400009065000034070052080000030620040008570009006310803105000,596813247487529163132467859265981734374652981918734625641398572759246318823175496
020196070003005000100080002805000190070504080060078030610420000930000620400067809,524196378783245961196783542845632197379514286261978435618429753937851624452367819
400060832800090640002000001027051906908070010000200003000300000670040005290700468,419567832835192647762834591327451986958673214146289753584326179671948325293715468
080900740702300005100005060025036800070009001060840050804701320000004010009200080,586912743742368195193475268925136874478529631361847952854791326237684519619253487
307650000068000010005004070000002130050870204200906500670020059093460000040001308,317659842468237915925184673789542136156873294234916587671328459893465721542791368
060730085300000000405008610080010907004900002010367000050001000190570846603020070,961734285328156794475298613586412937734985162219367458857641329192573846643829571
008040650500380709071000003407620100000903026300000005050104000009006081602057000,938741652564382719271569843497625138185973426326418975853194267749236581612857394
097004008000030500000280010005400680800120940000560720200015300379006000040000096,197654238482731569653289417725493681836127945914568723268915374379846152541372896
570301290000840001060000500820070000009030760050100002700480100200900308004602050,578361294932845671461729583823576419149238765657194832795483126216957348384612957
904006000000093074571000300060271005007009002008000490000084501026100040000002006,934716258682593174571428369469271835357849612218365497793684521826157943145932786
706850009900700004010006008040031600008620000000005270069003000802040310035200400,726854139983712564514396728247931685358627941691485273469173852872549316135268497
000003085940860037200004000107490000500600018020005300000187094068000150009200000,671923485945861237283574961137498526594632718826715349352187694768349152419256873
009641000008000019026080703000210965054900001200860300300007000080420000017000250,739641582548732619126589743873214965654973821291865374362157498985426137417398256
005470032002003600010608050050087204000009000084100390308095010069000007040210900,695471832872953641413628759951387264236549178784162395328795416169834527547216983
100203006000470152000600409030000080752030001681005000005008064400310007370002000,149253876863479152527681439934167285752834691681925743215798364498316527376542918
003420081260100500400000709004090310000080007095231400800050006019000205006703000,973425681268179543451368729684597312132684957795231468847952136319846275526713894
002001760008600004051470029070120480200030070500008930400000000090360015003809000,942581763738692154651473829379125486284936571516748932465217398897364215123859647
070600002408100000200009000823004510007095036009001204000350600060402950030000087,375648192498123765216579348823764519147295836659831274984357621761482953532916487
008591602071304009500008000006003840000100700200080035065002193090607000403000000,348591672671324589529768314956273841834159726217486935765842193192637458483915267
007030004590100060320094500730800002089201407000360090008006079000002100401000008,817635924594128763326794581735849612689251437142367895258416379973582146461973258
780000100200907064003215800010008005020100640304600900640000720000506001097003080,789364152251987364463215879916748235528139647374652918645891723832576491197423586
056200008030000090024091007480100000000000861009037005005009030061005009700003042,956274318137568294824391657482156973573942861619837425245789136361425789798613542
007500891000031060402000700304065000170309000900100208200480005056907004000006100,637542891589731462412698753324865917178329546965174238291483675856917324743256189
000001042140300700289050600002980300706002850008003021300007904500000007060140000,673891542145326798289754613412985376736412859958673421321567984594238167867149235
102400078003020600050706000040680003000009560970501002600300489081070030400002005,162453978793128654854796321245687193318249567976531842627315489581974236439862715
100600803800045060024000100780003400500090021003460007200001600005000010300870902,159627843837145269624389175782513496546798321913462587278951634495236718361874952
801500249406000705500302000608700000000005074003961500200000890009000001174080002,831576249426198735597342186658724913912835674743961528265413897389257461174689352
059400001400028500100300008200050300080700000076001495090000020000060003010832076,859476231437128569162395748241659387985743612376281495693517824728964153514832976
500408020010900600670100090300009100080005067050270308020816009004030070003000205,539468721412957683678123594347689152281345967956271348725816439194532876863794215
609000040020010005041008703100070000273500600050900120004609038805030002000700000,689357241327416895541298763196872354273541689458963127714629538865134972932785416
002080900800002560104906020361000007049213050000700004900300085008004000000650310,672581943893472561154936728361845297749213856285769134916327485538194672427658319
300620000700000045010008039030540000107002090205069800972350001080004057000001006,394625718728913645516478239839547162167832594245169873972356481681294357453781926
006390000097605100080000004000580632002160700009704050401000007063070028500930000,146398275297645183385217964714589632852163749639724851421856397963471528578932416
039006005040100020061087040700204906020050073000009080000918030085600100004005002,839426715547193628261587349718234956926851473453769281672918534385642197194375862
700003902603907501040008060056000708002035000300100090080004000001020670409500003,718653942623947581945218367156492738892735416374186295287364159531829674469571823
007004008534008790000060020090205040100090200803017500650300100070680000410079030,267954318534128796981763425796235841145896273823417569659342187372681954418579632
037082100000400960000006032001070200020008405005003610800510000063004790409007508,637982154258431967194756832941675283326198475785243619872519346563824791419367528
090506078000920040054008620900300060010400800005001793002000000083702005040610000,291546378836927541754138629928375164317469852465281793172854936683792415549613287
120800340700590008960003700380700020000000500070200610002008000450326000000040096,125867349743592168968413752386751924291634587574289613612978435459326871837145296
009840005107300060482010009800000013000190000004560000600000798000050200031702400,369847125157329864482615379896274513573198642214563987625431798748956231931782456
200000800800240503376501000527000900090070010060008420004793080001020000000400396,245639871819247563376581249527164938498372615163958427654793182931826754782415396
900205006045090010830001400001000609260070800000030021170080000300950040050300072,917245386645893217832761495781524639263179854594638721179482563326957148458316972
750420008000000346900081005100650400836007500025000700001060829000200030600703100,753426918218975346964381275197652483836147592425839761371564829549218637682793154
300470100090000260024006003010200008400350000086001095100007400000800920950010807,365472189791583264824196573513269748479358612286741395138927456647835921952614837
050004098806039100009260050000001807302000040087000009600080004400300025901705300,253174698846539172719268453594621837362897541187453269635982714478316925921745386
600001700007000294592000000700045600080700315006089000010200040960507820200800930,648921753137658294592473168721345689489762315356189472813296547964537821275814936
060310020704000003520006901050090807000008005602001340006059000108400090040820070,869315724714982653523746981351294867497638215682571349276159438138467592945823176
609007000030690000000250007020400090006300180801000025490510003005802400708030600,659147238237698541184253967523481796976325184841769325492516873365872419718934652
000600321140500006600790800001000290209803400580006007730000009005080610000250040,957648321148532976623791854361475298279813465584926137732164589495387612816259743
158070600700045010090200003420900700005060902300000081006890040003700008080012065,158379624732645819694281573421938756875164932369527481516893247243756198987412365
100080060905002003030060700080290050010056092500043008047021905006000207090008030,172384569965712843438965721683297154714856392529143678347621985856439217291578436
002007510075000603031080040026035009700200800089006050000159080000600002403700100,942367518875914623631582947126835479754291836389476251267159384518643792493728165
500000408069000000000042610091300057300180040020060900270430080008097500036510020,512673498469851372783942615691324857357189246824765931275436189148297563936518724
006009500300070910205008406038002090400500020709040005640010008007080030010306700,176429583384675912295138476538762194461593827729841365643917258957284631812356749
070304060210000400009087500100502730008690005034000000340201009000000670002809010,875324961213956487469187523196542738728693145534718296347261859981435672652879314
000803001600000904079040050900057200710260003053018040004000006000106020002005379,425893761681572934379641852946357218718264593253918647534729186897136425162485379
702000054068007000000030710500000800090254000007108030005006400300080920604091380,732819654168547293459632718516973842893254167247168539985326471371485926624791385
700000029004008570000730006007100802050902304040300000000500900610040000038620701,783456129164298573925731486397164852856972314241385697472513968619847235538629741
040006070000008693300100800070400230065020000000097018007003065100800407029050001,548936172712548693396172854971485236865321749234697518487213965153869427629754381
010930700003007510904000002008002950300004107250060040060580000700090083800026000,512938764683247519974615832148372956396854127257169348469583271725491683831726495
000800130300005600890014000670083005004071320003002900021509800400026000500000047,245867139317295684896314752672983415954671328183452976721549863438726591569138247
083007009004590800600000012040000000301400056005260380000032107000809465100040030,583127649214596873697384512846953721321478956975261384458632197732819465169745238
050031002670500008380600090000027530010008047400090000009250700048006003500000160,954831672672549318381672495896427531215368947437195826169253784748916253523784169
500000039000004700008630510270000154109000006054706020700200600000408091403005080,567821439312954768948637512276389154139542876854716923781293645625478391493165287
041290050700100004000003089003612800072850930560000000000549020006300701084060000,841296357739185264625473189493612875172854936568937412317549628956328741284761593
007080503400900000100400072013000780000068051002000090028704039040520810760090000,297681543435972168186435972613259784974368251852147396528714639349526817761893425
040850000100004090300209068002070539060020100004005200570001004006003801480000970,649857312128634795357219468812476539965328147734195286573981624296743851481562973
407908000900610020001034780502070000108000600030005091060083015000460300009201840,457928163983617524621534789592176438148392657736845291264783915815469372379251846
020050908040700060600010405009500002008003016700081030500406007902030080406009201,123654978845792163697318425319567842258943716764281539581426397972135684436879251
000058900200040007068703010500630200790400001083001400004002896150000000006307005,437158962215946387968723514541639278792485631683271459374512896159864723826397145
610039000000020813000007200306010700095600008401005006070283605009000080200504300,612839547957426813843157269326918754795642138481375926174283695539761482268594371
000718093000009050020050106613040020200930008004070065305061900068003047400000000,546718293731629854829354176613845729257936418984172365375461982168293547492587631
070001060405090000008203500000500304200700081306804070502907000000006400617040028,973451862425698713168273549781562394254739681396814275542987136839126457617345928
925000040470230100000000080530170009086900001007462005010800900600007320050040600,925681743478235196361794582534178269286953471197462835713826954649517328852349617
009000600420006710600005408108047020000001805300900000010208906073050041096030000,789413652425896713631725498168547329942361875357982164514278936873659241296134587
010002050800000902060500083600037090200000140750409060439080500000070006070341000,317892654845763912962514783684137295293658147751429368439286571128975436576341829
048090000300206710700300000030508009904020805020640100500007906290800030001000507,648791352359286714712354698136578249974123865825649173583417926297865431461932587
004002006090036710010740800005000630200400007839500001000000950006321070348900000,784152396592836714613749825475218639261493587839567241127684953956321478348975162
403059002920007100000080530000805000109004006708260950000040801000703400006900023,483159672925637148617482539264895317159374286738261954372546891891723465546918723
503690000800200100700080046001400258030010900000009003340005000002103005090800067,513694782864257139729381546971436258236518974458729613347965821682173495195842367
006097005018230009270104600000010302400060081890000700000500063720000000905423800,346897125518236479279154638657918342432765981891342756184579263723681594965423817
000230970025900041000060500400000000390008010006740803070000080940003602068501700,814235976625987341739164528487319265392658417156742893573426189941873652268591734
041308005000070001002500480060001037987000050150600902000020690006130000570004200,641398725895472361732516489264951837987243156153687942318725694426139578579864213
800600790037200100000040085709105030051009608062700000024003960090500023000400001,845631792937258146216947385789165234451329678362784519524813967198576423673492851
500090078000032000000400060090056004803107009002080716030060187100703045940005000,524691378678532491319478562791256834863147259452389716235964187186723945947815623
410700080000040097090308206120800750700006010000000003803091060050080000049203001,412769385368542197597318246126834759735926418984175623873491562251687934649253871
601049050030100098200030000504000020000406009060003810007261005080000701050907430,671849253435172698298635147514798326823416579769523814347261985982354761156987432
085000003609000100317802000000070800004956002000200459078360000020500097500400301,285641973649735128317892564952174836834956712761283459178369245423518697596427381
004050020023700809001000500070208900000006130050493006280000000609041000405900083,864159327523764819791382564376218945942576138158493276287635491639841752415927683
059600000400100706100938020090700005005020008308090410006210803030000670070005140,259674381483152796167938524694781235715423968328596417946217853531849672872365149
000400800059027006300090150085060003020304009600019070008200034107006020062005000,216453897859127346374698152985762413721384569643519278598271634137846925462935781
008013700100200530090407010005081204000900008067000000040030020359004600200605090,628513749174298536593467812935781264412956378867342951746839125359124687281675493
090705000081460700002081003000340600370506002200007900834009510150004270000000090,493725861581463729762981453915342687378596142246817935834279516159634278627158394
854060000070009065010002804100900370086007900002053001500004703000080009920105600,854361297273849165619572834145928376386417952792653481568294713431786529927135648
060000040000308009200041578907830100000506004000090200080060030610920800025704000,568279341471358629293641578947832165832516794156497283789165432614923857325784916
003810056400060000028304000900080042300091700082000930004700508000000267150600390,793812456415967823628354179971583642346291785582476931264739518839145267157628394
570000008900000164006030020004058602000710000030402901200800509010096407840005030,571624398923587164486931725194358672652719843738462951267843519315296487849175236
083040010005700040720091600400273008906000000000910053060005037010680500002000090,683542719195768342724391685451273968936854271278916453869425137317689524542137896
