082100074001230060500000300930700008025306400078590100600007500090000021000004603,382165974741239865569478312936741258125386497478592136613827549894653721257914683
304097800071400003900206010008060700250800004000502009007000002010053960836004000,324197856671485293985236417148369725259871634763542189597618342412753968836924571
300091000698200070040850203070020600006005730900087105500400000010000308020169400,352791846698243571741856293175324689286915734934687125567438912419572368823169457
901000057020000000068057120003096081000400205487200900010009800500061740009004006,941682357725143698368957124253796481196438275487215963614579832532861749879324516
978010602001800040600302001050000293000106078007050400300600000510790000004030850,978514632231869745645372981156487293493126578827953416389645127512798364764231859
080402900010008050300009206900001008007000340650040079002600417005020060700830002,586472931219368754374519286943751628127986345658243179832695417495127863761834592
600041008708000050052900000470003010003000080000726009200050103301200090090038046,639541728748362951152987364476893512923415687815726439284659173361274895597138246
000046002500803000063005807009007200080060400750010906000980001810032740902500003,198746352527893164463125897639457218281369475754218936376984521815632749942571683
000058000903001060801700209390002510702010900006830007060000050205096700000024008,624958371973241865851763249398472516742615983516839427469387152285196734137524698
060080253301070600000500040080010000215830004700006009908120300003047085070000001,467981253351472698892563147689714532215839764734256819948125376123647985576398421
508100000020008000043070509600059037030200004090807601009010200784306090000904006,578193462926548713143672589612459837837261954495837621369715248784326195251984376
000178045460000100000000092050003800342080000700049560800650037090007000010300206,239178645465932178178465392956713824342586719781249563824651937693827451517394286
403200100000060070001503408700492060350000009060007800086041500000900000002008910,473289156895164273621573498718492365354816729269357841986741532137925684542638917
000004901020900703035000060609200308001050040200076100070403600006085002018000000,867534921124968753935127864659241378781359246243876195572413689396785412418692537
050890000006000018074300200530008720000945300081000069205400103000076000018050900,152894637396527418874361295539618724627945381481732569265489173943176852718253946
000200890205079310000003005000000540789004000030180200010002060003790000042360100,371245896265879314498613725126937548789524631534186279817452963653791482942368157
071290008502008400060070100009700010230400650004009003310000200040003960008065007,471296538592318476863574192659732814237481659184659723316947285745823961928165347
000200306075040000100008070300875102008031007900000500034000900860020054502010060,489257316675143289123698475346875192258931647917462538734586921861329754592714863
100904680002070010068000003813050000000100407004692800000500004507320060300001920,175934682432876519968215743813457296629183457754692831291568374547329168386741925
002305000000007405006040002000136058700000010050080239034069007065008900020410080,472395861318627495596841372249136758783952614651784239834569127165278943927413586
106500008083601407040390200001009000230000000600802710807200340000004576009050000,126547938983621457745398261571469823238175694694832715857216349312984576469753182
601000000080000070090020304070908020006100500300672100005009016700004008810006495,641397852283465971597821364174958623926143587358672149435289716769514238812736495
400100005801000400070208010002005007060473050054010060003097821000500690680020000,426139785891756432375248916932865147168473259754912368543697821217584693689321574
200785600001000300000039000500001407480500010097620008064000803000060072829000040,243785691971246385658139724532891467486573219197624538764912853315468972829357146
380901006000057800706040090009200070004006203078004500102060350000502010403100008,385921746941657832726843195639285471514796283278314569192468357867532914453179628
006805004504000182900702300000000730730900500100004008200001000015060490090503006,326815974574639182981742365642158739738926541159374628263491857815267493497583216
000408002005300169602009040000000871780200095009001200050740000910500006436902000,193468752845327169672159348324695871781234695569871234258746913917583426436912587
000009378007208400000500006400001609360700081080096000603140000090082050005030204,256419378937268415148573926472851639369724581581396742623145897794682153815937264
009040701605200030480305090000501400060080103840000020200107609070006002000090540,329648751615279834487315296793521468562984173841763925254137689978456312136892547
000460053050000020607003000040002380530740006102805009906100000004098702000320041,291467853453981627687253194749612385538749216162835479926174538314598762875326941
010200308080079005504100000400705001000003060870921004050080907003000026760490000,617254398382679415594138672439765281125843769876921534251386947943517826768492153
903000100400809005700600028530400002008071090006005340020960470010030080809020600,983752164462819735751643928537496812248371596196285347325968471614537289879124653
001090600076042103900000004500700080012000039409035002050064200698001000100803070,241398657876542193935617824563729481712486539489135762357964218698271345124853976
050087600700090502208006003470010900900020004001300007089570040040001820503060010,354287691716493582298156473472615938935728164861349257189572346647931825523864719
060408003000300092520070060640000010308510407000000008705603001900004300000250709,169428573874365192523179864647832915398516427251947638785693241912784356436251789
510037800200600090000048305600080041840065700009003000000070986090310024050002003,514937862283651497967248315635789241842165739179423658321574986798316524456892173
030500600400020050510006047000010008000407920093080700100072065200068003080904001,937541682468723159512896347724619538851437926693285714149372865275168493386954271
060084007200000504000309060007200000304106080001005076900053002070400018080007930,169584327238761594745329861697248153354176289821935476916853742573492618482617935
009005063050708109020100400003900800802037001000804206010006040400070600970002050,189245763354768129627193485563921874842637591791854236215386947438579612976412358
100060020003759408050000370038000790590300001000002000074190560802004009000006040,187463925623759418459821376238615794596347281741982653374198562862574139915236847
209004073030800100400260000006072005050000740700031800908000030042610900017049060,289154673635897124471263589896472315153986742724531896968725431342618957517349268
508000030600210090200065007007000029840009000060087140700050062000938000301670004,518794236674213598293865417137546829845129673962387145789451362426938751351672984
000900850030070104060028000500003042008007000010049607280100305000000090401056270,724931856839675124165428739576813942948267513312549687287194365653782491491356278
100320690509701000268400000003200179904000830020000000000175064000040381000090200,147328695539761428268459713653284179974516832821937546382175964795642381416893257
500076009791000306830001402003009001108020500040607030000084700000030805002700004,524376189791248356836591472273859641168423597945617238659184723417932865382765914
726400300040507000308000010280004500000890072001050060000000920400301600605270803,726418395149537286358926714287164539564893172931752468873645921492381657615279843
567010030000008064049200001006050400080090013901340007030700200005100078020960000,567419832213578964849236751376851429482697513951342687134785296695124378728963145
703900050000000000056007391007010004000204830038590007010840200205009406080000005,743981652192653748856427391927318564561274839438596127619845273275139486384762915
004009005520000740087300100005607090006500401070123800600082004000000010390410620,164279385523861749987354162815647293236598471479123856651782934742936518398415627
000074600807050901092601007040060000009408025085300100000002056504030070320007008,153974682867253941492681537241765893639418725785329164978142356514836279326597418
000245007790081600002600035020400000108006390600097000036100000250008010904030050,361245987795381642482679135529413768178526394643897521836154279257968413914732856
510400600703000024600970300007106439394800005000000070250610000900000200000003018,519432687783561924642978351827156439394827165165349872258614793931785246476293518
350907000000050830006042015009014700503000064870003109100609000040800026020070000,351987642492156837786342915269514783513798264874263159135629478947831526628475391
800007000090000128054000036609021003000460052008003400007802005100040090930705604,816237549793654128254189736649521873371468952528973461467892315185346297932715684
048000070006908035200007001007090140800203009030150000300042900061000002090010680,948531276176928435253467891527896143814273569639154728385642917461789352792315684
046010200520009007000600840700096000052080071901500030003200608009043005800007004,346718259528439167197625843734196582652384971981572436473251698269843715815967324
500039000040700000800005720000006008163000097000912040010040300087003560096020014,571239486642781935839465721924376158163854297758912643215648379487193562396527814
804900300000002000350081790031070050700019200002608004005000400007806005980005001,824957316179362548356481792631274859748519263592638174265193487417826935983745621
600700038008520900150300600046030201029640053700000000084000026000080070205100400,692714538438526917157398642546837291829641753713259864384975126961482375275163489
030000200617050390200100060071280005000094000986310000059007043000040087000560000,834679251617452398295138764471286935523794816986315472159827643362941587748563129
090004006005020300403060800001030080002807041850100600300790510006000702910005003,298374156165928374473561829741639285632857941859142637324796518586413792917285463
100560834005049070200000000030000508050270960900804000070008200369100000024690305,197562834685349172243781659732916548458273961916854723571438296369125487824697315
702019034060008000000540600050820070000400106309056002103002700600100800807300040,782619534564238917931547628456821379278493156319756482143982765625174893897365241
190580070305001004040790006600102900000000040008470203507000400030800020000000165,196584372375621894842793516654132987723958641918476253567219438431865729289347165
601000005049002007700009146000030000890050010130800620062098350000000470300024000,681473295549612837723589146276931584894256713135847629462798351918365472357124968
004300170000240308058000060701000000809014500000080206030906004076001950005073000,294368175617245398358197462761532849829614537543789216132956784476821953985473621
400800000190030570000270609308064012000010304600000050006300200573080000200090701,467859123192436578835271649358764912729518364641923857916347285573182496284695731
002070069530000217001000480043002000070090036005080920810703590600401000000029000,482175369536948217791236485943612758278594136165387924814763592629451873357829641
090576310000324009067900000040000902016000700009405060701008000000063280020700104,492576318185324679367981425843617952516892743279435861731248596954163287628759134
708025001050400002190000500000080009000067430030140207407000003089200065060913080,748625391653491872192738546574382619921567438836149257417856923389274165265913784
000908604000210500003060180091000047000500826280304000100025000874000090620800003,712958634468213579953467182591682347347591826286374951139725468874136295625849713
907540000280009005030060108060003700095000030100002086470805620000130900000700040,917548362286319475534267198862453719795681234143972586471895623628134957359726841
000000002007006508840571900050000000280049007010730204506000000900203016400908030,365894172197326548842571963754682391283149657619735284536417829978253416421968735
080000540900007001003102800150040060200068007070009300008930006402600100060020405,781396542925487631643152879159743268234568917876219354518934726492675183367821495
007609300800000759400050028140027080205103090090000006300492100000008070010000004,527689341861234759439751628146927583285163497793845216378492165654318972912576834
007800090060030005132070000083000009400001602000906500070005140304720006906400080,547862391869134725132579864683257419495381672721946538278695143314728956956413287
008310007009205040020000501000750024490800600070602300304080900050960008000000016,548316297619275843723498561836759124492831675175642389364187952251964738987523416
480000090000500007090364200007400960060230140050090078009010600802005010001070803,483721596126589437795364281317458962968237145254196378579813624832645719641972853
730801004000020708010406059003007100048560020900210035000050071460000000207049000,735891264694325718812476359523987146148563927976214835389652471461738592257149683
803100006000002700045080001230600078500000000004370590060090840001064037002050100,823147956196532784745986321239615478578429613614378592367291845951864237482753169
000001605005902801380640070002010007040800500930000064700360002406070050810200090,294781635675932841381645279562413987147896523938527164759368412426179358813254796
604010700030500000250087009070930080402001006000062590820003407100008030900400100,684219753739546812251387649576934281492851376318762594825193467147628935963475128
080000030403001020675040800200000009809437150000600400006800370507302010010095006,182976534493581627675243891234158769869437152751629483926814375547362918318795246
004085010010090000306701400008000070790002306050007924800200600100300000230104790,974685213512493867386721459428936175791542386653817924847259631169378542235164798
300782045050300702004010800970800050000500216005060070600000301100940000098007600,369782145851394762724615839976821453483579216215463978647258391132946587598137624
000502360600030298010008540090300000075810600002054080040073000008900420106000073,987542361654137298213698547891326754475819632362754189549273816738961425126485973
000900306025100090060000085000036508001000730870041200032080040400270000509004670,148957326325168497967423185294736518651892734873541269732685941416279853589314672
019057080200301000000040005500070408006029700070080560004000039102006004608490001,419257386285361947367948125521673498846529713973184562754812639192736854638495271
942005700108070056000030100200850003407302000050400019500100097790046380006080000,942615738138274956675938124269851473417392865853467219584123697791546382326789541
031005020408007006700012008040300060050041907300068002293000000607100540000890000,931685724428937156765412398142379865856241937379568412293754681687123549514896273
600042370700008005054010008023060010065987400000000900309000000010300709482070560,698542371731698245254713698923465817165987432847231956379856124516324789482179563
809200071050089040002310000010000063603024005087090000000807006740000038960002500,839245671156789342472316859214578963693124785587693124321857496745961238968432517
006230190715040008900000674000005400297800003030670010000001340872000000040020086,486237195715946238923158674168395427297814563534672819659781342872463951341529786
600010005002409000090200746705004080030000010000980603309570800006003450800001020,684317295572469138193258746765134982938726514421985673349572861216893457857641329
008700930042800001063000405200340050000000100106009000070030020059206000300105078,518764932942853761763912485297341856485627193136589247671438529859276314324195678
130040000000602050750000006905060100070810000000035420819700004000003209300050618,136548792498672351752391846945267183273814965681935427819726534564183279327459618
107000003302756010090080200400003070005000096010005840009400108006090005070008064,157249683382756419694381257468923571725814396913675842539467128846192735271538964
070560010890007000004020305009700602340056700010240008900083060700000104026000080,273564819895317426164928375589731642342856791617249538951483267738692154426175983
010807300480600010506203049009078603200050000037100000008900004300006080601004207,912847356483695712576213849159478623264359178837162495728931564345726981691584237
130000806400001009807450002002007130600100027009300005960743000070002408050900060,135279846426831579897456312582697134643185927719324685968743251371562498254918763
