300408600007051094502000010105700300080902001004060002690010058000500020000840007,319428675867351294542679813125784369786932541934165782693217458478593126251846937
800071020290000700100500306900004608040000050007236040068320075020080490000107000,836471529295863714174592386912754638643918257587236941468329175721685493359147862
000062090070980601020073008005400700641090850300006002039000075054309100800010000,418562397573984621926173548285431769641297853397856412139648275754329186862715934
008069000501000300030250490000000806456010070020047103060108000310092007705400920,248369715591784362637251498173925846456813279829647153962178534314592687785436921
007850016080070300300092000004001065900700021520006900006309580003000000170048002,497853216682174359315692748734921865968735421521486973246319587853267194179548632
502910000004053000380006070007380049050000312060400500010004036200007108009002700,572918463694753821381246975127385649458679312963421587715894236246537198839162754
000000068130908050050040002007000206204073910080010000500302040600089000090154037,429537168136928754758641392317495286264873915985216473571362849643789521892154637
008007300320000510040095070600030000050928030001764800003000450070140692010002000,598217364327486519146395278682531947754928136931764825263879451875143692419652783
004017020000080090805200304070005800200100036301000500090028050000040207740306001,934517628627483195815269374479635812258194736361872549196728453583941267742356981
020053080080060010007290003038001204005600000010800096000420305500007169790000400,426153987389764512157298643638971254975642831214835796861429375542387169793516428
008002056900750203050031008085000004600000870290014000000083017704009002016500030,378942156961758243452631798185376924643295871297814365529483617734169582816527439
007200050360010809091403002000007060004802005000930001610570400800000390020048006,487296153362715849591483672938157264174862935256934781613579428845621397729348516
370025096000000840020009500002010760695030000147800203000053001906007080000160970,378425196569371842421689537832514769695732418147896253784953621916247385253168974
082730690040000018060904570005000200003450000009123050730806000000090040100240760,582731694947562318361984572415678239623459187879123456734816925256397841198245763
000013200009406000047095600980000047000832009061000050700500000006004520003109408,658713294239486715147295683982651347475832169361947852714528936896374521523169478
193607050004810320000000006701208604050000002020479000367000000002090180008504007,193627458674815329285943716731258694459361872826479531367182945542796183918534267
034000090601040780008607300020091507860000001905702040002080030000304605000009210,734258196651943782298617354423891567867435921915762843572186439189324675346579218
000000001004006200901435007040500670068007002102300950400090000006000183780602005,637289541854176239921435867349521678568947312172368954415893726296754183783612495
000048300054061079728005000060450020132800040090000060070300500906010400000097200,619748352354261879728935614867459123132876945495123768271384596986512437543697281
400079020000860000090453006107000950000300002025900813018504200760080000900000140,486179325573862491291453786137628954849315672625947813318594267764281539952736148
500010046020300000730408050007500800300084610690700035065009700000002000901803200,589217346124365978736498152417536829352984617698721435265149783843672591971853264
045097000280500700609802030056304010100000020003609058002908100000000064008071003,345197682281536749679842531856324917194785326723619458432968175917253864568471293
045190000170523004000006300600410900007000000084300205060200037059800460200070080,345198726176523894892746351623415978517982643984367215468259137759831462231674589
010000007800000006094007153006200095200078400075109030000083020050941600700600009,513496287827315946694827153186234795239578461475169832961783524352941678748652319
006890750470005920000402008301040090000000270020610000005000100080730040960021300,216893754478165923593472618351247896649358271827619435735984162182736549964521387
700068005000004091160020080807003040040010200025900008080070009502090064603005700,739168425258734691164529387817253946946817253325946178481672539572391864693485712
000000310900050240016009700007680000204090008350001094002078400000300050800065032,725846319983157246416239785197684523264593178358721694532978461649312857871465932
000600500050007032064082019007028460500000003092050100710803090008704006003090000,271639548859147632364582719137928465586471923492356187715863294928714356643295871
010040038060700290054000106009308050206091000530000007007000000300280400080936005,712649538863715294954823176149378652276591843538462917627154389395287461481936725
327500000480026150060804900500790010000003000702060004036000820000901670001030500,327519468489326157165874932543798216618243795792165384936457821254981673871632549
000020070309000201007965400000106905400030806800050020271004030560870004008000000,684321579359748261127965483732186945495237816816459327271594638563872194948613752
900106004048000200000400950104000380306910720500007061853002000090500000602793000,935126874748359216261478953174265389386914725529837461853642197497581632612793548
400800000060750002020019503690000027008403050000027000030090180150000004900100706,415832679369754812827619543693581427278463951541927368734296185156378294982145736
070000104609100008320089000890007046004250000000906015010030700002500039050702680,578623194649175328321489567895317246164258973237946815916834752782561439453792681
000029084405000020083000706510038000067100400002097010100060200900704300000083960,671329584495876123283541796519438672867152439342697815138965247926714358754283961
105060090860540203047300000020010007700008010006093804000070050952000040300102600,135267498869541273247389165428615937793428516516793824681974352952836741374152689
000002100006580430120930005300040007200708060510000020703064000000107009050300078,835472196976581432124936785368245917249718563517693824793864251682157349451329678
000504806002090307160007940003050000010006204270001008400800050056203490039000000,397514826542698317168327945683452179915786234274931568421869753856273491739145682
800207530000001900206400018050040020708030050040908006000070041520003000197600300,819267534475381962236495718951746823768132459342958176683579241524813697197624385
000302004009060830080000165006409701900501000034008200007003096400710008025000300,561382974749165832382947165256439781978521643134678259817253496493716528625894317
500000390010260000084509007002090806860004500005007132279031050040000010000806004,526748391917263485384519267732195846861324579495687132279431658648952713153876924
030900704201008506907005010006009042000861000800020030450602000603000080002750000,538916724241378596967245318716539842324861957895427631459682173673194285182753469
085030127006005083009070400050408000168700290240600000830014070000200050001069000,485936127726145983319872465953428716168753294247691538832514679694287351571369842
058000071000030040920600580090761002100850400000200306070320060006004908201000005,358492671617538249924617583493761852162853497785249316879325164536174928241986735
050000040036510700208906000703000020060805010014000389007008900000204031040069005,159783642436512798278946153783491526962835417514627389327158964695274831841369275
905800001031004000020790053300000106070923004000006079840060900507000062002108000,965832741731654298428791653359487126176923584284516379843265917517349862692178435
000243000070080001350060209068302007005800060030900004001400630000001070906005402,819243756672589341354167289468312597295874163137956824721498635543621978986735412
100007920200400085060950000051060308030008004070003210900016057700020400080090060,145687923297431685368952741451269378632178594879543216924316857716825439583794162
050000600603000004028079510060023009010580040000907308790100200005040086006305070,951834627673251894428679513867423159319586742542917368794168235135742986286395471
000000020964300001002605308003180570400002080005093006500017402080400907006000010,358971624964328751172645398623184579497562183815793246539817462281456937746239815
700904650006010009000000040009063580430700000020405100807002910014500860060038000,783924651546817329291356748179263584435781296628495137857642913314579862962138475
026009400801000000000800901005394200018005000900000076074102003580070060000040025,326519487891437652457826931765394218218765349943281576674152893582973164139648725
100502006004030180000908200003400901710060040500000360050380070290170850307600000,138542796924736185675918234863457921719263548542891367451389672296174853387625419
090080002006030000700519040607001508402806030500000600000000903008072001350400067,195684372846237195723519846637941528412856739589723614274165983968372451351498267
230007009004020000580601400060100380300009570170800006020043150709500000000000028,231457869694328715587691432962175384348269571175834296826943157719582643453716928
050703001679001800800000042310870600000064300060059004080005030705000210020940086,452783961679421853831596742314872695597164328268359174986215437745638219123947586
470019000960020405008000073000045096600080300250600001304100200580073060010800000,475319628963728415128564973831245796647981352259637841394156287582473169716892534
004128700000007008002360000280000970307500100901006042060000259000010804039080000,594128763613957428872364591286431975347592186951876342168743259725619834439285617
678000000090063002040009085900250168000000040002016097000401820800705309001090000,678542931195863472243179685937254168516987243482316597759431826864725319321698754
659000700700006310003490000000209568281300000060004000004102000010050027070603005,659831742748526319123497856437219568281365974965784231594172683316958427872643195
810200504004607090039000000060040027005000400000971306906013000250000080148005009,817239564524687193639154872361548927795362418482971356976813245253496781148725639
000100040037902600608000000070350061400000702900067850000671020085090000000500493,529186347137942685648735219872354961456819732913267854394671528285493176761528493
000001005760530400001487003000950000006072100054603809000000907002300060190040320,349261785768539412521487693817954236936872154254613879683125947472398561195746328
200090000008300470100670058000905000480000296000460300672000031040016500090080007,257894163968351472134672958316925784485137296729468315672549831843716529591283647
801005009500093200090100308060710040900604120107500000000067085004000630020048070,831425769576893214492176358268719543953684127147532896319267485784951632625348971
000040603200018074800600000030109400000075068051020730020000050000537902400086000,519742683263918574874653291738169425942375168651824739327491856186537942495286317
008002019040005006003860200020700800090010000760509432170300008400971060500000004,658432719247195386913867245325746891894213657761589432176354928482971563539628174
703020900000001430504000701607000548000940003000500620009480015400090200075630000,713824956986751432524369781697213548852946173341578629269487315438195267175632894
400702103009054000070390060900203075050040206810006030384100000600005900000800002,465782193139654728278391564946213875753948216812576439384129657627435981591867342
020018306860000900030047001700002400985130002000500000300006709190780004004000560,427918356861253947539647821713862495985134672642579183358426719196785234274391568
030400001000700502580060930050020700903006004001079680200180070016000305040052100,732495861169738542584261937658324719973816254421579683295183476816947325347652198
080007051000003700005400962500900030600500400900174086002000810010020070407006093,284697351196253748735481962548962137671538429923174586362749815819325674457816293
000006001005003060780190400052070080040000010009020304400607009903810052068900007,234786591195243768786195423352471986847369215619528374421657839973814652568932147
000004908006000075000079010200103750030940000401080600590310000048005062107020030,713654928926831475854279316289163754635947281471582693592316847348795162167428539
010005329000073100095020007003609000000540010400000580008400652600008700001290400,714865329286973145395124867153689274867542913429731586938417652642358791571296438
260400038058030100079001240100000080600907003900040765030006094004280000000500007,261479538458632179379851246147365982685927413923148765532716894794283651816594327
003090080720004509490500001380940060005072300001050000502006070070310042000000008,153297486728164539496538721387941265965872314241653897512486973879315642634729158
049630080007009003200004050103000004800005962060807000400150000008270041000000326,549631287687529413231784659153962874874315962962847135426153798398276541715498326
002006107096000500400810000070400000800600093309050204000007381000094025653002000,582946137196273548437815962271439856845621793369758214924567381718394625653182479
000500238090081607000002000074009002020073460608000090400306100001000045705010800,146597238293481657857632914374169582529873461618245793482356179961728345735914826
009740086380050000002006005007295600604300008000084201073008000000917400501060020,159742386386159742742836915817295634624371598935684271473528169268917453591463827
649000001008070000203104960010045780000300050400089200000003000706090820090520046,649238571158976432273154968312645789987312654465789213524863197736491825891527346
370006590000040200600507000400900020023078000068100043084050100000000908050032067,371286594895341276642597381417963825523478619968125743784659132236714958159832467
050001030000420009001063800924180000013090704670005000006030570005000040700800602,852971436367428159491563827924187365513692784678345291146239578285716943739854612
000965030078000540003000020840600000020300954100790002000100060601408003390020807,412965738978213546563847129849652371726381954135794682287139465651478293394526817
007040900009105008068700450070506001450002070200000830905807020000000196000014000,527648913349125768168739452873596241451382679296471835915867324784253196632914587
006009810020400905709005003502003170140900000900050602004200000003004086000187200,456329817321478965789615423562843179147962358938751642874236591213594786695187234
001590000040003008702600530000000710070320890509001604400072000900805200800930006,381597462645213978792648531268459713174326895539781624456172389913865247827934156
007006008130020009060080240084105090000803001009640000090004602600700053570000900,427956138138427569965381247284175396756893421319642785891534672642719853573268914
009020007005036108108905000500200040000560203700000680603100004420080030001400920,369821457245736198178945362536218749984567213712394685693152874427689531851473926
008109005060070000040280310400060008275000030300542009017050200000003760002091004,728139645163475982549286317491367528275918436386542179817654293954823761632791854
200960038040150069800004500002000006018500740630090000000072000405300080069800012,251967438347158269896234571572483196918526743634791825183672954425319687769845312
600870913900400700000010060082000000700640320301750000000900405048320006193060008,624875913915436782837219564482193657759648321361752849276981435548327196193564278
030809000050140300000070816507004090049031270060000000290060050080003000106502408,631829547758146329924375816517284693849631275362957184293468751485713962176592438
269001008008900003100406000805030000000000450610072300040000072030005096002709100,269351748458927613173486925895134267327698451614572389946813572731245896582769134
700900021086410750002000084043000000000106000500807360000320510800560049120090000,754983621986412753312675984643259178278136495591847362469328517837561249125794836
005060427480070030006100005002090806070003500900006010100082094093040002050300700,315968427489275631726134985532491876671823549948756213167582394893647152254319768
800059002097401006050608400060705100010800600200000304704000000001090805980100037,846359712397421586152678493469735128513842679278916354724583961631297845985164237
390000100004895006060070048040207361001089720500300000000030574000060090002500000,398624157714895236265173948849257361631489725527316489186932574453761892972548613
009007000050061007040080610061400530000700900028500000095023060172000008300000045,619247853853961427247385619761498532534712986928536174495823761172654398386179245
