408000000000700005016902804030004579007030001020190080045200003002006490680003100,458361927293748615716952834831624579967835241524197386145289763372516498689473152
900200087070901400502408100080004090203006001004020705800309510605000020000000308,941235687378961452562478139786514293253796841194823765827349516635187924419652378
005008040200009803900700000030406105108370060090005002364080050070020090000150074,615238947247569813983741526732496185158372469496815732364987251571624398829153674
008471090094000051260000300000050708516002000007639000800000005020048003005260084,358471296794326851261895347932154768516782439487639512843917625629548173175263984
100800706009000130023650000600080350207340000000200907070020094081500000050709860,145893726869472135723651489614987352297345618538216947376128594981564273452739861
016000002095060801800700009100200080504010006000435207280003075000008690030070400,316984752795362841842751369173296584524817936968435217289643175457128693631579428
709100020000650008040070003010020467907304500200060300020006901500008000300210050,789143625132659748645872193813925467967384512254761389428536971571498236396217854
900800015431600008070000200000065400104008007500940032008030029050407603600000700,926874315431652978875193246382765491194328567567941832748536129259417683613289754
070900253309006100000080700080070309410630520005004000002090070041008000890510060,678941253329756184154382796286175349417639528935824617562493871741268935893517462
005003081784500000610090004001050309000682500027000600000000090300015800902340060,295463781784521936613897254861754329439682517527139648158276493346915872972348165
713000006900008020052410003000050690004007010000903008020070500675020400030061280,713295846946738125852416973387152694594687312261943758128374569675829431439561287
000500000014020300000981040001035800640000702809000006003267005020809100060014079,786543921914726358352981647271635894645198732839472516193267485427859163568314279
090047650003050807000106002450010090820500070001090004080600320100030009500809400,298347651613952847745186932456713298829564173371298564984671325162435789537829416
000090000013670004680053002200061700007005243405030008009010000520008390000000867,752894136913672584684153972238461759167985243495237618879316425526748391341529867
097340008000000201350086009401000760000070003009260140000700020015900086084035000,197342658648597231352186479431859762526471893879263145963718524715924386284635917
064902100100468009300050200000810504028000070007506900090003000600000415841070000,764932158152468739389751246936817524528394671417526983295143867673289415841675392
700540013610000900085007000002809006900400237040060100050103094090000008037200050,729546813614328975385917462172839546968451237543762189256183794491675328837294651
050000000002010460003970081010290050796080004800034107240006700000140305000008009,158463972972815463463972581314297856796581234825634197249356718687149325531728649
070600005200407090000810240000500000496000013158036000081004900030020078000709060,874692135213457896965813247327541689496278513158936724781364952639125478542789361
079000604300800090004057018400002005001370200600010087008009001506001420023506000,879123654315864792264957318487692135951378246632415987748239561596781423123546879
059000000620048300300570600070480060104050809030600507000020701800790400002001003,459136278627948315381572694975483162164257839238619547596324781813795426742861953
060500080010908405400003097054100600320009000100000034000760040008000102700020950,967542381213978465485613297854137629326459718179286534592761843648395172731824956
017000300500200407000508009708004096600091020490020580804060000035700000060030001,217946358589213467346578219728354196653891724491627583874162935135789642962435871
608700520009100000401080003300802700000050030027049106006000040910000075500006802,638794521259163487471285963365812794194657238827349156786521349912438675543976812
000003140080409032020000076002054010509002807813600000460210000730008000000070005,956723148187469532324581976672854319549132867813697254468215793735948621291376485
200000309980204060105700020003600001741050200000003098078940600600178003000002500,264581379987234165135796824893627451741859236526413798378945612652178943419362587
003040502001307000060805004700000040900103006320060089048501920090000007507208000,873649512451327698269815734716982345984153276325764189648571923192436857537298461
100940750020803064006002003052000000070030089400061030030000520509000107000604008,183946752725813964946572813352489671671235489498761235834197526569328147217654398
030400500000100049010279600900060080254800300803005201000030907000601000528004003,739486512682153749415279638971362485254817396863945271146538927397621854528794163
002019060009007034804000501000000176901020008083600040000805000040093005030046720,352419867619587234874362591425938176961724358783651942296875413147293685538146729
030070068070812500200000090061009783807350420420001609010000000056030040900640000,135974268679812534248563197561429783897356421423781659314295876756138942982647315
005004070700380001003609028209010600100060043076400050091052800804900700000800260,985124376762385491413679528249513687158267943376498152691752834824936715537841269
980037000002490507100006320004800006036000000700009008070025903010000240050640001,985237614362491587147586329594812736836754192721369458478125963613978245259643871
000300000709106050380050064560089001813000400004200000007501008040702900690000012,456328197729146853381957264562489371813675429974213586237591648148762935695834712
060200000800050724470098003008501006040000350900083400001000290705830001690702000,563274189819356724472198563238541976146927358957683412381465297725839641694712835
000560087007003640900004501020050300080300729140900000006800090504200008010070250,431562987857193642962784531729658314685341729143927865276815493594236178318479256
004008706056302100010570000002030070970010060080007924091000000400003205508060040,234198756756342198819576432642839571975214863183657924391425687467983215528761349
021009000650800900307056084000000007000201503010497020040028100000070865960003040,821749356654832971397156284289365417476281593513497628745628139132974865968513742
009000762000956000010080030806003000300500047250190000008020100000017309075400800,589341762723956418614782935846273591391568247257194683938625174462817359175439826
082700030036090400000160009001240000097008500450030601003000007040080902820500010,982754136136892475574163289361245798297618543458937621613429857745381962829576314
020430000790506010413900200034070908800093006005200170000810050600000490200004800,526431789798526314413987265134675928872193546965248173347819652681352497259764831
006008310290600070501070000000009068060300000805240001032460000410002590007800403,746528319293614875581973642324159768169387254875246931932465187418732596657891423
060004352300001400409600070900080260005400007812560030000200048007018020006900003,761894352328751496459632871974183265635429187812567934193276548547318629286945713
105070360902400805007030001403100600500009007006800020800360504000000096201504080,145978362932416875687235941493127658528649137716853429879362514354781296261594783
070002805400060021006050007689004010005100049120703008007230004002970500000008300,973412865458367921216859437689524713735186249124793658867235194342971586591648372
300000050080021600400893000070040010008005279025600480001002367500900002060380100,312764958789521634456893721973248516648135279125679483891452367537916842264387195
000030002270010800085000960420080503817000290000401000030002056109006007640700100,961538742274619835385274961426987513817365294593421678738192456159846327642753189
700300060001900002005162400000045900008006047002790083000070300300610200906400058,729384165461957832835162479673845921198236547542791683284579316357618294916423758
170620040069004003008509000030800900005000104001090872000006025300010008892700060,173628549569174283428539617237841956985267134641395872714986325356412798892753461
900004008020000157306080020003700600107005840050830010040010030060000209809650070,975124368428396157316587924283741695197265843654839712742918536561473289839652471
543609100000040000091000803109020006700005409080070030070810902000093060054200008,543689127827341695691752843139428576762135489485976231376814952218593764954267318
123060000700000045008297000000010036309000170007409002800006010060305407004800029,123564798796183245458297361245718936389652174617439852872946513961325487534871629
870240300021800600500300009240080001010079530005000040000604058703001020006020000,879246315321895674564317289247583961618479532935162847192634758783951426456728193
960200004108460390000070500050001400204007018080090070010000820043080950007030000,965213784178465392432978561756821439294357618381694275519746823643182957827539146
080012050050430090000500604070001009804320560100890702030700100602080000900000043,486912357751436298329578614273651489894327561165894732538749126642183975917265843
900000140780000203001735000840900005050206700307001904000009460200657089003020000,935862147786194253421735896842973615159246738367581924578319462214657389693428571
010000809580401062600020510300004007060002000940186020000760093700000450000905108,412657839589431762673829514321594687865372941947186325154768293798213456236945178
930800500400000001051906080620407038080601205005000000060029070300740900000005402,936814527478532691251976384629457138783691245145283769564129873312748956897365412
460001970300006150005290000740030820080040000050009710026500000008623090100000000,462351978397486152815297643749135826681742539253869714926514387578623491134978265
540970000200050036001000000920007010300080690060010425136004800000008900807523000,543976281289451736671832549925647318314285697768319425136794852452168973897523164
000390070080200009006457020008005002240000310930804005520000080810970400007001003,152398674784216539396457821678135942245769318931824765529643187813972456467581293
800040500705100200140003060010002900009580004006401087507900018020037000000600030,863249571795168243142753869418372956379586124256491387537924618621837495984615732
006702503083500000100000409000070915020008000300694700001360090079000602600000004,496712583783549261152836479864273915927158346315694728241365897579481632638927154
007960000200000605014005000402503096000002031080400700190007304000209008703180500,857961243239748615614325987472513896965872431381496752198657324546239178723184569
010709006305040090060050408402307001790002850030000000000601204086000019000230070,814729536325846197967153428452387961791462853638915742573691284286574319149238675
706300240100078506093060001209100000000030084000500790075610903000000008402005600,786351249124978536593462871249187365657239184318546792875614923961723458432895617
401000027080300006906210000008061000500070004000009380004008605070094102063702090,431986527782345916956217843328461759519873264647529381294138675875694132163752498
020001006037090080080600409009000010400015230700004500003240950001800700006007043,924581376637492185185673429359728614468915237712364598873246951541839762296157843
670430005090205008804907020500009004008001690300000082005084703730000001001600000,672438915193265478854917326567829134248351697319746582925184763736592841481673259
008900540005024080031800009000007460800400302000058010042006701700000025516300000,278913546695724183431865279159237468867491352324658917942586731783149625516372894
035090700700010284000620000008003001170400600906780050000000190450970302090002040,235894716769315284814627539548263971173459628926781453382546197451978362697132845
009540200000020096806700000130080902000407010500002367300000081078050400200069503,719546238453128796826793154137685942962437815584912367395274681678351429241869573
000030041000000920002710805090605307700300000480001096310409000825003070600080002,568932741174856923932714865291645387756398214483271596317429658825163479649587132
807902040200040010060005039780069500050000900400030068902056700010070006003801000,837912645295643817164785239781469523356128974429537168942356781518274396673891452
290657080010009070005080040620400300009070800300801209071920000006034501030000006,294657183813249675765183942628495317159372864347861259571926438986734521432518796
043100500600000008071050090000803065006001000000204371005709206310008004207300800,943186527652937148871452693124873965736591482598264371485719236319628754267345819
035200071470105000000006080023000900010300052700509008980000104006701095002040800,635298471478135629291476583523817946819364752764529318987652134346781295152943867
021000050400608070800004900098250060007901500000060301036080009004730120000095008,621379854459618273873524916198253467367941582245867391536182749984736125712495638
100809302000020400850000001207000060380004157090600008020085709040760000500041000,164859372739126485852473691217538964386294157495617238621385749948762513573941826
000086009840007200007045130090078005300100000482090700018020040650001900003000607,531286479849317256267945138196478325375162894482593761718629543654731982923854617
400630280005200000007000165013809020082701049000050700020000801600093050000408003,491635287865217934237984165713849526582761349946352718324576891678193452159428673
090080205007000041320160000000750096000204000005030810030900700408520300062003004,196487235857392641324165987213758496689214573745639812531946728478521369962873154
300009710019050460600840000004300005587006003090084000050207096700100020008000030,345629718819753462672841359164372985587916243293584671451237896736198524928465137
043007280900600001000093050500061048090700000108020030700004005020500410001908706,643157289985642371217893654572361948394785162168429537736214895829576413451938726
001000300060700208583001004800040073025090040100630900950800600600210007004009502,271486359469753218583921764896542173325197846147638925952874631638215497714369582
098063401007200036650800000000000900320500080045010270700006009109027540000084010,298763451417295836653841792871432965326579184945618273784156329169327548532984617
782000005005200016000003000097041008006008030300900024041072900003109602500400800,782614395935287416164593287297341568456728139318965724641872953873159642529436871
003000192890024070500000000004010907207069004060050010000000038705290600400108500,643785192891624375572931486354812967217369854968457213129546738785293641436178529
047600502005007003600900080010302006000050200009080014900008107208010630460500000,847631592195827463632945781714392856386154279529786314953268147278419635461573928
609700208000100059708004030000006320920010605504083000000000097000652010130070400,619735248342168759758924136871596324923417685564283971286341597497652813135879462
703280009210070600000940070004000985008320000506000100900034021000010750860000000,743286519219573648685941273324167985198325467576498132957634821432819756861752394
150083000000000070002600109605004900009060054370200081400300008536049700000012400,157983246963421875842657139685134927219768354374295681421376598536849712798512463
001007800005040036320600007049500600780010024106000390000709100802430000000852900,461327859975148236328695417249583671783916524156274398534769182892431765617852943
096420000000000080002170405030610708050300104067005920010009000005704006804000230,596428371741953682382176495439612758258397164167845923613289547925734816874561239
106000004020094710080030509900000040040087061630500900010009687053400000000271000,196725834325894716487136529978613245542987361631542978214359687753468192869271453
400000019008057002020000730702090504040600970503008000005039068080072001010400000,457263819138957642926814735762391584841625973593748126275139468684572391319486257
700023000000000063510700409000090602084150000970042010390500000640080501002600900,769423158428915763513768429135897642284156397976342815391574286647289531852631974
000410020090008600001700035560390400170005002309027000200000518807100004004006000,685413729793258641421769835562391487178645392349827156236974518857132964914586273
030006070010930200209800104004500600000307008850490013003120960090000800007040005,438216579715934286269875134374581692921367458856492713543128967692753841187649325
401580903370019000800007060002004001005690000000030806000760350790200040008040002,421586973376419285859327164632874591185692437947135826214768359793251648568943712
