003097000900004310002610800500709004460000075000058031005000706070320040680005000,813597462956284317742613859531769284468132975297458631325841796179326548684975123
200010000895006023006009470500091000070200361000340800008000205910050004300002087,247813596895476123136529478583691742479285361621347859768934215912758634354162987
006005010840672000305800007080090270500304190012000400200000080000009506030017940,726935814841672359395841627483196275567324198912758463259463781174289536638517942
000010000270009003300004657006495001050000400900160280080370090530020006007508010,465713928278659143319284657826495731751832469943167285182376594534921876697548312
206000078800065409030079010902400065600010780047000203010003807304050020000190000,296341578871265439435879612982437165653912784147586293519623847364758921728194356
001000094750006203030900080600092040104307002090580000003405001008009007207010530,821753694759846213436921785675192348184367952392584176963475821518239467247618539
000200003040097006012804900100700020008901670025003409004560800090000000850010730,987256143543197286612834957169745328438921675725683419374562891291378564856419732
000080530090060001470100800801003050000600720036540009300070400615030002240901060,162489537598367241473125896821793654954618723736542189389276415615834972247951368
809060030030790061600400007000900000500001702027806043090000076005284000312000500,879162435234795861651438927143927658586341792927856143498513276765284319312679584
090050304008741005000200060200004080030517900140380000903026070001000029005000608,792658314368741295514293867257964183836517942149382756983426571671835429425179638
700500000010070600095321080036100508807000020200060040008709300560084009400010002,784596231312478695695321487936142578847935126251867943128759364563284719479613852
705106009000004810003058007600030480074002006250000030010700600000043090800690500,785126349926374815143958267691537482374812956258469731419785623567243198832691574
010052007000000590903000640095076100600308000280000400870245006000001980060090200,416952837728634591953187642395476128641328759287519463879245316532761984164893275
709430008000000040200086705068002003051070900400091006045020830003800000090160002,719435268586217349234986715968542173351678924472391586645729831123854697897163452
100000309360080050028509000674100000050040260800003070090012840400006003001870500,145267389369481752728539614674125938953748261812693475596312847487956123231874596
007040800068000139009100005000010046000706903003020510090005028352600000040097000,517349862468572139239168475975813246124756983683924517791435628352681794846297351
030051680000206095006070201070500000201000400408030560347900008109803000060002004,932451687714286395586379241673524819251698473498137562347965128129843756865712934
900200608002901005310000400000807000043005800720000069270068100860309074005000000,954273618682941735317586492596827341143695827728134569279468153861359274435712986
005009302103800040000702006800590700600083000009406020010000070907020108084310050,765149382123865947498732516842591763671283495539476821316958274957624138284317659
602003004005000961070040080003006000816400070900150300000091025308500400051070009,682913754435287961179645283543726198816439572927158346764391825398562417251874639
503000004070603200090005060200060005800040001704100028901300006005290047000801300,563927814478613259192485763219768435836542971754139628921374586385296147647851392
029308000030004025000106080860005900705260100000030000300970054080000061574000000,629358417138794625457126389863415972745269138291837546316972854982543761574681293
054080000700000230800096004070063020321008000400001790500000160080007409609520007,154382976796145238832796514975463821321978645468251793547839162283617459619524387
860050004094700300007401500208574006000009140030020000005000610100098020070300009,861953274594782361327461598218574936756839142439126857985247613143698725672315489
065089027008040560010002000001070302940000080602030015080407000090100600000050943,465389127238741569719562834851674392943215786672938415386497251594123678127856943
000009000027140500060050234700206900304005001200300708085000070001067400000900360,543629817827143596169758234758216943394875621216394758685432179931567482472981365
017005000286103000000070300600028570023000809400000001504097006070301054002800900,317985462286143795945672318691428573723516849458739621534297186879361254162854937
008031000100690340600200590000016002502009604000500980070008009830720000416000007,958431276127695348643287591394816752582379614761542983275168439839724165416953827
800001050007320060020650400400700290590003806010206000340000000005017039000000180,864971352157324968923658417436785291592143876718296543341869725285417639679532184
020000005098045007000902010500300000002008600407100082800067950060050324001039060,624713895198645237375982416586324179912578643437196582843267951769851324251439768
183600070096500004407010003020000930070006000500304002000098010062007045001200007,183642579296573184457819623624751938378926451519384762735498216962137845841265397
007108009600034000000500083090051060020003700765902010000400208103000050200096040,537168429689234571412579683394751862821643795765982314976415238143827956258396147
040205031090100070000080500324601800015007004900803020100030780700096000030000052,648275931593164278271389546324651897815927364967843125156432789782596413439718652
500090070610000308000003024007040650209800400000570002004000763080001000900364001,543298176612457398798613524837142659259836417461579832124985763386721945975364281
003000807000020090401098200050076003008400620006250908060002040590031000800700060,923164857685327194471598236259876413738419625146253978367982541594631782812745369
018400000007080209004573006200009480080001000490000350070060130000208060503004900,618492573357186249924573816231659487785341692496827351872965134149238765563714928
900000600050014809070500130500602080106007003040030760002003000000180420890705000,921378654653214879478596132537642981186957243249831765712463598365189427894725316
000617900008004001300200400002900007401030280637008510109000060280090054005843000,524617938978354621316289475852961347491735286637428519149572863283196754765843192
013200057000063090980400000200300060708500100500019004170900008064075020009040073,613298457457163892982457316291384765748526139536719284175932648364875921829641573
060504018700030904010007036072146800309000000000308500034865009150000000000200060,963524718728631954415987236572146893389752641641398527234865179156479382897213465
080406100000800670250003009900600040040017000003500008409020005005000731671080020,387496152194852673256173489912638547548217396763549218439721865825964731671385924
406000803010460090000705010007004028800950061002003000020100600975000004000080932,456291873713468295289735416597614328834952761162873549328149657975326184641587932
406020570050000092100007403002009000601080004000213608005432700009000000040050306,496328571753164892128597463582649137631785924974213658865432719319876245247951386
300900270870600005001024030000095100008403000953000006024000567000000010000217900,346958271872631495591724638467895123218463759953172846124389567789546312635217984
600790802402108000100006945035067100000000056000042790900000000024081000070039608,653794812492158367187326945235967184749813256816542793968275431324681579571439628
100004000006700002749058300073009045000630009200001600050300201060090800801500970,132964587586713492749258316673829145418635729295471638954387261367192854821546973
010600304000800902369005000004060030005428700020507086403700100000000008076192500,218679354547813962369245817784961235635428791921537486453786129192354678876192543
020090080870003400001000067040508016050672008007900300009205000035067001460000005,524796183876153429391824567942538716153672948687941352719285634235467891468319275
002007861100050000073004200090506403000008070547900020016083047305000006080010090,452397861169852734873164259298576413631428975547931628916283547325749186784615392
000703510010020008003950004000800003740000192096042000600007850109400030027018000,462783519915624378873951624251879463748536192396142785634297851189465237527318946
310860090720004300500000080043019260206407000001080005000672008400001023090000501,314865792728194356569723184843519267256437819971286435135672948487951623692348571
010905000730020400608030201200150003100483006050007004000640305007012908900000600,412965837735821469698734251284156793179483526356297184821649375567312948943578612
000004000007380015203790000395047600060000100480025009009500087628400030000003060,816254793947386215253791846395147628762938154481625379139562487628479531574813962
400065007700201090090400010000090365001007002580000400028004600046050003907032000,412965837763281594895473216274198365631547982589326471328714659146859723957632148
010090023007628400540070900603700000009004200020350008400000010001506340098000075,816495723937628451542173986683712594159864237724359168465937812271586349398241675
009370100503000040072601090100200608820040050007060000004730001090082067000005430,689374125513829746472651893145293678826147359937568214254736981391482567768915432
380007210009005007400000360601080003790600800025000041060903700038200004000041500,386497215219365487457128369641582973793614852825739641164953728538276194972841536
050870300006102004090030006070010600001500438020004109600750000700008002345069800,254876391836192754197435286478913625961527438523684179682751943719348562345269817
004700500500200097039006102000030009072800600903400280800010006061005034040020050,124793568586241397739586142658132479472859613913467285895314726261975834347628951
004006000000005130600192005060009307009570020208400010307000800821000940040301050,514736298792845136683192475465219387139578624278463519357924861821657943946381752
580010602000900000370024010001508004004790000250040700000003086938005400600100025,589317642412956837376824519791538264864792153253641798125473986938265471647189325
710020009200058300008003106650001000007490000090200584400010908086000030002506070,713624859269158347548973126654831792827495613391267584475312968186749235932586471
000807000005030160190000203010000800560403009700052046600524070070060025004900038,326817594845239167197645283413796852562483719789152346638524971971368425254971638
800050073056003208104007090008004050640900000900230601320081000000070005000600107,892156473756493218134827596218764359643915782975238641327581964461379825589642137
140009002080610509006500083801700000023000900700243005004080700090060450000070306,145839672382617549976524183851796234423158967769243815634985721297361458518472396
007090006150804903020600040003070410000500000498201500600109700084060200705002030,847395126156824973329617845563978412271546398498231567632159784984763251715482639
300070900580004067102009008006703092000000603010000045095300100000900084047560020,364872951589134267172659438456713892728495613913286745295348176631927584847561329
009340010050026040003000087010630400040085269900200000790010030008090000205807100,679348512851726943423951687512639478347185269986274351794512836168493725235867194
700084025564009000009301600000002040020100709901070800005000203037065091000840000,713684925564729318289351674378592146426138759951476832645917283837265491192843567
086100020000003005400070908500940300007060002042300050823004017701500603050001000,386159724279483165415276938568942371137865492942317856823694517791528643654731289
009003006200080400371050200006020085800300904103000020090140503700002060000609100,489213756265987431371456298946721385827365914153894627692148573714532869538679142
070000006430900102100082030200108009000000457560030000053027900900610800080405020,872341596435976182196582734247158369318269457569734218653827941924613875781495623
278060000000203890060400500500009080009052307140000900304081000090007013050090260,278965134415273896963418572532749681689152347147836925324681759896527413751394268
610005070200040530000030086000700048102000000094850302500008014067000900030692007,613285479278946531945137286356729148182463795794851362529378614867514923431692857
005090687601050092000408000006304100807000900030020756050081004900000310402605000,345192687681753492279468531596374128827516943134829756753981264968247315412635879
000810000524700100000406037401080026086050309930000080060090802007362001009000070,673815294524739168198426537451983726786254319932671485365197842847362951219548673
760320940200090008500700003820000060016005070000401300050800100030002004690040250,761328945243596718589714623824937561316285479975461382452879136137652894698143257
003010005420009000050840700042500300970000100008267900001000470700903001000004832,893716245427359618156842793642591387975438126318267954231685479784923561569174832
400501000009027650000906073203040000000802010806100904038000106005000002601374800,467531289389427651152986473213749568594862317876153924738295146945618732621374895
076040002400500690008000030004801560160037200002059001080190005003000000009062047,376948152421573698958216734794821563165437289832659471687194325243785916519362847
850030072000049300000500081700210604090706050061304800200900000004000006376008510,859631472127849365643572981738215694492786153561394827215963748984157236376428519
080002003107080004900001050003090600040203080800070042059630020026057930000400007,584962173167385294932741856273894615645213789891576342759638421426157938318429567
905100600210030004070004900050090300180042000002603870000000459030418060060029030,945187623216935784378264915657891342183742596492653871821376459539418267764529138
000030000400008016105042090080004300002950740700001500071209054024065080800000002,298136475437598216165742893589674321612953748743821569371289654924365187856417932
050000008100000600000605310200400809730061002594002000000040001682509430009370050,956134728143827695827695314261453879738961542594782163375246981682519437419378256
041062500607004023000008040100090050000106890302000706050800400030540907800070000,941362578687954123523718649168297354475136892392485716759823461236541987814679235
302006090058007006400500100090002070160030008004080039000309825200460700700010004,312846597958127346476593182893652471167934258524781639641379825289465713735218964
001000000207806050950704160070600013098500400300200007400005800805009002019000000,681953274247816359953724168572648913198537426364291587426375891835169742719482635
030605900009007816107200504000060009020081007800020360500009040670300100080040020,438615972259437816167298534741563289326981457895724361512879643674352198983146725
020500009300204060851090003060100850000430700412708000598060010000000302007800600,624583179379214568851697243763129854985436721412758936598362417146975382237841695
900360040100040260005802300680703001000980000307000500009000654020407008003015700,972361845138549267465872319684753921251986473397124586719238654526497138843615792
000040906209070080040600013900700000083050100056130004001500600000093800825000070,137845926269371485548629713912764538483952167756138294391587642674293851825416379
087001050105030090403002000010604200030020019900053008050007063000480507200000840,687941352125836794493572186718694235536728419942153678854217963361489527279365841
070059103600002570004080000009204006430800000065190080000073810910000000720400090,872659143691342578354781269189234756437865921265197384546973812918526437723418695
004935000010400800507600200080700640002091073300006000050304096948000005030020001,824935167613472859597618234189753642462891573375246918251384796948167325736529481
700000050320040100609008703005970000030250084000801600004503009910000037080600420,741369258328745196659128743865974312137256984492831675274513869916482537583697421
100068400086400020030500070000024800825070390790000006240000083000190005070003900,157268439986437521432519678613924857825671394794385216249756183368192745571843962
000008370400020508090000001820061400310700050607032000000054960003200080506190040,265918374431627598798345621829561437314789256657432819172854963943276185586193742
000239050010400000002160008301700080500006030480000109000057004743000900008002306,874239651615478293932165748361794582529816437487523169296357814743681925158942376
006090100040018006050007090800300204000800710300062509091400000008700050067031408,786293145942518376153647892815379264629854713374162589291485637438726951567931428
