685001000000009807300420060100005000000070296070840003250300910009604080830000075,685731429421569837397428561163295748548173296972846153256387914719654382834912675
009002040600050007052608300300401070068000009070900156020036000503000008400710020,839172645641359287752648391395461872168527439274983156927836514513294768486715923
000003805000060790040195030253000001016000300800004250001236400097450000020901008,962743815135862794748195632253687941416529387879314256581236479697458123324971568
001900070800000256403027900000704005260001000000065381700140000302500890009030000,621958473897413256453627918138794625265381749974265381786149532312576894549832167
200009000400007302685040700000623000900000160007008504700085009030200405046031008,273519846491867352685342791154623987928754163367198524712485639839276415546931278
647500020020000950008060073061000004700204000500780009402008501010003600300050890,647539128123847956958162473261395784789214365534786219492678531815923647376451892
430000009006902500500010480095206800702004000000087010060870053010060200007001640,431658729876942531529713486195236874782194365643587912264879153318465297957321648
508020609002000000000657400030075901000104080060903050000000013006408500190702000,548321679672849135913657428834275961759164382261983754487596213326418597195732846
500780060003005940197000020009860310340010700208970400002040080000200039860000000,524789163683125947197436825759864312346512798218973456932647581471258639865391274
300009870100000060574003200402000080001030609060574000080050320000647050900002710,326419875198725463574863291432196587751238649869574132687951324213647958945382716
502190006008000700190080003200730045350900608000400900003006254470000800006001007,532197486648253719197684523269738145354912678781465932913876254475329861826541397
048090050070015930003002104400009806000240070301860002000300080900100700602000501,148693257276415938593782164427539816869241375351867492715324689984156723632978541
010490003082016400740500000000200856500300970027060000006000049000057018003080620,615492783382716495749538261431279856568341972927865134876123549294657318153984627
000400509700008012150002380903800005600270900087050030000064100201000407309100006,832416579794538612156792384923841765615273948487659231578964123261385497349127856
004090170125830000000600002010980003400005001297006004039400605000700200600000380,364592178125837496978641532516984723483275961297316854739428615851763249642159387
460002003000040051001709802000004000705306280319000007000008590050600700682500310,468152973297843651531769842826974135745316289319285467173428596954631728682597314
000710050300000201608032007200008040040360009836004010009600000170940086000050072,924716358357489261618532497295178643741365829836294715589627134172943586463851972
003954600014700300000000082000402900000007148060380020006800009070003010320601750,283954671614728395795136482857412963932567148461389527146875239579243816328691754
046092007000507000820000150003060080100000960600304700090005402410700600700809005,546192837931587246827436159273961584154278963689354721398615472415723698762849315
082670040500000032400100800001029070060081004090300058100700000305000607008940203,982673541516894732437152869851429376763581924294367158129736485345218697678945213
120000800000000903005036020079800040608900175240050090300542001700010200800790060,123479856467285913985136427579861342638924175241357698396542781754618239812793564
050038000007500000801409600480105007000340090093607020036001800074020010500700900,659238741347516289821479653482195367765342198193687425236951874974823516518764932
807040009000001600000230001023000507600009100450070360035490700004605020001020850,817546239342981675596237481123864597678359142459172368235498716784615923961723854
400750061013002000609000307300400509020007840504108000890000000005600073007245008,482753961713962485659814327378426519921537846564198732896371254245689173137245698
050300001210048050800002490500000604002960800780030000160200000408715000000080703,654379281219648357873152496591827634342961875786534129167293548438715962925486713
700280000000060490204000718000708030006340020400001905900000300503490806070510040,791284563385167492264935718129758634856349127437621985942876351513492876678513249
364100000007049300085700016603908004800003070000401908071000800000020059000506003,364185297127649385985732416613978524849253671752461938571394862436827159298516743
040100602005060003390002080009005400620709800083040010700004000000650041002830097,847193652215468973396572184179385426624719835583246719751924368938657241462831597
300000560870104003520960008040805020903200017010000600000008100009000436062407905,394782561876154293521963748647815329953246817218379654435698172789521436162437985
090800700042009008600004050001000320030070000259060810360085041500320009000100070,195832764742659138683714952471598326836271495259463817367985241514327689928146573
700200608084007009600003050030900400106000002028041375310850000002096014000070900,753219648284567139691483257537928461146735892928641375319854726872396514465172983
000072000800000350059300000000940710007050086040061025004000209201690800076800030,413572698862419357759386142625948713197253486348761925584137269231695874976824531
000004510010030006780500002400007058003040900200196700060000200005060379820000104,932684517514732896786519432491327658673845921258196743369471285145268379827953164
800400000357001000021083907030507040948200010700800063000060008006000532000159004,869475321357921486421683957632517849948236715715894263574362198196748532283159674
070900010923007008000025006001600005809003640300048009010800070006490500400700302,675984213923167458184325796241679835859213647367548129512836974736492581498751362
900800760250060000037000540082009000000007801040320059009500036103070000065140090,914835762258764913637291548582619374396457821741328659479582136123976485865143297
100793000470008203006500800000000002683004009092061047007089006340006000000020954,128793465475618293936542871714935682683274519592861347257489136349156728861327954
648050000005097000200046100509100002000030070080002409010000836903008201002400900,648251793135897624297346185579184362421639578386572419714925836953768241862413957
009580307037090200002100046000000504860920000091307000004000069010038420050600001,649582317137496258582173946723861594865924173491357682374215869916738425258649731
109800002800340600000971050090286100200050074003400806620000410040700000350010009,139865742875342691462971358794286135286153974513497826628539417941728563357614289
030105086047002103000400900074806001018094207000000005001780009680050000009601030,932175486847962153165438972574826391318594267296317845451783629683259714729641538
090300070730010490406007051680005020003000000070041860000072084001060200050080006,198354672735216498426897351684735129913628745572941863369172584841569237257483916
000847010000205006078000000400790500050006300291003040345100708780000092020600003,632847915914235876578961234463792581857416329291583647345129768786354192129678453
006005080084070010091020003002900358700001069860004700010809002003506040050030000,376195284284673915591428673142967358735281469869354721617849532923516847458732196
000098205081000640300000000000701006054020080709500100206004910400006350900372008,647198235581237649392465871823741596154629783769583124236854917478916352915372468
400080010000042308703090060609030850072000104318500000001806005060700290000400003,426387519195642378783195462649231857572968134318574926931826745864753291257419683
040802050002400078030790014390000000507000006010948000403000001070360820650010090,741832659962451378835796214394675182587123946216948537423589761179364825658217493
006003900200010000091650070004000502500027130600085090010004703705908204300000060,856743921237819645491652378174396582589427136623185497918264753765938214342571869
800001024000390008960027050000070180005409000620030405200000009001280003300015760,873651924512394678964827351439572186185469237627138495256743819791286543348915762
000050940050107080600008003809201000400390000010000706000805400302000000007460129,738652941954137682621948573869271354475396218213584796196825437342719865587463129
008040060500003910090560800030200000742000508006700130000080300650401009804032007,328149765567823914491567823135298476742316598986754132279685341653471289814932657
006000710100800000053040006047030080000200097309150040062008500008960000090375200,826593714174826953953741826247639185615284397389157642762418539538962471491375268
050030000090200080146005700003090270200701009005308046000040090420600805700809030,852437961397216584146985723613594278284761359975328146538142697429673815761859432
500002307700500090060030200090000024010604500003097018040901070805023060001000053,589162347732548196164739285698315724217684539453297618346951872875423961921876453
004000950027008406030500007300020010460800703980304005150087000000006320000901008,814763952527198436639542187375629814462815793981374265153287649798456321246931578
000051090006208010084670025301020000090740002008195000700900803540080000063000074,237451698956238417184679325371826549695743182428195736712964853549387261863512974
007004812000230050049000006064850907190000000000060300056010004870026005020009080,537694812618237459249185736364851927192743568785962341956318274873426195421579683
100652800480300002000018090600940300230700010007060000070500936009070000502100040,193652874485397162726418593658941327234785619917263485871524936349876251562139748
001005308043001006500402000028006007070200095609340000400809700000050010937060080,291675348743981256586432179128596437374218695659347821415829763862753914937164582
761000400038006000500070030610708093080520004200030510002400850070900002004300109,761293485438156927529874631615748293983521764247639518392417856176985342854362179
900800004060300108000042570036700050010000020594006007100073000050089002007100960,975861234462357198381942576236798451718534629594216387129673845653489712847125963
012080000007001084050906030060007902120003057809000000005024076706500300030008400,312485769697231584458976231563847912124693857879152643985324176746519328231768495
001070203003045008070012000400009102068000900005000604056000400090023075780400009,541876293623945718879312546437569182268134957915287634356798421194623875782451369
018702630507000009000310008020840160004007800700960020000608042079150000000030050,418792635537486219692315478925843167164527893783961524351678942279154386846239751
009040200408106500053000000000905432000000870201300009900050087070201000536008104,769543218428176593153829746687915432395462871241387659912654387874231965536798124
005001020930845010470360008006000000200104807740090050154007900060020004800000630,685971423932845716471362598516783249293154867748296351154637982369528174827419635
000719200002046080003000074000500090700200461008090305064005002835600007090038010,486719253572346189913852674321564798759283461648197325164975832835621947297438516
073050008000000047065004029002003070090000081507460000010500090004019056600080200,473952168921638547865174329142893675396725481587461932218546793734219856659387214
900850310403000000007610004080501000001402056700006920204038509069007000000000740,926854317413729685857613294682591473391472856745386921274138569569247138138965742
020000384004019057070300600000001048007250100960080503010640030500700002300095000,129576384634819257875324691253961748487253169961487523718642935596738412342195876
300790540050001070040030900003004020710800009200506018009640807006000002502000030,321798546958461273647235981863914725715823469294576318139642857486357192572189634
400203086010057049007000510002708400090001600030600091000300200008000053900546070,459213786216857349387964512162798435895431627734625891571389264648172953923546178
802074003030006700601520008000961004040008090700030105300000512500087409024000060,892174653435896721671523948258961374143758296769432185387649512516287439924315867
067012500090000473050940200000021009000605701026090080000100004304008050500073000,467312598291586473853947216735821649948635721126794385672159834314268957589473162
000030702100089540064010300582170000970406001400000030020007690790000008008052000,859634712137289546264715389582173964973426851416598237321847695795361428648952173
060008040050003100000295030003700019520869370004500608400900780700016902200000000,369178245852643197147295836683724519521869374974531628416952783738416952295387461
060002013009000060000015780020480007706000030900300205604050100018790000307140906,865972413179834562432615789523481697746529831981367245694253178218796354357148926
809000006024090007003504000000405200000300100518079060090061042760000805000002093,859137426124698537673524981936415278247386159518279364395861742762943815481752693
000810065007003021000064300040531900903200008712600000005390240068000000290070050,439812765687953421521764389846531972953247618712689534175398246368425197294176853
020403076063079400700080310004100082000005601690000000002854000400007809035000000,528413976163579428749682315354196782287345691691728534972854163416237859835961247
000080000040002361120005089007609405200350008000071600500040100702908000096000002,679183254845792361123465789387629415261354978954871623538246197712938546496517832
054000002819050070600807005040308100900040007032090500360000024070160900000203080,754639812819452376623817495547328169986541237132796548361985724278164953495273681
100600002004350008306074050200000900670500010003948207700012003000006580090400706,157689342924351678386274159248167935679523814513948267765812493432796581891435726
060504210700001009003027080200000170970060042005000068458090003090070000100250600,869534217724681539513927486286349175971865342345712968458196723692473851137258694
805003001174809020060020000200000613090060087000700400000904500080070009900581032,825643971174859326369127854257498613491365287638712495712934568583276149946581732
003007201150400000680050090000231009094500700308009520000304060500610400000000187,943867251152493678687152394765231849294586713318749526821374965579618432436925187
009007285000619040430500100060800900002300007971000006085060392000150400020000000,619437285258619743437528169563871924842396517971245836185764392396152478724983651
008009005260000089000305010027000090914800630300407000090520800500010460402073000,138269745265741389749385216827136594914852637356497128691524873573918462482673951
009820065006010400800053070690307008204080030000005100070006029060002500103000740,719824365536719482842653971691347258254981637387265194475136829968472513123598746
000096042009410030000700150061009000570083900080024500610058300402000000350000076,135896742729415638846732159261579483574683921983124567617258394492367815358941276
965100040700300000302040009020010506670000800080730120800690010004080030000027905,965172348748369251312845769423918576671254893589736124857693412294581637136427985
090002040764000800003100095870004602402009003000500004010030000605800030020067019,591782346764953821283146795879314652452679183136528974917235468645891237328467519
500004008000108470470000060300070205001036800900010040700083100806920003020507009,512764938639158472478392561364879215251436897987215346795683124846921753123547689
095021000000960050807300001000003000901006724784000506060700210302050908000019400,695821347143967852827345691256473189931586724784192536469738215312654978578219463
029370100007010000000809020001204350600000078400560000704008530005103060860090240,529376184387412695146859723971284356652931478438567912714628539295143867863795241
059070004370600200608290300000540001490000065002017080030408509007005032800000000,259873614374651298618294357783546921491382765562917483136428579947165832825739146
010005084807010056006030200608024900050003400030900001760001890200580100004700003,319265784827419356546837219678124935951673428432958671765341892293586147184792563
407090010501006080390000024009010207005024368600030500004501000008370009200400070,487293615521746983396158724839615247715924368642837591974561832168372459253489176
009610502000302008600004000060001293840060701001705400150080609032000070400007030,379618542514372968628594317765841293843269751291735486157483629932156874486927135
700038009093000201050027000000019045600040020000600308002056100004700093508400700,726138459893564271451927836387219645615843927249675318972356184164782593538491762
