004920670850100040000806001500009020900004563087300900001230705000067080020000030,134925678856173249279846351543619827912784563687352914461238795395467182728591436
500029083007004602010030040300900405000603000081070090800102509050000068629000700,546729183937814652218536947362981475795643821481275396874162539153497268629358714
600504800387020005020300000701000083092007060805069000000906004000000120143005079,619574832387621495524398716761452983492837561835169247278916354956743128143285679
700910042008200000060030107000000031030091600040600008300000084005040700012760059,753916842198274563264835197629587431837491625541623978376159284985342716412768359
200608905048000020750012008087000130003500070100360009000730604090024087400000010,231678945648953721759412368587249136963581472124367859812735694396124587475896213
900285001000609030208000790080000300004050062007410800046800500050306400102007900,973285641415679238268134795581962374394758162627413859746891523859326417132547986
600008020008790010450063007039100000170040000000920600905000060003000470002431008,697518324328794516451263897239186745176345289584927631945872163813659472762431958
090000400407063100508000960070420085002016030900070000080051020104700000036800010,693185472427963158518247963371429685842516739965378241789651324154732896236894517
806097002050380960000540001700000250080600409410800070302400000041009706090000320,836197542154382967927546831763914258285673419419825673372468195541239786698751324
000070908041060003020094050084030007605800000007002009500003860000005001003149020,356271948941568273728394156284936517695817432137452689519723864472685391863149725
070002803900030004040601000020365001600070009381200070005703090100054600802900000,576492813918537264243681957729365481654178329381249576465723198197854632832916745
504003009300000068060701320810500600050906002000370000002400596097080030400002100,524863719371259468968741325819524673753916842246378951182437596697185234435692187
006700900000302060054800010800120094007503200061089003502000800019000350080040007,126754938798312465354896712835127694947563281261489573572631849419278356683945127
000002400106040730720003068040009073080710900050806040013020095000000000209060100,538672419196548732724193568641259873382714956957836241813427695465981327279365184
084002907903700460200005031000680203030041086000000040420907600008000000017020005,184362957953718462276495831541689273739241586862573149425937618398156724617824395
004007020100693008850000000500000400009028700006130082048502076701004209030069000,694857123127693548853241697582976431319428765476135982948512376761384259235769814
034107900050020701000809030003700082070001000596400100000000207069000304010036005,634157928958623741721849536143795682872361459596482173385914267269578314417236895
001003804705006900006410002300900001020708530569200000000000080000304107978000046,291573864745826913836419752387945621124768539569231478413697285652384197978152346
800400060500080001020905370070060402350007080208001930040809005000072090001000700,817423569593786241426915378179368452354297186268541937742839615635172894981654723
600205009080130000000000347900000200542000000070900806000079010000310405710468003,637245189489137562251896347968751234542683791173924856324579618896312475715468923
800019063000705910200600007064000005010302006780000090439080000500070801000260040,857419263643725918291638457364897125915342786782156394439581672526974831178263549
470069001000010900080075002600003580023090700000501060001407300050000490802000050,475269831236814975189375642614723589523698714798541263961457328357182496842936157
090050008070008064402900005006500802300107040004080190100240000260803007005060030,693451728571328964482976315916534872328197546754682193137245689269813457845769231
006805430001092005008400079090030108700006040002040900569000020040050813800720006,926875431471392685358461279694237158785916342132548967569183724247659813813724596
000406000408097160100000290370081009850700040020509700000002050706830000500904803,295416387438297165167358294374681529859723641621549738983172456746835912512964873
083040001009000040250701060002500106000038700000002584700260000008093050310007002,683945271179326845254781963842579136561438729937612584795264318428193657316857492
016008042000700010300009600020040300905080076804306009582010000007400530000070061,716538942259764813348129657621947385935281476874356129582613794167492538493875261
049500301018600000000020890320000080000960007507403060004001000170200050050347009,649578321218639745735124896326715984481962537597483162964851273173296458852347619
008405060201300047090076000080000005910047083004062000050010906700000200000798050,378425169261389547495176832687931425912547683534862791853214976749653218126798354
000095700409300002830001064500108090000004603012070000267030401904000006000000520,126495738479386152835721964543168297798254613612973845267539481954812376381647529
010607209006010450700003080140062700023800000080509003800020306009704800500000072,418657239396218457752493681145362798923871564687549123871925346269734815534186972
090605700461300000000100002072050640100030000030007980610090500008004007900218430,293685714461372859785149362872951643149836275536427981614793528328564197957218436
000003009765000802932050040006070900000100020471000680108620005503809700000400010,814263579765941832932758146286374951359186427471592683148627395523819764697435218
003004120020063040800507900035290006900070400000805001040000000002650730360000280,653984127729163548814527963435291876981376452276845391548732619192658734367419285
001508006002170040830490020796080000000260037200004001408005260000030500010000080,941528376562173948837496125796381452154269837283754691478915263629837514315642789
800300006902000310750006800000147020000800075030605900340090008208000050001050704,814372596962584317753916842589147623126839475437625981345791268278463159691258734
300601080054000000609020570980340012002007850000260000045900107703000460000003090,327651984854739621619824573986345712432197856571268349245986137793512468168473295
027618000090053002658400070000000950000206017840000000002091360509007800410000005,327618549194753682658429173276134958935286417841975236782591364569347821413862795
200985600601000305040000008004810000090060057000020106307250409800703000006000020,273985614681472395945631278564817932192364857738529146317256489829743561456198723
038090100000000035020470000102040000706008403000506901007100804085069000200030056,638295147974681235521473689192347568756918423843526971367152894485769312219834756
900000605007362040048100000000900570080023064010050302005640030206570080470000900,923487615157362849648195723362914578589723164714856392895641237236579481471238956
203700001000800905400010280010006050807502090034080706006040073740009600005100800,283795461671824935459613287912476358867532194534981726196248573748359612325167849
800000207000306810000507604600010480410038005907200000050040926090005000308060070,863491257574326819129587634635719482412638795987254163751843926296175348348962571
002000050450071002690800100009037008860004070203005069006000901010098500005200003,132469857458371692697852134549637218861924375273185469726543981314798526985216743
608200009070060130054970002500400201000601400090080007300000028089105000006030700,638214579972568134154973862563497281827651493491382657315746928789125346246839715
008001067000090008590702004039210070480005306000006090007408013200050000005360000,328541967174693258596782134639214875481975326752836491967428513243157689815369742
000001205002304017000090060970200406600079030100050008000930001401605800035008020,349761285562384917817592364978213456654879132123456798286937541491625873735148629
280000900000080760560400021100247000005060304609030000000009008073018400810500630,281756943394182765567493821138247596725961384649835217456329178973618452812574639
900000140010056820020400709687000090000507261200300080093048000500203600400010000,935872146714956823826431759687124395349587261251369487193648572578293614462715938
800005073390420005160007400080001090000080062001906057052010009000700080900642000,824165973397428615165397428586271394739584162241936857652813749413759286978642531
010670030802500400406023090290005000700001523103080007000900260080140000500008704,915674832832519476476823195294735681768491523153286947341957268687142359529368714
400560027905080010000007084080201096731094000060000700693100002000000400002039005,418563927975482613326917584584271396731694258269358741693145872157826439842739165
061209000094070130800030000500028000007150906032004050009807312100600087040000005,361289574294576138875431269516928743487153926932764851659847312123695487748312695
001070003269000004000080261694710300100800000087403902403601070028500000000090005,841276593269135784375984261694712358132859647587463912453621879928547136716398425
000090006205000903000630047000802030807010000126004000010950408050400060309780010,473298156265147983981635247594862731837519624126374895612953478758421369349786512
000006103070500902200004570504000000869710400000000020600930087300805600102040309,958276143471583962236194578524368791869712435713459826645931287397825614182647359
020000051600708240003100069006009508090000130730020000018436070009005084260000000,927643851651798243483152769146379528892564137735821496518436972379215684264987315
800900074040256013021007000702000300008190640090038005000041098100375000065000000,856913274947256813321487956712564389538192647694738125273641598189375462465829731
900014028100290047007030500009050872820060000004000105006070003080300010030900450,953714628168295347247638591619453872825167934374829165496571283582346719731982456
002100000438005009900020036500007080600049070040560000100050000050700102070306840,762193458438675219915428736591237684623849571847561923184952367356784192279316845
060050732030190085002706040001028500980005000200900076007041000000500309316080000,169854732734192685852736941671428593983675124245913876597341268428567319316289457
320900010000403000001080750060001590048620071003040800600170000080004032502090640,326957418875413269491286753267831594948625371153749826634172985789564132512398647
090001056000060387000384002000070164140009700502000800301257000409010000600000530,893721456214965387765384912938572164146839725572146893381257649459613278627498531
951080200084610003000400780200000000070800395003061000400300026607045009508000100,951783264784612953362459781245937618176824395893561472419378526627145839538296147
000080790034000000198300050051062009800500201603008000000030600042010070500970802,265481793734659128198327456451762389879543261623198547987235614342816975516974832
200103000090000846000060102360809704050030200008507069045091000732004080010300070,286143597193275846574968132361829754957436218428517369845791623732654981619382475
300108006002000401085040097704301200050980000010420009008000034000056070609200800,347198526962573481185642397794361258256987143813425769528719634431856972679234815
809000100017039204035001068902057030000024010070600090400000605028500000060010720,849265173617839254235741968982157436356924817174683592491372685728596341563418729
640030090907005062083001000800009400001080070402007601000900540530260800704000003,645732198917845362283691754876129435351486279492357681128973546539264817764518923
000200000800050603230004017007502804140600900000093060009000078402001300005700146,751236489894157623236984517967512834143678952528493761619345278472861395385729146
001806700000005000000910003080300050034160097200007006005002401046790820008501039,951836742463275918872914563687329154534168297219457386395682471146793825728541639
700045000600000148000200003870310006090084007041090020009603500000400032508009600,713845269652937148984261753875312496296584317341796825429673581167458932538129674
100700208670100340205004000300019000000050060917000002090003006004680051000400080,143765298679128345285934617356219874428357169917846532891573426734682951562491783
087001004605800020000004063503200900090360071004008000000950700908016005201700000,387621594645839127129574863513247986892365471764198352436952718978416235251783649
030240950000000002002000641980050403600300007054801200043016000709003100800400076,136247958498165732572938641987652413621394587354871269243716895769583124815429376
507002940046005003130080000000803092620010000000400700901078300450060001308000560,587132946246795183139684257714853692625917438893426715961578324452369871378241569
060084100003000000100000482500208300000096005701340900030000800200070040459031006,962584137843127659175963482596218374384796215721345968637452891218679543459831726
903020500714500600050010048008007004096030080020008106070004201300800090205600000,983426517714583629652719348138267954496135782527948136879354261361872495245691873
000030200308004000050801090040000001030000679879600000100208000400063508200570064,914736285328954716756821493642397851531482679879615342165248937497163528283579164
109004005040003006300026809000750308000409050082001700070060420930000001005010060,169874235248593176357126849694752318713489652582631794871965423936247581425318967
000000301830002006090410070000257603000890000205600400400060507016005089080309100,754986321831572946692413875948257613163894752275631498429168537316745289587329164
800000706005034012019600000090705300072041900003009400040000250300000089001820630,834512796765934812219678543496785321572341968183269475648193257327456189951827634
402600050100300006300047080096105000005089030810070020900014503000060870070000200,482691357157328496369547182296135748745289631813476925928714563531962874674853219
090000050005070008000401902029780005004002030080000019600005700270010080050860403,792638154415279368836451972129783645564192837387546219648325791273914586951867423
900218000026050010080004000040700069050001037069405800000003250003049006504000073,937218645426957318185364792341782569852691437769435821698173254273549186514826973
480050100009600030010070420500104807270900001600008000030280005900016000000500714,486352179729641538315879426593124867278965341641738952134287695957416283862593714
370580000040700530061200080014000062003000745052000900000845090800902100000630200,379584621248716539561293487914357862683129745752468913127845396836972154495631278
008003400900050007010062095304080160600017003029400050040790806053000200700008010,568973421932154687417862395374589162685217943129436758241795836853641279796328514
000009716000510080300200005018450600740001003005006200094080000507034900080700120,852349716469517382371268495218453679746921853935876241194682537527134968683795124
709000600000006050004801093031950070060002400400000830900070301025038000008400062,719543628283796154654821793831954276567382419492167835946275381125638947378419562
830000070400008061501009004060500000050300280203017009028900300000064700709050006,836145972492738561571629834967582413154396287283417659628971345315264798749853126
000006100004350096300081705020005300800612000970000510090008040730200980600070003,587926134214357896369481725421795368853612479976843512192538647735264981648179253
000231900049700500600040780800402091065083000020906300284090060100005007703000000,578231946349768512612549783837452691965183274421976358284397165196825437753614829
006012700047080003103070089200005001000067804009400500000000026970003050058109400,896312745547986213123574689264895371315267894789431562431758926972643158658129437
004708509800005000000630710005010400060902003400506200090073004020000000608209137,314728569876195342952634718285317496167942853439586271591873624723461985648259137
400810930009006100000200006010300805000050620052007004800520007006090280073640001,467815932329476158185239746914362875738154629652987314891523467546791283273648591
001700900600420030700983056008200000000056094002017005900000400143000027005030860,831765942659421738724983156568249371317856294492317685986572413143698527275134869
060853020080100060500049700000008940023090100708002500059204003001360800040000007,167853429984127365532649781615738942423596178798412536859274613271365894346981257
081042000000093804000000030094001000006700450700068203503010068068500712070900000,381642579657193824429875136294351687836729451715468293543217968968534712172986345
000004300070021006408630900300045800526300701009000000280070004091008520000590070,162954387973821456458637912317245869526389741849716235285173694791468523634592178
