140000000050004309006070810600512008000006005002080470700890001000060500308400792,149638257857124369236975814674512938983746125512389476725893641491267583368451792
034000000005978000109000620200001070083024006007530900002680150090003064508400007,834162795625978341179345628256891473983724516417536982342687159791253864568419237
804600000796400001020090008000083400601005207008701300060020050400506130903000700,814652973796438521325197648579283416631945287248761395167329854482576139953814762
008000624203047100005000800130000062000006097490005000000601045800039000071500008,718953624263847159945162873137498562582316497496275381329681745854739216671524938
800070009531080060600502480100200050002300000900046107079000030000905204060034801,824673519531489762697512483146297358782351946953846127479128635318965274265734891
005049010020160000009800760600590800007000300083702000104950607070200089800000540,765349218428167935319825764641593872257486391983712456134958627576234189892671543
240001098039250060500007000000720000394800002008630054060100740870003910005000200,247361598139258467586497321651724839394815672728639154963182745872543916415976283
300020800900100253001408007050792000108005006040600930067203040005000100000807060,376529814984176253521438697653792481198345726742681935867213549235964178419857362
963004010007200000040000703300160095600058070100007042502703900090800100008906004,963574218857231469241689753374162895629458371185397642512743986496825137738916524
800460010690000020030087004060008072000051900201000043705630008940005700020100060,857462319694513827132987654569348172473251986281796543715634298946825731328179465
000561400800200060090030070000720500264080000703046009078300012010009603905000080,327561498841297365596438271189723546264985137753146829678354912412879653935612784
001000000000150209024086050940003086280090301000000005009500003710460000800309604,591732468678154239324986157945213786287695341136847925469521873713468592852379614
400800000069001580200907001001730600580006200004000975300010004090084067000503020,413852796769341582258967431921735648587496213634128975372619854195284367846573129
702038040080400390009060000000720015600004030050310708028000000300102004040580001,712938546586471392439265187893726415671854239254319768128647953365192874947583621
020306000167000020300000850000001497040005300830060010070009100900057084002610500,528396741167548923394172856256831497741925368839764215675489132913257684482613579
030008002000000510106070004710002400504010000000950073200430950070690008400201600,935148762847326519126579384713862495594713826682954173268437951371695248459281637
650020079200903010018600300000004068020835000071000050009000500504106002030008740,653421879247983615918657324395714268426835197871269453769342581584176932132598746
700890001034600008009057020008020703000300185300004090060000000012970500400108009,726893451534612978189457326698521743247369185351784692963245817812976534475138269
003600408800050061000042500000100005057039680208070300006004000400023790030908002,573691428842357961619842537394186275157239684268475319926714853481523796735968142
009003100060820000573064000031900052800000004006075300000000270600012000405380901,289753146164829537573164829731948652852631794946275318318496275697512483425387961
002850001080000092600004030493067005005930200070100060000400009050302700730096800,342859671587613492619724538493267185165938247278145963826471359954382716731596824
326050080010300470704800060400900000005000901100607028009008000060009302507102006,326754189918326475754891263482915637675283941193647528239568714861479352547132896
050047200060903000078006503246070109000009040003010680500300061080000304900200057,359847216162953478478126593246578139815639742793412685527384961681795324934261857
700010286040007005302900010100409000530008602076053000010006350000800000980042107,795314286841627935362985714128469573539178642476253891214796358657831429983542167
200080004657009032900370610069204000040890001800600500010003080700005003020040007,231586794657419832984372615169254378543897261872631549415723986798165423326948157
002700815000009724054800000095008230070610900100000060060530080307102400000004006,932746815816359724754821693695478231273615948148293567469537182387162459521984376
600007000000050023942086100004001900087600410100800035010502094060000000053078200,635217849871459623942386157524731986387695412196824735718562394269143578453978261
030604510002008009017002340003060907105000400460030080000000030080795006050120800,938674512542318679617952348823461957175289463469537281291846735384795126756123894
000025040908003000000800356086400012017060500002700004100070890030010065000934070,673125948958643127241897356386459712417362589592781634124576893739218465865934271
001802006950000100060050004800700032300490070005000900040628009000040200706130058,431872596958364127267951384894715632312496875675283941543628719189547263726139458
600508700004021060980040300509700400040090070070810903057302009000000000300006815,621538794734921568985647321519763482843295176276814953157382649468159237392476815
004700920700329480000010000080053007071406000300001069400085690913000700805000200,134768925756329481298514376689253147571496832342871569427185693913642758865937214
069057001000400009300060450200000130500002708741009600003005040000381002987600000,469257381875413269312968457298576134536142798741839625123795846654381972987624513
090102540740600090126004300010030807509047003008050060400000010037000600000009400,893172546745683291126594378214936857569847123378251964452368719937415682681729435
097450000005310200200090007603040000450000180000200006708900500010036070026800043,397452618865317294241698357683149725452763189179285436738924561914536872526871943
200000096016004800307005402009030080040050700005019000490780500100002003073690000,254178396916324857387965412629437185841256739735819624492783561168542973573691248
000070001963004500807009320090148006008000007240300009000500710302000080056702400,524873961963214578817659324795148236638925147241367859489536712372491685156782493
020006180009070006340850000900003000800760040007400623053080407000012509001000038,725936184189274356346851792964123875832765941517498623253689417478312569691547238
200803500004750010600000089700109000305060000000540608000004197870010002090302006,217893564984756213653421789768139425345268971129547638532684197876915342491372856
005290604430570000010800270300014000507380006020000009800005003000730010940060052,785291634432576891619843275368914527597382146124657389871425963256739418943168752
605090710048600002000003005900050400026000870407000901701082030000900060002060184,635294718148675392279813645913758426526149873487326951761482539854931267392567184
050800964000091200020400035600040079081300500000006340260950008803004000710020000,157832964346591287928467135632145879481379526579286341264953718893714652715628493
002040790047015030060020005589000000000008260000174000006007001014053820830000940,152346798947815632368729415589632174471598263623174589296487351714953826835261947
300000874060010290000500001000428900780003040205009360014800000008706003600040009,351962874867314295492587631136428957789653142245179368914835726528796413673241589
002740001730001080040026900600070000000030605154000000005068407820094300009300800,982743561736951284541826973693475128278139645154682739315268497827594316469317852
070003000000050804940610030420830705006040190810709200200000009057306000000085301,578423916361957824942618537429831765736542198815769243283174659157396482694285371
007005094010890002500000301008540003903700200006030100209007000045210800080006700,837125694614893572592674381178542963953761248426938157269387415745219836381456729
008042900060090830000000140005610090087004060036500270070003005024950083001068000,718342956462195837593876142245617398987234561136589274879423615624951783351768429
000007000006940017018306000053800400902005360004000802030160090500702140240090006,495217638326948517718356924653821479982475361174639852837164295569782143241593786
048006009010400200050790038000010300895002600700800042060174000002039007100600500,348256719917483256256791438624917385895342671731865942569174823482539167173628594
400005180005009047003870200012006000000010350906007020390508060604000008700201009,479625183285139647163874295512386974847912356936457821391548762624793518758261439
600037050007000061380020040094013006000400030002756014526000008000800075000091000,649137852257948361381625749794213586165489237832756914526374198913862475478591623
401060080500040970000003002000058007600001090092400350000015060048097200050300800,421769583583142976967583142314958627675231498892476351239815764148697235756324819
070000300964200800008500264100603009030150070000078102200860700705009000083014000,572486391964231857318597264127643589839152476456978132291865743745329618683714925
210300040467028003000700000500070008042960000000503900300690007721000460005010802,218359746467128593953746281539274618842961375176583924384692157721835469695417832
000705603000030090040910200702008350001000046060000009170500000003620107908003400,289745613617832594345916278792468351531297846864351729176584932453629187928173465
304060509009040270000502003830005010207009400000170060003000605590080004670300800,324761589159843276768592143836425917217639458945178362483917625591286734672354891
800730160025094030000000504600050009054200000300409701097580300008006070030001208,849735162125694837763128594671853429954217683382469751497582316218346975536971248
040108090370000500010072006500709023800054109700003000000491060030200050089060012,645138297372946581918572436564719823823654179791823645257491368136287954489365712
040000095091007462000000807058040016009080000306905000030870050104602009500300201,743268195891537462625419837258743916479186523316925748932871654184652379567394281
203010000070024109090860005040009000010580430807000602080100050600040903100206708,263915874578324169491867325342679581916582437857431692784193256625748913139256748
300097204018000000000008516000056302025030901690010450400689000001200000839000007,356197284218465793947328516184956372725834961693712458472689135561273849839541627
050971040800300507002000000007002604030760005100500800008034000260050010090010406,653971248841326597972485361587192634439768125126543879718634952264859713395217486
230700004900206031000050000400382700000009000108600000800007605070008093016025080,235791864987246531641853972459382716763519248128674359894137625572468193316925487
002965008400017000009000367050102000027008600000096805030500100601020074780000090,372965418468317952519284367856132749927458631143796825234579186691823574785641293
000570903060803050000060720025000840000100007730009600002650001504027000800304090,481572963267893154953461728125736849649185237738249615392658471514927386876314592
604073209007080000310905600081209305430001007000000940070402010060050008905006700,654173289297684153318925674781249365439561827526738941873492516162357498945816732
400008600060950300071302090700080000092000005053701026024010070000600940080503001,439178652268954317571362894746285139192436785853791426624819573315627948987543261
801000025000400003026308719050040931040006080200800000900107000570200000080035604,831679425795421863426358719658742931349516287217893546964187352573264198182935674
098010030050306900400207000009000654600008300020040790006803010031500002204000060,798415236152386947463297185819732654647958321325641798576823419931564872284179563
005000612080400300932001000610000405004050087090703020050300701800062040400510090,745839612186425379932671854617298435324156987598743126259384761871962543463517298
050004063081605900004170000720080030140200508000009010090462700005010004000907086,257894163381625947964173825726581439149236578538749612893462751675318294412957386
000400680030920015100050090040000370800700001690300002012070059500008400700290006,925417683438926715176853294241569378853742961697381542312674859569138427784295136
000031406209000085400800702010054000070300510800062903096000040050920800100076000,587231496239647185461895732913754628672389514845162973396518247754923861128476359
507009000090104038003820060800000500009240000670098040030000296065300071042070000,587639124296154738413827965824763519359241687671598342738415296965382471142976853
000823000000900480070000062090046501004275800023080000305002107049000036062400000,456823719231967485978514362897346521614275893523189674385692147149758236762431958
305070180478000620000900000000010760051080403200600008006309005020007031809450070,395276184478135629162948357983514762651782493247693518716329845524867931839451276
000260400031000070000004958500400623080010000764900000000050167006082040973000500,895267431431895276627134958519478623382516794764923815248359167156782349973641582
080470003090120060026980150030010900800600304507090010004000000001007806300500729,185476293793125468426983157632714985819652374547398612274869531951237846368541729
003400600276030098000080001050970002004002000809006003007090380060000174340001025,183429657276135498495687231651973842734812569829546713517294386962358174348761925
000031920000004070507000800003406010401087600920000004890500001100000308062090400,648731925239854176517269843783426519451987632926315784894573261175642398362198457
600084900095000060040030108024068700106005000503000420050001003010629007700000280,631584972895712364247936158924368715176245839583197426452871693318629547769453281
000200003070080510106007400210045067009030000504002108050060082890001030000094700,945216873372489516186357429218945367769138245534672198451763982897521634623894751
083200109405000006000704280050600090018470003900083070060905000200107004001000062,783256149425891736196734285357612498618479523942583671864925317239167854571348962
007830040080010067060290105000102000005000703002000816040070000800009034903085000,157836942289514367364297185738162459615948723492753816546371298871629534923485671
605074800210500030037080090000629070103000200700010086050708004006000103940005060,695374812218596437437281695584629371163857249729413586351768924876942153942135768
068500002701000000420070090306490071050608400290000003000060900000300015540710308,968541732731926854425873196386492571157638429294157683813265947679384215542719368
023000870001090503005207400002074600340806005090103000000500701016080000580040002,923415876471698523865237419152974638347826195698153247234569781716382954589741362
006904000000020007104005208000408003600057040053010086098003012001700930065000000,826974351539821467174635298917468523682357149453219786798543612241786935365192874
040900801500062090706001000860705029000800000300020407005096300100003270030100054,243957861518462793796381542864735129927814635351629487475296318189543276632178954
006002000009105360703000042010020080000804090520063700001000000630070029400086570,146732958289145367753698142914527683367814295528963714871259436635471829492386571
506004000839520170200908000300070580000800061001690003098300000070000020420000956,516734892839526174247918635364271589952843761781695243698352417175469328423187956
000004000060098503180250000890003150047000360000007002400802000032900810070041096,925734681764198523183256479896423157247519368351687942419862735632975814578341296
003017805050090200000304006090031000000800794207005060610400052005006000749003001,963217845154698237872354916496731528531862794287945163618479352325186479749523681
000001706400900500580000024900207300047000000003896001060300250029560107030008040,392451786476982513581673924918247365647135892253896471764319258829564137135728649
001402009900800040000900613070000524002063970508070000030040082607301000800005106,761432859953816247284957613376198524412563978598274361135649782627381495849725136
300600080701028500008105069090503400620409070083000000530002000000000094000760830,359647182761928543248135769197583426625419378483276951534892617876351294912764835
000069400986005003700201000050004060201008300000030820007010000618000705342700089,125369478986475213734281596853124967271698354469537821597813642618942735342756189
070400800030060002024105703007030410008000005500006289001080600040001090006250007,679423851135867942824195763297538416468912375513746289751389624342671598986254137
000006400500970000062051070009800053007060810405010029030000082091704006200103000,178236495543978261962451378619842753327569814485317629734695182891724536256183947
