006107900012050048359600000200006300001004807698030012400500020000070000005382090,846127935712953648359648271274816359531294867698735412487569123923471586165382794
500026004031007605680500370000800006000000130308064029179000000050009400002130080,597326814231487695684591372925813746746952138318764529179648253853279461462135987
060300080038005049004070006000940002700100030091057000400009600200086503015700800,567394281138625749924871356856943172742168935391257468483519627279486513615732894
340010670095060008000853910800097040460300801001006700009200400700008030630000002,348912675195764328276853914853197246467325891921486753589231467712648539634579182
050004030000200906027080051000107600900030000406002080030601020502400100700900548,159764832348215976627389451283147695975836214416592387834651729592478163761923548
004120000508004300910500607073001024000900580000060001205600400300070098000348005,734126859568794312912583647673851924421937586859462731285619473346275198197348265
080040075020081030000000900007050100140360500609100703008700409506800000300092006,981643275725981634463275981837459162142367598659128743218736459596814327374592816
620000000043009702700800160500043006010600020009500408008310205900007080050002370,621735849843169752795824163587243916314698527269571438478316295932457681156982374
782100000300700680056000010063078900007002005108090400000050790019840032000600000,782164359391725684456983217563478921947312865128596473834251796619847532275639148
001020098004007002050000300013590080070060500002800014000034069608009007307100000,731625498984317652256948371413592786879461523562873914125734869648259137397186245
020400000008092031705108060900320170800670050000000009070510002004060005301000940,123456897468792531795138264946325178812679453537841629679514382284963715351287946
000000000708640950250700004685001000097502030100080000000200140501030206306409780,964125378718643952253798614685371429497562831132984567879256143541837296326419785
005080216908006040000705030302010085070009004060270100007400050100800009400360002,745983216938126547216745938392614785871539624564278193687492351123857469459361872
702100000048600005900504370020370006875000900009001042000005600067980020004002190,752138469348697215916524378421379856875246931639851742293415687167983524584762193
000002085408005000060090731059086000032470000804100900003001204700900100000320060,397612485418735692265894731159286347632479518874153926983561274726948153541327869
001009007583020000000301260090004651000507040000000809067903085004600120138000000,621489537583726914479351268792834651816597342345162879267913485954678123138245796
800700020040009805906050074009001200700030900602000008408900010061000003300204087,853746129147329865926158374539871246784632951612495738478963512261587493395214687
000720590000060030040500710082000940906040007035001008350007600100600403609008020,861723594597164832243589716782356941916842357435971268354217689128695473679438125
700060050350407002000090100008906010070008004940070230100020470000350806603080090,714862359359417682862593147238946715571238964946175238185629473497351826623784591
230400801010000006500301924000040030701200560005008002000090200007803000068570140,239456871814927356576381924682145739741239568395768412153694287427813695968572143
702305009010040700050901240400159380300060010000020004200004001070800056869007000,742385169918246735653971248426159387397468512581723694235694871174832956869517423
910030046800050309600200510080507900132004050000060080000000000540086720097020001,915738246824651379673249518486517932132894657759362184268173495541986723397425861
036050001904260507000301086001700050080090003400000190725003040000600008360079000,836957421914268537257341986691732854582194763473586192725813649149625378368479215
800375009702000000030068004009453100000002086001080500290010605308620040100000007,814375269762941358935268714689453172573192486421786593297814635358627941146539827
010934000008072053002600901500090010063080570140705060900007000700500482000010006,615934827498172653372658941587396214263481579149725368926847135731569482854213796
000105090080043000165890000800230000009007054046000702720000930004901805001000607,473165298982743516165892473857234169219687354346519782728456931634971825591328647
071583004800007503020964000009000287700100600065300100102000050000020098036040000,671583924894217563523964871319456287748192635265378149182739456457621398936845712
090648010023100000800009507000090032064010095000306001500800004240000000081057309,795648213423175986816239547178594632364712895952386471539821764247963158681457329
802060179500070306300002000704081000060004805000930002010043060080200000009607050,842365179591478326376192584724581693963724815158936742215843967687259431439617258
500809006700010940020730100046005000080042073305008020102900000460000308090060051,514829736738516942629734185246375819981642573375198624152983467467251398893467251
001700580000030000900506014600280000307004000000000295002407830010805602040310700,231749586465138927978526314659281473327954168184673295592467831713895642846312759
004001790080004035090270000600000100005690002700030080306500074901080500008723006,264351798187964235593278461639842157815697342742135689326519874971486523458723916
037200600040180705000000004501000360900502040008710000200006910306095802080000050,837254691642189735195637284521948367973562148468713529254876913316495872789321456
050708003800000200600425018902630070500010040730800009000000621100040007306570900,251768493847193256693425718912634875568917342734852169475389621189246537326571984
870060000900045600010308042001000093050072000608509120403010006000003009297000004,874261935932745681516398742721684593359172468648539127483917256165423879297856314
005190046008705000000048530050080001200900403730500002000460000019027000460309120,375192846648735219192648537954283671281976453736514982823461795519827364467359128
604200003005493020800000700200700608080604051509000000402030095030010260100900007,694278513715493826823165749241759638387624951569381472472836195938517264156942387
000003185008614709370900200029560300007100090030000008600749050840000010002050600,964273185258614739371985264429568371587132496136497528613749852845326917792851643
034006000800750040200000936300000502012304070060100084001560000000002860007000190,134296758896753241275841936348679512512384679769125384981567423453912867627438195
000001370980057000600390408560000100002078030007140590010600720006900040450003010,245861379983457261671392458564239187192578634837146592319684725726915843458723916
000047080300060520594008700100785900400012000080000030005000016203100007007029400,621547389378961524594238761136785942459312678782496135945873216263154897817629453
002190038900003702706000400010000000394708060005020071603089004008030500050200006,542197638981643752736852419217965843394718265865324971673589124128436597459271386
600000012004027900300418000003000500205090068000702004071060305009100840006589000,687935412154627983392418657713846529245391768968752134871264395529173846436589271
000287900070000004158006000003402008460030501209010073704098050030000100800500200,346287915972351864158946732513472698467839521289615473724198356635724189891563247
080500020360091000009007803000056407000203960600740031050000008410009750007480100,781534629362891574549627813123956487874213965695748231956172348418369752237485196
010089000650300042090020700003002079000805060200701830800003091400060500127000006,712489653658317942394526718583642179971835264246791835865273491439168527127954386
001000004430075100020900300200080010105200970746100008074800000000039050058006209,561328794439675182827941365293587416185264973746193528974852631612439857358716249
000700400107800000603095700009023500050001203026000007000302104005080006030460090,582716439197834652643295781719623548854971263326548917968352174475189326231467895
000005090009073601361200045900600000030508000758000002070840030600001807010090006,487165293529473681361289745942637518136528974758914362275846139694351827813792456
005092060006100057910540300080050436401630002000900800000020000062010089578300000,835792164246183957917546328789251436451638792623974815194825673362417589578369241
300001000005400093060800540006004012098000600200703080400019078903050061070000200,347591826825476193169832547536984712798125634214763985452619378983257461671348259
409000350800100006210600700003700098520040100900835000006007009004000200100569407,469278351837154926215693784643712598528946173971835642356427819794381265182569437
008400096605000483010000200080017600074002301050900028003090000090061504200350007,738425196625179483419836275382517649974682351156943728563794812897261534241358967
050609140000200075213500090060193000080000200004006009100700003325008064009040820,857639142496281375213574698562193487981457236734826519148762953325918764679345821
630100070080050290204809060805910400003700001900005000010607080006200507040003000,639124875187356294254879163875912436423768951961435728512647389396281547748593612
029504008000906250004030700640003020700800900005002001050009070281007003030600840,129574368873916254564238719648193527712845936395762481456389172281457693937621845
005063090400870053630902401000000005100740000720100009049008072001530060068000100,815463297492871653637952481984326715153749826726185349349618572271534968568297134
300006000840010060006037208030004571010008004900500003100060089070902050080005700,321856947847219365596437218238694571715328694964571823152763489473982156689145732
700009506002580700010702004430800005006030090807001460090105000240000007601200800,784319526962584731513762984439826175156437298827951463398175642245698317671243859
100007008059000160008040020004003200603018007510920600030200900076080301091050000,142697538759832164368145729984763215623518497517924683835271946276489351491356872
006800000710000009000001324024000607100354000890000030500207106080040270009063500,436892715712435869958671324324918657167354982895726431543287196681549273279163548
002700504030000010009051000700040005800032009040000601680019400205003070300587006,162798534538624917479351862721946385856132749943875621687219453295463178314587296
002090047070060000500000812089004050100205300003700204060000009001847060034000120,312598647478162935596473812289634751147285396653719284865321479921847563734956128
000710000904000080018300065020675001800009000540020003007062050460100900290547000,652718439934256187718394265329675841871439526546821793187962354465183972293547618
306498000009020070000030000903004010002750006010300084200070601080600905005002048,376498152459126873128537469963284517842751396517369284294875631781643925635912748
709010406080030001205860900020000640340021000096500700100402070000000050000079208,739215486684937521215864937521798643347621895896543712168452379972386154453179268
657030040140700092000080500006000704003208010090070025300000900010400086029051070,657932148148765392932184567286519734573248619491376825364827951715493286829651473
002080509900020734040600002730091020059003400080000006607010000010900050004207608,172384569968125734345679182736491825259863471481752396627518943813946257594237618
906000580200004001084030072000047030000000296091500800003060000028700000470281600,936172584257894361184635972862947135745318296391526847513469728628753419479281653
300090875090020000001008302008006500730200040502034700060079108050800009400103060,324691875895327614671548392948716523736285941512934786263479158157862439489153267
050700020003010480010060009470000000201095600608003040020000004006829300307046050,954738126763912485812564739475681293231495678698273541129357864546829317387146952
908031000714005600030900200061058003009000070850400060470010520502060900000072008,928631754714285639635947281261758493349126875857493162473819526582364917196572348
001060007809040603200059400430600108006204370005080000500000010790008500003097002,341862957859741623267359481432675198986214375175983264528436719794128536613597842
028000030400070069090410500030006702200500401504008000080090320000057000670201900,728965134451873269396412578839146752267539481514728693185694327942357816673281945
070008009020350080015060400000090310900701000060804702000200903004600051302070804,673418529429357186815962437247596318938721645561834792186245973794683251352179864
200000000054009700000004683960080001720030049000100500040010326010740050003506070,286371495354869712179254683965487231721635849438192567547918326612743958893526174
320008700070025910000069803780000300004802005600400090010000060908050000235074100,329148756876325914541769823782596341194832675653417298417983562968251437235674189
070098064006300072820605001100500028000023050040000900490700030013086700005001009,371298564956314872824675391137549628689123457542867913498752136213986745765431289
705000030000004602020791000090000050500280340010300960036150004070600590802003700,745862139189534672623791485398416257567289341214375968936157824471628593852943716
000100092063000000410079060830004000007006908200300045000691027050020314700405000,578163492963842751412579863835914276147256938296387145384691527659728314721435689
000600078107050006020010540001003000260000930500704800390100000008940063450028001,945632178187459326623817549871293654264581937539764812392176485718945263456328791
021060005603001000400005800070500000900708506018090204005049108302006900040070003,821967435653481792497235861276514389934728516518693274765349128382156947149872653
900040103350708004026005009000300402030816000600007800800004905502000070169000200,987642153351798624426135789718359462234816597695427831873264915542981376169573248
500090800003814070002000096041072008060040000700508030900001052100600300078009010,517296843693814275482735196341972568865143927729568431936481752154627389278359614
087061000500780020100049300000800906209070004030010050706000000905400108003092470,387261549594783621162549387471825936259376814638914752746158293925437168813692475
006800700002045090700003810100920030038074020095000000480600005020008643000097001,346819752812745396759263814174926538638574129295381467481632975927158643563497281
260508000010000840905040603078006509000790010030010200000200376800071002006009004,264538791317962845985147623178426539652793418439815267591284376843671952726359184
068000000050900702300010004031807200400000096902605170000403500709502310020080000,268754931154936782397218654631897245475321896982645173816473529749562318523189467
047001500930400060800930100720006040614500800093080020000600380000190700065070000,247861593931457268856932174728316945614529837593784621179645382482193756365278419
900046700710050006200800300100008090000020678060300410080007020409010005350409000,935246781718953246246871359124768593593124678867395412681537924479612835352489167
730400150000078004080000360900600000250007010000019426091080002500062000607004509,732496158165378294489251367914623875256847913873519426391785642548962731627134589
100080000080509170964200350008030000702040600600005893000006501009000040350100200,175483962283569174964217358598631427732948615641725893427896531819352746356174289
005013060600400105280900400010008000502000790700062000840070501000300906900240073,475813269639427185281956437314798652562134798798562314843679521127385946956241873
300001608070040100520000030000603000004085702000794050217000000058016309600800004,349571628876342195521968437785623941934185762162794853217439586458216379693857214
720030000000900408006850010009010030100600750345090200030000506050006072200074980,728431695513967428496852317679215834182643759345798261837129546954386172261574983
002103000460200080001080350340000701009540800078009200050600037107950006900004000,582193674463275189791486352345862791219547863678319245854621937137958426926734518
400750803000100090005402100000090600820000070740000001380000004010005902502301006,461759823278163495935482167153297648826514379749638251387926514614875932592341786
800701640010508029207000000030004072061030090090050008004600000180009030006280005,859721643613548729247396851538964172761832594492157368324615987185479236976283415
070090826600005000348700100057040008100060230200501090030070540005208007090100000,571493826629815473348726159957342618184967235263581794832679541415238967796154382
000095000500000702009628301040302000003000018097056000702089640000170800350004009,231795486586431792479628351845312967623947518197856234712589643964173825358264179
