040009601020000040803006070070050010200198000560304800007820004419500002300001560,745289631126735948893416275978652413234198756561374829657823194419567382382941567
504900000030008120002703009900100560080605034000000702603054070100390600070201800,514926387739548126862713459947132568281675934356489712693854271128397645475261893
003070105100900000820035060006014503000700600510020089902500040080001270070360008,643278195157946832829135467796814523238759614514623789962587341385491276471362958
065084000370900005000007000090300560053040071040160080008000026024693100010700409,165284397372916845489537612891372564653849271247165983938451726724693158516728439
060000409039006000208043500092300006040700010005021800700009643050000280004108070,567812439439576128218943567192384756846795312375621894781259643953467281624138975
000100039062070008300056400650890002090760001004000050080500060130208700007009104,745182639962473518318956427651894372293765841874321956489517263136248795527639184
050000030408057019036024800000940180014030000500200706609008000270690050300000007,157869234428357619936124875762945183814736592593281746649578321271693458385412967
700200390920106780500030010004003070006021050000408203080000027017050006300009140,761285394923146785548937612294563871836721459175498263689314527417852936352679148
600013800005470020030900406309001070010000008070325609007090005064007000800250001,642513897985476123731982456359861274216749538478325619127698345564137982893254761
060400275204807091003000000600900428000001009530208060800009006010000002907056040,168493275254867391793512684671935428482671539539248167845329716316784952927156843
040905006070360104030080720005001082000098000003400900096000008001007640820000351,142975836578362194639184725965731482714298563283456917496513278351827649827649351
082036000065008031010402900700800450500070003004010690170620005000340008000500760,982136574465798231317452986791863452526974813834215697178629345659347128243581769
190500000000800317037060800003100080800300640620050000000002700569740120010080439,198537264256894317437261895943176582875329641621458973384912756569743128712685439
300510028075400000060902000500090000024003067907600430002000040010080506600007190,349516728275438619861972354536794281124853967987621435792165843413289576658347192
300000894500000001089070600070000900000980310020061005405300006060490230800017000,317256894546839721289174653178543962654982317923761485495328176761495238832617549
300000004102768009056000000600013000030870402009450060075000013200190008408200050,397521684142768539856349127624913875531876492789452361975684213263195748418237956
080650009003700010016209700007065090240080100000400030320000006001002450090300800,782651349953748612416239785837165294245983167169427538328514976671892453594376821
310950600002000070904020803890013540000004980105000300000079406007380000200600010,318957624652438179974126853896713542723564981145892367581279436467381295239645718
703080100400607980060300002842001090005908000006520370007005020000290600050000401,793482165421657983568319742842731596375968214916524378637145829184293657259876431
007306020000000054280900010790030100004001200026050080061580740035007000800094006,547316928619278354283945617798432165354861279126759483961583742435627891872194536
009500008030180620280036045056004100000000870004321090000000709003060000047900250,769542318435189627281736945956874132312695874874321596128453769593267481647918253
082005060000090040000071805130048600900503004007209500059006070240000180600300009,782435961516892347394671825135748692928563714467219538859126473243957186671384259
070106095050720800100000400000030240390000100008605009200000070043069010615004083,872146395954723861136598427561937248397482156428615739289351674743869512615274983
025400000000010006760800092507043000040058900039700010001602305480000600200090071,125469783398217456764835192517943268642158937839726514971682345483571629256394871
006005300200000490100830602000240850008006000374010000901682703002701006800300500,796425318283167495145839672619243857528976134374518269951682743432751986867394521
007008500508600012091000000005829061000700003210540090060070000003010049470005026,627198534548637912391452678735829461984761253216543897162974385853216749479385126
823500000600010705000090430050402306041060020200051900008970040509800160070006000,823547691694213785715698432957482316341769528286351974168975243539824167472136859
000900708000002530073140006002006045130080000900205000017800002600007081040530907,426953718891672534573148296782396145135784629964215873317869452659427381248531967
200690300001007900060005200790800010130070600008043005042006109010950070800020004,257698341481237956963415287795862413134579628628143795542786139316954872879321564
040701605000890032290005100000009500106403000080000067900500370031046200068200040,843721695615894732297365184472689513156473829389152467924518376731946258568237941
090700408045060013600120000002900506004210070870006300003080005100002000006450700,291735468745869213638124957312978546564213879879546321423687195157392684986451732
042000500000008396008530010800006250005900760790000030073100040100754000200069800,342691587517248396968537412831476259425913768796825134673182945189754623254369871
003900806802150000010400003006509100240007000500824009000380070170006504090001620,453972816862153497917468253786539142249617385531824769624385971178296534395741628
045807300600309500200000698000040006830610200002070050018002900090500004007400031,945867312681329547273154698759243186834615279162978453418732965396581724527496831
300104802000009065879006400012040009008700100046003070690082030050360000000500021,365174892124839765879256413712648359938725146546913278691482537257361984483597621
800042950003500060006010002002005604100063700050020098010700000749080030000430801,871642953423598167596317482932875614184963725657124398318756249749281536265439871
601085043003020090050460000700100000004002501080349200006830920008000076479000008,621985743843721695957463812762158439394672581185349267516837924238594176479216358
000000387500931020640000005002070600090250038074810000010467090730080100000000502,921645387587931426643728915852379641196254738374816259215467893739582164468193572
000470650090800000400206001130057040907003065002040100300009208006000403010080070,823471659691835724475296381138657942947123865562948137354769218786512493219384576
080503000007210003062079045105090000000008072900400030850602004003000800046700050,481563297597214683362879145125397468634158972978426531859632714713945826246781359
000090300700000042000435608080700200001850090009000506205980007040062003610500400,864297315753618942192435678586749231321856794479321586235984167947162853618573429
600009010090250304042000500000000008800793100723100009030002060051308470070940800,685439217197256384342817596519624738864793125723185649438572961951368472276941853
100207000070490503009006000001378600000000004705002009002050340036024807900800010,154237968678491523329586471491378652263915784785642139812759346536124897947863215
000740200120008070004051000000300600918000000306010590073420006002000043080607905,869743251125968374734251869257394618918576432346812597573429186692185743481637925
050002006930600201000008470200090005074005000001700083800400310700089000645370900,457912836938647251162538479286193745374865192591724683829456317713289564645371928
100930064700060008005104090054000000007009000260048901090000640002600380380025000,128937564749562138635184297954216873817359426263748951591873642472691385386425719
080092500603500040290040010040810059030009007800703260000068000004070031150000020,481692573673581942295347618742816359536429187819753264327168495964275831158934726
520067004978000005006000100100800006040120830003700250859001020060009007007043600,521367984978412365436958172192835746745126839683794251859671423364289517217543698
030008204007130060050074090102607003090080620000405000300002400045010008806900700,931568274427139865658274391182697543594381627763425189379852416245716938816943752
900021084004009356000000002080300000050910030307046001000130070076805200840067500,935621784214789356768453192481372965652918437397546821529134678176895243843267519
000070005030000471108950020089100006040003000207006009006800050504037910000040200,462371895935268471178954623389125746641793582257486139796812354524637918813549267
906000700000041020040703019807050040032604800000012000700090080304080056009005201,916528734573941628248763519867359142132674895495812367751296483324187956689435271
126000800850040306000000000000809504240000000030510760710083025403001970000906010,126395847857142396394768251671829534245637189938514762719483625463251978582976413
078003000530902004400057090600130005020060970000000006009840023204070060361005800,978413652536982714412657398647139285823564971195728436759846123284371569361295847
060004070480000109102507300001092003750360400008100000030200045000809600905006027,563914278487623159192587364641792583759368412328145796836271945274859631915436827
040902000017050000000000593203087000061500407500006080002039706400700058080000102,345962871917358264628174593293487615861593427574216389152839746436721958789645132
712040900800900300004675020007430501200000004040780006060003000300210080009800450,712348965856921347934675128687432591293156874541789236468593712375214689129867453
000005090510900072003264000000790000256400030040000168060031029002000053807020400,628175394514983672973264581381796245256418937749352168465831729192647853837529416
090200785700060041058000030081907000906031000070040000300400208040000056200309017,694213785732865941158794632481927563926531874573648129317456298849172356265389417
002460030870000059053000600015900824200006900700000001900000300000309146308047205,192465738876231459453798612615973824284516973739824561941652387527389146368147295
008132000504070620090400007000700010079080305201005908007060800100320004450900060,768132459514879623392456187845793216679281345231645978927564831186327594453918762
480090017000100280020406305904060000630005800200000050503008009190240070000070103,485392617369157284721486395954861732637925841218734956573618429196243578842579163
000002001040030280960500030050600000031000007208073040300045100007260093009017805,873492651145736289962581734754629318631854927298173546386945172517268493429317865
168070090003090040020600001074800350010309208000500900000400000285001060001005037,168274593753198642429653781974812356516349278832567914397486125285731469641925837
000037210002000093090001805780065900400800036025000000050009070831020000006008142,568937214142586793397241865783465921419872536625193487254619378831724659976358142
810506030002010400600032810000401780079000005500009360700080590930005004006200000,817546932392817456645932817263451789179368245584729361721684593938175624456293178
430027800000000500060509170701082090023900700000600050009310607500048002008006010,435127869197864523862539174751482396623951748984673251249315687516748932378296415
103000000500000090200083004090002710600700002307906508008635009065201400700004100,143569827586427391279183654894352716651748932327916548418635279965271483732894165
000000700103040000942603000060902040050087210000010503630790001200500009804030070,586129734173845962942673158361952847459387216728416593635798421217564389894231675
010004006706820041302900750009080563600009080004750000050210000080607930007000002,518374296796825341342961758179482563625139487834756129953218674281647935467593812
020600000507209041639000870450003200090007000000510300003050408970482100006001000,124678953587239641639145872458963217391827564762514389213756498975482136846391725
053004268009008050400010003000720000005000690090600100020040730086130004000592000,153974268279368451468215973614729385735481692892653147521846739986137524347592816
009015024500000003100648000907406080000800000060032105075080039200009460008200070,789315624546927813123648957917456382352891746864732195675184239231579468498263571
600340009800206401705000200080000097900021506010004080007008000054900030290605000,621347859839256471745189263482563197973821546516794382367418925154972638298635714
300701000640002500050000309900568203070020460800030001097040800008906005200003104,389751642641392587752684319914568273573129468826437951197245836438916725265873194
760100840054007023300009005028000060109820704000005030600490300840061000007000010,762153849954687123381249675528374961139826754476915238615492387843761592297538416
500004201000003900000680035020100000106930080307005020004070006008206040039408050,583794261461523978972681435825147693146932587397865124254379816718256349639418752
300540006010700002000010983000100000280005360709003040007080500004902870150004020,392548716816739452475216983543167298281495367769823145927681534634952871158374629
601305040030200080702000009000060157806072000009400006000800900090013200053009470,681395742935247681742186539324968157816572394579431826267854913498713265153629478
000903002003040018510000704170089405865700001900600020006872000790005000040006500,487913652623547918519268734172389465865724391934651827356872149791435286248196573
000090856620501003800407009100035090094070320068000100010000087450600000000042500,741293856629581743835467219172835694594176328368924175216359487457618932983742561
005098000670003010840000302006780900530006080000051400100060047004010830790200005,325198674679423518841675392416782953532946781987351426153869247264517839798234165
400080135123090000000007002090703020306012940002560000000008000607000350015004609,479286135123495768568137492891743526356812947742569813934658271687921354215374689
024003100000908600508060032901000005200004907030200460300506809705100040000870010,624753198173928654598461732941687325256314987837295461312546879785139246469872513
600002410000835200070060003000700020180000609905400000204300001030008502568091030,653972418419835276872164953346789125187523649925416387294357861731648592568291734
150092600700100008093400200000050360800037091020940500480700053030610000200000700,158392674742165938693478215974851362865237491321946587486729153537614829219583746
050062100700148030000300960082400001400795000900020500000003080691000007340570002,853962174769148235124357968582436791416795823937821546275613489691284357348579612
000600020401000053520000470370092800100004002062578010740030500000009030050081906,837645129491827653526913478374192865185364792962578314749236581618459237253781946
730006405008270600900080012020300060040702000356900070091000038000609000400051000,732196485518274693964583712127345869849762351356918274691427538285639147473851926
200380060078004509409000001000007000100600408504012003710035006080090205005260000,251389764678124539439576821863947152127653498594812673712435986386791245945268317
000700600007050809192000504003000140200035000008691003700002090069108020500003460,845719632637254819192386574953827146216435987478691253784562391369148725521973468
708500190001800050900204086040000600200900300090671002000009430300080501150702008,728563194461897253935214786847325619216948375593671842682159437379486521154732968
060435000908000500073001020802040009000016070007520300004309100050000298180600004,261435987948267513573891426812743659435916872697528341724389165356174298189652734
004000006306501749020000310000060090008700405703400800690080051802005000000270903,174938526386521749529647318245863197968712435713459862697384251832195674451276983
000100080040050210100304000072901058010070003059860002004530000020009706608000009,265197384943658217187324965372941658816275493459863172794536821521489736638712549
000007418000036900927400000400023005001000063090000840200008150073900000080654002,635297418814536927927481536468123795751849263392765841246378159573912684189654372
006503200741008006020000098090604050005000074300000860810020049600087300002910700,986543217741298536523761498298674153165832974374159862817325649659487321432916785
000000180039060074720000005001030000005007060086402300000890400063010059402600031,654729183139568274728341695271936548345187962986452317517893426863214759492675831
700090000038004502002006400900200107004060085357140000005039806060800003010070020,741592638638714592592386471986253147124967385357148269275439816469821753813675924
020009000007540300006013407000190504000204061090350700603070008800000050042008109,324769815187542396956813427268197534735284961491356782613975248879421653542638179
