600207000030005007908010203700009561096708002024000008000500300007090140805046000,651237894432985617978614253783429561196758432524163978249571386367892145815346729
680170900304002060100500000007000006002305490950010038000084050200700081090630020,685173942374892165129546873437928516812365497956417238761284359243759681598631724
830000000105290006002487030017002000000305079200600054009130082406800700000000405,834561927175293846962487531517942368648315279293678154759134682426859713381726495
297005000043680200000040013700300895068000000019000730000900002000801064005074100,297135648143689257856742913724316895368597421519428736481963572972851364635274189
300005009780400000001780000675204000008000900009031605010000007490500200023006814,364125789782469351951783426675294138138657942249831675816342597497518263523976814
510000273080200500040970060970300020000010006003520800105740300006000094720800050,519684273687231549342975168971368425258417936463529817195746382836152794724893651
762900805030000041009053000600020590803701006000300000100080009000046270080500604,762914835538672941419853762671428593853791426924365187146287359395146278287539614
806053129070020000000400003002941005061030400000800700300506001900080200004102800,846753129173629584295418673782941365561237498439865712328576941917384256654192837
071400538800000000000570106009001065307002400040800900060050700020060849010903000,671429538895316274432578196289741365357692481146835927968254713523167849714983652
000400800508670904700009060020000700800905016491003208000304070907080301104000000,369451827518672934742839165625148793873925416491763258286314579957286341134597682
400000002571023008006501000040009870190008053003000006060970100005030209280040060,438697512571423698926581734642359871197268453853714926364972185715836249289145367
020004063970030000040600105285703091004090000030000826008500040060002000100900708,521874963976135284843629175285763491614298357739451826398517642467382519152946738
400050063001640700300002940050000000604800200070061095002010800900407501003209070,427958163891643752365172948159724386634895217278361495742516839986437521513289674
600003400040027003010900050192080006008000200350490070000070604760008012800150900,687513429945827163213964758192785346478631295356492871531279684769348512824156937
005408006007030000003060291000394800020000900004006075300149600040020500109807020,295418736617932458483765291571394862826571943934286175352149687748623519169857324
000000910068049050050380200049007800300005700001430006000620409200018030070050080,432576918168249357957381264549167823326895741781432596815623479294718635673954182
097080601326004070400000000000157032009003005100206000008005000643900500700601408,597382641326514879481769253864157932279843165135296784918475326643928517752631498
010009007800560201020870460034000000000907035900206780400000500070390008602004009,316429857847563291529871463734185926268947135951236784493618572175392648682754319
003050001000060820900871005705230489064000037000000600020003718470085200000900000,683452971157369824942871365715236489264598137398714652529643718476185293831927546
700002800060500090080000526070000183200093000005067000003908400140700000690405218,759642831362581794481379526976254183214893675835167942523918467148726359697435218
207003006000000000086051092095000060401800900600405370500009083810006000004030157,247983516159624738386751492795312864431867925628495371572149683813576249964238157
730000004000962000100000589500341800000570000604008070840020003005103602020700910,739815264458962137162437589597341826283576491614298375841629753975183642326754918
010406720000090060058000000289040530060005070004203001700021084005600010030800009,913456728427398165658712943289147536361985472574263891796521384845639217132874659
000000094050238000631900000703084001000690070002001500017005030590003240004760080,278156394459238716631947852763584921185692473942371568817425639596813247324769185
002003050000020903806105000100308006093270004000500700370000681600900420054001070,942763158715824963836195247127348596593276814468519732379452681681937425254681379
900053702003000048600084510201690074000007100080020005310002000007300600504700009,948153762153276948672984513231695874495837126786421395319562487827349651564718239
000005107016290400300041090007000060091800002040069805400000239009070086500083000,984635127716298453325741698857324961691857342243169875478516239139472586562983714
040500009009032507100007006036000028700090000050810003003670480002005061098400300,347568219869132547125947836936754128781293654254816793513679482472385961698421375
026803005500900420800007001010000090040006203070598006009010050300600704001020830,126843975537961428894257361618432597945176283273598146789314652352689714461725839
009804030000005106000003070450090382820050000017000000082000061100360098600700420,769814235238975146541623879456197382823456917917238654382549761174362598695781423
002090000910350086000028047081409030340080010560700000003076500406001072090005300,872694153914357286635128947281469735347582619569713428123876594456931872798245361
000000000019400205000316070041260037730000900502900100000035080276001004800040790,687529413319487265425316879941268537738154926562973148194735682276891354853642791
005064208001908000000070030000020405010000879700051020209006083030490650600300001,375164298421938567986275134863729415512643879794851326249516783138497652657382941
090004008680072013305806007023049000109030040000007200060000591040008000502060700,297314658684572913315896427823649175179235846456187239768423591941758362532961784
805002000003004010000300094690008700000210008000470526720600003004700109108005600,845192367973864215216357894692538741457216938381479526729681453564723189138945672
039506000200400607004001000802039010400000708010804530108000095075900060000008201,739586142281493657564271983852739416493165728617824539128647395375912864946358271
020460007008000210340500000000001490001207583000390020085070600200003140000605800,129468357568739214347512968732851496691247583854396721985174632276983145413625879
067100520002035000000000148070903084100040000600258030509000060080004309020806007,467189523812435976953762148275913684138647295694258731549371862786524319321896457
040006702070310000605002038380007400200500000007960300100080009000603045090470280,943856712872319564615742938389127456261534897457968321134285679728693145596471283
305006070001004260400001398080400000700020080516093000903600007000070421020508006,395286174871934265462751398289467513734125689516893742943612857658379421127548936
009500003007001000600070498570620900004803200980010000040086720000407306010200005,429568173837941562651372498573624981164893257982715634345186729298457316716239845
060050000003410589084020070040075000900200060001640300098007130000800052470030890,169758243723416589584923671642375918937281465851649327298567134316894752475132896
060803079007000400050260080003002005092710608700059100409071060018400900000030204,261843579837195426954267381143682795592714638786359142429571863318426957675938214
800000002410000730056130098004050370009004600320070050200849000007600000900010245,893467512412598736756132498684251379579384621321976854235849167147625983968713245
096001504804000760500040003610007080052030900000900412007350100280004000003680000,396871524824593761571246893619427385452138976738965412967352148285714639143689257
020000040083000071000907500000580020006090800510620900670800150004370008039200064,725168349983452671461937582397581426246793815518624937672849153154376298839215764
040008010001000580095400706019703600670004030038010250700680003006095002020100000,247568319361279584895431726519723648672854931438916257754682193186395472923147865
040000000030700826508012304004003087200005690800600002000029030907100500010480000,742368915139754826568912374654293187271845693893671452486529731927136548315487269
000600209704500600230084050060000005080729410400000930001403090800096500027001000,518637249794512683236984157169348725385729416472165938651473892843296571927851364
934000007085090201206000800007040000008130569000026030040708005159060008002400000,934281657785693241216574893367945182428137569591826734643718925159362478872459316
450030008000041309006502000304760800007008004020000015060809100009320000800076900,451937268782641359936582471314765892597218634628493715263859147179324586845176923
061000804700081200040036091030240000928000070000600005010024509005019000007000030,361972854759481263842536791536247918928153476174698325613724589285319647497865132
002069701000802600046300000054003089003700004910050000075000120300480960080100003,832569741197842635546371892754613289263798514918254376475936128321485967689127453
800050007406900000035860104083600000050010793000002650000270301014000000290003580,821354967476921835935867124783695412652418793149732658568279341314586279297143586
000340010608710090300000600029400037000050109030800006970600420102000058085007000,297346815658712394314598672829461537746253189531879246973685421162934758485127963
590060874072090001306100000800000760007850900010002000020009305030784000008300100,591263874472598631386147529859431762247856913613972458724619385135784296968325147
560800002001502080200009017000000490000060035735100000008470900910300050002000106,569817342471532689283649517826753491194268735735194268658471923917326854342985176
030009005040236000902008040500300408061080900300907002007040056126000300400070890,638419725745236189912758643579321468261584937384967512897143256126895374453672891
007000006002930700000005010200060800008104935405300001051408270370600009009000504,587241396142936758936875412213569847768124935495387621651498273374652189829713564
312800005060000000578010049607001000009300054040280370001970580800450600000000092,312894765964725831578613249637541928289367154145289376421976583893452617756138492
060024000089500000500030076601007200420000830700450090010800004000001329970063050,167924583389576412542138976691387245425619837738452691213895764856741329974263158
070600104080054609090130020603005240000003007520081000030040870008000406000092001,375629184182754639496138725613975248849263517527481963931546872258317496764892351
000308090970000104005009006000504870800002001690000000006025900010603045048700032,162348597973256184485179326321564879857932461694817253736425918219683745548791632
905860300306070020000040000001000050400759100080000932802690405000100000060503897,975862341346971528218345679691238754423759186587416932832697415759184263164523897
000470500010203000049080200004702090906500007302006050001000060200608403500010970,623479581815263749749185236154732698986541327372896154431927865297658413568314972
000000006005800390067104000103020084008040260600709050952036001040907030700000005,289573416415862397367194528193625784578341269624789153952436871841957632736218945
090570030010600000768000005900030620024008900800902073000150004007300089600004210,492571836513689742768243195971435628324768951856912473289157364147326589635894217
706000591000000004000519006205300400804100700003020010030080602060700050901405080,786243591159678234342519876215397468894156723673824915537981642468732159921465387
100048039008005176000090002057803200000070001004609380042067010000300000705920008,126748539498235176573196842657813294389472651214659387842567913961384725735921468
803700600150029080090506020730400210005000034900010006071000008004030060000258700,823741695156329487497586123738465219615972834942813576271694358584137962369258741
240000700070190300903027500001500609600008074020010000800043910105062000007000008,246385791578196342913427586381574629659238174724619853862743915195862437437951268
003850000647001000050004201060039500910070002008602047201000034000006700090700085,123857496647291853859364271762439518914578362538612947271985634385146729496723185
010590000800600003020048760009160200000050407050002089100470050203900106007003040,316597824874621593925348761789164235632859417451732689198476352243985176567213948
230070019100003805080960000070000406513004700002800030609010007007020004040000590,234578619196243875785961243978132456513694728462857931629415387857329164341786592
046207003800106700003040090200004069900305008070800501605080000030002100009600254,546297813892136745713548692258714369961325478374869521625481937437952186189673254
038420000601000052500617000000903060860070090102560003340000100000008970005200046,938425617671839452524617839457983261863172594192564783349756128216348975785291346
309028000042051008006407050478200390000960801900000000010030640000800132020000005,359628417742351968186497253478215396235964871961783524817532649594876132623149785
008000201000500030107960854600704108000250003300080490060090000520140700089307000,958473261246518937137962854695734128814259673372681495761895342523146789489327516
000000070030240608009610500060190000800005120025300000900430007210078403300000086,642859371531247698789613542467192835893765124125384769958436217216978453374521986
000260001860003074590804030020650000043000900007001086400006107010020350000097008,374265891862913574591874632128659743643782915957341286489536127716428359235197468
000070010025400600940001000000080307403520080610300092700850001060000000090614005,386975214125438679947261853259186347473529186618347592734852961561793428892614735
034009200602070800780603100040050000090300078850001006000800421070900005100006039,534189267612475893789623154346758912291364578857291346965837421473912685128546739
980000201503040097060005000000407805602100400000092070300600000056070018290014003,984736251523841697761925384139467825672158439845392176317689542456273918298514763
080701052000058000109200037017403680003100704500020090604309000000800413000070260,486731952372958146159246837217493685963185724548627391624319578795862413831574269
061008050840170000503040000070803092006020500200000067018307000000000049309056001,761938254842175936593642178175863492986724513234519867418397625657281349329456781
005082900900004031086030004000700005200010080750020403040060098001500000320090070,435182967972654831186937254813749625264315789759826413547263198691578342328491576
000900105006008009070014030201007380680000007040031502002300400095070000010029006,824963175136758249579214638251697384683542917947831562762385491495176823318429756
008590000600370000030801200074030000960200850020480370000006045109000002200050739,718592463692374518435861297874635921963217854521489376387926145159743682246158739
059000100070018000200740305005006028001900070603420900000254060948603500000000700,859362147374518296216749385795136428421985673683427951137254869948673512562891734
020601300078000140000090206003510020089004003405082007000907000050020008106043050,924671385678235149531498276763519824289764513415382967842957631357126498196843752
080060000470035009003400260100800056000002401907100300030604720715000000040950008,281769543476235819593481267124873956368592471957146382839614725715328694642957138
000010086080200007574906200040700902052400000000890340000009003320150060697000050,239517486186243597574986231843765912952431678761892345415679823328154769697328154
800000010021009700059083006000500280047030090600200301400018009090062107030007040,864725913321649758759183426913576284247831695685294371472318569598462137136957842
068307000000648005709100003004800090050031007872054010000500208600009400103060000,568397124231648975749125683314876592956231847872954316497513268625789431183462759
900240500004000301380009070800000002032150000400870650607400100000060920090507008,971243586264785391385619274856934712732156849419872653627498135548361927193527468
810070290020986100450301007070008000002500380603100040040200071700060509000000000,816475293327986154459321867574638912192547386683192745948253671731864529265719438
300806000010032700082500039001090025000065900007400010098040600030700840720003500,379816254415932768682574139861397425243165987957428316598241673136759842724683591
000130070006000105089400006040008350920600400708509021503070062090000000400081003,254136978376892145189457236641728359925613487738549621513974862892365714467281593
200004795900030020086500100002980300170406009008017046405209000007000050320000410,231864795954731628786592134642985371173426589598317246415279863867143952329658417
900100002407093506103006800004602001800050007590070080070210609000030020080900370,968145732427893516153726894734682951812359467596471283375218649649537128281964375
