000120003030870640405090800003059010890061000070400206000000480920000005164080079,786124953239875641415693827643259718892761534571438296357916482928347165164582379
045007021908010600070932040100590700003000800056800004400000019002170056000260300,345687921928415673671932548184596732293741865756823194467358219832179456519264387
307400502900100340001020900005601098004002750010900600458070003000060020069300400,387496512926185347541723986735641298694832751812957634458279163173564829269318475
000260830400005216008091007960007000310002008007400102200106900030000070080940500,571264839493785216628391457962817345314652798857439162245176983139528674786943521
230000080100507062000210509050080000700006041920170006000004900070325000046000308,235649187198537462467218539651482793783956241924173856312864975879325614546791328
100800000090063005004019203716090540000020006903000780050100607400057900870000004,135872469297463815684519273716398542548721396923645781359184627461257938872936154
040010007000000060621900058003670014009020005000845090100300600270500800908000020,845216937397458162621937458583679214469123785712845396154382679276591843938764521
000562009708010605000300120097000000103608002400293050009720000030009040500400086,314562879728914635965387124297145368153678492486293751849726513631859247572431986
800010040029000607403070085000007193200045000000601000300800000067020058105004930,876512349529438617413976285654287193291345876738691524342859761967123458185764932
050008006042069070007210000030902400005000067091054008010007030009000005206130840,153748296842569173967213584638972451425381967791654328514897632389426715276135849
060007504000240600039008000800050401001082950007004008300600007296003100008019020,162397584785241639439568712823956471641782953957134268314625897296873145578419326
210300950360170040004600003879000030150000678000005200000004000690830005040900187,217348956365179842984652713879261534152493678436785291728514369691837425543926187
701600005083007020069501030000060984695040100000270003000000008004900056107820040,741632895583497621269581437372165984695348172418279563936754218824913756157826349
020040730079806040108000060800590000000310090005702000030005201200003006007900084,526149738379856142148237569813594627762318495495762813934685271281473956657921384
010700050032090040057004800100860000900030507300509062006100408000072390040006200,419728653832695741657314829125867934964231587378549162296153478581472396743986215
060000037080200100000031004002870096000049025407520010905000002300497080070600000,164985237783264159259731864512873496638149725497526318945318672326497581871652943
760900080010050400009103600800690205007802030000070046102500008000000309973200010,765924183318756492429183657834691275657842931291375846142539768586417329973268514
060010090230809000000004203050000306317200080400900150095080621020000007008706900,564312798231879564879654213952148376317265489486937152795483621623591847148726935
080009003006210004200738500060000070001050600003804091657103002010400000049080060,185649723736215984294738516968321475421957638573864291657193842812476359349582167
850309001000004079604008002005030100380100704040062090062500000109270000070000036,857329641213654879694718352925437168386195724741862593462583917139276485578941236
020930000000604850810000006680005420100240070700093001000000000069520083050001207,526938714937614852814752936683175429195246378742893561271389645469527183358461297
701050000480300502000801096800910004020074009030500601200080007090002040007406300,761259483489367512352841796876913254125674839934528671243185967698732145517496328
003800000005603972090215800806700109000050200000900046610000704900001000402380000,263879415185643972794215863826734159349156287571928346618592734937461528452387691
704050160000300009005086200300140005508003040107020306000069080083500902009700004,734952168862371459915486237396147825528693741147825396471269583683514972259738614
040002900501070046906030800000795000080000105300084070100200030070049060058600720,847562913531978246926431857612795384784326195395184672169257438273849561458613729
070356041000087305090000700063005010000100694020079008000400000802003070406001802,278356941641987325395214786963845217587132694124679538759428163812563479436791852
008000007001045602600103090590700480002080300700014060007008946060020510350900000,438296157971845632625173894596732481142689375783514269217358946869427513354961728
009000302670000050800025470013702080006090040400803910190070000050308006000004008,549187362672439851831625479913742685786591243425863917198276534254318796367954128
700935002000070400053000087200000000098001065400326100030054000060800049001290530,784935612629178453153462987216589374398741265475326198937654821562813749841297536
605301090070000302019000080000408003203056070087030051040600800000002069501090047,625381794874965312319724586156478923293156478487239651942617835738542169561893247
200050430003206070058900000300000060190034500025109000400605108600000004007028690,261857439943216875758943216374582961196734582825169347439675128682391754517428693
007020064450307100000009500200708006010950030378400002000160005040005087060003240,937521864456387129821649573295738416614952738378416952782164395143295687569873241
070982046600000590000100000058090002020601003430008070084050019090073080300000704,573982146612734598849165237158397462927641853436528971784256319291473685365819724
520000704001020600007400009008046230090100060200538007070301090003807500160000008,529613784481729653637485129758946231394172865216538947872351496943867512165294378
604073900500002000010800020980001203400200760000065080150900047700038006009400130,624573918598612374317894625986741253435289761271365489153926847742138596869457132
500683009460000000032940007600008100003100006098700025000002098007030410010070050,571683249469257831832941567625398174743125986198764325356412798987536412214879653
200100000809074300060050204070001000300486501500730006054020690038000007600908100,245163789819274365763859214476591832392486571581732946154327698938615427627948153
008200005105006004003001700037020069000304080019065002502083001970010000000040926,748239615195876234623451798437128569256394187819765342562983471974612853381547926
006008100700930028030000709940005600800400205100000087000010340452009000071020906,296758134714936528538142769947285613863471295125693487689517342452369871371824956
305040008021900500680302009810405000000270040000000806062090030509017000140000067,395741628421986573687352419813465792956278341274139856762894135539617284148523967
070460000193200800600831000020605300080020700500010094064000030300074009009000021,278469153193257846645831972927645318481923765536718294864192537312574689759386421
001073580930006010040800300080050007400009062302140000000205600006930870500000040,621473589938526714745891326189652437457389162362147958874215693216934875593768241
906030018080400200003001950300705049008004036070300000700042000065000180020010074,956237418187459263243681957312765849598124736674398521731842695465973182829516374
109530640250009000000071800300650007087000420000047100020900010060300000841000306,179538642258469731436271859314652987687193425592847163723986514965314278841725396
007800000021040900000000563000200039008561040274030100003000002590020084010687005,357896421621345978849712563165274839938561247274938156783459612596123784412687395
064700000070065001003201000091320008000000036000574010028400093030800605500009204,164783529872965341953241867791326458245198736386574912628457193439812675517639284
013407005000023900000610087009708200062040000530900001200130500008004090370005400,913487625786523914425619387149758236862341759537962841294136578658274193371895462
800000726402001000500700090003005060700036401010904802150069070060840305020007000,891453726472691583536728194243185967789236451615974832154369278967842315328517649
080974000000500060720003580000006010240000095006430800300002706100807340500060100,685974231431528967729613584857296413243781695916435872398142756162857349574369128
410708050080020300600009000030012490050006800007040020000030082029005060760000013,413768259985421376672359148836512497254976831197843625541637982329185764768294513
350000097620040030001000860570900100004067300009081700060090005800270000000304610,358612497627849531941735862576923184184567329239481756463198275815276943792354618
009086000007000539043007001500000004010820900700053020400160807620900050008400200,159386742867241539243597681582719364316824975794653128435162897621978453978435216
049000700103002060650130200501060300000080000090705084002010030800040650000670920,249856713173492865658137249581964372724381596396725184962518437837249651415673928
006080271020000094309104600260019500050700000403508000104076003000000062000305807,546983271821657394379124685267419538958732146413568729184276953735891462692345817
008050107050046090103009200240030005901065300080007000000801406600020908037000000,498352167752146893163789254246938715971465382385217649529871436614523978837694521
200600050890025400050901003702000900060800070040013005100089067005234001380000002,231648759897325416456971283712456938563892174948713625124589367675234891389167542
200103007040020601093060805008700103900006000704010060400500090060300502015090408,286153947547928631193467825628749153951236784734815269472581396869374512315692478
070053080800200601030600009904020700051407000000081906709000153260040000000009004,176953482895274631432618579984326715651497328327581946749862153263145897518739264
040003026370100900000005100902040000000090753150836000006704080084020005590600002,841973526375162948629485137932547861468291753157836294216754389784329615593618472
408001096000450207000003000000617005001000400826000003604005700710008950300009012,458271396139456287267983541943617825571832469826594173694125738712368954385749612
050308009040000720007290060008060090902080031460000500004030002300506980700910040,256378419849651723137294865518763294972485631463129578694837152321546987785912346
400301209000000705200060080009200013075809600100050070080007390031046000926500000,457381269618492735293765481869274513375819624142653978584127396731946852926538147
200010054400670090368000002001400008600900307004803120003190070050000200907000580,279318654415672893368549712531427968682951347794863125823195476156784239947236581
390050076570600800000004090900006100100340205038020007000030608040501000852007040,391258476574693812286714593925876134167349285438125967719432658643581729852967341
002007908487060100100530000750000001620900780003084020069100302000003057000640000,532417968487269135196538274758326491624951783913784526869175342241893657375642819
020060051507021030089300000030090187408006500000003200093050760005400029700089000,324768951567921438189345672236594187478216593951873246893152764615437829742689315
000800109000560003870000004006003000040920600081400097004609258010702030090000040,465837129129564873873291564956173482347928615281456397734619258518742936692385741
060500208000740035900100000300007020049802570005010600001004006007030800028900340,764593218812746935953128467386457129149862573275319684531284796497631852628975341
001000300025970040040206905190300206000104030076092008607030000000008570008050100,961845327825973641743216985194387256582164739376592418657431892419628573238759164
000026030057080400400000102900003864830005000072900000086750201001000903740100050,198426537257381496463597182915273864834615729672948315386759241521864973749132658
754000001600000890000261000590070030006100940037620050100700004208400360000380002,754938621612547893389261475591874236826153947437629158163792584278415369945386712
609000020008050040020800316000503000012047008047206051700000400003091087950000060,679134825138652749425879316896513274512947638347286951781365492263491587954728163
300007268025400070081063000000340100000090036060002809210708005047001903000050700,394517268625489371781263594958346127172895436463172859219738645547621983836954712
000930720004001095030400600010670039005810400200004806061000058009306000800020000,156938724784261395932457681418672539695813472273594816361749258529386147847125963
800001270000050049009620300630407000000010900904830100006080705370002008410500020,853941276162753849749628351631497582587216934924835167296384715375162498418579623
069200041007809000510030070000500017004670509002004038000028050093000006800301200,369257841427819365518436972936582417184673529752194638641928753293745186875361294
000017000002640039104000005800002650003170200409006700000090080500200040071008360,395817426782645139164329875817932654653174298429586713246793581538261947971458362
084072000950006000000980603020509070706004910008000400340000700000410002105203860,684372159953146287217985643421569378736824915598731426342658791869417532175293864
650001000009720006084050300000400000005900072470802910540000060063008097100203080,652381749319724856784659321921475638835916472476832915548197263263548197197263584
500093080003006074062840010008571000206000003190000000840300095000450000007020068,514793682983216574762845319438571926276984153195632847841367295629458731357129468
019007400003510020000026000305700006800004093000085270604003050092048100000900080,219837465463519728758426319325791846871264593946385271684173952592648137137952684
802005913060007005105030800020600401704800030000090000403050070010040658900708020,872465913369187245145932867528673491794821536631594782483256179217349658956718324
100020006280900100064000080000050700027068301390100500403001002976030005800705040,139827456285946137764513289641359728527468391398172564453681972976234815812795643
060029803080000060004605100401058000702040308008070000200034900975000002003700610,167429853589317264324685179431958726752146398698273541216534987975861432843792615
000000500870106030403790002036400081002030960910500700090007000051008600000250004,129384576875126439463795812536479281742831965918562743294617358351948627687253194
309170002000502003010060904500200800000080040072019060905300100730006000486000009,359174682648592713217863954564237891193685247872419365925348176731956428486721539
070082001000600000184007005803050017600493000029000600050300420000100793002048050,976582341235614879184937265843256917617493582529871634751369428468125793392748156
000758906098001007004300200300000050009004012070186400900640000020005370513902000,132758946698421537754369281341297658869534712275186493987643125426815379513972864
027810560005007810300000000000059006010302490502640380000006708003400900470205000,927813564645927813381564279834759126716382495592641387259136748163478952478295631
000007930468001007003500108300620070800090046001008205009200000056003000100700052,512867934468931527973542168395624871827195346641378295789256413256413789134789652
039007501000030060004209000080000230013005047700860009050090080270054003006702010,839647521127538964564219378985471236613925847742863159451396782278154693396782415
710003000060940000003275064007619050240000009000300008008532900096007001400000087,714863295562941873983275164837619452241758639659324718178532946396487521425196387
650002940000500032780093100301600200004370065000004000520069073000040680900800000,653712948419586732782493156371658294294371865865924317528169473137245689946837521
000007892000600714000891000060250900015008006080009037670400300054020100009013060,136547892598632714247891653763254981915378246482169537671485329354926178829713465
063980700500000008190000020701840600000070905000325400832600570000700200906010040,263981754547263198198457326751849632324176985689325417832694571415738269976512843
600100720300005094070600801009800103402090007007014060280900000050060009000073450,648139725321785694975642831569827143412396587837514962284951376753468219196273458
370008506100090300089050071600310008005200043900006000008400005020067004000500730,374128596156794382289653471647315928815279643932846157798431265523967814461582739
000504790800000041040300060601005908030170004052009006100007003700028000009610020,316584792895762341247391865671245938938176254452839176124957683763428519589613427
000700004003000059005000618602340070090106000084009102008653200200000830706900000,861795324423861759975234618612348975597126483384579162148653297259417836736982541
405009702218047600006085030000052000027600004509008010004030000603000075080091300,435169782218347659976285431341952867827613594569478213154736928693824175782591346
