000700508240000000706034000583620904410085700000109030100000609095000120302008000,931762548248591376756834291583627914419385762627149835174253689895476123362918457
001807000304090005000006420008703010070000092500180300480302607000400039600005100,251847963364291785897536421948723516173654892526189374489312657715468239632975148
700000264480970000030010000053060001800200003002008900670830510500046080090005070,719583264486972135235614798953467821847291653162358947674839512521746389398125476
100509300360080004008006000900100580500730009006400200040800107050020006203071090,127549368365287914498316752974162583512738649836495271649853127751924836283671495
240509008500810970000030000020070050960004712001096040005620000603001095400000301,247569138536812974819437526324178659968354712751296843195623487683741295472985361
030840570000073090001000400580000640000290080407605000316020000020009138900500207,639842571254173896871956423582317649163294785497685312316728954725469138948531267
050407380840030960090002005200800001000070250605003049430100000000000120900065870,156497382842531967793682415279854631314976258685213749437128596568749123921365874
204000890900540301036700000040000070700030208800610500080091025003000100609420080,254163897978542361136789452341258976765934218892617534487391625523876149619425783
000030052090002010407018000008027900160859070000400000950706038800000407040001690,681934752395672814427518369538127946164859273279463581952746138816395427743281695
010904000604052070520001803107003400000070060052400180490000200000508010800030650,713984526684352971529761843167823495948175362352496187495617238236548719871239654
000100308005762100400900067096580010003070004700000200000003000980050600054601802,679145328835762149421938567296584713513276984748319256167823495982457631354691872
070008609500010027400096000091480000000000500380070064030851700907003408000040250,173528649569314827428796135691485372742639581385172964234851796957263418816947253
400000700060017009005830001900083062002401000078650000307009000200000540000128030,421965783863217459795834621954783162632491875178652394387549216219376548546128937
230809700000010249010070500063000000800500400579001360000207901050083000607004002,235849716786315249914672583463798125821536497579421368348267951152983674697154832
000900742020305098806000000000097005300100400089500076001000860908201307450003001,513968742724315698896472513642897135375126489189534276231759864968241357457683921
000000100803906200070020004000009050407105000906370008005603800042700001081054390,264537189813946275579821634128469753437185926956372418795613842342798561681254397
480000019000170530000000206907400000005007028100600905509023040012060397060000000,483256719296178534751349286927485163635917428148632975579823641812564397364791852
400050183000000609061340750813000020059204008000000500020009000300602007784001000,472956183538127649961348752813765924659214378247893561126479835395682417784531296
040090308002600040900010007380007104056030000001000800160009080090078230020504900,645792318712683549938415627389257164456831792271946853167329485594178236823564971
004859201060013009008040700051030020307006100040200006500004300003020670980000005,734859261265713849198642753651438927327596184849271536576184392413925678982367415
400080130000095002000307960070100250820053040906000001060000520530008400100006097,497682135613495782285317964374169258821753649956824371768941523539278416142536897
006240970300070204002508600100900500287030000009010043500021006401089002000600807,816243975395176284742598631134967528287435169659812743578321496461789352923654817
000900406609008520007050010018070060200306900000402031060005103590001802000200070,135927486649138527827654319318579264274316958956482731762845193593761842481293675
500003802609071000004090007050020003970408000001900040000200306030000250800060714,517643892629871435384592167458126973973458621261937548745219386136784259892365714
000209000800500697704030051060097300050100409000080000107800002930040018006020703,615279834823514697794638251261497385358162479479385126147853962932746518586921743
815400020240030069030700800009000203000950010000008705600021000070004001380090600,815469327247835169936712854459176283728953416163248795694321578572684931381597642
400800007009021060007049350600090042001300700080100500000030400234005008105007920,416853297359721864827649351673598142541362789982174536798236415234915678165487923
090000430150060000400703950309802070700000800010050002200079608006400513048006020,697285431153964287482713956369842175725391864814657392231579648976428513548136729
060000000900008400087050930200030000005006017610705802008090501400203089700004060,564379128932168475187452936279831654845926317613745892328697541456213789791584263
720500604000008001100670390960710008580060070340002009005040026000105400003090005,729531684634928751158674392962713548581469273347852169815347926296185437473296815
001030407506008901090700000207004500030607009984302000000200310018046020050800004,821539467576428931493761852267194583135687249984352176649275318318946725752813694
008090600403070000010605408004030050090146000000509260700008190059002300132060070,528493617463871529917625438684237951295146783371589264746358192859712346132964875
014800560760009020000507100020001004009030701570908030600002093800070000003605800,914823567765419328238567149326751984489236751571948236657182493892374615143695872
910030060205009004040100380109820030000060752006703010700500000803004000001000827,918437265235689174647152389179825436384961752526743918792518643863274591451396827
006080203050000070010400000740005109009108300300270060000030012008907640920506000,496781253853692471217453896742365189569148327381279564675834912138927645924516738
345060008000000013209040500607002800001008039500079600160300020082500070000096004,345761298876925413219843567697432851421658739538179642164387925982514376753296184
050080014010042803004900700098001070000760305300005000042008000030004698007056020,253687914719542863864913752598431276421769385376825149642198537135274698987356421
706005000102000005080070040200091037905380000000600004001200086800050410097018350,736945128142863975589172643264591837975384261318627594451239786823756419697418352
090000300040038070000704518104900700860000040930005162000002036200109000605480000,798651324541238679326794518154926783862317945937845162419572836283169457675483291
340090075050801030000030609500980040097600020002007013700000000180050207006004800,348296175659871432271435689513982746497613528862547913725168394184359267936724851
005800106000002080069700200000008030102073069047020000050000007630000094900651028,425839176713462985869715243596148732182573469347926851258394617631287594974651328
401900035005006200360104000500030078040000009900802000807600050230070096000040013,481927635795386241362154987526439178148765329973812564817693452234571896659248713
500420009038100050002000670000039006067001300000008245043080001600000000109057830,576423189938176452412895673854239716267541398391768245743982561685314927129657834
058200004000000370090040005107005080200007900004821060300080002040309710076500409,658273194421958376793146825167495283285637941934821567319784652542369718876512439
900640078002015400630000010001300092060507000803000000007860501050009020240000360,915643278782915436634278915571384692469527183823196754397862541156439827248751369
001807004500630000896100200072000008400210090000005300000083610965700800300040972,231897564547632189896154237172369458453218796689475321724983615965721843318546972
084036509000100600003800074045002180060470020390000000100045306009000802520090000,284736519957124638613859274745962183861473925392581467178245396439617852526398741
018009043400060201005000070070002100530970000000410038209800000056300804000200057,618729543497563281325184679874632195531978462962415738249857316756391824183246957
190480000070359802000000600000002568000940070380015000700020350036007001528000047,192486735674359812853271694941732568265948173387615429719824356436597281528163947
400050019001340200008690007600029004005100790320075080960002050004080000080000103,436257819791348265258691347617829534845136792329475681963712458174583926582964173
701002600800070005030086040904000100008050400620430097000009060160000302050023080,741592638896374215532186749974268153318957426625431897283719564169845372457623981
009005007032790040005041008070103005620000003400800210080900604510000900000076030,849635127132798546765241398978123465621459783453867219387912654516384972294576831
203040005004596003089000060000603027178002000000080150607028004030005610040000072,263841795714596283589237461495613827178952346326784159657128934932475618841369572
004570008060002010903006000000319065000000409580260070810000930007608004305090200,124573698768942513953186742472319865631857429589264371816425937297638154345791286
080532010042007030001000800010400700006053028007060903900300000024080067068071405,789532614642817539531694872813429756496753128257168943975346281124985367368271495
003600040650007003049000201200009810080063500000042037070918006500000090008034002,823691745651427983749385261236759814487163529195842637372918456514276398968534172
800000621050090300010080070980320000400001080302050096007000410000260500093704002,839547621756192348214683975981326754465971283372458196627835419148269537593714862
500062300000709000010400089000000020042805906630200014006031090008070503000000470,589162347364789152217453689891346725742815936635297814476531298128974563953628471
007802900005400000310006020078090500234001007001600300050007860040300709000065001,467812935825439176319756428678293514234581697591674382952147863146328759783965241
000000001500370080067024000790010030008500640005080029002000700004006310830009560,483965271529371486167824953796412835218593647345687129652138794974256318831749562
852004003006000001704908060100000300430520970060040080900307458000009200507100000,852614793396275841714938562175896324438521976269743185921367458683459217547182639
000407032054000000007251098006040003500980107010000260023700900800000675040090000,189467532254839716367251498976142853532986147418573269623715984891324675745698321
038020040020100693009540810500000380000496000700000029002308700060050200051004060,138629547425187693679543812594712386283496175716835429942368751867951234351274968
050300010802007005304800060040609050000003007108200409905004100230100004070006890,657342918812967345394851762743689251529413687168275439985734126236198574471526893
200070030649000000000204510590008700380950420060010000100002008050043090003700046,215879634649531872738264519591428763387956421462317985174692358856143297923785146
029700603500080010007304200090010800012600900300905004783040500000002001050060097,829751643534286719167394258695417832412638975378925164783149526946572381251863497
050090200093600410020873000060300040304002008207001005170450906009000000600030570,756194283893625417421873659965387142314562798287941365172458936539716824648239571
010480079206001000000507300100390850048020003500000200607000508003056002000200904,315482679276931485984567321162394857748625193539718246627149538493856712851273964
034007000500400600000010020602900807003100050058620030060003012100700089089050704,234567198591482673876319425612935847943178256758624931467893512125746389389251764
007060001200910040308540600090003705500294003800000010420800009750000080000605032,947368251265917348318542697694183725571294863832756914426831579753429186189675432
280030000079684000001900300500000200400102069008060071090805007065000420003070010,284531796379684152651927384516798243437152869928463571192845637765319428843276915
710020405900030000008460790030140600054073008009005002067800100200090000005000836,713928465946537281528461793832149657654273918179685342367854129281396574495712836
700302050810007006509400010007190340003005000160000708620030500004581002000000073,746312859812957436539468217287196345493875621165243798621739584374581962958624173
006092000941005800028000305400008700070600130090350048010000004500021060030986070,356892417941735826728164395463218759875649132192357648619573284587421963234986571
790403600025900001006080070000005080200098030308201004010700006604009002970010050,791453628825967341436182579169345287247698135358271964513724896684539712972816453
004700003000021007206350910080000000003006109419800205090078500507060002002490300,154789623938621457276354918685912734723546189419837265391278546547163892862495371
401000000005610003037420600090305700080000095700200184340900010000530468000708200,461853972925617843837429651194385726682174395753296184348962517279531468516748239
000081090040050281005000304000203600610790000029060045000020030850009470730810006,263481597947356281185972364578243619614795823329168745496527138851639472732814956
009870060080002074002009003460020095037015000800634007010000086004003209000040000,349871562186352974752469813461728395237915648895634127513297486674183259928546731
004610000213500800580720090300004000068000540007390200002080010100000708005900406,794618352213549867586723194321854679968172543457396281632487915149265738875931426
002000000060040870004397001890060053000080102037010400900005060100900248600074500,712658934369241875584397621891462753456783192237519486948125367175936248623874519
050040700702300406000501028980700030200009500504210060063000905000430207100080000,358642791712398456649571328986754132231869574574213869463127985895436217127985643
284005100100000040005300007300084029009060054000700030520010096901032408070008000,284975163137826945695341287356184729719263854842759631528417396961532478473698512
903042000400009013250010004320680900000000080065900007080076040109053006007004105,913742568478569213256318794324687951791435682865921437582176349149253876637894125
200090000068013000000004853000700630530008071104020000020000480901075002347600900,253897146468513729719264853892751634536948271174326598625139487981475362347682915
300008600001207400060100570690400000000000805040325901409812000002006000710090083,374958612951267438268143579695481327123679845847325961439812756582736194716594283
008190000460302000000070540100005060024830710070060009201500900000003407005900028,358194672467352891912678543189725364624839715573461289241587936896213457735946128
000020003009150680362008400020007348085064007700209001593000200600000050000070109,851426793479153682362798415926517348185364927734289561593841276617932854248675139
200010039008632070070040600010405098005901000600070400053700800000006001904028003,246817539598632174371549682712465398435981267689273415153794826827356941964128753
000590840006400000000007903105600308030048000070009210500004072062810000910003500,327596841896431725451287963145672398239148657678359214583964172762815439914723586
400012009020000080581300604000008043370640000009020705008050091005001802200709030,467812359923564187581397624156978243372645918849123765738256491695431872214789536
005006083030905700017000600000782004060003920804010000006040095900500002070308406,495176283638925741217834659359782164761453928824619537186247395943561872572398416
490706003036000080021054000070600502008021047000530860200010030500000914004809050,495786123736192485821354679173648592658921347942537861269415738587263914314879256
009180430004075200210400000340000600702059008800206050053097000006000017020830009,579182436634975281218463975345718692762359148891246753153697824986524317427831569
048200961000005003003840700902706340000020070080109005030000000100680007054007290,548273961271965483693841752912756348365428179487139625736592814129684537854317296
000000001007690050056003074103009008040005097580201000490010002200007605060080430,324758961817694253956123874173469528642835197589271346495316782238947615761582439
021700930009004851050060000938010075000002683070050400047603008005000100200000090,421785936769234851853169742938416275514972683672358419147693528395827164286541397
020000104807003000095006080000700430600012900082040005003905001900080760470600200,326857194847193526195426387519768432634512978782349615263975841951284763478631259
600502073100086240900000000005109020370008001000740308026000700080360050000054089,648512973137986245952473816865139427374628591291745368526891734489367152713254689
070150400309040820020300007004090010001027003500603008706000094100000600042508370,678152439319746825425389167234895716861427953597613248786231594153974682942568371
