030970012070406908800050006009042005010000400000537060748200300600003080020010050,436978512175426938892351746369142875517689423284537169748265391651793284923814657
400082306000000007782065010050408000001030000600029103048050069290006000005071208,419782356536194827782365914953418672821637495674529183148253769297846531365971248
024010390100000006597040100900806007050092030003005024000320860080000000210907050,624718395138259746597643182942836517751492638863175924475321869389564271216987453
065170080417508030200000000089740005053012900600003007900030160820400070000600004,365179482417528639298364751189746325753812946642953817974235168826491573531687294
700040901560020070030000850600001004000906520000370600800400100042805090003017008,728543961569128473431769852697251384314986527285374619876492135142835796953617248
006097010780000200900540000040800050602019030803700001004180709300002400070650000,436297518785361294921548376147836952652419837893725641564183729318972465279654183
050060780130800024900000100001405300023081006590002007047200530000093040080500001,452169783136857924978324165861475392723981456594632817647218539215793648389546271
000490000145200000002005700800000304060300170009600852030060007470001026200080930,783496215145273698692815743827159364564328179319647852931562487478931526256784931
050206700040000608701098023005030460002507301800100970413680000906001050080000000,358216749249753618761498523175839462692547381834162975413685297926371854587924136
009070400083000010600800520002003941000069070038400200004051030500040006010702800,259176483483925617671834529762583941145269378938417265894651732527348196316792854
600000090058043200027050000000039452502060013100700000300800007804006300079004800,631287594958643271427951638786139452592468713143725986365892147814576329279314865
407020100000396000005400080000104397800000000104763005059000601002070900680500030,437825169218396574965417283526184397873952416194763825759238641342671958681549732
400000710510003009709006302090200005801600043004800600000907000235008001006001024,463592718512783469789146352697234185851679243324815697148927536235468971976351824
000000810060780003904500200007164520405308006000005070040010750730906001108000009,273649815561782943984531267397164528425378196816295374649813752732956481158427639
500910067609002050070004008000160090032807000008500040010030200043090586706000004,524918367689372451371654928457163892932847615168529743815436279243791586796285134
000495100087000000045270039000030705009100320860020001651700090032980070000006004,326495187987613452145278639214839765579164328863527941651742893432981576798356214
007002003010040050620930080040005891080070000000600502004097100800210460003460007,497852613318746259625931784746325891582179346931684572264597138879213465153468927
020900857090040000001280000260050380004006095000870100000400900710002040800063510,426931857598647231371285469267159384184326795935874126652418973713592648849763512
030020506840500001902008070105002008070010400080306097000037200009400060460000003,731924586846573921952168374195742638673819452284356197518637249329481765467295813
904063001600090853020000090800710000203000060060205704080004902000580037701600000,954863271617492853328157496845716329273948165169235784586374912492581637731629548
030008000007060049009245100005102300640000080200670090900410600002900008010003075,134798256527361849869245137795182364641539782283674591958417623372956418416823975
009060080801704005305100206090310070006005890420006000053907100000008407000200360,249563781861724935375189246598312674136475892427896513653947128912638457784251369
008071029500300600094000078000803701000007050042610890370590060205000000060000180,638471529527389614194256378956823741813947256742615893371598462285164937469732185
000600340320807000510000009007002008060504270180000005000060090840310600079045010,798651342324897156516423789457132968963584271182976435231768594845319627679245813
805000679960050430000001000590023000700005280301000040600382700000600050034017090,815234679962758431473961528598423167746195283321876945659382714187649352234517896
001200970090780243300060000650908001900046507038000000060000430080125009070030005,841253976596781243327469158654978321912346587738512694165897432483125769279634815
095200040304060800060010937003000018502003004070004009001029000429000700800506000,795238146314967852268415937943672518582193674176854329651729483429381765837546291
000807000620000001079600452306050000107080090000409106000000023054102080008765900,415827369623594871879613452396251748147386295582479136761948523954132687238765914
040207008250009600030800015000004700003760150019000004500002030004081072600390400,146257398258139647937846215865914723423768159719523864581472936394681572672395481
300020064104030009059000700503801670062700000000900085000085400410006098207100030,378529164124637859659418723593841672862753941741962385936285417415376298287194536
001009675900080000500640002705003000026000903390120000000300408000900701218570300,841239675962785134537641892785493216126857943394126587679312458453968721218574369
050690030001700200240000009000000560008230004430005700700010398000804005600920107,857692431391748256246351879172489563568237914439165782724516398913874625685923147
206008070070600500000004903309006800850007040000020109010082090630501004048703005,296358471473619528185274963329146857851937642764825139517482396632591784948763215
030060105040802000500170604680020790009400000315600008008039002900000070020081400,837964125146852937592173684684325791279418356315697248468739512951246873723581469
000906013080001700096038204030029100027000300050087000004000070210000008075400092,742956813583241769196738254638529147927164385451387926364892571219675438875413692
030000095000810004200700600042001000705400001980006070000030560158020000670049200,837264195596813724214795683342971856765482931981356472429138567158627349673549218
001802950000096003804500100700005400012400000305000086070020090060381020400900030,631842957257196843894573162786235419912468375345719286173624598569381724428957631
024300090700000015600780320005604280800050000941003070400009000580000047090070153,124365798738942615659781324375694281862157439941823576417539862583216947296478153
385400900000230080060000100009750018001900200070040030400809000050074002003120670,385417926914236785762598143639752418541983267278641539427869351156374892893125674
000900786003208000040570000600097400100800090085004103207086035009002004000310060,521943786793268541846571329632197458174835692985624173217486935369752814458319267
070000010024007365805004907300089000048000009000635001037050200600020100050900083,973562418124897365865314927316489572548271639792635841437158296689723154251946783
006427080090050060000008140002006309070541800018030000200000470005980000300064002,136427985894153267527698143452876319973541826618239754269315478745982631381764592
506700092090040380002100040010080500200005637470020000008500470300094200060003008,546738192791642385832159746613987524289415637475326819928561473357894261164273958
280000000061007009093080500504200600600000027007104003350600701900005806000098040,285936174461527389793481562534279618619853427827164953358642791942715836176398245
000150970296008000500024003040289500060000040800060201001090008075000304030005106,384156972296378415517924683143289567762531849859467231421693758675812394938745126
000036190040108007305900000009000502000087000263400071608009205070010080004050060,827536194946128357315974628789361542451287936263495871638749215572613489194852763
100090702472100006009008050005600023080010000060924000010569040004030800790000300,158496732472153986639278451945687123287315694361924578813569247524731869796842315
230004807009005600050308910007062005000000100364000080670903000085040000410000702,231694857849175623756328914197862435528439176364751289672913548985247361413586792
085063100070000000006000390700008004002790608100345009031080050420500070000912060,985263147374159286216874395793628514542791638168345729631487952429536871857912463
009681002400003010000002709070000038025007104801050000006379800500460000090200067,759681342482793615163542789974126538625837194831954276246379851517468923398215467
080001090206005708091000004000462800830050009407030020000970230504003000900008106,385741692246395718791286354159462873832157469467839521618974235524613987973528146
000560400708300001300109820003000000520000640090810000006002080400690357157403009,219568473768324591345179826873246915521937648694815732936752184482691357157483269
206000008000460000710005030090008273000610809408907500050002467900804001020030000,246379158385461792719285634691548273572613849438927516853192467967854321124736985
030097050001000430569410020100050800008370190203060004000940007070602010820000006,432897651781526439569413728147259863658374192293168574316945287974682315825731946
306070005842005000000300100450100280000700300009862054000040803704209061690000070,316478925842915637975326148457193286268754319139862754521647893784239561693581472
020750030501030000036800004000297500400000623080003900700060000009001862050420071,824756139571934286936812754163297548497185623285643917712368495349571862658429371
090000057310054000800610302576000080000007094000206005060100400241098000005000930,694823157312754869857619342576941283128537694439286715963175428241398576785462931
093002800005670010470000002106200040000758000700100029000041000000800304280530970,693412857825679413471385692156293748942758136738164529367941285519827364284536971
600010020003004006070009030907030005002000017850006400400560300039072001010090580,685317924193284756274659138947138265362945817851726493428561379539872641716493582
300020407680000050024097000000901000900086103008750046050040080041000790200500610,319825467687314259524697831462931578975486123138752946756149382841263795293578614
090067000800430000200805430500709100064300090020010800000080910307046205005001006,493167528851432679276895431538729164164358792729614853642583917317946285985271346
500080607060020384010600002000000090906078000370009025203000100008740503007091040,532984617769125384814637952485213796926578431371469825243856179198742563657391248
081007000000520400570003900102049805000076004300050200423080701006000009005102300,281497653639528417574613982162349875958276134347851296423985761816734529795162348
000500040000080509060493021050206003901000400032070800010060000380005297024800100,193527648247681539865493721458216973971358462632974815519762384386145297724839156
700105200409060031600020000503702010940030008000900000006408070070001305102600809,738145296429867531615329487563782914941536728287914653396458172874291365152673849
002060509039710600000000010000089001371002080040500300600408003005006270180200050,712864539839715624564923817256389741371642985948571362627458193495136278183297456
100004903027009500409856020000040000003100080845730000306520000900060701070900200,158274963627319548439856127291648375763195482845732619316527894982463751574981236
706904008400200000390000007000600900030078540058040016500000209042003100017560000,726914358485237691391856427174625983639178542258349716563481279842793165917562834
000851300208700050010000067407003000000590480065200090130062500006040920080000004,679851342248736159513429867497683215321597486865214793134962578756348921982175634
100070003608023007000401800060048900020006030041790050907050006502000471030000020,194875263658923147273461895765348912829516734341792658917254386582639471436187529
905081020201007000070002046002176930080000000000430510800520069504000080030000007,945681723261347895378952146452176938183295674796438512817523469524769381639814257
007010052410070069039006040000308470050009206700002080006800001200400000008605030,687914352412573869539286147921368475853749216764152983346897521275431698198625734
031760080509000000060004102015090003604031020900807000002015740400003050000080906,231769584549128367768354192815296473674531829923847615392615748486973251157482936
002040003600000050050002791900501048060700009400820100001003605843000000070098002,712945863689317254354682791927561348168734529435829176291473685843256917576198432
803000020050103900090004506072690000000040705001780600035000000600079103400200857,863957421254163978197824536572691384986342715341785692735418269628579143419236857
000050600001800023060047908203700400900026830007005001348002005000000709090614000,839251674471869523562347918213798456954126837687435291348972165126583749795614382
435000206010042300700000008907001800240790100000600000800005090000029735000103402,435987216618542379792316548957231864246798153381654927823475691164829735579163482
000408300069100000050300719682000004000702001003809060508000200091057003070903040,127498356369175428854326719682531974945762831713849562538614297491257683276983145
500791420060000000000200318050009600000350000401008070004900705620003080870040093,583791426162834957947265318758419632296357841431628579314982765629573184875146293
109802600046030007230001000700500040018000900003784106000040300020357090000006001,159872634846935217237461589762519843418623975593784126975148362621357498384296751
014062090000000013020087005860750030001040500090200001049520680300900002007000040,514362798678495213923187465862751934731849526495236871149523687386974152257618349
005739000860204090000600020030090801617005300084000052700010900050040036203500007,425739168861254793379681524532496871617825349984173652746312985158947236293568417
096007010340900800700410002400050007007640081082300400100500908900702000003000065,296837514341925876758416392419258637537649281682371459174563928965782143823194765
000009460900180205030076000470600900052010008103200070020030790300005001080400600,815329467967184235234576189478653912652917348193248576526831794349765821781492653
300000000197530000000760002030000840560190700204080900700920601000600054050008390,326841579197532468485769132931257846568194723274386915743925681819673254652418397
000009360160380002050020080020036050000004009391000700700400800800700914500012000,278549361164387592953621487427936158685174239391258746716493825832765914549812673
089062040206410800070000603600509004005020900100834000000700581054100700003008090,589362147236417859471985623628579314345621978197834265962743581854196732713258496
002005080100730009090080070600000003050340020080007010300200048007000296409018005,732965481148732569596184372674821953951346827283597614365279148817453296429618735
040000200000358000608401090030006100004839607850002040020015006003060001701900005,345697218192358764678421593937546182214839657856172349429715836583264971761983425
000203000510807000200000637058030000104900208760150900026004070000000021300700804,647293185513867492289541637958432716134976258762158943826314579475689321391725864
024705006600800152000000070006003005180290040370000610040580900700024031009030800,824715396637849152951362478496173285185296743372458619243581967768924531519637824
020037400900506001006800050409058007030402610000070009708009023063000100005040080,521937468984526371376814952419658237837492615652371849748169523263785194195243786
300800197000090040706002000050307000900586004002000800030058960001000030840601072,324865197185793246796142385458327619913586724672914853237458961561279438849631572
070005830000804060310020009090072048000000005007480320706000504051903700080006010,674195832925834167318627459193572648842361975567489321736218594251943786489756213
100074080000901400050023090000000360870000049060052007607030200090800100014060070,129574683736981425458623791541798362872316549963452817687139254295847136314265978
803100002019504860070000030060071083300000900040200050002049570080000600001026008,853167492219534867476982135965471283327658914148293756632849571784315629591726348
020700060005004090700003102200005400040001900803009075060900307304800020970506810,421798563635124798789653142296375481547281936813469275168942357354817629972536814
504070028970004100001530000000020780090300060850100340300009270000600000180002905,534971628978264153261538497613425789492387561857196342345819276729653814186742935
000005040602710083900203100490030700001080250080009060807040006360907001010000030,173895642652714983948263175496532718731486259285179364827341596364957821519628437
098000076300508090260400000040001500710000008059320040000070912000805604130200700,598132476374568291261497853643781529712954368859326147485673912927815634136249785
